﻿true_name,c1_species,c2_species,c3_species
End,End,End,End
Zebra,Zebra,Zebra,Zebra
Impala,Impala,Impala,Impala
Warthog,Warthog,Warthog,Warthog
Kudu,Kudu,Kudu,Kudu
Waterbuck,Waterbuck,Waterbuck,Waterbuck
Giraffe,Giraffe,Giraffe,Giraffe
Buffalo,Buffalo,Buffalo,Buffalo
Tsessebe,Tsessebe,Tsessebe,Tsessebe
mh,mh,,
Eland,Eland,Eland,Eland
Ostrich,Ostrich,Ostrich,Ostrich
White Rhino,White rhino,,White Rhino
Sable,Sable,Sable,Sable
Wildebeest,Wildebeest,Wildebeest,Wildebeest
Lion,Lion,,Lion
Ground Hornbill,Ground hornbill,,Ground Hornbill
Steenbuck,Steenbuck,Steenbuck,Steenbuck
White Rhino (calf),wrk,,
Duiker,Duiker,Duiker,Duiker
Crocodile,Crocodile,,
vs,vs,,
Secretary Bird,Secretary bird,,
Impala Carcass,Impala carcass,,
Elephant,Elephant,Elephant,Elephant
sw,sw,,
Black Rhino,Black rhino,Black Rhino,Black Rhino
Bushpig,Bushpig,,
Nyala,Nyala,,Nyala
Lichtenstein's Hartebeest,Lichtenstein's H,Lichtenstein's,Lichtenstein's H
Reedbuck,Reedbuck,Reedbuck,Reedbuck
Roan,Roan,,Roan
White Rhino (MZB),,,WRhino in Mozambique
Rhino,,Rhino,Rhino
Elephant Carcass,,,Elephant carcass
Klipspringer,,,Klipspringer
