"","SITE_NO","SECT","X_COORD","Y_COORD","LSCAPE"
"1",101,"PRE",31.2618330001863,-25.0877159795854,1
"2",102,"PRE",31.2814000007585,-25.0288999733515,1
"3",103,"PRE",31.2655329998596,-25.0543659750846,19
"4",104,"PRE",31.2353499999643,-25.1001329790432,1
"5",105,"PRE",31.2091000000977,-25.115149975227,1
"6",106,"PRE",31.2338329998628,-25.1369999742765,1
"7",107,"PRE",31.2895170007517,-25.134615972857,1
"8",108,"PRE",31.2187000006349,-25.1607659736344,1
"9",109,"PRE",31.2842499998786,-25.1532499724871,1
"10",110,"PRE",31.2602830005091,-25.2165999780337,1
"11",111,"STO",31.2899999997108,-25.2517999811296,1
"12",112,"STO",31.2768000002277,-25.3045999725111,1
"13",113,"STO",31.2997000002572,-25.3401999753504,1
"14",114,"PRE",31.3064500005031,-25.2369829773007,1
"15",115,"PRE",31.2687329998742,-25.1562499801849,1
"16",116,"PRE",31.2756170003347,-25.0284999723744,19
"17",117,"PRE",31.2656670005848,-25.1790829783143,1
"18",118,"PRE",31.2371999999269,-25.098782974228,1
"19",201,"PRE",31.3377669999256,-25.2289999740104,2
"20",202,"STO",31.3207000000996,-25.2689999759726,2
"21",203,"STO",31.3214000002148,-25.2955999763509,2
"22",204,"STO",31.3634000007563,-25.3255999726675,2
"23",205,"STO",31.4054000004205,-25.2659999783035,2
"24",206,"STO",31.329099999846,-25.3452999795981,2
"25",207,"STO",31.3325000002223,-25.3731999748823,2
"26",208,"STO",31.3859000006363,-25.3970999789386,2
"27",209,"STO",31.3738999998621,-25.4309999786732,2
"28",210,"MAL",31.4868329997749,-25.4624329747898,2
"29",211,"STO",31.4875000003377,-25.4236999757572,2
"30",212,"STO",31.4623999997901,-25.3444999783771,2
"31",301,"PRE",31.3313330006341,-25.0810659772459,3
"32",302,"PRE",31.3564170004326,-25.1263329802682,3
"33",303,"PRE",31.3562000003963,-25.1486499743509,3
"34",304,"STO",31.4183000007391,-25.1655999736222,3
"35",305,"SKZ",31.4759999997505,-25.1509999765034,3
"36",306,"SKZ",31.5267829998254,-25.1422159781771,3
"37",307,"STO",31.5069000006851,-25.2185999759056,3
"38",308,"MAL",31.4997499998841,-25.2427159764628,3
"39",309,"STO",31.4868999998791,-25.2566999784912,3
"40",310,"STO",31.4185999998752,-25.20029997742,3
"41",311,"SKZ",31.5473169998839,-25.1017999809243,3
"42",312,"SKZ",31.5664669998773,-25.119932974879,3
"43",313,"SKZ",31.5553500005045,-25.1388329788434,3
"44",314,"MAL",31.5624670004703,-25.2387499760397,3
"45",401,"SKZ",31.3635000003954,-25.0288329774682,4
"46",402,"SKZ",31.3862330005894,-25.0241329752315,4
"47",403,"SKZ",31.4524330002818,-25.0121999757401,4
"48",404,"SKZ",31.4916829999425,-24.9958999812802,4
"49",405,"SKZ",31.5372829997609,-24.9915999732755,4
"50",406,"SKZ",31.3856829997206,-25.0445499801517,4
"51",407,"PRE",31.3862829997843,-25.0733659788762,4
"52",408,"SKZ",31.4225670001701,-25.0611829760724,4
"53",409,"SKZ",31.4917829999072,-25.024182977705,4
"54",410,"SKZ",31.5155669998696,-25.0638159736642,4
"55",411,"SKZ",31.5494670002134,-25.0276499734893,4
"56",412,"SKZ",31.552633000325,-25.0625499750394,4
"57",413,"SKZ",31.545333000477,-25.0830329806713,4
"58",414,"SKZ",31.6157329997862,-25.0699499797333,4
"59",415,"SKZ",31.7020000002171,-25.0409999756066,4
"60",416,"TSH",31.7098330006862,-24.9391499725163,4
"61",417,"TSH",31.6469999998018,-24.9517829753,4
"62",418,"SKZ",31.6739999999972,-24.9869999738475,4
"63",419,"SKZ",31.7639999997841,-24.9929999777481,4
"64",420,"SKZ",31.7980000005888,-25.0539999786246,4
"65",421,"OSA",31.7478999998395,-25.0957159780085,4
"66",422,"SKZ",31.6860830004635,-25.1226329765815,4
"67",423,"OSA",31.8356669998996,-25.1263499765049,4
"68",424,"KRO",31.8011499997194,-25.1544999735856,4
"69",425,"OSA",31.7512999997493,-25.175465977601,5
"70",426,"KRO",31.8065830002247,-25.2714499723741,4
"71",427,"KRO",31.7184830000837,-25.2252159734386,4
"72",428,"MAL",31.7196499998773,-25.3190499739134,4
"73",429,"MAL",31.7250670003861,-25.349115976038,4
"74",430,"MAL",31.7047500000702,-25.3792499728483,4
"75",431,"KRO",31.7499999997781,-25.3025829795153,4
"76",501,"MAL",31.5193499998726,-25.3155829794886,5
"77",502,"STO",31.4518330002158,-25.3016829788388,5
"78",503,"MAL",31.5784000003325,-25.3230829806802,5
"79",504,"MAL",31.5819500002088,-25.3514999809914,5
"80",505,"KRO",31.624433000438,-25.2451159779183,5
"81",506,"KRO",31.6219830003004,-25.2015829768662,5
"82",507,"KRO",31.5517669996868,-25.207815979614,3
"83",508,"SKZ",31.6116830001133,-25.1495829765874,5
"84",509,"SKZ",31.6285670005564,-25.137065979849,5
"85",510,"KRO",31.7456329999325,-25.1815329806643,5
"86",511,"OSA",31.751299999993,-24.915265977944,5
"87",512,"TSH",31.7152999999663,-24.9137999733071,5
"88",513,"TSH",31.6659999999769,-24.8970499777795,5
"89",514,"TSH",31.6328499999712,-24.873149973702,5
"90",515,"TSH",31.6334329997291,-24.787282977907,5
"91",516,"TSH",31.6518000000121,-24.8170999799069,5
"92",517,"TSH",31.6895670004864,-24.8002829755881,5
"93",518,"TSH",31.755033000307,-24.8659159757,5
"94",519,"TSH",31.7404999996881,-24.7669659789951,5
"95",520,"TSH",31.6549670003858,-24.7842159752951,5
"96",521,"TSH",31.648567000248,-24.743482980613,5
"97",522,"TSH",31.6836000003753,-24.7406499762781,5
"98",523,"TSH",31.6590830001788,-24.7165499766071,5
"99",524,"TSH",31.6560330006375,-24.6911499785425,5
"100",525,"TSH",31.6757330005613,-24.6664329787281,5
"101",526,"TSH",31.6755500000766,-24.6495829766001,5
"102",527,"SAT",31.7277000006515,-24.6070999763213,5
"103",528,"KFI",31.5804670003179,-24.5708999734804,5
"104",529,"KFI",31.5511500000572,-24.5345829733427,5
"105",530,"KFI",31.4914330002593,-24.5193159732078,5
"106",531,"KFI",31.6371670005574,-24.5193829735166,5
"107",532,"SAT",31.6480000003549,-24.5509999743001,5
"108",533,"SAT",31.6910000000524,-24.5059999757138,5
"109",534,"SAT",31.6619999999727,-24.4949999730994,5
"110",535,"KFI",31.6096330002616,-24.4715659733324,5
"111",536,"KFI",31.5829500001784,-24.4731499741714,5
"112",537,"KFI",31.4934000002251,-24.4625659788711,5
"113",538,"KFI",31.5455000006049,-24.4339659807394,5
"114",539,"KFI",31.513500000534,-24.4189999745171,5
"115",540,"KFI",31.5671329998392,-24.3458999730773,5
"116",541,"SAT",31.6170000005499,-24.2699999811455,5
"117",601,"HOU",31.5763000006083,-24.1205999739481,6
"118",602,"HOU",31.5469170004245,-24.1233829732109,6
"119",603,"HOU",31.5430329997297,-24.1617659803549,6
"120",604,"HOU",31.602249999866,-24.1842829758127,6
"121",605,"HOU",31.5920000002916,-24.2469999819009,6
"122",606,"HOU",31.4940000003811,-24.2139999806274,6
"123",607,"HOU",31.4720000004659,-24.2639999758349,6
"124",608,"KFI",31.5334330004113,-24.2611659767748,6
"125",609,"HOU",31.4660000000186,-24.3059999815029,6
"126",610,"KFI",31.5200500000162,-24.2948659819143,6
"127",611,"KFI",31.4535170005274,-24.3296829747257,6
"128",612,"KFI",31.3775958458453,-24.4304937474328,6
"129",701,"HOU",31.513267000319,-24.1052329781922,7
"130",702,"HOU",31.5469330003003,-24.0804829760134,7
"131",703,"HOU",31.4942500006734,-24.1049499738461,7
"132",704,"OLI",31.5516670002956,-24.0312999798411,7
"133",705,"OLI",31.467533000466,-24.0168829787516,7
"134",706,"OLI",31.3848000001585,-24.0249999743854,7
"135",707,"PHA",31.3112670006321,-24.043232976054,7
"136",708,"PHA",31.2881830003616,-23.9947329793483,7
"137",709,"LET",31.3878000000682,-23.9816999786781,7
"138",801,"PHA",31.2421830003818,-23.8194659775559,8
"139",802,"PHA",31.2679999997845,-23.8679999769361,8
"140",803,"PHA",31.2001330000676,-23.8571829796752,8
"141",804,"PHA",31.1908170000178,-23.8524329734777,8
"142",805,"PHA",31.2147669999007,-23.9276499772174,8
"143",806,"PHA",31.2461000005619,-23.8935829810939,8
"144",807,"PHA",31.3060000000712,-23.9189999807285,8
"145",808,"PHA",31.3403000003145,-23.9291999767267,8
"146",809,"LET",31.3686000000337,-23.9393999738458,8
"147",810,"LET",31.4839000003947,-23.9468999733111,8
"148",901,"PHA",31.1928330005247,-23.7450329813823,9
"149",902,"PHA",31.2071830002774,-23.7437659787832,9
"150",903,"PHA",31.1568670006307,-23.7917499813765,9
"151",904,"PHA",31.2010000000371,-23.8319999800536,8
"152",905,"PHA",31.2503170003941,-23.7970829763917,9
"153",906,"PHA",31.2951000004913,-23.8187659815524,9
"154",907,"PHA",31.2592000003742,-23.8605999756412,8
"155",908,"PHA",31.3625000002019,-23.8418999789498,9
"156",909,"PHA",31.4044000002454,-23.8738999740882,9
"157",910,"PHA",31.4330000004571,-23.8659999807925,9
"158",911,"LET",31.490800000083,-23.8282999763949,9
"159",912,"LET",31.4777999999823,-23.874699978026,9
"160",913,"LET",31.5383000006112,-23.9188999740581,9
"161",914,"LET",31.5106000005744,-23.8702999759903,9
"162",1001,"MAH",31.0919500000049,-23.4899999821929,10
"163",1002,"MAH",31.072217000354,-23.4841659766954,10
"164",1003,"MAH",31.1355499997846,-23.5586159813263,10
"165",1004,"MAH",31.1377830005186,-23.603049981379,10
"166",1005,"PHA",31.1453330001153,-23.663582974462,10
"167",1006,"MAH",31.1716670005163,-23.6933329739909,10
"168",1007,"MAH",31.2208330005751,-23.6583329764267,10
"169",1008,"MAH",31.2388830004087,-23.7094499786703,10
"170",1009,"MAH",31.3030500002256,-23.6788829795434,10
"171",1010,"MAH",31.332782999906,-23.7133329733425,10
"172",1011,"MAH",31.3127830001573,-23.6236159739014,10
"173",1012,"MAH",31.3655500004934,-23.5855499744668,10
"174",1013,"MAH",31.3744500001369,-23.6183329745695,10
"175",1014,"MAH",31.4330000005679,-23.6529999800437,10
"176",1015,"MAH",31.3648329999537,-23.6821999773759,10
"177",1016,"MAH",31.3708000002854,-23.7455329759329,10
"178",1017,"PHA",31.409000000588,-23.7889999744097,10
"179",1018,"PHA",31.4370000004857,-23.7919999766378,10
"180",1101,"SHA",30.9438830000051,-22.9566659798529,11
"181",1102,"SHA",30.929799999831,-23.0629999778727,11
"182",1103,"SHA",31.1130000004369,-22.9709999826768,11
"183",1104,"WOO",31.2472500006048,-23.0333659826551,11
"184",1105,"SHA",30.9914670006265,-23.1710499809195,11
"185",1106,"SHA",31.0317500006368,-23.1732999780727,11
"186",1107,"WOO",31.0830500001618,-23.1514499799275,11
"187",1108,"WOO",31.1942500001563,-23.16791597962,11
"188",1109,"WOO",31.2427500004363,-23.2009499753986,11
"189",1110,"WOO",31.0953669997692,-23.2259499794903,11
"190",1111,"MAH",31.1239499999434,-23.4610499748085,11
"191",1112,"SHA",31.1024999998351,-23.2791659818019,11
"192",1113,"SHA",31.1144500002459,-23.3173829805259,11
"193",1114,"WOO",31.1591669998321,-23.2880829813326,11
"194",1115,"WOO",31.2048829998974,-23.2679999786146,11
"195",1116,"WOO",31.2438000003003,-23.282332978094,11
"196",1117,"WOO",31.2173830002131,-23.318499974203,11
"197",1118,"SHA",31.1019499997534,-23.3663829810237,11
"198",1119,"MAH",31.1365000002612,-23.4004499765304,11
"199",1120,"WOO",31.1868000005689,-23.3492829748499,11
"200",1121,"WOO",31.214300000559,-23.385549973735,11
"201",1122,"WOO",31.2884670003634,-23.3877499786541,11
"202",1123,"MAH",31.2785830003576,-23.4646999809394,11
"203",1124,"MAH",31.2866170005192,-23.490199980789,11
"204",1125,"MAH",31.2659670005037,-23.5510329766165,11
"205",1126,"MAH",31.2840000002082,-23.5989999740806,11
"206",1127,"MAH",31.1910830006318,-23.5475499824204,11
"207",1128,"MAH",31.3656169999847,-23.5856659777923,10
"208",1129,"MAH",31.1963830000953,-23.6313829780196,11
"209",1130,"MOO",31.369900000125,-23.4735159813843,11
"210",1201,"VLA",31.2089830002391,-22.799415981268,23
"211",1202,"VLA",31.2381499998693,-22.8350499798238,12
"212",1203,"VLA",31.2439000005668,-22.8827999754397,12
"213",1204,"VLA",31.2152829997641,-22.9330499769248,12
"214",1205,"PUN",31.1460000003583,-22.9039999786684,12
"215",1206,"WOO",31.0906670003441,-22.8798829792161,12
"216",1207,"PUN",31.0633329998877,-22.8822999786954,12
"217",1208,"SHA",31.0804670006356,-22.9120499754548,12
"218",1209,"WOO",31.094950000694,-22.927915976336,12
"219",1210,"WOO",31.139532999841,-23.0395329805849,12
"220",1211,"WOO",31.1836999999928,-23.0430829796863,12
"221",1212,"WOO",31.1830329998363,-23.105299974814,12
"222",1213,"WOO",31.1464669998075,-23.1367829812982,12
"223",1214,"SHA",31.0683330003378,-23.0808329795946,12
"224",1215,"SHA",31.0158329999888,-23.0186159780152,12
"225",1216,"PUN",30.973867000663,-22.8725829779433,12
"226",1217,"SHA",30.960283000062,-22.9086159754439,12
"227",1218,"SHA",30.9475000000222,-22.9391659750449,11
"228",1219,"SHA",30.9344500000998,-23.0277829783975,12
"229",1220,"SHA",30.9350000002006,-23.105999976756,12
"230",1221,"SHA",30.9345330001746,-23.1061329769423,12
"231",1222,"SHA",30.9705499998956,-23.0908329818218,12
"232",1223,"SHA",30.9541670002133,-23.2052829825004,12
"233",1224,"SHA",30.9878330004158,-23.2777659794231,12
"234",1225,"SHA",31.0300000005184,-23.2999999784339,12
"235",1226,"SHA",31.0047170006492,-23.3411159742818,12
"236",1227,"SHA",31.0669499998476,-23.3836159740193,12
"237",1228,"SHA",31.0605499998655,-23.3199999773468,12
"238",1301,"KRO",31.8441670002607,-25.3411499739706,13
"239",1302,"KRO",31.8541000003856,-25.2827159791941,13
"240",1303,"KRO",31.8648000002811,-25.2190499742111,13
"241",1304,"OSA",31.8926499998269,-25.1635659784132,13
"242",1305,"OSA",31.8751169997428,-25.110815979945,13
"243",1306,"OSA",31.8409500001018,-24.8908659797201,13
"244",1307,"TSH",31.8279670001408,-24.8307329804367,13
"245",1308,"TSH",31.8388000001988,-24.7771659728003,13
"246",1309,"TSH",31.8190830004112,-24.7682999811186,13
"247",1310,"TSH",31.7889500002159,-24.70228297517,13
"248",1311,"SAT",31.7460000002493,-24.6129999809865,13
"249",1312,"SAT",31.738000000074,-24.5069999770714,13
"250",1313,"SAT",31.7229999999819,-24.4479999731853,13
"251",1314,"SAT",31.6950000005996,-24.3979999809414,13
"252",1401,"NWA",31.7906829997465,-24.4839659728321,14
"253",1402,"NWA",31.8300830004344,-24.5689659815023,14
"254",1403,"NWA",31.8124830005908,-24.5866499792991,14
"255",1404,"NWA",31.8567670001686,-24.6988329808119,14
"256",1501,"PUN",31.1026999997233,-22.5741159812887,15
"257",1502,"PAF",31.1025000002598,-22.5741999770583,15
"258",1503,"PUN",31.1326829999695,-22.6615999771019,15
"259",1504,"PUN",31.1299669997368,-22.7492329782025,15
"260",1505,"PUN",31.0800499998484,-22.7420499766854,15
"261",1506,"PUN",31.0990000004028,-22.8209999747012,15
"262",1601,"PAF",31.1933000002287,-22.5446999750084,25
"263",1602,"PAF",31.1119999997205,-22.4319999806445,16
"264",1603,"LET",31.5246999998556,-23.8535999745689,16
"265",1604,"SAT",31.6649999998588,-24.3259999779043,5
"266",1701,"SAT",31.8150000000012,-24.3329999769655,17
"267",1702,"SAT",31.7229999998399,-24.3669999815675,17
"268",1703,"SAT",31.7600000000153,-24.3769999767787,17
"269",1704,"NWA",31.8582330002736,-24.3579659729958,17
"270",1705,"NWA",31.8754670002706,-24.2922159812483,17
"271",1706,"SAT",31.897000000057,-24.4269999791857,17
"272",1707,"SAT",31.8659999999058,-24.4639999749802,17
"273",1708,"SAT",31.8270000003101,-24.4409999817238,17
"274",1709,"NWA",31.8747000001154,-24.5119829745195,17
"275",1710,"NWA",31.8687829996354,-24.5474999814956,17
"276",1711,"NWA",31.8578499999878,-24.5392999777252,17
"277",1712,"NWA",31.9427499998766,-24.4961829787329,17
"278",1713,"NWA",31.897000000062,-24.6378159803403,17
"279",1714,"NWA",31.8327499998012,-24.700599976026,17
"280",1715,"TSH",31.8818329999115,-24.6872329765745,17
"281",1716,"TSH",31.8838669997495,-24.7694159780121,17
"282",1717,"TSH",31.8566329997823,-24.8205329777284,17
"283",1718,"TSH",31.8596170003685,-24.8658829775659,17
"284",1719,"TSH",31.8838829999225,-24.8958829741221,17
"285",1720,"OSA",31.8670829999588,-24.9085659771217,17
"286",1721,"OSA",31.8853670002559,-24.9681329752699,17
"287",1722,"OSA",31.9139329997199,-24.9105159748596,17
"288",1723,"OSA",31.8723000003886,-24.930915977812,17
"289",1724,"OSA",31.8967000001568,-25.0266159725893,17
"290",1725,"OSA",31.9182329997272,-25.0753829731291,17
"291",1726,"OSA",31.9525330001732,-25.0959499787847,17
"292",1727,"OSA",31.9613830001641,-25.1225159739223,17
"293",1728,"OSA",31.9133329999952,-25.1501659777759,17
"294",1729,"KRO",31.9175330005404,-25.1717829772867,17
"295",1730,"OSA",31.9506670003418,-25.1899159766783,17
"296",1731,"KRO",31.9093830004971,-25.2609999798906,17
"297",1732,"KRO",31.9369330005935,-25.2636329727776,17
"298",1733,"KRO",31.9512330000412,-25.2879329805583,17
"299",1734,"KRO",31.896900000329,-25.3195659802826,17
"300",1735,"KRO",31.9506830001381,-25.3198659724409,17
"301",1736,"KRO",31.9237670005393,-25.3272159785774,17
"302",1801,"OLI",31.857417000527,-24.1769499811813,18
"303",1802,"OLI",31.7982170002422,-24.1765329799408,18
"304",1803,"HOU",31.7000000003371,-24.2699999742456,18
"305",1804,"SAT",31.707000000473,-24.3159999738143,17
"306",1805,"SAT",31.752000000266,-24.3049999771688,18
"307",1806,"SAT",31.8129999996776,-24.2859999815404,18
"308",1807,"NWA",31.8444999999585,-24.2143659791522,18
"309",1808,"NWA",31.9241670000354,-24.2738159745276,18
"310",1809,"NWA",31.9403500000916,-24.3848499743978,18
"311",1901,"PRE",31.2977330005422,-25.1112999764741,1
"312",1902,"PRE",31.3610170000442,-25.2073659774819,19
"313",1903,"STO",31.5509999998344,-25.2302829784624,3
"314",1904,"STO",31.4980000001695,-25.286915978822,19
"315",1905,"MAL",31.5255999998864,-25.2932329779027,19
"316",1906,"MAL",31.6065670003175,-25.3054159797341,19
"317",1907,"OSA",31.8193169999705,-24.9971159762782,19
"318",1908,"OSA",31.7944169998033,-24.8896499730541,19
"319",1909,"KFI",31.6404000004576,-24.6483999738639,5
"320",1910,"KFI",31.6477000003007,-24.5845499734022,19
"321",1911,"SAT",31.6640000005038,-24.6099999769662,19
"322",1912,"KFI",31.4579169996799,-24.4289159788564,19
"323",1913,"KFI",31.4659999999396,-24.376549974878,19
"324",1914,"KFI",31.5239830000659,-24.3790499812097,19
"325",1915,"KFI",31.5571829998954,-24.4230159745379,5
"326",1916,"KFI",31.6107999998026,-24.4061829749402,19
"327",1917,"SAT",31.6269999998441,-24.4549999750764,19
"328",1918,"SAT",31.6570000001299,-24.4019999773971,19
"329",1919,"SAT",31.615000000462,-24.3949999771297,19
"330",1920,"PRE",31.2514669999963,-25.037549980128,19
"331",2001,"OLI",31.8210330000055,-24.0610499771224,20
"332",2002,"OLI",31.7876329997777,-24.0898659767546,20
"333",2003,"HOU",31.7140000005246,-24.1869999747074,20
"334",2004,"SAT",31.7249999999332,-24.2109999770196,20
"335",2005,"OLI",31.828300000407,-24.1401659764392,20
"336",2101,"HOU",31.6499999998018,-24.2519999741767,21
"337",2102,"HOU",31.7020000001136,-24.1379999780196,21
"338",2103,"HOU",31.6820000006249,-24.1089999791806,21
"339",2104,"OLI",31.7372170003823,-24.0699659818004,21
"340",2105,"OLI",31.6997170003936,-24.0472159786805,21
"341",2106,"OLI",31.7500000000214,-24.0019999807588,21
"342",2107,"OLI",31.8232499998107,-24.0344499762776,21
"343",2201,"WOO",31.3086170002795,-23.1978329804105,22
"344",2202,"SHI",31.315667000327,-23.1925159814395,22
"345",2203,"SHI",31.4216000002148,-23.1377659789542,22
"346",2204,"SHI",31.4163830002609,-23.1553659780164,22
"347",2205,"SHI",31.4965500000028,-23.159432981774,35
"348",2206,"SHI",31.4953670005335,-23.2004329814956,22
"349",2207,"SHI",31.5289670005113,-23.2583999770287,22
"350",2208,"SHI",31.5126170001623,-23.3027329779568,22
"351",2209,"MOO",31.5286330000348,-23.3674659756682,22
"352",2210,"MOO",31.5460000000786,-23.4534999819196,22
"353",2211,"MOO",31.5510000005722,-23.5119999739478,22
"354",2212,"MOO",31.5610000005576,-23.5469999782906,22
"355",2213,"MOO",31.6000000003732,-23.5909999810485,22
"356",2214,"MOO",31.6100000003568,-23.6349999753511,22
"357",2215,"LET",31.638000000187,-23.66399997896,22
"358",2216,"MOO",31.6134500001581,-23.6925999798423,22
"359",2217,"LET",31.6242000004715,-23.795599977827,22
"360",2218,"OLI",31.6183000001405,-23.8938999754068,22
"361",2219,"OLI",31.6332170003618,-23.9714159775741,22
"362",2220,"OLI",31.7323829999807,-23.9735329774288,22
"363",2221,"OLI",31.6084999999548,-24.0134659734133,22
"364",2222,"HOU",31.6314670005347,-24.0551829799116,23
"365",2223,"HOU",31.6410000004249,-24.1389999756548,22
"366",2301,"PAF",31.1739000005493,-22.6113999828397,23
"367",2302,"VLA",31.2044000001681,-22.6252999830553,23
"368",2303,"VLA",31.1675000001673,-22.6949999776003,23
"369",2304,"VLA",31.1862169997002,-22.7102659829845,23
"370",2305,"VLA",31.231250000432,-22.7035659823851,23
"371",2306,"VLA",31.248682999999,-22.6664659812449,23
"372",2307,"VLA",31.2316170003053,-22.7340659823651,23
"373",2308,"VLA",31.2510169999856,-22.789415975375,23
"374",2309,"VLA",31.300666999863,-22.8210999829877,23
"375",2310,"VLA",31.3570000003912,-22.8344159779856,23
"376",2311,"VLA",31.2802830001369,-22.9008159778373,23
"377",2312,"VLA",31.3625830001259,-22.9403329810395,23
"378",2313,"VLA",31.2963000000444,-22.9708659802939,23
"379",2314,"VLA",31.3452999999201,-22.9984829817488,23
"380",2315,"SHI",31.3806170005865,-22.9775159788054,23
"381",2316,"VLA",31.4292829998518,-22.9893329792507,23
"382",2317,"SHI",31.4483170005207,-23.0095499775603,23
"383",2318,"SHI",31.4685170006458,-23.0366329796348,23
"384",2319,"SHI",31.5137670000617,-23.1135829804346,23
"385",2320,"SHI",31.4689500003821,-23.1094499783144,23
"386",2321,"SHI",31.2751499998025,-23.0715829775257,23
"387",2322,"SHI",31.3638330005131,-23.0678329797177,23
"388",2323,"SHI",31.343167000382,-23.0920329823381,23
"389",2324,"WOO",31.2534999998081,-23.1181329827612,11
"390",2325,"SHI",31.5417170006346,-23.1427829770019,23
"391",2326,"SHI",31.3963000006562,-23.1807499744488,23
"392",2327,"SHI",31.3906670003753,-23.2149999804455,23
"393",2328,"WOO",31.355749999732,-23.2344999824097,23
"394",2329,"SHI",31.4212670001056,-23.2919999755745,23
"395",2330,"SHI",31.4741669997382,-23.3055999756465,23
"396",2331,"WOO",31.3697500000899,-23.3331329798039,23
"397",2332,"MOO",31.3693330003701,-23.3607999759929,23
"398",2333,"MOO",31.4567830000685,-23.3493659792092,23
"399",2334,"MOO",31.5295170004996,-23.3765659795304,22
"400",2335,"MOO",31.4751169999743,-23.4385659804116,23
"401",2336,"MOO",31.4090170001106,-23.4278329820081,23
"402",2337,"MOO",31.3909170000711,-23.4642829789604,23
"403",2338,"MOO",31.4636000006019,-23.4693329780156,23
"404",2339,"MOO",31.5028500001629,-23.5201999761709,23
"405",2340,"MOO",31.5307669997689,-23.5613829802871,23
"406",2341,"MOO",31.4794000001042,-23.5450499811258,23
"407",2342,"MOO",31.512000000563,-23.6079999755883,23
"408",2343,"MOO",31.5295170004996,-23.3765659795304,22
"409",2344,"MOO",31.514233000046,-23.6613159740661,23
"410",2345,"LET",31.5874999999689,-23.7243999766225,23
"411",2346,"LET",31.5513999999217,-23.7357999805367,23
"412",2347,"LET",31.5721999997975,-23.7785999816741,23
"413",2348,"LET",31.5727999997557,-23.8427999822138,15
"414",2349,"LET",31.568900000016,-23.8727999808084,15
"415",2350,"LET",31.5677999998842,-23.9382999755992,23
"416",2351,"OLI",31.579133000325,-23.9458659769369,23
"417",2352,"HOU",31.6217829999287,-24.0713159797523,23
"418",2353,"VLA",31.1810000002782,-22.6739999785823,23
"419",2354,"VLA",31.2240000003384,-22.6389999758243,23
"420",2355,"VLA",31.253933000391,-22.6330829743511,23
"421",2356,"VLA",31.2674670003473,-22.6896829825007,23
"422",2357,"VLA",31.3140330005794,-22.7624499764302,27
"423",2358,"VLA",31.2667330004616,-22.758215982593,23
"424",2359,"VLA",31.2021170005028,-22.7162499773468,23
"425",2360,"VLA",31.1946999997137,-22.7211659812528,23
"426",2361,"VLA",31.2880670004052,-22.7925999781913,23
"427",2362,"VLA",31.3747670004639,-22.8279159772966,23
"428",2363,"VLA",31.3048499999975,-22.8749659768702,23
"429",2364,"VLA",31.3583000006464,-22.8998659786788,23
"430",2365,"VLA",31.3289500003996,-22.9003159764454,23
"431",2366,"VLA",31.3526669999239,-22.9289829745291,23
"432",2367,"VLA",31.4204170006159,-22.9380499789806,23
"433",2368,"SHI",31.4071000002363,-22.9705499779402,23
"434",2369,"VLA",31.2750170002071,-22.9363499828252,23
"435",2370,"SHI",31.4949330001509,-23.1101159740946,23
"436",2371,"SHI",31.4781830002589,-23.0747829803733,23
"437",2401,"WOO",31.2154170004662,-23.1338829788132,24
"438",2402,"WOO",31.2752170004669,-23.2592829768457,24
"439",2403,"WOO",31.3190330001473,-23.2932829818013,24
"440",2404,"MAH",31.2404170004207,-23.4695499782785,24
"441",2405,"LET",31.4381000001211,-23.9210999759846,24
"442",2406,"PHA",31.3650000000979,-23.8759999762509,24
"443",2407,"LET",31.4722000003403,-23.9238999773227,24
"444",2408,"HOU",31.531000000066,-24.2149999752086,24
"445",2501,"PAF",31.1379999997655,-22.372999982243,27
"446",2502,"PAF",31.0940000005713,-22.3909999780221,26
"447",2503,"PAF",31.1009999997507,-22.422999983041,25
"448",2504,"PAF",31.2490000004368,-22.4579999793544,25
"449",2505,"PAF",31.2213999998838,-22.4732999816418,25
"450",2506,"PAF",31.1933000002287,-22.5446999750084,25
"451",2507,"PAF",31.1867000002025,-22.5771999822169,25
"452",2508,"PAF",31.3000000000058,-22.4809999823825,25
"453",2509,"PAF",31.0624999998769,-22.5305999831597,25
"454",2510,"PAF",31.0829330001885,-22.5462159793622,25
"455",2601,"PAF",31.2910000002333,-22.5459999787083,26
"456",2602,"PAF",31.2769999999561,-22.573999980776,26
"457",2603,"VLA",31.3329330000883,-22.6296829750541,26
"458",2702,"PAF",31.2439999999125,-22.6099999770162,27
"459",2703,"PAF",31.2430000005544,-22.5729999817664,27
"460",2704,"PAF",31.2430000004459,-22.5939999755537,27
"461",2705,"VLA",31.2800000002955,-22.643649980492,27
"462",2706,"VLA",31.3114330003964,-22.7062329821612,27
"463",2707,"VLA",31.3346170005439,-22.7592499746436,27
"464",2708,"VLA",31.398232999757,-22.8430999823798,27
"465",2709,"VLA",31.4430500003018,-22.9272159809825,27
"466",2710,"SHI",31.5074830006097,-23.0447499792553,27
"467",2711,"SHI",31.4658669998706,-22.9884329822893,27
"468",2712,"VLA",31.4420169997871,-22.95998298187,27
"469",2801,"PAF",31.2180000002108,-22.4419999808431,25
"470",2802,"PAF",31.2450000006322,-22.4249999802791,28
"471",2803,"PAF",31.1319999997901,-22.3569999796673,28
"472",2804,"PAF",31.1760000003729,-22.3639999760549,25
"473",2901,"NWA",31.9922330003746,-24.3499829744566,29
"474",2902,"NWA",32.001883000622,-24.4129329769307,29
"475",2903,"NWA",32.0073000001441,-24.491699975311,29
"476",2904,"NWA",32.0034169998623,-24.5695829731952,29
"477",2905,"NWA",31.98165000045,-24.6330659796735,29
"478",2906,"NWA",31.9788669999726,-24.6762659772731,29
"479",2907,"NWA",31.9647170000103,-24.6965159810133,29
"480",2908,"TSH",31.9254670003496,-24.7457829741045,29
"481",2909,"TSH",31.9799170001097,-24.7729159799855,29
"482",2910,"TSH",31.9864669998414,-24.8231499729456,29
"483",2911,"TSH",31.9861500002866,-24.861615974052,29
"484",2912,"TSH",31.9454500004631,-24.8933329779501,29
"485",2913,"OSA",31.9836330005911,-24.9074659779941,29
"486",2914,"OSA",32.0057169997632,-24.9224159800186,29
"487",2915,"OSA",31.9425669997407,-25.0068499806496,29
"488",2916,"OSA",32.0009169997702,-24.9884499755816,29
"489",2917,"OSA",31.9886170002211,-25.067199973067,29
"490",2918,"OSA",32.0176830000284,-25.0645999743998,29
"491",2919,"OSA",32.0178670005719,-25.0644159741182,29
"492",2920,"OSA",32.0086499999459,-25.1518499759663,29
"493",2921,"KRO",32.0157329999588,-25.2350659780976,29
"494",2922,"KRO",31.9929670003422,-25.2772829787438,29
"495",2923,"KRO",32.0113330002774,-25.2939999746688,29
"496",2924,"KRO",32.0082329997249,-25.3576829770371,29
"497",3001,"NWA",31.912082243233,-24.1878758713996,30
"498",3101,"VLA",31.4403000001744,-22.8682499823403,31
"499",3102,"SHI",31.5434500003415,-23.304599977123,31
"500",3103,"MOO",31.5443829998293,-23.3350999764816,31
"501",3104,"MOO",31.5810000003856,-23.5092499792962,31
"502",3105,"LET",31.6500000005174,-23.6129999815437,31
"503",3106,"MOO",31.6503999997646,-23.6177329811107,31
"504",3107,"LET",31.6819999999079,-23.6729999743332,31
"505",3108,"OLI",31.7099999999579,-23.798999975242,31
"506",3109,"LET",31.7036670002558,-23.8219659790486,31
"507",3110,"OLI",31.760633000017,-23.8866659732456,31
"508",3111,"OLI",31.7445500000088,-23.9152499818285,31
"509",3112,"OLI",31.8245500000755,-24.0162499749043,31
"510",3113,"OLI",31.8010000006176,-23.9229999766255,31
"511",3114,"LET",31.6575000003405,-23.7774999822433,31
"512",3115,"OLI",31.7282169996915,-23.8496999770752,31
"513",3201,"PAF",31.3219999997971,-22.5129999776039,32
"514",3202,"PAF",31.3150000000737,-22.5539999808112,32
"515",3203,"VLA",31.3121330000742,-22.6423999828897,32
"516",3204,"VLA",31.3801000006226,-22.6959329812815,32
"517",3302,"PUN",31.0122330004598,-22.8350159751985,33
"518",3303,"PUN",31.0663669999668,-22.8474499784129,33
"519",3304,"SHA",30.9502830001769,-23.131665981154,33
"520",3305,"SHA",31.0858330000053,-23.1347159763338,33
"521",3401,"PUN",31.0265500003325,-22.694865976676,34
"522",3402,"PUN",31.0536830001213,-22.7165999808937,34
"523",3403,"PUN",31.0019670001029,-22.6953499812695,34
"524",3404,"PUN",30.9395000004974,-22.7109159827233,34
"525",3405,"PUN",31.0340000000085,-22.6129999827447,34
"526",3406,"PUN",30.9992500003309,-22.662849977118,34
"527",3407,"PUN",31.0960499997598,-22.6580659772531,15
"528",3408,"PUN",31.0230670004476,-22.7591999756119,34
"529",3409,"PUN",31.1680000005986,-22.7969999776449,34
"530",3501,"SHI",31.4487170005787,-23.1106659782882,35
"531",3502,"WOO",31.2934170004882,-23.178449978117,35
"532",3503,"WOO",31.243750000064,-23.0489659787255,35
"533",3504,"SHI",31.3015330003608,-23.103932979763,23
