"","kb","r","sb","v","ob","k","ko","w","kp","wb","bb","o","t","b","s","ro","e","wr","tb","bg","rb","bs","d","hp","kk","n","rk","sk","sr","st","wk","wl","wa","ok","hk","bv","ek","hl","eb","tk","hw","lh","ks","rd"
"1977",408,1682,154,305,339,1274,800,358,436,283,358,168,94,99,118,57,59,206,118,48,114,0,0,0,0,0,0,0,0,0,0,0,0,0,0,0,0,0,0,0,0,0,0,0
"1978",291,1633,110,604,337,1278,966,559,701,334,352,169,140,100,93,32,71,92,2,12,139,0,0,0,0,0,0,0,0,0,0,0,0,0,0,0,0,0,0,0,0,0,0,0
"1979",424,1776,131,664,438,1385,1154,663,836,323,371,181,143,98,100,52,57,161,0,7,113,0,0,0,0,0,0,0,0,0,0,0,0,0,0,0,0,0,0,0,0,0,0,0
"1980",522,8072,180,1256,635,2786,1845,661,1358,585,657,287,188,107,100,35,82,265,1,34,266,1,93,14,225,15,15,96,6,437,76,511,0,0,0,0,0,0,0,0,0,0,0,0
"1981",599,9385,176,1619,688,3411,2095,610,1540,846,815,306,202,147,121,38,119,285,0,44,234,0,81,23,346,13,23,114,12,825,75,805,0,0,0,0,0,0,0,0,0,0,0,0
"1982",570,10272,200,1390,629,3487,2191,698,1774,655,808,347,217,144,121,36,105,309,0,41,224,1,168,18,304,56,17,113,21,824,69,995,211,0,0,0,0,0,0,0,0,0,0,0
"1983",401,7524,214,867,611,3257,1477,745,1473,581,835,271,217,205,124,40,115,319,0,38,169,23,98,47,202,38,16,96,16,655,54,870,187,5,1,0,0,0,0,0,0,0,0,0
"1984",434,9702,232,974,568,3696,1734,867,1662,552,701,289,212,210,134,45,149,399,0,41,317,0,177,31,213,40,15,104,22,800,54,1087,229,0,1,1,0,0,0,0,0,0,0,0
"1985",464,11623,272,1365,529,4215,2249,1029,1699,873,766,279,299,150,153,38,185,433,0,43,223,11,159,38,263,144,25,134,15,1281,111,960,262,0,1,6,12,0,0,0,0,0,0,0
"1986",394,9648,199,1408,523,3894,2080,1048,1728,758,669,325,292,144,152,84,134,462,0,33,194,24,151,34,285,29,23,119,19,704,116,986,107,0,0,2,0,1,0,0,0,0,0,0
"1987",325,10369,162,1042,423,4504,2215,1430,1721,822,883,362,217,254,177,56,163,456,4,14,167,19,142,79,112,131,6,86,13,865,83,507,167,3,1,9,8,0,15,1,0,0,0,0
"1988",288,12172,182,1148,479,4183,2301,1281,1666,839,712,343,237,223,152,46,159,549,0,8,190,18,125,14,168,155,10,105,22,892,90,777,100,3,0,0,12,0,0,14,0,0,0,0
"1989",239,10258,181,910,467,4360,1775,1429,1620,708,624,315,195,227,125,34,157,565,1,5,131,24,94,30,154,95,10,71,25,687,114,559,89,0,0,0,0,1,0,1,1,0,0,0
"1990",362,10550,238,990,555,4343,1511,1166,1752,669,520,368,192,159,141,34,176,619,1,16,153,6,92,28,158,23,11,100,31,463,141,1035,131,0,1,0,0,0,0,0,0,0,0,0
"1991",168,10075,154,848,486,4166,1424,1390,1718,542,370,352,187,170,134,30,127,697,0,14,91,19,82,31,117,89,6,71,44,594,135,501,108,0,0,1,0,0,0,0,0,0,0,0
"1992",185,11078,191,689,546,4611,1216,1715,1794,543,475,451,128,237,122,25,128,850,0,4,72,17,92,22,57,93,6,36,36,490,152,276,86,0,0,0,0,0,0,0,0,12,0,0
"1993",116,8254,89,312,556,4191,893,1701,1833,401,222,420,106,124,106,14,135,818,0,1,28,6,66,31,105,36,5,39,42,470,192,235,53,4,0,0,0,0,0,1,0,8,1,0
"1994",73,3904,80,123,457,3432,455,902,1279,218,185,314,83,63,69,16,138,167,1,2,4,1,35,14,37,49,3,21,7,362,30,234,46,0,0,0,0,0,0,0,0,7,11,0
"1995",2,3168,3,88,0,2628,410,923,1028,143,124,1,75,2,59,11,111,133,0,1,0,1,2,7,2,6,2,10,7,0,14,0,0,0,0,0,0,0,0,0,0,4,0,1
"1996",1,1821,1,95,56,1160,264,919,747,105,40,7,10,5,11,6,15,90,0,0,5,0,0,7,0,0,2,5,5,0,16,1,0,0,0,0,0,0,0,0,0,2,0,0
"1997",0,1637,2,127,21,288,268,151,299,62,14,90,3,34,29,0,1,544,0,0,8,0,0,0,2,0,0,8,24,0,105,0,2,0,0,1,0,0,0,0,0,0,0,0
