Site,Date,Start Time (military),Interval,Species,# individuals,Event,elephant,Vehicles,Giraffe #,Giraffe Behavior,"R (0,1)",impala #,impala Behavior,"R (0,1)",Kudu #,Kudu Behavior,"R (0,1)",Waterbuck #,Waterbuck Behavior,"R (0,1)",warthog #,warthog Behavior,"R (0,1)",Wildebeest #,Wildebeest Behavior,"R (0,1)",Zebra#,Zebra behaviour,"R (0,1)",Notes
N'watindlopfu,10/1/09,14:35,14,baboon,2,arrive,,,,,,,,,,,,,,,,,,,,,,,,
N'watindlopfu,10/1/09,15:10,15,baboon,2,leave,,,,,,,,,,,,,,,,,,,,,,,,
Nwaswitshaka,10/1/09,11:46,11,bushbuck,2,arrive,0,1,,,,,,,,,,,,,,,,,,,,,,
Nwaswitshaka,10/1/09,11:54,11,Bushbuck,2,leave,0,1,,,,,,,,,,,,,,,,,,,,,,
Transport Dam,9/30/09,6:30,6,Croc,1,surfaced,0,0,,,,,,,,,,,,,,,,,,,,,,
De Laporte,9/30/09,11:28,11,elephant,1,arrive,1,0,,,,11,drink,0,,,,,,,,,,,,,,,,elephant is a ways off
De Laporte,9/30/09,11:32,11,elephant,1,arrive,2,2,,,,11,avoid,1,,,,,,,,,,,,,,,,
De Laporte,9/30/09,11:42,11,elephant,2,chase,4,3,,,,21,avoid,1,,,,,,,,,,,,,,,,
De Laporte,9/30/09,11:45,11,elephant,1,arrive,5,0,,,,21,leave,1,,,,,,,,,,,,,,,,
De Laporte,9/30/09,11:50,11,elephant,5,leave,0,0,,,,,,,,,,,,,,,,,,,,,,
De Laporte,9/30/09,16:01,16,elephant,3,arrive,3,3,,,,,,,,,,,,,,,,,,,,,,
De Laporte,9/30/09,16:06,16,elephant,3,arrive,6,8,,,,3,scare,1,,,,,,,,,,,,,,,,
De Laporte,9/30/09,16:11,16,elephant,6,leave,0,4,,,,,,,,,,,,,,,,,,,,,,
De Laporte,9/30/09,16:56,16,elephant,2,arrive,2,0,,,,,,,,,,,,,,,,,,,,,,
De Laporte,9/30/09,17:02,17,elephant,10,arrive,12,0,,,,,,,,,,,,,,,,,,,,,,Don't drink
De Laporte,9/30/09,17:07,17,elephant,3,arrive,15,0,,,,,,,,,,,,,,,,,,,,,,
De Laporte,9/30/09,17:09,17,elephant,4,arrive,19,0,,,,,,,,,,,,,,,,,,,,,,
De Laporte,9/30/09,17:12,17,elephant,9,arrive,28,0,,,,,,,,,,,,,,,,,,,,,,
De Laporte,9/30/09,17:17,17,elephant,3,arrive,31,0,,,,,,,,,,,,,,,,,,,,,,
De Laporte,9/30/09,17:18,17,elephant,31,leave,0,0,,,,,,,,,,,,,,,,,,,,,,"elephant don't allleave at once,they have been filtering off slowly"
N'watindlopfu,10/1/09,9:26,9,elephant,1,arrive,1,,,,,,,,,,,,,,,,,,,,,,,
N'watindlopfu,10/1/09,9:35,9,elephant,1,arrive,2,,,,,,,,,,,,,,,,,,,,,,,
N'watindlopfu,10/1/09,9:37,9,elephant,2,drink,2,,,,,,,,,,,,,,,,,,,,,,,
N'watindlopfu,10/1/09,9:49,9,elephant,2,graze,2,,,,,,,,,,,,,,,,,,,,,,,
N'watindlopfu,10/1/09,10:05,10,elephant,2,leave,,,,,,,,,,,,,,,,,,,,,,,,
N'watindlopfu,10/1/09,11:44,11,elephant,6,arrive,6,,,,,,,,,,,,,,,,,,,,,,,hippos yell at the elephant for a minute
N'watindlopfu,10/1/09,11:47,11,elephant,9,arrive,15,,,,,,,,,,,,,,,,,,,,,,,
N'watindlopfu,10/1/09,11:52,11,elephant,10,arrive,25,,,,,6,avoid,,,,,,,,,,,,,,,,,playing and bathing
N'watindlopfu,10/1/09,12:14,12,elephant,25,leave,,,,,,6,avoid,,,,,,,,,,,,,,,,,
N'watindlopfu,10/1/09,12:17,12,elephant,1,arrive,,,,,,,,,,,,,,,,,,,,,,,,swimming
N'watindlopfu,10/1/09,12:31,12,elephant,1,graze,,,,,,,,,,,,,,,,,,,,,,,,
N'watindlopfu,10/1/09,12:42,12,elephant,1,leave,,,,,,,,,,,,,,,,,,,,,,,,
N'watindlopfu,10/1/09,15:47,15,elephant,2,arrive,2,,,,,,,,,,,,,,,,,,,,,,,
N'watindlopfu,10/1/09,15:56,15,elephant,2,fight,2,,,,,,,,,,,,,,,,,,,,,,,fight goes down in the water
N'watindlopfu,10/1/09,16:40,16,elephant,2,graze,,,,,,,,,,,,,,,,,,,,,,,,
N'watindlopfu,10/1/09,17:07,17,elephant,2,leave,,,,,,,,,,,,,,,,,,,,,,,,
Nwaswitshaka,10/1/09,6:50,6,Elephant,16,Arrive,16,2,,,,,,,,,,,,,,,,,,,,,,
Nwaswitshaka,10/1/09,7:03,7,Elephant,16,Leave,0,0,,,,,,,,,,,,,,,,,,,,,,
Nwaswitshaka,9/30/09,7:27,7,Elephant,1,arrive,1,2,,,,,,,,,,,,,,,,,,,,,,elephant drank da drink up
Nwaswitshaka,9/30/09,7:31,7,elephant,1,leave,1,2,,,,,,,,,,,,,,,,,,,,,,
Nwaswitshaka,9/30/09,15:00,15,Elephant,16,arrive,16,1,,,,,,,,,,,,,,,,,,,,,,
Nwaswitshaka,10/1/09,15:07,15,Elephant,1,arrive,0,0,,,,,,,,,,,,,,,,,,,,,,
Nwaswitshaka,10/1/09,15:13,15,elephant,4,arrive,5,0,,,,,,,,,,,,,,,,,,,,,,
Nwaswitshaka,10/1/09,15:19,15,elephant,8,arrive,13,0,,,,,,,,,,,,,,,,,,,,,,
Nwaswitshaka,10/1/09,15:20,15,elephant,4,arrive,17,0,,,,,,,,,,,,,,,,,,,,,,
Nwaswitshaka,9/30/09,15:23,15,Elephant,16,leave,16,1,,,,,,,,,,,,,,,,,,,,,,
Nwaswitshaka,10/1/09,15:25,15,elephant,17,leave,0,2,,,,,,,,,,,,,,,,,,,,,,
Nwaswitshaka,9/30/09,15:27,15,Elephant,1,arrive,1,2,,,,,,,,,,,,,,,,,,,,,,
Nwaswitshaka,9/30/09,15:41,15,Elephant,1,leave,1,2,,,,,,,,,,,,,,,,,,,,,,
Nwaswitshaka,10/1/09,15:43,15,elephant,1,arrive,1,0,,,,,,,,,,,,,,,,,,,,,,
Nwaswitshaka,10/1/09,15:45,15,elephant,1,leave,0,0,,,,,,,,,,,,,,,,,,,,,,
Nwaswitshaka,9/30/09,15:50,15,Elephant,18,arrive,18,3,,,,,,,,,,,,,,,,,,,,,,
Nwaswitshaka,9/30/09,15:59,15,Elephant,1,arrive,19,5,,,,,,,,,,,,,,,,,,,,,,
Nwaswitshaka,9/30/09,16:10,16,Elephant,19,leave,19,3,,,,,,,,,,,,,,,,,,,,,,
Nwaswitshaka,9/30/09,16:54,16,Elephant,1,arrive,1,0,,,,,,,,,,,,,,,,,,,,,,
Nwaswitshaka,10/1/09,17:17,17,elephant,1,arrive,1,1,,,,,,,,,,,,,,,,,,,,,,
Nwaswitshaka,9/30/09,17:24,17,Elephant,1,leave,1,0,,,,,,,,,,,,,,,,,,,,,,
Nwaswitshaka,10/1/09,17:32,17,elephant,1,leave,0,0,,,,,,,,,,,,,,,,,,,,,,
Transport Dam,10/1/09,12:03,12,elephant,1,arrive,N/A,6,,,,5,scared,1,,,,,,,4,grazing,0,,,,,,,
Transport Dam,10/1/09,12:08,12,elephant,1,graze,N/A,7,,,,5,leaving,1,,,,,,,,,,,,,,,,
Transport Dam,10/1/09,12:40,12,elephant,1,drinking,2,5,,,,,,,,,,,,,2,grazing,0,,,,,,,
Transport Dam,10/1/09,13:07,13,elephant,1,arrive,3,5,,,,,,,,,,3,grazing,0,,,,,,,,,,"Mudbathing and drinking, backing away from larger elephant (there first)"
Transport Dam,10/1/09,13:07,13,elephant,1,arrive,4,1,,,,,,,,,,3,grazing,0,,,,,,,,,,All 4 elephant close to one another.
Transport Dam,10/1/09,13:32,13,elephant,1,arrive,4,1,,,,,,,,,,4,drinking,0,,,,,,,,,,
Transport Dam,10/1/09,13:35,13,elephant,4,drinking,4,1,,,,,,,,,,4,drinking,0,,,,,,,,,,Trunk contact between the 2 small males (all males)
Transport Dam,10/1/09,14:25,14,elephant,1,leaves,2,1,,,,,,,,,,1,grazing,0,,,,,,,,,,
Transport Dam,10/1/09,14:26,14,elephant,2,drinking,2,1,,,,,,,,,,1,grazing,0,,,,,,,,,,
Transport Dam,10/1/09,14:28,14,elephant,1,leaves,1,1,,,,,,,,,,1,grazing,0,,,,,,,,,,
Transport Dam,10/1/09,14:35,14,elephant,1,graze,1,1,,,,,,,,,,,,,,,,,,,,,,
Transport Dam,10/1/09,14:41,14,elephant,1,leaves,0,1,,,,,,,,,,,,,,,,,,,,,,
De Laporte,9/30/09,11:02,11,giraffe,1,arrive,0,3,,,,10,scare,1,,,,,,,,,,,,,,,,
De Laporte,9/30/09,11:18,11,giraffe,1,leave,0,1,,,,35,drink,0,,,,,,,,,,,,,,,,
N'watindlopf,9/30/09,13:13,13,giraffe,2,arrive,,1,,,,,,,,,,,,,,,,,,,,,,
N'watindlopf,9/30/09,13:16,13,giraffe,2,graze,,,,,,,,,,,,,,,,,,,,,,,,
N'watindlopf,9/30/09,13:22,13,giraffe,2,leave,,,,,,6,drink,,,,,,,,,,,,,,,,,
Nwaswitshaka,10/1/09,11:25,11,Giraffe,1,arrive,0,0,,,,,,,,,,,,,,,,,,,,,,
Nwaswitshaka,10/1/09,11:33,11,Giraffe,1,leave,0,0,,,,,,,,,,,,,,,,,,,,,,
Nwaswitshaka,9/30/09,12:02,12,giraffe,1,arrive,0,0,,,,4,leave,1,,,,,,,,,,,,,,,,
Transport Dam,10/1/09,9:48,9,giraffe,1,arrive,0,2,,,,11,leave,1,,,,,,,,,,,,,,,,
Transport Dam,10/1/09,9:53,9,giraffe,1,leave,0,2,,,,,,,,,,,,,,,,1,drinking,0,,,,
N'watindlopfu,10/1/09,11:02,11,giraffe,1,arrive,,,,,,3,graze,,,,,,,,,,,,,,,,,
N'watindlopfu,10/1/09,11:07,11,giraffe,1,drink,,,,,,3,graze,,,,,,,,,,,,,,,,,
N'watindlopfu,10/1/09,11:20,11,giraffe,1,graze,,,,,,3,avoid,,,,,,,,,,,,,,,,,
N'watindlopfu,10/1/09,11:33,11,giraffe,3,leave,,,,,,,,,,,,,,,,,,,,,,,,
Transport Dam,9/30/09,6:17,6,hippo,1,surfaced,0,0,,,,,,,,,,,,,,,,,,,7,drinking,0,
De Laporte,9/30/09,6:58,6,impala,2,arrive,0,0,0,,,,,,,,,,,,,,,,,,,,,
De Laporte,9/30/09,7:02,7,impala,14,arrive,0,0,,,,2,scare,1,,,,,,,,,,,,,,,,
De Laporte,9/30/09,7:06,7,impala,8,arrive,0,0,,,,14,drink,0,,,,,,,,,,,,,,,,
De Laporte,9/30/09,7:08,7,impala,5,arrive,0,1,,,,22,drink,0,,,,,,,,,,,,,,,,
De Laporte,9/30/09,7:15,7,impala,22,leave,0,1,,,,,,,,,,,,,,,,,,,,,,
De Laporte,10/1/09,7:27,7,impala,2,arrive,0,0,,,,,,,,,,,,,,,,,,,,,,
De Laporte,10/1/09,7:31,7,impala,11,arrive,0,0,,,,2,drink,0,,,,,,,,,,,,,,,,
De Laporte,10/1/09,7:34,7,impala,13,leave,0,1,,,,,,,,,,,,,,,,,,,,,,
De Laporte,10/1/09,7:47,7,impala,20,arrive,0,0,,,,,,,,,,,,,,,,,,,,,,Skiddish
De Laporte,10/1/09,7:53,7,impala,6,arrive,0,0,,,,20,drink,0,,,,,,,,,,,,,,,,
De Laporte,10/1/09,7:56,7,impala,17,leave,0,1,,,,9,drink,0,,,,,,,,,,,,,,,,
De Laporte,10/1/09,7:59,7,impala,7,leave,0,0,,,,2,drink,0,,,,,,,,,,,,,,,,
De Laporte,9/30/09,8:01,8,impala,18,arrive,0,2,,,,,,,,,,,,,,,,,,,,,,
De Laporte,10/1/09,8:01,8,impala,2,leave,0,0,,,,,,,,,,,,,,,,,,,,,,
De Laporte,9/30/09,8:04,8,impala,22,arrive,0,0,,,,18,drink,0,,,,,,,,,,,,,,,,
De Laporte,9/30/09,8:09,8,impala,18,leave,0,1,,,,22,drink,0,,,,,,,,,,,,,,,,
De Laporte,10/1/09,8:10,8,impala,6,arrive,0,0,,,,,,,,,,,,,,,,,,,,,,
De Laporte,10/1/09,8:12,8,impala,16,arrive,0,0,,,,6,drink,0,,,,,,,,,,,,,,,,
De Laporte,9/30/09,8:14,8,impala,22,leave,0,0,,,,,,,,,,,,,,,,,,,,,,
De Laporte,10/1/09,8:14,8,impala,1,arrive,0,0,,,,24,drink,0,,,,,,,,,,,,,,,,
De Laporte,10/1/09,8:16,8,impala,10,leave,0,1,,,,14,drink,0,,,,,,,,,,,,,,,,
De Laporte,10/1/09,8:20,8,impala,14,leave,0,1,,,,,,,,,,,,,,,,,,,,,,
De Laporte,10/1/09,8:25,8,impala,20,arrive,0,3,,,,,,,,,,,,,,,,,,,,,,
De Laporte,9/30/09,8:33,8,impala,4,arrive,0,0,,,,,,,,,,,,,,,,,,,,,,
De Laporte,10/1/09,8:33,8,impala,20,leave,0,0,,,,,,,,,,,,,,,,,,,,,,
De Laporte,9/30/09,8:36,8,impala,8,arrive,0,0,,,,4,leave,1,,,,,,,,,,,,,,,,
De Laporte,9/30/09,8:43,8,impala,8,leave,0,1,,,,,,,,,,,,,,,,,,,,,,
De Laporte,9/30/09,8:44,8,impala,15,arrive,0,1,,,,,,,,,,,,,,,,,,,,,,
De Laporte,10/1/09,8:44,8,impala,1,arrive,0,1,,,,,,,,,,,,,,,,,,,,,,
De Laporte,10/1/09,8:45,8,impala,1,leave,0,0,,,,,,,,,,,,,,,,,,,,,,
De Laporte,9/30/09,8:49,8,impala,17,arrive,0,2,,,,15,leave,1,,,,,,,,,,,,,,,,
De Laporte,9/30/09,8:50,8,impala,3,arrive,0,1,,,,17,drink,0,,,,,,,,,,,,,,,,
De Laporte,9/30/09,8:59,8,impala,20,leave,0,0,,,,,,,,,,,,,,,,,,,,,,
De Laporte,10/1/09,9:00,9,impala,14,arrive,0,0,,,,,,,,,,,,,,,,,,,,,,
De Laporte,9/30/09,9:02,9,impala,5,arrive,0,1,,,,,,,,,,,,,4,avoid,1,,,,,,,
De Laporte,10/1/09,9:04,9,impala,14,leave,0,1,,,,,,,,,,,,,,,,,,,,,,
De Laporte,9/30/09,9:10,9,impala,9,arrive,0,1,,,,5,drink,0,,,,,,,,,,,,,,,,
De Laporte,9/30/09,9:12,9,impala,10,arrive,0,2,,,,14,drink,0,,,,,,,,,,,,,,,,
De Laporte,9/30/09,9:19,9,impala,24,leave,0,1,,,,,,,,,,,,,,,,,,,,,,
De Laporte,9/30/09,9:33,9,impala,20,arrive,0,1,,,,,,,,,,,,,,,,,,,,,,
De Laporte,10/1/09,9:33,9,impala,1,arrive,0,0,,,,,,,,,,,,,,,,,,,,,,
De Laporte,9/30/09,9:35,9,impala,9,arrive,0,1,,,,20,8 leave,1,,,,,,,,,,,,,,,,
De Laporte,10/1/09,9:35,9,impala,1,leave,0,0,,,,,,,,,,,,,,,,,,,,,,
De Laporte,9/30/09,9:40,9,impala,21,leave,0,0,,,,,,,,,,,,,,,,,,,,,,
De Laporte,9/30/09,9:55,9,impala,15,arrive,0,0,,,,,,,1,drink,0,,,,,,,,,,,,,
De Laporte,9/30/09,9:55,9,impala,15,arrive,0,0,,,,15,drink,0,1,leave,1,,,,,,,,,,,,,
De Laporte,9/30/09,9:57,9,impala,15,leave,0,2,,,,15,drink,0,5,walk,0,,,,,,,,,,,,,
De Laporte,9/30/09,10:00,10,impala,7,arrive,0,2,,,,15,drink,0,5,walk,0,,,,,,,,,,,,,impala become more vocal
De Laporte,9/30/09,10:01,10,impala,5,arrive,0,2,,,,22,drink,0,5,walk,0,,,,,,,,,,,,,
De Laporte,10/1/09,10:04,10,impala,14,arrive,0,2,,,,,,,,,,,,,,,,,,,,,,
De Laporte,10/1/09,10:05,10,impala,14,leave,0,0,,,,,,,,,,,,,,,,,,,,,,spooked
De Laporte,9/30/09,10:30,10,impala,12,arrive,0,0,,,,27,drink,0,5,walk,0,,,,,,,,,,,,,
De Laporte,9/30/09,10:53,10,impala,39,leave,0,0,,,,,,,,,,,,,,,,,,,,,,
De Laporte,9/30/09,10:55,10,impala,10,arrive,0,0,,,,,,,,,,,,,,,,,,,,,,
De Laporte,9/30/09,11:04,11,impala,20,arrive,0,0,1,drink,0,,,,,,,,,,2,drink,0,,,,,,,
De Laporte,9/30/09,11:06,11,impala,15,arrive,0,1,1,drink,0,20,drink,0,,,,,,,2,leave,1,,,,,,,
De Laporte,10/1/09,11:08,11,impala,2,arrive,0,0,,,,,,,,,,,,,,,,,,,,,,
De Laporte,10/1/09,11:11,11,impala,2,leave,0,0,,,,,,,,,,,,,,,,,,,,,,
De Laporte,10/1/09,11:15,11,impala,9,arrive,0,0,,,,,,,,,,,,,,,,,,,,,,
De Laporte,9/30/09,11:18,11,impala,30,leave,0,1,,,,5,drink,,,,,,,,,,,,,,,,,
De Laporte,10/1/09,11:19,11,impala,4,arrive,0,0,,,,9,leave,0,,,,,,,,,,,,,,,,
De Laporte,10/1/09,11:23,11,impala,2,arrive,0,2,,,,4,drink,0,,,,,,,,,,,,,,,,
De Laporte,10/1/09,11:24,11,impala,4,leave,0,1,,,,2,drink,0,,,,,,,,,,,,,,,,
De Laporte,10/1/09,11:25,11,impala,2,leave,0,1,,,,,,,,,,,,,,,,,,,,,,
De Laporte,9/30/09,11:26,11,impala,6,arrive,0,1,,,,5,drink,0,,,,,,,,,,,,,,,,
De Laporte,10/1/09,11:28,11,impala,10,arrive,0,0,,,,,,,,,,,,,,,,,,,,,,
De Laporte,9/30/09,11:36,11,impala,3,arrive,1,3,,,,18,drink,0,,,,,,,,,,,,,,,,
De Laporte,10/1/09,11:36,11,impala,2,fight,0,4,,,,7,drink,0,4,browse,0,,,,,,,,,,,,,
De Laporte,9/30/09,11:37,11,impala,7,arrive,2,3,,,,11,drink,0,,,,,,,,,,,,,,,,
De Laporte,10/1/09,11:38,11,impala,5,arrive,0,0,,,,7,drink,0,4,browse,0,,,,,,,,,,,,,
De Laporte,9/30/09,11:41,11,impala,15,arrive,2,5,,,,21,drink,0,,,,,,,,,,,,,,,,
De Laporte,10/1/09,11:43,11,impala,1,arrive,0,1,,,,7,drink,0,,,,,,,,,,,,,,,,
De Laporte,10/1/09,11:47,11,impala,8,leave,0,0,,,,,,,,,,,,,,,,,,,,,,
De Laporte,9/30/09,11:56,11,impala,3,arrive,0,0,,,,,,,,,,,,,,,,,,,,,,
De Laporte,10/1/09,11:56,11,impala,2,arrive,0,0,,,,,,,,,,,,,,,,,,,,,,
De Laporte,10/1/09,11:58,11,impala,2,leave,0,0,,,,,,,,,,,,,,,,,,,,,,
De Laporte,10/1/09,12:07,12,impala,2,arrive,0,0,,,,,,,,,,,,,,,,,,,,,,
De Laporte,10/1/09,12:10,12,impala,1,arrive,0,0,,,,2,leave,0,,,,,,,,,,,,,,,,
De Laporte,9/30/09,12:13,12,impala,3,leave,0,0,,,,,,,,,,,,,,,,,,,,,,
De Laporte,9/30/09,12:19,12,impala,6,arrive,0,2,,,,,,,,,,,,,,,,,,,,,,
De Laporte,10/1/09,12:19,12,impala,16,arrive,0,3,,,,,,,,,,,,,2,drink,0,,,,,,,
De Laporte,9/30/09,12:25,12,impala,6,leave,0,3,,,,,,,,,,,,,,,,,,,,,,
De Laporte,10/1/09,12:26,12,impala,16,leave,0,1,,,,,,,,,,,,,,,,,,,,,,
De Laporte,10/1/09,12:54,12,impala,3,arrive,0,0,,,,,,,,,,,,,,,,,,,,,,
De Laporte,10/1/09,13:04,13,impala,3,leave,0,0,,,,,,,,,,,,,,,,,,,,,,
De Laporte,10/1/09,13:29,13,impala,1,arrive,0,1,,,,,,,,,,,,,,,,,,,,,,
De Laporte,9/30/09,13:31,13,impala,3,arrive,0,0,,,,,,,,,,,,,,,,,,,,,,
De Laporte,9/30/09,13:40,13,impala,6,arrive,0,0,,,,3,leave,1,,,,,,,,,,,,,,,,
De Laporte,10/1/09,13:41,13,impala,1,leave,0,0,,,,,,,,,,,,,,,,,,,,,,
De Laporte,9/30/09,13:42,13,impala,6,drink,0,0,,,,,,,,,,,,,,,,,,,,,,
De Laporte,9/30/09,13:43,13,impala,2,arrive,0,0,,,,6,avoid,1,,,,,,,,,,,,,,,,
De Laporte,9/30/09,13:47,13,impala,8,stand,0,0,,,,,,,,,,,,,,,,,,,,,,
De Laporte,9/30/09,13:56,13,impala,6,arrive,0,0,,,,8,walk,0,,,,,,,,,,,,,,,,
De Laporte,9/30/09,14:08,14,impala,14,leave,0,0,,,,,,,,,,,,,,,,,,,,,,
De Laporte,9/30/09,14:31,14,impala,1,arrive,0,0,,,,,,,,,,,,,,,,,,,,,,
De Laporte,9/30/09,14:34,14,impala,1,leave,0,0,,,,,,,,,,,,,,,,,,,,,,
De Laporte,10/1/09,14:34,14,impala,4,arrive,0,0,,,,,,,,,,,,,,,,,,,,,,
De Laporte,10/1/09,14:51,14,impala,4,leave,0,0,,,,,,,,,,,,,,,,,,,,,,
De Laporte,10/1/09,14:59,14,impala,5,arrive,0,1,,,,,,,,,,,,,,,,,,,,,,
De Laporte,10/1/09,15:08,15,impala,7,arrive,0,1,,,,5,leave,0,,,,,,,,,,,,,,,,
De Laporte,10/1/09,15:11,15,impala,7,leave,0,0,,,,,,,,,,,,,,,,,,,,,,
De Laporte,9/30/09,15:47,15,impala,4,arrive,0,0,,,,,,,,,,,,,,,,,,,,,,
De Laporte,9/30/09,15:54,15,impala,4,leave,0,0,,,,,,,,,,,,,,,,,,,,,,
De Laporte,10/1/09,15:55,15,impala,7,arrive,0,0,,,,,,,,,,,,,,,,,,,,,,
De Laporte,10/1/09,15:58,15,impala,7,leave,0,0,,,,,,,,,,,,,,,,,,,,,,
De Laporte,9/30/09,16:03,16,impala,3,arrive,3,3,,,,,,,,,,,,,,,,,,,,,,
De Laporte,10/1/09,16:19,16,impala,3,arrive,0,1,,,,,,,,,,,,,,,,,,,,,,
De Laporte,10/1/09,16:22,16,impala,3,leave,0,0,,,,,,,,,,,,,,,,,,,,,,
N'watindlopf,9/30/09,7:24,7,impala,28,arrive,,1,,,,,,,,,,,,,,,,,,,,,,
N'watindlopf,9/30/09,7:47,7,impala,28,leave,,,,,,,,,,,,,,,,,,,,,,,,
N'watindlopf,9/30/09,8:03,8,impala,4,arrive,,,,,,,,,,,,,,,,,,,,,,,,
N'watindlopf,9/30/09,8:04,8,impala,4, arrive,,,,,,,,,,,,,,,,,,,,,,,,
N'watindlopf,9/30/09,8:08,8,impala,8,graze,,2,,,,,,,,,,,,,,,,,,,,,,
N'watindlopf,9/30/09,8:12,8,impala,8,leave,,,,,,,,,,,,,,,,,,,,,,,,
N'watindlopf,9/30/09,8:13,8,impala,20,arrive,,,,,,,,,,,,,,,,,,,,,,,,
N'watindlopf,9/30/09,8:18,8,impala,20,leave,,2,,,,,,,,,,,,,,,,,,,,,,
N'watindlopf,9/30/09,8:33,8,impala,8,arrive,,,,,,,,,,,,,,,,,,,,,,,,
N'watindlopf,9/30/09,8:33,8,impala,8,graze,,,,,,,,,,,,,,,,,,,,,,,,
N'watindlopf,9/30/09,8:38,8,impala,1,arrive,,,,,,8,graze,,,,,,,,,,,,,,,,,
N'watindlopf,9/30/09,8:40,8,impala,1,leave,,,,,,8,graze,,,,,,,,,,,,,,,,,
N'watindlopf,9/30/09,9:08,9,impala,8,drink,,,,,,,,,,,,,,,,,,,,,,,,
N'watindlopf,9/30/09,9:11,9,impala,8,graze,,,,,,,,,,,,,,,,,,,,,,,,
N'watindlopf,9/30/09,9:16,9,impala,5,arrive,,,,,,8,graze,,,,,,,,,,,,,,,,,
N'watindlopf,9/30/09,9:21,9,impala,5,leave,,,,,,,,,,,,,,,,,,,,,,,,
N'watindlopf,9/30/09,9:24,9,impala,8,leave,,,,,,,,,,,,,,,,,,,,,,,,
N'watindlopf,9/30/09,9:55,9,impala,6,arrive,,,,,,,,,,,,,,,,,,,,,5,drink,,
N'watindlopf,9/30/09,11:07,11,impala,2,arrive,,,,,,,,,,,,,,,,,,,,,,,,
N'watindlopf,9/30/09,11:11,11,impala,2,leave,,,,,,,,,,,,,,,,,,,,,,,,
N'watindlopf,9/30/09,11:12,11,impala,12,arrive,,,,,,,,,,,,,,,,,,,,,,,,
N'watindlopf,9/30/09,11:22,11,impala,12,leave,,,,,,,,,,,,,,,,,,,,,,,,
N'watindlopf,9/30/09,11:38,11,impala,6,arrive,,,,,,,,,,,,,,,,,,,,,2,scare,1,
N'watindlopf,9/30/09,11:42,11,impala,6,graze,,,,,,,,,,,,,,,,,,,,,,,,
N'watindlopf,9/30/09,11:45,11,impala,11,arrive,,,,,,6,graze,,,,,,,,1,drink,,,,,,,,
N'watindlopf,9/30/09,11:49,11,impala,11,graze,,,,,,6,graze,,,,,,,,1,drink,,,,,,,,
N'watindlopf,9/30/09,11:57,11,impala,6,leave,,,,,,11,graze,,,,,,,,,,,,,,,,,
N'watindlopf,9/30/09,12:10,12,impala,11,leave,,,,,,,,,,,,,,,,,,,,,,,,
N'watindlopf,9/30/09,13:21,13,impala,6,arrive,,,2,graze,,,,,,,,,,,,,,,,,,,,
N'watindlopf,9/30/09,13:24,13,impala,6,graze,,,,,,,,,,,,,,,,,,,,,,,,
N'watindlopf,9/30/09,13:35,13,impala,6,leave,,,,,,,,,,,,,,,,,,,,,,,,
N'watindlopf,9/30/09,13:38,13,impala,1,arrive,,,,,,,,,,,,,,,,,,,,,,,,
N'watindlopf,9/30/09,13:42,13,impala,4,arrive,,,,,,1,graze,,,,,,,,,,,,,,,,,
N'watindlopf,9/30/09,14:02,14,impala,5,leave,,,,,,,,,,,,,,,,,,,,,,,,
N'watindlopf,9/30/09,14:51,14,impala,1,arrive,,1,,,,,,,,,,,,,,,,,,,,,,
N'watindlopf,9/30/09,14:56,14,impala,1,leave,,,,,,,,,,,,,,,,,,,,,,,,
N'watindlopfu,10/1/09,6:54,6,impala,4,arrive,0,0,0,0,0,0,0,0,0,0,0,0,0,0,0,0,0,0,0,0,0,0,0,3 hippos present all day
N'watindlopfu,10/1/09,6:58,6,impala,4,leave,,,,,,,,,,,,,,,,,,,,,,,,
N'watindlopfu,10/1/09,7:00,7,impala,1,arrive,,,,,,,,,,,,,,,,,,,,,,,,
N'watindlopfu,10/1/09,7:02,7,impala,1,leave,,,,,,,,,,,,,,,,,,,,,,,,
N'watindlopfu,10/1/09,7:18,7,impala,4,graze,,,,,,,,,,,,,,,,,,,,,,,,
N'watindlopfu,10/1/09,7:21,7,impala,4,drink,,,,,,,,,,,,,,,,,,,,,,,,
N'watindlopfu,10/1/09,7:23,7,impala,4,graze,,,,,,,,,,,,,,,,,,,,,,,,spooked
N'watindlopfu,10/1/09,7:29,7,impala,4,leave,,,,,,,,,,,,,,,,,,,,,,,,
N'watindlopfu,10/1/09,8:15,8,impala,5,arrive,,,,,,,,,,,,,,,,,,,,,,,,
N'watindlopfu,10/1/09,8:16,8,impala,2,arrive,,,,,,,,,,,,,,,,,,,,,,,,
N'watindlopfu,10/1/09,8:20,8,impala,7,drink,,1,,,,,,,,,,,,,,,,,,,,,,
N'watindlopfu,10/1/09,8:20,8,impala,13,arrive,,1,,,,,,,,,,,,,,,,,,,,,,
N'watindlopfu,10/1/09,8:20,8,impala,20,drink,,1,,,,,,,,,,,,,,,,,,,,,,
N'watindlopfu,10/1/09,8:24,8,impala,20,graze,,1,,,,,,,,,,,,,,,,,,,,,,
N'watindlopfu,10/1/09,8:28,8,impala,20,leave,,,,,,,,,,,,,,,,,,,,,,,,
N'watindlopfu,10/1/09,9:10,9,impala,5,arrive,,,,,,,,,,,,,,,,,,,,,,,,
N'watindlopfu,10/1/09,9:12,9,impala,5,leave,,,,,,,,,,,,,,,,,,,,,,,,
N'watindlopfu,10/1/09,9:15,9,impala,1,arrive,,,,,,,,,,,,,,,,,,,,,,,,
N'watindlopfu,10/1/09,9:20,9,impala,1,leave,,,,,,,,,,,,,,,,,,,,,,,,
N'watindlopfu,10/1/09,10:54,10,impala,3,arrive,,,,,,,,,,,,,,,,,,,,,,,,
N'watindlopfu,10/1/09,11:30,11,impala,3,leave,,,1,graze,,,,,,,,,,,,,,,,,,,,
N'watindlopfu,10/1/09,11:49,11,impala,6,arrive,15,,,,,,,,,,,,,,,,,,,,,,,
N'watindlopfu,10/1/09,12:16,12,impala,6,leave,,,,,,,,,,,,,,,,,,,,,,,,
N'watindlopfu,10/1/09,13:43,13,impala,11,arrive,,,,,,,,,,,,,,,,,,,,,,,,spooked
N'watindlopfu,10/1/09,13:50,13,impala,11,leave,,,,,,,,,,,,,,,,,,,,,,,,
N'watindlopfu,10/1/09,14:00,14,impala,5,arrive,,,,,,,,,,,,,,,,,,,,,,,,
N'watindlopfu,10/1/09,14:05,14,impala,5,leave,,,,,,,,,,,,,,,,,,,,,,,,
Nwaswitshaka,9/30/09,6:56,6,impala,1,arrive,0,3,0,,0,0,,,,,,,,,,,,,,,,,,
Nwaswitshaka,9/30/09,6:59,6,impala,1,drink,0,3,,,,,,,,,,,,,,,,,,,,,,
Nwaswitshaka,9/30/09,7:01,7,impala,1,leave,0,3,,,,,,,,,,,,,,,,,,,,,,
Nwaswitshaka,9/30/09,7:05,7,impala,4,arrive,0,2,,,,,,,,,,,,,,,,,,,,,,
Nwaswitshaka,10/1/09,7:08,7,impala,21,Arrive,0,0,,,,,,,,,,,,,,,,,,,,,,
Nwaswitshaka,9/30/09,7:10,7,impala,1,arrive,0,2,,,,,,,,,,,,,,,,,,,,,,
Nwaswitshaka,9/30/09,7:14,7,impala,4,leave,0,1,,,,,,,,,,,,,,,,,,,,,,
Nwaswitshaka,10/1/09,7:16,7,impala,21,Leave,0,0,,,,,,,,,,,,,,,,,,,,,,
Nwaswitshaka,10/1/09,7:17,7,impala,12,Arrive,0,1,,,,,,,,,,,,,,,,,,,,,,
Nwaswitshaka,10/1/09,7:24,7,impala,12,Leave,0,1,,,,,,,,,,,,,,,,,,,,,,
Nwaswitshaka,10/1/09,7:25,7,impala,2,Arrive,0,1,,,,,,,,,,,,,,,,,,,,,,
Nwaswitshaka,10/1/09,7:28,7,impala,2,Leave,0,1,,,,,,,,,,,,,,,,,,,,,,
Nwaswitshaka,9/30/09,7:36,7,impala,4,arrive,0,3,,,,,,,,,,,,,,,,,,,,,,
Nwaswitshaka,9/30/09,7:37,7,impala,4,drink,0,3,,,,,,,,,,,,,,,,,,,,,,
Nwaswitshaka,9/30/09,7:39,7,impala,8,approach,0,4,,,,,,,,,,,,,,,,,,,,,,
Nwaswitshaka,9/30/09,7:45,7,impala,22,arrive,0,0,,,,,,,,,,,,,,,,,,,,,,
Nwaswitshaka,10/1/09,7:46,7,impala,3,Arrive,0,0,,,,,,,,,,,,,,,,,,,,,,
Nwaswitshaka,9/30/09,7:53,7,impala,10,leave,0,2,,,,,,,,,,,,,,,,,,,,,,
Nwaswitshaka,10/1/09,7:53,7,impala,3,Leave,0,0,,,,,,,,,,,,,,,,,,,,,,
Nwaswitshaka,9/30/09,7:56,7,impala,12,leave,0,0,,,,,,,,,,,,,,,,,,,,,,
Nwaswitshaka,9/30/09,8:04,8,impala,9,approach,0,2,,,,,,,,,,,,,,,,,,,,,,
Nwaswitshaka,10/1/09,8:04,8,impala,16,arrive,0,0,,,,,,,,,,,,,,,,,,,,,,
Nwaswitshaka,9/30/09,8:07,8,impala,9,drink,0,2,,,,,,,,,,,,,,,,,,,,,,
Nwaswitshaka,9/30/09,8:07,8,impala,3,arrive,0,2,,,,,,,,,,,,,,,,,,,,,,
Nwaswitshaka,9/30/09,8:08,8,impala,5,arrive,0,2,,,,,,,,,,,,,,,,,,,,,,
Nwaswitshaka,9/30/09,8:10,8,impala,12,arrive,0,0,,,,,,,,,,,,,,,,,,,,,,
Nwaswitshaka,10/1/09,8:10,8,impala,16,drink,0,0,,,,,,,,,,,,,,,,,,,,,,
Nwaswitshaka,9/30/09,8:12,8,impala,20,drink,0,1,,,,,,,,,,,,,,,,,,,,,,
Nwaswitshaka,10/1/09,8:12,8,impala,12,leave,0,0,,,,,,,,,,,,,,,,,,,,,,
Nwaswitshaka,10/1/09,8:16,8,impala,4,leave,0,0,,,,,,,,,,,,,,,,,,,,,,
Nwaswitshaka,9/30/09,8:17,8,impala,20,leave,0,1,,,,,,,,,,,,,,,,,,,,,,
Nwaswitshaka,9/30/09,8:24,8,impala,13,arrive,0,0,,,,,,,,,,,,,,,,,,,,,,
Nwaswitshaka,9/30/09,8:27,8,impala,8,leave,0,0,,,,,,,,,,,,,,,,,,,,,,
Nwaswitshaka,9/30/09,8:31,8,impala,5,leave,0,1,,,,,,,,,,,,,,,,,,,,,,
Nwaswitshaka,9/30/09,8:35,8,impala,5,arrive,0,0,,,,,,,,,,,,,,,,,,,,,,
Nwaswitshaka,9/30/09,8:38,8,impala,15,arrive,0,1,,,,,,,,,,,,,,,,,,,,,,
Nwaswitshaka,9/30/09,8:40,8,impala,20,drink,0,1,,,,,,,,,,,,,,,,,,,,,,
Nwaswitshaka,9/30/09,8:42,8,impala,11,leave,0,2,,,,,,,,,,,,,,,,,,,,,,
Nwaswitshaka,10/1/09,9:00,9,impala,1,arrive,0,2,,,,,,,,,,,,,,,,,,,,,,
Nwaswitshaka,9/30/09,9:01,9,impala,27,arrive,0,0,,,,,,,,,,,,,,,,,,,,,,
Nwaswitshaka,10/1/09,9:02,9,impala,1,leave,0,0,,,,,,,,,,,,,,,,,,,,,,
Nwaswitshaka,10/1/09,9:11,9,impala,50,arrive,0,1,,,,,,,,,,,,,,,,,,,,,,
Nwaswitshaka,10/1/09,9:16,9,impala,10,arrive,0,2,,,,,,,,,,,,,,,,,,,,,,
Nwaswitshaka,10/1/09,9:21,9,impala,60,leave,0,0,,,,,,,,,,,,,,,,,,,,,,
Nwaswitshaka,9/30/09,9:30,9,impala,17,leave,0,1,,,,,,,,,,,,,,,,,,,,,,
Nwaswitshaka,10/1/09,9:31,9,impala,10,arrive,0,0,,,,,,,,,,,,,,,,,,,,,,
Nwaswitshaka,10/1/09,9:33,9,impala,10,leave,0,0,,,,,,,,,,,,,,,,,,,,,,
Nwaswitshaka,10/1/09,9:50,9,impala,25,arrive,0,0,,,,,,,,,,,,,,,,,,,,,,
Nwaswitshaka,9/30/09,9:52,9,impala,15,arrive,0,0,,,,,,,,,,,,,,,,,,,,,,
Nwaswitshaka,9/30/09,10:10,10,impala,10,Leave,0,0,,,,,,,,,,,,,,,,,,,,,,
Nwaswitshaka,10/1/09,10:17,10,impala,22,leave,0,0,,,,,,,,,,,,,,,,,,,,,,
Nwaswitshaka,9/30/09,10:18,10,impala,12,arrive,0,0,,,,,,,,,,,,,,,,,,,,,,
Nwaswitshaka,10/1/09,10:21,10,impala,3,leave,0,0,,,,,,,,,,,,,,,,,,,,,,
Nwaswitshaka,9/30/09,10:24,10,impala,6,leave,0,1,,,,,,,,,,,,,,,,,,,,,,
Nwaswitshaka,9/30/09,10:24,10,impala,5,approach,0,1,,,,,,,,,,,,,,,,,,,,,,
Nwaswitshaka,9/30/09,10:28,10,impala,7,leave,0,0,,,,,,,,,,,,,,,,,,,,,,
Nwaswitshaka,10/1/09,10:34,10,impala,5,arrive,0,0,,,,,,,,,,,,,,,,,,,,,,
Nwaswitshaka,10/1/09,10:36,10,impala,5,drink,0,0,,,,,,,,,,,,,,,,,,,,,,
Nwaswitshaka,10/1/09,10:41,10,impala,5,leave,0,0,,,,,,,,,,,,,,,,,,,,,,
Nwaswitshaka,10/1/09,10:52,10,impala,1,arrive,0,0,,,,,,,,,,,,,,,,,,,,,,
Nwaswitshaka,10/1/09,10:57,10,impala,1,leave,0,0,,,,,,,,,,,,,,,,,,,,,,
Nwaswitshaka,10/1/09,10:57,10,impala,2,arrive,0,0,,,,,,,,,,,,,,,,,,,,,,
Nwaswitshaka,10/1/09,10:59,10,impala,2,drink,0,0,,,,,,,,,,,,,,,,,,,,,,
Nwaswitshaka,10/1/09,11:02,11,impala,2,leave,0,0,,,,,,,,,,,,,,,,,,,,,,
Nwaswitshaka,10/1/09,11:11,11,impala,5,arrive,0,0,,,,,,,,,,,,,,,,,,,,,,
Nwaswitshaka,10/1/09,11:14,11,impala,5,leave,0,1,,,,,,,,,,,,,,,,,,,,,,
Nwaswitshaka,10/1/09,11:16,11,impala,7,arrive,0,1,,,,,,,,,,,,,,,,,,,,,,
Nwaswitshaka,10/1/09,11:20,11,impala,7,leave,0,1,,,,,,,,,,,,,,,,,,,,,,
Nwaswitshaka,10/1/09,11:23,11,impala,10,arrive,0,1,,,,,,,,,,,,,,,,,,,,,,
Nwaswitshaka,10/1/09,11:33,11,impala,2,drink,0,0,,,,,Drink,1,,,,,,,,,,,,,,,,in response to giraffe leaving
Nwaswitshaka,10/1/09,11:36,11,impala,10,leave,0,0,,,,,,,,,,,,,,,,,,,,,,
Nwaswitshaka,10/1/09,11:47,11,impala,3,arrive,0,0,,,,,,,,,,,,,,,,,,,,,,
Nwaswitshaka,10/1/09,11:55,11,impala,3,leave,0,0,,,,,,,,,,,,,,,,,,,,,,
Nwaswitshaka,10/1/09,12:05,12,impala,4,arrive,0,0,,,,,,,,,,,,,,,,,,,,,,
Nwaswitshaka,9/30/09,12:07,12,impala,9,arrive,0,0,,,,,,,,,,,,,,,,,,,,,,
Nwaswitshaka,10/1/09,12:11,12,impala,4,leave,0,0,,,,,,,,,,,,,,,,,,,,,,
Nwaswitshaka,10/1/09,12:12,12,impala,5,arrive,0,0,,,,,,,,,,,,,,,,,,,,,,
Nwaswitshaka,10/1/09,12:15,12,impala,5,leave,0,0,,,,,,,,,,,,,,,,,,,,,,
Nwaswitshaka,9/30/09,12:16,12,impala,21,arrive,0,0,,,,,,,,,,,,,,,,,,,,,,
Nwaswitshaka,9/30/09,12:26,12,impala,21,leave,0,0,,,,,,,,,,,,,,,,,,,,,,
Nwaswitshaka,9/30/09,12:32,12,impala,2,arrive,0,3,,,,,,,,,,,,,,,,,,,,,,
Nwaswitshaka,10/1/09,12:34,12,impala,11,arrive,0,0,,,,,,,,,,,,,,,,,,,,,,
Nwaswitshaka,10/1/09,12:38,12,impala,11,leave,0,0,,,,,,,,,,,,,,,,,,,,,,
Nwaswitshaka,9/30/09,12:40,12,impala,2,leave,0,3,,,,,,,,,,,,,,,,,,,,,,
Nwaswitshaka,10/1/09,12:45,12,impala,1,arrive,0,0,,,,,,,,,,,,,,,,,,,,,,
Nwaswitshaka,10/1/09,12:55,12,impala,1,drink,0,0,,,,,,,,,,,,,,,,,,,,,,
Nwaswitshaka,10/1/09,12:57,12,impala,1,leave,0,0,,,,,,,,,,,,,,,,,,,,,,
Nwaswitshaka,9/30/09,13:03,13,impala,5,arrive,0,4,,,,,,,,,,,,,,,,,,,,,,
Nwaswitshaka,9/30/09,13:04,13,impala,5,drink,0,4,,,,,scared in response to cars,,,,,,,,,,,,,,,,,
Nwaswitshaka,10/1/09,13:17,13,impala,18,arrive,0,0,,,,,,,,,,,,,,,,,,,,,,
Nwaswitshaka,9/30/09,13:20,13,impala,12,arrive,0,0,,,,,,,,,,,,,,,,,,,,,,
Nwaswitshaka,10/1/09,13:23,13,impala,18,drink,0,0,,,,,,,,,,,,,,,,,,,,,,
Nwaswitshaka,9/30/09,13:26,13,impala,20,leave,0,1,,,,,,,,,,,,,,,,,,,,,,
Nwaswitshaka,9/30/09,13:27,13,impala,2,arrive,0,1,,,,,,,,,,,,,,,,,,,,,,
Nwaswitshaka,9/30/09,13:29,13,impala,2,leave,0,0,,,,,,,,,,,,,,,,,,,,,,
Nwaswitshaka,9/30/09,13:49,13,impala,1,leave,0,1,,,,,,,,,,,,,,,,,,,,,,
Nwaswitshaka,9/30/09,13:56,13,impala,1,arrive,0,0,,,,,,,,,,,,,,,,,,,,,,
Nwaswitshaka,10/1/09,14:06,14,impala,4,arrive,0,0,,,,,,,,,,,,,,,,,,,,,,
Nwaswitshaka,10/1/09,14:09,14,impala,22,leave,0,0,,,,,,,,,,,,,,,,,,,,,,
Nwaswitshaka,10/1/09,14:21,14,impala,1,arrive,0,0,,,,,,,,,,,,,,,,,,,,,,
Nwaswitshaka,10/1/09,14:25,14,impala,1,leave,0,0,,,,,,,,,,,,,,,,,,,,,,
Nwaswitshaka,10/1/09,14:34,14,impala,4,arrive,0,0,,,,,,,,,,,,,,,,,,,,,,
Nwaswitshaka,10/1/09,14:40,14,impala,4,leave,0,0,,,,,,,,,,,,,,,,,,,,,,
Nwaswitshaka,10/1/09,14:42,14,impala,2,arrive,0,0,,,,,,,,,,,,,,,,,,,,,,
Nwaswitshaka,10/1/09,14:56,14,impala,5,arrive,0,0,,,,,,,,,,,,,,,,,,,,,,
Nwaswitshaka,10/1/09,15:02,15,impala,7,leave,0,0,,,,,,,,,,,,,,,,,,,,,,
Nwaswitshaka,10/1/09,15:05,15,impala,2,arrive,0,0,,,,,scared,1,,,,,,,,,,,,,,,,
Nwaswitshaka,9/30/09,15:11,15,impala,7,arrive,16,1,,,,,avoid,1,,,,,,,,,,,,,,,,
Nwaswitshaka,10/1/09,15:11,15,impala,2,leave,1,0,,,,,,,,,,,,,,,,,,,,,,
Nwaswitshaka,9/30/09,15:13,15,impala,7,drink,16,1,,,,,avoid,1,,,,,,,,,,,,,,,,
Nwaswitshaka,9/30/09,15:14,15,impala,7,leave,16,1,,,,,,,,,,,,,,,,,,,,,,
Nwaswitshaka,10/1/09,15:28,15,impala,15,arrive,0,3,,,,,,,,,,,,,,,,,,,,,,
Nwaswitshaka,10/1/09,15:38,15,impala,15,leave,0,0,,,,,,,,,,,,,,,,,,,,,,
Nwaswitshaka,10/1/09,15:41,15,impala,4,arrive,0,0,,,,,,,,,,,,,,,,,,,,,,
Nwaswitshaka,10/1/09,15:53,15,impala,4,leave,0,1,,,,,,,,,,,,,,,,,,,,,,
Nwaswitshaka,9/30/09,16:00,16,impala,1,arrive,19,5,,,,,avoid,1,,,,,,,,,,,,,,,,
Nwaswitshaka,9/30/09,16:10,16,impala,2,arrive,0,3,,,,,arrive as elephant left,1,,,,,,,,,,,,,,,,
Nwaswitshaka,9/30/09,16:18,16,impala,2,leave,0,3,,,,,,,,,,,,,,,,,,,,,,
Nwaswitshaka,9/30/09,16:30,16,impala,19,arrive,0,0,,,,,,,,,,,,,,,,,,,,,,
Nwaswitshaka,9/30/09,16:35,16,impala,19,leave,0,0,,,,,,,,,,,,,,,,,,,,,,
Nwaswitshaka,9/30/09,16:50,16,impala,3,arrive,0,0,,,,,,,,,,,,,,,,,,,,,,
Nwaswitshaka,9/30/09,17:01,17,impala,3,leave,1,0,,,,,leave,1,,,,,,,,,,,,,,,,
Transport Dam,9/30/09,6:19,6,impala,3,arrive,0,0,,,,,,,,,,,,,,,,,,,7,drinking,0,"Far from zebra, Chocolate Chippo present."
Transport Dam,9/30/09,6:23,6,impala,3,leave,0,0,,,,,,,,,,,,,,,,,,,,,,
Transport Dam,9/30/09,6:40,6,impala,57,arrive,0,0,,,,,,,,,,,,,,,,,,,,,,
Transport Dam,9/30/09,6:49,6,impala,57,leave,0,0,,,,,,,,,,,,,,,,,,,,,,
Transport Dam,9/30/09,7:00,7,impala,5,arrive,0,1,,,,,,,,,,,,,,,,1,drinking,0,,,,startled bynew tourists
Transport Dam,9/30/09,7:05,7,impala,5,leave,0,0,,,,,,,,,,,,,,,,,,,,,,
Transport Dam,9/30/09,7:29,7,impala,9,arrive,0,2,,,,,,,,,,,,,,,,,,,,,,
Transport Dam,9/30/09,7:30,7,impala,20,arrive,0,3,,,,9,drinking,0,,,,,,,,,,,,,,,,
Transport Dam,9/30/09,7:35,7,impala,10,arrive,0,1,,,,39,drinking,0,,,,,,,,,,9,drinking,0,,,,
Transport Dam,9/30/09,7:36,7,impala,9,leave,0,0,,,,49,drinking,0,,,,,,,,,,18,drinking,0,,,,
Transport Dam,9/30/09,7:38,7,impala,20,leave,0,0,,,,40,drinking,0,,,,,,,,,,18,drinking,0,,,,
Transport Dam,9/30/09,7:40,7,impala,10,leave,0,1,,,,10,drinking,0,,,,,,,,,,7,drinking,0,,,,
Transport Dam,9/30/09,7:46,7,impala,10,leave,0,3,,,,,,,,,,,,,,,,,,,,,,
Transport Dam,9/30/09,7:55,7,impala,25,arrive,0,2,,,,,,,,,,,,,,,,,,,,,,
Transport Dam,9/30/09,8:02,8,impala,50,arrive,0,5,,,,25,drinking,0,,,,,,,,,,,,,7,drinking,0,
Transport Dam,9/30/09,8:09,8,impala,25,leaving,0,3,,,,50,drinking,0,,,,,,,,,,,,,,,,
Transport Dam,10/1/09,8:10,8,impala,3,arrive,0,0,,,,,,,,,,,,,,,,8,grazing,0,,,,
Transport Dam,10/1/09,8:15,8,impala,3,leave,0,0,,,,,,,,,,,,,,,,8,grazing,0,,,,
Transport Dam,9/30/09,8:19,8,impala,50,leaving,0,2,,,,,,,,,,,,,,,,,,,,,,
Transport Dam,9/30/09,8:19,8,impala,65,arrive,0,2,,,,,,,,,,,,,,,,,,,5,drinking,0,
Transport Dam,9/30/09,8:29,8,impala,3,arrive,0,2,,,,65,drinking,0,,,,,,,,,,,,,,,,
Transport Dam,9/30/09,8:32,8,impala,65,leave,0,3,,,,3,drinking,0,,,,,,,,,,,,,,,,
Transport Dam,9/30/09,8:40,8,impala,3,arrive,0,3,,,,,,,,,,,,,,,,,,,,,,
Transport Dam,9/30/09,8:44,8,impala,1,leave,0,3,,,,,,,,,,,,,,,,,,,,,,
Transport Dam,9/30/09,8:45,8,impala,2,leave,0,2,,,,,,,,,,,,,,,,,,,,,,
Transport Dam,9/30/09,8:46,8,impala,1,leave,0,1,,,,,,,,,,,,,,,,,,,,,,
Transport Dam,9/30/09,8:51,8,impala,4,arrive,0,1,,,,,,,,,,,,,,,,,,,,,,
Transport Dam,9/30/09,9:10,9,impala,1,arrive,0,3,,,,,,,,,,,,,,,,,,,,,,
Transport Dam,9/30/09,9:11,9,impala,1,leave,0,3,,,,,,,,,,,,,,,,,,,,,,
Transport Dam,9/30/09,9:16,9,impala,1,leave,0,5,,,,,,,,,,,,,,,,,,,,,,
Transport Dam,9/30/09,9:21,9,impala,2,leave,0,3,,,,,,,,,,,,,,,,,,,,,,
Transport Dam,9/30/09,9:23,9,impala,22,arrive,0,3,,,,,,,,,,,,,,,,,,,,,,
Transport Dam,9/30/09,9:30,9,impala,11,arrive,0,5,,,,,,,,,,,,,,,,,,,,,,
Transport Dam,10/1/09,9:36,9,impala,1,arrive,0,2,,,,,,,,,,,,,,,,,,,,,,crocodile present
Transport Dam,10/1/09,9:36,9,impala,11,graze,0,2,,,,,,,,,,,,,,,,,,,,,,
Transport Dam,9/30/09,9:38,9,impala,22,leave,0,5,,,,,,,,,,,,,,,,,,,,,,
Transport Dam,9/30/09,9:38,9,impala,2,arrive,0,6,,,,,,,,,,,,,,,,,,,,,,
Transport Dam,10/1/09,9:42,9,impala,1,leave,0,1,,,,,,,,,,,,,,,,,,,,,,
Transport Dam,9/30/09,9:43,9,impala,2,leave,0,5,,,,,,,,,,,,,,,,,,,,,,
Transport Dam,9/30/09,9:46,9,impala,27,arrive,0,4,,,,,,,,,,,,,,,,,,,,,,
Transport Dam,10/1/09,9:48,9,impala,11,leave,0,2,1,scaring,1,,,,,,,,,,,,,,,,,,,
Transport Dam,9/30/09,9:52,9,impala,11,leave,0,5,,,,,,,,,,,,,,,,,,,,,,
Transport Dam,10/1/09,9:55,9,impala,2,arrive,0,3,,,,,,,,,,,,,,,,1,drinking,0,,,,
Transport Dam,9/30/09,9:57,9,impala,27,leaving,0,5,,,,,,,,,,,,,,,,,,,,,,
Transport Dam,10/1/09,9:59,9,impala,1,arrive,0,3,,,,2,graze,0,,,,,,,,,,,,,,,,
Transport Dam,9/30/09,9:59,9,impala,31,arrive,0,5,,,,,,,,,,,,,,,,,,,,,,
Transport Dam,10/1/09,10:02,10,impala,1,leave,0,3,,,,2,graze,0,,,,,,,,,,,,,,,,
Transport Dam,10/1/09,10:02,10,impala,5,arrive,0,2,,,,2,graze,1,,,,,,,,,,,,,,,,join already present impala and begin to graze
Transport Dam,9/30/09,10:02,10,impala,31,leave,0,4,,,,,,,,,,,,,,,,,,,,,,
Transport Dam,10/1/09,10:04,10,impala,2,arrive,0,2,,,,7,graze,1,,,,,,,,,,,,,,,,join already present impala and begin to graze
Transport Dam,9/30/09,10:05,10,impala,18,drinking,0,8,,,,,,,,,,,,,,,,,,,,,,
Transport Dam,10/1/09,10:07,10,impala,1,arrive,0,2,,,,9,graze,1,,,,,,,,,,1,grazing,0,,,,join already present impala and begin to graze
Transport Dam,10/1/09,10:12,10,impala,1,leaves,0,2,,,,9,graze,0,,,,,,,,,,1,grazing,0,,,,
Transport Dam,9/30/09,10:15,10,impala,18,leave,0,2,,,,,,,,,,,,,,,,,,,,,,
Transport Dam,9/30/09,10:15,10,impala,15,arrive,0,2,,,,,,,,,,,,,,,,,,,,,,
Transport Dam,10/1/09,10:16,10,impala,44,arrive,0,0,,,,9,graze,1,,,,,,,,,,1,grazing,0,,,,join already present impala and begin to graze
Transport Dam,10/1/09,10:16,10,impala,13,arrive,0,0,,,,53,graze,1,,,,,,,,,,1,grazing,0,,,,join already present impala and begin to graze
Transport Dam,9/30/09,10:17,10,impala,55,arrive,0,2,,,,,,,,,,,,,,,,,,,,,,
Transport Dam,10/1/09,10:21,10,impala,27,arrive,0,1,,,,66,graze,0,,,,,,,,,,1,grazing,0,,,,
Transport Dam,10/1/09,10:22,10,impala,13,leave,0,0,,,,80,graze,0,,,,,,,,,,,,,,,,impala leave from group of 66
Transport Dam,9/30/09,10:22,10,impala,15,leave,0,2,,,,,,,,,,,,,,,,,,,,,,
Transport Dam,9/30/09,10:27,10,impala,8,arrive,0,3,,,,,,,,,,,,,,,,,,,,,,
Transport Dam,10/1/09,10:29,10,impala,2,arrive,0,1,,,,80,graze,0,,,,,,,,,,,,,,,,do not join other impala
Transport Dam,9/30/09,10:33,10,impala,8,leave,0,6,,,,,,,,,,,,,,,,,,,,,,
Transport Dam,10/1/09,10:34,10,impala,2,leave,0,1,,,,80,graze,0,,,,,,,,,,,,,,,,
Transport Dam,10/1/09,10:39,10,impala,27,leave,0,1,,,,53,graze,0,,,,,,,,,,,,,,,,
Transport Dam,9/30/09,10:43,10,impala,55,leave,0,3,,,,,,,,,,,,,,,,,,,,,,
Transport Dam,10/1/09,10:51,10,impala,27,arrive,0,4,,,,53,graze,0,,,,,,,,,,,,,,,,join already present impala and begin to graze
Transport Dam,10/1/09,10:53,10,impala,5,arrive,0,4,,,,80,graze,0,,,,,,,,,,,,,,,,do not join other impala
Transport Dam,9/30/09,10:56,10,impala,19,leave,0,5,,,,,,,,,,,,,,,,,,,,,,
Transport Dam,9/30/09,10:57,10,impala,13,arrive,0,5,,,,,,,,,,,,,,,,,,,,,,
Transport Dam,9/30/09,11:00,11,impala,2,arrive,0,5,,,,,,,,,,,,,,,,,,,,,,
Transport Dam,9/30/09,11:00,11,impala,13,leave,0,5,,,,,,,,,,,,,,,,,,,,,,
Transport Dam,9/30/09,11:04,11,impala,2,leave,0,5,,,,,,,,,,,,,,,,,,,,,,
Transport Dam,10/1/09,11:05,11,impala,32,leave,0,4,,,,48,graze,0,,,,,,,,,,1,drinking,0,,,,
Transport Dam,10/1/09,11:09,11,impala,9,arrive,0,3,,,,48,graze,0,,,,,,,,,,,,,,,,do not join other impala
Transport Dam,9/30/09,11:09,11,impala,19,leave,0,5,,,,,,,,,,,,,,,,,,,,,,
Transport Dam,9/30/09,11:13,11,impala,3,arrive,0,3,,,,,,,,,,,,,,,,,,,,,,
Transport Dam,10/1/09,11:14,11,impala,26,arrive,0,3,,,,57,graze,0,,,,,,,,,,,,,,,,do not join other impala
Transport Dam,10/1/09,11:15,11,impala,9,leave,0,3,,,,74,graze,0,,,,,,,4,drinking,0,,,,,,,these are the 9 that arrive and did not integrate
Transport Dam,10/1/09,11:18,11,impala,51,leave,0,3,,,,23,graze,0,,,,3,drinking,0,4,drinking,0,,,,,,,
Transport Dam,9/30/09,11:19,11,impala,3,leave,0,5,,,,,,,,,,,,,,,,,,,,,,
Transport Dam,10/1/09,11:20,11,impala,3,arrive,0,3,,,,23,graze,0,,,,3,drinking,0,4,drinking,0,,,,,,,do not join other impala
Transport Dam,9/30/09,11:22,11,impala,2,arrive,0,8,,,,,,,,,,,,,,,,,,,,,,
Transport Dam,10/1/09,11:24,11,impala,26,leave,0,3,,,,3,drinking,0,,,,3,drinking,0,4,grazing,0,,,,,,,
Transport Dam,9/30/09,11:26,11,impala,6,arrive,0,8,,,,,,,,,,,,,,,,,,,,,,
Transport Dam,9/30/09,11:29,11,impala,4,arrive,0,3,,,,,,,,,,,,,,,,,,,,,,
Transport Dam,9/30/09,11:30,11,impala,2,arrive,0,3,,,,,,,,,,,,,,,,,,,,,,
Transport Dam,10/1/09,11:31,11,impala,7,arrive,0,4,,,,3,drinking,0,,,,3,drinking,0,4,grazing,0,,,,,,,see a crodile and become skiddish. Car engine scared them too. Did not join other impala
Transport Dam,9/30/09,11:32,11,impala,9,arrive,0,3,,,,,,,,,,,,,,,,,,,,,,
Transport Dam,10/1/09,11:33,11,impala,3,leave,0,3,,,,7,grazing,0,,,,3,drinking,0,4,grazing,0,1,grazing,0,,,,
Transport Dam,9/30/09,11:33,11,impala,4,leave,0,4,,,,,,,,,,,,,,,,,,,,,,
Transport Dam,9/30/09,11:33,11,impala,2,leave,0,4,,,,,,,,,,,,,,,,,,,,,,
Transport Dam,9/30/09,11:36,11,impala,9,leave,0,3,,,,,,,,,,,,,,,,,,,,,,
Transport Dam,9/30/09,11:42,11,impala,6,arrive,0,1,,,,,,,,,,,,,,,,,,,,,,
Transport Dam,9/30/09,11:44,11,impala,6,arrive,0,2,,,,,,,,,,,,,,,,,,,,,,
Transport Dam,10/1/09,11:45,11,impala,2,arrive,0,3,,,,7,grazing,0,,,,,,,4,grazing,0,1,grazing,0,,,,
Transport Dam,10/1/09,11:47,11,impala,18,arrive,0,3,,,,7,grazing,0,,,,,,,4,grazing,0,,,,,,,
Transport Dam,10/1/09,11:49,11,impala,7,leave,0,3,,,,18,drinking,0,,,,,,,4,grazing,0,,,,,,,
Transport Dam,10/1/09,11:51,11,impala,2,leave,0,3,,,,18,drinking,0,,,,,,,4,grazing,0,,,,,,,
Transport Dam,10/1/09,11:53,11,impala,18,leave,0,3,,,,,,,,,,,,,4,grazing,0,,,,,,,
Transport Dam,9/30/09,11:53,11,impala,6,leave,0,3,,,,,,,,,,,,,,,,,,,,,,
Transport Dam,9/30/09,11:56,11,impala,16,arrive,0,2,,,,,,,,,,,,,,,,,,,,,,
Transport Dam,10/1/09,12:02,12,impala,5,arrive,1,6,,,,,,,,,,,,,4,grazing,0,,,,,,,
Transport Dam,9/30/09,12:08,12,impala,16,leave,0,1,,,,,,,,,,,,,,,,,,,,,,
Transport Dam,10/1/09,12:12,12,impala,5,leave,1,4,,,,,,,,,,,,,,,,,,,,,,
Transport Dam,10/1/09,12:15,12,impala,19,arrive,1,4,,,,,,,,,,,,,,,,,,,,,,Approx. 50m away from elephant
Transport Dam,10/1/09,12:22,12,impala,17,arrive,1,2,,,,19,scared,0,,,,1,drinking,0,,,,,,,,,,
Transport Dam,10/1/09,12:23,12,impala,19,leave,1,4,,,,17,scared,0,,,,,,,,,,,,,,,,"whole herd runs a short distance from elly, then creeps back"
Transport Dam,10/1/09,12:24,12,impala,17,arrive,1,2,,,,17,drinking,0,,,,,,,,,,,,,,,,Approx. 40m from elephant
Transport Dam,9/30/09,12:27,12,impala,1,arrive,0,2,,,,,,,,,,,,,,,,,,,,,,
Transport Dam,10/1/09,12:28,12,impala,17,leave,1,2,,,,17,drinking,0,,,,,,,,,,,,,,,,
Transport Dam,10/1/09,12:29,12,impala,21,arrive,1,2,,,,38,drinking,0,,,,,,,,,,,,,,,,far from elephant
Transport Dam,9/30/09,12:30,12,impala,9,arrive,0,1,,,,,,,,,,,,,,,,,,,,,,
Transport Dam,10/1/09,12:31,12,impala,17,leave,1,2,,,,21,drinking,0,,,,,,,,,,,,,,,,
Transport Dam,9/30/09,12:33,12,impala,9,leave,0,3,,,,,,,,,,,,,,,,,,,,,,
Transport Dam,9/30/09,12:34,12,impala,1,leave,0,2,,,,,,,,,,,,,,,,,,,,,,
Transport Dam,10/1/09,12:39,12,impala,21,leave,2,2,,,,,,,,,,,,,2,grazing,0,,,,,,,
Transport Dam,10/1/09,12:44,12,impala,3,arrive,2,4,,,,,,,,,,,,,,,,,,,,,,"Approx.40m away, no interaction."
Transport Dam,10/1/09,12:48,12,impala,3,leave,2,5,,,,,,,,,,3,grazing,0,,,,,,,,,,
Transport Dam,9/30/09,12:49,12,impala,3,leave,0,0,,,,,,,,,,,,,,,,,,,,,,
Transport Dam,9/30/09,12:50,12,impala,3,arrive,0,1,,,,,,,,,,,,,,,,,,,,,,
Transport Dam,10/1/09,12:52,12,impala,2,arrive,1,5,,,,,,,,,,3,grazing,0,,,,,,,,,,
Transport Dam,10/1/09,13:00,13,impala,2,leave,1,5,,,,,,,,,,3,grazing,0,,,,,,,,,,
Transport Dam,9/30/09,13:00,13,impala,14,arrive,0,2,,,,,,,,,,,,,,,,,,,,,,
Transport Dam,9/30/09,13:07,13,impala,22,arrive,0,5,,,,,,,,,,,,,,,,,,,,,,
Transport Dam,9/30/09,13:12,13,impala,1,arrive,0,2,,,,,,,,,,,,,,,,,,,,,,
Transport Dam,9/30/09,13:13,13,impala,14,leave,0,2,,,,,,,,,,,,,,,,,,,,,,
Transport Dam,9/30/09,13:13,13,impala,1,leave,0,4,,,,,,,,,,,,,,,,,,,,,,
Transport Dam,9/30/09,13:22,13,impala,22,leave,0,4,,,,,,,,,,,,,,,,,,,,,,
Transport Dam,9/30/09,13:35,13,impala,8,arrive,0,3,,,,,,,,,,,,,,,,,,,,,,
Transport Dam,9/30/09,13:39,13,impala,8,leave,0,6,,,,,,,,,,,,,,,,,,,,,,
Transport Dam,9/30/09,13:57,13,impala,1,arrive,0,3,,,,,,,,,,,,,,,,,,,,,,
Transport Dam,9/30/09,14:08,14,impala,2,arrive,0,2,,,,,,,,,,,,,,,,,,,,,,
Transport Dam,9/30/09,14:12,14,impala,2,leave,0,1,,,,,,,,,,,,,,,,,,,,,,
Transport Dam,9/30/09,14:22,14,impala,3,arrive,0,1,,,,,,,,,,,,,,,,,,,,,,
Transport Dam,9/30/09,14:31,14,impala,3,leave,0,1,,,,,,,,,,,,,,,,,,,,,,
Transport Dam,9/30/09,14:54,14,impala,5,arrive,0,3,,,,,,,,,,,,,,,,,,,,,,
Transport Dam,9/30/09,14:59,14,impala,5,leave,0,0,,,,,,,,,,,,,,,,,,,,,,
Transport Dam,9/30/09,15:20,15,impala,7,arrive,0,1,,,,,,,,,,,,,,,,,,,,,,
Transport Dam,9/30/09,15:25,15,impala,7,leave,0,0,,,,,,,,,,,,,,,,,,,,,,
Transport Dam,9/30/09,15:37,15,impala,1,arrive,0,3,,,,,,,,,,,,,,,,,,,,,,
Transport Dam,9/30/09,15:41,15,impala,1,leave,0,0,,,,,,,,,,,,,,,,,,,,,,
Transport Dam,9/30/09,15:45,15,impala,2,arrive,0,4,,,,,,,,,,,,,,,,,,,,,,
Transport Dam,9/30/09,15:50,15,impala,2,leave,0,4,,,,,,,,,,,,,,,,,,,,,,
Transport Dam,9/30/09,15:54,15,impala,1,arrive,0,5,,,,,,,,,,,,,,,,,,,,,,
Transport Dam,9/30/09,16:01,16,impala,4,arrive,0,5,,,,,,,,,,,,,,,,,,,,,,
Transport Dam,10/1/09,16:03,16,impala,5,arrive,0,1,,,,,,,,,,,,,,,,,,,,,,
Transport Dam,9/30/09,16:05,16,impala,5,leave,0,5,,,,,,,,,,,,,,,,,,,,,,
Transport Dam,10/1/09,16:10,16,impala,5,leave,0,1,,,,,,,,,,,,,,,,,,,,,,
N'watindlopf,9/30/09,7:38,7,impala,28,graze,,,,,,,,,,,,,,,,,,,,,,,,
N'watindlopf,9/30/09,9:57,9,impala,6,leave,,,,,,,,,,,,,,,,,,,,,5,drink,,
Nwaswitshaka,9/30/09,12:21,12,impala,21,drink,0,1,,,,,,,,,,,,,,,,,,,,,,
De Laporte,9/30/09,9:52,9,kudu,1,arrive,0,0,,,,,,,,,,,,,,,,,,,,,,
De Laporte,9/30/09,9:55,9,kudu,5,arrive,0,0,,,,30,drink,0,,,,,,,,,,,,,,,,kudu remained aloof
De Laporte,9/30/09,10:37,10,kudu,5,leave,0,0,,,,39,walk,0,,,,,,,,,,,,,,,,
De Laporte,10/1/09,11:31,11,kudu,2,arrive,0,1,,,,10,drink,0,,,,,,,,,,,,,,,,
De Laporte,10/1/09,11:33,11,kudu,2,arrive,0,3,,,,10,3 leave,0,2,browse,0,,,,,,,,,,,,,
De Laporte,10/1/09,11:40,11,kudu,4,leave,0,1,,,,7,drink,0,,,,,,,,,,,,,,,,
Transport Dam,9/30/09,9:01,9,kudu,3,arrive,0,1,,,,,,,,,,,,,,,,,,,,,,
Transport Dam,9/30/09,9:20,9,kudu,3,leave,0,5,,,,,,,,,,,,,,,,,,,,,,
Transport Dam,9/30/09,9:40,9,kudu,1,arrive,0,5,,,,,,,,,,,,,,,,,,,,,,
Transport Dam,9/30/09,9:50,9,kudu,1,leave,0,4,,,,,,,,,,,,,,,,,,,,,,
Transport Dam,9/30/09,9:54,9,kudu,1,arrive,0,5,,,,,,,,,,,,,,,,,,,,,,
Transport Dam,9/30/09,10:03,10,kudu,1,leave,0,5,,,,,,,,,,,,,,,,,,,,,,
Transport Dam,9/30/09,13:50,13,kudu,3,arrive,0,6,,,,,,,,,,,,,,,,,,,,,,
Transport Dam,9/30/09,13:53,13,kudu,3,leave,0,6,,,,,,,,,,,,,,,,,,,,,,
N'watindlopfu,10/1/09,8:00,8,roan antelope,1,arrive,,,,,,,,,,,,,,,,,,,,,,,,
N'watindlopfu,10/1/09,8:01,8,roan antelope,1,leave,,,,,,,,,,,,,,,,,,,,,,,,
Nwaswitshaka,9/30/09,7:11,7,Springbok,1,arrive,0,2,,,,,drinking,,,,,,,,,,,,,,,,,
Transport Dam,10/1/09,17:15,17,stop,,,,,,,,,,,,,,,,,,,,,,,,,,
De Laporte,9/30/09,8:59,8,warthog,4,arrive,0,1,,,,,,,,,,,,,,,,,,,,,,
De Laporte,9/30/09,9:06,9,warthog,4,leave,0,0,,,,5,drink,0,,,,,,,,,,,,,,,,
De Laporte,9/30/09,9:20,9,warthog,2,arrive,0,2,,,,,,,,,,,,,,,,,,,,,,herd of impala watching from a distance
De Laporte,9/30/09,9:22,9,warthog,2,leave,0,0,,,,,,,,,,,,,,,,,,,,,,
De Laporte,9/30/09,10:33,10,warthog,2,arrive,0,0,,,,39,avoid,1,5,walk,0,,,,,,,,,,,,,
De Laporte,9/30/09,10:37,10,warthog,2,leave,0,0,,,,39,walk,0,5,walk,0,,,,,,,,,,,,,
De Laporte,9/30/09,11:02,11,warthog,2,arrive,0,3,1,drink,0,,,,,,,,,,,,,,,,,,,
De Laporte,10/1/09,12:12,12,warthog,2,arrive,0,0,,,,1,leave,1,,,,,,,,,,,,,,,,
De Laporte,10/1/09,12:21,12,warthog,2,leave,0,2,,,,16,drink,0,,,,,,,,,,,,,,,,
De Laporte,9/30/09,13:22,13,warthog,4,arrive,0,1,,,,,,,,,,,,,,,,,,,,,,
De Laporte,9/30/09,13:27,13,warthog,4,leave,0,0,,,,,,,,,,,,,,,,,,,,,,
N'watindlopf,9/30/09,10:15,10,warthog,1,arrive,,,,,,,,,,,,,,,,,,,,,,,,
N'watindlopf,9/30/09,10:18,10,warthog,1,arrive,,,,,,,,,,,,,,,,,,,,,3,leave,,"same warthog, mud bathing"
N'watindlopf,9/30/09,10:22,10,warthog,1,leave,,2,,,,,,,,,,,,,,,,,,,,,,
N'watindlopf,9/30/09,11:45,11,warthog,1,arrive,,,,,,6,graze,,,,,,,,,,,,,,,,,
N'watindlopf,9/30/09,11:57,11,warthog,1,leave,,,,,,11,graze,,,,,,,,,,,,,,,,,
N'watindlopf,9/30/09,12:51,12,warthog,1,arrive,,,,,,,,,,,,,,,,,,,,,,,,
N'watindlopf,9/30/09,12:54,12,warthog,1,leave,,,,,,,,,,,,,,,,,,,,,,,,
Nwaswitshaka,9/30/09,8:50,8,warthog,2,arrive,0,1,,,,9,leave,1,,,,,,,,,,,,,,,,
Nwaswitshaka,9/30/09,8:57,8,warthog,2,leave,0,2,,,,,,,,,,,,,,,,,,,,,,
Nwaswitshaka,9/30/09,9:26,9,warthog,2,arrive,0,0,,,,34,scare,1,,,,,,,,,,,,,,,,
Nwaswitshaka,9/30/09,9:26,9,warthog,2,leave,0,1,,,,,,,,,,,,,,,,,,,,,,
Nwaswitshaka,9/30/09,9:42,9,warthog,3,approach,0,0,,,,,leave,1,,,,,,,,,,,,,,,,
Nwaswitshaka,9/30/09,9:51,9,warthog,3,leave,0,0,,,,,,,,,,,,,,,,,,,,,,
Nwaswitshaka,9/30/09,10:29,10,warthog,2,arrive,0,0,,,,,,,,,,,,,,,,,,,,,,warthogs avoid zebra
Nwaswitshaka,10/1/09,10:47,10,warthog,2,arrive,0,0,,,,,,,,,,,,,,,,,,,,,,
Nwaswitshaka,10/1/09,10:50,10,warthog,3,arrive,0,1,,,,,,,,,,,,,,avoid,1,,,,,,,
Nwaswitshaka,10/1/09,10:52,10,warthog,2,leave,0,0,,,,,,,,,,,,,,,,,,,,,,
Nwaswitshaka,10/1/09,10:54,10,warthog,3,leave,0,0,,,,,,,,,,,,,,,,,,,,,,
Nwaswitshaka,10/1/09,11:27,11,warthog,3,arrive,0,2,,,,,,,,,,,,,,avoid,1,,,,,,,
Nwaswitshaka,10/1/09,11:34,11,warthog,2,leave,0,0,,,,,,,,,,,,,,,,,,,,,,
Nwaswitshaka,10/1/09,11:35,11,warthog,2,arrive,0,0,,,,,,,,,,,,,,,,,,,,,,
Nwaswitshaka,10/1/09,11:47,11,warthog,2,leave,0,0,,,,,,,,,,,,,,,,,,,,,,
Nwaswitshaka,9/30/09,12:00,12,warthog,2,arrive,0,0,,,,4,,,,,,,,,,,,,,,,,,
Nwaswitshaka,9/30/09,12:07,12,warthog,2,leave,0,0,,,,,,,,,,,,,,,,,,,,,,
Transport Dam,9/30/09,9:13,9,warthog,3,arrive,0,6,,,,,,,,,,,,,,,,,,,,,,
Transport Dam,9/30/09,9:16,9,warthog,3,leave,0,5,,,,,,,,,,,,,,,,,,,,,,
Transport Dam,9/30/09,9:24,9,warthog,1,arrive,0,3,,,,,,,,,,,,,,,,,,,,,,
Transport Dam,9/30/09,9:34,9,warthog,1,leave,0,5,,,,,,,,,,,,,,,,,,,,,,
Transport Dam,9/30/09,9:40,9,warthog,2,graze,0,5,,,,,,,,,,,,,,,,,,,,,,
Transport Dam,9/30/09,9:42,9,warthog,1,drinking,0,5,,,,,,,,,,,,,,,,,,,,,,
Transport Dam,9/30/09,9:43,9,warthog,1,drinking,0,5,,,,,,,,,,,,,,,,,,,,,,
Transport Dam,9/30/09,9:46,9,warthog,1,leave,0,4,,,,,,,,,,,,,,,,,,,,,,
Transport Dam,9/30/09,10:01,10,warthog,2,leave,0,5,,,,,,,,,,,,,,,,,,,,,,
Transport Dam,9/30/09,10:05,10,warthog,2,leave,0,9,,,,,,,,,,,,,,,,,,,,,,
Transport Dam,10/1/09,11:15,11,warthog,4,arrive,0,3,,,,83,graze,0,,,,,,,,,,,,,,,,
Transport Dam,10/1/09,11:20,11,warthog,4,graze,0,3,,,,29,graze,0,,,,3,drinking,0,,,,,,,,,,
Transport Dam,10/1/09,12:04,12,warthog,4,leave,1,6,,,,5,scared,0,,,,,,,,,,,,,,,,
Transport Dam,9/30/09,12:11,12,warthog,4,arrive,0,2,,,,,,,,,,,,,,,,,,,,,,
Transport Dam,9/30/09,12:15,12,warthog,4,leave,0,3,,,,,,,,,,,,,,,,,,,,,,
Transport Dam,10/1/09,12:38,12,warthog,2,graze,2,5,,,,21,drinking,0,,,,,,,,,,,,,,,,
Transport Dam,10/1/09,12:44,12,warthog,2,leave,2,4,,,,,,,,,,,,,,,,,,,,,,
Transport Dam,9/30/09,12:59,12,warthog,1,arrive,0,1,,,,,,,,,,,,,,,,,,,,,,
Transport Dam,9/30/09,13:17,13,warthog,1,arrive,0,4,,,,,,,,,,,,,,,,,,,,,,
Transport Dam,9/30/09,13:27,13,warthog,1,leave,0,5,,,,,,,,,,,,,,,,,,,,,,
Transport Dam,9/30/09,13:44,13,warthog,1,leave,0,5,,,,,,,,,,,,,,,,,,,,,,
Transport Dam,9/30/09,13:55,13,warthog,3,arrive,0,6,,,,,,,,,,,,,,,,,,,,,,
N'watindlopf,9/30/09,12:21,12,waterbuck,4,arrive,,,,,,,,,,,,,,,,,,,,,,,,
N'watindlopf,9/30/09,12:26,12,waterbuck,4,leave,,1,,,,,,,,,,,,,,,,,,,,,,
N'watindlopfu,10/1/09,14:13,14,waterbuck,3,arrive,,,,,,,,,,,,,,,,,,,,,10,arrive,,
N'watindlopfu,10/1/09,14:13,14,waterbuck,3,drink,,,,,,,,,,,,,,,,,,,,,10,graze,,
N'watindlopfu,10/1/09,14:15,14,waterbuck,3,graze,,,,,,,,,,,,,,,,,,,,,10,graze,,
N'watindlopfu,10/1/09,14:18,14,waterbuck,3,leave,,,,,,,,,,,,,,,,,,,,,,,,
Transport Dam,10/1/09,9:42,9,waterbuck,2,graze,0,1,,,,11,graze,0,,,,,,,,,,,,,,,,
Transport Dam,10/1/09,9:49,9,waterbuck,2,leave,0,1,1,scaring,1,,,,,,,,,,,,,,,,,,,
Transport Dam,9/30/09,11:00,11,waterbuck,5,arrive,0,5,,,,,,,,,,,,,,,,,,,,,,
Transport Dam,10/1/09,11:17,11,waterbuck,3,arrive,0,3,,,,74,graze,0,,,,,,,4,drinking,0,,,,,,,
Transport Dam,9/30/09,11:22,11,waterbuck,5,leave,0,8,,,,,,,,,,,,,,,,,,,,,,
Transport Dam,10/1/09,11:24,11,waterbuck,3,graze,0,3,,,,3,drinking,0,,,,,,,4,grazing,0,,,,,,,
Transport Dam,10/1/09,11:27,11,waterbuck,3,drink,0,3,,,,3,drinking,0,,,,,,,4,grazing,0,,,,,,,
Transport Dam,10/1/09,11:29,11,waterbuck,3,graze,0,3,,,,3,drinking,0,,,,,,,4,grazing,0,,,,,,,
Transport Dam,9/30/09,11:33,11,waterbuck,1,arrive,0,0,,,,,,,,,,,,,,,,,,,,,,
Transport Dam,9/30/09,11:37,11,waterbuck,1,leave,0,0,,,,,,,,,,,,,,,,,,,,,,
Transport Dam,10/1/09,11:45,11,waterbuck,3,leave,0,3,,,,7,grazing,0,,,,,,,4,grazing,0,1,grazing,0,,,,
Transport Dam,10/1/09,12:19,12,waterbuck,1,arrive,1,3,,,,19,scared,0,,,,,,,,,,,,,,,,Approx. 50m away from elephant
Transport Dam,10/1/09,12:23,12,waterbuck,1,leave,1,2,,,,36,scared,0,,,,,,,,,,,,,,,,
Transport Dam,9/30/09,12:31,12,waterbuck,1,arrive,0,3,,,,,,,,,,,,,,,,,,,,,,
Transport Dam,9/30/09,12:34,12,waterbuck,1,leave,0,2,,,,,,,,,,,,,,,,,,,,,,
Transport Dam,10/1/09,12:45,12,waterbuck,3,drinking,2,5,,,,3,drinking,0,,,,,,,,,,,,,,,,
Transport Dam,10/1/09,13:21,13,waterbuck,1,arrive,3,0,,,,,,,,,,3,grazing,0,,,,,,,,,,
Transport Dam,10/1/09,13:24,13,waterbuck,4,drinking,3,0,,,,,,,,,,4,drinking,0,,,,,,,,,,
Transport Dam,10/1/09,13:36,13,waterbuck,3,leave,4,1,,,,,,,,,,1,grazing,0,,,,,,,,,,
Transport Dam,10/1/09,14:19,14,waterbuck,2,arrive,3,1,,,,,,,,,,1,grazing,0,,,,,,,,,,All elephant in water far from waterbuck
Transport Dam,10/1/09,14:23,14,waterbuck,2,leave,3,1,,,,,,,,,,1,grazing,0,,,,,,,,,,
Transport Dam,10/1/09,14:29,14,waterbuck,1,leaves,1,1,,,,,,,,,,,,,,,,,,,,,,
Transport Dam,9/30/09,14:54,14,waterbuck,5,arrive,0,3,,,,,,,,,,,,,,,,,,,,,,
Transport Dam,9/30/09,14:59,14,waterbuck,5,leave,0,0,,,,,,,,,,,,,,,,,,,,,,
Transport Dam,9/30/09,15:56,15,waterbuck,5,arrive,0,5,,,,,,,,,,,,,,,,,,,,,,
Transport Dam,9/30/09,16:05,16,waterbuck,5,leave,0,5,,,,,,,,,,,,,,,,,,,,,,
Transport Dam,10/1/09,8:03,8,wildebeast,8,arrive,0,2,,,,,,,,,,,,,,,,,,,,,,
Transport Dam,10/1/09,8:07,8,wildebeast,8,graze,0,2,,,,,,,,,,,,,,,,,,,,,,
Transport Dam,10/1/09,8:16,8,wildebeast,8,leave,0,0,,,,,,,,,,,,,,,,,,,,,,
Transport Dam,10/1/09,9:52,9,wildebeast,1,arrive,0,3,1,drink +poo,0,,,,,,,,,,,,,,,,,,,
Transport Dam,10/1/09,9:58,9,wildebeast,1,leave,0,3,,,,2,graze,0,,,,,,,,,,,,,,,,
Transport Dam,10/1/09,11:02,11,wildebeast,,drink,0,2,,,,80,graze,0,,,,,,,,,,,,,,,,
Transport Dam,10/1/09,11:08,11,wildebeast,,leave,0,2,,,,48,graze,0,,,,,,,,,,,,,,,,
Transport Dam,10/1/09,11:31,11,wildebeast,1,arrive,0,4,,,,10,grazing,0,,,,3,drinking,0,4,grazing,0,,,,,,,come with impala
N'watindlopf,9/30/09,15:06,15,wildebeest,6,arrive,,,,,,,,,,,,,,,,,,,,,,,,
N'watindlopfu,10/1/09,16:10,16,wildebeest,1,arrive,2,,,,,,,,,,,,,,,,,,,,,,,
N'watindlopfu,10/1/09,16:11,16,wildebeest,1,leave,2,,,,,,,,,,,,,,,,,,,,,,,did not go anywhere near the elephant
Transport Dam,9/30/09,6:56,6,wildebeest,1,arrive,0,1,,,,,,,,,,,,,,,,,,,,,,startled bynew tourists
Transport Dam,9/30/09,7:05,7,wildebeest,1,leave,0,0,,,,,,,,,,,,,,,,,,,,,,
Transport Dam,9/30/09,7:30,7,wildebeest,7,arrive,0,3,,,,29,drinking,0,,,,,,,,,,7,drinking,0,,,,
Transport Dam,9/30/09,7:33,7,wildebeest,2,arrive,0,3,,,,26,drinking,0,,,,,,,,,,7,drinking,0,,,,
Transport Dam,9/30/09,7:35,7,wildebeest,11,arrive,0,1,,,,28,drinking,0,,,,,,,,,,9,drinking,0,,,,
Transport Dam,9/30/09,7:40,7,wildebeest,11,leave,0,1,,,,20,drinking,0,,,,,,,,,,7,drinking,0,,,,
Transport Dam,9/30/09,9:43,9,wildebeest,4,arrive,0,5,,,,,,,,,,,,,,,,,,,,,,
Transport Dam,9/30/09,9:50,9,wildebeest,4,leave,0,4,,,,,,,,,,,,,,,,,,,,,,
Transport Dam,9/30/09,10:27,10,wildebeest,8,arrive,0,3,,,,,,,,,,,,,,,,,,,,,,
Transport Dam,9/30/09,10:33,10,wildebeest,8,leave,0,6,,,,,,,,,,,,,,,,,,,,,,
Transport Dam,10/1/09,11:47,11,wildebeest,1,leaving,0,3,,,,7,grazing,0,,,,,,,4,grazing,0,,,,,,,
N'watindlopf,9/30/09,7:17,7,zebra,7,arrive,,,,,,,,,,,,,,,,,,,,,,,,3 hippos present all day
N'watindlopf,9/30/09,7:20,7,zebra,7,leave,,,,,,,,,,,,,,,,,,,,,,,,
N'watindlopf,9/30/09,9:49,9,zebra,5,arrive,,2,,,,,,,,,,,,,,,,,,,,,,
N'watindlopf,9/30/09,10:04,10,zebra,5,leave,,,,,,,,,,,,,,,,,,,,,,,,
N'watindlopf,9/30/09,10:17,10,zebra,3,arrive,,,,,,,,,,,,,,,1,scare,1,,,,,,,
N'watindlopf,9/30/09,11:36,11,zebra,2,arrive,,,,,,,,,,,,,,,,,,,,,,,,
N'watindlopf,9/30/09,11:41,11,zebra,2,leave,,,,,,6,drink,,,,,,,,,,,,,,,,,
N'watindlopf,9/30/09,15:06,15,zebra,5,arrive,,,,,,,,,,,,,,,,,,6,drink,,,,,
N'watindlopfu,10/1/09,8:44,8,zebra,5,arrive,,,,,,,,,,,,,,,,,,,,,,,,
N'watindlopfu,10/1/09,8:48,8,zebra,5,leave,,,,,,,,,,,,,,,,,,,,,,,,consistently spooked.
N'watindlopfu,10/1/09,10:21,10,zebra,5,arrive,,,,,,,,,,,,,,,,,,,,,,,,
N'watindlopfu,10/1/09,10:24,10,zebra,2,arrive,,,,,,,,,,,,,,,,,,,,,,,,
N'watindlopfu,10/1/09,10:28,10,zebra,7,graze,,,,,,,,,,,,,,,,,,,,,,,,
N'watindlopfu,10/1/09,10:29,10,zebra,7,leave,,,,,,,,,,,,,,,,,,,,,,,,
N'watindlopfu,10/1/09,14:13,14,zebra,10,arrive,,,,,,,,,,,,3,arrive,,,,,,,,,,,
N'watindlopfu,10/1/09,14:14,14,zebra,10,drink,,,,,,,,,,,,3,drink,,,,,,,,,,,
N'watindlopfu,10/1/09,14:15,14,zebra,10,graze,,,,,,,,,,,,3,graze,,,,,,,,,,,
N'watindlopfu,10/1/09,14:18,14,zebra,10,leave,,,,,,,,,,,,,,,,,,,,,,,,both waterbuck and zebra left in the same herd and travelled in the same direction
Nwaswitshaka,10/1/09,7:46,7,Zebra,3,Arrive,0,0,,,,,,,,,,,,,,,,,,,,,,
Nwaswitshaka,10/1/09,7:52,7,Zebra,3,Leave,0,0,,,,,,,,,,,,,,,,,,,,,,
Nwaswitshaka,9/30/09,10:27,10,zebra,6,arrive,0,0,,,,,avoid,1,,,,,,,,,,,,,,,,
Nwaswitshaka,10/1/09,11:25,11,Zebra,2,arrive,0,0,,,,,,,,,,,,,,,,,,,,,,
Nwaswitshaka,10/1/09,11:32,11,Zebra,2,leave,0,1,,,,,,,,,,,,,,,,,,,,,,
Transport Dam,9/30/09,6:15,6,zebra,7,arrive,0,0,,,,,,,,,,,,,,,,,,,,,,
Transport Dam,9/30/09,6:20,6,zebra,7,leave,0,0,,,,3,drinking,0,,,,,,,,,,,,,,,,Chocolate Chippo
Transport Dam,9/30/09,8:02,8,zebra,7,arrive,0,5,,,,25,drinking,0,,,,,,,,,,,,,,,,
Transport Dam,9/30/09,8:09,8,zebra,7,leaving,0,3,,,,50,drinking,0,,,,,,,,,,,,,,,,
Transport Dam,9/30/09,8:19,8,zebra,5,arrive,0,2,,,,,,,,,,,,,,,,,,,,,,
Transport Dam,9/30/09,8:25,8,zebra,5,leave,0,2,,,,65,drinking,0,,,,,,,,,,,,,,,,