species,diet,water,abundance
b,grazer,dependent,common
e,mixed,NA,rare
k,grazer,dependent,common
ko,browser,NA,NA
kp,browser,NA,NA
o,mixed,dependent,common
r,mixed,NA,common
ro,grazer,dependent,rare
s,mixed,dependent,rare
t,grazer,NA,rare
v,mixed,NA,NA
w,grazer,dependent,common
wr,grazer,NA,rare
wb,grazer,dependent,NA