"","ID","Year","Cenb","Sp","Description","No","Lat","Long","X.coord","Y.coord"
"196911",196911,1986,13,"hl","Hippo on land",1,-23.71,31.49,346061.93,7377064.1
"262813",262813,1989,54,"hl","Hippo on land",2,-22.97,31.16,311369.64,7458618.94
