"","ID","Year","Cenb","Sp","Description","No","Lat","Long","X.coord","Y.coord"
"106576",106576,1983,25,"ok","Elephant calf",1,-24.01,31.78,375915.76,7344128.73
"106811",106811,1983,25,"ok","Elephant calf",1,-24.16,31.86,384188.06,7327587.45
"106812",106812,1983,25,"ok","Elephant calf",4,-24.16,31.86,384188.06,7327587.45
"106945",106945,1983,25,"ok","Elephant calf",1,-24.18,31.88,386237.75,7325389.24
"106967",106967,1983,25,"ok","Elephant calf",3,-24.16,31.88,386220.02,7327603.85
"204623",204623,1987,3,"ok","Elephant calf",7,-23.95,31.24,320900.39,7350192.25
"208628",208628,1987,12,"ok","Elephant calf",3,-23.23,31.07,302521.44,7429706.73
"208890",208890,1987,12,"ok","Elephant calf",2,-23.22,31.2,315812.53,7430985.02
"249731",249731,1988,37,"ok","Elephant calf",2,-25,31.98,397068.57,7234665.02
"249757",249757,1988,37,"ok","Elephant calf",1,-25.02,32,399103.31,7232465.26
"251126",251126,1988,40,"ok","Elephant calf",2,-25.31,31.32,330884.03,7199665.5
"368197",368197,1993,6,"ok","Elephant calf",1,-23.65,31.47,343951.41,7383686.51
"368287",368287,1993,7,"ok","Elephant calf",1,-23.68,31.27,323589.19,7380131.3
"368669",368669,1993,9,"ok","Elephant calf",1,-23.6,31.17,313276.23,7388863.79
"382759",382759,1993,42,"ok","Elephant calf",1,-25.15,31.58,356873.24,7217688.93
