"","ID","Year","Cenb","Sp","Description","No","Lat","Long","X.coord","Y.coord"
"209385",209385,1987,13,"tk","Tsessebe calf",1,-23.64,31.49,345979.88,7384815.58
"235415",235415,1988,10,"tk","Tsessebe calf",1,-23.31,31.02,297525.03,7420777.89
"236177",236177,1988,11,"tk","Tsessebe calf",2,-23.28,31.3,326125.15,7424464.08
"236905",236905,1988,13,"tk","Tsessebe calf",1,-23.63,31.48,344947.94,7385912.11
"236933",236933,1988,13,"tk","Tsessebe calf",1,-23.68,31.5,347046.59,7380396.93
"236949",236949,1988,13,"tk","Tsessebe calf",1,-23.68,31.55,352145.79,7380449.66
"237063",237063,1988,13,"tk","Tsessebe calf",1,-23.62,31.59,356159.49,7387134.47
"237402",237402,1988,14,"tk","Tsessebe calf",1,-23.48,31.52,348857.38,7402564.87
"237529",237529,1988,14,"tk","Tsessebe calf",1,-23.52,31.46,342776.47,7398071.14
"237572",237572,1988,14,"tk","Tsessebe calf",2,-23.59,31.49,345921.41,7390352.31
"237714",237714,1988,15,"tk","Tsessebe calf",1,-23.32,31.38,334358.6,7420128.44
"237840",237840,1988,15,"tk","Tsessebe calf",1,-23.36,31.49,345653.97,7415820.86
"238331",238331,1988,15,"tk","Tsessebe calf",1,-23.27,31.48,344526.99,7425775.94
"238363",238363,1988,15,"tk","Tsessebe calf",2,-23.3,31.46,342516.25,7422432.41
"258245",258245,1988,54,"tk","Tsessebe calf",1,-23.06,31.23,318667.83,7448740.9
"267453",267453,1989,18,"tk","Tsessebe calf",2,-23.3,31.46,342516.25,7422432.41
"368994",368994,1993,10,"tk","Tsessebe calf",2,-23.29,31.04,299540.8,7423020.71
