"","ID","Year","Cenb","Sp","Description","No","Lat","Long","X.coord","Y.coord"
"25545",25545,1980,26,"hp","Hippopotamus",1,-24.31,31.78,376205.31,7310908.82
"25546",25546,1980,39,"hp","Hippopotamus",1,-25.01,31.32,330469.69,7232893.97
"25547",25547,1980,54,"hp","Hippopotamus",1,-22.95,31.21,316469.65,7460897.08
"25548",25548,1980,21,"hp","Hippopotamus",2,-24.18,31.63,360841.45,7325163.17
"25549",25549,1980,26,"hp","Hippopotamus",2,-24.37,31.9,388435.47,7304366.38
"25550",25550,1980,37,"hp","Hippopotamus",2,-24.93,31.9,388932.08,7242353.77
"25551",25551,1980,29,"hp","Hippopotamus",3,-24.78,31.86,384753.97,7258931.59
"25552",25552,1980,54,"hp","Hippopotamus",3,-22.93,31.19,314391.27,7463086.7
"25553",25553,1980,54,"hp","Hippopotamus",3,-22.95,31.21,316469.65,7460897.08
"25554",25554,1980,25,"hp","Hippopotamus",4,-24.06,31.84,382064.5,7338643.83
"25555",25555,1980,27,"hp","Hippopotamus",7,-24.43,31.96,394571.09,7297769.37
"25556",25556,1980,27,"hp","Hippopotamus",8,-24.37,31.92,390464.07,7304382.31
"25557",25557,1980,46,"hp","Hippopotamus",8,-25.22,31.96,395237.85,7210286.45
"25558",25558,1980,38,"hp","Hippopotamus",21,-25.03,31.92,391039.81,7231295.87
"46781",46781,1981,2,"hp","Hippopotamus",5,-23.93,31.48,345303.39,7352690.94
"50478",50478,1981,11,"hp","Hippopotamus",1,-23.18,31.32,328043.04,7435561.54
"52419",52419,1981,19,"hp","Hippopotamus",1,-23.56,31.61,358135.55,7393798.27
"52866",52866,1981,19,"hp","Hippopotamus",1,-23.91,31.76,373784.04,7355184.04
"53443",53443,1981,20,"hp","Hippopotamus",1,-24.08,31.65,362766.53,7336256.57
"54885",54885,1981,23,"hp","Hippopotamus",5,-24.12,31.71,368907.23,7331884.55
"55281",55281,1981,24,"hp","Hippopotamus",2,-24.39,31.71,369183.81,7301985.74
"55933",55933,1981,25,"hp","Hippopotamus",9,-24.03,31.84,382037.09,7341965.72
"56508",56508,1981,26,"hp","Hippopotamus",2,-24.37,31.88,386406.85,7304350.16
"56905",56905,1981,27,"hp","Hippopotamus",2,-24.39,31.96,394537.86,7302198.65
"57616",57616,1981,28,"hp","Hippopotamus",1,-24.47,31.96,394604.37,7293340.07
"57816",57816,1981,29,"hp","Hippopotamus",2,-24.78,31.86,384753.97,7258931.59
"58007",58007,1981,30,"hp","Hippopotamus",24,-24.78,31.9,388798.02,7258964.73
"58042",58042,1981,30,"hp","Hippopotamus",1,-24.78,31.92,390820.03,7258980.85
"61564",61564,1981,38,"hp","Hippopotamus",1,-24.91,31.88,386894.25,7244552.1
"61565",61565,1981,38,"hp","Hippopotamus",1,-24.91,31.88,386894.25,7244552.1
"61634",61634,1981,38,"hp","Hippopotamus",15,-25.03,31.92,391039.81,7231295.87
"61708",61708,1981,38,"hp","Hippopotamus",1,-24.91,31.92,390934.06,7244584.77
"61767",61767,1981,38,"hp","Hippopotamus",3,-25.1,31.96,395135.29,7223575.57
"62408",62408,1981,39,"hp","Hippopotamus",8,-25.01,31.26,324413.85,7232817.54
"63142",63142,1981,41,"hp","Hippopotamus",2,-25.35,31.4,338991.49,7195333.65
"67868",67868,1981,50,"hp","Hippopotamus",3,-23.14,31.46,342328.46,7440149.3
"69317",69317,1981,54,"hp","Hippopotamus",7,-22.95,31.23,318520.72,7460921.94
"72428",72428,1982,2,"hp","Hippopotamus",1,-23.93,31.42,339195.92,7352623.91
"72481",72481,1982,2,"hp","Hippopotamus",5,-23.93,31.48,345303.39,7352690.94
"76669",76669,1982,13,"hp","Hippopotamus",1,-23.72,31.48,345054.13,7375945.89
"77167",77167,1982,14,"hp","Hippopotamus",8,-23.51,31.48,344806.94,7399200.25
"77819",77819,1982,18,"hp","Hippopotamus",1,-23.26,31.46,342469.19,7426861.66
"79873",79873,1982,23,"hp","Hippopotamus",2,-24.18,31.63,360841.45,7325163.17
"81808",81808,1982,26,"hp","Hippopotamus",15,-24.35,31.9,388417.93,7306581.04
"81841",81841,1982,26,"hp","Hippopotamus",15,-24.33,31.88,386371.15,7308779.48
"82646",82646,1982,27,"hp","Hippopotamus",12,-24.41,31.96,394554.47,7299984.02
"82647",82647,1982,27,"hp","Hippopotamus",12,-24.41,31.96,394554.47,7299984.02
"87165",87165,1982,36,"hp","Hippopotamus",3,-24.83,31.84,382778.96,7253377.55
"87430",87430,1982,37,"hp","Hippopotamus",8,-24.78,31.9,388798.02,7258964.73
"88655",88655,1982,38,"hp","Hippopotamus",18,-25.03,31.92,391039.81,7231295.87
"88831",88831,1982,39,"hp","Hippopotamus",30,-25.01,31.26,324413.85,7232817.54
"92126",92126,1982,44,"hp","Hippopotamus",9,-25.2,31.71,370030.93,7212283.2
"93901",93901,1982,46,"hp","Hippopotamus",9,-25.24,31.96,395254.99,7208071.57
"96015",96015,1982,53,"hp","Hippopotamus",2,-23.06,31.17,312519.55,7448665.21
"96389",96389,1982,54,"hp","Hippopotamus",2,-22.95,31.21,316469.65,7460897.08
"98652",98652,1983,1,"hp","Hippopotamus",1,-23.97,31.61,358579.49,7348397.87
"98773",98773,1983,1,"hp","Hippopotamus",1,-24.01,31.63,360657.65,7343988.38
"99841",99841,1983,3,"hp","Hippopotamus",1,-24.08,31.3,327181.19,7335870.02
"99885",99885,1983,3,"hp","Hippopotamus",1,-24.03,31.32,329148.55,7341431.84
"101027",101027,1983,6,"hp","Hippopotamus",2,-23.72,31.48,345054.13,7375945.89
"101055",101055,1983,6,"hp","Hippopotamus",2,-23.64,31.46,342919.38,7384782.91
"101061",101061,1983,6,"hp","Hippopotamus",3,-23.66,31.46,342943.26,7382568.18
"101203",101203,1983,7,"hp","Hippopotamus",2,-23.6,31.26,322461.34,7388978.38
"101573",101573,1983,9,"hp","Hippopotamus",1,-23.62,31.11,307181.91,7386569.18
"101574",101574,1983,9,"hp","Hippopotamus",10,-23.62,31.11,307181.91,7386569.18
"102775",102775,1983,13,"hp","Hippopotamus",2,-23.74,31.53,350174.68,7373784.71
"103358",103358,1983,14,"hp","Hippopotamus",3,-23.51,31.48,344806.94,7399200.25
"104025",104025,1983,18,"hp","Hippopotamus",3,-23.14,31.44,340280.43,7440127.52
"104026",104026,1983,18,"hp","Hippopotamus",5,-23.14,31.44,340280.43,7440127.52
"104136",104136,1983,18,"hp","Hippopotamus",2,-23.14,31.46,342328.46,7440149.3
"104137",104137,1983,18,"hp","Hippopotamus",3,-23.14,31.46,342328.46,7440149.3
"104197",104197,1983,18,"hp","Hippopotamus",1,-23.18,31.53,349541.17,7435794.21
"104593",104593,1983,19,"hp","Hippopotamus",1,-23.89,31.71,368673.92,7357353.11
"104898",104898,1983,20,"hp","Hippopotamus",1,-24.1,31.42,339407.26,7333797.69
"104929",104929,1983,20,"hp","Hippopotamus",1,-24.03,31.44,341354.33,7341572.41
"105062",105062,1983,20,"hp","Hippopotamus",1,-24.08,31.59,356666.46,7336196.61
"105118",105118,1983,20,"hp","Hippopotamus",1,-24.08,31.65,362766.53,7336256.57
"105137",105137,1983,20,"hp","Hippopotamus",1,-24.03,31.65,362713.35,7341793.34
"105704",105704,1983,22,"hp","Hippopotamus",2,-24.41,31.46,343852.72,7299512.17
"105875",105875,1983,22,"hp","Hippopotamus",4,-24.39,31.59,357013.31,7301867.3
"106090",106090,1983,23,"hp","Hippopotamus",1,-24.18,31.71,368968.44,7325240.46
"106141",106141,1983,23,"hp","Hippopotamus",40,-24.08,31.71,368866.5,7336313.92
"106157",106157,1983,24,"hp","Hippopotamus",3,-24.39,31.57,354984.85,7301846.53
"106343",106343,1983,24,"hp","Hippopotamus",1,-24.39,31.71,369183.81,7301985.74
"106890",106890,1983,25,"hp","Hippopotamus",7,-24.08,31.84,382082.79,7336429.23
"107599",107599,1983,27,"hp","Hippopotamus",1,-24.37,31.92,390464.07,7304382.31
"107600",107600,1983,27,"hp","Hippopotamus",20,-24.37,31.92,390464.07,7304382.31
"107683",107683,1983,27,"hp","Hippopotamus",4,-24.43,31.96,394571.09,7297769.37
"107757",107757,1983,27,"hp","Hippopotamus",1,-24.41,31.96,394554.47,7299984.02
"108620",108620,1983,29,"hp","Hippopotamus",2,-24.81,31.88,386803.23,7255626.13
"108666",108666,1983,30,"hp","Hippopotamus",4,-24.78,31.9,388798.02,7258964.73
"108686",108686,1983,30,"hp","Hippopotamus",1,-24.81,31.92,390846.29,7255658.7
"110555",110555,1983,35,"hp","Hippopotamus",1,-24.89,31.65,363642.65,7246556.11
"110985",110985,1983,36,"hp","Hippopotamus",4,-24.83,31.84,382778.96,7253377.55
"112658",112658,1983,40,"hp","Hippopotamus",3,-25.26,31.23,321749.35,7205087.16
"115429",115429,1983,44,"hp","Hippopotamus",2,-25.35,31.88,387298.81,7195824.68
"116306",116306,1983,46,"hp","Hippopotamus",6,-25.22,31.96,395237.85,7210286.45
"117219",117219,1983,49,"hp","Hippopotamus",2,-22.97,31.26,321623.56,7458743.99
"117537",117537,1983,50,"hp","Hippopotamus",14,-23.12,31.44,340256.74,7442342.12
"117682",117682,1983,50,"hp","Hippopotamus",3,-23.2,31.55,351610.61,7433600.21
"119155",119155,1983,55,"hp","Hippopotamus",4,-22.91,31.15,310260.57,7465250.41
"119199",119199,1983,55,"hp","Hippopotamus",6,-22.93,31.19,314391.27,7463086.7
"123376",123376,1984,6,"hp","Hippopotamus",4,-23.64,31.46,342919.38,7384782.91
"125421",125421,1984,13,"hp","Hippopotamus",2,-23.64,31.46,342919.38,7384782.91
"125429",125429,1984,13,"hp","Hippopotamus",5,-23.66,31.46,342943.26,7382568.18
"126707",126707,1984,18,"hp","Hippopotamus",5,-23.14,31.46,342328.46,7440149.3
"127449",127449,1984,20,"hp","Hippopotamus",1,-24.1,31.57,354655.64,7333961.27
"127996",127996,1984,22,"hp","Hippopotamus",3,-24.39,31.46,343828.12,7301727.1
"128576",128576,1984,23,"hp","Hippopotamus",1,-24.18,31.71,368968.44,7325240.46
"130232",130232,1984,26,"hp","Hippopotamus",2,-24.39,31.9,388453.02,7302151.72
"130241",130241,1984,26,"hp","Hippopotamus",1,-24.35,31.88,386388.99,7306564.83
"130265",130265,1984,26,"hp","Hippopotamus",1,-24.37,31.9,388435.47,7304366.38
"130299",130299,1984,26,"hp","Hippopotamus",1,-24.33,31.9,388400.4,7308795.68
"130519",130519,1984,27,"hp","Hippopotamus",4,-24.37,31.92,390464.07,7304382.31
"130520",130520,1984,27,"hp","Hippopotamus",8,-24.37,31.92,390464.07,7304382.31
"130521",130521,1984,27,"hp","Hippopotamus",11,-24.37,31.92,390464.07,7304382.31
"130638",130638,1984,27,"hp","Hippopotamus",1,-24.45,31.96,394587.72,7295554.73
"131866",131866,1984,30,"hp","Hippopotamus",14,-24.81,31.9,388824.77,7255642.56
"131876",131876,1984,30,"hp","Hippopotamus",1,-24.78,31.9,388798.02,7258964.73
"132349",132349,1984,30,"hp","Hippopotamus",1,-24.47,31.98,396631.35,7293355.17
"134117",134117,1984,34,"hp","Hippopotamus",1,-24.74,31.67,365501.13,7263187.8
"135259",135259,1984,36,"hp","Hippopotamus",8,-24.83,31.84,382778.96,7253377.55
"135296",135296,1984,36,"hp","Hippopotamus",5,-24.78,31.86,384753.97,7258931.59
"136502",136502,1984,38,"hp","Hippopotamus",8,-25.03,31.9,389021.87,7231279.62
"136705",136705,1984,39,"hp","Hippopotamus",1,-25.12,31.21,319528.54,7220567.71
"140547",140547,1984,44,"hp","Hippopotamus",3,-25.33,31.88,387280.27,7198039.62
"140919",140919,1984,45,"hp","Hippopotamus",8,-25.33,31.88,387280.27,7198039.62
"141047",141047,1984,45,"hp","Hippopotamus",6,-25.12,31.9,389102.98,7221312.76
"141338",141338,1984,46,"hp","Hippopotamus",1,-25.31,31.96,395315.07,7200319.47
"142723",142723,1984,52,"hp","Hippopotamus",2,-23.06,31.17,312519.55,7448665.21
"143591",143591,1984,53,"hp","Hippopotamus",4,-23.22,31.21,316836.02,7430997.66
"144070",144070,1984,54,"hp","Hippopotamus",1,-22.95,31.21,316469.65,7460897.08
"144428",144428,1984,55,"hp","Hippopotamus",4,-22.91,31.17,312312.3,7465276.07
"147990",147990,1985,13,"hp","Hippopotamus",10,-23.63,31.47,343927.69,7385901.23
"149837",149837,1985,18,"hp","Hippopotamus",1,-23.12,31.45,341280.91,7442353.04
"149839",149839,1985,18,"hp","Hippopotamus",1,-23.13,31.45,341292.68,7441245.74
"149979",149979,1985,18,"hp","Hippopotamus",5,-23.12,31.46,342305.07,7442363.88
"150687",150687,1985,2,"hp","Hippopotamus",5,-23.93,31.49,346321.29,7352701.86
"152261",152261,1985,22,"hp","Hippopotamus",6,-24.39,31.47,344842.38,7301738.32
"153130",153130,1985,23,"hp","Hippopotamus",2,-24.1,31.72,369903.36,7334108.55
"154407",154407,1985,25,"hp","Hippopotamus",6,-24.06,31.87,385114.82,7338668.68
"155075",155075,1985,26,"hp","Hippopotamus",4,-24.36,31.89,387412.31,7305465.64
"155079",155079,1985,26,"hp","Hippopotamus",3,-24.35,31.9,388417.93,7306581.04
"155083",155083,1985,26,"hp","Hippopotamus",2,-24.36,31.9,388426.7,7305473.71
"155408",155408,1985,27,"hp","Hippopotamus",9,-24.35,31.91,389432.39,7306589.03
"155409",155409,1985,27,"hp","Hippopotamus",2,-24.36,31.92,390455.46,7305489.63
"155413",155413,1985,27,"hp","Hippopotamus",6,-24.36,31.92,390455.46,7305489.63
"155417",155417,1985,27,"hp","Hippopotamus",2,-24.36,31.93,391469.84,7305497.48
"155599",155599,1985,27,"hp","Hippopotamus",6,-24.42,31.96,394562.77,7298876.7
"157118",157118,1985,29,"hp","Hippopotamus",4,-24.78,31.86,384753.97,7258931.59
"158165",158165,1985,3,"hp","Hippopotamus",1,-23.92,31.36,333075.47,7353661.71
"158209",158209,1985,30,"hp","Hippopotamus",1,-24.77,31.9,388789.11,7260072.12
"160590",160590,1985,33,"hp","Hippopotamus",3,-24.72,31.66,364468.06,7265392.82
"161936",161936,1985,37,"hp","Hippopotamus",8,-24.79,31.88,386785.07,7257840.92
"161994",161994,1985,37,"hp","Hippopotamus",8,-24.78,31.9,388798.02,7258964.73
"162333",162333,1985,37,"hp","Hippopotamus",1,-25.05,31.96,395092.69,7229112.64
"162366",162366,1985,37,"hp","Hippopotamus",1,-25.07,31.97,396118.35,7226905.54
"163370",163370,1985,39,"hp","Hippopotamus",31,-25.01,31.26,324413.85,7232817.54
"164615",164615,1985,40,"hp","Hippopotamus",5,-25.23,31.25,323720.59,7208436.54
"167213",167213,1985,43,"hp","Hippopotamus",4,-24.98,31.57,355666.05,7236506.08
"167214",167214,1985,43,"hp","Hippopotamus",2,-24.98,31.57,355666.05,7236506.08
"168989",168989,1985,46,"hp","Hippopotamus",15,-25.22,31.95,394230.45,7210278.62
"170934",170934,1985,50,"hp","Hippopotamus",3,-23.1,31.45,341257.39,7444567.63
"171376",171376,1985,52,"hp","Hippopotamus",5,-23.21,31.22,317845.95,7432117.64
"174697",174697,1985,62,"hp","Hippopotamus",25,-22.34,31.13,307416.04,7528344.17
"174832",174832,1985,62,"hp","Hippopotamus",8,-22.36,31.19,313623.31,7526205.03
"174951",174951,1985,62,"hp","Hippopotamus",12,-22.42,31.27,321939.22,7519658.26
"174955",174955,1985,62,"hp","Hippopotamus",4,-22.43,31.28,322981.38,7518562.81
"174969",174969,1985,62,"hp","Hippopotamus",1,-22.39,31.28,322930.67,7522991.9
"174989",174989,1985,62,"hp","Hippopotamus",1,-22.37,31.26,320845.66,7525182.76
"175349",175349,1985,7,"hp","Hippopotamus",3,-23.59,31.25,321427.25,7390073.37
"177410",177410,1986,35,"hp","Hippopotamus",1,-24.85,31.75,373703.62,7251082.35
"177476",177476,1986,35,"hp","Hippopotamus",2,-24.89,31.74,372734.12,7246643.28
"177477",177477,1986,35,"hp","Hippopotamus",1,-24.9,31.73,371734.3,7245526.45
"178166",178166,1986,36,"hp","Hippopotamus",6,-24.82,31.83,381758.85,7254476.33
"178250",178250,1986,36,"hp","Hippopotamus",4,-24.8,31.86,384772.45,7256716.8
"178736",178736,1986,29,"hp","Hippopotamus",10,-24.79,31.86,384763.2,7257824.2
"179930",179930,1986,37,"hp","Hippopotamus",7,-24.79,31.9,388806.93,7257857.34
"179931",179931,1986,37,"hp","Hippopotamus",5,-24.79,31.89,387796,7257849.17
"184384",184384,1986,25,"hp","Hippopotamus",2,-24.05,31.84,382055.36,7339751.13
"184654",184654,1986,25,"hp","Hippopotamus",19,-24.03,31.85,383054.11,7341974.07
"184901",184901,1986,26,"hp","Hippopotamus",1,-24.31,31.85,383308.94,7310969.31
"184928",184928,1986,26,"hp","Hippopotamus",5,-24.32,31.83,381288.66,7309845.05
"189534",189534,1986,30,"hp","Hippopotamus",5,-24.79,31.92,390828.78,7257873.47
"190024",190024,1986,46,"hp","Hippopotamus",15,-25.23,31.97,396253.73,7209186.77
"190257",190257,1986,27,"hp","Hippopotamus",5,-24.44,31.97,395593.13,7296669.63
"190431",190431,1986,27,"hp","Hippopotamus",16,-24.37,31.93,391478.37,7304390.16
"190433",190433,1986,27,"hp","Hippopotamus",15,-24.37,31.92,390464.07,7304382.31
"191250",191250,1986,28,"hp","Hippopotamus",1,-24.39,31.86,384396.42,7302118.97
"192504",192504,1986,45,"hp","Hippopotamus",6,-25.11,31.91,390102.27,7222428.38
"192639",192639,1986,45,"hp","Hippopotamus",1,-25.13,31.86,385079.38,7220171.85
"193254",193254,1986,45,"hp","Hippopotamus",8,-25.33,31.88,387280.27,7198039.62
"193880",193880,1986,41,"hp","Hippopotamus",2,-25.33,31.39,337958.37,7197536.81
"194873",194873,1986,20,"hp","Hippopotamus",1,-24.11,31.63,360765.62,7332914.77
"195901",195901,1986,44,"hp","Hippopotamus",13,-25.33,31.87,386273.77,7198031.17
"196913",196913,1986,13,"hp","Hippopotamus",1,-23.71,31.49,346061.93,7377064.1
"196914",196914,1986,13,"hp","Hippopotamus",1,-23.72,31.5,347093.21,7375967.51
"197090",197090,1986,7,"hp","Hippopotamus",6,-23.59,31.25,321427.25,7390073.37
"198510",198510,1986,6,"hp","Hippopotamus",2,-23.55,31.43,339749.51,7394715.88
"198560",198560,1986,6,"hp","Hippopotamus",2,-23.64,31.46,342919.38,7384782.91
"198978",198978,1986,49,"hp","Hippopotamus",3,-22.96,31.25,320584.98,7459839.16
"199493",199493,1986,23,"hp","Hippopotamus",2,-24.1,31.72,369903.36,7334108.55
"200672",200672,1986,18,"hp","Hippopotamus",2,-23.13,31.45,341292.68,7441245.74
"200964",200964,1986,50,"hp","Hippopotamus",3,-23.14,31.46,342328.46,7440149.3
"202107",202107,1986,1,"hp","Hippopotamus",2,-23.98,31.6,357572.94,7347280.44
"204214",204214,1987,3,"hp","Hippopotamus",10,-24.09,31.26,323127.77,7334712.7
"204217",204217,1987,3,"hp","Hippopotamus",2,-24.09,31.25,322111.05,7334700.06
"204229",204229,1987,3,"hp","Hippopotamus",11,-24.07,31.32,329201.5,7337001.97
"204230",204230,1987,3,"hp","Hippopotamus",9,-24.07,31.31,328184.64,7336989.77
"204248",204248,1987,3,"hp","Hippopotamus",12,-24.07,31.25,322083.44,7336915.05
"204252",204252,1987,3,"hp","Hippopotamus",7,-24.08,31.24,321080.44,7335794.84
"204381",204381,1987,3,"hp","Hippopotamus",2,-24.03,31.22,318976.68,7341306.73
"204383",204383,1987,3,"hp","Hippopotamus",2,-24.03,31.21,317959.47,7341293.82
"204964",204964,1987,4,"hp","Hippopotamus",9,-23.65,31.15,311306.72,7383300.13
"204990",204990,1987,4,"hp","Hippopotamus",5,-23.69,31.17,313403.95,7378896.52
"204991",204991,1987,4,"hp","Hippopotamus",5,-23.69,31.18,314423.84,7378909.58
"204997",204997,1987,4,"hp","Hippopotamus",3,-23.69,31.2,316463.59,7378935.48
"205012",205012,1987,4,"hp","Hippopotamus",2,-23.7,31.23,319536.96,7377866.33
"205013",205013,1987,4,"hp","Hippopotamus",10,-23.7,31.28,324635.84,7377928.77
"205015",205015,1987,4,"hp","Hippopotamus",6,-23.69,31.21,317483.47,7378948.32
"205016",205016,1987,4,"hp","Hippopotamus",8,-23.69,31.21,317483.47,7378948.32
"205017",205017,1987,4,"hp","Hippopotamus",3,-23.69,31.21,317483.47,7378948.32
"205018",205018,1987,4,"hp","Hippopotamus",2,-23.7,31.22,318517.17,7377853.63
"205058",205058,1987,4,"hp","Hippopotamus",3,-23.71,31.27,323629.52,7376808.98
"205068",205068,1987,4,"hp","Hippopotamus",5,-23.71,31.29,325668.9,7376833.61
"205074",205074,1987,4,"hp","Hippopotamus",10,-23.72,31.32,328741,7375762.59
"205122",205122,1987,4,"hp","Hippopotamus",5,-23.74,31.35,331825.46,7373583.53
"205781",205781,1987,5,"hp","Hippopotamus",3,-23.8,31.58,355337.88,7367192.45
"205992",205992,1987,5,"hp","Hippopotamus",1,-23.75,31.49,346108.92,7372634.65
"205993",205993,1987,5,"hp","Hippopotamus",17,-23.75,31.48,345089.61,7372623.79
"206043",206043,1987,5,"hp","Hippopotamus",15,-23.75,31.39,335915.69,7372522.84
"206050",206050,1987,5,"hp","Hippopotamus",20,-23.75,31.42,338973.69,7372557.14
"206062",206062,1987,6,"hp","Hippopotamus",25,-23.74,31.49,346097.16,7373742.01
"206063",206063,1987,6,"hp","Hippopotamus",20,-23.74,31.49,346097.16,7373742.01
"206065",206065,1987,6,"hp","Hippopotamus",1,-23.75,31.48,345089.61,7372623.79
"206112",206112,1987,6,"hp","Hippopotamus",10,-23.75,31.42,338973.69,7372557.14
"206113",206113,1987,6,"hp","Hippopotamus",4,-23.75,31.42,338973.69,7372557.14
"206160",206160,1987,6,"hp","Hippopotamus",12,-23.75,31.38,334896.35,7372511.27
"206455",206455,1987,6,"hp","Hippopotamus",5,-23.64,31.47,343939.55,7384793.87
"206620",206620,1987,7,"hp","Hippopotamus",4,-23.73,31.35,331812.62,7374690.94
"206626",206626,1987,7,"hp","Hippopotamus",3,-23.73,31.34,330793.11,7374679.09
"206629",206629,1987,7,"hp","Hippopotamus",1,-23.73,31.33,329773.59,7374667.16
"206643",206643,1987,7,"hp","Hippopotamus",2,-23.71,31.27,323629.52,7376808.98
"206683",206683,1987,7,"hp","Hippopotamus",1,-23.69,31.23,319523.2,7378973.79
"206684",206684,1987,7,"hp","Hippopotamus",4,-23.7,31.22,318517.17,7377853.63
"206692",206692,1987,7,"hp","Hippopotamus",4,-23.68,31.2,316449.61,7380042.94
"206700",206700,1987,7,"hp","Hippopotamus",4,-23.68,31.16,312369.77,7379990.87
"206881",206881,1987,7,"hp","Hippopotamus",5,-23.59,31.27,323468.51,7390098.19
"209061",209061,1987,13,"hp","Hippopotamus",7,-23.83,31.62,359445.73,7363910.65
"209062",209062,1987,13,"hp","Hippopotamus",2,-23.83,31.61,358427.09,7363900.7
"209063",209063,1987,13,"hp","Hippopotamus",5,-23.83,31.61,358427.09,7363900.7
"209065",209065,1987,13,"hp","Hippopotamus",11,-23.84,31.6,357419.37,7362783.34
"209066",209066,1987,13,"hp","Hippopotamus",5,-23.84,31.6,357419.37,7362783.34
"209067",209067,1987,13,"hp","Hippopotamus",1,-23.84,31.6,357419.37,7362783.34
"209140",209140,1987,13,"hp","Hippopotamus",4,-23.85,31.6,357430.31,7361676
"209141",209141,1987,13,"hp","Hippopotamus",3,-23.85,31.59,356411.82,7361665.9
"209142",209142,1987,13,"hp","Hippopotamus",1,-23.85,31.59,356411.82,7361665.9
"210309",210309,1987,18,"hp","Hippopotamus",1,-23.14,31.37,333112.21,7440049.08
"211270",211270,1987,20,"hp","Hippopotamus",14,-24.1,31.26,323141.5,7333605.2
"211541",211541,1987,21,"hp","Hippopotamus",1,-24.16,31.63,360819.76,7327377.92
"211562",211562,1987,21,"hp","Hippopotamus",2,-24.23,31.63,360895.74,7319626.27
"211568",211568,1987,21,"hp","Hippopotamus",2,-24.24,31.64,361922.02,7318528.82
"211808",211808,1987,21,"hp","Hippopotamus",1,-24.16,31.63,360819.76,7327377.92
"211829",211829,1987,21,"hp","Hippopotamus",2,-24.23,31.63,360895.74,7319626.27
"211835",211835,1987,21,"hp","Hippopotamus",2,-24.24,31.64,361922.02,7318528.82
"213113",213113,1987,23,"hp","Hippopotamus",18,-24.1,31.72,369903.36,7334108.55
"214341",214341,1987,25,"hp","Hippopotamus",1,-24.08,31.82,380049.54,7336412.28
"214420",214420,1987,25,"hp","Hippopotamus",2,-24.05,31.84,382055.36,7339751.13
"215214",215214,1987,26,"hp","Hippopotamus",2,-24.38,31.89,387430.02,7303250.98
"215217",215217,1987,26,"hp","Hippopotamus",7,-24.33,31.9,388400.4,7308795.68
"215261",215261,1987,26,"hp","Hippopotamus",5,-24.37,31.93,391478.37,7304390.16
"215262",215262,1987,26,"hp","Hippopotamus",8,-24.36,31.92,390455.46,7305489.63
"215513",215513,1987,27,"hp","Hippopotamus",9,-24.36,31.92,390455.46,7305489.63
"216391",216391,1987,28,"hp","Hippopotamus",9,-24.47,31.96,394604.37,7293340.07
"219840",219840,1987,36,"hp","Hippopotamus",12,-24.82,31.83,381758.85,7254476.33
"220327",220327,1987,37,"hp","Hippopotamus",2,-25.16,31.95,394178.62,7216923.22
"221612",221612,1987,39,"hp","Hippopotamus",25,-25.01,31.25,323404.53,7232804.54
"225763",225763,1987,46,"hp","Hippopotamus",4,-25.31,31.97,396321.73,7200327.24
"227027",227027,1987,50,"hp","Hippopotamus",5,-23.18,31.53,349541.17,7435794.21
"227444",227444,1987,52,"hp","Hippopotamus",4,-23.21,31.21,316822.38,7432105.07
"228649",228649,1987,54,"hp","Hippopotamus",2,-22.89,31.13,308180.69,7467439.26
"228905",228905,1987,54,"hp","Hippopotamus",4,-22.94,31.22,317481.77,7462016.91
"229286",229286,1987,55,"hp","Hippopotamus",3,-22.9,31.17,312298.53,7466383.45
"230999",230999,1987,64,"hp","Hippopotamus",6,-22.43,31.16,310628.31,7518416.33
"232136",232136,1988,2,"hp","Hippopotamus",2,-23.93,31.5,347339.19,7352712.71
"234176",234176,1988,6,"hp","Hippopotamus",9,-23.62,31.46,342895.51,7386997.63
"234763",234763,1988,8,"hp","Hippopotamus",1,-23.52,31.38,334607.56,7397981.22
"234823",234823,1988,8,"hp","Hippopotamus",5,-23.51,31.36,332552.64,7399065.41
"236322",236322,1988,12,"hp","Hippopotamus",3,-23.21,31.06,301468.39,7431908.03
"237950",237950,1988,15,"hp","Hippopotamus",1,-23.16,31.34,330065.3,7437799.72
"238150",238150,1988,15,"hp","Hippopotamus",4,-23.11,31.45,341269.15,7443460.33
"244454",244454,1988,28,"hp","Hippopotamus",2,-24.38,31.9,388444.24,7303259.05
"252940",252940,1988,43,"hp","Hippopotamus",15,-24.98,31.57,355666.05,7236506.08
"254773",254773,1988,45,"hp","Hippopotamus",1,-25.25,31.85,384184.76,7206873.8
"257100",257100,1988,53,"hp","Hippopotamus",3,-23.18,31.03,298352.47,7435189.16
"257994",257994,1988,54,"hp","Hippopotamus",3,-22.93,31.2,315416.97,7463099.29
"258030",258030,1988,54,"hp","Hippopotamus",14,-22.94,31.21,316456.15,7462004.45
"258644",258644,1988,55,"hp","Hippopotamus",5,-22.92,31.2,315403.42,7464206.66
"261585",261585,1989,53,"hp","Hippopotamus",3,-23.04,31.16,311466.96,7450867.16
"262663",262663,1989,54,"hp","Hippopotamus",8,-23.06,31.22,317643.13,7448728.46
"262806",262806,1989,54,"hp","Hippopotamus",2,-23.05,31.18,313530.49,7449785.4
"263054",263054,1989,55,"hp","Hippopotamus",2,-22.94,31.22,317481.77,7462016.91
"264255",264255,1989,6,"hp","Hippopotamus",5,-23.72,31.49,346073.67,7375956.73
"264261",264261,1989,6,"hp","Hippopotamus",5,-23.75,31.49,346108.92,7372634.65
"264301",264301,1989,6,"hp","Hippopotamus",5,-23.74,31.47,344058.39,7373720.23
"264333",264333,1989,6,"hp","Hippopotamus",13,-23.74,31.46,343039,7373709.23
"264480",264480,1989,6,"hp","Hippopotamus",3,-23.61,31.46,342883.59,7388104.98
"264639",264639,1989,7,"hp","Hippopotamus",14,-23.69,31.21,317483.47,7378948.32
"264764",264764,1989,7,"hp","Hippopotamus",1,-23.71,31.29,325668.9,7376833.61
"265154",265154,1989,9,"hp","Hippopotamus",3,-23.57,31.12,308129.61,7392120.08
"266776",266776,1989,13,"hp","Hippopotamus",11,-23.71,31.49,346061.93,7377064.1
"266841",266841,1989,13,"hp","Hippopotamus",2,-23.62,31.47,343915.84,7387008.58
"266852",266852,1989,13,"hp","Hippopotamus",1,-23.6,31.45,341851.18,7389201.32
"270435",270435,1989,5,"hp","Hippopotamus",1,-23.79,31.48,345136.99,7368194.31
"270589",270589,1989,5,"hp","Hippopotamus",10,-23.75,31.49,346108.92,7372634.65
"271130",271130,1989,20,"hp","Hippopotamus",1,-24.04,31.63,360690,7340666.31
"273533",273533,1989,25,"hp","Hippopotamus",1,-24.12,31.76,373988.89,7331930.4
"273929",273929,1989,26,"hp","Hippopotamus",8,-24.31,31.83,381279.34,7310952.39
"274000",274000,1989,26,"hp","Hippopotamus",1,-24.33,31.89,387385.78,7308787.62
"274396",274396,1989,27,"hp","Hippopotamus",50,-24.36,31.92,390455.46,7305489.63
"274529",274529,1989,27,"hp","Hippopotamus",11,-24.44,31.97,395593.13,7296669.63
"274874",274874,1989,28,"hp","Hippopotamus",1,-24.49,31.96,394621.03,7291125.41
"276017",276017,1989,30,"hp","Hippopotamus",1,-24.45,31.97,395601.37,7295562.31
"278763",278763,1989,36,"hp","Hippopotamus",12,-24.82,31.83,381758.85,7254476.33
"279123",279123,1989,37,"hp","Hippopotamus",5,-24.79,31.96,394872.45,7257904.84
"279636",279636,1989,37,"hp","Hippopotamus",1,-25.09,32,399160.61,7224713.44
"281780",281780,1989,42,"hp","Hippopotamus",1,-25.23,31.56,354951.9,7208807.23
"284437",284437,1989,46,"hp","Hippopotamus",9,-25.23,31.97,396253.73,7209186.77
"288751",288751,1990,54,"hp","Hippopotamus",2,-22.94,31.22,317481.77,7462016.91
"288752",288752,1990,54,"hp","Hippopotamus",13,-22.94,31.21,316456.15,7462004.45
"289014",289014,1990,54,"hp","Hippopotamus",2,-23.04,31.17,312491.84,7450880.01
"289230",289230,1990,55,"hp","Hippopotamus",13,-22.94,31.22,317481.77,7462016.91
"289232",289232,1990,55,"hp","Hippopotamus",5,-22.93,31.21,316442.67,7463111.82
"290430",290430,1990,6,"hp","Hippopotamus",10,-23.71,31.49,346061.93,7377064.1
"290508",290508,1990,6,"hp","Hippopotamus",2,-23.67,31.48,344995.09,7381482.69
"290655",290655,1990,6,"hp","Hippopotamus",2,-23.6,31.45,341851.18,7389201.32
"290978",290978,1990,7,"hp","Hippopotamus",5,-23.59,31.25,321427.25,7390073.37
"295757",295757,1990,2,"hp","Hippopotamus",2,-23.94,31.49,346333.14,7351594.47
"299688",299688,1990,23,"hp","Hippopotamus",3,-24.13,31.63,360787.26,7330700.04
"301310",301310,1990,26,"hp","Hippopotamus",8,-24.36,31.92,390455.46,7305489.63
"301350",301350,1990,26,"hp","Hippopotamus",19,-24.32,31.9,388391.64,7309903.01
"301494",301494,1990,26,"hp","Hippopotamus",1,-24.39,31.8,378311.44,7302067.65
"301941",301941,1990,27,"hp","Hippopotamus",12,-24.45,31.97,395601.37,7295562.31
"302075",302075,1990,27,"hp","Hippopotamus",19,-24.36,31.92,390455.46,7305489.63
"302076",302076,1990,27,"hp","Hippopotamus",4,-24.36,31.92,390455.46,7305489.63
"302077",302077,1990,27,"hp","Hippopotamus",5,-24.37,31.92,390464.07,7304382.31
"302079",302079,1990,27,"hp","Hippopotamus",4,-24.36,31.93,391469.84,7305497.48
"304276",304276,1990,32,"hp","Hippopotamus",1,-24.45,31.5,347957.09,7295126.84
"306356",306356,1990,36,"hp","Hippopotamus",6,-24.82,31.83,381758.85,7254476.33
"306781",306781,1990,37,"hp","Hippopotamus",2,-24.79,31.91,389817.86,7257865.44
"308619",308619,1990,39,"hp","Hippopotamus",15,-25.01,31.25,323404.53,7232804.54
"309163",309163,1990,41,"hp","Hippopotamus",3,-25.33,31.4,338965.01,7197548.87
"310303",310303,1990,43,"hp","Hippopotamus",4,-24.98,31.58,356675.51,7236516.69
"312214",312214,1990,46,"hp","Hippopotamus",1,-25.19,31.97,396219.81,7213616.49
"312423",312423,1990,46,"hp","Hippopotamus",7,-25.23,31.97,396253.73,7209186.77
"313401",313401,1990,57,"hp","Hippopotamus",1,-25.06,31.79,377952.75,7227862.59
"315512",315512,1991,54,"hp","Hippopotamus",4,-22.95,31.21,316469.65,7460897.08
"315552",315552,1991,54,"hp","Hippopotamus",1,-22.94,31.21,316456.15,7462004.45
"315798",315798,1991,55,"hp","Hippopotamus",2,-22.85,30.96,290676.29,7471637.56
"316975",316975,1991,50,"hp","Hippopotamus",14,-23.13,31.45,341292.68,7441245.74
"317103",317103,1991,6,"hp","Hippopotamus",1,-23.72,31.49,346073.67,7375956.73
"317377",317377,1991,6,"hp","Hippopotamus",2,-23.63,31.47,343927.69,7385901.23
"317380",317380,1991,6,"hp","Hippopotamus",3,-23.62,31.45,341875.18,7386986.6
"317778",317778,1991,8,"hp","Hippopotamus",1,-23.52,31.39,335628.68,7397992.71
"317807",317807,1991,8,"hp","Hippopotamus",1,-23.5,31.35,331518.71,7400161.09
"319676",319676,1991,13,"hp","Hippopotamus",1,-23.75,31.61,358340.38,7372759.34
"319807",319807,1991,14,"hp","Hippopotamus",2,-23.51,31.48,344806.94,7399200.25
"320001",320001,1991,14,"hp","Hippopotamus",2,-23.51,31.48,344806.94,7399200.25
"321087",321087,1991,1,"hp","Hippopotamus",1,-24,31.62,359629.57,7345085.8
"321485",321485,1991,2,"hp","Hippopotamus",1,-23.91,31.56,353423.94,7354991.01
"321592",321592,1991,2,"hp","Hippopotamus",5,-23.93,31.49,346321.29,7352701.86
"323433",323433,1991,5,"hp","Hippopotamus",2,-23.78,31.47,344106.06,7369290.74
"326594",326594,1991,26,"hp","Hippopotamus",17,-24.37,31.92,390464.07,7304382.31
"326936",326936,1991,27,"hp","Hippopotamus",4,-24.44,31.98,396606.86,7296677.13
"327006",327006,1991,27,"hp","Hippopotamus",2,-24.45,31.97,395601.37,7295562.31
"327184",327184,1991,27,"hp","Hippopotamus",20,-24.35,31.92,390446.85,7306596.95
"327188",327188,1991,27,"hp","Hippopotamus",2,-24.36,31.92,390455.46,7305489.63
"327293",327293,1991,28,"hp","Hippopotamus",2,-24.47,31.97,395617.86,7293347.66
"328180",328180,1991,29,"hp","Hippopotamus",16,-24.79,31.87,385774.14,7257832.59
"328199",328199,1991,29,"hp","Hippopotamus",3,-24.75,31.84,382703.75,7262236.78
"328238",328238,1991,30,"hp","Hippopotamus",10,-24.79,31.9,388806.93,7257857.34
"328688",328688,1991,30,"hp","Hippopotamus",1,-24.45,31.98,396615.02,7295569.81
"330114",330114,1991,33,"hp","Hippopotamus",6,-24.72,31.66,364468.06,7265392.82
"331152",331152,1991,36,"hp","Hippopotamus",17,-24.82,31.82,380748.15,7254467.63
"331426",331426,1991,37,"hp","Hippopotamus",5,-24.79,31.97,395883.37,7257912.5
"332761",332761,1991,39,"hp","Hippopotamus",2,-25.11,31.21,319513.84,7221675.36
"333618",333618,1991,41,"hp","Hippopotamus",1,-25.12,31.48,346754.97,7220901.66
"340093",340093,1992,54,"hp","Hippopotamus",3,-23.04,31.15,310442.07,7450854.24
"340162",340162,1992,54,"hp","Hippopotamus",1,-22.95,31.23,318520.72,7460921.94
"340461",340461,1992,55,"hp","Hippopotamus",1,-22.86,31.23,318400.86,7470888.13
"340950",340950,1992,48,"hp","Hippopotamus",1,-22.85,31.23,318387.57,7471995.48
"342110",342110,1992,7,"hp","Hippopotamus",6,-23.61,31.24,320433.86,7387845.98
"342208",342208,1992,8,"hp","Hippopotamus",1,-23.46,31.34,330446.27,7404578.86
"342249",342249,1992,8,"hp","Hippopotamus",9,-23.52,31.39,335628.68,7397992.71
"342338",342338,1992,9,"hp","Hippopotamus",2,-23.57,31.12,308129.61,7392120.08
"342453",342453,1992,9,"hp","Hippopotamus",3,-23.52,31.09,304993.31,7397617.04
"344105",344105,1992,13,"hp","Hippopotamus",1,-23.62,31.5,346976.79,7387041.02
"344150",344150,1992,13,"hp","Hippopotamus",3,-23.7,31.5,347069.89,7378182.22
"344151",344151,1992,13,"hp","Hippopotamus",5,-23.71,31.5,347081.55,7377074.87
"346450",346450,1992,2,"hp","Hippopotamus",6,-23.92,31.49,346309.46,7353809.25
"346965",346965,1992,3,"hp","Hippopotamus",4,-23.97,31.32,329069.28,7348076.6
"351232",351232,1992,25,"hp","Hippopotamus",1,-24.12,31.78,376021.54,7331948.24
"352195",352195,1992,26,"hp","Hippopotamus",9,-24.37,31.91,389449.77,7304374.38
"352252",352252,1992,26,"hp","Hippopotamus",8,-24.33,31.89,387385.78,7308787.62
"353021",353021,1992,28,"hp","Hippopotamus",2,-24.38,31.91,389458.47,7303267.05
"356073",356073,1992,35,"hp","Hippopotamus",2,-24.95,31.68,366737.68,7239941.05
"356503",356503,1992,36,"hp","Hippopotamus",27,-24.81,31.83,381749.36,7255583.74
"358399",358399,1992,39,"hp","Hippopotamus",10,-25.11,31.21,319513.84,7221675.36
"358561",358561,1992,40,"hp","Hippopotamus",23,-25.25,31.26,324756.79,7206234.33
"366457",366457,1993,54,"hp","Hippopotamus",7,-22.94,31.22,317481.77,7462016.91
"366750",366750,1993,54,"hp","Hippopotamus",2,-22.88,31.06,300983.81,7468453.77
"366851",366851,1993,55,"hp","Hippopotamus",1,-22.86,30.96,290691.61,7470530.09
"366974",366974,1993,55,"hp","Hippopotamus",5,-22.93,31.21,316442.67,7463111.82
"367583",367583,1993,49,"hp","Hippopotamus",2,-22.99,31.26,321649.82,7456529.29
"368119",368119,1993,6,"hp","Hippopotamus",4,-23.71,31.49,346061.93,7377064.1
"368138",368138,1993,6,"hp","Hippopotamus",6,-23.7,31.49,346050.19,7378171.45
"368371",368371,1993,8,"hp","Hippopotamus",1,-23.52,31.39,335628.68,7397992.71
"370225",370225,1993,14,"hp","Hippopotamus",8,-23.51,31.48,344806.94,7399200.25
"371538",371538,1993,2,"hp","Hippopotamus",6,-23.92,31.51,348345.4,7353830.87
"372817",372817,1993,20,"hp","Hippopotamus",1,-24.09,31.57,354644.36,7335068.66
"373500",373500,1993,21,"hp","Hippopotamus",3,-24.39,31.47,344842.38,7301738.32
"373759",373759,1993,21,"hp","Hippopotamus",3,-24.38,31.47,344830.17,7302845.78
"374997",374997,1993,24,"hp","Hippopotamus",5,-24.38,31.71,369173.52,7303093.12
"376049",376049,1993,27,"hp","Hippopotamus",5,-24.35,31.91,389432.39,7306589.03
"376066",376066,1993,27,"hp","Hippopotamus",8,-24.35,31.92,390446.85,7306596.95
"376067",376067,1993,27,"hp","Hippopotamus",2,-24.36,31.92,390455.46,7305489.63
"376069",376069,1993,27,"hp","Hippopotamus",15,-24.36,31.92,390455.46,7305489.63
"376181",376181,1993,27,"hp","Hippopotamus",18,-24.44,31.97,395593.13,7296669.63
"376451",376451,1993,28,"hp","Hippopotamus",1,-24.47,31.96,394604.37,7293340.07
"377068",377068,1993,29,"hp","Hippopotamus",7,-24.78,31.87,385764.98,7258939.99
"377165",377165,1993,30,"hp","Hippopotamus",10,-24.79,31.96,394872.45,7257904.84
"377333",377333,1993,30,"hp","Hippopotamus",4,-24.78,31.9,388798.02,7258964.73
"377497",377497,1993,30,"hp","Hippopotamus",15,-24.44,31.98,396606.86,7296677.13
"378891",378891,1993,33,"hp","Hippopotamus",2,-24.72,31.66,364468.06,7265392.82
"380128",380128,1993,36,"hp","Hippopotamus",12,-24.82,31.83,381758.85,7254476.33
"380157",380157,1993,36,"hp","Hippopotamus",2,-24.84,31.81,379756.77,7252244.02
"380945",380945,1993,38,"hp","Hippopotamus",10,-25.03,31.92,391039.81,7231295.87
"381360",381360,1993,38,"hp","Hippopotamus",1,-25.05,31.88,387022.25,7229048.22
"381497",381497,1993,39,"hp","Hippopotamus",7,-25.09,31.25,323519.16,7223943.53
"384086",384086,1993,44,"hp","Hippopotamus",2,-25.33,31.87,386273.77,7198031.17
"387298",387298,1994,10,"hp","Hippopotamus",4,-23.93,31.48,345303.39,7352690.94
"388821",388821,1994,65,"hp","Hippopotamus",7,-23.52,31.38,334607.56,7397981.22
"388822",388822,1994,65,"hp","Hippopotamus",1,-23.52,31.38,334607.56,7397981.22
"390001",390001,1994,4,"hp","Hippopotamus",6,-23.24,31.16,311746.57,7428718.88
"392935",392935,1994,16,"hp","Hippopotamus",1,-24.39,31.72,370198.01,7301995.13
"392936",392936,1994,16,"hp","Hippopotamus",2,-24.39,31.72,370198.01,7301995.13
"393930",393930,1994,18,"hp","Hippopotamus",1,-24.39,31.83,381353.94,7302093.64
"394371",394371,1994,23,"hp","Hippopotamus",6,-24.44,31.98,396606.86,7296677.13
"394494",394494,1994,23,"hp","Hippopotamus",17,-24.45,31.98,396615.02,7295569.81
"394686",394686,1994,19,"hp","Hippopotamus",4,-24.36,31.92,390455.46,7305489.63
"394687",394687,1994,19,"hp","Hippopotamus",3,-24.36,31.92,390455.46,7305489.63
"394688",394688,1994,19,"hp","Hippopotamus",16,-24.36,31.92,390455.46,7305489.63
"394690",394690,1994,19,"hp","Hippopotamus",2,-24.35,31.92,390446.85,7306596.95
"395461",395461,1994,29,"hp","Hippopotamus",1,-24.8,31.86,384772.45,7256716.8
"400991",400991,1995,58,"hp","Hippopotamus",4,-23.71,31.49,346061.93,7377064.1
"401003",401003,1995,58,"hp","Hippopotamus",1,-23.72,31.49,346073.67,7375956.73
"401188",401188,1995,6,"hp","Hippopotamus",1,-23.51,31.47,343785.77,7399189.4
"402816",402816,1995,14,"hp","Hippopotamus",2,-24.46,31.49,346955.4,7294008.36
"404879",404879,1995,19,"hp","Hippopotamus",30,-24.42,31.97,395576.67,7298884.27
"407807",407807,1995,54,"hp","Hippopotamus",2,-22.92,31.21,316429.19,7464219.18
"408089",408089,1995,54,"hp","Hippopotamus",4,-22.94,31.22,317481.77,7462016.91
"408743",408743,1996,11,"hp","Hippopotamus",1,-24.09,31.57,354644.36,7335068.66
"410344",410344,1996,24,"hp","Hippopotamus",5,-24.39,31.72,370198.01,7301995.13
"411527",411527,1996,19,"hp","Hippopotamus",1,-24.39,31.94,392509.59,7302183.3
"411531",411531,1996,19,"hp","Hippopotamus",16,-24.36,31.92,390455.46,7305489.63
"412211",412211,1996,19,"hp","Hippopotamus",22,-24.36,31.92,390455.46,7305489.63
"412213",412213,1996,19,"hp","Hippopotamus",23,-24.35,31.92,390446.85,7306596.95
"412283",412283,1996,19,"hp","Hippopotamus",2,-24.35,31.92,390446.85,7306596.95
