"","n_obs","n_total"
"1",0,0
"2",0,0
"3",0,0
"4",1,6
"5",1,1
"6",0,0
"7",0,0
"8",0,0
"9",0,0
"10",0,0
"11",0,0
"12",0,0
"13",0,0
"14",1,1
"15",1,7
"16",6,13
"17",5,26
"18",0,0
"19",0,0
"20",1,4
"21",0,0
"22",0,0
"23",0,0
"24",2,11
"25",0,0
"26",4,18
"27",1,7
"28",2,2
"29",2,5
"30",1,4
"31",0,0
"32",0,0
"33",0,0
"34",0,0
"35",8,36
"36",1,1
"37",0,0
"38",6,23
"39",0,0
"40",2,6
"41",0,0
"42",0,0
"43",1,3
"44",0,0
"45",2,6
"46",0,0
"47",0,0
"48",1,6
"49",0,0
"50",0,0
"51",0,0
"52",0,0
"53",0,0
"54",6,20
"55",1,3
"56",3,16
"57",0,0
"58",4,11
"59",0,0
"60",11,48
"61",0,0
"62",0,0
"63",4,14
"64",1,8
"65",0,0
"66",4,10
"67",0,0
"68",0,0
"69",3,10
"70",21,88
"71",0,0
"72",0,0
"73",0,0
"74",2,13
"75",0,0
"76",0,0
"77",0,0
"78",1,3
"79",0,0
"80",5,26
"81",0,0
"82",0,0
"83",0,0
"84",0,0
"85",0,0
"86",1,5
"87",1,7
"88",4,32
"89",0,0
"90",8,48
"91",0,0
"92",0,0
"93",0,0
"94",0,0
"95",0,0
"96",0,0
"97",0,0
"98",10,52
"99",0,0
"100",6,48
"101",0,0
"102",0,0
"103",0,0
"104",0,0
"105",0,0
"106",0,0
"107",3,33
"108",1,2
"109",2,7
"110",0,0
"111",0,0
"112",0,0
"113",0,0
"114",0,0
"115",0,0
"116",0,0
"117",0,0
"118",0,0
"119",30,154
"120",28,131
"121",0,0
"122",0,0
"123",0,0
"124",0,0
"125",0,0
"126",0,0
"127",5,43
"128",0,0
"129",2,22
"130",2,14
"131",0,0
"132",0,0
"133",0,0
"134",0,0
"135",0,0
"136",0,0
"137",0,0
"138",2,5
"139",0,0
"140",0,0
"141",0,0
"142",0,0
"143",0,0
"144",0,0
"145",0,0
"146",0,0
"147",2,10
"148",1,6
"149",0,0
"150",0,0
"151",0,0
"152",0,0
"153",0,0
"154",0,0
"155",0,0
"156",1,10
"157",1,1
"158",0,0
"159",1,15
"160",2,5
"161",0,0
"162",0,0
"163",0,0
"164",0,0
"165",0,0
"166",0,0
"167",0,0
"168",3,11
"169",6,36
"170",4,21
"171",0,0
"172",0,0
"173",0,0
"174",0,0
"175",0,0
"176",7,33
"177",2,6
"178",11,54
"179",5,43
"180",19,106
"181",0,0
"182",0,0
"183",0,0
"184",0,0
"185",0,0
"186",4,14
"187",2,17
"188",2,6
"189",6,40
"190",5,25
"191",0,0
"192",0,0
"193",0,0
"194",0,0
"195",0,0
"196",0,0
"197",0,0
"198",1,31
"199",7,38
"200",0,0
"201",0,0
"202",0,0
"203",0,0
"204",0,0
"205",0,0
"206",0,0
"207",2,11
"208",1,4
"209",1,15
"210",0,0
"211",0,0
"212",0,0
"213",0,0
"214",0,0
"215",0,0
"216",0,0
"217",0,0
"218",0,0
"219",0,0
"220",0,0
"221",0,0
"222",0,0
"223",0,0
"224",12,32
"225",9,25
"226",2,2
"227",10,39
"228",1,5
"229",1,13
"230",0,0
"231",0,0
"232",0,0
"233",2,5
"234",1,3
"235",5,18
"236",6,13
"237",18,59
"238",5,17
"239",7,25
"240",0,0
"241",0,0
"242",0,0
"243",0,0
"244",4,12
"245",0,0
"246",0,0
"247",0,0
"248",13,45
"249",3,11
"250",0,0
"251",0,0
"252",0,0
"253",0,0
"254",0,0
"255",0,0
"256",1,1
"257",8,29
"258",2,2
"259",0,0
"260",0,0
"261",0,0
"262",0,0
"263",0,0
"264",1,2
"265",0,0
"266",2,5
"267",5,23
"268",2,5
"269",0,0
"270",0,0
"271",0,0
"272",0,0
"273",0,0
"274",3,27
"275",18,63
"276",4,9
"277",3,11
"278",0,0
"279",0,0
"280",0,0
"281",0,0
"282",0,0
"283",8,16
"284",3,7
"285",1,3
"286",1,8
"287",2,3
"288",0,0
"289",0,0
"290",0,0
"291",0,0
"292",0,0
"293",4,13
"294",0,0
"295",0,0
"296",3,5
"297",0,0
"298",0,0
"299",0,0
"300",0,0
"301",0,0
"302",2,7
"303",2,17
"304",5,34
"305",7,23
"306",0,0
"307",0,0
"308",0,0
"309",0,0
"310",0,0
"311",0,0
"312",1,2
"313",1,1
"314",2,3
"315",11,33
"316",3,23
"317",0,0
"318",0,0
"319",0,0
"320",0,0
"321",0,0
"322",0,0
"323",0,0
"324",9,35
"325",3,11
"326",0,0
"327",0,0
"328",0,0
"329",0,0
"330",0,0
"331",0,0
"332",0,0
"333",0,0
"334",4,9
"335",1,9
"336",1,6
"337",0,0
"338",0,0
"339",0,0
"340",0,0
"341",0,0
"342",1,1
"343",0,0
"344",0,0
"345",0,0
"346",1,2
"347",0,0
"348",0,0
"349",0,0
"350",0,0
"351",0,0
"352",0,0
"353",1,1
"354",3,31
"355",0,0
"356",0,0
"357",0,0
"358",0,0
"359",0,0
"360",0,0
"361",2,16
"362",3,6
"363",6,11
"364",9,23
"365",0,0
"366",2,8
"367",0,0
"368",0,0
"369",0,0
"370",0,0
"371",3,17
"372",2,5
"373",0,0
"374",1,1
"375",15,54
"376",0,0
"377",0,0
"378",0,0
"379",0,0
"380",0,0
"381",0,0
"382",0,0
"383",0,0
"384",0,0
"385",9,52
"386",0,0
"387",0,0
"388",0,0
"389",0,0
"390",0,0
"391",2,3
"392",4,22
"393",8,37
"394",1,3
"395",0,0
"396",0,0
"397",0,0
"398",0,0
"399",0,0
"400",0,0
"401",2,3
"402",1,1
"403",13,67
"404",2,5
"405",0,0
"406",0,0
"407",0,0
"408",0,0
"409",0,0
"410",0,0
"411",0,0
"412",18,119
"413",14,52
"414",1,1
"415",5,10
"416",0,0
"417",0,0
"418",0,0
"419",0,0
"420",0,0
"421",0,0
"422",0,0
"423",1,2
"424",1,1
"425",0,0
"426",0,0
"427",0,0
"428",0,0
"429",0,0
"430",0,0
"431",0,0
"432",0,0
"433",0,0
"434",0,0
"435",0,0
"436",0,0
"437",0,0
"438",0,0
"439",0,0
"440",0,0
"441",0,0
"442",0,0
"443",0,0
"444",0,0
"445",0,0
"446",0,0
"447",0,0
"448",0,0
"449",0,0
"450",0,0
"451",0,0
"452",0,0
"453",0,0
"454",0,0
"455",0,0
"456",0,0
"457",0,0
"458",0,0
"459",0,0
"460",0,0
"461",0,0
"462",0,0
"463",0,0
"464",0,0
"465",0,0
"466",0,0
"467",0,0
"468",0,0
"469",0,0
"470",0,0
"471",0,0
"472",0,0
"473",0,0
"474",0,0
"475",0,0
"476",0,0
"477",0,0
"478",0,0
"479",0,0
"480",0,0
"481",0,0
"482",0,0
"483",0,0
"484",0,0
"485",0,0
"486",0,0
"487",0,0
"488",0,0
"489",0,0
"490",0,0
"491",0,0
"492",0,0
"493",0,0
"494",0,0
"495",0,0
"496",0,0
"497",0,0
"498",0,0
"499",0,0
"500",0,0
