"","n_obs","n_total"
"1",0,0
"2",0,0
"3",0,0
"4",0,0
"5",0,0
"6",0,0
"7",0,0
"8",0,0
"9",0,0
"10",0,0
"11",0,0
"12",0,0
"13",0,0
"14",0,0
"15",0,0
"16",0,0
"17",0,0
"18",0,0
"19",0,0
"20",0,0
"21",0,0
"22",0,0
"23",0,0
"24",6,26
"25",0,0
"26",0,0
"27",0,0
"28",0,0
"29",0,0
"30",0,0
"31",0,0
"32",0,0
"33",0,0
"34",11,27
"35",10,55
"36",9,18
"37",0,0
"38",0,0
"39",0,0
"40",0,0
"41",0,0
"42",0,0
"43",0,0
"44",23,197
"45",24,186
"46",15,93
"47",5,50
"48",0,0
"49",0,0
"50",0,0
"51",0,0
"52",0,0
"53",0,0
"54",12,104
"55",10,59
"56",16,95
"57",7,32
"58",0,0
"59",0,0
"60",0,0
"61",0,0
"62",0,0
"63",3,9
"64",11,90
"65",7,30
"66",12,62
"67",0,0
"68",0,0
"69",0,0
"70",0,0
"71",0,0
"72",0,0
"73",0,0
"74",5,30
"75",21,100
"76",8,48
"77",0,0
"78",0,0
"79",0,0
"80",0,0
"81",0,0
"82",0,0
"83",0,0
"84",2,10
"85",0,0
"86",0,0
"87",0,0
"88",0,0
"89",0,0
"90",0,0
"91",0,0
"92",0,0
"93",0,0
"94",0,0
"95",0,0
"96",0,0
"97",0,0
"98",0,0
"99",0,0
"100",0,0
"101",0,0
"102",0,0
"103",0,0
"104",0,0
"105",0,0
"106",0,0
"107",0,0
"108",0,0
"109",0,0
"110",0,0
"111",0,0
"112",0,0
"113",0,0
"114",0,0
"115",0,0
"116",0,0
"117",0,0
"118",0,0
"119",0,0
"120",0,0
"121",0,0
"122",0,0
"123",0,0
"124",0,0
"125",0,0
"126",0,0
"127",0,0
"128",0,0
"129",0,0
"130",0,0
"131",0,0
"132",0,0
"133",0,0
"134",0,0
"135",0,0
"136",0,0
"137",0,0
"138",0,0
"139",0,0
"140",0,0
"141",0,0
"142",0,0
"143",0,0
"144",0,0
"145",0,0
"146",0,0
"147",0,0
"148",0,0
"149",0,0
"150",0,0
"151",0,0
"152",0,0
"153",0,0
"154",0,0
"155",0,0
"156",0,0
"157",0,0
"158",0,0
"159",0,0
"160",0,0
"161",0,0
"162",0,0
"163",0,0
"164",0,0
"165",0,0
"166",0,0
"167",0,0
"168",0,0
"169",0,0
"170",0,0
"171",0,0
"172",0,0
"173",0,0
"174",0,0
"175",0,0
"176",0,0
"177",0,0
"178",0,0
"179",0,0
"180",0,0
"181",0,0
"182",0,0
"183",0,0
"184",0,0
"185",0,0
"186",0,0
"187",0,0
"188",0,0
"189",0,0
"190",0,0
"191",0,0
"192",0,0
"193",0,0
"194",0,0
"195",0,0
"196",0,0
"197",0,0
"198",0,0
"199",0,0
"200",0,0
"201",0,0
"202",0,0
"203",0,0
"204",0,0
"205",0,0
"206",0,0
"207",0,0
"208",0,0
"209",0,0
"210",0,0
"211",0,0
"212",0,0
"213",0,0
"214",0,0
"215",0,0
"216",0,0
"217",0,0
"218",0,0
"219",0,0
"220",0,0
"221",0,0
"222",0,0
"223",0,0
"224",1,5
"225",3,16
"226",0,0
"227",0,0
"228",7,38
"229",0,0
"230",0,0
"231",0,0
"232",0,0
"233",2,12
"234",4,23
"235",6,29
"236",5,26
"237",2,36
"238",9,143
"239",0,0
"240",0,0
"241",0,0
"242",0,0
"243",8,67
"244",8,72
"245",10,107
"246",10,95
"247",11,136
"248",28,269
"249",16,65
"250",0,0
"251",0,0
"252",0,0
"253",9,54
"254",10,160
"255",15,345
"256",12,320
"257",13,62
"258",6,27
"259",0,0
"260",0,0
"261",0,0
"262",0,0
"263",5,35
"264",9,81
"265",18,177
"266",10,80
"267",16,197
"268",2,16
"269",0,0
"270",0,0
"271",0,0
"272",0,0
"273",11,62
"274",16,216
"275",9,17
"276",7,34
"277",19,475
"278",4,20
"279",0,0
"280",0,0
"281",0,0
"282",0,0
"283",2,21
"284",9,67
"285",2,19
"286",9,165
"287",23,298
"288",1,14
"289",0,0
"290",0,0
"291",0,0
"292",0,0
"293",5,47
"294",3,11
"295",3,16
"296",6,84
"297",19,161
"298",0,0
"299",0,0
"300",0,0
"301",0,0
"302",0,0
"303",10,67
"304",5,28
"305",7,79
"306",5,61
"307",6,50
"308",0,0
"309",0,0
"310",0,0
"311",0,0
"312",3,33
"313",7,46
"314",5,18
"315",13,154
"316",7,50
"317",0,0
"318",0,0
"319",0,0
"320",0,0
"321",0,0
"322",14,153
"323",5,26
"324",3,11
"325",11,163
"326",4,30
"327",0,0
"328",0,0
"329",0,0
"330",0,0
"331",0,0
"332",12,102
"333",10,66
"334",4,21
"335",10,80
"336",5,70
"337",0,0
"338",0,0
"339",0,0
"340",0,0
"341",0,0
"342",9,101
"343",2,8
"344",4,18
"345",16,208
"346",9,74
"347",0,0
"348",0,0
"349",0,0
"350",0,0
"351",2,9
"352",13,61
"353",2,4
"354",3,43
"355",12,186
"356",2,6
"357",0,0
"358",0,0
"359",0,0
"360",0,0
"361",5,46
"362",14,81
"363",7,27
"364",9,69
"365",18,210
"366",5,50
"367",0,0
"368",0,0
"369",0,0
"370",0,0
"371",15,107
"372",17,86
"373",19,119
"374",18,167
"375",30,319
"376",15,205
"377",0,0
"378",0,0
"379",0,0
"380",0,0
"381",7,67
"382",5,38
"383",7,27
"384",9,61
"385",18,128
"386",7,92
"387",0,0
"388",0,0
"389",0,0
"390",0,0
"391",7,72
"392",12,57
"393",14,61
"394",13,150
"395",17,267
"396",11,53
"397",0,0
"398",0,0
"399",0,0
"400",0,0
"401",3,29
"402",6,59
"403",7,48
"404",10,73
"405",13,57
"406",0,0
"407",0,0
"408",0,0
"409",0,0
"410",0,0
"411",0,0
"412",10,46
"413",16,120
"414",8,72
"415",12,66
"416",0,0
"417",0,0
"418",0,0
"419",0,0
"420",0,0
"421",0,0
"422",7,41
"423",3,19
"424",7,91
"425",0,0
"426",0,0
"427",0,0
"428",0,0
"429",0,0
"430",0,0
"431",0,0
"432",1,6
"433",7,34
"434",7,116
"435",1,5
"436",0,0
"437",0,0
"438",0,0
"439",0,0
"440",0,0
"441",0,0
"442",0,0
"443",8,93
"444",8,236
"445",0,0
"446",0,0
"447",0,0
"448",0,0
"449",0,0
"450",0,0
"451",0,0
"452",0,0
"453",0,0
"454",1,6
"455",0,0
"456",0,0
"457",0,0
"458",0,0
"459",0,0
"460",0,0
"461",0,0
"462",0,0
"463",0,0
"464",0,0
"465",0,0
"466",0,0
"467",0,0
"468",0,0
"469",0,0
"470",0,0
"471",0,0
"472",0,0
"473",0,0
"474",0,0
"475",0,0
"476",0,0
"477",0,0
"478",0,0
"479",0,0
"480",0,0
"481",0,0
"482",0,0
"483",0,0
"484",0,0
"485",0,0
"486",0,0
"487",0,0
"488",0,0
"489",0,0
"490",0,0
"491",0,0
"492",0,0
"493",0,0
"494",0,0
"495",0,0
"496",0,0
"497",0,0
"498",0,0
"499",0,0
"500",0,0
