"","n_obs","n_total"
"1",0,0
"2",0,0
"3",0,0
"4",0,0
"5",0,0
"6",0,0
"7",0,0
"8",0,0
"9",0,0
"10",0,0
"11",0,0
"12",0,0
"13",0,0
"14",0,0
"15",0,0
"16",0,0
"17",0,0
"18",0,0
"19",0,0
"20",0,0
"21",0,0
"22",0,0
"23",0,0
"24",1,1
"25",0,0
"26",0,0
"27",1,1
"28",0,0
"29",0,0
"30",0,0
"31",0,0
"32",0,0
"33",0,0
"34",4,4
"35",4,5
"36",0,0
"37",0,0
"38",1,1
"39",0,0
"40",4,6
"41",0,0
"42",0,0
"43",0,0
"44",14,17
"45",6,6
"46",2,2
"47",4,4
"48",3,3
"49",2,3
"50",8,8
"51",0,0
"52",0,0
"53",2,2
"54",11,13
"55",4,4
"56",3,3
"57",2,2
"58",2,3
"59",7,7
"60",0,0
"61",0,0
"62",0,0
"63",0,0
"64",4,5
"65",2,2
"66",9,9
"67",3,3
"68",2,2
"69",8,9
"70",3,4
"71",0,0
"72",0,0
"73",0,0
"74",3,3
"75",2,2
"76",1,1
"77",7,7
"78",6,6
"79",2,2
"80",4,6
"81",0,0
"82",0,0
"83",0,0
"84",1,1
"85",1,1
"86",0,0
"87",2,2
"88",6,6
"89",5,5
"90",7,8
"91",0,0
"92",0,0
"93",0,0
"94",0,0
"95",0,0
"96",0,0
"97",1,1
"98",6,8
"99",1,1
"100",11,12
"101",0,0
"102",0,0
"103",0,0
"104",0,0
"105",0,0
"106",0,0
"107",0,0
"108",1,1
"109",3,3
"110",0,0
"111",0,0
"112",0,0
"113",0,0
"114",0,0
"115",0,0
"116",0,0
"117",3,3
"118",1,1
"119",0,0
"120",3,3
"121",0,0
"122",0,0
"123",0,0
"124",0,0
"125",0,0
"126",0,0
"127",5,5
"128",2,2
"129",2,2
"130",13,13
"131",0,0
"132",0,0
"133",0,0
"134",0,0
"135",0,0
"136",0,0
"137",7,8
"138",6,8
"139",8,8
"140",5,5
"141",0,0
"142",0,0
"143",0,0
"144",0,0
"145",0,0
"146",1,1
"147",0,0
"148",2,3
"149",4,4
"150",1,2
"151",0,0
"152",0,0
"153",0,0
"154",0,0
"155",1,1
"156",2,2
"157",0,0
"158",0,0
"159",4,5
"160",1,1
"161",0,0
"162",0,0
"163",0,0
"164",0,0
"165",4,5
"166",3,3
"167",1,1
"168",5,5
"169",0,0
"170",0,0
"171",0,0
"172",0,0
"173",0,0
"174",0,0
"175",0,0
"176",1,1
"177",0,0
"178",6,7
"179",0,0
"180",1,1
"181",0,0
"182",0,0
"183",0,0
"184",0,0
"185",6,8
"186",2,2
"187",0,0
"188",9,10
"189",0,0
"190",1,1
"191",0,0
"192",0,0
"193",0,0
"194",0,0
"195",1,1
"196",4,5
"197",0,0
"198",7,8
"199",7,8
"200",0,0
"201",0,0
"202",0,0
"203",0,0
"204",0,0
"205",0,0
"206",1,2
"207",4,5
"208",5,5
"209",10,10
"210",0,0
"211",0,0
"212",0,0
"213",0,0
"214",0,0
"215",0,0
"216",3,4
"217",3,3
"218",5,6
"219",2,2
"220",0,0
"221",0,0
"222",0,0
"223",0,0
"224",0,0
"225",1,1
"226",3,3
"227",5,7
"228",8,11
"229",2,2
"230",0,0
"231",0,0
"232",0,0
"233",0,0
"234",1,1
"235",0,0
"236",3,3
"237",4,4
"238",7,8
"239",1,1
"240",0,0
"241",0,0
"242",0,0
"243",0,0
"244",1,1
"245",1,1
"246",2,2
"247",2,2
"248",2,2
"249",1,1
"250",0,0
"251",0,0
"252",0,0
"253",0,0
"254",0,0
"255",2,2
"256",8,10
"257",0,0
"258",2,3
"259",0,0
"260",0,0
"261",0,0
"262",0,0
"263",0,0
"264",5,7
"265",4,5
"266",0,0
"267",2,3
"268",4,4
"269",0,0
"270",0,0
"271",0,0
"272",0,0
"273",0,0
"274",6,6
"275",1,1
"276",0,0
"277",5,5
"278",4,4
"279",0,0
"280",0,0
"281",0,0
"282",0,0
"283",0,0
"284",0,0
"285",1,1
"286",0,0
"287",9,11
"288",0,0
"289",0,0
"290",0,0
"291",0,0
"292",0,0
"293",2,2
"294",4,4
"295",4,5
"296",3,3
"297",7,7
"298",1,1
"299",0,0
"300",0,0
"301",0,0
"302",0,0
"303",2,2
"304",10,10
"305",6,6
"306",12,14
"307",0,0
"308",0,0
"309",0,0
"310",0,0
"311",0,0
"312",1,1
"313",3,5
"314",10,14
"315",11,12
"316",3,3
"317",0,0
"318",0,0
"319",0,0
"320",0,0
"321",0,0
"322",2,2
"323",3,3
"324",3,4
"325",2,3
"326",1,1
"327",0,0
"328",0,0
"329",0,0
"330",0,0
"331",0,0
"332",2,2
"333",7,8
"334",7,10
"335",2,2
"336",3,3
"337",0,0
"338",0,0
"339",0,0
"340",0,0
"341",0,0
"342",1,1
"343",2,2
"344",4,5
"345",7,9
"346",5,6
"347",0,0
"348",0,0
"349",0,0
"350",0,0
"351",4,4
"352",9,10
"353",2,2
"354",5,5
"355",11,12
"356",3,3
"357",0,0
"358",0,0
"359",0,0
"360",0,0
"361",8,11
"362",9,11
"363",2,2
"364",1,1
"365",5,5
"366",2,2
"367",0,0
"368",0,0
"369",0,0
"370",0,0
"371",3,3
"372",0,0
"373",1,1
"374",2,2
"375",2,2
"376",1,1
"377",0,0
"378",0,0
"379",0,0
"380",0,0
"381",1,1
"382",0,0
"383",0,0
"384",0,0
"385",0,0
"386",1,1
"387",0,0
"388",0,0
"389",0,0
"390",0,0
"391",2,2
"392",0,0
"393",3,3
"394",1,1
"395",3,4
"396",2,2
"397",0,0
"398",0,0
"399",0,0
"400",0,0
"401",1,1
"402",1,1
"403",1,2
"404",10,11
"405",0,0
"406",0,0
"407",0,0
"408",0,0
"409",0,0
"410",0,0
"411",1,1
"412",0,0
"413",0,0
"414",2,2
"415",0,0
"416",0,0
"417",0,0
"418",0,0
"419",0,0
"420",0,0
"421",0,0
"422",0,0
"423",0,0
"424",6,7
"425",2,2
"426",0,0
"427",0,0
"428",0,0
"429",0,0
"430",0,0
"431",0,0
"432",1,1
"433",0,0
"434",2,2
"435",2,2
"436",0,0
"437",0,0
"438",0,0
"439",0,0
"440",0,0
"441",0,0
"442",0,0
"443",6,6
"444",2,2
"445",0,0
"446",0,0
"447",0,0
"448",0,0
"449",0,0
"450",0,0
"451",0,0
"452",0,0
"453",3,5
"454",5,6
"455",1,1
"456",0,0
"457",0,0
"458",0,0
"459",0,0
"460",0,0
"461",0,0
"462",0,0
"463",0,0
"464",0,0
"465",0,0
"466",0,0
"467",0,0
"468",0,0
"469",0,0
"470",0,0
"471",0,0
"472",0,0
"473",0,0
"474",0,0
"475",0,0
"476",0,0
"477",0,0
"478",0,0
"479",0,0
"480",0,0
"481",0,0
"482",0,0
"483",0,0
"484",0,0
"485",0,0
"486",0,0
"487",0,0
"488",0,0
"489",0,0
"490",0,0
"491",0,0
"492",0,0
"493",0,0
"494",0,0
"495",0,0
"496",0,0
"497",0,0
"498",0,0
"499",0,0
"500",0,0
