"","n_obs","n_total"
"1",0,0
"2",0,0
"3",0,0
"4",0,0
"5",2,40
"6",0,0
"7",0,0
"8",0,0
"9",0,0
"10",0,0
"11",0,0
"12",0,0
"13",0,0
"14",2,27
"15",0,0
"16",3,68
"17",1,9
"18",0,0
"19",0,0
"20",0,0
"21",0,0
"22",0,0
"23",0,0
"24",0,0
"25",3,21
"26",0,0
"27",5,48
"28",0,0
"29",0,0
"30",2,55
"31",0,0
"32",0,0
"33",0,0
"34",1,1
"35",1,2
"36",2,14
"37",1,5
"38",1,5
"39",0,0
"40",1,25
"41",0,0
"42",0,0
"43",0,0
"44",0,0
"45",2,25
"46",0,0
"47",7,67
"48",8,94
"49",0,0
"50",1,6
"51",0,0
"52",0,0
"53",1,27
"54",0,0
"55",4,74
"56",1,10
"57",6,46
"58",2,75
"59",1,4
"60",4,47
"61",0,0
"62",0,0
"63",0,0
"64",4,31
"65",0,0
"66",0,0
"67",3,20
"68",5,42
"69",1,5
"70",7,59
"71",0,0
"72",0,0
"73",0,0
"74",3,39
"75",6,71
"76",2,9
"77",5,50
"78",1,24
"79",3,19
"80",0,0
"81",0,0
"82",0,0
"83",0,0
"84",0,0
"85",0,0
"86",0,0
"87",1,4
"88",3,23
"89",3,79
"90",0,0
"91",0,0
"92",0,0
"93",0,0
"94",0,0
"95",0,0
"96",0,0
"97",3,30
"98",1,9
"99",7,96
"100",8,118
"101",0,0
"102",0,0
"103",0,0
"104",0,0
"105",0,0
"106",0,0
"107",0,0
"108",2,27
"109",1,16
"110",1,11
"111",0,0
"112",0,0
"113",0,0
"114",0,0
"115",0,0
"116",0,0
"117",0,0
"118",3,23
"119",1,1
"120",5,59
"121",0,0
"122",0,0
"123",0,0
"124",0,0
"125",0,0
"126",0,0
"127",3,19
"128",6,117
"129",1,5
"130",1,8
"131",0,0
"132",0,0
"133",0,0
"134",0,0
"135",0,0
"136",0,0
"137",0,0
"138",7,98
"139",0,0
"140",0,0
"141",0,0
"142",0,0
"143",0,0
"144",0,0
"145",0,0
"146",0,0
"147",0,0
"148",0,0
"149",0,0
"150",3,36
"151",0,0
"152",0,0
"153",0,0
"154",0,0
"155",2,25
"156",3,15
"157",0,0
"158",0,0
"159",0,0
"160",0,0
"161",0,0
"162",0,0
"163",0,0
"164",0,0
"165",5,9
"166",0,0
"167",0,0
"168",2,16
"169",0,0
"170",4,83
"171",0,0
"172",0,0
"173",0,0
"174",0,0
"175",0,0
"176",3,33
"177",0,0
"178",2,53
"179",0,0
"180",2,4
"181",0,0
"182",0,0
"183",0,0
"184",0,0
"185",0,0
"186",0,0
"187",1,9
"188",0,0
"189",2,46
"190",1,20
"191",0,0
"192",0,0
"193",0,0
"194",0,0
"195",0,0
"196",2,7
"197",0,0
"198",1,2
"199",1,30
"200",1,9
"201",0,0
"202",0,0
"203",0,0
"204",0,0
"205",0,0
"206",4,36
"207",0,0
"208",0,0
"209",0,0
"210",0,0
"211",0,0
"212",0,0
"213",0,0
"214",0,0
"215",0,0
"216",9,292
"217",0,0
"218",0,0
"219",0,0
"220",0,0
"221",0,0
"222",0,0
"223",0,0
"224",2,36
"225",3,22
"226",3,50
"227",6,104
"228",0,0
"229",0,0
"230",0,0
"231",0,0
"232",0,0
"233",3,64
"234",5,56
"235",4,54
"236",17,155
"237",1,6
"238",3,32
"239",0,0
"240",0,0
"241",0,0
"242",0,0
"243",3,16
"244",0,0
"245",4,39
"246",8,88
"247",3,49
"248",3,51
"249",0,0
"250",0,0
"251",0,0
"252",0,0
"253",1,2
"254",0,0
"255",6,11
"256",0,0
"257",1,19
"258",0,0
"259",0,0
"260",0,0
"261",0,0
"262",0,0
"263",8,154
"264",5,94
"265",0,0
"266",5,16
"267",7,83
"268",3,23
"269",0,0
"270",0,0
"271",0,0
"272",0,0
"273",3,50
"274",1,36
"275",4,89
"276",6,162
"277",2,48
"278",0,0
"279",0,0
"280",0,0
"281",0,0
"282",0,0
"283",5,86
"284",3,13
"285",1,12
"286",1,18
"287",0,0
"288",0,0
"289",0,0
"290",0,0
"291",0,0
"292",0,0
"293",2,63
"294",1,30
"295",1,50
"296",6,101
"297",0,0
"298",0,0
"299",0,0
"300",0,0
"301",0,0
"302",0,0
"303",1,5
"304",0,0
"305",0,0
"306",0,0
"307",0,0
"308",0,0
"309",0,0
"310",0,0
"311",0,0
"312",1,5
"313",1,40
"314",0,0
"315",0,0
"316",0,0
"317",0,0
"318",0,0
"319",0,0
"320",0,0
"321",0,0
"322",0,0
"323",0,0
"324",0,0
"325",0,0
"326",0,0
"327",0,0
"328",0,0
"329",0,0
"330",0,0
"331",0,0
"332",0,0
"333",0,0
"334",0,0
"335",0,0
"336",0,0
"337",0,0
"338",0,0
"339",0,0
"340",0,0
"341",0,0
"342",1,10
"343",0,0
"344",0,0
"345",0,0
"346",0,0
"347",0,0
"348",0,0
"349",0,0
"350",0,0
"351",0,0
"352",3,53
"353",0,0
"354",0,0
"355",1,5
"356",0,0
"357",0,0
"358",0,0
"359",0,0
"360",0,0
"361",0,0
"362",1,25
"363",0,0
"364",1,11
"365",0,0
"366",0,0
"367",0,0
"368",0,0
"369",0,0
"370",0,0
"371",1,18
"372",0,0
"373",0,0
"374",0,0
"375",0,0
"376",0,0
"377",0,0
"378",0,0
"379",0,0
"380",0,0
"381",0,0
"382",0,0
"383",2,58
"384",3,42
"385",1,52
"386",0,0
"387",0,0
"388",0,0
"389",0,0
"390",0,0
"391",3,57
"392",5,104
"393",1,30
"394",8,92
"395",1,7
"396",0,0
"397",0,0
"398",0,0
"399",0,0
"400",0,0
"401",6,82
"402",2,30
"403",0,0
"404",0,0
"405",0,0
"406",0,0
"407",0,0
"408",0,0
"409",0,0
"410",0,0
"411",3,83
"412",3,72
"413",0,0
"414",0,0
"415",0,0
"416",0,0
"417",0,0
"418",0,0
"419",0,0
"420",0,0
"421",0,0
"422",0,0
"423",2,31
"424",0,0
"425",0,0
"426",0,0
"427",0,0
"428",0,0
"429",0,0
"430",0,0
"431",0,0
"432",1,1
"433",0,0
"434",0,0
"435",0,0
"436",0,0
"437",0,0
"438",0,0
"439",0,0
"440",0,0
"441",1,1
"442",0,0
"443",3,13
"444",4,39
"445",0,0
"446",0,0
"447",0,0
"448",0,0
"449",0,0
"450",0,0
"451",1,15
"452",0,0
"453",1,15
"454",3,27
"455",1,20
"456",0,0
"457",0,0
"458",0,0
"459",0,0
"460",0,0
"461",0,0
"462",1,1
"463",2,25
"464",2,42
"465",0,0
"466",0,0
"467",0,0
"468",0,0
"469",0,0
"470",0,0
"471",0,0
"472",0,0
"473",2,41
"474",0,0
"475",0,0
"476",0,0
"477",0,0
"478",0,0
"479",0,0
"480",0,0
"481",0,0
"482",0,0
"483",0,0
"484",0,0
"485",0,0
"486",0,0
"487",0,0
"488",0,0
"489",0,0
"490",0,0
"491",0,0
"492",0,0
"493",0,0
"494",0,0
"495",0,0
"496",0,0
"497",0,0
"498",0,0
"499",0,0
"500",0,0
