"","n_obs","n_total"
"1",0,0
"2",0,0
"3",0,0
"4",0,0
"5",0,0
"6",0,0
"7",0,0
"8",0,0
"9",0,0
"10",0,0
"11",0,0
"12",0,0
"13",0,0
"14",0,0
"15",0,0
"16",0,0
"17",0,0
"18",0,0
"19",0,0
"20",0,0
"21",0,0
"22",0,0
"23",0,0
"24",0,0
"25",0,0
"26",2,3
"27",0,0
"28",0,0
"29",0,0
"30",0,0
"31",0,0
"32",0,0
"33",0,0
"34",5,6
"35",1,1
"36",1,1
"37",0,0
"38",0,0
"39",0,0
"40",1,2
"41",0,0
"42",0,0
"43",0,0
"44",12,14
"45",4,4
"46",4,6
"47",2,2
"48",2,2
"49",1,1
"50",2,2
"51",0,0
"52",0,0
"53",9,11
"54",9,10
"55",0,0
"56",2,2
"57",8,10
"58",3,4
"59",0,0
"60",1,1
"61",0,0
"62",0,0
"63",2,2
"64",0,0
"65",2,2
"66",2,2
"67",5,5
"68",2,2
"69",4,5
"70",1,1
"71",0,0
"72",0,0
"73",0,0
"74",0,0
"75",1,1
"76",2,2
"77",2,2
"78",0,0
"79",0,0
"80",1,2
"81",0,0
"82",0,0
"83",0,0
"84",1,1
"85",0,0
"86",5,5
"87",4,4
"88",0,0
"89",1,1
"90",2,2
"91",0,0
"92",0,0
"93",0,0
"94",0,0
"95",0,0
"96",0,0
"97",2,2
"98",1,1
"99",5,5
"100",5,6
"101",0,0
"102",0,0
"103",0,0
"104",0,0
"105",0,0
"106",0,0
"107",1,1
"108",0,0
"109",1,1
"110",3,3
"111",0,0
"112",0,0
"113",0,0
"114",0,0
"115",0,0
"116",0,0
"117",1,1
"118",2,2
"119",0,0
"120",3,3
"121",0,0
"122",0,0
"123",0,0
"124",0,0
"125",0,0
"126",0,0
"127",0,0
"128",5,6
"129",1,1
"130",2,2
"131",0,0
"132",0,0
"133",0,0
"134",0,0
"135",0,0
"136",0,0
"137",0,0
"138",0,0
"139",4,4
"140",2,2
"141",0,0
"142",0,0
"143",0,0
"144",0,0
"145",0,0
"146",0,0
"147",1,1
"148",1,2
"149",1,1
"150",1,1
"151",0,0
"152",0,0
"153",0,0
"154",0,0
"155",0,0
"156",0,0
"157",0,0
"158",2,2
"159",6,7
"160",2,2
"161",0,0
"162",0,0
"163",0,0
"164",0,0
"165",3,3
"166",2,2
"167",0,0
"168",5,6
"169",1,1
"170",2,2
"171",0,0
"172",0,0
"173",0,0
"174",0,0
"175",2,2
"176",1,2
"177",3,3
"178",1,1
"179",0,0
"180",1,1
"181",0,0
"182",0,0
"183",0,0
"184",0,0
"185",1,1
"186",1,1
"187",2,2
"188",1,1
"189",0,0
"190",0,0
"191",0,0
"192",0,0
"193",0,0
"194",0,0
"195",5,6
"196",3,3
"197",1,1
"198",4,4
"199",0,0
"200",0,0
"201",0,0
"202",0,0
"203",0,0
"204",0,0
"205",0,0
"206",0,0
"207",0,0
"208",5,5
"209",2,2
"210",0,0
"211",0,0
"212",0,0
"213",0,0
"214",0,0
"215",0,0
"216",0,0
"217",0,0
"218",4,4
"219",0,0
"220",0,0
"221",0,0
"222",0,0
"223",0,0
"224",0,0
"225",0,0
"226",2,2
"227",4,4
"228",1,1
"229",1,1
"230",0,0
"231",0,0
"232",0,0
"233",0,0
"234",0,0
"235",0,0
"236",0,0
"237",0,0
"238",1,1
"239",0,0
"240",0,0
"241",0,0
"242",0,0
"243",1,1
"244",11,13
"245",3,3
"246",9,9
"247",1,1
"248",2,2
"249",2,3
"250",0,0
"251",0,0
"252",0,0
"253",6,7
"254",0,0
"255",3,3
"256",2,2
"257",2,2
"258",1,1
"259",0,0
"260",0,0
"261",0,0
"262",0,0
"263",0,0
"264",7,8
"265",0,0
"266",0,0
"267",5,9
"268",4,4
"269",0,0
"270",0,0
"271",0,0
"272",0,0
"273",1,1
"274",3,3
"275",0,0
"276",3,3
"277",3,3
"278",0,0
"279",0,0
"280",0,0
"281",0,0
"282",0,0
"283",0,0
"284",0,0
"285",0,0
"286",2,2
"287",5,6
"288",0,0
"289",0,0
"290",0,0
"291",0,0
"292",0,0
"293",2,2
"294",0,0
"295",0,0
"296",2,3
"297",6,6
"298",0,0
"299",0,0
"300",0,0
"301",0,0
"302",0,0
"303",0,0
"304",2,2
"305",2,2
"306",11,12
"307",0,0
"308",0,0
"309",0,0
"310",0,0
"311",0,0
"312",0,0
"313",1,1
"314",1,2
"315",15,18
"316",3,5
"317",0,0
"318",0,0
"319",0,0
"320",0,0
"321",0,0
"322",3,4
"323",1,1
"324",1,1
"325",8,10
"326",0,0
"327",0,0
"328",0,0
"329",0,0
"330",0,0
"331",0,0
"332",1,1
"333",3,4
"334",2,3
"335",1,1
"336",0,0
"337",0,0
"338",0,0
"339",0,0
"340",0,0
"341",0,0
"342",1,1
"343",4,4
"344",3,3
"345",3,3
"346",0,0
"347",0,0
"348",0,0
"349",0,0
"350",0,0
"351",0,0
"352",1,1
"353",1,1
"354",4,4
"355",10,14
"356",1,1
"357",0,0
"358",0,0
"359",0,0
"360",0,0
"361",0,0
"362",1,1
"363",2,2
"364",3,5
"365",4,5
"366",1,2
"367",0,0
"368",0,0
"369",0,0
"370",0,0
"371",0,0
"372",0,0
"373",1,1
"374",1,1
"375",4,4
"376",1,2
"377",0,0
"378",0,0
"379",0,0
"380",0,0
"381",0,0
"382",0,0
"383",1,2
"384",0,0
"385",1,1
"386",0,0
"387",0,0
"388",0,0
"389",0,0
"390",0,0
"391",1,1
"392",1,1
"393",3,3
"394",0,0
"395",0,0
"396",0,0
"397",0,0
"398",0,0
"399",0,0
"400",0,0
"401",2,2
"402",0,0
"403",0,0
"404",3,3
"405",0,0
"406",0,0
"407",0,0
"408",0,0
"409",0,0
"410",0,0
"411",3,3
"412",1,1
"413",0,0
"414",0,0
"415",0,0
"416",0,0
"417",0,0
"418",0,0
"419",0,0
"420",0,0
"421",0,0
"422",3,3
"423",0,0
"424",2,2
"425",1,1
"426",0,0
"427",0,0
"428",0,0
"429",0,0
"430",0,0
"431",0,0
"432",1,1
"433",1,1
"434",0,0
"435",4,4
"436",0,0
"437",0,0
"438",0,0
"439",0,0
"440",0,0
"441",0,0
"442",0,0
"443",4,4
"444",0,0
"445",0,0
"446",0,0
"447",0,0
"448",0,0
"449",0,0
"450",0,0
"451",0,0
"452",0,0
"453",0,0
"454",0,0
"455",1,1
"456",0,0
"457",0,0
"458",0,0
"459",0,0
"460",0,0
"461",0,0
"462",0,0
"463",0,0
"464",0,0
"465",0,0
"466",0,0
"467",0,0
"468",0,0
"469",0,0
"470",0,0
"471",0,0
"472",0,0
"473",0,0
"474",0,0
"475",0,0
"476",0,0
"477",0,0
"478",0,0
"479",0,0
"480",0,0
"481",0,0
"482",0,0
"483",0,0
"484",0,0
"485",0,0
"486",0,0
"487",0,0
"488",0,0
"489",0,0
"490",0,0
"491",0,0
"492",0,0
"493",0,0
"494",0,0
"495",0,0
"496",0,0
"497",0,0
"498",0,0
"499",0,0
"500",0,0
