"","n_obs","n_total"
"1",0,0
"2",0,0
"3",0,0
"4",0,0
"5",0,0
"6",0,0
"7",0,0
"8",0,0
"9",0,0
"10",0,0
"11",0,0
"12",0,0
"13",0,0
"14",0,0
"15",0,0
"16",0,0
"17",0,0
"18",0,0
"19",0,0
"20",0,0
"21",0,0
"22",0,0
"23",0,0
"24",0,0
"25",2,2
"26",1,1
"27",0,0
"28",0,0
"29",0,0
"30",3,14
"31",0,0
"32",0,0
"33",0,0
"34",0,0
"35",1,1
"36",2,2
"37",4,10
"38",0,0
"39",0,0
"40",3,4
"41",0,0
"42",0,0
"43",0,0
"44",0,0
"45",1,1
"46",2,2
"47",2,2
"48",1,1
"49",10,11
"50",26,33
"51",0,0
"52",0,0
"53",1,1
"54",3,3
"55",1,1
"56",5,8
"57",2,6
"58",1,1
"59",1,1
"60",1,2
"61",0,0
"62",0,0
"63",0,0
"64",0,0
"65",0,0
"66",7,8
"67",2,2
"68",2,2
"69",1,2
"70",0,0
"71",0,0
"72",0,0
"73",2,2
"74",2,3
"75",2,2
"76",7,17
"77",0,0
"78",0,0
"79",0,0
"80",5,5
"81",0,0
"82",0,0
"83",0,0
"84",1,1
"85",3,3
"86",0,0
"87",0,0
"88",0,0
"89",0,0
"90",3,3
"91",0,0
"92",0,0
"93",0,0
"94",0,0
"95",0,0
"96",0,0
"97",0,0
"98",0,0
"99",1,1
"100",1,1
"101",0,0
"102",0,0
"103",0,0
"104",0,0
"105",0,0
"106",0,0
"107",1,2
"108",1,1
"109",3,4
"110",0,0
"111",0,0
"112",0,0
"113",0,0
"114",0,0
"115",0,0
"116",0,0
"117",0,0
"118",3,3
"119",1,1
"120",0,0
"121",0,0
"122",0,0
"123",0,0
"124",0,0
"125",0,0
"126",0,0
"127",5,16
"128",2,2
"129",3,6
"130",1,1
"131",0,0
"132",0,0
"133",0,0
"134",0,0
"135",0,0
"136",0,0
"137",6,7
"138",5,8
"139",21,28
"140",26,33
"141",0,0
"142",0,0
"143",0,0
"144",0,0
"145",0,0
"146",1,1
"147",5,5
"148",5,7
"149",27,28
"150",37,44
"151",0,0
"152",0,0
"153",0,0
"154",0,0
"155",0,0
"156",0,0
"157",0,0
"158",5,5
"159",13,15
"160",17,21
"161",0,0
"162",0,0
"163",0,0
"164",0,0
"165",11,30
"166",7,8
"167",4,9
"168",14,15
"169",17,24
"170",18,25
"171",0,0
"172",0,0
"173",0,0
"174",0,0
"175",7,10
"176",8,12
"177",10,18
"178",18,26
"179",40,55
"180",6,6
"181",0,0
"182",0,0
"183",0,0
"184",0,0
"185",11,16
"186",7,8
"187",4,4
"188",11,14
"189",43,66
"190",3,6
"191",0,0
"192",0,0
"193",0,0
"194",0,0
"195",0,0
"196",0,0
"197",5,26
"198",8,11
"199",18,21
"200",1,2
"201",0,0
"202",0,0
"203",0,0
"204",0,0
"205",0,0
"206",0,0
"207",1,1
"208",10,16
"209",11,14
"210",0,0
"211",0,0
"212",0,0
"213",0,0
"214",0,0
"215",0,0
"216",1,1
"217",6,7
"218",6,7
"219",3,5
"220",0,0
"221",0,0
"222",0,0
"223",0,0
"224",0,0
"225",1,1
"226",0,0
"227",6,6
"228",16,18
"229",13,17
"230",0,0
"231",0,0
"232",0,0
"233",0,0
"234",0,0
"235",0,0
"236",0,0
"237",0,0
"238",2,2
"239",1,3
"240",0,0
"241",0,0
"242",0,0
"243",0,0
"244",0,0
"245",0,0
"246",0,0
"247",0,0
"248",0,0
"249",0,0
"250",0,0
"251",0,0
"252",0,0
"253",0,0
"254",0,0
"255",0,0
"256",3,6
"257",1,1
"258",2,3
"259",0,0
"260",0,0
"261",0,0
"262",0,0
"263",0,0
"264",1,2
"265",5,6
"266",5,6
"267",0,0
"268",0,0
"269",0,0
"270",0,0
"271",0,0
"272",0,0
"273",5,7
"274",4,4
"275",0,0
"276",4,4
"277",1,1
"278",0,0
"279",0,0
"280",0,0
"281",0,0
"282",0,0
"283",1,1
"284",1,1
"285",1,3
"286",5,5
"287",2,2
"288",0,0
"289",0,0
"290",0,0
"291",0,0
"292",0,0
"293",0,0
"294",0,0
"295",0,0
"296",3,3
"297",4,4
"298",0,0
"299",0,0
"300",0,0
"301",0,0
"302",0,0
"303",0,0
"304",0,0
"305",0,0
"306",3,3
"307",1,3
"308",0,0
"309",0,0
"310",0,0
"311",0,0
"312",0,0
"313",0,0
"314",0,0
"315",4,6
"316",0,0
"317",0,0
"318",0,0
"319",0,0
"320",0,0
"321",0,0
"322",2,2
"323",0,0
"324",0,0
"325",5,7
"326",1,1
"327",0,0
"328",0,0
"329",0,0
"330",0,0
"331",0,0
"332",1,1
"333",1,1
"334",2,3
"335",2,4
"336",1,1
"337",0,0
"338",0,0
"339",0,0
"340",0,0
"341",0,0
"342",3,3
"343",1,1
"344",0,0
"345",1,1
"346",0,0
"347",0,0
"348",0,0
"349",0,0
"350",0,0
"351",0,0
"352",3,4
"353",1,2
"354",1,4
"355",2,2
"356",1,3
"357",0,0
"358",0,0
"359",0,0
"360",0,0
"361",0,0
"362",1,5
"363",2,2
"364",2,3
"365",6,8
"366",0,0
"367",0,0
"368",0,0
"369",0,0
"370",0,0
"371",2,4
"372",5,6
"373",6,12
"374",10,14
"375",13,13
"376",0,0
"377",0,0
"378",0,0
"379",0,0
"380",0,0
"381",1,2
"382",0,0
"383",0,0
"384",0,0
"385",1,1
"386",0,0
"387",0,0
"388",0,0
"389",0,0
"390",0,0
"391",1,4
"392",3,3
"393",2,2
"394",3,5
"395",2,6
"396",0,0
"397",0,0
"398",0,0
"399",0,0
"400",0,0
"401",0,0
"402",0,0
"403",0,0
"404",1,1
"405",0,0
"406",0,0
"407",0,0
"408",0,0
"409",0,0
"410",0,0
"411",0,0
"412",0,0
"413",0,0
"414",0,0
"415",2,2
"416",0,0
"417",0,0
"418",0,0
"419",0,0
"420",0,0
"421",0,0
"422",0,0
"423",0,0
"424",0,0
"425",0,0
"426",0,0
"427",0,0
"428",0,0
"429",0,0
"430",0,0
"431",0,0
"432",0,0
"433",1,1
"434",4,5
"435",0,0
"436",0,0
"437",0,0
"438",0,0
"439",0,0
"440",0,0
"441",0,0
"442",0,0
"443",4,4
"444",1,1
"445",0,0
"446",0,0
"447",0,0
"448",0,0
"449",0,0
"450",0,0
"451",0,0
"452",0,0
"453",0,0
"454",0,0
"455",0,0
"456",0,0
"457",0,0
"458",0,0
"459",0,0
"460",0,0
"461",0,0
"462",0,0
"463",0,0
"464",0,0
"465",0,0
"466",0,0
"467",0,0
"468",0,0
"469",0,0
"470",0,0
"471",0,0
"472",0,0
"473",0,0
"474",0,0
"475",0,0
"476",0,0
"477",0,0
"478",0,0
"479",0,0
"480",0,0
"481",0,0
"482",0,0
"483",0,0
"484",0,0
"485",0,0
"486",0,0
"487",0,0
"488",0,0
"489",0,0
"490",0,0
"491",0,0
"492",0,0
"493",0,0
"494",0,0
"495",0,0
"496",0,0
"497",0,0
"498",0,0
"499",0,0
"500",0,0
