"","n_obs","n_total"
"1",0,0
"2",0,0
"3",0,0
"4",0,0
"5",0,0
"6",0,0
"7",0,0
"8",0,0
"9",0,0
"10",0,0
"11",0,0
"12",0,0
"13",0,0
"14",0,0
"15",0,0
"16",0,0
"17",0,0
"18",0,0
"19",0,0
"20",0,0
"21",0,0
"22",0,0
"23",0,0
"24",0,0
"25",1,4
"26",0,0
"27",0,0
"28",0,0
"29",2,31
"30",3,14
"31",0,0
"32",0,0
"33",0,0
"34",1,12
"35",4,16
"36",1,4
"37",0,0
"38",0,0
"39",3,10
"40",2,6
"41",0,0
"42",0,0
"43",0,0
"44",0,0
"45",1,4
"46",1,2
"47",0,0
"48",0,0
"49",0,0
"50",0,0
"51",0,0
"52",0,0
"53",1,10
"54",0,0
"55",1,13
"56",0,0
"57",0,0
"58",1,7
"59",1,8
"60",3,17
"61",0,0
"62",0,0
"63",2,7
"64",1,2
"65",0,0
"66",0,0
"67",0,0
"68",0,0
"69",2,16
"70",4,24
"71",0,0
"72",0,0
"73",0,0
"74",0,0
"75",0,0
"76",0,0
"77",0,0
"78",0,0
"79",0,0
"80",1,3
"81",0,0
"82",0,0
"83",0,0
"84",0,0
"85",0,0
"86",0,0
"87",1,5
"88",0,0
"89",0,0
"90",1,5
"91",0,0
"92",0,0
"93",0,0
"94",0,0
"95",0,0
"96",0,0
"97",2,11
"98",2,13
"99",1,1
"100",1,3
"101",0,0
"102",0,0
"103",0,0
"104",0,0
"105",0,0
"106",0,0
"107",1,2
"108",0,0
"109",1,8
"110",0,0
"111",0,0
"112",0,0
"113",0,0
"114",0,0
"115",0,0
"116",0,0
"117",0,0
"118",0,0
"119",4,33
"120",0,0
"121",0,0
"122",0,0
"123",0,0
"124",0,0
"125",0,0
"126",0,0
"127",1,9
"128",1,10
"129",0,0
"130",0,0
"131",0,0
"132",0,0
"133",0,0
"134",0,0
"135",0,0
"136",0,0
"137",0,0
"138",1,4
"139",0,0
"140",0,0
"141",0,0
"142",0,0
"143",0,0
"144",0,0
"145",0,0
"146",0,0
"147",1,1
"148",2,47
"149",2,5
"150",0,0
"151",0,0
"152",0,0
"153",0,0
"154",0,0
"155",0,0
"156",1,5
"157",1,3
"158",0,0
"159",0,0
"160",2,26
"161",0,0
"162",0,0
"163",0,0
"164",0,0
"165",2,7
"166",1,5
"167",0,0
"168",3,15
"169",0,0
"170",1,3
"171",0,0
"172",0,0
"173",0,0
"174",0,0
"175",2,7
"176",4,18
"177",1,16
"178",3,17
"179",4,24
"180",3,20
"181",0,0
"182",0,0
"183",0,0
"184",0,0
"185",0,0
"186",1,7
"187",1,3
"188",0,0
"189",0,0
"190",2,14
"191",0,0
"192",0,0
"193",0,0
"194",0,0
"195",0,0
"196",1,2
"197",0,0
"198",2,13
"199",0,0
"200",0,0
"201",0,0
"202",0,0
"203",0,0
"204",0,0
"205",0,0
"206",1,3
"207",1,3
"208",1,1
"209",0,0
"210",0,0
"211",0,0
"212",0,0
"213",0,0
"214",0,0
"215",0,0
"216",1,8
"217",2,10
"218",1,5
"219",0,0
"220",0,0
"221",0,0
"222",0,0
"223",0,0
"224",1,50
"225",1,3
"226",1,2
"227",3,7
"228",7,20
"229",2,5
"230",0,0
"231",0,0
"232",0,0
"233",0,0
"234",1,3
"235",1,3
"236",1,5
"237",6,31
"238",2,2
"239",1,1
"240",0,0
"241",0,0
"242",0,0
"243",1,1
"244",6,13
"245",2,3
"246",0,0
"247",2,3
"248",2,2
"249",3,12
"250",0,0
"251",0,0
"252",0,0
"253",4,9
"254",1,1
"255",1,1
"256",3,5
"257",2,16
"258",3,4
"259",0,0
"260",0,0
"261",0,0
"262",0,0
"263",0,0
"264",4,9
"265",5,12
"266",2,4
"267",5,13
"268",1,1
"269",0,0
"270",0,0
"271",0,0
"272",0,0
"273",1,12
"274",0,0
"275",5,7
"276",0,0
"277",3,8
"278",0,0
"279",0,0
"280",0,0
"281",0,0
"282",0,0
"283",6,7
"284",2,10
"285",1,2
"286",2,6
"287",3,17
"288",0,0
"289",0,0
"290",0,0
"291",0,0
"292",0,0
"293",4,14
"294",3,4
"295",2,5
"296",0,0
"297",2,6
"298",0,0
"299",0,0
"300",0,0
"301",0,0
"302",2,3
"303",2,2
"304",2,4
"305",6,18
"306",2,3
"307",3,7
"308",0,0
"309",0,0
"310",0,0
"311",0,0
"312",3,8
"313",1,2
"314",3,5
"315",5,11
"316",1,2
"317",0,0
"318",0,0
"319",0,0
"320",0,0
"321",0,0
"322",1,1
"323",0,0
"324",3,5
"325",6,9
"326",0,0
"327",0,0
"328",0,0
"329",0,0
"330",0,0
"331",0,0
"332",1,13
"333",2,7
"334",0,0
"335",0,0
"336",3,4
"337",0,0
"338",0,0
"339",0,0
"340",0,0
"341",0,0
"342",3,16
"343",1,1
"344",2,2
"345",1,2
"346",2,6
"347",0,0
"348",0,0
"349",0,0
"350",0,0
"351",1,2
"352",2,3
"353",3,6
"354",1,1
"355",3,15
"356",0,0
"357",0,0
"358",0,0
"359",0,0
"360",0,0
"361",3,7
"362",5,11
"363",4,18
"364",1,3
"365",2,4
"366",6,14
"367",0,0
"368",0,0
"369",0,0
"370",0,0
"371",2,11
"372",1,2
"373",2,11
"374",1,1
"375",3,24
"376",5,18
"377",0,0
"378",0,0
"379",0,0
"380",0,0
"381",0,0
"382",0,0
"383",2,3
"384",0,0
"385",3,21
"386",2,7
"387",0,0
"388",0,0
"389",0,0
"390",0,0
"391",7,21
"392",4,14
"393",1,6
"394",0,0
"395",2,6
"396",0,0
"397",0,0
"398",0,0
"399",0,0
"400",0,0
"401",2,4
"402",0,0
"403",4,11
"404",1,8
"405",4,30
"406",0,0
"407",0,0
"408",0,0
"409",0,0
"410",0,0
"411",1,5
"412",1,6
"413",6,21
"414",0,0
"415",3,9
"416",0,0
"417",0,0
"418",0,0
"419",0,0
"420",0,0
"421",1,2
"422",7,45
"423",1,1
"424",0,0
"425",3,20
"426",0,0
"427",0,0
"428",0,0
"429",0,0
"430",0,0
"431",0,0
"432",1,4
"433",2,10
"434",0,0
"435",0,0
"436",0,0
"437",0,0
"438",0,0
"439",0,0
"440",0,0
"441",0,0
"442",0,0
"443",3,6
"444",1,2
"445",0,0
"446",0,0
"447",0,0
"448",0,0
"449",0,0
"450",0,0
"451",0,0
"452",0,0
"453",1,3
"454",0,0
"455",0,0
"456",0,0
"457",0,0
"458",0,0
"459",0,0
"460",0,0
"461",0,0
"462",0,0
"463",0,0
"464",0,0
"465",0,0
"466",0,0
"467",0,0
"468",0,0
"469",0,0
"470",0,0
"471",0,0
"472",0,0
"473",0,0
"474",0,0
"475",0,0
"476",0,0
"477",0,0
"478",0,0
"479",0,0
"480",0,0
"481",0,0
"482",0,0
"483",0,0
"484",0,0
"485",0,0
"486",0,0
"487",0,0
"488",0,0
"489",0,0
"490",0,0
"491",0,0
"492",0,0
"493",0,0
"494",0,0
"495",0,0
"496",0,0
"497",0,0
"498",0,0
"499",0,0
"500",0,0
