"","n_obs","n_total"
"1",0,0
"2",0,0
"3",0,0
"4",0,0
"5",0,0
"6",0,0
"7",0,0
"8",0,0
"9",0,0
"10",0,0
"11",0,0
"12",0,0
"13",0,0
"14",0,0
"15",0,0
"16",49,246
"17",44,291
"18",0,0
"19",0,0
"20",15,65
"21",0,0
"22",0,0
"23",0,0
"24",30,274
"25",29,152
"26",73,467
"27",83,393
"28",82,505
"29",171,1218
"30",102,972
"31",0,0
"32",0,0
"33",0,0
"34",11,84
"35",38,333
"36",50,404
"37",120,837
"38",233,1865
"39",89,879
"40",89,617
"41",0,0
"42",0,0
"43",0,0
"44",6,30
"45",21,318
"46",49,458
"47",146,1201
"48",145,1071
"49",59,809
"50",98,2284
"51",0,0
"52",0,0
"53",12,166
"54",15,159
"55",21,191
"56",85,832
"57",103,1220
"58",113,1601
"59",65,800
"60",148,2543
"61",0,0
"62",0,0
"63",6,106
"64",5,85
"65",18,207
"66",119,1440
"67",141,1055
"68",114,1142
"69",157,1820
"70",91,2026
"71",0,0
"72",0,0
"73",17,168
"74",46,448
"75",79,839
"76",151,1213
"77",130,819
"78",97,672
"79",63,742
"80",45,1269
"81",0,0
"82",0,0
"83",1,8
"84",128,1156
"85",90,781
"86",159,1353
"87",152,1342
"88",160,1784
"89",20,473
"90",34,639
"91",0,0
"92",0,0
"93",0,0
"94",0,0
"95",0,0
"96",6,28
"97",68,481
"98",93,1368
"99",32,413
"100",40,768
"101",0,0
"102",0,0
"103",0,0
"104",0,0
"105",0,0
"106",0,0
"107",12,151
"108",37,508
"109",86,976
"110",42,346
"111",0,0
"112",0,0
"113",0,0
"114",0,0
"115",0,0
"116",0,0
"117",1,15
"118",21,211
"119",45,548
"120",30,352
"121",0,0
"122",0,0
"123",0,0
"124",0,0
"125",0,0
"126",0,0
"127",33,388
"128",127,1332
"129",51,965
"130",98,1173
"131",0,0
"132",0,0
"133",0,0
"134",0,0
"135",0,0
"136",0,0
"137",42,388
"138",127,1229
"139",35,350
"140",57,537
"141",0,0
"142",0,0
"143",0,0
"144",0,0
"145",0,0
"146",19,173
"147",46,596
"148",47,597
"149",29,372
"150",61,571
"151",0,0
"152",0,0
"153",0,0
"154",0,0
"155",3,60
"156",11,138
"157",17,253
"158",35,615
"159",16,269
"160",62,790
"161",0,0
"162",0,0
"163",0,0
"164",0,0
"165",27,811
"166",59,1098
"167",27,290
"168",55,824
"169",17,534
"170",72,1144
"171",0,0
"172",0,0
"173",0,0
"174",0,0
"175",26,636
"176",56,716
"177",24,421
"178",48,619
"179",30,636
"180",96,1749
"181",0,0
"182",0,0
"183",0,0
"184",0,0
"185",26,1288
"186",22,323
"187",55,1161
"188",8,260
"189",22,338
"190",113,1375
"191",0,0
"192",0,0
"193",0,0
"194",0,0
"195",5,33
"196",30,483
"197",60,794
"198",1,15
"199",17,197
"200",33,273
"201",0,0
"202",0,0
"203",0,0
"204",0,0
"205",3,103
"206",10,136
"207",33,540
"208",1,1
"209",14,222
"210",10,110
"211",0,0
"212",0,0
"213",0,0
"214",0,0
"215",0,0
"216",21,182
"217",57,1477
"218",25,241
"219",45,952
"220",0,0
"221",0,0
"222",0,0
"223",23,290
"224",89,1024
"225",76,1014
"226",60,636
"227",81,1709
"228",149,3039
"229",108,2157
"230",0,0
"231",0,0
"232",0,0
"233",23,122
"234",43,377
"235",25,270
"236",14,169
"237",50,684
"238",140,1911
"239",58,873
"240",0,0
"241",0,0
"242",0,0
"243",50,539
"244",16,75
"245",7,70
"246",20,145
"247",58,796
"248",104,1493
"249",24,295
"250",0,0
"251",0,0
"252",0,0
"253",17,105
"254",18,270
"255",10,59
"256",55,395
"257",41,451
"258",13,177
"259",0,0
"260",0,0
"261",0,0
"262",0,0
"263",54,529
"264",47,536
"265",27,233
"266",27,283
"267",33,416
"268",7,54
"269",0,0
"270",0,0
"271",0,0
"272",0,0
"273",73,1055
"274",57,814
"275",53,447
"276",12,113
"277",24,277
"278",5,93
"279",0,0
"280",0,0
"281",0,0
"282",0,0
"283",51,721
"284",24,304
"285",33,265
"286",7,97
"287",22,229
"288",0,0
"289",0,0
"290",0,0
"291",0,0
"292",0,0
"293",19,191
"294",2,8
"295",7,66
"296",1,1
"297",16,190
"298",1,15
"299",0,0
"300",0,0
"301",0,0
"302",5,51
"303",18,196
"304",4,34
"305",3,34
"306",0,0
"307",10,73
"308",0,0
"309",0,0
"310",0,0
"311",0,0
"312",22,452
"313",16,245
"314",15,120
"315",13,74
"316",0,0
"317",2,12
"318",0,0
"319",0,0
"320",0,0
"321",0,0
"322",108,1300
"323",26,226
"324",15,139
"325",2,3
"326",3,23
"327",0,0
"328",0,0
"329",0,0
"330",0,0
"331",0,0
"332",25,414
"333",13,176
"334",15,108
"335",0,0
"336",5,41
"337",0,0
"338",0,0
"339",0,0
"340",0,0
"341",0,0
"342",25,421
"343",22,165
"344",11,123
"345",0,0
"346",13,183
"347",0,0
"348",0,0
"349",0,0
"350",0,0
"351",11,132
"352",31,337
"353",45,656
"354",5,125
"355",7,61
"356",15,157
"357",0,0
"358",0,0
"359",0,0
"360",0,0
"361",15,249
"362",52,804
"363",58,893
"364",22,205
"365",23,165
"366",29,285
"367",0,0
"368",0,0
"369",0,0
"370",0,0
"371",18,289
"372",20,237
"373",28,316
"374",47,757
"375",96,1277
"376",8,39
"377",0,0
"378",0,0
"379",0,0
"380",0,0
"381",3,23
"382",5,45
"383",12,176
"384",0,0
"385",13,81
"386",4,82
"387",0,0
"388",0,0
"389",0,0
"390",0,0
"391",30,405
"392",33,383
"393",42,517
"394",15,144
"395",0,0
"396",1,8
"397",0,0
"398",0,0
"399",0,0
"400",0,0
"401",10,73
"402",15,114
"403",44,468
"404",6,58
"405",4,79
"406",0,0
"407",0,0
"408",0,0
"409",0,0
"410",0,0
"411",2,10
"412",36,527
"413",21,268
"414",3,29
"415",3,42
"416",0,0
"417",0,0
"418",0,0
"419",0,0
"420",0,0
"421",2,28
"422",13,131
"423",3,27
"424",1,15
"425",2,34
"426",0,0
"427",0,0
"428",0,0
"429",0,0
"430",0,0
"431",0,0
"432",24,282
"433",3,28
"434",9,159
"435",4,27
"436",0,0
"437",0,0
"438",0,0
"439",0,0
"440",0,0
"441",0,0
"442",0,0
"443",0,0
"444",4,34
"445",0,0
"446",0,0
"447",0,0
"448",0,0
"449",0,0
"450",0,0
"451",0,0
"452",0,0
"453",6,84
"454",10,81
"455",0,0
"456",0,0
"457",0,0
"458",0,0
"459",0,0
"460",0,0
"461",0,0
"462",0,0
"463",0,0
"464",0,0
"465",0,0
"466",0,0
"467",0,0
"468",0,0
"469",0,0
"470",0,0
"471",0,0
"472",0,0
"473",0,0
"474",0,0
"475",0,0
"476",0,0
"477",0,0
"478",0,0
"479",0,0
"480",0,0
"481",0,0
"482",0,0
"483",0,0
"484",0,0
"485",0,0
"486",0,0
"487",0,0
"488",0,0
"489",0,0
"490",0,0
"491",0,0
"492",0,0
"493",0,0
"494",0,0
"495",0,0
"496",0,0
"497",0,0
"498",0,0
"499",0,0
"500",0,0
