"","n_obs","n_total"
"1",0,0
"2",0,0
"3",0,0
"4",0,0
"5",0,0
"6",0,0
"7",0,0
"8",0,0
"9",0,0
"10",0,0
"11",0,0
"12",0,0
"13",0,0
"14",0,0
"15",0,0
"16",0,0
"17",0,0
"18",0,0
"19",0,0
"20",0,0
"21",0,0
"22",0,0
"23",0,0
"24",0,0
"25",0,0
"26",0,0
"27",0,0
"28",0,0
"29",0,0
"30",0,0
"31",0,0
"32",0,0
"33",0,0
"34",1,11
"35",3,7
"36",0,0
"37",1,3
"38",0,0
"39",0,0
"40",0,0
"41",0,0
"42",0,0
"43",0,0
"44",1,6
"45",1,4
"46",1,3
"47",0,0
"48",0,0
"49",0,0
"50",0,0
"51",0,0
"52",0,0
"53",1,7
"54",4,15
"55",1,5
"56",1,1
"57",0,0
"58",0,0
"59",0,0
"60",3,14
"61",0,0
"62",0,0
"63",1,2
"64",1,3
"65",0,0
"66",1,3
"67",0,0
"68",0,0
"69",1,4
"70",4,27
"71",0,0
"72",0,0
"73",1,5
"74",0,0
"75",0,0
"76",0,0
"77",0,0
"78",0,0
"79",2,2
"80",1,8
"81",0,0
"82",0,0
"83",0,0
"84",0,0
"85",0,0
"86",2,4
"87",1,5
"88",1,3
"89",3,4
"90",1,9
"91",0,0
"92",0,0
"93",0,0
"94",0,0
"95",0,0
"96",0,0
"97",0,0
"98",1,1
"99",2,16
"100",2,7
"101",0,0
"102",0,0
"103",0,0
"104",0,0
"105",0,0
"106",0,0
"107",0,0
"108",0,0
"109",1,5
"110",1,2
"111",0,0
"112",0,0
"113",0,0
"114",0,0
"115",0,0
"116",0,0
"117",0,0
"118",1,1
"119",2,16
"120",0,0
"121",0,0
"122",0,0
"123",0,0
"124",0,0
"125",0,0
"126",0,0
"127",0,0
"128",1,6
"129",1,5
"130",2,4
"131",0,0
"132",0,0
"133",0,0
"134",0,0
"135",0,0
"136",0,0
"137",1,1
"138",1,7
"139",0,0
"140",0,0
"141",0,0
"142",0,0
"143",0,0
"144",0,0
"145",0,0
"146",1,5
"147",0,0
"148",0,0
"149",0,0
"150",1,4
"151",0,0
"152",0,0
"153",0,0
"154",0,0
"155",0,0
"156",3,7
"157",1,1
"158",0,0
"159",0,0
"160",1,9
"161",0,0
"162",0,0
"163",0,0
"164",0,0
"165",4,20
"166",2,10
"167",1,2
"168",1,4
"169",0,0
"170",0,0
"171",0,0
"172",0,0
"173",0,0
"174",0,0
"175",3,10
"176",2,4
"177",1,7
"178",1,2
"179",3,11
"180",4,8
"181",0,0
"182",0,0
"183",0,0
"184",0,0
"185",0,0
"186",0,0
"187",0,0
"188",2,24
"189",1,1
"190",1,5
"191",0,0
"192",0,0
"193",0,0
"194",0,0
"195",0,0
"196",1,6
"197",0,0
"198",1,3
"199",1,1
"200",2,17
"201",0,0
"202",0,0
"203",0,0
"204",0,0
"205",1,2
"206",1,1
"207",1,2
"208",0,0
"209",0,0
"210",0,0
"211",0,0
"212",0,0
"213",0,0
"214",0,0
"215",0,0
"216",1,1
"217",0,0
"218",0,0
"219",0,0
"220",0,0
"221",0,0
"222",0,0
"223",0,0
"224",1,24
"225",2,6
"226",4,7
"227",3,8
"228",2,2
"229",0,0
"230",0,0
"231",0,0
"232",0,0
"233",0,0
"234",7,18
"235",2,4
"236",2,3
"237",5,16
"238",3,4
"239",1,3
"240",0,0
"241",0,0
"242",0,0
"243",2,2
"244",5,22
"245",1,4
"246",1,1
"247",1,1
"248",2,8
"249",4,13
"250",0,0
"251",0,0
"252",0,0
"253",0,0
"254",5,16
"255",2,7
"256",6,33
"257",2,5
"258",1,2
"259",0,0
"260",0,0
"261",0,0
"262",0,0
"263",5,16
"264",5,15
"265",4,7
"266",2,4
"267",2,3
"268",0,0
"269",0,0
"270",0,0
"271",0,0
"272",0,0
"273",3,6
"274",2,2
"275",1,2
"276",2,2
"277",2,8
"278",0,0
"279",0,0
"280",0,0
"281",0,0
"282",0,0
"283",5,16
"284",3,4
"285",2,2
"286",2,2
"287",1,3
"288",0,0
"289",0,0
"290",0,0
"291",0,0
"292",1,1
"293",1,1
"294",0,0
"295",1,2
"296",0,0
"297",1,14
"298",0,0
"299",0,0
"300",0,0
"301",0,0
"302",2,2
"303",0,0
"304",1,6
"305",3,3
"306",2,4
"307",3,6
"308",0,0
"309",0,0
"310",0,0
"311",0,0
"312",3,10
"313",1,1
"314",2,3
"315",2,10
"316",0,0
"317",0,0
"318",0,0
"319",0,0
"320",0,0
"321",0,0
"322",1,1
"323",0,0
"324",0,0
"325",1,2
"326",0,0
"327",0,0
"328",0,0
"329",0,0
"330",0,0
"331",0,0
"332",5,9
"333",2,2
"334",0,0
"335",0,0
"336",2,8
"337",0,0
"338",0,0
"339",0,0
"340",0,0
"341",0,0
"342",1,2
"343",3,7
"344",1,1
"345",4,11
"346",5,8
"347",0,0
"348",0,0
"349",0,0
"350",0,0
"351",0,0
"352",2,8
"353",1,7
"354",7,31
"355",3,12
"356",1,1
"357",0,0
"358",0,0
"359",0,0
"360",0,0
"361",0,0
"362",4,9
"363",5,8
"364",4,10
"365",0,0
"366",7,16
"367",0,0
"368",0,0
"369",0,0
"370",0,0
"371",1,4
"372",1,6
"373",3,8
"374",0,0
"375",7,24
"376",3,9
"377",0,0
"378",0,0
"379",0,0
"380",0,0
"381",1,5
"382",1,3
"383",2,2
"384",0,0
"385",0,0
"386",1,3
"387",0,0
"388",0,0
"389",0,0
"390",0,0
"391",5,16
"392",4,12
"393",0,0
"394",0,0
"395",3,9
"396",0,0
"397",0,0
"398",0,0
"399",0,0
"400",0,0
"401",0,0
"402",2,10
"403",2,5
"404",0,0
"405",2,7
"406",0,0
"407",0,0
"408",0,0
"409",0,0
"410",0,0
"411",0,0
"412",3,13
"413",4,17
"414",2,13
"415",1,11
"416",0,0
"417",0,0
"418",0,0
"419",0,0
"420",0,0
"421",2,11
"422",4,35
"423",2,5
"424",2,9
"425",3,10
"426",0,0
"427",0,0
"428",0,0
"429",0,0
"430",0,0
"431",0,0
"432",0,0
"433",0,0
"434",1,2
"435",2,9
"436",0,0
"437",0,0
"438",0,0
"439",0,0
"440",0,0
"441",0,0
"442",0,0
"443",3,7
"444",0,0
"445",0,0
"446",0,0
"447",0,0
"448",0,0
"449",0,0
"450",0,0
"451",0,0
"452",0,0
"453",2,5
"454",0,0
"455",0,0
"456",0,0
"457",0,0
"458",0,0
"459",0,0
"460",0,0
"461",0,0
"462",0,0
"463",0,0
"464",0,0
"465",0,0
"466",0,0
"467",0,0
"468",0,0
"469",0,0
"470",0,0
"471",0,0
"472",0,0
"473",0,0
"474",0,0
"475",0,0
"476",0,0
"477",0,0
"478",0,0
"479",0,0
"480",0,0
"481",0,0
"482",0,0
"483",0,0
"484",0,0
"485",0,0
"486",0,0
"487",0,0
"488",0,0
"489",0,0
"490",0,0
"491",0,0
"492",0,0
"493",0,0
"494",0,0
"495",0,0
"496",0,0
"497",0,0
"498",0,0
"499",0,0
"500",0,0
