"","n_obs","n_total"
"1",0,0
"2",0,0
"3",0,0
"4",0,0
"5",0,0
"6",0,0
"7",0,0
"8",0,0
"9",0,0
"10",0,0
"11",0,0
"12",0,0
"13",0,0
"14",0,0
"15",0,0
"16",1,20
"17",1,25
"18",0,0
"19",0,0
"20",0,0
"21",0,0
"22",0,0
"23",0,0
"24",1,9
"25",0,0
"26",0,0
"27",0,0
"28",0,0
"29",3,96
"30",2,12
"31",0,0
"32",0,0
"33",0,0
"34",0,0
"35",0,0
"36",2,154
"37",1,5
"38",0,0
"39",1,40
"40",2,70
"41",0,0
"42",0,0
"43",0,0
"44",0,0
"45",0,0
"46",0,0
"47",1,50
"48",0,0
"49",1,40
"50",0,0
"51",0,0
"52",0,0
"53",0,0
"54",1,1
"55",1,100
"56",1,70
"57",1,50
"58",0,0
"59",0,0
"60",1,40
"61",0,0
"62",0,0
"63",0,0
"64",0,0
"65",0,0
"66",0,0
"67",0,0
"68",0,0
"69",2,550
"70",2,120
"71",0,0
"72",0,0
"73",0,0
"74",0,0
"75",0,0
"76",0,0
"77",0,0
"78",0,0
"79",0,0
"80",1,250
"81",0,0
"82",0,0
"83",0,0
"84",1,50
"85",1,15
"86",0,0
"87",0,0
"88",1,1
"89",1,100
"90",0,0
"91",0,0
"92",0,0
"93",0,0
"94",0,0
"95",0,0
"96",0,0
"97",0,0
"98",1,250
"99",0,0
"100",1,5
"101",0,0
"102",0,0
"103",0,0
"104",0,0
"105",0,0
"106",0,0
"107",0,0
"108",0,0
"109",1,100
"110",1,2
"111",0,0
"112",0,0
"113",0,0
"114",0,0
"115",0,0
"116",0,0
"117",0,0
"118",1,4
"119",0,0
"120",0,0
"121",0,0
"122",0,0
"123",0,0
"124",0,0
"125",0,0
"126",0,0
"127",0,0
"128",2,72
"129",2,500
"130",0,0
"131",0,0
"132",0,0
"133",0,0
"134",0,0
"135",0,0
"136",0,0
"137",1,80
"138",0,0
"139",0,0
"140",1,100
"141",0,0
"142",0,0
"143",0,0
"144",0,0
"145",0,0
"146",1,2
"147",1,4
"148",2,60
"149",0,0
"150",1,4
"151",0,0
"152",0,0
"153",0,0
"154",0,0
"155",0,0
"156",0,0
"157",1,9
"158",0,0
"159",1,6
"160",0,0
"161",0,0
"162",0,0
"163",0,0
"164",0,0
"165",2,450
"166",0,0
"167",0,0
"168",1,2
"169",3,210
"170",1,18
"171",0,0
"172",0,0
"173",0,0
"174",0,0
"175",3,655
"176",1,120
"177",0,0
"178",2,68
"179",0,0
"180",1,25
"181",0,0
"182",0,0
"183",0,0
"184",0,0
"185",0,0
"186",0,0
"187",0,0
"188",0,0
"189",2,44
"190",2,171
"191",0,0
"192",0,0
"193",0,0
"194",0,0
"195",0,0
"196",0,0
"197",3,354
"198",1,200
"199",2,93
"200",1,50
"201",0,0
"202",0,0
"203",0,0
"204",0,0
"205",0,0
"206",2,270
"207",1,100
"208",1,120
"209",3,381
"210",0,0
"211",0,0
"212",0,0
"213",0,0
"214",0,0
"215",0,0
"216",1,12
"217",0,0
"218",1,200
"219",1,3
"220",0,0
"221",0,0
"222",0,0
"223",0,0
"224",0,0
"225",0,0
"226",0,0
"227",0,0
"228",3,206
"229",1,90
"230",0,0
"231",0,0
"232",0,0
"233",0,0
"234",0,0
"235",0,0
"236",1,60
"237",2,181
"238",0,0
"239",1,1
"240",0,0
"241",0,0
"242",0,0
"243",0,0
"244",2,550
"245",1,8
"246",3,333
"247",2,132
"248",2,110
"249",0,0
"250",0,0
"251",0,0
"252",0,0
"253",0,0
"254",0,0
"255",2,5
"256",0,0
"257",0,0
"258",3,162
"259",0,0
"260",0,0
"261",0,0
"262",0,0
"263",0,0
"264",0,0
"265",0,0
"266",1,3
"267",1,200
"268",0,0
"269",0,0
"270",0,0
"271",0,0
"272",0,0
"273",0,0
"274",0,0
"275",1,15
"276",0,0
"277",2,300
"278",0,0
"279",0,0
"280",0,0
"281",0,0
"282",0,0
"283",0,0
"284",3,15
"285",2,202
"286",1,300
"287",1,1
"288",0,0
"289",0,0
"290",0,0
"291",0,0
"292",0,0
"293",3,175
"294",1,200
"295",0,0
"296",0,0
"297",2,160
"298",0,0
"299",0,0
"300",0,0
"301",0,0
"302",1,45
"303",3,90
"304",0,0
"305",2,201
"306",0,0
"307",1,80
"308",0,0
"309",0,0
"310",0,0
"311",0,0
"312",4,250
"313",1,100
"314",0,0
"315",2,3
"316",4,73
"317",0,0
"318",0,0
"319",0,0
"320",0,0
"321",0,0
"322",1,40
"323",3,501
"324",1,150
"325",0,0
"326",0,0
"327",0,0
"328",0,0
"329",0,0
"330",0,0
"331",0,0
"332",1,100
"333",6,261
"334",0,0
"335",0,0
"336",0,0
"337",0,0
"338",0,0
"339",0,0
"340",0,0
"341",0,0
"342",2,90
"343",4,340
"344",0,0
"345",1,3
"346",0,0
"347",0,0
"348",0,0
"349",0,0
"350",0,0
"351",1,20
"352",3,430
"353",3,302
"354",0,0
"355",1,26
"356",3,266
"357",0,0
"358",0,0
"359",0,0
"360",0,0
"361",0,0
"362",0,0
"363",0,0
"364",0,0
"365",0,0
"366",0,0
"367",0,0
"368",0,0
"369",0,0
"370",0,0
"371",3,61
"372",1,21
"373",0,0
"374",0,0
"375",2,106
"376",1,150
"377",0,0
"378",0,0
"379",0,0
"380",0,0
"381",0,0
"382",0,0
"383",1,15
"384",0,0
"385",1,5
"386",0,0
"387",0,0
"388",0,0
"389",0,0
"390",0,0
"391",2,95
"392",0,0
"393",0,0
"394",0,0
"395",7,1122
"396",0,0
"397",0,0
"398",0,0
"399",0,0
"400",0,0
"401",1,6
"402",0,0
"403",0,0
"404",1,9
"405",3,10
"406",0,0
"407",0,0
"408",0,0
"409",0,0
"410",0,0
"411",0,0
"412",2,550
"413",0,0
"414",0,0
"415",5,398
"416",0,0
"417",0,0
"418",0,0
"419",0,0
"420",0,0
"421",0,0
"422",2,85
"423",1,2
"424",0,0
"425",1,3
"426",0,0
"427",0,0
"428",0,0
"429",0,0
"430",0,0
"431",0,0
"432",0,0
"433",0,0
"434",1,250
"435",0,0
"436",0,0
"437",0,0
"438",0,0
"439",0,0
"440",0,0
"441",0,0
"442",0,0
"443",1,100
"444",1,4
"445",1,150
"446",0,0
"447",0,0
"448",0,0
"449",0,0
"450",0,0
"451",0,0
"452",0,0
"453",0,0
"454",0,0
"455",0,0
"456",0,0
"457",0,0
"458",0,0
"459",0,0
"460",0,0
"461",0,0
"462",0,0
"463",0,0
"464",0,0
"465",0,0
"466",0,0
"467",0,0
"468",0,0
"469",0,0
"470",0,0
"471",0,0
"472",0,0
"473",0,0
"474",0,0
"475",0,0
"476",0,0
"477",0,0
"478",0,0
"479",0,0
"480",0,0
"481",0,0
"482",0,0
"483",0,0
"484",0,0
"485",0,0
"486",0,0
"487",0,0
"488",0,0
"489",0,0
"490",0,0
"491",0,0
"492",0,0
"493",0,0
"494",0,0
"495",0,0
"496",0,0
"497",0,0
"498",0,0
"499",0,0
"500",0,0
