"","n_obs","n_total"
"1",0,0
"2",0,0
"3",0,0
"4",0,0
"5",0,0
"6",0,0
"7",0,0
"8",0,0
"9",0,0
"10",0,0
"11",0,0
"12",0,0
"13",0,0
"14",0,0
"15",0,0
"16",5,28
"17",3,11
"18",0,0
"19",0,0
"20",2,4
"21",0,0
"22",0,0
"23",0,0
"24",1,1
"25",6,27
"26",12,61
"27",11,59
"28",5,20
"29",3,8
"30",18,99
"31",0,0
"32",0,0
"33",0,0
"34",16,77
"35",6,18
"36",5,21
"37",12,36
"38",11,52
"39",7,26
"40",12,75
"41",0,0
"42",0,0
"43",1,5
"44",15,59
"45",21,74
"46",19,96
"47",22,73
"48",10,28
"49",15,53
"50",18,76
"51",0,0
"52",0,0
"53",8,32
"54",27,118
"55",25,108
"56",15,80
"57",15,67
"58",13,40
"59",14,69
"60",20,203
"61",0,0
"62",0,0
"63",1,5
"64",14,61
"65",11,43
"66",9,46
"67",3,12
"68",3,13
"69",8,39
"70",12,52
"71",0,0
"72",0,0
"73",1,9
"74",14,67
"75",17,72
"76",11,51
"77",8,31
"78",8,43
"79",6,31
"80",17,56
"81",0,0
"82",0,0
"83",0,0
"84",15,56
"85",11,41
"86",7,22
"87",13,47
"88",7,37
"89",7,32
"90",14,80
"91",0,0
"92",0,0
"93",0,0
"94",0,0
"95",0,0
"96",0,0
"97",5,17
"98",11,32
"99",10,50
"100",22,112
"101",0,0
"102",0,0
"103",0,0
"104",0,0
"105",0,0
"106",0,0
"107",6,24
"108",10,52
"109",8,36
"110",7,45
"111",0,0
"112",0,0
"113",0,0
"114",0,0
"115",0,0
"116",0,0
"117",7,33
"118",6,29
"119",9,54
"120",19,98
"121",0,0
"122",0,0
"123",0,0
"124",0,0
"125",0,0
"126",0,0
"127",15,100
"128",10,49
"129",19,84
"130",17,96
"131",0,0
"132",0,0
"133",0,0
"134",0,0
"135",0,0
"136",0,0
"137",10,54
"138",7,33
"139",11,58
"140",14,67
"141",0,0
"142",0,0
"143",0,0
"144",0,0
"145",0,0
"146",1,2
"147",7,36
"148",4,19
"149",6,51
"150",8,37
"151",0,0
"152",0,0
"153",0,0
"154",0,0
"155",2,12
"156",12,56
"157",11,47
"158",5,12
"159",4,25
"160",3,12
"161",0,0
"162",0,0
"163",0,0
"164",0,0
"165",4,13
"166",9,60
"167",11,66
"168",12,91
"169",6,32
"170",8,27
"171",0,0
"172",0,0
"173",0,0
"174",0,0
"175",14,86
"176",15,66
"177",13,78
"178",15,104
"179",8,43
"180",12,48
"181",0,0
"182",0,0
"183",0,0
"184",0,0
"185",12,65
"186",12,61
"187",8,41
"188",19,88
"189",10,42
"190",9,57
"191",0,0
"192",0,0
"193",0,0
"194",0,0
"195",3,21
"196",6,33
"197",8,55
"198",14,106
"199",15,72
"200",7,39
"201",0,0
"202",0,0
"203",0,0
"204",0,0
"205",3,20
"206",12,74
"207",7,41
"208",15,147
"209",13,59
"210",3,17
"211",0,0
"212",0,0
"213",0,0
"214",0,0
"215",0,0
"216",10,50
"217",15,90
"218",7,43
"219",16,88
"220",0,0
"221",0,0
"222",0,0
"223",1,4
"224",5,18
"225",10,60
"226",4,18
"227",7,35
"228",9,64
"229",9,41
"230",0,0
"231",0,0
"232",0,0
"233",7,25
"234",3,9
"235",6,29
"236",2,3
"237",8,45
"238",13,41
"239",10,42
"240",0,0
"241",0,0
"242",0,0
"243",0,0
"244",7,33
"245",8,29
"246",3,14
"247",5,23
"248",18,74
"249",15,68
"250",0,0
"251",0,0
"252",0,0
"253",8,34
"254",3,10
"255",9,38
"256",6,32
"257",7,21
"258",15,42
"259",1,9
"260",0,0
"261",0,0
"262",0,0
"263",1,3
"264",7,25
"265",2,9
"266",3,12
"267",12,36
"268",3,12
"269",0,0
"270",0,0
"271",0,0
"272",0,0
"273",9,31
"274",13,46
"275",6,24
"276",3,12
"277",15,81
"278",1,1
"279",0,0
"280",0,0
"281",0,0
"282",0,0
"283",8,25
"284",5,26
"285",6,23
"286",5,23
"287",10,39
"288",0,0
"289",0,0
"290",0,0
"291",0,0
"292",0,0
"293",7,39
"294",1,2
"295",6,32
"296",2,15
"297",10,40
"298",0,0
"299",0,0
"300",0,0
"301",0,0
"302",0,0
"303",7,44
"304",7,36
"305",13,43
"306",1,6
"307",4,19
"308",0,0
"309",0,0
"310",0,0
"311",0,0
"312",3,12
"313",7,31
"314",11,54
"315",12,53
"316",6,14
"317",0,0
"318",0,0
"319",0,0
"320",0,0
"321",0,0
"322",7,39
"323",2,10
"324",8,26
"325",9,41
"326",8,33
"327",0,0
"328",0,0
"329",0,0
"330",0,0
"331",0,0
"332",5,23
"333",6,20
"334",5,20
"335",5,25
"336",5,25
"337",0,0
"338",0,0
"339",0,0
"340",0,0
"341",0,0
"342",2,8
"343",3,8
"344",3,13
"345",8,27
"346",8,36
"347",0,0
"348",0,0
"349",0,0
"350",0,0
"351",3,11
"352",7,36
"353",12,100
"354",8,47
"355",6,34
"356",10,56
"357",0,0
"358",0,0
"359",0,0
"360",0,0
"361",7,42
"362",8,42
"363",9,53
"364",10,52
"365",9,45
"366",8,56
"367",0,0
"368",0,0
"369",0,0
"370",0,0
"371",8,28
"372",6,20
"373",10,52
"374",11,43
"375",5,28
"376",8,31
"377",0,0
"378",0,0
"379",0,0
"380",0,0
"381",5,19
"382",3,12
"383",9,69
"384",3,27
"385",4,20
"386",6,32
"387",0,0
"388",0,0
"389",0,0
"390",0,0
"391",3,22
"392",7,45
"393",10,45
"394",8,65
"395",7,37
"396",6,43
"397",0,0
"398",0,0
"399",0,0
"400",0,0
"401",3,26
"402",4,25
"403",13,75
"404",6,24
"405",5,23
"406",0,0
"407",0,0
"408",0,0
"409",0,0
"410",0,0
"411",5,33
"412",12,56
"413",7,31
"414",10,69
"415",9,59
"416",0,0
"417",0,0
"418",0,0
"419",0,0
"420",0,0
"421",1,1
"422",11,53
"423",5,24
"424",6,22
"425",9,40
"426",0,0
"427",0,0
"428",0,0
"429",0,0
"430",0,0
"431",0,0
"432",3,20
"433",3,12
"434",1,4
"435",2,8
"436",0,0
"437",0,0
"438",0,0
"439",0,0
"440",0,0
"441",0,0
"442",0,0
"443",2,8
"444",1,5
"445",0,0
"446",0,0
"447",0,0
"448",0,0
"449",0,0
"450",0,0
"451",0,0
"452",0,0
"453",3,15
"454",7,35
"455",0,0
"456",0,0
"457",0,0
"458",0,0
"459",0,0
"460",0,0
"461",0,0
"462",0,0
"463",0,0
"464",0,0
"465",0,0
"466",0,0
"467",0,0
"468",0,0
"469",0,0
"470",0,0
"471",0,0
"472",0,0
"473",0,0
"474",0,0
"475",0,0
"476",0,0
"477",0,0
"478",0,0
"479",0,0
"480",0,0
"481",0,0
"482",0,0
"483",0,0
"484",0,0
"485",0,0
"486",0,0
"487",0,0
"488",0,0
"489",0,0
"490",0,0
"491",0,0
"492",0,0
"493",0,0
"494",0,0
"495",0,0
"496",0,0
"497",0,0
"498",0,0
"499",0,0
"500",0,0
