"","n_obs","n_total"
"1",0,0
"2",0,0
"3",0,0
"4",1,1
"5",9,25
"6",2,5
"7",0,0
"8",0,0
"9",0,0
"10",0,0
"11",0,0
"12",0,0
"13",0,0
"14",1,5
"15",9,35
"16",7,31
"17",0,0
"18",0,0
"19",0,0
"20",3,9
"21",0,0
"22",0,0
"23",0,0
"24",9,16
"25",12,45
"26",9,32
"27",1,13
"28",6,25
"29",2,5
"30",8,14
"31",0,0
"32",0,0
"33",0,0
"34",5,17
"35",13,36
"36",9,37
"37",3,6
"38",14,29
"39",5,16
"40",6,16
"41",0,0
"42",0,0
"43",0,0
"44",15,55
"45",7,17
"46",9,29
"47",9,20
"48",7,12
"49",4,9
"50",10,29
"51",0,0
"52",0,0
"53",9,24
"54",23,82
"55",8,30
"56",7,31
"57",8,20
"58",7,16
"59",10,22
"60",17,52
"61",0,0
"62",0,0
"63",1,10
"64",24,88
"65",15,43
"66",9,31
"67",6,13
"68",11,30
"69",6,20
"70",16,51
"71",0,0
"72",0,0
"73",1,2
"74",13,59
"75",11,21
"76",8,21
"77",5,14
"78",13,33
"79",12,52
"80",4,11
"81",0,0
"82",0,0
"83",0,0
"84",11,47
"85",6,16
"86",2,3
"87",5,16
"88",11,24
"89",5,11
"90",11,40
"91",0,0
"92",0,0
"93",0,0
"94",0,0
"95",0,0
"96",1,2
"97",5,13
"98",4,8
"99",5,14
"100",4,11
"101",0,0
"102",0,0
"103",0,0
"104",0,0
"105",0,0
"106",0,0
"107",4,14
"108",3,8
"109",5,25
"110",3,13
"111",0,0
"112",0,0
"113",0,0
"114",0,0
"115",0,0
"116",0,0
"117",2,12
"118",8,40
"119",5,12
"120",8,25
"121",0,0
"122",0,0
"123",0,0
"124",0,0
"125",0,0
"126",0,0
"127",8,36
"128",7,19
"129",6,19
"130",13,78
"131",0,0
"132",0,0
"133",0,0
"134",0,0
"135",0,0
"136",0,0
"137",2,12
"138",5,9
"139",6,29
"140",3,12
"141",0,0
"142",0,0
"143",0,0
"144",0,0
"145",0,0
"146",3,6
"147",13,66
"148",4,19
"149",1,3
"150",1,7
"151",0,0
"152",0,0
"153",0,0
"154",0,0
"155",2,3
"156",9,43
"157",6,19
"158",3,13
"159",4,9
"160",7,23
"161",0,0
"162",0,0
"163",0,0
"164",0,0
"165",4,15
"166",12,47
"167",8,25
"168",10,50
"169",6,40
"170",11,55
"171",0,0
"172",0,0
"173",0,0
"174",0,0
"175",9,44
"176",17,48
"177",11,51
"178",5,24
"179",14,87
"180",17,84
"181",0,0
"182",0,0
"183",0,0
"184",0,0
"185",8,18
"186",14,46
"187",15,49
"188",3,7
"189",3,14
"190",7,29
"191",0,0
"192",0,0
"193",0,0
"194",0,0
"195",0,0
"196",7,27
"197",10,31
"198",7,27
"199",3,10
"200",1,4
"201",0,0
"202",0,0
"203",0,0
"204",0,0
"205",0,0
"206",3,18
"207",3,19
"208",6,37
"209",11,41
"210",5,31
"211",0,0
"212",0,0
"213",0,0
"214",0,0
"215",0,0
"216",4,16
"217",12,51
"218",5,13
"219",4,11
"220",0,0
"221",0,0
"222",0,0
"223",0,0
"224",13,42
"225",11,43
"226",5,18
"227",6,25
"228",3,10
"229",2,13
"230",0,0
"231",0,0
"232",0,0
"233",3,17
"234",3,4
"235",5,15
"236",7,27
"237",0,0
"238",6,21
"239",5,17
"240",0,0
"241",0,0
"242",0,0
"243",3,6
"244",3,4
"245",1,4
"246",5,16
"247",14,49
"248",22,82
"249",6,28
"250",0,0
"251",0,0
"252",0,0
"253",4,9
"254",1,2
"255",1,4
"256",0,0
"257",7,14
"258",2,12
"259",0,0
"260",0,0
"261",0,0
"262",0,0
"263",1,6
"264",0,0
"265",2,5
"266",3,5
"267",3,11
"268",1,8
"269",0,0
"270",0,0
"271",0,0
"272",0,0
"273",1,1
"274",4,9
"275",1,3
"276",2,7
"277",5,26
"278",1,7
"279",0,0
"280",0,0
"281",0,0
"282",0,0
"283",1,3
"284",2,9
"285",2,6
"286",1,4
"287",1,5
"288",0,0
"289",0,0
"290",0,0
"291",0,0
"292",0,0
"293",5,22
"294",1,4
"295",5,9
"296",0,0
"297",1,2
"298",0,0
"299",0,0
"300",0,0
"301",0,0
"302",0,0
"303",3,6
"304",2,7
"305",2,4
"306",2,6
"307",2,4
"308",0,0
"309",0,0
"310",0,0
"311",0,0
"312",3,12
"313",1,5
"314",4,7
"315",0,0
"316",6,22
"317",1,1
"318",0,0
"319",0,0
"320",0,0
"321",0,0
"322",2,2
"323",1,2
"324",0,0
"325",0,0
"326",12,58
"327",0,0
"328",0,0
"329",0,0
"330",0,0
"331",0,0
"332",5,8
"333",5,13
"334",0,0
"335",0,0
"336",1,2
"337",0,0
"338",0,0
"339",0,0
"340",0,0
"341",0,0
"342",3,7
"343",1,4
"344",1,2
"345",0,0
"346",3,12
"347",0,0
"348",0,0
"349",0,0
"350",0,0
"351",1,2
"352",4,12
"353",7,23
"354",3,7
"355",1,8
"356",5,9
"357",0,0
"358",0,0
"359",0,0
"360",0,0
"361",2,6
"362",10,33
"363",2,5
"364",3,11
"365",1,2
"366",8,23
"367",0,0
"368",0,0
"369",0,0
"370",0,0
"371",1,1
"372",0,0
"373",0,0
"374",0,0
"375",18,52
"376",9,27
"377",0,0
"378",0,0
"379",0,0
"380",0,0
"381",2,9
"382",1,2
"383",1,1
"384",2,5
"385",8,24
"386",1,6
"387",0,0
"388",0,0
"389",0,0
"390",0,0
"391",0,0
"392",1,4
"393",5,21
"394",4,13
"395",1,4
"396",3,4
"397",0,0
"398",0,0
"399",0,0
"400",0,0
"401",1,3
"402",2,7
"403",6,16
"404",2,11
"405",0,0
"406",0,0
"407",0,0
"408",0,0
"409",0,0
"410",0,0
"411",1,1
"412",0,0
"413",0,0
"414",1,1
"415",2,5
"416",0,0
"417",0,0
"418",0,0
"419",0,0
"420",0,0
"421",0,0
"422",0,0
"423",0,0
"424",3,9
"425",1,5
"426",0,0
"427",0,0
"428",0,0
"429",0,0
"430",0,0
"431",3,8
"432",0,0
"433",1,3
"434",0,0
"435",2,6
"436",0,0
"437",0,0
"438",0,0
"439",0,0
"440",0,0
"441",6,18
"442",2,5
"443",2,4
"444",4,14
"445",0,0
"446",0,0
"447",0,0
"448",0,0
"449",0,0
"450",0,0
"451",2,7
"452",7,30
"453",5,21
"454",6,26
"455",0,0
"456",0,0
"457",0,0
"458",0,0
"459",0,0
"460",0,0
"461",2,7
"462",10,45
"463",2,8
"464",5,18
"465",0,0
"466",0,0
"467",0,0
"468",0,0
"469",0,0
"470",0,0
"471",2,11
"472",10,31
"473",9,34
"474",8,18
"475",0,0
"476",0,0
"477",0,0
"478",0,0
"479",0,0
"480",0,0
"481",0,0
"482",2,7
"483",20,62
"484",27,88
"485",0,0
"486",0,0
"487",0,0
"488",0,0
"489",0,0
"490",0,0
"491",0,0
"492",0,0
"493",10,64
"494",8,29
"495",0,0
"496",0,0
"497",0,0
"498",0,0
"499",0,0
"500",0,0
