"","n_obs","n_total"
"1",0,0
"2",0,0
"3",0,0
"4",0,0
"5",2,2
"6",1,3
"7",0,0
"8",0,0
"9",0,0
"10",0,0
"11",0,0
"12",0,0
"13",0,0
"14",0,0
"15",0,0
"16",0,0
"17",0,0
"18",0,0
"19",0,0
"20",0,0
"21",0,0
"22",0,0
"23",0,0
"24",1,1
"25",2,4
"26",2,4
"27",3,7
"28",2,2
"29",1,1
"30",0,0
"31",0,0
"32",0,0
"33",0,0
"34",0,0
"35",0,0
"36",1,1
"37",0,0
"38",6,16
"39",0,0
"40",1,9
"41",0,0
"42",0,0
"43",0,0
"44",2,8
"45",3,9
"46",0,0
"47",1,2
"48",0,0
"49",0,0
"50",0,0
"51",0,0
"52",0,0
"53",1,2
"54",0,0
"55",1,2
"56",3,25
"57",2,9
"58",0,0
"59",0,0
"60",3,6
"61",0,0
"62",0,0
"63",1,3
"64",2,4
"65",1,3
"66",2,3
"67",0,0
"68",0,0
"69",0,0
"70",1,2
"71",0,0
"72",0,0
"73",0,0
"74",1,2
"75",5,9
"76",2,2
"77",0,0
"78",3,9
"79",5,13
"80",0,0
"81",0,0
"82",0,0
"83",0,0
"84",1,4
"85",1,3
"86",2,2
"87",2,3
"88",8,19
"89",0,0
"90",0,0
"91",0,0
"92",0,0
"93",0,0
"94",0,0
"95",0,0
"96",0,0
"97",4,10
"98",2,3
"99",1,1
"100",2,4
"101",0,0
"102",0,0
"103",0,0
"104",0,0
"105",0,0
"106",0,0
"107",10,27
"108",0,0
"109",2,5
"110",2,11
"111",0,0
"112",0,0
"113",0,0
"114",0,0
"115",0,0
"116",0,0
"117",3,4
"118",4,5
"119",0,0
"120",2,2
"121",0,0
"122",0,0
"123",0,0
"124",0,0
"125",0,0
"126",0,0
"127",0,0
"128",3,4
"129",1,2
"130",0,0
"131",0,0
"132",0,0
"133",0,0
"134",0,0
"135",0,0
"136",0,0
"137",2,3
"138",6,8
"139",0,0
"140",1,1
"141",0,0
"142",0,0
"143",0,0
"144",0,0
"145",0,0
"146",3,5
"147",0,0
"148",5,10
"149",3,14
"150",0,0
"151",0,0
"152",0,0
"153",0,0
"154",0,0
"155",0,0
"156",1,4
"157",2,5
"158",1,1
"159",1,2
"160",1,4
"161",0,0
"162",0,0
"163",0,0
"164",0,0
"165",2,2
"166",0,0
"167",10,20
"168",1,2
"169",1,3
"170",0,0
"171",0,0
"172",0,0
"173",0,0
"174",0,0
"175",7,16
"176",10,24
"177",1,1
"178",6,12
"179",0,0
"180",0,0
"181",0,0
"182",0,0
"183",0,0
"184",0,0
"185",2,5
"186",3,8
"187",2,4
"188",1,1
"189",0,0
"190",3,7
"191",0,0
"192",0,0
"193",0,0
"194",0,0
"195",1,3
"196",8,14
"197",7,13
"198",0,0
"199",3,9
"200",0,0
"201",0,0
"202",0,0
"203",0,0
"204",0,0
"205",1,2
"206",3,5
"207",0,0
"208",3,5
"209",0,0
"210",0,0
"211",0,0
"212",0,0
"213",0,0
"214",0,0
"215",0,0
"216",1,10
"217",6,16
"218",0,0
"219",0,0
"220",0,0
"221",0,0
"222",0,0
"223",0,0
"224",0,0
"225",0,0
"226",5,8
"227",2,6
"228",5,7
"229",0,0
"230",0,0
"231",0,0
"232",0,0
"233",0,0
"234",0,0
"235",1,1
"236",2,2
"237",1,1
"238",2,3
"239",0,0
"240",0,0
"241",0,0
"242",0,0
"243",0,0
"244",0,0
"245",2,2
"246",4,4
"247",3,5
"248",1,2
"249",1,1
"250",0,0
"251",0,0
"252",0,0
"253",3,7
"254",1,1
"255",12,35
"256",8,17
"257",7,10
"258",3,4
"259",0,0
"260",0,0
"261",0,0
"262",0,0
"263",0,0
"264",7,13
"265",8,13
"266",3,5
"267",1,3
"268",3,10
"269",0,0
"270",0,0
"271",0,0
"272",0,0
"273",6,9
"274",1,1
"275",7,13
"276",7,10
"277",7,16
"278",0,0
"279",0,0
"280",0,0
"281",0,0
"282",0,0
"283",1,1
"284",3,3
"285",5,8
"286",8,30
"287",0,0
"288",0,0
"289",0,0
"290",0,0
"291",0,0
"292",0,0
"293",1,2
"294",2,3
"295",5,7
"296",2,2
"297",7,17
"298",0,0
"299",0,0
"300",0,0
"301",0,0
"302",0,0
"303",1,4
"304",4,5
"305",5,11
"306",0,0
"307",0,0
"308",0,0
"309",0,0
"310",0,0
"311",0,0
"312",1,1
"313",4,7
"314",3,5
"315",10,14
"316",0,0
"317",0,0
"318",0,0
"319",0,0
"320",0,0
"321",0,0
"322",0,0
"323",6,9
"324",8,10
"325",2,2
"326",0,0
"327",0,0
"328",0,0
"329",0,0
"330",0,0
"331",0,0
"332",1,6
"333",5,11
"334",1,3
"335",0,0
"336",0,0
"337",0,0
"338",0,0
"339",0,0
"340",0,0
"341",0,0
"342",0,0
"343",0,0
"344",7,22
"345",0,0
"346",3,17
"347",0,0
"348",0,0
"349",0,0
"350",0,0
"351",0,0
"352",3,4
"353",2,2
"354",7,14
"355",1,1
"356",2,8
"357",0,0
"358",0,0
"359",0,0
"360",0,0
"361",2,5
"362",4,9
"363",7,19
"364",2,7
"365",1,3
"366",7,14
"367",0,0
"368",0,0
"369",0,0
"370",0,0
"371",2,10
"372",5,17
"373",1,12
"374",2,17
"375",12,25
"376",1,1
"377",0,0
"378",0,0
"379",0,0
"380",0,0
"381",1,3
"382",1,4
"383",1,4
"384",8,35
"385",4,16
"386",0,0
"387",0,0
"388",0,0
"389",0,0
"390",0,0
"391",7,25
"392",3,9
"393",4,15
"394",2,7
"395",3,7
"396",2,8
"397",0,0
"398",0,0
"399",0,0
"400",0,0
"401",2,7
"402",0,0
"403",5,16
"404",0,0
"405",4,14
"406",1,10
"407",0,0
"408",0,0
"409",0,0
"410",0,0
"411",3,19
"412",2,14
"413",4,14
"414",2,8
"415",4,10
"416",0,0
"417",0,0
"418",0,0
"419",0,0
"420",0,0
"421",3,16
"422",0,0
"423",4,6
"424",0,0
"425",1,5
"426",0,0
"427",0,0
"428",0,0
"429",0,0
"430",0,0
"431",1,1
"432",1,1
"433",4,10
"434",0,0
"435",3,7
"436",0,0
"437",0,0
"438",0,0
"439",0,0
"440",0,0
"441",3,6
"442",8,33
"443",4,13
"444",3,9
"445",0,0
"446",0,0
"447",0,0
"448",0,0
"449",0,0
"450",0,0
"451",0,0
"452",4,12
"453",3,14
"454",2,5
"455",0,0
"456",0,0
"457",0,0
"458",0,0
"459",0,0
"460",0,0
"461",0,0
"462",3,5
"463",3,8
"464",3,3
"465",0,0
"466",0,0
"467",0,0
"468",0,0
"469",0,0
"470",0,0
"471",0,0
"472",4,9
"473",7,19
"474",0,0
"475",0,0
"476",0,0
"477",0,0
"478",0,0
"479",0,0
"480",0,0
"481",0,0
"482",1,1
"483",6,17
"484",0,0
"485",0,0
"486",0,0
"487",0,0
"488",0,0
"489",0,0
"490",0,0
"491",0,0
"492",1,4
"493",1,3
"494",0,0
"495",0,0
"496",0,0
"497",0,0
"498",0,0
"499",0,0
"500",0,0
