"","n_obs","n_total"
"1",0,0
"2",0,0
"3",0,0
"4",0,0
"5",0,0
"6",0,0
"7",0,0
"8",0,0
"9",0,0
"10",0,0
"11",0,0
"12",0,0
"13",0,0
"14",0,0
"15",0,0
"16",1,4
"17",0,0
"18",0,0
"19",0,0
"20",1,4
"21",0,0
"22",0,0
"23",0,0
"24",1,1
"25",4,34
"26",1,18
"27",0,0
"28",0,0
"29",2,12
"30",2,2
"31",0,0
"32",0,0
"33",0,0
"34",3,17
"35",5,24
"36",0,0
"37",0,0
"38",1,2
"39",3,19
"40",4,10
"41",0,0
"42",0,0
"43",1,10
"44",3,8
"45",0,0
"46",2,7
"47",0,0
"48",0,0
"49",0,0
"50",1,2
"51",0,0
"52",0,0
"53",1,3
"54",0,0
"55",3,22
"56",5,35
"57",1,10
"58",1,5
"59",1,8
"60",8,39
"61",0,0
"62",0,0
"63",0,0
"64",0,0
"65",0,0
"66",2,5
"67",0,0
"68",0,0
"69",3,10
"70",6,40
"71",0,0
"72",0,0
"73",0,0
"74",2,8
"75",0,0
"76",0,0
"77",0,0
"78",1,9
"79",2,41
"80",3,59
"81",0,0
"82",0,0
"83",0,0
"84",3,3
"85",0,0
"86",0,0
"87",0,0
"88",0,0
"89",1,2
"90",1,2
"91",0,0
"92",0,0
"93",0,0
"94",0,0
"95",0,0
"96",0,0
"97",1,3
"98",1,4
"99",0,0
"100",1,1
"101",0,0
"102",0,0
"103",0,0
"104",0,0
"105",0,0
"106",0,0
"107",0,0
"108",2,78
"109",3,39
"110",1,4
"111",0,0
"112",0,0
"113",0,0
"114",0,0
"115",0,0
"116",0,0
"117",0,0
"118",0,0
"119",5,49
"120",4,56
"121",0,0
"122",0,0
"123",0,0
"124",0,0
"125",0,0
"126",0,0
"127",2,35
"128",0,0
"129",3,39
"130",1,1
"131",0,0
"132",0,0
"133",0,0
"134",0,0
"135",0,0
"136",0,0
"137",0,0
"138",0,0
"139",0,0
"140",0,0
"141",0,0
"142",0,0
"143",0,0
"144",0,0
"145",0,0
"146",0,0
"147",1,3
"148",1,5
"149",1,4
"150",0,0
"151",0,0
"152",0,0
"153",0,0
"154",0,0
"155",0,0
"156",0,0
"157",0,0
"158",0,0
"159",0,0
"160",3,8
"161",0,0
"162",0,0
"163",0,0
"164",0,0
"165",0,0
"166",1,3
"167",0,0
"168",0,0
"169",0,0
"170",5,33
"171",0,0
"172",0,0
"173",0,0
"174",0,0
"175",1,2
"176",1,9
"177",0,0
"178",3,21
"179",5,57
"180",4,72
"181",0,0
"182",0,0
"183",0,0
"184",0,0
"185",1,4
"186",0,0
"187",0,0
"188",1,13
"189",3,66
"190",2,13
"191",0,0
"192",0,0
"193",0,0
"194",0,0
"195",0,0
"196",0,0
"197",0,0
"198",1,12
"199",1,11
"200",0,0
"201",0,0
"202",0,0
"203",0,0
"204",0,0
"205",0,0
"206",1,1
"207",0,0
"208",0,0
"209",0,0
"210",0,0
"211",0,0
"212",0,0
"213",0,0
"214",0,0
"215",0,0
"216",0,0
"217",1,12
"218",2,7
"219",0,0
"220",0,0
"221",0,0
"222",0,0
"223",0,0
"224",5,28
"225",5,21
"226",2,12
"227",5,36
"228",6,49
"229",1,4
"230",0,0
"231",0,0
"232",0,0
"233",1,3
"234",0,0
"235",3,26
"236",5,71
"237",4,36
"238",3,14
"239",1,4
"240",0,0
"241",0,0
"242",0,0
"243",0,0
"244",0,0
"245",1,4
"246",2,7
"247",2,3
"248",13,35
"249",7,36
"250",0,0
"251",0,0
"252",0,0
"253",0,0
"254",0,0
"255",0,0
"256",0,0
"257",4,26
"258",2,14
"259",0,0
"260",0,0
"261",0,0
"262",0,0
"263",0,0
"264",0,0
"265",0,0
"266",1,3
"267",5,30
"268",0,0
"269",0,0
"270",0,0
"271",0,0
"272",0,0
"273",0,0
"274",4,18
"275",6,52
"276",7,29
"277",3,36
"278",0,0
"279",0,0
"280",0,0
"281",0,0
"282",0,0
"283",5,48
"284",3,28
"285",1,5
"286",2,15
"287",2,12
"288",0,0
"289",0,0
"290",0,0
"291",0,0
"292",0,0
"293",2,5
"294",0,0
"295",2,31
"296",0,0
"297",0,0
"298",0,0
"299",0,0
"300",0,0
"301",0,0
"302",0,0
"303",2,12
"304",0,0
"305",6,88
"306",0,0
"307",1,3
"308",0,0
"309",0,0
"310",0,0
"311",0,0
"312",1,1
"313",2,10
"314",3,26
"315",7,45
"316",2,76
"317",0,0
"318",0,0
"319",0,0
"320",0,0
"321",0,0
"322",0,0
"323",1,6
"324",2,28
"325",0,0
"326",0,0
"327",0,0
"328",0,0
"329",0,0
"330",0,0
"331",0,0
"332",0,0
"333",0,0
"334",1,6
"335",0,0
"336",0,0
"337",0,0
"338",0,0
"339",0,0
"340",0,0
"341",0,0
"342",0,0
"343",0,0
"344",0,0
"345",0,0
"346",1,24
"347",0,0
"348",0,0
"349",0,0
"350",0,0
"351",0,0
"352",0,0
"353",0,0
"354",0,0
"355",0,0
"356",1,3
"357",0,0
"358",0,0
"359",0,0
"360",0,0
"361",1,1
"362",2,20
"363",4,13
"364",2,13
"365",0,0
"366",2,3
"367",0,0
"368",0,0
"369",0,0
"370",0,0
"371",4,24
"372",1,1
"373",0,0
"374",0,0
"375",8,47
"376",1,7
"377",0,0
"378",0,0
"379",0,0
"380",0,0
"381",0,0
"382",0,0
"383",0,0
"384",0,0
"385",0,0
"386",0,0
"387",0,0
"388",0,0
"389",0,0
"390",0,0
"391",0,0
"392",0,0
"393",0,0
"394",1,2
"395",0,0
"396",0,0
"397",0,0
"398",0,0
"399",0,0
"400",0,0
"401",0,0
"402",0,0
"403",2,14
"404",1,11
"405",0,0
"406",0,0
"407",0,0
"408",0,0
"409",0,0
"410",0,0
"411",0,0
"412",2,24
"413",3,21
"414",0,0
"415",2,39
"416",0,0
"417",0,0
"418",0,0
"419",0,0
"420",0,0
"421",0,0
"422",0,0
"423",0,0
"424",0,0
"425",0,0
"426",0,0
"427",0,0
"428",0,0
"429",0,0
"430",0,0
"431",0,0
"432",0,0
"433",0,0
"434",0,0
"435",0,0
"436",0,0
"437",0,0
"438",0,0
"439",0,0
"440",0,0
"441",0,0
"442",0,0
"443",0,0
"444",0,0
"445",0,0
"446",0,0
"447",0,0
"448",0,0
"449",0,0
"450",0,0
"451",0,0
"452",0,0
"453",0,0
"454",0,0
"455",0,0
"456",0,0
"457",0,0
"458",0,0
"459",0,0
"460",0,0
"461",0,0
"462",0,0
"463",0,0
"464",0,0
"465",0,0
"466",0,0
"467",0,0
"468",0,0
"469",0,0
"470",0,0
"471",0,0
"472",0,0
"473",0,0
"474",0,0
"475",0,0
"476",0,0
"477",0,0
"478",0,0
"479",0,0
"480",0,0
"481",0,0
"482",0,0
"483",0,0
"484",0,0
"485",0,0
"486",0,0
"487",0,0
"488",0,0
"489",0,0
"490",0,0
"491",0,0
"492",0,0
"493",0,0
"494",0,0
"495",0,0
"496",0,0
"497",0,0
"498",0,0
"499",0,0
"500",0,0
