"","n_obs","n_total"
"1",0,0
"2",0,0
"3",0,0
"4",0,0
"5",0,0
"6",0,0
"7",0,0
"8",0,0
"9",0,0
"10",0,0
"11",0,0
"12",0,0
"13",0,0
"14",0,0
"15",0,0
"16",0,0
"17",0,0
"18",0,0
"19",0,0
"20",0,0
"21",0,0
"22",0,0
"23",0,0
"24",1,4
"25",0,0
"26",0,0
"27",0,0
"28",0,0
"29",0,0
"30",0,0
"31",0,0
"32",0,0
"33",0,0
"34",1,20
"35",0,0
"36",0,0
"37",1,7
"38",0,0
"39",0,0
"40",0,0
"41",0,0
"42",0,0
"43",0,0
"44",0,0
"45",2,22
"46",1,3
"47",1,11
"48",0,0
"49",0,0
"50",0,0
"51",0,0
"52",0,0
"53",0,0
"54",1,3
"55",1,2
"56",1,15
"57",2,11
"58",0,0
"59",0,0
"60",0,0
"61",0,0
"62",0,0
"63",2,29
"64",3,27
"65",1,12
"66",8,39
"67",0,0
"68",0,0
"69",0,0
"70",1,12
"71",0,0
"72",0,0
"73",1,1
"74",4,25
"75",7,38
"76",3,10
"77",0,0
"78",0,0
"79",2,6
"80",4,52
"81",0,0
"82",0,0
"83",0,0
"84",4,5
"85",2,4
"86",0,0
"87",0,0
"88",1,36
"89",1,7
"90",10,376
"91",0,0
"92",0,0
"93",0,0
"94",0,0
"95",0,0
"96",0,0
"97",1,2
"98",4,29
"99",6,438
"100",7,481
"101",0,0
"102",0,0
"103",0,0
"104",0,0
"105",0,0
"106",0,0
"107",2,3
"108",2,62
"109",2,50
"110",1,10
"111",0,0
"112",0,0
"113",0,0
"114",0,0
"115",0,0
"116",0,0
"117",3,7
"118",2,2
"119",6,86
"120",0,0
"121",0,0
"122",0,0
"123",0,0
"124",0,0
"125",0,0
"126",0,0
"127",4,11
"128",7,64
"129",1,6
"130",2,5
"131",0,0
"132",0,0
"133",0,0
"134",0,0
"135",0,0
"136",0,0
"137",5,36
"138",2,9
"139",4,20
"140",7,41
"141",0,0
"142",0,0
"143",0,0
"144",0,0
"145",0,0
"146",2,16
"147",7,14
"148",7,87
"149",4,35
"150",7,127
"151",0,0
"152",0,0
"153",0,0
"154",0,0
"155",0,0
"156",0,0
"157",3,3
"158",8,123
"159",7,18
"160",8,117
"161",0,0
"162",0,0
"163",0,0
"164",0,0
"165",5,128
"166",3,20
"167",6,42
"168",13,412
"169",8,26
"170",6,122
"171",0,0
"172",0,0
"173",0,0
"174",0,0
"175",5,71
"176",9,165
"177",1,25
"178",7,20
"179",9,175
"180",6,35
"181",0,0
"182",0,0
"183",0,0
"184",0,0
"185",6,30
"186",2,15
"187",3,17
"188",4,24
"189",8,134
"190",7,61
"191",0,0
"192",0,0
"193",0,0
"194",0,0
"195",0,0
"196",1,1
"197",5,66
"198",6,246
"199",5,28
"200",2,41
"201",0,0
"202",0,0
"203",0,0
"204",0,0
"205",0,0
"206",0,0
"207",8,57
"208",5,45
"209",3,4
"210",0,0
"211",0,0
"212",0,0
"213",0,0
"214",0,0
"215",0,0
"216",0,0
"217",5,29
"218",8,124
"219",5,69
"220",0,0
"221",0,0
"222",0,0
"223",1,1
"224",2,20
"225",1,1
"226",1,1
"227",2,10
"228",18,156
"229",11,178
"230",0,0
"231",0,0
"232",0,0
"233",2,3
"234",4,31
"235",1,3
"236",0,0
"237",0,0
"238",7,13
"239",1,9
"240",0,0
"241",0,0
"242",0,0
"243",3,13
"244",1,6
"245",1,1
"246",2,17
"247",2,22
"248",1,18
"249",0,0
"250",0,0
"251",0,0
"252",0,0
"253",2,13
"254",3,9
"255",4,5
"256",2,10
"257",0,0
"258",0,0
"259",0,0
"260",0,0
"261",0,0
"262",0,0
"263",4,32
"264",2,21
"265",5,19
"266",2,11
"267",0,0
"268",0,0
"269",0,0
"270",0,0
"271",0,0
"272",0,0
"273",1,1
"274",4,19
"275",1,12
"276",1,8
"277",0,0
"278",0,0
"279",0,0
"280",0,0
"281",0,0
"282",0,0
"283",0,0
"284",2,5
"285",1,1
"286",5,288
"287",4,24
"288",0,0
"289",0,0
"290",0,0
"291",0,0
"292",0,0
"293",0,0
"294",0,0
"295",2,10
"296",2,2
"297",7,36
"298",0,0
"299",0,0
"300",0,0
"301",0,0
"302",0,0
"303",0,0
"304",0,0
"305",0,0
"306",0,0
"307",1,2
"308",0,0
"309",0,0
"310",0,0
"311",0,0
"312",0,0
"313",0,0
"314",1,1
"315",3,12
"316",0,0
"317",0,0
"318",0,0
"319",0,0
"320",0,0
"321",0,0
"322",0,0
"323",1,1
"324",0,0
"325",6,144
"326",1,2
"327",0,0
"328",0,0
"329",0,0
"330",0,0
"331",0,0
"332",1,1
"333",0,0
"334",0,0
"335",1,1
"336",0,0
"337",0,0
"338",0,0
"339",0,0
"340",0,0
"341",0,0
"342",5,42
"343",1,1
"344",1,1
"345",3,49
"346",0,0
"347",0,0
"348",0,0
"349",0,0
"350",0,0
"351",1,1
"352",1,1
"353",0,0
"354",2,2
"355",5,6
"356",0,0
"357",0,0
"358",0,0
"359",0,0
"360",0,0
"361",0,0
"362",0,0
"363",2,10
"364",2,26
"365",4,18
"366",1,4
"367",0,0
"368",0,0
"369",0,0
"370",0,0
"371",1,2
"372",5,49
"373",3,11
"374",8,95
"375",11,94
"376",1,2
"377",0,0
"378",0,0
"379",0,0
"380",0,0
"381",3,42
"382",1,11
"383",1,7
"384",0,0
"385",1,2
"386",1,1
"387",0,0
"388",0,0
"389",0,0
"390",0,0
"391",0,0
"392",1,11
"393",0,0
"394",1,1
"395",2,21
"396",0,0
"397",0,0
"398",0,0
"399",0,0
"400",0,0
"401",0,0
"402",2,4
"403",0,0
"404",0,0
"405",0,0
"406",0,0
"407",0,0
"408",0,0
"409",0,0
"410",0,0
"411",0,0
"412",0,0
"413",1,1
"414",1,17
"415",1,3
"416",0,0
"417",0,0
"418",0,0
"419",0,0
"420",0,0
"421",0,0
"422",1,7
"423",2,5
"424",1,1
"425",0,0
"426",0,0
"427",0,0
"428",0,0
"429",0,0
"430",0,0
"431",0,0
"432",0,0
"433",2,33
"434",0,0
"435",0,0
"436",0,0
"437",0,0
"438",0,0
"439",0,0
"440",0,0
"441",0,0
"442",0,0
"443",1,55
"444",1,1
"445",0,0
"446",0,0
"447",0,0
"448",0,0
"449",0,0
"450",0,0
"451",0,0
"452",0,0
"453",0,0
"454",0,0
"455",0,0
"456",0,0
"457",0,0
"458",0,0
"459",0,0
"460",0,0
"461",0,0
"462",0,0
"463",0,0
"464",0,0
"465",0,0
"466",0,0
"467",0,0
"468",0,0
"469",0,0
"470",0,0
"471",0,0
"472",0,0
"473",0,0
"474",0,0
"475",0,0
"476",0,0
"477",0,0
"478",0,0
"479",0,0
"480",0,0
"481",0,0
"482",0,0
"483",0,0
"484",0,0
"485",0,0
"486",0,0
"487",0,0
"488",0,0
"489",0,0
"490",0,0
"491",0,0
"492",0,0
"493",0,0
"494",0,0
"495",0,0
"496",0,0
"497",0,0
"498",0,0
"499",0,0
"500",0,0
