"","n_obs","n_total"
"1",0,0
"2",0,0
"3",0,0
"4",0,0
"5",0,0
"6",0,0
"7",0,0
"8",0,0
"9",0,0
"10",0,0
"11",0,0
"12",0,0
"13",0,0
"14",0,0
"15",0,0
"16",2,3
"17",1,3
"18",0,0
"19",0,0
"20",0,0
"21",0,0
"22",0,0
"23",0,0
"24",2,2
"25",0,0
"26",5,29
"27",2,4
"28",0,0
"29",1,4
"30",4,13
"31",0,0
"32",0,0
"33",0,0
"34",0,0
"35",1,1
"36",4,7
"37",3,4
"38",3,5
"39",0,0
"40",2,6
"41",0,0
"42",0,0
"43",0,0
"44",0,0
"45",1,9
"46",1,1
"47",1,1
"48",8,16
"49",1,10
"50",1,2
"51",0,0
"52",0,0
"53",0,0
"54",0,0
"55",2,4
"56",1,1
"57",0,0
"58",4,10
"59",2,11
"60",1,10
"61",0,0
"62",0,0
"63",0,0
"64",2,11
"65",3,11
"66",0,0
"67",0,0
"68",2,3
"69",3,13
"70",7,23
"71",0,0
"72",0,0
"73",0,0
"74",0,0
"75",1,3
"76",1,6
"77",1,1
"78",3,5
"79",1,1
"80",1,2
"81",0,0
"82",0,0
"83",0,0
"84",1,3
"85",1,3
"86",0,0
"87",1,1
"88",6,14
"89",2,5
"90",2,6
"91",0,0
"92",0,0
"93",0,0
"94",0,0
"95",0,0
"96",0,0
"97",3,12
"98",1,3
"99",0,0
"100",2,4
"101",0,0
"102",0,0
"103",0,0
"104",0,0
"105",0,0
"106",0,0
"107",0,0
"108",1,1
"109",3,7
"110",3,7
"111",0,0
"112",0,0
"113",0,0
"114",0,0
"115",0,0
"116",0,0
"117",0,0
"118",0,0
"119",1,1
"120",0,0
"121",0,0
"122",0,0
"123",0,0
"124",0,0
"125",0,0
"126",0,0
"127",0,0
"128",5,15
"129",2,5
"130",0,0
"131",0,0
"132",0,0
"133",0,0
"134",0,0
"135",0,0
"136",0,0
"137",2,6
"138",2,8
"139",1,9
"140",0,0
"141",0,0
"142",0,0
"143",0,0
"144",0,0
"145",0,0
"146",4,15
"147",1,5
"148",5,11
"149",1,1
"150",3,5
"151",0,0
"152",0,0
"153",0,0
"154",0,0
"155",0,0
"156",1,5
"157",1,1
"158",1,4
"159",0,0
"160",0,0
"161",0,0
"162",0,0
"163",0,0
"164",0,0
"165",8,30
"166",0,0
"167",1,5
"168",3,6
"169",2,2
"170",3,15
"171",0,0
"172",0,0
"173",0,0
"174",0,0
"175",1,8
"176",6,21
"177",2,5
"178",3,9
"179",0,0
"180",1,2
"181",0,0
"182",0,0
"183",0,0
"184",0,0
"185",2,3
"186",6,19
"187",6,8
"188",4,16
"189",2,8
"190",0,0
"191",0,0
"192",0,0
"193",0,0
"194",0,0
"195",1,2
"196",5,13
"197",6,21
"198",3,10
"199",0,0
"200",1,3
"201",0,0
"202",0,0
"203",0,0
"204",0,0
"205",5,12
"206",4,6
"207",8,32
"208",1,1
"209",3,6
"210",2,4
"211",0,0
"212",0,0
"213",0,0
"214",0,0
"215",0,0
"216",1,1
"217",0,0
"218",0,0
"219",0,0
"220",0,0
"221",0,0
"222",0,0
"223",0,0
"224",1,2
"225",0,0
"226",2,2
"227",7,12
"228",3,5
"229",0,0
"230",0,0
"231",0,0
"232",0,0
"233",0,0
"234",0,0
"235",0,0
"236",3,11
"237",2,9
"238",0,0
"239",1,1
"240",0,0
"241",0,0
"242",0,0
"243",0,0
"244",3,5
"245",14,28
"246",4,12
"247",3,12
"248",3,9
"249",1,5
"250",0,0
"251",0,0
"252",0,0
"253",1,1
"254",1,2
"255",5,7
"256",7,8
"257",2,3
"258",0,0
"259",0,0
"260",0,0
"261",0,0
"262",0,0
"263",1,2
"264",6,9
"265",3,7
"266",7,10
"267",7,10
"268",1,2
"269",0,0
"270",0,0
"271",0,0
"272",0,0
"273",4,16
"274",0,0
"275",9,17
"276",9,16
"277",8,19
"278",0,0
"279",0,0
"280",0,0
"281",0,0
"282",0,0
"283",2,2
"284",7,14
"285",7,8
"286",4,4
"287",1,2
"288",0,0
"289",0,0
"290",0,0
"291",0,0
"292",1,1
"293",5,9
"294",4,8
"295",5,8
"296",4,9
"297",2,2
"298",0,0
"299",0,0
"300",0,0
"301",0,0
"302",4,12
"303",5,6
"304",1,1
"305",13,28
"306",0,0
"307",1,1
"308",0,0
"309",0,0
"310",0,0
"311",0,0
"312",1,5
"313",19,57
"314",10,27
"315",13,21
"316",1,1
"317",0,0
"318",0,0
"319",0,0
"320",0,0
"321",0,0
"322",2,2
"323",5,11
"324",7,11
"325",0,0
"326",1,2
"327",0,0
"328",0,0
"329",0,0
"330",0,0
"331",0,0
"332",10,27
"333",10,14
"334",3,7
"335",0,0
"336",2,2
"337",0,0
"338",0,0
"339",0,0
"340",0,0
"341",0,0
"342",4,8
"343",9,12
"344",2,3
"345",6,10
"346",6,13
"347",0,0
"348",0,0
"349",0,0
"350",0,0
"351",0,0
"352",4,9
"353",12,22
"354",12,19
"355",2,2
"356",3,6
"357",0,0
"358",0,0
"359",0,0
"360",0,0
"361",2,2
"362",0,0
"363",0,0
"364",4,5
"365",0,0
"366",3,8
"367",0,0
"368",0,0
"369",0,0
"370",0,0
"371",3,6
"372",0,0
"373",5,8
"374",1,2
"375",5,14
"376",12,39
"377",0,0
"378",0,0
"379",0,0
"380",0,0
"381",3,11
"382",2,3
"383",2,2
"384",1,2
"385",4,7
"386",0,0
"387",0,0
"388",0,0
"389",0,0
"390",0,0
"391",2,2
"392",6,8
"393",2,5
"394",4,9
"395",9,34
"396",2,4
"397",0,0
"398",0,0
"399",0,0
"400",0,0
"401",0,0
"402",1,1
"403",1,1
"404",4,11
"405",8,32
"406",0,0
"407",0,0
"408",0,0
"409",0,0
"410",0,0
"411",3,8
"412",2,2
"413",2,7
"414",0,0
"415",18,51
"416",0,0
"417",0,0
"418",0,0
"419",0,0
"420",0,0
"421",4,19
"422",2,12
"423",5,16
"424",2,2
"425",11,30
"426",0,0
"427",0,0
"428",0,0
"429",0,0
"430",0,0
"431",0,0
"432",3,10
"433",1,4
"434",0,0
"435",0,0
"436",0,0
"437",0,0
"438",0,0
"439",0,0
"440",0,0
"441",0,0
"442",0,0
"443",3,10
"444",5,9
"445",0,0
"446",0,0
"447",0,0
"448",0,0
"449",0,0
"450",0,0
"451",0,0
"452",0,0
"453",1,3
"454",1,3
"455",0,0
"456",0,0
"457",0,0
"458",0,0
"459",0,0
"460",0,0
"461",0,0
"462",0,0
"463",0,0
"464",0,0
"465",0,0
"466",0,0
"467",0,0
"468",0,0
"469",0,0
"470",0,0
"471",0,0
"472",0,0
"473",0,0
"474",0,0
"475",0,0
"476",0,0
"477",0,0
"478",0,0
"479",0,0
"480",0,0
"481",0,0
"482",0,0
"483",0,0
"484",0,0
"485",0,0
"486",0,0
"487",0,0
"488",0,0
"489",0,0
"490",0,0
"491",0,0
"492",0,0
"493",0,0
"494",0,0
"495",0,0
"496",0,0
"497",0,0
"498",0,0
"499",0,0
"500",0,0
