"","n_obs","n_total"
"1",0,0
"2",0,0
"3",0,0
"4",0,0
"5",0,0
"6",0,0
"7",0,0
"8",0,0
"9",0,0
"10",0,0
"11",0,0
"12",0,0
"13",0,0
"14",0,0
"15",0,0
"16",0,0
"17",4,7
"18",0,0
"19",0,0
"20",0,0
"21",0,0
"22",0,0
"23",0,0
"24",0,0
"25",1,1
"26",2,4
"27",7,12
"28",2,3
"29",0,0
"30",0,0
"31",0,0
"32",0,0
"33",0,0
"34",4,5
"35",0,0
"36",1,1
"37",8,8
"38",2,2
"39",1,1
"40",0,0
"41",0,0
"42",0,0
"43",0,0
"44",0,0
"45",2,2
"46",0,0
"47",3,4
"48",3,5
"49",0,0
"50",2,3
"51",0,0
"52",0,0
"53",0,0
"54",0,0
"55",5,7
"56",1,2
"57",4,6
"58",0,0
"59",0,0
"60",12,37
"61",0,0
"62",0,0
"63",0,0
"64",1,3
"65",1,2
"66",4,8
"67",0,0
"68",5,5
"69",9,10
"70",3,4
"71",0,0
"72",0,0
"73",0,0
"74",0,0
"75",3,6
"76",3,3
"77",3,4
"78",3,4
"79",2,5
"80",6,9
"81",0,0
"82",0,0
"83",0,0
"84",3,7
"85",2,4
"86",4,6
"87",1,2
"88",3,3
"89",6,9
"90",0,0
"91",0,0
"92",0,0
"93",0,0
"94",0,0
"95",0,0
"96",0,0
"97",3,4
"98",0,0
"99",8,18
"100",3,5
"101",0,0
"102",0,0
"103",0,0
"104",0,0
"105",0,0
"106",0,0
"107",3,4
"108",0,0
"109",1,2
"110",3,5
"111",0,0
"112",0,0
"113",0,0
"114",0,0
"115",0,0
"116",0,0
"117",1,1
"118",2,2
"119",3,4
"120",3,3
"121",0,0
"122",0,0
"123",0,0
"124",0,0
"125",0,0
"126",0,0
"127",4,12
"128",0,0
"129",1,1
"130",1,3
"131",0,0
"132",0,0
"133",0,0
"134",0,0
"135",0,0
"136",0,0
"137",3,4
"138",1,1
"139",0,0
"140",0,0
"141",0,0
"142",0,0
"143",0,0
"144",0,0
"145",0,0
"146",3,5
"147",2,2
"148",2,2
"149",3,4
"150",3,3
"151",0,0
"152",0,0
"153",0,0
"154",0,0
"155",4,10
"156",0,0
"157",2,3
"158",1,1
"159",4,8
"160",1,7
"161",0,0
"162",0,0
"163",0,0
"164",0,0
"165",3,4
"166",2,2
"167",5,7
"168",0,0
"169",0,0
"170",3,3
"171",0,0
"172",0,0
"173",0,0
"174",0,0
"175",0,0
"176",4,8
"177",6,8
"178",4,5
"179",5,6
"180",4,4
"181",0,0
"182",0,0
"183",0,0
"184",0,0
"185",3,4
"186",0,0
"187",4,5
"188",7,8
"189",9,18
"190",0,0
"191",0,0
"192",0,0
"193",0,0
"194",0,0
"195",2,2
"196",0,0
"197",6,9
"198",4,7
"199",2,2
"200",0,0
"201",0,0
"202",0,0
"203",0,0
"204",0,0
"205",1,3
"206",4,4
"207",4,4
"208",0,0
"209",1,1
"210",0,0
"211",0,0
"212",0,0
"213",0,0
"214",0,0
"215",1,1
"216",6,20
"217",5,15
"218",0,0
"219",6,6
"220",0,0
"221",0,0
"222",0,0
"223",0,0
"224",3,3
"225",1,1
"226",7,10
"227",5,5
"228",2,2
"229",1,1
"230",0,0
"231",0,0
"232",0,0
"233",0,0
"234",3,5
"235",3,4
"236",1,1
"237",4,8
"238",2,2
"239",0,0
"240",0,0
"241",0,0
"242",0,0
"243",5,13
"244",2,2
"245",9,10
"246",2,4
"247",3,5
"248",3,3
"249",0,0
"250",0,0
"251",0,0
"252",0,0
"253",2,2
"254",8,17
"255",2,2
"256",4,7
"257",3,4
"258",0,0
"259",0,0
"260",0,0
"261",0,0
"262",0,0
"263",1,2
"264",2,2
"265",4,11
"266",13,23
"267",7,16
"268",0,0
"269",0,0
"270",0,0
"271",0,0
"272",0,0
"273",0,0
"274",1,2
"275",1,1
"276",2,2
"277",0,0
"278",0,0
"279",0,0
"280",0,0
"281",0,0
"282",0,0
"283",3,4
"284",0,0
"285",5,5
"286",1,2
"287",1,2
"288",0,0
"289",0,0
"290",0,0
"291",0,0
"292",0,0
"293",2,2
"294",0,0
"295",1,1
"296",1,2
"297",1,4
"298",0,0
"299",0,0
"300",0,0
"301",0,0
"302",1,1
"303",0,0
"304",2,2
"305",4,4
"306",1,2
"307",0,0
"308",0,0
"309",0,0
"310",0,0
"311",0,0
"312",8,14
"313",1,6
"314",8,14
"315",11,36
"316",2,2
"317",0,0
"318",0,0
"319",0,0
"320",0,0
"321",0,0
"322",4,10
"323",5,6
"324",1,1
"325",3,8
"326",1,3
"327",0,0
"328",0,0
"329",0,0
"330",0,0
"331",0,0
"332",0,0
"333",0,0
"334",3,3
"335",1,4
"336",0,0
"337",0,0
"338",0,0
"339",0,0
"340",0,0
"341",0,0
"342",5,11
"343",1,5
"344",0,0
"345",2,5
"346",2,4
"347",0,0
"348",0,0
"349",0,0
"350",0,0
"351",2,5
"352",7,9
"353",1,1
"354",0,0
"355",0,0
"356",0,0
"357",0,0
"358",0,0
"359",0,0
"360",0,0
"361",3,13
"362",3,13
"363",2,3
"364",3,4
"365",5,16
"366",3,9
"367",0,0
"368",0,0
"369",0,0
"370",0,0
"371",5,33
"372",0,0
"373",0,0
"374",4,8
"375",17,49
"376",0,0
"377",0,0
"378",0,0
"379",0,0
"380",0,0
"381",1,5
"382",0,0
"383",1,1
"384",1,1
"385",0,0
"386",0,0
"387",0,0
"388",0,0
"389",0,0
"390",0,0
"391",9,45
"392",1,1
"393",3,7
"394",4,6
"395",0,0
"396",0,0
"397",0,0
"398",0,0
"399",0,0
"400",0,0
"401",5,10
"402",6,14
"403",6,25
"404",4,10
"405",0,0
"406",0,0
"407",0,0
"408",0,0
"409",0,0
"410",0,0
"411",1,1
"412",7,17
"413",1,1
"414",6,26
"415",0,0
"416",0,0
"417",0,0
"418",0,0
"419",0,0
"420",0,0
"421",1,1
"422",4,10
"423",1,1
"424",4,11
"425",1,1
"426",0,0
"427",0,0
"428",0,0
"429",0,0
"430",0,0
"431",0,0
"432",2,6
"433",2,5
"434",0,0
"435",1,2
"436",0,0
"437",0,0
"438",0,0
"439",0,0
"440",0,0
"441",0,0
"442",0,0
"443",1,3
"444",2,2
"445",0,0
"446",0,0
"447",0,0
"448",0,0
"449",0,0
"450",0,0
"451",0,0
"452",0,0
"453",1,2
"454",1,2
"455",0,0
"456",0,0
"457",0,0
"458",0,0
"459",0,0
"460",0,0
"461",0,0
"462",0,0
"463",0,0
"464",0,0
"465",0,0
"466",0,0
"467",0,0
"468",0,0
"469",0,0
"470",0,0
"471",0,0
"472",0,0
"473",0,0
"474",0,0
"475",0,0
"476",0,0
"477",0,0
"478",0,0
"479",0,0
"480",0,0
"481",0,0
"482",0,0
"483",0,0
"484",0,0
"485",0,0
"486",0,0
"487",0,0
"488",0,0
"489",0,0
"490",0,0
"491",0,0
"492",0,0
"493",0,0
"494",0,0
"495",0,0
"496",0,0
"497",0,0
"498",0,0
"499",0,0
"500",0,0
