"","n_obs","n_total"
"1",0,0
"2",0,0
"3",0,0
"4",0,0
"5",0,0
"6",1,1
"7",0,0
"8",0,0
"9",0,0
"10",0,0
"11",0,0
"12",0,0
"13",0,0
"14",0,0
"15",1,1
"16",1,1
"17",0,0
"18",0,0
"19",0,0
"20",0,0
"21",0,0
"22",0,0
"23",0,0
"24",1,1
"25",1,1
"26",3,3
"27",1,1
"28",0,0
"29",2,2
"30",0,0
"31",0,0
"32",0,0
"33",0,0
"34",1,1
"35",2,2
"36",2,2
"37",2,2
"38",4,4
"39",1,1
"40",1,1
"41",0,0
"42",0,0
"43",0,0
"44",2,3
"45",10,10
"46",6,7
"47",3,3
"48",2,2
"49",9,11
"50",2,2
"51",0,0
"52",0,0
"53",0,0
"54",2,3
"55",3,3
"56",6,6
"57",6,7
"58",5,5
"59",3,3
"60",1,1
"61",0,0
"62",0,0
"63",0,0
"64",0,0
"65",2,3
"66",1,1
"67",2,2
"68",9,11
"69",4,4
"70",1,1
"71",0,0
"72",0,0
"73",0,0
"74",2,3
"75",0,0
"76",1,1
"77",0,0
"78",14,14
"79",0,0
"80",3,3
"81",0,0
"82",0,0
"83",0,0
"84",1,1
"85",0,0
"86",1,1
"87",0,0
"88",1,1
"89",0,0
"90",7,9
"91",0,0
"92",0,0
"93",0,0
"94",0,0
"95",0,0
"96",0,0
"97",5,5
"98",0,0
"99",8,9
"100",9,10
"101",0,0
"102",0,0
"103",0,0
"104",0,0
"105",0,0
"106",0,0
"107",1,1
"108",1,1
"109",4,5
"110",8,13
"111",0,0
"112",0,0
"113",0,0
"114",0,0
"115",0,0
"116",0,0
"117",0,0
"118",0,0
"119",1,1
"120",0,0
"121",0,0
"122",0,0
"123",0,0
"124",0,0
"125",0,0
"126",0,0
"127",2,2
"128",1,1
"129",5,7
"130",6,7
"131",0,0
"132",0,0
"133",0,0
"134",0,0
"135",0,0
"136",0,0
"137",4,4
"138",0,0
"139",11,13
"140",5,5
"141",0,0
"142",0,0
"143",0,0
"144",0,0
"145",0,0
"146",2,2
"147",1,1
"148",2,3
"149",6,7
"150",2,2
"151",0,0
"152",0,0
"153",0,0
"154",0,0
"155",0,0
"156",2,2
"157",2,3
"158",3,4
"159",3,3
"160",4,5
"161",0,0
"162",0,0
"163",0,0
"164",0,0
"165",2,2
"166",2,2
"167",2,3
"168",2,2
"169",1,1
"170",0,0
"171",0,0
"172",0,0
"173",0,0
"174",0,0
"175",1,1
"176",3,3
"177",4,5
"178",2,3
"179",5,6
"180",1,1
"181",0,0
"182",0,0
"183",0,0
"184",0,0
"185",3,4
"186",2,2
"187",1,1
"188",2,3
"189",2,2
"190",0,0
"191",0,0
"192",0,0
"193",0,0
"194",0,0
"195",0,0
"196",1,2
"197",3,3
"198",0,0
"199",1,1
"200",1,1
"201",0,0
"202",0,0
"203",0,0
"204",0,0
"205",6,11
"206",12,16
"207",3,4
"208",1,1
"209",1,1
"210",0,0
"211",0,0
"212",0,0
"213",0,0
"214",0,0
"215",0,0
"216",3,3
"217",4,4
"218",6,7
"219",11,12
"220",0,0
"221",0,0
"222",0,0
"223",0,0
"224",0,0
"225",1,1
"226",2,2
"227",1,1
"228",8,10
"229",14,17
"230",0,0
"231",0,0
"232",0,0
"233",0,0
"234",2,2
"235",1,2
"236",0,0
"237",1,1
"238",2,2
"239",8,10
"240",0,0
"241",0,0
"242",0,0
"243",0,0
"244",0,0
"245",0,0
"246",2,2
"247",0,0
"248",0,0
"249",2,2
"250",0,0
"251",0,0
"252",0,0
"253",0,0
"254",2,2
"255",0,0
"256",2,2
"257",0,0
"258",4,4
"259",0,0
"260",0,0
"261",0,0
"262",0,0
"263",0,0
"264",0,0
"265",1,1
"266",0,0
"267",2,2
"268",8,8
"269",0,0
"270",0,0
"271",0,0
"272",0,0
"273",0,0
"274",0,0
"275",0,0
"276",0,0
"277",3,4
"278",1,1
"279",0,0
"280",0,0
"281",0,0
"282",0,0
"283",0,0
"284",0,0
"285",1,1
"286",1,1
"287",0,0
"288",0,0
"289",0,0
"290",0,0
"291",0,0
"292",0,0
"293",0,0
"294",0,0
"295",0,0
"296",2,2
"297",4,5
"298",0,0
"299",0,0
"300",0,0
"301",0,0
"302",0,0
"303",0,0
"304",0,0
"305",1,1
"306",8,9
"307",1,1
"308",0,0
"309",0,0
"310",0,0
"311",0,0
"312",0,0
"313",0,0
"314",0,0
"315",2,3
"316",2,2
"317",0,0
"318",0,0
"319",0,0
"320",0,0
"321",0,0
"322",0,0
"323",0,0
"324",1,1
"325",1,1
"326",1,1
"327",0,0
"328",0,0
"329",0,0
"330",0,0
"331",0,0
"332",0,0
"333",0,0
"334",0,0
"335",0,0
"336",1,1
"337",0,0
"338",0,0
"339",0,0
"340",0,0
"341",0,0
"342",0,0
"343",0,0
"344",1,1
"345",0,0
"346",0,0
"347",0,0
"348",0,0
"349",0,0
"350",0,0
"351",1,1
"352",2,2
"353",1,1
"354",2,2
"355",0,0
"356",0,0
"357",0,0
"358",0,0
"359",0,0
"360",0,0
"361",0,0
"362",0,0
"363",5,5
"364",0,0
"365",0,0
"366",1,1
"367",0,0
"368",0,0
"369",0,0
"370",0,0
"371",1,1
"372",1,1
"373",2,2
"374",2,2
"375",2,2
"376",1,1
"377",0,0
"378",0,0
"379",0,0
"380",0,0
"381",0,0
"382",0,0
"383",0,0
"384",0,0
"385",5,6
"386",1,1
"387",0,0
"388",0,0
"389",0,0
"390",0,0
"391",1,1
"392",0,0
"393",1,1
"394",2,3
"395",1,2
"396",0,0
"397",0,0
"398",0,0
"399",0,0
"400",0,0
"401",0,0
"402",0,0
"403",0,0
"404",0,0
"405",5,7
"406",0,0
"407",0,0
"408",0,0
"409",0,0
"410",0,0
"411",0,0
"412",1,1
"413",0,0
"414",1,1
"415",4,4
"416",0,0
"417",0,0
"418",0,0
"419",0,0
"420",0,0
"421",0,0
"422",1,1
"423",0,0
"424",0,0
"425",9,9
"426",0,0
"427",0,0
"428",0,0
"429",0,0
"430",0,0
"431",0,0
"432",0,0
"433",0,0
"434",3,3
"435",6,7
"436",0,0
"437",0,0
"438",0,0
"439",0,0
"440",0,0
"441",0,0
"442",0,0
"443",1,1
"444",5,5
"445",0,0
"446",0,0
"447",0,0
"448",0,0
"449",0,0
"450",0,0
"451",0,0
"452",0,0
"453",0,0
"454",4,4
"455",2,2
"456",0,0
"457",0,0
"458",0,0
"459",0,0
"460",0,0
"461",0,0
"462",1,1
"463",0,0
"464",0,0
"465",0,0
"466",0,0
"467",0,0
"468",0,0
"469",0,0
"470",0,0
"471",0,0
"472",0,0
"473",0,0
"474",1,1
"475",0,0
"476",0,0
"477",0,0
"478",0,0
"479",0,0
"480",0,0
"481",0,0
"482",0,0
"483",1,1
"484",0,0
"485",0,0
"486",0,0
"487",0,0
"488",0,0
"489",0,0
"490",0,0
"491",0,0
"492",0,0
"493",0,0
"494",0,0
"495",0,0
"496",0,0
"497",0,0
"498",0,0
"499",0,0
"500",0,0
