"","n_obs","n_total"
"1",0,0
"2",0,0
"3",0,0
"4",0,0
"5",0,0
"6",0,0
"7",0,0
"8",0,0
"9",0,0
"10",0,0
"11",0,0
"12",0,0
"13",0,0
"14",0,0
"15",0,0
"16",1,2
"17",0,0
"18",0,0
"19",0,0
"20",2,2
"21",0,0
"22",0,0
"23",0,0
"24",3,3
"25",4,6
"26",4,4
"27",0,0
"28",0,0
"29",1,1
"30",5,13
"31",0,0
"32",0,0
"33",0,0
"34",1,4
"35",3,3
"36",5,9
"37",2,5
"38",2,6
"39",0,0
"40",5,6
"41",0,0
"42",0,0
"43",0,0
"44",6,12
"45",5,7
"46",3,7
"47",0,0
"48",3,8
"49",3,3
"50",5,15
"51",0,0
"52",0,0
"53",3,5
"54",7,22
"55",7,13
"56",10,23
"57",4,8
"58",4,6
"59",3,4
"60",4,8
"61",0,0
"62",0,0
"63",3,11
"64",7,15
"65",5,10
"66",5,10
"67",0,0
"68",0,0
"69",3,4
"70",2,4
"71",0,0
"72",0,0
"73",1,3
"74",0,0
"75",3,3
"76",4,5
"77",1,1
"78",0,0
"79",1,1
"80",2,7
"81",0,0
"82",0,0
"83",0,0
"84",1,1
"85",1,1
"86",3,3
"87",0,0
"88",0,0
"89",1,5
"90",1,1
"91",0,0
"92",0,0
"93",0,0
"94",0,0
"95",0,0
"96",0,0
"97",1,1
"98",2,5
"99",1,1
"100",5,10
"101",0,0
"102",0,0
"103",0,0
"104",0,0
"105",0,0
"106",0,0
"107",2,7
"108",2,4
"109",4,7
"110",3,15
"111",0,0
"112",0,0
"113",0,0
"114",0,0
"115",0,0
"116",0,0
"117",2,4
"118",2,2
"119",2,2
"120",1,1
"121",0,0
"122",0,0
"123",0,0
"124",0,0
"125",0,0
"126",0,0
"127",1,2
"128",2,8
"129",1,1
"130",3,7
"131",0,0
"132",0,0
"133",0,0
"134",0,0
"135",0,0
"136",0,0
"137",1,3
"138",0,0
"139",4,18
"140",1,3
"141",0,0
"142",0,0
"143",0,0
"144",0,0
"145",0,0
"146",0,0
"147",3,5
"148",4,5
"149",1,1
"150",1,1
"151",0,0
"152",0,0
"153",0,0
"154",0,0
"155",1,2
"156",0,0
"157",4,7
"158",3,6
"159",0,0
"160",5,17
"161",0,0
"162",0,0
"163",0,0
"164",0,0
"165",2,3
"166",2,3
"167",1,1
"168",1,2
"169",3,6
"170",3,8
"171",0,0
"172",0,0
"173",0,0
"174",0,0
"175",2,2
"176",1,1
"177",5,8
"178",2,7
"179",3,10
"180",1,1
"181",0,0
"182",0,0
"183",0,0
"184",0,0
"185",1,2
"186",2,4
"187",1,1
"188",0,0
"189",1,5
"190",2,4
"191",0,0
"192",0,0
"193",0,0
"194",0,0
"195",1,1
"196",2,4
"197",1,2
"198",3,11
"199",0,0
"200",0,0
"201",0,0
"202",0,0
"203",0,0
"204",0,0
"205",0,0
"206",0,0
"207",2,4
"208",2,5
"209",5,19
"210",2,2
"211",0,0
"212",0,0
"213",0,0
"214",0,0
"215",0,0
"216",0,0
"217",1,4
"218",3,5
"219",2,9
"220",0,0
"221",0,0
"222",0,0
"223",1,2
"224",1,1
"225",2,5
"226",4,5
"227",1,1
"228",3,7
"229",4,6
"230",0,0
"231",0,0
"232",0,0
"233",1,1
"234",1,1
"235",0,0
"236",2,2
"237",1,1
"238",2,3
"239",0,0
"240",0,0
"241",0,0
"242",0,0
"243",0,0
"244",1,1
"245",2,3
"246",1,3
"247",4,5
"248",2,2
"249",2,7
"250",0,0
"251",0,0
"252",0,0
"253",0,0
"254",2,2
"255",0,0
"256",1,4
"257",2,3
"258",1,1
"259",0,0
"260",0,0
"261",0,0
"262",0,0
"263",2,3
"264",1,1
"265",2,3
"266",0,0
"267",2,6
"268",0,0
"269",0,0
"270",0,0
"271",0,0
"272",0,0
"273",1,2
"274",1,1
"275",2,2
"276",2,2
"277",1,2
"278",0,0
"279",0,0
"280",0,0
"281",0,0
"282",0,0
"283",7,9
"284",1,2
"285",0,0
"286",2,2
"287",1,1
"288",0,0
"289",0,0
"290",0,0
"291",0,0
"292",0,0
"293",1,1
"294",2,2
"295",4,5
"296",1,2
"297",2,4
"298",0,0
"299",0,0
"300",0,0
"301",0,0
"302",0,0
"303",1,1
"304",2,2
"305",6,8
"306",0,0
"307",0,0
"308",0,0
"309",0,0
"310",0,0
"311",0,0
"312",0,0
"313",1,1
"314",2,4
"315",2,3
"316",1,1
"317",0,0
"318",0,0
"319",0,0
"320",0,0
"321",0,0
"322",0,0
"323",0,0
"324",2,2
"325",2,2
"326",0,0
"327",0,0
"328",0,0
"329",0,0
"330",0,0
"331",0,0
"332",0,0
"333",0,0
"334",2,3
"335",1,2
"336",2,6
"337",0,0
"338",0,0
"339",0,0
"340",0,0
"341",0,0
"342",0,0
"343",0,0
"344",1,1
"345",1,1
"346",2,6
"347",0,0
"348",0,0
"349",0,0
"350",0,0
"351",0,0
"352",0,0
"353",0,0
"354",0,0
"355",0,0
"356",0,0
"357",0,0
"358",0,0
"359",0,0
"360",0,0
"361",1,1
"362",0,0
"363",2,2
"364",1,1
"365",0,0
"366",4,4
"367",0,0
"368",0,0
"369",0,0
"370",0,0
"371",1,4
"372",1,1
"373",1,1
"374",2,8
"375",0,0
"376",1,1
"377",0,0
"378",0,0
"379",0,0
"380",0,0
"381",1,3
"382",0,0
"383",3,10
"384",0,0
"385",0,0
"386",0,0
"387",0,0
"388",0,0
"389",0,0
"390",0,0
"391",2,6
"392",3,9
"393",2,4
"394",2,7
"395",2,5
"396",0,0
"397",0,0
"398",0,0
"399",0,0
"400",0,0
"401",2,7
"402",1,2
"403",1,1
"404",3,4
"405",2,2
"406",0,0
"407",0,0
"408",0,0
"409",0,0
"410",0,0
"411",1,2
"412",1,1
"413",0,0
"414",0,0
"415",0,0
"416",0,0
"417",0,0
"418",0,0
"419",0,0
"420",0,0
"421",0,0
"422",1,1
"423",3,5
"424",3,3
"425",0,0
"426",0,0
"427",0,0
"428",0,0
"429",0,0
"430",0,0
"431",0,0
"432",1,3
"433",0,0
"434",1,3
"435",0,0
"436",0,0
"437",0,0
"438",0,0
"439",0,0
"440",0,0
"441",0,0
"442",0,0
"443",1,2
"444",0,0
"445",1,6
"446",0,0
"447",0,0
"448",0,0
"449",0,0
"450",0,0
"451",0,0
"452",0,0
"453",0,0
"454",1,1
"455",0,0
"456",0,0
"457",0,0
"458",0,0
"459",0,0
"460",0,0
"461",0,0
"462",0,0
"463",0,0
"464",0,0
"465",0,0
"466",0,0
"467",0,0
"468",0,0
"469",0,0
"470",0,0
"471",0,0
"472",0,0
"473",0,0
"474",0,0
"475",0,0
"476",0,0
"477",0,0
"478",0,0
"479",0,0
"480",0,0
"481",0,0
"482",0,0
"483",0,0
"484",0,0
"485",0,0
"486",0,0
"487",0,0
"488",0,0
"489",0,0
"490",0,0
"491",0,0
"492",0,0
"493",0,0
"494",0,0
"495",0,0
"496",0,0
"497",0,0
"498",0,0
"499",0,0
"500",0,0
