"","n_obs","n_total"
"1",0,0
"2",0,0
"3",0,0
"4",0,0
"5",0,0
"6",0,0
"7",0,0
"8",0,0
"9",0,0
"10",0,0
"11",0,0
"12",0,0
"13",0,0
"14",0,0
"15",0,0
"16",3,16
"17",2,5
"18",0,0
"19",0,0
"20",4,13
"21",0,0
"22",0,0
"23",0,0
"24",4,19
"25",6,23
"26",5,31
"27",9,31
"28",3,16
"29",3,13
"30",16,56
"31",0,0
"32",0,0
"33",0,0
"34",6,27
"35",8,32
"36",6,28
"37",13,55
"38",11,43
"39",7,25
"40",28,97
"41",0,0
"42",0,0
"43",0,0
"44",10,56
"45",20,101
"46",14,55
"47",20,69
"48",10,38
"49",17,89
"50",24,107
"51",0,0
"52",0,0
"53",0,0
"54",15,58
"55",9,51
"56",10,39
"57",13,41
"58",9,23
"59",8,27
"60",19,72
"61",0,0
"62",0,0
"63",10,39
"64",16,82
"65",4,14
"66",6,20
"67",1,2
"68",3,8
"69",9,21
"70",13,48
"71",0,0
"72",0,0
"73",6,31
"74",15,49
"75",15,44
"76",11,41
"77",6,24
"78",2,2
"79",13,48
"80",15,53
"81",0,0
"82",0,0
"83",0,0
"84",8,39
"85",3,7
"86",4,11
"87",9,23
"88",8,27
"89",12,40
"90",18,61
"91",0,0
"92",0,0
"93",0,0
"94",0,0
"95",0,0
"96",0,0
"97",2,7
"98",11,31
"99",18,75
"100",16,84
"101",0,0
"102",0,0
"103",0,0
"104",0,0
"105",0,0
"106",0,0
"107",5,29
"108",16,72
"109",13,74
"110",23,117
"111",0,0
"112",0,0
"113",0,0
"114",0,0
"115",0,0
"116",0,0
"117",12,58
"118",5,14
"119",6,21
"120",30,123
"121",0,0
"122",0,0
"123",0,0
"124",0,0
"125",0,0
"126",0,0
"127",6,14
"128",7,24
"129",5,16
"130",21,130
"131",0,0
"132",0,0
"133",0,0
"134",0,0
"135",0,0
"136",0,0
"137",10,49
"138",6,18
"139",9,32
"140",3,9
"141",0,0
"142",0,0
"143",0,0
"144",0,0
"145",0,0
"146",4,18
"147",13,42
"148",9,37
"149",11,62
"150",13,46
"151",0,0
"152",0,0
"153",0,0
"154",0,0
"155",2,10
"156",10,40
"157",12,39
"158",10,44
"159",7,29
"160",16,51
"161",0,0
"162",0,0
"163",0,0
"164",0,0
"165",2,4
"166",10,40
"167",13,49
"168",13,37
"169",7,29
"170",9,61
"171",0,0
"172",0,0
"173",0,0
"174",0,0
"175",10,61
"176",10,46
"177",12,43
"178",13,47
"179",6,21
"180",15,75
"181",0,0
"182",0,0
"183",0,0
"184",0,0
"185",9,44
"186",7,31
"187",25,86
"188",23,125
"189",18,95
"190",5,21
"191",0,0
"192",0,0
"193",0,0
"194",0,0
"195",3,6
"196",11,38
"197",25,98
"198",21,136
"199",27,108
"200",8,43
"201",0,0
"202",0,0
"203",0,0
"204",0,0
"205",0,0
"206",16,52
"207",14,48
"208",10,41
"209",18,101
"210",2,8
"211",0,0
"212",0,0
"213",0,0
"214",0,0
"215",0,0
"216",22,74
"217",11,35
"218",9,42
"219",18,83
"220",0,0
"221",0,0
"222",0,0
"223",2,4
"224",10,26
"225",9,26
"226",15,56
"227",14,57
"228",11,23
"229",4,14
"230",0,0
"231",0,0
"232",0,0
"233",3,5
"234",6,18
"235",5,18
"236",5,30
"237",10,44
"238",12,56
"239",9,42
"240",0,0
"241",0,0
"242",0,0
"243",2,8
"244",5,16
"245",4,13
"246",4,9
"247",5,18
"248",25,96
"249",12,35
"250",0,0
"251",0,0
"252",0,0
"253",11,27
"254",9,30
"255",4,14
"256",0,0
"257",5,19
"258",1,1
"259",0,0
"260",0,0
"261",0,0
"262",0,0
"263",4,13
"264",4,15
"265",10,24
"266",8,21
"267",6,21
"268",2,9
"269",0,0
"270",0,0
"271",0,0
"272",0,0
"273",3,6
"274",2,7
"275",3,7
"276",4,10
"277",11,36
"278",0,0
"279",0,0
"280",0,0
"281",0,0
"282",0,0
"283",11,30
"284",7,27
"285",6,20
"286",8,25
"287",2,7
"288",0,0
"289",0,0
"290",0,0
"291",0,0
"292",0,0
"293",17,61
"294",5,14
"295",5,14
"296",7,25
"297",5,13
"298",0,0
"299",0,0
"300",0,0
"301",0,0
"302",1,2
"303",8,35
"304",11,37
"305",9,25
"306",5,17
"307",3,13
"308",0,0
"309",0,0
"310",0,0
"311",0,0
"312",3,8
"313",6,23
"314",4,13
"315",10,50
"316",6,23
"317",0,0
"318",0,0
"319",0,0
"320",0,0
"321",0,0
"322",4,20
"323",7,21
"324",9,32
"325",3,12
"326",7,27
"327",0,0
"328",0,0
"329",0,0
"330",0,0
"331",0,0
"332",0,0
"333",2,13
"334",5,24
"335",3,12
"336",2,10
"337",0,0
"338",0,0
"339",0,0
"340",0,0
"341",1,3
"342",0,0
"343",5,18
"344",1,6
"345",4,14
"346",6,21
"347",0,0
"348",0,0
"349",0,0
"350",0,0
"351",0,0
"352",0,0
"353",11,42
"354",2,16
"355",6,34
"356",3,14
"357",0,0
"358",0,0
"359",0,0
"360",0,0
"361",1,3
"362",7,35
"363",11,53
"364",11,38
"365",3,19
"366",6,17
"367",0,0
"368",0,0
"369",0,0
"370",0,0
"371",8,43
"372",8,23
"373",14,64
"374",8,28
"375",6,23
"376",4,17
"377",0,0
"378",0,0
"379",0,0
"380",0,0
"381",4,21
"382",2,6
"383",12,79
"384",1,3
"385",7,27
"386",3,9
"387",0,0
"388",0,0
"389",0,0
"390",0,0
"391",8,33
"392",4,22
"393",22,100
"394",15,76
"395",3,13
"396",4,16
"397",0,0
"398",0,0
"399",0,0
"400",0,0
"401",6,37
"402",11,40
"403",18,78
"404",7,34
"405",3,13
"406",0,0
"407",0,0
"408",0,0
"409",0,0
"410",0,0
"411",3,8
"412",7,29
"413",7,22
"414",0,0
"415",6,18
"416",0,0
"417",0,0
"418",0,0
"419",0,0
"420",0,0
"421",5,22
"422",5,20
"423",12,42
"424",8,37
"425",5,31
"426",0,0
"427",0,0
"428",0,0
"429",0,0
"430",0,0
"431",0,0
"432",3,13
"433",2,5
"434",2,8
"435",1,1
"436",0,0
"437",0,0
"438",0,0
"439",0,0
"440",0,0
"441",7,29
"442",4,20
"443",7,29
"444",1,1
"445",1,5
"446",0,0
"447",0,0
"448",0,0
"449",0,0
"450",0,0
"451",1,3
"452",6,27
"453",13,63
"454",9,31
"455",1,3
"456",0,0
"457",0,0
"458",0,0
"459",0,0
"460",0,0
"461",1,3
"462",12,52
"463",11,31
"464",4,11
"465",0,0
"466",0,0
"467",0,0
"468",0,0
"469",0,0
"470",0,0
"471",0,0
"472",8,38
"473",6,41
"474",10,33
"475",0,0
"476",0,0
"477",0,0
"478",0,0
"479",0,0
"480",0,0
"481",0,0
"482",1,2
"483",19,93
"484",26,112
"485",0,0
"486",0,0
"487",0,0
"488",0,0
"489",0,0
"490",0,0
"491",0,0
"492",1,3
"493",6,16
"494",6,23
"495",0,0
"496",0,0
"497",0,0
"498",0,0
"499",0,0
"500",0,0
