"","n_obs","n_total"
"1",0,0
"2",0,0
"3",0,0
"4",10,122
"5",40,609
"6",13,146
"7",0,0
"8",0,0
"9",0,0
"10",0,0
"11",0,0
"12",0,0
"13",0,0
"14",18,234
"15",13,91
"16",46,747
"17",12,217
"18",0,0
"19",0,0
"20",28,230
"21",0,0
"22",0,0
"23",0,0
"24",33,406
"25",55,633
"26",61,683
"27",36,378
"28",38,346
"29",18,114
"30",44,542
"31",0,0
"32",0,0
"33",0,0
"34",5,79
"35",27,238
"36",46,585
"37",41,441
"38",119,1381
"39",37,321
"40",55,718
"41",0,0
"42",0,0
"43",0,0
"44",5,41
"45",8,27
"46",55,818
"47",87,1098
"48",93,1321
"49",52,488
"50",53,838
"51",0,0
"52",0,0
"53",10,54
"54",22,402
"55",36,370
"56",70,963
"57",93,1074
"58",57,413
"59",101,875
"60",66,636
"61",0,0
"62",0,0
"63",3,10
"64",14,184
"65",30,439
"66",65,1057
"67",118,888
"68",70,702
"69",137,1602
"70",90,1724
"71",0,0
"72",0,0
"73",2,46
"74",49,884
"75",130,1937
"76",96,1054
"77",90,888
"78",93,853
"79",78,1387
"80",34,336
"81",0,0
"82",0,0
"83",0,0
"84",50,692
"85",99,982
"86",94,842
"87",77,632
"88",74,852
"89",12,155
"90",7,59
"91",0,0
"92",0,0
"93",0,0
"94",0,0
"95",0,0
"96",1,4
"97",104,1316
"98",53,636
"99",1,1
"100",6,39
"101",0,0
"102",0,0
"103",0,0
"104",0,0
"105",0,0
"106",0,0
"107",7,105
"108",23,178
"109",12,292
"110",11,133
"111",0,0
"112",0,0
"113",0,0
"114",0,0
"115",0,0
"116",0,0
"117",8,64
"118",48,556
"119",96,1741
"120",30,555
"121",0,0
"122",0,0
"123",0,0
"124",0,0
"125",0,0
"126",0,0
"127",21,316
"128",57,750
"129",64,992
"130",48,682
"131",0,0
"132",0,0
"133",0,0
"134",0,0
"135",0,0
"136",0,0
"137",8,65
"138",21,190
"139",3,120
"140",42,848
"141",0,0
"142",0,0
"143",0,0
"144",0,0
"145",0,0
"146",15,343
"147",54,1205
"148",53,849
"149",13,264
"150",16,147
"151",0,0
"152",0,0
"153",0,0
"154",0,0
"155",11,88
"156",21,253
"157",13,321
"158",39,765
"159",20,426
"160",57,688
"161",0,0
"162",0,0
"163",0,0
"164",0,0
"165",42,735
"166",88,1236
"167",46,591
"168",86,1987
"169",66,1289
"170",92,1640
"171",0,0
"172",0,0
"173",0,0
"174",0,0
"175",58,1208
"176",115,1709
"177",57,728
"178",47,726
"179",53,984
"180",98,1570
"181",0,0
"182",0,0
"183",0,0
"184",0,0
"185",17,293
"186",40,322
"187",97,1031
"188",2,35
"189",30,571
"190",37,472
"191",0,0
"192",0,0
"193",0,0
"194",0,0
"195",5,52
"196",32,373
"197",77,913
"198",2,14
"199",9,210
"200",15,195
"201",0,0
"202",0,0
"203",0,0
"204",0,0
"205",6,42
"206",18,139
"207",40,513
"208",2,12
"209",5,19
"210",8,132
"211",0,0
"212",0,0
"213",0,0
"214",0,0
"215",1,7
"216",16,145
"217",39,639
"218",40,683
"219",14,183
"220",0,0
"221",0,0
"222",0,0
"223",13,83
"224",125,1332
"225",100,838
"226",37,353
"227",62,683
"228",102,1316
"229",22,363
"230",0,0
"231",0,0
"232",0,0
"233",37,337
"234",85,667
"235",56,440
"236",67,509
"237",34,587
"238",70,921
"239",31,324
"240",0,0
"241",0,0
"242",0,0
"243",57,429
"244",24,178
"245",10,69
"246",21,132
"247",74,595
"248",108,1114
"249",15,137
"250",0,0
"251",0,0
"252",0,0
"253",62,470
"254",30,232
"255",3,19
"256",29,215
"257",49,437
"258",12,128
"259",0,0
"260",0,0
"261",0,0
"262",0,0
"263",44,316
"264",112,927
"265",20,109
"266",40,239
"267",46,596
"268",4,43
"269",0,0
"270",0,0
"271",0,0
"272",0,0
"273",62,533
"274",159,1313
"275",64,622
"276",34,571
"277",24,312
"278",4,48
"279",0,0
"280",0,0
"281",0,0
"282",0,0
"283",39,308
"284",91,586
"285",47,375
"286",16,115
"287",16,199
"288",1,20
"289",0,0
"290",0,0
"291",0,0
"292",0,0
"293",76,514
"294",71,470
"295",36,482
"296",6,32
"297",9,96
"298",0,0
"299",0,0
"300",0,0
"301",0,0
"302",3,3
"303",35,371
"304",22,166
"305",12,188
"306",2,4
"307",5,72
"308",0,0
"309",0,0
"310",0,0
"311",0,0
"312",37,391
"313",65,425
"314",17,206
"315",27,299
"316",0,0
"317",1,4
"318",0,0
"319",0,0
"320",0,0
"321",0,0
"322",64,571
"323",25,133
"324",23,175
"325",2,2
"326",7,24
"327",0,0
"328",0,0
"329",0,0
"330",0,0
"331",0,0
"332",34,364
"333",29,255
"334",12,107
"335",1,7
"336",5,29
"337",0,0
"338",0,0
"339",0,0
"340",0,0
"341",1,5
"342",37,481
"343",27,186
"344",11,115
"345",0,0
"346",26,299
"347",0,0
"348",0,0
"349",0,0
"350",0,0
"351",14,167
"352",51,707
"353",72,848
"354",20,255
"355",6,36
"356",25,225
"357",0,0
"358",0,0
"359",0,0
"360",0,0
"361",38,402
"362",72,882
"363",56,768
"364",48,343
"365",4,48
"366",46,390
"367",0,0
"368",0,0
"369",0,0
"370",0,0
"371",47,580
"372",41,415
"373",32,549
"374",34,401
"375",82,724
"376",50,518
"377",0,0
"378",0,0
"379",0,0
"380",0,0
"381",18,166
"382",8,83
"383",61,717
"384",14,215
"385",53,605
"386",13,128
"387",0,0
"388",0,0
"389",0,0
"390",0,0
"391",31,376
"392",46,637
"393",100,1073
"394",65,864
"395",9,107
"396",7,43
"397",0,0
"398",0,0
"399",0,0
"400",0,0
"401",14,157
"402",18,118
"403",57,747
"404",5,68
"405",9,104
"406",1,4
"407",0,0
"408",0,0
"409",0,0
"410",0,0
"411",9,67
"412",31,345
"413",19,249
"414",5,67
"415",5,44
"416",0,0
"417",0,0
"418",0,0
"419",0,0
"420",0,0
"421",1,5
"422",6,26
"423",7,57
"424",9,96
"425",9,84
"426",0,0
"427",0,0
"428",0,0
"429",0,0
"430",0,0
"431",0,0
"432",4,26
"433",6,64
"434",7,78
"435",8,55
"436",0,0
"437",0,0
"438",0,0
"439",0,0
"440",0,0
"441",1,12
"442",19,182
"443",1,14
"444",9,82
"445",2,9
"446",0,0
"447",0,0
"448",0,0
"449",0,0
"450",0,0
"451",2,28
"452",9,92
"453",11,92
"454",8,69
"455",1,2
"456",0,0
"457",0,0
"458",0,0
"459",0,0
"460",0,0
"461",3,15
"462",14,147
"463",5,59
"464",6,32
"465",0,0
"466",0,0
"467",0,0
"468",0,0
"469",0,0
"470",0,0
"471",2,40
"472",18,232
"473",20,210
"474",3,21
"475",0,0
"476",0,0
"477",0,0
"478",0,0
"479",0,0
"480",0,0
"481",0,0
"482",8,92
"483",48,487
"484",73,732
"485",0,0
"486",0,0
"487",0,0
"488",0,0
"489",0,0
"490",0,0
"491",0,0
"492",0,0
"493",24,159
"494",18,108
"495",0,0
"496",0,0
"497",0,0
"498",0,0
"499",0,0
"500",0,0
