"","n_obs","n_total"
"1",0,0
"2",0,0
"3",0,0
"4",0,0
"5",0,0
"6",0,0
"7",0,0
"8",0,0
"9",0,0
"10",0,0
"11",0,0
"12",0,0
"13",0,0
"14",0,0
"15",0,0
"16",0,0
"17",0,0
"18",0,0
"19",0,0
"20",1,2
"21",0,0
"22",0,0
"23",0,0
"24",1,1
"25",3,25
"26",2,11
"27",0,0
"28",1,1
"29",2,8
"30",3,8
"31",0,0
"32",0,0
"33",0,0
"34",2,2
"35",4,16
"36",1,1
"37",0,0
"38",1,5
"39",4,5
"40",4,11
"41",0,0
"42",0,0
"43",1,1
"44",3,5
"45",0,0
"46",6,24
"47",4,10
"48",1,1
"49",1,1
"50",5,12
"51",0,0
"52",0,0
"53",4,17
"54",2,6
"55",6,43
"56",5,29
"57",1,4
"58",5,44
"59",0,0
"60",15,58
"61",0,0
"62",0,0
"63",2,7
"64",0,0
"65",0,0
"66",3,12
"67",0,0
"68",0,0
"69",2,6
"70",4,15
"71",0,0
"72",0,0
"73",1,6
"74",1,9
"75",0,0
"76",0,0
"77",0,0
"78",0,0
"79",5,19
"80",11,39
"81",0,0
"82",0,0
"83",0,0
"84",2,6
"85",0,0
"86",0,0
"87",1,3
"88",3,11
"89",7,11
"90",4,12
"91",0,0
"92",0,0
"93",0,0
"94",0,0
"95",0,0
"96",0,0
"97",0,0
"98",7,39
"99",3,19
"100",2,6
"101",0,0
"102",0,0
"103",0,0
"104",0,0
"105",0,0
"106",0,0
"107",3,8
"108",6,11
"109",10,58
"110",4,14
"111",0,0
"112",0,0
"113",0,0
"114",0,0
"115",0,0
"116",0,0
"117",0,0
"118",0,0
"119",18,108
"120",20,106
"121",0,0
"122",0,0
"123",0,0
"124",0,0
"125",0,0
"126",0,0
"127",4,52
"128",1,2
"129",6,14
"130",7,54
"131",0,0
"132",0,0
"133",0,0
"134",0,0
"135",0,0
"136",0,0
"137",0,0
"138",1,6
"139",3,9
"140",2,8
"141",0,0
"142",0,0
"143",0,0
"144",0,0
"145",0,0
"146",0,0
"147",3,9
"148",1,21
"149",0,0
"150",0,0
"151",0,0
"152",0,0
"153",0,0
"154",0,0
"155",0,0
"156",0,0
"157",2,12
"158",0,0
"159",0,0
"160",12,60
"161",0,0
"162",0,0
"163",0,0
"164",0,0
"165",0,0
"166",4,16
"167",4,14
"168",0,0
"169",0,0
"170",7,38
"171",0,0
"172",0,0
"173",0,0
"174",0,0
"175",1,1
"176",1,1
"177",2,32
"178",5,39
"179",9,88
"180",9,47
"181",0,0
"182",0,0
"183",0,0
"184",0,0
"185",0,0
"186",1,8
"187",1,2
"188",1,1
"189",11,75
"190",6,18
"191",0,0
"192",0,0
"193",0,0
"194",0,0
"195",0,0
"196",0,0
"197",0,0
"198",2,21
"199",10,58
"200",0,0
"201",0,0
"202",0,0
"203",0,0
"204",0,0
"205",0,0
"206",2,9
"207",5,21
"208",0,0
"209",0,0
"210",0,0
"211",0,0
"212",0,0
"213",0,0
"214",0,0
"215",0,0
"216",0,0
"217",2,3
"218",2,3
"219",0,0
"220",0,0
"221",0,0
"222",0,0
"223",1,6
"224",16,61
"225",21,85
"226",18,60
"227",24,72
"228",8,32
"229",4,21
"230",0,0
"231",0,0
"232",0,0
"233",2,16
"234",0,0
"235",9,31
"236",3,10
"237",13,33
"238",5,21
"239",6,25
"240",0,0
"241",0,0
"242",0,0
"243",1,2
"244",0,0
"245",1,1
"246",5,34
"247",7,14
"248",21,81
"249",16,83
"250",0,0
"251",0,0
"252",0,0
"253",0,0
"254",0,0
"255",0,0
"256",6,20
"257",5,20
"258",14,70
"259",0,0
"260",0,0
"261",0,0
"262",0,0
"263",0,0
"264",1,6
"265",0,0
"266",7,34
"267",14,69
"268",0,0
"269",0,0
"270",0,0
"271",0,0
"272",0,0
"273",0,0
"274",15,42
"275",18,87
"276",14,69
"277",10,31
"278",0,0
"279",0,0
"280",0,0
"281",0,0
"282",0,0
"283",21,79
"284",10,26
"285",0,0
"286",5,12
"287",3,9
"288",0,0
"289",0,0
"290",0,0
"291",0,0
"292",1,2
"293",3,11
"294",0,0
"295",3,10
"296",2,8
"297",0,0
"298",0,0
"299",0,0
"300",0,0
"301",0,0
"302",5,20
"303",1,1
"304",0,0
"305",9,90
"306",1,1
"307",0,0
"308",0,0
"309",0,0
"310",0,0
"311",0,0
"312",2,16
"313",1,4
"314",7,29
"315",14,71
"316",10,135
"317",0,0
"318",0,0
"319",0,0
"320",0,0
"321",0,0
"322",1,10
"323",1,2
"324",6,8
"325",0,0
"326",0,0
"327",0,0
"328",0,0
"329",0,0
"330",0,0
"331",0,0
"332",0,0
"333",0,0
"334",5,26
"335",0,0
"336",0,0
"337",0,0
"338",0,0
"339",0,0
"340",0,0
"341",0,0
"342",0,0
"343",0,0
"344",0,0
"345",0,0
"346",3,10
"347",0,0
"348",0,0
"349",0,0
"350",0,0
"351",0,0
"352",0,0
"353",2,6
"354",0,0
"355",0,0
"356",1,5
"357",0,0
"358",0,0
"359",0,0
"360",0,0
"361",4,17
"362",14,63
"363",10,42
"364",5,20
"365",0,0
"366",5,27
"367",0,0
"368",0,0
"369",0,0
"370",0,0
"371",4,17
"372",0,0
"373",0,0
"374",3,5
"375",12,58
"376",2,11
"377",0,0
"378",0,0
"379",0,0
"380",0,0
"381",0,0
"382",1,4
"383",1,5
"384",0,0
"385",3,5
"386",1,7
"387",0,0
"388",0,0
"389",0,0
"390",0,0
"391",0,0
"392",0,0
"393",0,0
"394",3,11
"395",6,20
"396",0,0
"397",0,0
"398",0,0
"399",0,0
"400",0,0
"401",0,0
"402",0,0
"403",4,15
"404",0,0
"405",0,0
"406",0,0
"407",0,0
"408",0,0
"409",0,0
"410",0,0
"411",0,0
"412",10,69
"413",8,25
"414",0,0
"415",10,81
"416",0,0
"417",0,0
"418",0,0
"419",0,0
"420",0,0
"421",0,0
"422",0,0
"423",3,28
"424",0,0
"425",0,0
"426",0,0
"427",0,0
"428",0,0
"429",0,0
"430",0,0
"431",0,0
"432",0,0
"433",0,0
"434",1,2
"435",0,0
"436",0,0
"437",0,0
"438",0,0
"439",0,0
"440",0,0
"441",0,0
"442",0,0
"443",0,0
"444",0,0
"445",0,0
"446",0,0
"447",0,0
"448",0,0
"449",0,0
"450",0,0
"451",0,0
"452",0,0
"453",0,0
"454",0,0
"455",0,0
"456",0,0
"457",0,0
"458",0,0
"459",0,0
"460",0,0
"461",0,0
"462",0,0
"463",0,0
"464",0,0
"465",0,0
"466",0,0
"467",0,0
"468",0,0
"469",0,0
"470",0,0
"471",0,0
"472",0,0
"473",0,0
"474",0,0
"475",0,0
"476",0,0
"477",0,0
"478",0,0
"479",0,0
"480",0,0
"481",0,0
"482",0,0
"483",0,0
"484",0,0
"485",0,0
"486",0,0
"487",0,0
"488",0,0
"489",0,0
"490",0,0
"491",0,0
"492",0,0
"493",0,0
"494",0,0
"495",0,0
"496",0,0
"497",0,0
"498",0,0
"499",0,0
"500",0,0
