"","n_obs","n_total"
"1",0,0
"2",0,0
"3",0,0
"4",0,0
"5",0,0
"6",0,0
"7",0,0
"8",0,0
"9",0,0
"10",0,0
"11",0,0
"12",0,0
"13",0,0
"14",0,0
"15",0,0
"16",0,0
"17",1,2
"18",0,0
"19",0,0
"20",0,0
"21",0,0
"22",0,0
"23",0,0
"24",3,4
"25",0,0
"26",1,1
"27",1,1
"28",1,2
"29",0,0
"30",1,2
"31",0,0
"32",0,0
"33",0,0
"34",5,6
"35",6,8
"36",0,0
"37",0,0
"38",2,2
"39",4,4
"40",2,2
"41",0,0
"42",0,0
"43",0,0
"44",17,19
"45",11,12
"46",7,7
"47",2,3
"48",0,0
"49",3,4
"50",5,5
"51",0,0
"52",0,0
"53",0,0
"54",5,5
"55",6,6
"56",4,4
"57",11,11
"58",2,2
"59",10,11
"60",4,4
"61",0,0
"62",0,0
"63",1,2
"64",1,1
"65",1,1
"66",7,7
"67",6,6
"68",1,1
"69",4,4
"70",3,4
"71",0,0
"72",0,0
"73",1,1
"74",1,1
"75",3,3
"76",4,5
"77",5,5
"78",4,6
"79",0,0
"80",5,5
"81",0,0
"82",0,0
"83",0,0
"84",0,0
"85",3,3
"86",5,5
"87",2,2
"88",1,1
"89",4,4
"90",13,13
"91",0,0
"92",0,0
"93",0,0
"94",0,0
"95",0,0
"96",0,0
"97",2,2
"98",4,5
"99",10,16
"100",19,22
"101",0,0
"102",0,0
"103",0,0
"104",0,0
"105",0,0
"106",0,0
"107",2,2
"108",0,0
"109",5,5
"110",4,5
"111",0,0
"112",0,0
"113",0,0
"114",0,0
"115",0,0
"116",0,0
"117",6,8
"118",5,5
"119",3,3
"120",1,1
"121",0,0
"122",0,0
"123",0,0
"124",0,0
"125",0,0
"126",0,0
"127",3,3
"128",2,2
"129",0,0
"130",12,14
"131",0,0
"132",0,0
"133",0,0
"134",0,0
"135",0,0
"136",0,0
"137",3,3
"138",6,6
"139",17,18
"140",10,11
"141",0,0
"142",0,0
"143",0,0
"144",0,0
"145",0,0
"146",0,0
"147",0,0
"148",7,7
"149",10,12
"150",8,8
"151",0,0
"152",0,0
"153",0,0
"154",0,0
"155",0,0
"156",1,1
"157",2,2
"158",3,4
"159",2,2
"160",8,9
"161",0,0
"162",0,0
"163",0,0
"164",0,0
"165",2,2
"166",1,1
"167",5,5
"168",9,12
"169",12,15
"170",6,6
"171",0,0
"172",0,0
"173",0,0
"174",0,0
"175",2,2
"176",3,3
"177",5,5
"178",14,18
"179",26,33
"180",3,3
"181",0,0
"182",0,0
"183",0,0
"184",0,0
"185",4,5
"186",2,4
"187",2,2
"188",4,5
"189",4,6
"190",7,8
"191",0,0
"192",0,0
"193",0,0
"194",0,0
"195",4,4
"196",2,2
"197",7,7
"198",5,5
"199",6,6
"200",4,4
"201",0,0
"202",0,0
"203",0,0
"204",0,0
"205",1,1
"206",4,4
"207",4,5
"208",9,12
"209",27,32
"210",1,1
"211",0,0
"212",0,0
"213",0,0
"214",0,0
"215",0,0
"216",4,4
"217",3,3
"218",7,8
"219",8,8
"220",0,0
"221",0,0
"222",0,0
"223",0,0
"224",0,0
"225",0,0
"226",3,4
"227",4,4
"228",14,15
"229",8,11
"230",0,0
"231",0,0
"232",0,0
"233",1,1
"234",5,5
"235",1,1
"236",0,0
"237",2,2
"238",7,8
"239",9,11
"240",0,0
"241",0,0
"242",0,0
"243",0,0
"244",2,3
"245",2,2
"246",5,5
"247",7,8
"248",5,5
"249",2,2
"250",0,0
"251",0,0
"252",0,0
"253",2,2
"254",3,3
"255",6,6
"256",15,15
"257",5,6
"258",9,10
"259",1,1
"260",0,0
"261",0,0
"262",0,0
"263",10,14
"264",2,2
"265",13,14
"266",6,7
"267",5,5
"268",6,6
"269",0,0
"270",0,0
"271",0,0
"272",0,0
"273",7,7
"274",1,1
"275",8,10
"276",8,9
"277",19,21
"278",0,0
"279",0,0
"280",0,0
"281",0,0
"282",0,0
"283",5,6
"284",6,6
"285",1,1
"286",13,15
"287",26,30
"288",0,0
"289",0,0
"290",0,0
"291",0,0
"292",0,0
"293",8,9
"294",3,3
"295",1,1
"296",10,10
"297",28,34
"298",0,0
"299",0,0
"300",0,0
"301",0,0
"302",0,0
"303",1,1
"304",1,1
"305",3,3
"306",8,8
"307",0,0
"308",0,0
"309",0,0
"310",0,0
"311",0,0
"312",1,1
"313",8,8
"314",3,3
"315",21,32
"316",8,9
"317",0,0
"318",0,0
"319",0,0
"320",0,0
"321",0,0
"322",2,2
"323",19,24
"324",3,3
"325",33,43
"326",5,5
"327",0,0
"328",0,0
"329",0,0
"330",0,0
"331",0,0
"332",2,2
"333",2,2
"334",2,3
"335",30,35
"336",5,5
"337",0,0
"338",0,0
"339",0,0
"340",0,0
"341",0,0
"342",7,9
"343",2,3
"344",3,4
"345",25,30
"346",18,19
"347",0,0
"348",0,0
"349",0,0
"350",0,0
"351",0,0
"352",4,4
"353",2,2
"354",4,5
"355",21,25
"356",15,17
"357",0,0
"358",0,0
"359",0,0
"360",0,0
"361",1,1
"362",3,3
"363",1,1
"364",6,7
"365",6,7
"366",3,3
"367",0,0
"368",0,0
"369",0,0
"370",0,0
"371",1,1
"372",0,0
"373",3,4
"374",2,2
"375",3,3
"376",2,2
"377",0,0
"378",0,0
"379",0,0
"380",0,0
"381",4,4
"382",0,0
"383",2,2
"384",0,0
"385",3,3
"386",2,2
"387",0,0
"388",0,0
"389",0,0
"390",0,0
"391",6,8
"392",2,2
"393",0,0
"394",1,1
"395",6,6
"396",2,2
"397",0,0
"398",0,0
"399",0,0
"400",0,0
"401",2,2
"402",1,1
"403",0,0
"404",25,28
"405",3,3
"406",0,0
"407",0,0
"408",0,0
"409",0,0
"410",0,0
"411",2,2
"412",1,1
"413",1,1
"414",4,4
"415",0,0
"416",0,0
"417",0,0
"418",0,0
"419",0,0
"420",0,0
"421",0,0
"422",0,0
"423",2,3
"424",7,8
"425",1,1
"426",0,0
"427",0,0
"428",0,0
"429",0,0
"430",0,0
"431",1,1
"432",1,1
"433",2,2
"434",6,6
"435",4,4
"436",0,0
"437",0,0
"438",0,0
"439",0,0
"440",0,0
"441",0,0
"442",0,0
"443",14,17
"444",10,13
"445",0,0
"446",0,0
"447",0,0
"448",0,0
"449",0,0
"450",0,0
"451",0,0
"452",1,1
"453",8,9
"454",9,11
"455",1,1
"456",0,0
"457",0,0
"458",0,0
"459",0,0
"460",0,0
"461",0,0
"462",1,1
"463",1,1
"464",0,0
"465",0,0
"466",0,0
"467",0,0
"468",0,0
"469",0,0
"470",0,0
"471",0,0
"472",0,0
"473",0,0
"474",0,0
"475",0,0
"476",0,0
"477",0,0
"478",0,0
"479",0,0
"480",0,0
"481",0,0
"482",0,0
"483",0,0
"484",0,0
"485",0,0
"486",0,0
"487",0,0
"488",0,0
"489",0,0
"490",0,0
"491",0,0
"492",0,0
"493",1,1
"494",0,0
"495",0,0
"496",0,0
"497",0,0
"498",0,0
"499",0,0
"500",0,0
