"","n_obs","n_total"
"1",0,0
"2",0,0
"3",0,0
"4",0,0
"5",0,0
"6",0,0
"7",0,0
"8",0,0
"9",0,0
"10",0,0
"11",0,0
"12",0,0
"13",0,0
"14",1,1
"15",0,0
"16",1,1
"17",0,0
"18",0,0
"19",0,0
"20",0,0
"21",0,0
"22",0,0
"23",0,0
"24",1,1
"25",2,3
"26",0,0
"27",0,0
"28",1,1
"29",0,0
"30",0,0
"31",0,0
"32",0,0
"33",0,0
"34",4,4
"35",0,0
"36",2,2
"37",1,1
"38",1,1
"39",0,0
"40",1,1
"41",0,0
"42",0,0
"43",0,0
"44",8,8
"45",9,11
"46",2,2
"47",1,1
"48",1,1
"49",5,5
"50",8,10
"51",0,0
"52",0,0
"53",1,1
"54",4,4
"55",7,7
"56",4,5
"57",1,1
"58",2,2
"59",9,10
"60",3,3
"61",0,0
"62",0,0
"63",0,0
"64",4,4
"65",3,4
"66",1,1
"67",3,3
"68",3,4
"69",10,10
"70",2,2
"71",0,0
"72",0,0
"73",1,2
"74",0,0
"75",3,3
"76",5,5
"77",9,9
"78",5,6
"79",4,4
"80",2,2
"81",0,0
"82",0,0
"83",0,0
"84",0,0
"85",0,0
"86",11,13
"87",8,8
"88",2,3
"89",4,4
"90",4,6
"91",0,0
"92",0,0
"93",0,0
"94",0,0
"95",0,0
"96",0,0
"97",0,0
"98",10,11
"99",8,10
"100",1,1
"101",0,0
"102",0,0
"103",0,0
"104",0,0
"105",0,0
"106",0,0
"107",5,5
"108",2,2
"109",14,15
"110",3,3
"111",0,0
"112",0,0
"113",0,0
"114",0,0
"115",0,0
"116",0,0
"117",1,1
"118",1,1
"119",7,7
"120",3,3
"121",0,0
"122",0,0
"123",0,0
"124",0,0
"125",0,0
"126",0,0
"127",4,4
"128",1,1
"129",5,6
"130",10,16
"131",0,0
"132",0,0
"133",0,0
"134",0,0
"135",0,0
"136",0,0
"137",1,1
"138",3,3
"139",12,17
"140",22,26
"141",0,0
"142",0,0
"143",0,0
"144",0,0
"145",0,0
"146",0,0
"147",3,3
"148",3,5
"149",28,37
"150",20,24
"151",0,0
"152",0,0
"153",0,0
"154",0,0
"155",0,0
"156",0,0
"157",2,2
"158",2,2
"159",0,0
"160",6,7
"161",0,0
"162",0,0
"163",0,0
"164",0,0
"165",1,1
"166",1,1
"167",0,0
"168",3,3
"169",0,0
"170",3,3
"171",0,0
"172",0,0
"173",0,0
"174",0,0
"175",1,2
"176",0,0
"177",1,1
"178",3,3
"179",1,2
"180",0,0
"181",0,0
"182",0,0
"183",0,0
"184",0,0
"185",1,2
"186",0,0
"187",8,10
"188",3,3
"189",3,3
"190",1,2
"191",0,0
"192",0,0
"193",0,0
"194",0,0
"195",1,1
"196",0,0
"197",2,2
"198",0,0
"199",0,0
"200",2,2
"201",0,0
"202",0,0
"203",0,0
"204",0,0
"205",0,0
"206",2,3
"207",6,7
"208",0,0
"209",9,11
"210",0,0
"211",0,0
"212",0,0
"213",0,0
"214",0,0
"215",0,0
"216",1,2
"217",0,0
"218",1,2
"219",13,17
"220",0,0
"221",0,0
"222",0,0
"223",0,0
"224",0,0
"225",7,9
"226",2,2
"227",1,1
"228",3,3
"229",5,6
"230",0,0
"231",0,0
"232",0,0
"233",0,0
"234",0,0
"235",0,0
"236",3,4
"237",0,0
"238",0,0
"239",7,7
"240",0,0
"241",0,0
"242",0,0
"243",4,6
"244",3,3
"245",3,3
"246",4,5
"247",2,3
"248",1,1
"249",3,3
"250",0,0
"251",0,0
"252",0,0
"253",0,0
"254",0,0
"255",1,1
"256",1,1
"257",1,1
"258",1,1
"259",1,2
"260",0,0
"261",0,0
"262",0,0
"263",3,3
"264",1,1
"265",6,8
"266",4,4
"267",1,1
"268",1,1
"269",0,0
"270",0,0
"271",0,0
"272",0,0
"273",5,5
"274",1,2
"275",3,3
"276",1,1
"277",3,4
"278",0,0
"279",0,0
"280",0,0
"281",0,0
"282",0,0
"283",3,3
"284",1,1
"285",11,11
"286",3,3
"287",2,2
"288",0,0
"289",0,0
"290",0,0
"291",0,0
"292",0,0
"293",0,0
"294",0,0
"295",3,3
"296",1,1
"297",1,1
"298",0,0
"299",0,0
"300",0,0
"301",0,0
"302",0,0
"303",3,3
"304",4,4
"305",0,0
"306",1,1
"307",3,4
"308",0,0
"309",0,0
"310",0,0
"311",0,0
"312",0,0
"313",2,2
"314",5,5
"315",2,2
"316",6,6
"317",0,0
"318",0,0
"319",0,0
"320",0,0
"321",0,0
"322",0,0
"323",3,3
"324",0,0
"325",0,0
"326",5,5
"327",0,0
"328",0,0
"329",0,0
"330",0,0
"331",0,0
"332",1,2
"333",0,0
"334",0,0
"335",2,2
"336",1,1
"337",0,0
"338",0,0
"339",0,0
"340",0,0
"341",1,1
"342",3,3
"343",3,3
"344",1,1
"345",5,6
"346",2,2
"347",0,0
"348",0,0
"349",0,0
"350",0,0
"351",1,1
"352",1,1
"353",1,1
"354",1,1
"355",8,8
"356",6,6
"357",0,0
"358",0,0
"359",0,0
"360",0,0
"361",4,4
"362",3,3
"363",1,1
"364",2,3
"365",3,3
"366",6,7
"367",0,0
"368",0,0
"369",0,0
"370",0,0
"371",7,7
"372",2,2
"373",2,2
"374",1,1
"375",2,2
"376",0,0
"377",0,0
"378",0,0
"379",0,0
"380",0,0
"381",1,1
"382",0,0
"383",0,0
"384",0,0
"385",0,0
"386",0,0
"387",0,0
"388",0,0
"389",0,0
"390",0,0
"391",4,4
"392",0,0
"393",2,2
"394",2,3
"395",0,0
"396",0,0
"397",0,0
"398",0,0
"399",0,0
"400",0,0
"401",1,1
"402",0,0
"403",0,0
"404",2,2
"405",1,1
"406",0,0
"407",0,0
"408",0,0
"409",0,0
"410",0,0
"411",1,1
"412",0,0
"413",3,3
"414",0,0
"415",6,7
"416",0,0
"417",0,0
"418",0,0
"419",0,0
"420",0,0
"421",0,0
"422",0,0
"423",0,0
"424",2,2
"425",10,10
"426",0,0
"427",0,0
"428",0,0
"429",0,0
"430",0,0
"431",0,0
"432",1,1
"433",2,2
"434",2,3
"435",7,7
"436",0,0
"437",0,0
"438",0,0
"439",0,0
"440",0,0
"441",0,0
"442",0,0
"443",4,4
"444",2,2
"445",0,0
"446",0,0
"447",0,0
"448",0,0
"449",0,0
"450",0,0
"451",0,0
"452",0,0
"453",3,3
"454",5,5
"455",2,2
"456",0,0
"457",0,0
"458",0,0
"459",0,0
"460",0,0
"461",0,0
"462",1,1
"463",2,3
"464",0,0
"465",0,0
"466",0,0
"467",0,0
"468",0,0
"469",0,0
"470",0,0
"471",0,0
"472",0,0
"473",1,2
"474",0,0
"475",0,0
"476",0,0
"477",0,0
"478",0,0
"479",0,0
"480",0,0
"481",0,0
"482",0,0
"483",1,1
"484",0,0
"485",0,0
"486",0,0
"487",0,0
"488",0,0
"489",0,0
"490",0,0
"491",0,0
"492",0,0
"493",0,0
"494",0,0
"495",0,0
"496",0,0
"497",0,0
"498",0,0
"499",0,0
"500",0,0
