"","n_obs","n_total"
"1",0,0
"2",0,0
"3",0,0
"4",1,1
"5",1,1
"6",0,0
"7",0,0
"8",0,0
"9",0,0
"10",0,0
"11",0,0
"12",0,0
"13",0,0
"14",0,0
"15",3,4
"16",0,0
"17",0,0
"18",0,0
"19",0,0
"20",0,0
"21",0,0
"22",0,0
"23",0,0
"24",8,9
"25",2,2
"26",1,1
"27",2,2
"28",0,0
"29",0,0
"30",1,1
"31",0,0
"32",0,0
"33",0,0
"34",5,6
"35",3,3
"36",2,2
"37",1,1
"38",0,0
"39",2,3
"40",0,0
"41",0,0
"42",0,0
"43",0,0
"44",6,7
"45",6,8
"46",2,2
"47",1,1
"48",1,1
"49",2,2
"50",2,2
"51",0,0
"52",0,0
"53",0,0
"54",5,6
"55",3,3
"56",5,6
"57",7,7
"58",3,3
"59",3,4
"60",2,2
"61",0,0
"62",0,0
"63",1,1
"64",2,2
"65",3,5
"66",3,4
"67",2,2
"68",0,0
"69",0,0
"70",6,6
"71",0,0
"72",0,0
"73",1,1
"74",3,4
"75",2,2
"76",4,4
"77",4,4
"78",1,1
"79",5,5
"80",8,8
"81",0,0
"82",0,0
"83",0,0
"84",3,4
"85",3,3
"86",2,2
"87",0,0
"88",2,4
"89",4,4
"90",6,7
"91",0,0
"92",0,0
"93",0,0
"94",0,0
"95",0,0
"96",0,0
"97",0,0
"98",6,6
"99",7,9
"100",5,6
"101",0,0
"102",0,0
"103",0,0
"104",0,0
"105",0,0
"106",0,0
"107",5,6
"108",10,13
"109",9,14
"110",6,7
"111",0,0
"112",0,0
"113",0,0
"114",0,0
"115",0,0
"116",0,0
"117",4,6
"118",7,8
"119",1,1
"120",3,4
"121",0,0
"122",0,0
"123",0,0
"124",0,0
"125",0,0
"126",0,0
"127",0,0
"128",4,4
"129",3,3
"130",4,6
"131",0,0
"132",0,0
"133",0,0
"134",0,0
"135",0,0
"136",0,0
"137",0,0
"138",3,3
"139",13,16
"140",3,5
"141",0,0
"142",0,0
"143",0,0
"144",0,0
"145",0,0
"146",0,0
"147",0,0
"148",5,5
"149",5,5
"150",6,6
"151",0,0
"152",0,0
"153",0,0
"154",0,0
"155",2,2
"156",3,3
"157",1,1
"158",3,3
"159",4,6
"160",1,1
"161",0,0
"162",0,0
"163",0,0
"164",0,0
"165",1,1
"166",4,4
"167",8,8
"168",10,12
"169",6,7
"170",7,8
"171",0,0
"172",0,0
"173",0,0
"174",0,0
"175",2,2
"176",7,8
"177",5,5
"178",1,1
"179",9,10
"180",3,3
"181",0,0
"182",0,0
"183",0,0
"184",0,0
"185",6,7
"186",4,4
"187",1,2
"188",7,7
"189",0,0
"190",3,4
"191",0,0
"192",0,0
"193",0,0
"194",0,0
"195",2,2
"196",1,1
"197",11,11
"198",6,9
"199",3,3
"200",2,2
"201",0,0
"202",0,0
"203",0,0
"204",0,0
"205",2,2
"206",1,1
"207",3,3
"208",7,10
"209",2,2
"210",0,0
"211",0,0
"212",0,0
"213",0,0
"214",0,0
"215",0,0
"216",1,1
"217",4,6
"218",3,4
"219",12,13
"220",0,0
"221",0,0
"222",0,0
"223",0,0
"224",0,0
"225",2,2
"226",1,1
"227",4,4
"228",5,5
"229",20,23
"230",0,0
"231",0,0
"232",0,0
"233",0,0
"234",0,0
"235",1,1
"236",1,1
"237",4,4
"238",3,3
"239",5,5
"240",0,0
"241",0,0
"242",0,0
"243",0,0
"244",0,0
"245",0,0
"246",11,11
"247",4,4
"248",2,3
"249",1,1
"250",0,0
"251",0,0
"252",0,0
"253",1,1
"254",7,9
"255",5,5
"256",9,9
"257",5,6
"258",1,2
"259",0,0
"260",0,0
"261",0,0
"262",0,0
"263",5,6
"264",6,6
"265",2,2
"266",0,0
"267",5,5
"268",1,1
"269",0,0
"270",0,0
"271",0,0
"272",0,0
"273",2,2
"274",4,4
"275",0,0
"276",2,2
"277",7,8
"278",0,0
"279",0,0
"280",0,0
"281",0,0
"282",0,0
"283",1,1
"284",2,2
"285",2,4
"286",0,0
"287",5,5
"288",0,0
"289",0,0
"290",0,0
"291",0,0
"292",0,0
"293",9,9
"294",6,6
"295",1,1
"296",6,9
"297",14,15
"298",0,0
"299",0,0
"300",0,0
"301",0,0
"302",0,0
"303",2,2
"304",5,5
"305",4,4
"306",5,8
"307",1,2
"308",0,0
"309",0,0
"310",0,0
"311",0,0
"312",1,1
"313",1,1
"314",5,5
"315",3,4
"316",4,4
"317",0,0
"318",0,0
"319",0,0
"320",0,0
"321",0,0
"322",5,5
"323",7,8
"324",0,0
"325",5,5
"326",5,6
"327",0,0
"328",0,0
"329",0,0
"330",0,0
"331",0,0
"332",11,23
"333",10,13
"334",5,5
"335",2,2
"336",2,3
"337",0,0
"338",0,0
"339",0,0
"340",0,0
"341",0,0
"342",3,4
"343",6,6
"344",1,1
"345",5,6
"346",9,9
"347",0,0
"348",0,0
"349",0,0
"350",0,0
"351",1,1
"352",2,4
"353",0,0
"354",3,4
"355",11,12
"356",2,2
"357",0,0
"358",0,0
"359",0,0
"360",0,0
"361",1,1
"362",2,2
"363",0,0
"364",0,0
"365",8,8
"366",1,1
"367",0,0
"368",0,0
"369",0,0
"370",0,0
"371",8,9
"372",3,3
"373",3,3
"374",0,0
"375",11,11
"376",1,1
"377",0,0
"378",0,0
"379",0,0
"380",0,0
"381",2,2
"382",0,0
"383",0,0
"384",2,2
"385",4,4
"386",3,3
"387",0,0
"388",0,0
"389",0,0
"390",0,0
"391",2,2
"392",1,2
"393",1,1
"394",0,0
"395",20,22
"396",3,3
"397",0,0
"398",0,0
"399",0,0
"400",0,0
"401",1,1
"402",2,2
"403",1,1
"404",0,0
"405",11,15
"406",2,2
"407",0,0
"408",0,0
"409",0,0
"410",0,0
"411",4,4
"412",0,0
"413",0,0
"414",5,6
"415",4,4
"416",0,0
"417",0,0
"418",0,0
"419",0,0
"420",0,0
"421",0,0
"422",1,1
"423",1,1
"424",35,38
"425",4,5
"426",0,0
"427",0,0
"428",0,0
"429",0,0
"430",0,0
"431",0,0
"432",2,2
"433",0,0
"434",1,1
"435",3,3
"436",0,0
"437",0,0
"438",0,0
"439",0,0
"440",0,0
"441",0,0
"442",1,1
"443",4,5
"444",4,4
"445",0,0
"446",0,0
"447",0,0
"448",0,0
"449",0,0
"450",0,0
"451",0,0
"452",1,1
"453",5,5
"454",4,4
"455",0,0
"456",0,0
"457",0,0
"458",0,0
"459",0,0
"460",0,0
"461",0,0
"462",0,0
"463",0,0
"464",2,2
"465",0,0
"466",0,0
"467",0,0
"468",0,0
"469",0,0
"470",0,0
"471",0,0
"472",1,1
"473",3,3
"474",1,2
"475",0,0
"476",0,0
"477",0,0
"478",0,0
"479",0,0
"480",0,0
"481",0,0
"482",0,0
"483",1,1
"484",0,0
"485",0,0
"486",0,0
"487",0,0
"488",0,0
"489",0,0
"490",0,0
"491",0,0
"492",0,0
"493",0,0
"494",2,2
"495",0,0
"496",0,0
"497",0,0
"498",0,0
"499",0,0
"500",0,0
