"","n_obs","n_total"
"1",0,0
"2",0,0
"3",0,0
"4",0,0
"5",0,0
"6",0,0
"7",0,0
"8",0,0
"9",0,0
"10",0,0
"11",0,0
"12",0,0
"13",0,0
"14",0,0
"15",0,0
"16",1,10
"17",0,0
"18",0,0
"19",0,0
"20",2,11
"21",0,0
"22",0,0
"23",0,0
"24",7,34
"25",11,60
"26",5,37
"27",1,4
"28",0,0
"29",4,22
"30",25,232
"31",0,0
"32",0,0
"33",0,0
"34",11,68
"35",6,37
"36",3,22
"37",5,24
"38",2,3
"39",5,27
"40",19,196
"41",0,0
"42",0,0
"43",0,0
"44",12,69
"45",22,123
"46",7,33
"47",2,4
"48",14,140
"49",13,75
"50",20,123
"51",0,0
"52",0,0
"53",8,60
"54",13,61
"55",12,106
"56",9,44
"57",13,78
"58",21,157
"59",9,35
"60",12,97
"61",0,0
"62",0,0
"63",4,27
"64",10,55
"65",7,25
"66",3,8
"67",3,7
"68",6,26
"69",9,54
"70",19,117
"71",0,0
"72",0,0
"73",1,3
"74",14,61
"75",12,69
"76",5,23
"77",2,7
"78",0,0
"79",4,50
"80",29,210
"81",0,0
"82",0,0
"83",0,0
"84",5,35
"85",6,18
"86",0,0
"87",0,0
"88",6,31
"89",20,261
"90",33,288
"91",0,0
"92",0,0
"93",0,0
"94",0,0
"95",0,0
"96",0,0
"97",10,51
"98",9,94
"99",31,500
"100",34,583
"101",0,0
"102",0,0
"103",0,0
"104",0,0
"105",0,0
"106",0,0
"107",7,50
"108",12,84
"109",55,736
"110",64,1006
"111",0,0
"112",0,0
"113",0,0
"114",0,0
"115",0,0
"116",0,0
"117",4,11
"118",8,27
"119",18,197
"120",19,177
"121",0,0
"122",0,0
"123",0,0
"124",0,0
"125",0,0
"126",0,0
"127",6,27
"128",13,151
"129",9,80
"130",8,40
"131",0,0
"132",0,0
"133",0,0
"134",0,0
"135",0,0
"136",0,0
"137",18,218
"138",8,41
"139",17,107
"140",12,62
"141",0,0
"142",0,0
"143",0,0
"144",0,0
"145",0,0
"146",4,18
"147",25,199
"148",9,64
"149",15,100
"150",14,83
"151",0,0
"152",0,0
"153",0,0
"154",0,0
"155",0,0
"156",4,10
"157",11,53
"158",20,54
"159",18,114
"160",23,140
"161",0,0
"162",0,0
"163",0,0
"164",0,0
"165",15,147
"166",23,230
"167",26,183
"168",7,70
"169",9,63
"170",16,82
"171",0,0
"172",0,0
"173",0,0
"174",0,0
"175",20,117
"176",23,153
"177",33,222
"178",15,135
"179",8,47
"180",32,231
"181",0,0
"182",0,0
"183",0,0
"184",0,0
"185",22,160
"186",16,82
"187",33,235
"188",33,485
"189",27,498
"190",23,240
"191",0,0
"192",0,0
"193",0,0
"194",0,0
"195",0,0
"196",4,34
"197",40,267
"198",43,507
"199",49,624
"200",19,215
"201",0,0
"202",0,0
"203",0,0
"204",0,0
"205",2,8
"206",10,36
"207",10,50
"208",24,302
"209",28,312
"210",4,72
"211",0,0
"212",0,0
"213",0,0
"214",0,0
"215",0,0
"216",6,22
"217",23,158
"218",6,37
"219",14,160
"220",0,0
"221",0,0
"222",0,0
"223",0,0
"224",4,16
"225",25,89
"226",4,14
"227",33,157
"228",38,268
"229",28,136
"230",0,0
"231",0,0
"232",0,0
"233",7,26
"234",34,151
"235",19,142
"236",6,28
"237",41,192
"238",19,131
"239",11,52
"240",0,0
"241",0,0
"242",0,0
"243",26,144
"244",12,76
"245",17,79
"246",23,131
"247",26,154
"248",45,205
"249",8,59
"250",0,0
"251",0,0
"252",0,0
"253",17,88
"254",19,111
"255",7,36
"256",26,183
"257",26,109
"258",22,82
"259",1,3
"260",0,0
"261",0,0
"262",0,0
"263",26,130
"264",22,181
"265",31,255
"266",28,169
"267",26,135
"268",7,40
"269",0,0
"270",0,0
"271",0,0
"272",0,0
"273",13,70
"274",22,155
"275",35,208
"276",27,178
"277",50,283
"278",2,4
"279",0,0
"280",0,0
"281",0,0
"282",0,0
"283",15,68
"284",7,27
"285",39,225
"286",31,296
"287",35,205
"288",0,0
"289",0,0
"290",0,0
"291",0,0
"292",0,0
"293",40,179
"294",34,173
"295",30,176
"296",26,222
"297",35,202
"298",0,0
"299",0,0
"300",0,0
"301",0,0
"302",0,0
"303",28,140
"304",41,235
"305",13,71
"306",30,249
"307",3,21
"308",0,0
"309",0,0
"310",0,0
"311",0,0
"312",1,5
"313",27,175
"314",36,212
"315",29,251
"316",22,211
"317",2,6
"318",0,0
"319",0,0
"320",0,0
"321",0,0
"322",26,170
"323",47,253
"324",56,381
"325",20,115
"326",9,52
"327",0,0
"328",0,0
"329",0,0
"330",0,0
"331",0,0
"332",27,147
"333",26,155
"334",21,120
"335",9,66
"336",9,30
"337",0,0
"338",0,0
"339",0,0
"340",0,0
"341",2,3
"342",16,81
"343",23,151
"344",23,97
"345",8,57
"346",26,120
"347",0,0
"348",0,0
"349",0,0
"350",0,0
"351",7,38
"352",14,105
"353",42,258
"354",24,238
"355",23,177
"356",17,70
"357",0,0
"358",0,0
"359",0,0
"360",0,0
"361",17,130
"362",31,163
"363",36,263
"364",7,23
"365",18,107
"366",12,59
"367",0,0
"368",0,0
"369",0,0
"370",0,0
"371",11,90
"372",26,213
"373",24,176
"374",30,200
"375",23,126
"376",10,63
"377",0,0
"378",0,0
"379",0,0
"380",0,0
"381",20,112
"382",48,299
"383",29,157
"384",18,146
"385",10,57
"386",8,72
"387",0,0
"388",0,0
"389",0,0
"390",0,0
"391",21,182
"392",24,178
"393",16,130
"394",14,80
"395",25,155
"396",5,23
"397",0,0
"398",0,0
"399",0,0
"400",0,0
"401",38,273
"402",19,133
"403",43,321
"404",39,381
"405",29,239
"406",1,20
"407",0,0
"408",0,0
"409",0,0
"410",0,0
"411",7,54
"412",11,98
"413",51,319
"414",25,194
"415",24,128
"416",0,0
"417",0,0
"418",0,0
"419",0,0
"420",0,0
"421",10,70
"422",15,84
"423",21,122
"424",23,227
"425",11,76
"426",0,0
"427",0,0
"428",0,0
"429",0,0
"430",0,0
"431",3,14
"432",0,0
"433",10,98
"434",14,105
"435",1,2
"436",0,0
"437",0,0
"438",0,0
"439",0,0
"440",0,0
"441",4,22
"442",4,14
"443",18,237
"444",10,135
"445",0,0
"446",0,0
"447",0,0
"448",0,0
"449",0,0
"450",0,0
"451",0,0
"452",1,6
"453",23,248
"454",3,14
"455",0,0
"456",0,0
"457",0,0
"458",0,0
"459",0,0
"460",0,0
"461",0,0
"462",11,82
"463",34,194
"464",1,2
"465",0,0
"466",0,0
"467",0,0
"468",0,0
"469",0,0
"470",0,0
"471",0,0
"472",1,6
"473",2,16
"474",0,0
"475",0,0
"476",0,0
"477",0,0
"478",0,0
"479",0,0
"480",0,0
"481",0,0
"482",3,18
"483",5,24
"484",0,0
"485",0,0
"486",0,0
"487",0,0
"488",0,0
"489",0,0
"490",0,0
"491",0,0
"492",5,28
"493",9,80
"494",0,0
"495",0,0
"496",0,0
"497",0,0
"498",0,0
"499",0,0
"500",0,0
