"","n_obs","n_total"
"1",0,0
"2",0,0
"3",0,0
"4",0,0
"5",0,0
"6",0,0
"7",0,0
"8",0,0
"9",0,0
"10",0,0
"11",0,0
"12",0,0
"13",0,0
"14",0,0
"15",0,0
"16",6,19
"17",3,10
"18",0,0
"19",0,0
"20",2,6
"21",0,0
"22",0,0
"23",0,0
"24",0,0
"25",1,12
"26",0,0
"27",2,7
"28",0,0
"29",2,3
"30",15,70
"31",0,0
"32",0,0
"33",0,0
"34",0,0
"35",0,0
"36",0,0
"37",0,0
"38",4,14
"39",1,3
"40",6,20
"41",0,0
"42",0,0
"43",0,0
"44",2,7
"45",0,0
"46",1,3
"47",0,0
"48",0,0
"49",0,0
"50",2,7
"51",0,0
"52",0,0
"53",0,0
"54",0,0
"55",0,0
"56",0,0
"57",0,0
"58",0,0
"59",2,4
"60",13,40
"61",0,0
"62",0,0
"63",0,0
"64",0,0
"65",1,2
"66",0,0
"67",0,0
"68",0,0
"69",4,21
"70",2,6
"71",0,0
"72",0,0
"73",0,0
"74",1,3
"75",0,0
"76",1,1
"77",2,6
"78",4,10
"79",7,20
"80",1,10
"81",0,0
"82",0,0
"83",0,0
"84",3,13
"85",1,13
"86",2,3
"87",4,27
"88",1,1
"89",0,0
"90",13,32
"91",0,0
"92",0,0
"93",0,0
"94",0,0
"95",0,0
"96",0,0
"97",1,3
"98",5,6
"99",0,0
"100",4,5
"101",0,0
"102",0,0
"103",0,0
"104",0,0
"105",0,0
"106",0,0
"107",1,2
"108",2,3
"109",1,2
"110",0,0
"111",0,0
"112",0,0
"113",0,0
"114",0,0
"115",1,2
"116",0,0
"117",0,0
"118",1,3
"119",3,18
"120",2,6
"121",0,0
"122",0,0
"123",0,0
"124",0,0
"125",0,0
"126",0,0
"127",2,7
"128",7,33
"129",0,0
"130",0,0
"131",0,0
"132",0,0
"133",0,0
"134",0,0
"135",0,0
"136",0,0
"137",1,7
"138",7,21
"139",0,0
"140",0,0
"141",0,0
"142",0,0
"143",0,0
"144",0,0
"145",0,0
"146",2,4
"147",3,8
"148",8,17
"149",1,7
"150",2,36
"151",0,0
"152",0,0
"153",0,0
"154",0,0
"155",0,0
"156",2,2
"157",0,0
"158",8,25
"159",2,5
"160",3,29
"161",0,0
"162",0,0
"163",0,0
"164",0,0
"165",8,23
"166",1,2
"167",3,10
"168",7,13
"169",2,13
"170",2,8
"171",0,0
"172",0,0
"173",0,0
"174",0,0
"175",0,0
"176",8,27
"177",4,10
"178",7,28
"179",3,12
"180",8,27
"181",0,0
"182",0,0
"183",0,0
"184",0,0
"185",1,1
"186",3,7
"187",3,8
"188",4,11
"189",2,3
"190",7,22
"191",0,0
"192",0,0
"193",0,0
"194",0,0
"195",0,0
"196",4,10
"197",7,12
"198",3,18
"199",0,0
"200",4,8
"201",0,0
"202",0,0
"203",0,0
"204",0,0
"205",2,8
"206",3,4
"207",3,16
"208",0,0
"209",3,7
"210",2,10
"211",0,0
"212",0,0
"213",0,0
"214",0,0
"215",0,0
"216",6,15
"217",1,7
"218",1,2
"219",0,0
"220",0,0
"221",0,0
"222",0,0
"223",0,0
"224",2,6
"225",0,0
"226",9,17
"227",9,28
"228",3,7
"229",1,2
"230",0,0
"231",0,0
"232",0,0
"233",1,2
"234",3,6
"235",2,2
"236",3,5
"237",10,16
"238",3,8
"239",4,8
"240",0,0
"241",0,0
"242",0,0
"243",1,1
"244",12,33
"245",7,12
"246",3,3
"247",4,5
"248",3,4
"249",0,0
"250",0,0
"251",0,0
"252",0,0
"253",1,1
"254",0,0
"255",2,3
"256",4,7
"257",7,13
"258",3,7
"259",0,0
"260",0,0
"261",0,0
"262",0,0
"263",1,3
"264",4,6
"265",0,0
"266",10,22
"267",18,32
"268",0,0
"269",0,0
"270",0,0
"271",0,0
"272",0,0
"273",5,13
"274",1,2
"275",5,12
"276",8,14
"277",1,1
"278",0,0
"279",0,0
"280",0,0
"281",0,0
"282",0,0
"283",3,3
"284",7,8
"285",5,10
"286",2,2
"287",7,12
"288",1,3
"289",0,0
"290",0,0
"291",0,0
"292",0,0
"293",2,6
"294",1,2
"295",9,16
"296",4,8
"297",4,20
"298",0,0
"299",0,0
"300",0,0
"301",0,0
"302",1,1
"303",3,3
"304",4,9
"305",5,6
"306",2,2
"307",1,1
"308",0,0
"309",0,0
"310",0,0
"311",0,0
"312",4,13
"313",4,4
"314",9,18
"315",14,26
"316",1,2
"317",2,4
"318",0,0
"319",0,0
"320",0,0
"321",0,0
"322",3,6
"323",5,10
"324",7,22
"325",2,2
"326",5,15
"327",0,0
"328",0,0
"329",0,0
"330",0,0
"331",0,0
"332",6,9
"333",4,5
"334",2,4
"335",0,0
"336",3,9
"337",0,0
"338",0,0
"339",0,0
"340",0,0
"341",0,0
"342",6,16
"343",9,10
"344",3,6
"345",5,10
"346",6,16
"347",0,0
"348",0,0
"349",0,0
"350",0,0
"351",1,1
"352",5,12
"353",1,2
"354",12,27
"355",5,5
"356",1,4
"357",0,0
"358",0,0
"359",0,0
"360",0,0
"361",1,4
"362",6,18
"363",6,10
"364",5,9
"365",1,1
"366",9,31
"367",0,0
"368",0,0
"369",0,0
"370",0,0
"371",4,12
"372",2,8
"373",9,188
"374",0,0
"375",5,12
"376",4,11
"377",0,0
"378",0,0
"379",0,0
"380",0,0
"381",3,3
"382",1,4
"383",2,5
"384",0,0
"385",8,21
"386",0,0
"387",0,0
"388",0,0
"389",0,0
"390",0,0
"391",10,26
"392",5,15
"393",1,1
"394",3,9
"395",4,7
"396",0,0
"397",0,0
"398",0,0
"399",0,0
"400",0,0
"401",1,2
"402",1,1
"403",4,9
"404",5,14
"405",10,33
"406",0,0
"407",0,0
"408",0,0
"409",0,0
"410",0,0
"411",5,13
"412",4,16
"413",10,29
"414",1,2
"415",15,80
"416",0,0
"417",0,0
"418",0,0
"419",0,0
"420",0,0
"421",1,2
"422",8,27
"423",6,17
"424",4,26
"425",1,1
"426",0,0
"427",0,0
"428",0,0
"429",0,0
"430",0,0
"431",0,0
"432",4,13
"433",2,22
"434",1,4
"435",3,8
"436",0,0
"437",0,0
"438",0,0
"439",0,0
"440",0,0
"441",0,0
"442",0,0
"443",4,10
"444",2,15
"445",1,4
"446",0,0
"447",0,0
"448",0,0
"449",0,0
"450",0,0
"451",0,0
"452",0,0
"453",2,8
"454",5,17
"455",0,0
"456",0,0
"457",0,0
"458",0,0
"459",0,0
"460",0,0
"461",0,0
"462",0,0
"463",0,0
"464",0,0
"465",0,0
"466",0,0
"467",0,0
"468",0,0
"469",0,0
"470",0,0
"471",0,0
"472",0,0
"473",0,0
"474",0,0
"475",0,0
"476",0,0
"477",0,0
"478",0,0
"479",0,0
"480",0,0
"481",0,0
"482",0,0
"483",0,0
"484",0,0
"485",0,0
"486",0,0
"487",0,0
"488",0,0
"489",0,0
"490",0,0
"491",0,0
"492",0,0
"493",0,0
"494",0,0
"495",0,0
"496",0,0
"497",0,0
"498",0,0
"499",0,0
"500",0,0
