"","n_obs","n_total"
"1",0,0
"2",0,0
"3",0,0
"4",0,0
"5",0,0
"6",0,0
"7",0,0
"8",0,0
"9",0,0
"10",0,0
"11",0,0
"12",0,0
"13",0,0
"14",0,0
"15",0,0
"16",0,0
"17",0,0
"18",0,0
"19",0,0
"20",0,0
"21",0,0
"22",0,0
"23",0,0
"24",5,154
"25",0,0
"26",0,0
"27",0,0
"28",0,0
"29",0,0
"30",0,0
"31",0,0
"32",0,0
"33",0,0
"34",15,65
"35",3,19
"36",22,1041
"37",20,898
"38",0,0
"39",0,0
"40",0,0
"41",0,0
"42",0,0
"43",0,0
"44",15,214
"45",6,32
"46",37,806
"47",33,1170
"48",0,0
"49",0,0
"50",0,0
"51",0,0
"52",0,0
"53",9,113
"54",16,830
"55",8,101
"56",25,334
"57",22,320
"58",0,0
"59",0,0
"60",0,0
"61",0,0
"62",0,0
"63",4,93
"64",8,124
"65",2,14
"66",47,3129
"67",17,958
"68",0,0
"69",0,0
"70",0,0
"71",0,0
"72",0,0
"73",3,114
"74",25,1427
"75",35,1705
"76",36,1629
"77",7,621
"78",0,0
"79",0,0
"80",0,0
"81",0,0
"82",0,0
"83",0,0
"84",29,1887
"85",6,263
"86",6,795
"87",3,132
"88",0,0
"89",0,0
"90",0,0
"91",0,0
"92",0,0
"93",0,0
"94",0,0
"95",0,0
"96",0,0
"97",0,0
"98",0,0
"99",0,0
"100",0,0
"101",0,0
"102",0,0
"103",0,0
"104",0,0
"105",0,0
"106",0,0
"107",0,0
"108",0,0
"109",0,0
"110",0,0
"111",0,0
"112",0,0
"113",0,0
"114",0,0
"115",0,0
"116",0,0
"117",0,0
"118",0,0
"119",0,0
"120",0,0
"121",0,0
"122",0,0
"123",0,0
"124",0,0
"125",0,0
"126",0,0
"127",0,0
"128",0,0
"129",0,0
"130",0,0
"131",0,0
"132",0,0
"133",0,0
"134",0,0
"135",0,0
"136",0,0
"137",0,0
"138",0,0
"139",0,0
"140",0,0
"141",0,0
"142",0,0
"143",0,0
"144",0,0
"145",0,0
"146",0,0
"147",0,0
"148",0,0
"149",0,0
"150",0,0
"151",0,0
"152",0,0
"153",0,0
"154",0,0
"155",0,0
"156",0,0
"157",0,0
"158",0,0
"159",0,0
"160",0,0
"161",0,0
"162",0,0
"163",0,0
"164",0,0
"165",0,0
"166",0,0
"167",0,0
"168",0,0
"169",0,0
"170",0,0
"171",0,0
"172",0,0
"173",0,0
"174",0,0
"175",0,0
"176",0,0
"177",0,0
"178",0,0
"179",0,0
"180",0,0
"181",0,0
"182",0,0
"183",0,0
"184",0,0
"185",0,0
"186",0,0
"187",0,0
"188",0,0
"189",0,0
"190",0,0
"191",0,0
"192",0,0
"193",0,0
"194",0,0
"195",0,0
"196",0,0
"197",0,0
"198",0,0
"199",0,0
"200",0,0
"201",0,0
"202",0,0
"203",0,0
"204",0,0
"205",0,0
"206",0,0
"207",0,0
"208",0,0
"209",0,0
"210",0,0
"211",0,0
"212",0,0
"213",0,0
"214",0,0
"215",0,0
"216",0,0
"217",0,0
"218",0,0
"219",0,0
"220",0,0
"221",0,0
"222",0,0
"223",2,126
"224",15,182
"225",9,271
"226",3,42
"227",6,45
"228",9,412
"229",0,0
"230",0,0
"231",0,0
"232",0,0
"233",8,157
"234",6,89
"235",15,263
"236",6,146
"237",12,515
"238",15,1083
"239",0,0
"240",0,0
"241",0,0
"242",0,0
"243",9,433
"244",3,27
"245",4,34
"246",6,42
"247",17,277
"248",41,1082
"249",13,468
"250",0,0
"251",0,0
"252",0,0
"253",8,194
"254",13,270
"255",6,81
"256",15,406
"257",18,568
"258",4,93
"259",0,0
"260",0,0
"261",0,0
"262",0,0
"263",7,195
"264",10,196
"265",16,370
"266",14,548
"267",28,1182
"268",0,0
"269",0,0
"270",0,0
"271",0,0
"272",0,0
"273",10,313
"274",16,348
"275",24,724
"276",11,292
"277",19,772
"278",4,86
"279",0,0
"280",0,0
"281",0,0
"282",0,0
"283",17,392
"284",8,202
"285",11,175
"286",0,0
"287",16,358
"288",1,50
"289",0,0
"290",0,0
"291",0,0
"292",0,0
"293",8,92
"294",2,14
"295",0,0
"296",2,12
"297",10,189
"298",0,0
"299",0,0
"300",0,0
"301",0,0
"302",2,26
"303",6,153
"304",1,5
"305",9,106
"306",3,18
"307",5,97
"308",0,0
"309",0,0
"310",0,0
"311",0,0
"312",11,392
"313",5,22
"314",0,0
"315",4,34
"316",0,0
"317",0,0
"318",0,0
"319",0,0
"320",0,0
"321",0,0
"322",27,1090
"323",16,285
"324",3,46
"325",1,15
"326",2,20
"327",0,0
"328",0,0
"329",0,0
"330",0,0
"331",0,0
"332",20,601
"333",6,89
"334",12,165
"335",0,0
"336",3,74
"337",0,0
"338",0,0
"339",0,0
"340",0,0
"341",0,0
"342",6,37
"343",3,15
"344",2,13
"345",4,8
"346",22,680
"347",0,0
"348",0,0
"349",0,0
"350",0,0
"351",3,10
"352",17,341
"353",12,302
"354",5,178
"355",6,115
"356",7,39
"357",0,0
"358",0,0
"359",0,0
"360",0,0
"361",9,281
"362",22,376
"363",22,654
"364",28,1090
"365",7,140
"366",20,446
"367",0,0
"368",0,0
"369",0,0
"370",0,0
"371",19,279
"372",20,286
"373",25,554
"374",18,389
"375",45,3010
"376",14,220
"377",0,0
"378",0,0
"379",0,0
"380",0,0
"381",7,84
"382",7,52
"383",8,69
"384",3,15
"385",10,95
"386",1,13
"387",0,0
"388",0,0
"389",0,0
"390",0,0
"391",21,484
"392",19,141
"393",15,178
"394",9,147
"395",8,87
"396",9,103
"397",0,0
"398",0,0
"399",0,0
"400",0,0
"401",6,88
"402",11,114
"403",27,375
"404",0,0
"405",2,42
"406",0,0
"407",0,0
"408",0,0
"409",0,0
"410",0,0
"411",7,13
"412",20,279
"413",10,157
"414",4,12
"415",7,107
"416",0,0
"417",0,0
"418",0,0
"419",0,0
"420",0,0
"421",0,0
"422",0,0
"423",10,107
"424",4,4
"425",5,117
"426",0,0
"427",0,0
"428",0,0
"429",0,0
"430",0,0
"431",0,0
"432",1,25
"433",3,25
"434",7,93
"435",3,32
"436",0,0
"437",0,0
"438",0,0
"439",0,0
"440",0,0
"441",0,0
"442",0,0
"443",0,0
"444",1,30
"445",0,0
"446",0,0
"447",0,0
"448",0,0
"449",0,0
"450",0,0
"451",0,0
"452",0,0
"453",0,0
"454",4,35
"455",0,0
"456",0,0
"457",0,0
"458",0,0
"459",0,0
"460",0,0
"461",0,0
"462",0,0
"463",0,0
"464",0,0
"465",0,0
"466",0,0
"467",0,0
"468",0,0
"469",0,0
"470",0,0
"471",0,0
"472",0,0
"473",0,0
"474",0,0
"475",0,0
"476",0,0
"477",0,0
"478",0,0
"479",0,0
"480",0,0
"481",0,0
"482",0,0
"483",0,0
"484",0,0
"485",0,0
"486",0,0
"487",0,0
"488",0,0
"489",0,0
"490",0,0
"491",0,0
"492",0,0
"493",0,0
"494",0,0
"495",0,0
"496",0,0
"497",0,0
"498",0,0
"499",0,0
"500",0,0
