"","n_obs","n_total"
"1",0,0
"2",0,0
"3",0,0
"4",0,0
"5",0,0
"6",0,0
"7",0,0
"8",0,0
"9",0,0
"10",0,0
"11",0,0
"12",0,0
"13",0,0
"14",0,0
"15",0,0
"16",0,0
"17",0,0
"18",0,0
"19",0,0
"20",0,0
"21",0,0
"22",0,0
"23",0,0
"24",0,0
"25",0,0
"26",3,3
"27",7,7
"28",0,0
"29",1,1
"30",2,2
"31",0,0
"32",0,0
"33",0,0
"34",0,0
"35",2,2
"36",1,1
"37",3,4
"38",1,2
"39",3,3
"40",2,3
"41",0,0
"42",0,0
"43",0,0
"44",2,3
"45",2,2
"46",2,2
"47",0,0
"48",1,1
"49",9,10
"50",28,44
"51",0,0
"52",0,0
"53",1,2
"54",1,1
"55",1,2
"56",2,2
"57",1,1
"58",1,1
"59",6,8
"60",1,1
"61",0,0
"62",0,0
"63",0,0
"64",1,1
"65",0,0
"66",9,11
"67",1,3
"68",1,1
"69",0,0
"70",0,0
"71",0,0
"72",0,0
"73",1,1
"74",1,1
"75",3,4
"76",2,4
"77",1,1
"78",0,0
"79",2,2
"80",1,1
"81",0,0
"82",0,0
"83",0,0
"84",6,10
"85",1,1
"86",0,0
"87",0,0
"88",1,1
"89",5,5
"90",0,0
"91",0,0
"92",0,0
"93",0,0
"94",0,0
"95",0,0
"96",0,0
"97",2,2
"98",3,4
"99",7,8
"100",1,1
"101",0,0
"102",0,0
"103",0,0
"104",0,0
"105",0,0
"106",0,0
"107",5,5
"108",1,1
"109",9,14
"110",0,0
"111",0,0
"112",0,0
"113",0,0
"114",0,0
"115",0,0
"116",0,0
"117",0,0
"118",5,5
"119",7,7
"120",1,2
"121",0,0
"122",0,0
"123",0,0
"124",0,0
"125",0,0
"126",0,0
"127",5,5
"128",7,10
"129",9,10
"130",5,6
"131",0,0
"132",0,0
"133",0,0
"134",0,0
"135",0,0
"136",0,0
"137",11,14
"138",8,15
"139",8,9
"140",35,44
"141",0,0
"142",0,0
"143",0,0
"144",0,0
"145",0,0
"146",3,3
"147",7,10
"148",10,10
"149",13,18
"150",15,18
"151",0,0
"152",0,0
"153",0,0
"154",0,0
"155",1,1
"156",0,0
"157",2,2
"158",10,11
"159",38,50
"160",56,74
"161",0,0
"162",0,0
"163",0,0
"164",0,0
"165",24,35
"166",10,11
"167",2,3
"168",28,32
"169",19,21
"170",16,19
"171",0,0
"172",0,0
"173",0,0
"174",0,0
"175",17,20
"176",9,13
"177",3,7
"178",31,48
"179",58,73
"180",11,36
"181",0,0
"182",0,0
"183",0,0
"184",0,0
"185",24,26
"186",10,13
"187",6,6
"188",5,18
"189",22,25
"190",5,5
"191",0,0
"192",0,0
"193",0,0
"194",0,0
"195",0,0
"196",1,1
"197",4,6
"198",15,19
"199",6,6
"200",4,4
"201",0,0
"202",0,0
"203",0,0
"204",0,0
"205",1,1
"206",1,1
"207",9,15
"208",19,24
"209",5,6
"210",1,1
"211",0,0
"212",0,0
"213",0,0
"214",0,0
"215",0,0
"216",0,0
"217",4,4
"218",1,1
"219",1,1
"220",0,0
"221",0,0
"222",0,0
"223",1,1
"224",0,0
"225",0,0
"226",0,0
"227",5,9
"228",10,12
"229",11,16
"230",0,0
"231",0,0
"232",0,0
"233",0,0
"234",3,3
"235",0,0
"236",1,1
"237",0,0
"238",1,1
"239",0,0
"240",0,0
"241",0,0
"242",0,0
"243",0,0
"244",0,0
"245",0,0
"246",1,1
"247",2,3
"248",4,4
"249",0,0
"250",0,0
"251",0,0
"252",0,0
"253",0,0
"254",2,2
"255",1,1
"256",1,1
"257",2,2
"258",2,2
"259",0,0
"260",0,0
"261",0,0
"262",0,0
"263",5,7
"264",5,5
"265",2,2
"266",6,9
"267",3,3
"268",0,0
"269",0,0
"270",0,0
"271",0,0
"272",0,0
"273",3,3
"274",7,8
"275",1,1
"276",3,3
"277",1,2
"278",0,0
"279",0,0
"280",0,0
"281",0,0
"282",0,0
"283",2,2
"284",0,0
"285",0,0
"286",6,9
"287",7,8
"288",0,0
"289",0,0
"290",0,0
"291",0,0
"292",0,0
"293",0,0
"294",1,1
"295",0,0
"296",4,4
"297",2,2
"298",0,0
"299",0,0
"300",0,0
"301",0,0
"302",0,0
"303",0,0
"304",1,1
"305",0,0
"306",1,1
"307",1,1
"308",0,0
"309",0,0
"310",0,0
"311",0,0
"312",0,0
"313",1,1
"314",0,0
"315",8,15
"316",0,0
"317",0,0
"318",0,0
"319",0,0
"320",0,0
"321",0,0
"322",2,2
"323",1,1
"324",0,0
"325",14,20
"326",2,4
"327",0,0
"328",0,0
"329",0,0
"330",0,0
"331",0,0
"332",3,3
"333",0,0
"334",0,0
"335",1,1
"336",3,4
"337",0,0
"338",0,0
"339",0,0
"340",0,0
"341",0,0
"342",1,1
"343",1,1
"344",2,2
"345",5,6
"346",1,1
"347",0,0
"348",0,0
"349",0,0
"350",0,0
"351",2,2
"352",4,4
"353",1,1
"354",6,7
"355",6,8
"356",0,0
"357",0,0
"358",0,0
"359",0,0
"360",0,0
"361",1,4
"362",0,0
"363",0,0
"364",1,1
"365",4,4
"366",0,0
"367",0,0
"368",0,0
"369",0,0
"370",0,0
"371",0,0
"372",5,6
"373",9,9
"374",9,10
"375",5,8
"376",1,1
"377",0,0
"378",0,0
"379",0,0
"380",0,0
"381",0,0
"382",6,6
"383",1,1
"384",6,6
"385",8,10
"386",1,2
"387",0,0
"388",0,0
"389",0,0
"390",0,0
"391",3,3
"392",5,9
"393",6,6
"394",5,8
"395",8,10
"396",0,0
"397",0,0
"398",0,0
"399",0,0
"400",0,0
"401",0,0
"402",0,0
"403",4,4
"404",0,0
"405",3,3
"406",0,0
"407",0,0
"408",0,0
"409",0,0
"410",0,0
"411",0,0
"412",3,3
"413",7,13
"414",2,4
"415",3,4
"416",0,0
"417",0,0
"418",0,0
"419",0,0
"420",0,0
"421",0,0
"422",0,0
"423",5,8
"424",2,6
"425",1,1
"426",0,0
"427",0,0
"428",0,0
"429",0,0
"430",0,0
"431",0,0
"432",0,0
"433",11,13
"434",3,6
"435",0,0
"436",0,0
"437",0,0
"438",0,0
"439",0,0
"440",0,0
"441",0,0
"442",0,0
"443",9,11
"444",3,4
"445",0,0
"446",0,0
"447",0,0
"448",0,0
"449",0,0
"450",0,0
"451",0,0
"452",0,0
"453",0,0
"454",0,0
"455",0,0
"456",0,0
"457",0,0
"458",0,0
"459",0,0
"460",0,0
"461",0,0
"462",0,0
"463",0,0
"464",0,0
"465",0,0
"466",0,0
"467",0,0
"468",0,0
"469",0,0
"470",0,0
"471",0,0
"472",0,0
"473",0,0
"474",0,0
"475",0,0
"476",0,0
"477",0,0
"478",0,0
"479",0,0
"480",0,0
"481",0,0
"482",0,0
"483",0,0
"484",0,0
"485",0,0
"486",0,0
"487",0,0
"488",0,0
"489",0,0
"490",0,0
"491",0,0
"492",0,0
"493",0,0
"494",0,0
"495",0,0
"496",0,0
"497",0,0
"498",0,0
"499",0,0
"500",0,0
