"","n_obs","n_total"
"1",0,0
"2",0,0
"3",0,0
"4",0,0
"5",0,0
"6",0,0
"7",0,0
"8",0,0
"9",0,0
"10",0,0
"11",0,0
"12",0,0
"13",0,0
"14",0,0
"15",0,0
"16",1,2
"17",3,3
"18",0,0
"19",0,0
"20",0,0
"21",0,0
"22",0,0
"23",0,0
"24",0,0
"25",0,0
"26",2,6
"27",5,9
"28",4,11
"29",0,0
"30",2,8
"31",0,0
"32",0,0
"33",0,0
"34",0,0
"35",1,5
"36",0,0
"37",2,4
"38",4,18
"39",3,5
"40",3,8
"41",0,0
"42",0,0
"43",0,0
"44",2,6
"45",0,0
"46",2,6
"47",0,0
"48",4,12
"49",2,8
"50",2,6
"51",0,0
"52",0,0
"53",1,4
"54",0,0
"55",1,3
"56",0,0
"57",1,1
"58",1,6
"59",1,4
"60",1,1
"61",0,0
"62",0,0
"63",0,0
"64",3,8
"65",1,1
"66",1,3
"67",0,0
"68",1,1
"69",3,10
"70",6,38
"71",0,0
"72",0,0
"73",2,2
"74",0,0
"75",2,10
"76",0,0
"77",1,4
"78",2,6
"79",1,1
"80",0,0
"81",0,0
"82",0,0
"83",0,0
"84",2,4
"85",2,2
"86",1,1
"87",1,4
"88",1,12
"89",0,0
"90",2,12
"91",0,0
"92",0,0
"93",0,0
"94",0,0
"95",0,0
"96",0,0
"97",4,4
"98",6,20
"99",0,0
"100",1,3
"101",0,0
"102",0,0
"103",0,0
"104",0,0
"105",0,0
"106",0,0
"107",2,6
"108",0,0
"109",3,5
"110",3,6
"111",0,0
"112",0,0
"113",0,0
"114",0,0
"115",0,0
"116",0,0
"117",2,4
"118",1,1
"119",3,5
"120",3,9
"121",0,0
"122",0,0
"123",0,0
"124",0,0
"125",0,0
"126",0,0
"127",0,0
"128",5,29
"129",0,0
"130",8,23
"131",0,0
"132",0,0
"133",0,0
"134",0,0
"135",0,0
"136",0,0
"137",1,5
"138",1,4
"139",0,0
"140",0,0
"141",0,0
"142",0,0
"143",0,0
"144",0,0
"145",0,0
"146",1,3
"147",13,35
"148",8,25
"149",0,0
"150",0,0
"151",0,0
"152",0,0
"153",0,0
"154",0,0
"155",0,0
"156",4,12
"157",6,16
"158",5,17
"159",0,0
"160",0,0
"161",0,0
"162",0,0
"163",0,0
"164",0,0
"165",5,23
"166",3,4
"167",1,3
"168",3,10
"169",0,0
"170",1,2
"171",0,0
"172",0,0
"173",0,0
"174",0,0
"175",0,0
"176",6,16
"177",1,2
"178",5,35
"179",8,39
"180",5,12
"181",0,0
"182",0,0
"183",0,0
"184",0,0
"185",0,0
"186",2,7
"187",2,5
"188",1,2
"189",4,13
"190",1,2
"191",0,0
"192",0,0
"193",0,0
"194",0,0
"195",3,6
"196",9,22
"197",10,35
"198",1,4
"199",1,4
"200",2,3
"201",0,0
"202",0,0
"203",0,0
"204",0,0
"205",1,7
"206",0,0
"207",3,5
"208",2,4
"209",0,0
"210",0,0
"211",0,0
"212",0,0
"213",0,0
"214",0,0
"215",0,0
"216",4,11
"217",4,12
"218",1,1
"219",0,0
"220",0,0
"221",0,0
"222",0,0
"223",0,0
"224",1,15
"225",1,3
"226",2,6
"227",2,3
"228",0,0
"229",3,18
"230",0,0
"231",0,0
"232",0,0
"233",0,0
"234",1,1
"235",3,4
"236",4,11
"237",8,19
"238",6,18
"239",4,12
"240",0,0
"241",0,0
"242",0,0
"243",3,11
"244",2,2
"245",10,16
"246",3,4
"247",6,7
"248",3,5
"249",4,9
"250",0,0
"251",0,0
"252",0,0
"253",3,5
"254",2,4
"255",5,9
"256",6,9
"257",4,7
"258",5,7
"259",0,0
"260",0,0
"261",0,0
"262",0,0
"263",1,6
"264",7,18
"265",5,12
"266",6,7
"267",5,23
"268",0,0
"269",0,0
"270",0,0
"271",0,0
"272",0,0
"273",0,0
"274",2,6
"275",5,14
"276",12,14
"277",5,8
"278",0,0
"279",0,0
"280",0,0
"281",0,0
"282",0,0
"283",2,6
"284",3,4
"285",9,17
"286",3,3
"287",2,2
"288",0,0
"289",0,0
"290",0,0
"291",0,0
"292",1,1
"293",6,7
"294",10,17
"295",7,8
"296",2,2
"297",4,9
"298",0,0
"299",0,0
"300",0,0
"301",0,0
"302",3,12
"303",6,7
"304",2,4
"305",6,17
"306",0,0
"307",1,1
"308",0,0
"309",0,0
"310",0,0
"311",0,0
"312",2,6
"313",10,16
"314",5,8
"315",7,15
"316",0,0
"317",0,0
"318",0,0
"319",0,0
"320",0,0
"321",0,0
"322",7,11
"323",11,44
"324",11,27
"325",0,0
"326",1,1
"327",0,0
"328",0,0
"329",0,0
"330",0,0
"331",0,0
"332",3,7
"333",8,13
"334",3,4
"335",0,0
"336",0,0
"337",0,0
"338",0,0
"339",0,0
"340",0,0
"341",1,5
"342",1,2
"343",8,18
"344",5,8
"345",8,11
"346",2,7
"347",0,0
"348",0,0
"349",0,0
"350",0,0
"351",1,2
"352",2,5
"353",6,16
"354",10,21
"355",4,6
"356",6,22
"357",0,0
"358",0,0
"359",0,0
"360",0,0
"361",3,3
"362",1,1
"363",11,28
"364",8,10
"365",1,2
"366",4,6
"367",0,0
"368",0,0
"369",0,0
"370",0,0
"371",6,22
"372",1,1
"373",10,23
"374",4,6
"375",4,4
"376",10,41
"377",0,0
"378",0,0
"379",0,0
"380",0,0
"381",4,11
"382",1,5
"383",0,0
"384",2,2
"385",12,42
"386",0,0
"387",0,0
"388",0,0
"389",0,0
"390",0,0
"391",7,13
"392",5,27
"393",1,3
"394",1,2
"395",6,20
"396",1,5
"397",0,0
"398",0,0
"399",0,0
"400",0,0
"401",1,1
"402",1,1
"403",5,20
"404",1,1
"405",6,24
"406",0,0
"407",0,0
"408",0,0
"409",0,0
"410",0,0
"411",0,0
"412",3,7
"413",3,6
"414",1,2
"415",9,20
"416",0,0
"417",0,0
"418",0,0
"419",0,0
"420",0,0
"421",2,11
"422",4,10
"423",8,38
"424",2,3
"425",13,38
"426",0,0
"427",0,0
"428",0,0
"429",0,0
"430",0,0
"431",0,0
"432",2,3
"433",6,17
"434",1,2
"435",7,16
"436",0,0
"437",0,0
"438",0,0
"439",0,0
"440",0,0
"441",0,0
"442",0,0
"443",0,0
"444",2,2
"445",1,1
"446",0,0
"447",0,0
"448",0,0
"449",0,0
"450",0,0
"451",0,0
"452",0,0
"453",3,15
"454",2,9
"455",3,11
"456",0,0
"457",0,0
"458",0,0
"459",0,0
"460",0,0
"461",0,0
"462",0,0
"463",0,0
"464",0,0
"465",0,0
"466",0,0
"467",0,0
"468",0,0
"469",0,0
"470",0,0
"471",0,0
"472",0,0
"473",0,0
"474",0,0
"475",0,0
"476",0,0
"477",0,0
"478",0,0
"479",0,0
"480",0,0
"481",0,0
"482",0,0
"483",0,0
"484",0,0
"485",0,0
"486",0,0
"487",0,0
"488",0,0
"489",0,0
"490",0,0
"491",0,0
"492",0,0
"493",0,0
"494",0,0
"495",0,0
"496",0,0
"497",0,0
"498",0,0
"499",0,0
"500",0,0
