"","n_obs","n_total"
"1",0,0
"2",0,0
"3",0,0
"4",0,0
"5",0,0
"6",0,0
"7",0,0
"8",0,0
"9",0,0
"10",0,0
"11",0,0
"12",0,0
"13",0,0
"14",0,0
"15",0,0
"16",0,0
"17",0,0
"18",0,0
"19",0,0
"20",0,0
"21",0,0
"22",0,0
"23",0,0
"24",0,0
"25",2,32
"26",2,17
"27",0,0
"28",0,0
"29",1,7
"30",1,14
"31",0,0
"32",0,0
"33",0,0
"34",3,47
"35",2,8
"36",1,2
"37",0,0
"38",0,0
"39",1,13
"40",2,17
"41",0,0
"42",0,0
"43",0,0
"44",4,47
"45",2,12
"46",1,7
"47",1,6
"48",0,0
"49",5,70
"50",20,353
"51",0,0
"52",0,0
"53",1,7
"54",4,44
"55",1,8
"56",1,24
"57",2,12
"58",1,5
"59",1,15
"60",3,31
"61",0,0
"62",0,0
"63",4,31
"64",0,0
"65",0,0
"66",7,81
"67",0,0
"68",1,12
"69",0,0
"70",2,31
"71",0,0
"72",0,0
"73",0,0
"74",1,14
"75",1,9
"76",0,0
"77",0,0
"78",0,0
"79",0,0
"80",5,73
"81",0,0
"82",0,0
"83",0,0
"84",2,16
"85",2,19
"86",0,0
"87",0,0
"88",2,20
"89",0,0
"90",7,94
"91",0,0
"92",0,0
"93",0,0
"94",0,0
"95",0,0
"96",0,0
"97",1,5
"98",4,32
"99",9,161
"100",6,161
"101",0,0
"102",0,0
"103",0,0
"104",0,0
"105",0,0
"106",0,0
"107",2,49
"108",2,35
"109",3,29
"110",0,0
"111",0,0
"112",0,0
"113",0,0
"114",0,0
"115",0,0
"116",0,0
"117",0,0
"118",1,21
"119",2,25
"120",0,0
"121",0,0
"122",0,0
"123",0,0
"124",0,0
"125",0,0
"126",0,0
"127",3,76
"128",7,85
"129",2,7
"130",3,32
"131",0,0
"132",0,0
"133",0,0
"134",0,0
"135",0,0
"136",0,0
"137",1,8
"138",1,11
"139",13,100
"140",38,446
"141",0,0
"142",0,0
"143",0,0
"144",0,0
"145",0,0
"146",2,31
"147",0,0
"148",8,97
"149",17,337
"150",14,198
"151",0,0
"152",0,0
"153",0,0
"154",0,0
"155",0,0
"156",0,0
"157",0,0
"158",5,59
"159",10,197
"160",11,207
"161",0,0
"162",0,0
"163",0,0
"164",0,0
"165",5,114
"166",2,12
"167",2,16
"168",18,205
"169",13,219
"170",15,247
"171",0,0
"172",0,0
"173",0,0
"174",0,0
"175",5,63
"176",10,108
"177",2,12
"178",10,126
"179",21,302
"180",2,22
"181",0,0
"182",0,0
"183",0,0
"184",0,0
"185",6,105
"186",5,88
"187",1,12
"188",7,139
"189",23,446
"190",6,69
"191",0,0
"192",0,0
"193",0,0
"194",0,0
"195",0,0
"196",0,0
"197",1,30
"198",9,165
"199",10,203
"200",3,47
"201",0,0
"202",0,0
"203",0,0
"204",0,0
"205",0,0
"206",1,8
"207",4,23
"208",1,22
"209",6,102
"210",0,0
"211",0,0
"212",0,0
"213",0,0
"214",0,0
"215",0,0
"216",0,0
"217",2,18
"218",4,31
"219",0,0
"220",0,0
"221",0,0
"222",0,0
"223",2,3
"224",3,29
"225",0,0
"226",1,8
"227",3,26
"228",7,50
"229",4,36
"230",0,0
"231",0,0
"232",0,0
"233",0,0
"234",4,26
"235",0,0
"236",0,0
"237",0,0
"238",4,45
"239",1,8
"240",0,0
"241",0,0
"242",0,0
"243",0,0
"244",0,0
"245",0,0
"246",0,0
"247",1,21
"248",4,17
"249",0,0
"250",0,0
"251",0,0
"252",0,0
"253",3,36
"254",2,23
"255",0,0
"256",6,47
"257",0,0
"258",0,0
"259",0,0
"260",0,0
"261",0,0
"262",0,0
"263",0,0
"264",1,5
"265",2,15
"266",3,34
"267",0,0
"268",0,0
"269",0,0
"270",0,0
"271",0,0
"272",0,0
"273",3,25
"274",1,5
"275",0,0
"276",0,0
"277",0,0
"278",0,0
"279",0,0
"280",0,0
"281",0,0
"282",0,0
"283",0,0
"284",2,11
"285",0,0
"286",4,64
"287",3,32
"288",0,0
"289",0,0
"290",0,0
"291",0,0
"292",0,0
"293",0,0
"294",0,0
"295",0,0
"296",2,44
"297",3,52
"298",0,0
"299",0,0
"300",0,0
"301",0,0
"302",0,0
"303",0,0
"304",0,0
"305",0,0
"306",0,0
"307",2,49
"308",0,0
"309",0,0
"310",0,0
"311",0,0
"312",0,0
"313",0,0
"314",0,0
"315",3,56
"316",0,0
"317",0,0
"318",0,0
"319",0,0
"320",0,0
"321",0,0
"322",0,0
"323",0,0
"324",0,0
"325",5,161
"326",1,3
"327",0,0
"328",0,0
"329",0,0
"330",0,0
"331",0,0
"332",1,10
"333",0,0
"334",0,0
"335",0,0
"336",0,0
"337",0,0
"338",0,0
"339",0,0
"340",0,0
"341",0,0
"342",3,32
"343",1,8
"344",1,12
"345",0,0
"346",2,19
"347",0,0
"348",0,0
"349",0,0
"350",0,0
"351",0,0
"352",1,5
"353",1,10
"354",0,0
"355",1,40
"356",0,0
"357",0,0
"358",0,0
"359",0,0
"360",0,0
"361",0,0
"362",0,0
"363",1,6
"364",1,7
"365",3,26
"366",0,0
"367",0,0
"368",0,0
"369",0,0
"370",0,0
"371",2,20
"372",0,0
"373",5,92
"374",10,185
"375",6,132
"376",1,4
"377",0,0
"378",0,0
"379",0,0
"380",0,0
"381",0,0
"382",3,9
"383",3,68
"384",0,0
"385",1,7
"386",0,0
"387",0,0
"388",0,0
"389",0,0
"390",0,0
"391",0,0
"392",2,22
"393",2,27
"394",1,18
"395",2,47
"396",0,0
"397",0,0
"398",0,0
"399",0,0
"400",0,0
"401",1,8
"402",0,0
"403",0,0
"404",0,0
"405",0,0
"406",0,0
"407",0,0
"408",0,0
"409",0,0
"410",0,0
"411",0,0
"412",4,46
"413",0,0
"414",2,33
"415",2,14
"416",0,0
"417",0,0
"418",0,0
"419",0,0
"420",0,0
"421",0,0
"422",0,0
"423",1,1
"424",1,9
"425",0,0
"426",0,0
"427",0,0
"428",0,0
"429",0,0
"430",0,0
"431",0,0
"432",0,0
"433",4,42
"434",2,59
"435",0,0
"436",0,0
"437",0,0
"438",0,0
"439",0,0
"440",0,0
"441",0,0
"442",0,0
"443",1,7
"444",2,51
"445",0,0
"446",0,0
"447",0,0
"448",0,0
"449",0,0
"450",0,0
"451",0,0
"452",0,0
"453",0,0
"454",1,5
"455",0,0
"456",0,0
"457",0,0
"458",0,0
"459",0,0
"460",0,0
"461",0,0
"462",0,0
"463",0,0
"464",0,0
"465",0,0
"466",0,0
"467",0,0
"468",0,0
"469",0,0
"470",0,0
"471",0,0
"472",0,0
"473",0,0
"474",0,0
"475",0,0
"476",0,0
"477",0,0
"478",0,0
"479",0,0
"480",0,0
"481",0,0
"482",0,0
"483",0,0
"484",0,0
"485",0,0
"486",0,0
"487",0,0
"488",0,0
"489",0,0
"490",0,0
"491",0,0
"492",0,0
"493",0,0
"494",0,0
"495",0,0
"496",0,0
"497",0,0
"498",0,0
"499",0,0
"500",0,0
