"","n_obs","n_total"
"1",0,0
"2",0,0
"3",0,0
"4",0,0
"5",0,0
"6",0,0
"7",0,0
"8",0,0
"9",0,0
"10",0,0
"11",0,0
"12",0,0
"13",0,0
"14",0,0
"15",0,0
"16",5,13
"17",0,0
"18",0,0
"19",0,0
"20",0,0
"21",0,0
"22",0,0
"23",0,0
"24",0,0
"25",1,7
"26",0,0
"27",0,0
"28",0,0
"29",3,9
"30",1,8
"31",0,0
"32",0,0
"33",0,0
"34",3,12
"35",3,44
"36",0,0
"37",0,0
"38",1,7
"39",1,4
"40",1,7
"41",0,0
"42",0,0
"43",0,0
"44",0,0
"45",1,4
"46",5,25
"47",0,0
"48",0,0
"49",1,6
"50",1,7
"51",0,0
"52",0,0
"53",2,8
"54",0,0
"55",6,30
"56",4,21
"57",0,0
"58",1,4
"59",0,0
"60",10,43
"61",0,0
"62",0,0
"63",3,9
"64",0,0
"65",1,3
"66",7,22
"67",0,0
"68",0,0
"69",0,0
"70",8,80
"71",0,0
"72",0,0
"73",0,0
"74",3,18
"75",0,0
"76",0,0
"77",0,0
"78",0,0
"79",2,6
"80",11,82
"81",0,0
"82",0,0
"83",0,0
"84",0,0
"85",1,1
"86",0,0
"87",0,0
"88",0,0
"89",6,22
"90",2,6
"91",0,0
"92",0,0
"93",0,0
"94",0,0
"95",0,0
"96",0,0
"97",1,9
"98",0,0
"99",2,8
"100",0,0
"101",0,0
"102",0,0
"103",0,0
"104",0,0
"105",0,0
"106",0,0
"107",0,0
"108",0,0
"109",8,38
"110",1,8
"111",0,0
"112",0,0
"113",0,0
"114",0,0
"115",0,0
"116",0,0
"117",0,0
"118",0,0
"119",18,119
"120",15,57
"121",0,0
"122",0,0
"123",0,0
"124",0,0
"125",0,0
"126",0,0
"127",5,34
"128",1,1
"129",2,4
"130",4,13
"131",0,0
"132",0,0
"133",0,0
"134",0,0
"135",0,0
"136",0,0
"137",0,0
"138",0,0
"139",0,0
"140",0,0
"141",0,0
"142",0,0
"143",0,0
"144",0,0
"145",0,0
"146",0,0
"147",1,5
"148",0,0
"149",0,0
"150",1,2
"151",0,0
"152",0,0
"153",0,0
"154",0,0
"155",0,0
"156",0,0
"157",0,0
"158",0,0
"159",2,12
"160",7,25
"161",0,0
"162",0,0
"163",0,0
"164",0,0
"165",0,0
"166",1,8
"167",2,25
"168",3,19
"169",0,0
"170",5,27
"171",0,0
"172",0,0
"173",0,0
"174",0,0
"175",2,7
"176",0,0
"177",1,2
"178",7,44
"179",0,0
"180",8,47
"181",0,0
"182",0,0
"183",0,0
"184",0,0
"185",0,0
"186",0,0
"187",0,0
"188",2,8
"189",10,59
"190",2,8
"191",0,0
"192",0,0
"193",0,0
"194",0,0
"195",0,0
"196",0,0
"197",0,0
"198",1,15
"199",3,36
"200",0,0
"201",0,0
"202",0,0
"203",0,0
"204",0,0
"205",0,0
"206",1,11
"207",5,15
"208",1,1
"209",3,13
"210",0,0
"211",0,0
"212",0,0
"213",0,0
"214",0,0
"215",0,0
"216",0,0
"217",3,21
"218",1,4
"219",0,0
"220",0,0
"221",0,0
"222",0,0
"223",0,0
"224",7,28
"225",10,55
"226",5,12
"227",11,62
"228",6,15
"229",2,10
"230",0,0
"231",0,0
"232",0,0
"233",1,1
"234",0,0
"235",3,6
"236",6,15
"237",11,52
"238",3,6
"239",4,15
"240",0,0
"241",0,0
"242",0,0
"243",0,0
"244",0,0
"245",0,0
"246",2,17
"247",0,0
"248",10,64
"249",17,72
"250",0,0
"251",0,0
"252",0,0
"253",0,0
"254",0,0
"255",0,0
"256",2,8
"257",11,47
"258",6,24
"259",0,0
"260",0,0
"261",0,0
"262",0,0
"263",0,0
"264",0,0
"265",0,0
"266",6,34
"267",8,35
"268",0,0
"269",0,0
"270",0,0
"271",0,0
"272",0,0
"273",0,0
"274",3,15
"275",15,63
"276",15,75
"277",12,47
"278",0,0
"279",0,0
"280",0,0
"281",0,0
"282",0,0
"283",14,60
"284",9,44
"285",3,6
"286",4,25
"287",3,23
"288",0,0
"289",0,0
"290",0,0
"291",0,0
"292",0,0
"293",6,21
"294",0,0
"295",3,7
"296",0,0
"297",0,0
"298",0,0
"299",0,0
"300",0,0
"301",0,0
"302",3,4
"303",1,1
"304",0,0
"305",13,73
"306",1,16
"307",1,6
"308",0,0
"309",0,0
"310",0,0
"311",0,0
"312",4,25
"313",1,3
"314",3,6
"315",15,89
"316",6,35
"317",0,0
"318",0,0
"319",0,0
"320",0,0
"321",0,0
"322",0,0
"323",0,0
"324",0,0
"325",0,0
"326",0,0
"327",0,0
"328",0,0
"329",0,0
"330",0,0
"331",0,0
"332",0,0
"333",0,0
"334",1,9
"335",0,0
"336",0,0
"337",0,0
"338",0,0
"339",0,0
"340",0,0
"341",0,0
"342",0,0
"343",0,0
"344",0,0
"345",0,0
"346",4,16
"347",0,0
"348",0,0
"349",0,0
"350",0,0
"351",0,0
"352",0,0
"353",1,1
"354",0,0
"355",0,0
"356",2,6
"357",0,0
"358",0,0
"359",0,0
"360",0,0
"361",1,2
"362",4,10
"363",4,18
"364",4,31
"365",0,0
"366",3,32
"367",0,0
"368",0,0
"369",0,0
"370",0,0
"371",0,0
"372",0,0
"373",1,3
"374",1,10
"375",9,47
"376",5,30
"377",0,0
"378",0,0
"379",0,0
"380",0,0
"381",0,0
"382",0,0
"383",0,0
"384",0,0
"385",2,11
"386",3,24
"387",0,0
"388",0,0
"389",0,0
"390",0,0
"391",0,0
"392",2,8
"393",0,0
"394",0,0
"395",0,0
"396",0,0
"397",0,0
"398",0,0
"399",0,0
"400",0,0
"401",0,0
"402",0,0
"403",10,56
"404",2,25
"405",0,0
"406",0,0
"407",0,0
"408",0,0
"409",0,0
"410",0,0
"411",1,2
"412",12,65
"413",9,70
"414",5,26
"415",1,19
"416",0,0
"417",0,0
"418",0,0
"419",0,0
"420",0,0
"421",0,0
"422",0,0
"423",4,46
"424",0,0
"425",0,0
"426",0,0
"427",0,0
"428",0,0
"429",0,0
"430",0,0
"431",0,0
"432",0,0
"433",1,3
"434",0,0
"435",0,0
"436",0,0
"437",0,0
"438",0,0
"439",0,0
"440",0,0
"441",0,0
"442",0,0
"443",0,0
"444",0,0
"445",0,0
"446",0,0
"447",0,0
"448",0,0
"449",0,0
"450",0,0
"451",0,0
"452",0,0
"453",0,0
"454",0,0
"455",0,0
"456",0,0
"457",0,0
"458",0,0
"459",0,0
"460",0,0
"461",0,0
"462",0,0
"463",0,0
"464",0,0
"465",0,0
"466",0,0
"467",0,0
"468",0,0
"469",0,0
"470",0,0
"471",0,0
"472",0,0
"473",0,0
"474",0,0
"475",0,0
"476",0,0
"477",0,0
"478",0,0
"479",0,0
"480",0,0
"481",0,0
"482",0,0
"483",0,0
"484",0,0
"485",0,0
"486",0,0
"487",0,0
"488",0,0
"489",0,0
"490",0,0
"491",0,0
"492",0,0
"493",0,0
"494",0,0
"495",0,0
"496",0,0
"497",0,0
"498",0,0
"499",0,0
"500",0,0
