"","n_obs","n_total"
"1",0,0
"2",0,0
"3",0,0
"4",0,0
"5",0,0
"6",0,0
"7",0,0
"8",0,0
"9",0,0
"10",0,0
"11",0,0
"12",0,0
"13",0,0
"14",0,0
"15",0,0
"16",0,0
"17",0,0
"18",0,0
"19",0,0
"20",0,0
"21",0,0
"22",0,0
"23",0,0
"24",1,180
"25",0,0
"26",0,0
"27",0,0
"28",1,40
"29",0,0
"30",1,150
"31",0,0
"32",0,0
"33",0,0
"34",1,250
"35",0,0
"36",0,0
"37",0,0
"38",0,0
"39",1,120
"40",1,25
"41",0,0
"42",0,0
"43",0,0
"44",0,0
"45",1,200
"46",0,0
"47",0,0
"48",0,0
"49",0,0
"50",0,0
"51",0,0
"52",0,0
"53",0,0
"54",0,0
"55",0,0
"56",0,0
"57",0,0
"58",0,0
"59",1,450
"60",2,8
"61",0,0
"62",0,0
"63",0,0
"64",1,4
"65",0,0
"66",1,14
"67",0,0
"68",0,0
"69",0,0
"70",3,500
"71",0,0
"72",0,0
"73",1,50
"74",1,60
"75",0,0
"76",0,0
"77",0,0
"78",0,0
"79",0,0
"80",2,204
"81",0,0
"82",0,0
"83",0,0
"84",0,0
"85",0,0
"86",0,0
"87",1,19
"88",0,0
"89",1,40
"90",1,100
"91",0,0
"92",0,0
"93",0,0
"94",0,0
"95",0,0
"96",0,0
"97",1,20
"98",1,41
"99",1,300
"100",0,0
"101",0,0
"102",0,0
"103",0,0
"104",0,0
"105",0,0
"106",0,0
"107",1,400
"108",1,20
"109",3,105
"110",0,0
"111",0,0
"112",0,0
"113",0,0
"114",0,0
"115",0,0
"116",0,0
"117",0,0
"118",0,0
"119",1,2
"120",0,0
"121",0,0
"122",0,0
"123",0,0
"124",0,0
"125",0,0
"126",0,0
"127",0,0
"128",1,41
"129",0,0
"130",0,0
"131",0,0
"132",0,0
"133",0,0
"134",0,0
"135",0,0
"136",0,0
"137",1,2
"138",1,100
"139",0,0
"140",0,0
"141",0,0
"142",0,0
"143",0,0
"144",0,0
"145",0,0
"146",1,100
"147",0,0
"148",0,0
"149",0,0
"150",0,0
"151",0,0
"152",0,0
"153",0,0
"154",0,0
"155",1,400
"156",2,220
"157",1,2
"158",3,330
"159",0,0
"160",0,0
"161",0,0
"162",0,0
"163",0,0
"164",0,0
"165",2,205
"166",0,0
"167",1,150
"168",1,3
"169",0,0
"170",1,60
"171",0,0
"172",0,0
"173",0,0
"174",0,0
"175",1,4
"176",1,60
"177",0,0
"178",0,0
"179",0,0
"180",1,250
"181",0,0
"182",0,0
"183",0,0
"184",0,0
"185",0,0
"186",0,0
"187",1,250
"188",0,0
"189",1,2
"190",0,0
"191",0,0
"192",0,0
"193",0,0
"194",0,0
"195",0,0
"196",0,0
"197",0,0
"198",2,165
"199",1,350
"200",0,0
"201",0,0
"202",0,0
"203",0,0
"204",0,0
"205",1,20
"206",4,121
"207",0,0
"208",0,0
"209",0,0
"210",0,0
"211",0,0
"212",0,0
"213",0,0
"214",0,0
"215",0,0
"216",0,0
"217",1,81
"218",1,250
"219",1,160
"220",0,0
"221",0,0
"222",0,0
"223",0,0
"224",0,0
"225",1,50
"226",0,0
"227",2,101
"228",1,400
"229",0,0
"230",0,0
"231",0,0
"232",0,0
"233",0,0
"234",1,60
"235",0,0
"236",0,0
"237",2,165
"238",0,0
"239",2,6
"240",0,0
"241",0,0
"242",0,0
"243",4,204
"244",2,38
"245",3,160
"246",1,600
"247",1,250
"248",2,43
"249",0,0
"250",0,0
"251",0,0
"252",0,0
"253",0,0
"254",3,10
"255",1,1
"256",0,0
"257",0,0
"258",0,0
"259",0,0
"260",0,0
"261",0,0
"262",0,0
"263",0,0
"264",0,0
"265",0,0
"266",1,150
"267",0,0
"268",1,130
"269",0,0
"270",0,0
"271",0,0
"272",0,0
"273",0,0
"274",0,0
"275",0,0
"276",1,250
"277",0,0
"278",0,0
"279",0,0
"280",0,0
"281",0,0
"282",0,0
"283",0,0
"284",2,115
"285",0,0
"286",2,240
"287",1,250
"288",0,0
"289",0,0
"290",0,0
"291",0,0
"292",0,0
"293",3,327
"294",2,220
"295",1,200
"296",1,60
"297",1,50
"298",0,0
"299",0,0
"300",0,0
"301",0,0
"302",0,0
"303",6,250
"304",0,0
"305",0,0
"306",2,303
"307",1,40
"308",0,0
"309",0,0
"310",0,0
"311",0,0
"312",3,55
"313",3,280
"314",1,200
"315",3,202
"316",0,0
"317",0,0
"318",0,0
"319",0,0
"320",0,0
"321",0,0
"322",3,39
"323",0,0
"324",2,54
"325",0,0
"326",1,200
"327",0,0
"328",0,0
"329",0,0
"330",0,0
"331",0,0
"332",1,450
"333",3,220
"334",2,170
"335",1,100
"336",0,0
"337",0,0
"338",0,0
"339",0,0
"340",0,0
"341",0,0
"342",2,145
"343",1,300
"344",1,150
"345",1,300
"346",1,48
"347",0,0
"348",0,0
"349",0,0
"350",0,0
"351",0,0
"352",2,110
"353",4,165
"354",0,0
"355",0,0
"356",2,400
"357",0,0
"358",0,0
"359",0,0
"360",0,0
"361",2,156
"362",2,105
"363",1,60
"364",2,77
"365",0,0
"366",0,0
"367",0,0
"368",0,0
"369",0,0
"370",0,0
"371",0,0
"372",0,0
"373",0,0
"374",1,150
"375",1,350
"376",1,60
"377",0,0
"378",0,0
"379",0,0
"380",0,0
"381",0,0
"382",0,0
"383",1,5
"384",1,5
"385",3,465
"386",1,2
"387",0,0
"388",0,0
"389",0,0
"390",0,0
"391",4,357
"392",1,120
"393",0,0
"394",0,0
"395",3,309
"396",1,300
"397",0,0
"398",0,0
"399",0,0
"400",0,0
"401",1,2
"402",0,0
"403",0,0
"404",1,2
"405",0,0
"406",0,0
"407",0,0
"408",0,0
"409",0,0
"410",0,0
"411",0,0
"412",4,310
"413",1,1
"414",0,0
"415",1,4
"416",0,0
"417",0,0
"418",0,0
"419",0,0
"420",0,0
"421",0,0
"422",5,109
"423",1,200
"424",0,0
"425",4,248
"426",0,0
"427",0,0
"428",0,0
"429",0,0
"430",0,0
"431",0,0
"432",2,9
"433",3,420
"434",2,500
"435",0,0
"436",0,0
"437",0,0
"438",0,0
"439",0,0
"440",0,0
"441",0,0
"442",0,0
"443",3,278
"444",0,0
"445",0,0
"446",0,0
"447",0,0
"448",0,0
"449",0,0
"450",0,0
"451",0,0
"452",0,0
"453",0,0
"454",1,1
"455",0,0
"456",0,0
"457",0,0
"458",0,0
"459",0,0
"460",0,0
"461",0,0
"462",0,0
"463",0,0
"464",0,0
"465",0,0
"466",0,0
"467",0,0
"468",0,0
"469",0,0
"470",0,0
"471",0,0
"472",0,0
"473",0,0
"474",0,0
"475",0,0
"476",0,0
"477",0,0
"478",0,0
"479",0,0
"480",0,0
"481",0,0
"482",0,0
"483",0,0
"484",0,0
"485",0,0
"486",0,0
"487",0,0
"488",0,0
"489",0,0
"490",0,0
"491",0,0
"492",0,0
"493",0,0
"494",0,0
"495",0,0
"496",0,0
"497",0,0
"498",0,0
"499",0,0
"500",0,0
