"","n_obs","n_total"
"1",0,0
"2",0,0
"3",0,0
"4",1,1
"5",1,1
"6",0,0
"7",0,0
"8",0,0
"9",0,0
"10",0,0
"11",0,0
"12",0,0
"13",0,0
"14",0,0
"15",0,0
"16",0,0
"17",2,2
"18",0,0
"19",0,0
"20",0,0
"21",0,0
"22",0,0
"23",0,0
"24",2,2
"25",1,2
"26",0,0
"27",0,0
"28",1,3
"29",0,0
"30",2,2
"31",0,0
"32",0,0
"33",0,0
"34",1,3
"35",1,1
"36",0,0
"37",1,1
"38",0,0
"39",0,0
"40",0,0
"41",0,0
"42",0,0
"43",0,0
"44",0,0
"45",3,4
"46",3,4
"47",4,4
"48",4,7
"49",1,1
"50",1,2
"51",0,0
"52",0,0
"53",0,0
"54",3,6
"55",1,1
"56",4,5
"57",0,0
"58",2,2
"59",0,0
"60",0,0
"61",0,0
"62",0,0
"63",3,5
"64",4,8
"65",0,0
"66",0,0
"67",2,4
"68",0,0
"69",0,0
"70",0,0
"71",0,0
"72",0,0
"73",1,2
"74",3,3
"75",1,1
"76",1,1
"77",1,1
"78",1,1
"79",0,0
"80",0,0
"81",0,0
"82",0,0
"83",0,0
"84",0,0
"85",0,0
"86",1,1
"87",1,1
"88",0,0
"89",0,0
"90",2,2
"91",0,0
"92",0,0
"93",0,0
"94",0,0
"95",0,0
"96",0,0
"97",3,5
"98",0,0
"99",0,0
"100",2,3
"101",0,0
"102",0,0
"103",0,0
"104",0,0
"105",0,0
"106",0,0
"107",1,1
"108",1,1
"109",1,1
"110",0,0
"111",0,0
"112",0,0
"113",0,0
"114",0,0
"115",0,0
"116",0,0
"117",0,0
"118",0,0
"119",0,0
"120",1,1
"121",0,0
"122",0,0
"123",0,0
"124",0,0
"125",0,0
"126",0,0
"127",1,1
"128",3,6
"129",0,0
"130",1,2
"131",0,0
"132",0,0
"133",0,0
"134",0,0
"135",0,0
"136",0,0
"137",1,1
"138",2,3
"139",2,4
"140",3,4
"141",0,0
"142",0,0
"143",0,0
"144",0,0
"145",0,0
"146",0,0
"147",0,0
"148",1,1
"149",0,0
"150",0,0
"151",0,0
"152",0,0
"153",0,0
"154",0,0
"155",0,0
"156",1,1
"157",2,3
"158",0,0
"159",0,0
"160",1,1
"161",0,0
"162",0,0
"163",0,0
"164",0,0
"165",2,2
"166",0,0
"167",0,0
"168",1,1
"169",0,0
"170",0,0
"171",0,0
"172",0,0
"173",0,0
"174",0,0
"175",2,2
"176",1,2
"177",1,1
"178",0,0
"179",4,4
"180",2,3
"181",0,0
"182",0,0
"183",0,0
"184",0,0
"185",3,4
"186",2,2
"187",0,0
"188",0,0
"189",1,3
"190",0,0
"191",0,0
"192",0,0
"193",0,0
"194",0,0
"195",0,0
"196",0,0
"197",2,2
"198",2,2
"199",1,1
"200",1,1
"201",0,0
"202",0,0
"203",0,0
"204",0,0
"205",0,0
"206",4,4
"207",2,2
"208",1,1
"209",0,0
"210",0,0
"211",0,0
"212",0,0
"213",0,0
"214",0,0
"215",0,0
"216",1,2
"217",0,0
"218",1,1
"219",0,0
"220",0,0
"221",0,0
"222",0,0
"223",0,0
"224",1,2
"225",0,0
"226",0,0
"227",5,10
"228",1,3
"229",2,2
"230",0,0
"231",0,0
"232",0,0
"233",0,0
"234",0,0
"235",0,0
"236",0,0
"237",1,1
"238",3,4
"239",4,4
"240",0,0
"241",0,0
"242",0,0
"243",0,0
"244",0,0
"245",0,0
"246",1,1
"247",0,0
"248",3,3
"249",4,5
"250",0,0
"251",0,0
"252",0,0
"253",0,0
"254",0,0
"255",0,0
"256",0,0
"257",0,0
"258",4,4
"259",2,2
"260",0,0
"261",0,0
"262",0,0
"263",0,0
"264",0,0
"265",0,0
"266",1,2
"267",4,12
"268",1,1
"269",0,0
"270",0,0
"271",0,0
"272",0,0
"273",0,0
"274",0,0
"275",0,0
"276",1,1
"277",1,1
"278",0,0
"279",0,0
"280",0,0
"281",0,0
"282",0,0
"283",0,0
"284",1,1
"285",1,1
"286",0,0
"287",0,0
"288",0,0
"289",0,0
"290",0,0
"291",0,0
"292",0,0
"293",0,0
"294",1,1
"295",0,0
"296",0,0
"297",1,1
"298",0,0
"299",0,0
"300",0,0
"301",0,0
"302",0,0
"303",2,2
"304",1,1
"305",0,0
"306",0,0
"307",0,0
"308",0,0
"309",0,0
"310",0,0
"311",0,0
"312",0,0
"313",1,1
"314",0,0
"315",0,0
"316",0,0
"317",0,0
"318",0,0
"319",0,0
"320",0,0
"321",0,0
"322",2,2
"323",0,0
"324",0,0
"325",0,0
"326",0,0
"327",0,0
"328",0,0
"329",0,0
"330",0,0
"331",0,0
"332",0,0
"333",0,0
"334",0,0
"335",0,0
"336",0,0
"337",0,0
"338",0,0
"339",0,0
"340",0,0
"341",0,0
"342",0,0
"343",0,0
"344",0,0
"345",0,0
"346",0,0
"347",0,0
"348",0,0
"349",0,0
"350",0,0
"351",1,1
"352",1,1
"353",0,0
"354",1,1
"355",0,0
"356",0,0
"357",0,0
"358",0,0
"359",0,0
"360",0,0
"361",0,0
"362",0,0
"363",2,2
"364",1,1
"365",0,0
"366",0,0
"367",0,0
"368",0,0
"369",0,0
"370",0,0
"371",0,0
"372",0,0
"373",0,0
"374",0,0
"375",0,0
"376",0,0
"377",0,0
"378",0,0
"379",0,0
"380",0,0
"381",0,0
"382",0,0
"383",1,1
"384",0,0
"385",0,0
"386",0,0
"387",0,0
"388",0,0
"389",0,0
"390",0,0
"391",0,0
"392",1,1
"393",0,0
"394",0,0
"395",0,0
"396",0,0
"397",0,0
"398",0,0
"399",0,0
"400",0,0
"401",0,0
"402",0,0
"403",1,1
"404",0,0
"405",0,0
"406",0,0
"407",0,0
"408",0,0
"409",0,0
"410",0,0
"411",0,0
"412",0,0
"413",0,0
"414",0,0
"415",0,0
"416",0,0
"417",0,0
"418",0,0
"419",0,0
"420",0,0
"421",0,0
"422",0,0
"423",0,0
"424",0,0
"425",0,0
"426",0,0
"427",0,0
"428",0,0
"429",0,0
"430",0,0
"431",1,2
"432",0,0
"433",0,0
"434",0,0
"435",0,0
"436",0,0
"437",0,0
"438",0,0
"439",0,0
"440",0,0
"441",0,0
"442",0,0
"443",0,0
"444",1,2
"445",0,0
"446",0,0
"447",0,0
"448",0,0
"449",0,0
"450",0,0
"451",0,0
"452",0,0
"453",0,0
"454",0,0
"455",0,0
"456",0,0
"457",0,0
"458",0,0
"459",0,0
"460",0,0
"461",1,1
"462",1,1
"463",0,0
"464",1,1
"465",0,0
"466",0,0
"467",0,0
"468",0,0
"469",0,0
"470",0,0
"471",0,0
"472",0,0
"473",0,0
"474",1,1
"475",0,0
"476",0,0
"477",0,0
"478",0,0
"479",0,0
"480",0,0
"481",0,0
"482",0,0
"483",0,0
"484",0,0
"485",0,0
"486",0,0
"487",0,0
"488",0,0
"489",0,0
"490",0,0
"491",0,0
"492",0,0
"493",0,0
"494",0,0
"495",0,0
"496",0,0
"497",0,0
"498",0,0
"499",0,0
"500",0,0
