"","n_obs","n_total"
"1",0,0
"2",0,0
"3",0,0
"4",0,0
"5",0,0
"6",0,0
"7",0,0
"8",0,0
"9",0,0
"10",0,0
"11",0,0
"12",0,0
"13",0,0
"14",0,0
"15",0,0
"16",0,0
"17",0,0
"18",0,0
"19",0,0
"20",0,0
"21",0,0
"22",0,0
"23",0,0
"24",0,0
"25",0,0
"26",0,0
"27",0,0
"28",0,0
"29",0,0
"30",0,0
"31",0,0
"32",0,0
"33",0,0
"34",0,0
"35",0,0
"36",0,0
"37",0,0
"38",0,0
"39",0,0
"40",0,0
"41",0,0
"42",0,0
"43",0,0
"44",0,0
"45",0,0
"46",0,0
"47",0,0
"48",0,0
"49",0,0
"50",0,0
"51",0,0
"52",0,0
"53",0,0
"54",0,0
"55",0,0
"56",0,0
"57",0,0
"58",0,0
"59",0,0
"60",0,0
"61",0,0
"62",0,0
"63",0,0
"64",0,0
"65",0,0
"66",0,0
"67",0,0
"68",0,0
"69",0,0
"70",0,0
"71",0,0
"72",0,0
"73",0,0
"74",0,0
"75",0,0
"76",0,0
"77",0,0
"78",0,0
"79",0,0
"80",0,0
"81",0,0
"82",0,0
"83",0,0
"84",0,0
"85",0,0
"86",0,0
"87",0,0
"88",0,0
"89",0,0
"90",0,0
"91",0,0
"92",0,0
"93",0,0
"94",0,0
"95",0,0
"96",0,0
"97",0,0
"98",0,0
"99",0,0
"100",0,0
"101",0,0
"102",0,0
"103",0,0
"104",0,0
"105",0,0
"106",0,0
"107",0,0
"108",0,0
"109",0,0
"110",0,0
"111",0,0
"112",0,0
"113",0,0
"114",0,0
"115",0,0
"116",0,0
"117",3,39
"118",0,0
"119",2,28
"120",0,0
"121",0,0
"122",0,0
"123",0,0
"124",0,0
"125",0,0
"126",0,0
"127",31,242
"128",0,0
"129",27,165
"130",0,0
"131",0,0
"132",0,0
"133",0,0
"134",0,0
"135",0,0
"136",0,0
"137",13,89
"138",2,10
"139",12,21
"140",11,11
"141",0,0
"142",0,0
"143",0,0
"144",0,0
"145",0,0
"146",11,127
"147",31,250
"148",17,111
"149",1,4
"150",0,0
"151",0,0
"152",0,0
"153",0,0
"154",0,0
"155",0,0
"156",5,33
"157",3,25
"158",7,22
"159",5,13
"160",10,14
"161",0,0
"162",0,0
"163",0,0
"164",0,0
"165",0,0
"166",0,0
"167",7,62
"168",18,105
"169",21,163
"170",8,45
"171",0,0
"172",0,0
"173",0,0
"174",0,0
"175",0,0
"176",0,0
"177",7,50
"178",33,265
"179",26,163
"180",16,93
"181",0,0
"182",0,0
"183",0,0
"184",0,0
"185",2,38
"186",0,0
"187",10,77
"188",58,531
"189",24,224
"190",19,140
"191",0,0
"192",0,0
"193",0,0
"194",0,0
"195",0,0
"196",0,0
"197",8,20
"198",57,432
"199",30,234
"200",7,91
"201",0,0
"202",0,0
"203",0,0
"204",0,0
"205",0,0
"206",3,12
"207",12,114
"208",35,399
"209",22,177
"210",0,0
"211",0,0
"212",0,0
"213",0,0
"214",0,0
"215",0,0
"216",0,0
"217",11,88
"218",28,190
"219",17,171
"220",0,0
"221",0,0
"222",0,0
"223",0,0
"224",0,0
"225",0,0
"226",0,0
"227",6,23
"228",26,182
"229",17,135
"230",0,0
"231",0,0
"232",0,0
"233",0,0
"234",4,13
"235",0,0
"236",0,0
"237",1,5
"238",7,38
"239",1,2
"240",0,0
"241",0,0
"242",0,0
"243",2,10
"244",4,26
"245",0,0
"246",0,0
"247",2,27
"248",0,0
"249",0,0
"250",0,0
"251",0,0
"252",0,0
"253",0,0
"254",3,7
"255",1,6
"256",7,38
"257",0,0
"258",0,0
"259",0,0
"260",0,0
"261",0,0
"262",0,0
"263",3,22
"264",4,5
"265",7,17
"266",1,2
"267",3,12
"268",0,0
"269",0,0
"270",0,0
"271",0,0
"272",0,0
"273",1,1
"274",5,6
"275",0,0
"276",0,0
"277",0,0
"278",0,0
"279",0,0
"280",0,0
"281",0,0
"282",0,0
"283",1,1
"284",2,8
"285",0,0
"286",3,23
"287",3,15
"288",0,0
"289",0,0
"290",0,0
"291",0,0
"292",0,0
"293",0,0
"294",0,0
"295",0,0
"296",3,14
"297",0,0
"298",0,0
"299",0,0
"300",0,0
"301",0,0
"302",0,0
"303",3,11
"304",1,10
"305",0,0
"306",0,0
"307",0,0
"308",0,0
"309",0,0
"310",0,0
"311",0,0
"312",0,0
"313",0,0
"314",1,2
"315",1,8
"316",3,29
"317",0,0
"318",0,0
"319",0,0
"320",0,0
"321",0,0
"322",3,14
"323",1,1
"324",1,1
"325",2,6
"326",3,30
"327",0,0
"328",0,0
"329",0,0
"330",0,0
"331",0,0
"332",0,0
"333",0,0
"334",1,1
"335",0,0
"336",0,0
"337",0,0
"338",0,0
"339",0,0
"340",0,0
"341",0,0
"342",3,12
"343",0,0
"344",1,11
"345",3,12
"346",2,8
"347",0,0
"348",0,0
"349",0,0
"350",0,0
"351",0,0
"352",2,43
"353",1,2
"354",2,20
"355",5,20
"356",0,0
"357",0,0
"358",0,0
"359",0,0
"360",0,0
"361",0,0
"362",0,0
"363",0,0
"364",1,3
"365",1,9
"366",0,0
"367",0,0
"368",0,0
"369",0,0
"370",0,0
"371",1,5
"372",0,0
"373",4,25
"374",5,58
"375",5,32
"376",0,0
"377",0,0
"378",0,0
"379",0,0
"380",0,0
"381",1,2
"382",2,6
"383",4,23
"384",4,11
"385",7,41
"386",0,0
"387",0,0
"388",0,0
"389",0,0
"390",0,0
"391",1,1
"392",1,7
"393",2,3
"394",3,21
"395",4,16
"396",0,0
"397",0,0
"398",0,0
"399",0,0
"400",0,0
"401",1,4
"402",0,0
"403",3,15
"404",3,10
"405",2,11
"406",0,0
"407",0,0
"408",0,0
"409",0,0
"410",0,0
"411",0,0
"412",2,12
"413",0,0
"414",3,7
"415",2,14
"416",0,0
"417",0,0
"418",0,0
"419",0,0
"420",0,0
"421",3,12
"422",2,11
"423",1,1
"424",3,35
"425",0,0
"426",0,0
"427",0,0
"428",0,0
"429",0,0
"430",0,0
"431",0,0
"432",0,0
"433",1,3
"434",0,0
"435",0,0
"436",0,0
"437",0,0
"438",0,0
"439",0,0
"440",0,0
"441",0,0
"442",0,0
"443",2,11
"444",1,14
"445",0,0
"446",0,0
"447",0,0
"448",0,0
"449",0,0
"450",0,0
"451",0,0
"452",0,0
"453",1,2
"454",0,0
"455",0,0
"456",0,0
"457",0,0
"458",0,0
"459",0,0
"460",0,0
"461",0,0
"462",0,0
"463",0,0
"464",0,0
"465",0,0
"466",0,0
"467",0,0
"468",0,0
"469",0,0
"470",0,0
"471",0,0
"472",0,0
"473",0,0
"474",0,0
"475",0,0
"476",0,0
"477",0,0
"478",0,0
"479",0,0
"480",0,0
"481",0,0
"482",0,0
"483",0,0
"484",0,0
"485",0,0
"486",0,0
"487",0,0
"488",0,0
"489",0,0
"490",0,0
"491",0,0
"492",0,0
"493",0,0
"494",0,0
"495",0,0
"496",0,0
"497",0,0
"498",0,0
"499",0,0
"500",0,0
