"","n_obs","n_total"
"1",0,0
"2",0,0
"3",0,0
"4",0,0
"5",0,0
"6",0,0
"7",0,0
"8",0,0
"9",0,0
"10",0,0
"11",0,0
"12",0,0
"13",0,0
"14",0,0
"15",0,0
"16",3,17
"17",4,19
"18",0,0
"19",0,0
"20",2,6
"21",0,0
"22",0,0
"23",0,0
"24",7,24
"25",6,18
"26",7,20
"27",3,16
"28",2,5
"29",12,48
"30",9,38
"31",0,0
"32",0,0
"33",0,0
"34",14,52
"35",15,58
"36",6,24
"37",4,14
"38",14,42
"39",3,7
"40",17,67
"41",0,0
"42",0,0
"43",1,4
"44",12,39
"45",16,48
"46",8,29
"47",10,38
"48",16,40
"49",8,30
"50",10,36
"51",0,0
"52",0,0
"53",13,41
"54",7,30
"55",15,55
"56",21,103
"57",14,55
"58",8,27
"59",3,7
"60",15,55
"61",0,0
"62",0,0
"63",7,30
"64",10,36
"65",17,61
"66",15,69
"67",4,13
"68",7,13
"69",7,16
"70",7,29
"71",0,0
"72",0,0
"73",5,17
"74",8,29
"75",12,39
"76",11,38
"77",11,25
"78",13,48
"79",8,27
"80",10,34
"81",0,0
"82",0,0
"83",0,0
"84",13,45
"85",7,19
"86",19,66
"87",9,31
"88",17,60
"89",9,34
"90",3,16
"91",0,0
"92",0,0
"93",0,0
"94",0,0
"95",0,0
"96",0,0
"97",8,22
"98",8,26
"99",25,142
"100",36,195
"101",0,0
"102",0,0
"103",0,0
"104",0,0
"105",0,0
"106",0,0
"107",8,44
"108",24,91
"109",10,25
"110",16,73
"111",0,0
"112",0,0
"113",0,0
"114",0,0
"115",0,0
"116",0,0
"117",4,9
"118",1,4
"119",5,21
"120",6,31
"121",0,0
"122",0,0
"123",0,0
"124",0,0
"125",0,0
"126",0,0
"127",7,48
"128",16,60
"129",17,61
"130",20,86
"131",0,0
"132",0,0
"133",0,0
"134",0,0
"135",0,0
"136",0,0
"137",10,44
"138",16,50
"139",19,62
"140",11,39
"141",0,0
"142",0,0
"143",0,0
"144",0,0
"145",0,0
"146",2,4
"147",10,46
"148",8,20
"149",5,20
"150",10,35
"151",0,0
"152",0,0
"153",0,0
"154",0,0
"155",1,6
"156",8,22
"157",8,35
"158",7,20
"159",8,41
"160",15,63
"161",0,0
"162",0,0
"163",0,0
"164",0,0
"165",2,8
"166",13,63
"167",9,35
"168",15,49
"169",7,33
"170",14,31
"171",0,0
"172",0,0
"173",0,0
"174",0,0
"175",10,52
"176",4,25
"177",7,24
"178",8,38
"179",8,34
"180",29,103
"181",0,0
"182",0,0
"183",0,0
"184",0,0
"185",7,40
"186",3,12
"187",10,52
"188",6,26
"189",19,70
"190",32,114
"191",0,0
"192",0,0
"193",0,0
"194",0,0
"195",2,7
"196",10,40
"197",7,30
"198",15,91
"199",23,149
"200",16,82
"201",0,0
"202",0,0
"203",0,0
"204",0,0
"205",1,1
"206",3,13
"207",11,42
"208",19,111
"209",50,270
"210",7,39
"211",0,0
"212",0,0
"213",0,0
"214",0,0
"215",0,0
"216",6,36
"217",10,49
"218",6,28
"219",17,71
"220",0,0
"221",0,0
"222",0,0
"223",0,0
"224",20,70
"225",10,35
"226",4,17
"227",11,40
"228",18,60
"229",14,37
"230",0,0
"231",0,0
"232",0,0
"233",4,14
"234",9,48
"235",9,35
"236",10,31
"237",10,39
"238",10,42
"239",13,75
"240",0,0
"241",0,0
"242",0,0
"243",8,34
"244",19,76
"245",11,38
"246",8,25
"247",23,91
"248",19,67
"249",18,84
"250",0,0
"251",0,0
"252",0,0
"253",3,7
"254",11,42
"255",4,10
"256",8,37
"257",14,69
"258",8,47
"259",0,0
"260",0,0
"261",0,0
"262",0,0
"263",9,23
"264",5,14
"265",3,19
"266",8,34
"267",11,55
"268",5,24
"269",0,0
"270",0,0
"271",0,0
"272",0,0
"273",8,42
"274",10,29
"275",8,35
"276",1,6
"277",12,49
"278",0,0
"279",0,0
"280",0,0
"281",0,0
"282",0,0
"283",19,89
"284",9,32
"285",13,44
"286",2,15
"287",10,71
"288",0,0
"289",0,0
"290",0,0
"291",0,0
"292",0,0
"293",5,17
"294",3,10
"295",7,31
"296",3,18
"297",6,37
"298",0,0
"299",0,0
"300",0,0
"301",0,0
"302",0,0
"303",5,19
"304",16,79
"305",13,68
"306",3,19
"307",6,29
"308",0,0
"309",0,0
"310",0,0
"311",0,0
"312",3,10
"313",2,7
"314",6,25
"315",8,29
"316",9,56
"317",1,5
"318",0,0
"319",0,0
"320",0,0
"321",0,0
"322",9,17
"323",1,7
"324",5,15
"325",1,7
"326",3,18
"327",0,0
"328",0,0
"329",0,0
"330",0,0
"331",0,0
"332",3,18
"333",4,12
"334",5,26
"335",9,52
"336",7,35
"337",0,0
"338",0,0
"339",0,0
"340",0,0
"341",0,0
"342",2,10
"343",5,20
"344",1,4
"345",9,67
"346",9,47
"347",0,0
"348",0,0
"349",0,0
"350",0,0
"351",0,0
"352",4,7
"353",7,93
"354",7,38
"355",0,0
"356",9,54
"357",0,0
"358",0,0
"359",0,0
"360",0,0
"361",4,18
"362",3,14
"363",7,29
"364",4,21
"365",12,72
"366",12,73
"367",0,0
"368",0,0
"369",0,0
"370",0,0
"371",3,15
"372",8,52
"373",8,38
"374",7,39
"375",10,51
"376",8,70
"377",0,0
"378",0,0
"379",0,0
"380",0,0
"381",4,17
"382",2,18
"383",2,7
"384",0,0
"385",7,37
"386",0,0
"387",0,0
"388",0,0
"389",0,0
"390",0,0
"391",9,31
"392",19,101
"393",9,47
"394",4,18
"395",9,59
"396",0,0
"397",0,0
"398",0,0
"399",0,0
"400",0,0
"401",3,16
"402",5,22
"403",9,50
"404",2,13
"405",2,9
"406",0,0
"407",0,0
"408",0,0
"409",0,0
"410",0,0
"411",1,2
"412",7,30
"413",11,53
"414",8,37
"415",5,29
"416",0,0
"417",0,0
"418",0,0
"419",0,0
"420",0,0
"421",2,11
"422",13,67
"423",4,21
"424",6,39
"425",8,62
"426",0,0
"427",0,0
"428",0,0
"429",0,0
"430",0,0
"431",0,0
"432",18,74
"433",3,10
"434",3,11
"435",3,5
"436",0,0
"437",0,0
"438",0,0
"439",0,0
"440",0,0
"441",0,0
"442",0,0
"443",0,0
"444",3,6
"445",0,0
"446",0,0
"447",0,0
"448",0,0
"449",0,0
"450",0,0
"451",0,0
"452",0,0
"453",1,8
"454",8,33
"455",1,2
"456",0,0
"457",0,0
"458",0,0
"459",0,0
"460",0,0
"461",0,0
"462",0,0
"463",0,0
"464",0,0
"465",0,0
"466",0,0
"467",0,0
"468",0,0
"469",0,0
"470",0,0
"471",0,0
"472",0,0
"473",0,0
"474",0,0
"475",0,0
"476",0,0
"477",0,0
"478",0,0
"479",0,0
"480",0,0
"481",0,0
"482",0,0
"483",0,0
"484",0,0
"485",0,0
"486",0,0
"487",0,0
"488",0,0
"489",0,0
"490",0,0
"491",0,0
"492",0,0
"493",0,0
"494",0,0
"495",0,0
"496",0,0
"497",0,0
"498",0,0
"499",0,0
"500",0,0
