"","n_obs","n_total"
"1",0,0
"2",0,0
"3",0,0
"4",0,0
"5",0,0
"6",0,0
"7",0,0
"8",0,0
"9",0,0
"10",0,0
"11",0,0
"12",0,0
"13",0,0
"14",0,0
"15",0,0
"16",0,0
"17",0,0
"18",0,0
"19",0,0
"20",0,0
"21",0,0
"22",0,0
"23",0,0
"24",0,0
"25",0,0
"26",0,0
"27",0,0
"28",0,0
"29",0,0
"30",0,0
"31",0,0
"32",0,0
"33",0,0
"34",3,14
"35",2,6
"36",1,4
"37",0,0
"38",0,0
"39",0,0
"40",0,0
"41",0,0
"42",0,0
"43",0,0
"44",7,24
"45",2,4
"46",7,18
"47",1,4
"48",0,0
"49",0,0
"50",0,0
"51",0,0
"52",0,0
"53",1,2
"54",6,14
"55",3,6
"56",3,4
"57",0,0
"58",0,0
"59",0,0
"60",1,3
"61",0,0
"62",0,0
"63",1,2
"64",8,30
"65",6,22
"66",6,31
"67",1,1
"68",0,0
"69",1,6
"70",5,28
"71",0,0
"72",0,0
"73",0,0
"74",2,7
"75",2,3
"76",6,26
"77",1,1
"78",0,0
"79",6,36
"80",6,54
"81",0,0
"82",0,0
"83",0,0
"84",2,5
"85",3,9
"86",3,17
"87",2,18
"88",2,3
"89",3,26
"90",2,7
"91",0,0
"92",0,0
"93",0,0
"94",0,0
"95",0,0
"96",0,0
"97",7,28
"98",11,47
"99",7,23
"100",3,18
"101",0,0
"102",0,0
"103",0,0
"104",0,0
"105",0,0
"106",0,0
"107",1,3
"108",2,3
"109",3,6
"110",7,22
"111",0,0
"112",0,0
"113",0,0
"114",0,0
"115",0,0
"116",0,0
"117",2,6
"118",6,32
"119",6,57
"120",5,31
"121",0,0
"122",0,0
"123",0,0
"124",0,0
"125",0,0
"126",0,0
"127",4,20
"128",12,75
"129",7,55
"130",9,40
"131",0,0
"132",0,0
"133",0,0
"134",0,0
"135",0,0
"136",0,0
"137",3,10
"138",4,18
"139",7,35
"140",5,32
"141",0,0
"142",0,0
"143",0,0
"144",0,0
"145",0,0
"146",6,41
"147",8,47
"148",9,49
"149",6,23
"150",8,26
"151",0,0
"152",0,0
"153",0,0
"154",0,0
"155",1,4
"156",3,16
"157",4,19
"158",5,29
"159",0,0
"160",6,44
"161",0,0
"162",0,0
"163",0,0
"164",0,0
"165",4,40
"166",3,4
"167",6,29
"168",9,51
"169",5,24
"170",8,49
"171",0,0
"172",0,0
"173",0,0
"174",0,0
"175",7,24
"176",11,78
"177",4,8
"178",12,81
"179",6,51
"180",7,62
"181",0,0
"182",0,0
"183",0,0
"184",0,0
"185",5,20
"186",3,20
"187",12,86
"188",5,31
"189",8,64
"190",4,43
"191",0,0
"192",0,0
"193",0,0
"194",0,0
"195",1,2
"196",5,15
"197",7,49
"198",5,24
"199",8,33
"200",7,57
"201",0,0
"202",0,0
"203",0,0
"204",0,0
"205",4,14
"206",2,2
"207",6,15
"208",1,1
"209",6,11
"210",0,0
"211",0,0
"212",0,0
"213",0,0
"214",0,0
"215",0,0
"216",3,10
"217",7,16
"218",8,63
"219",8,62
"220",0,0
"221",0,0
"222",0,0
"223",0,0
"224",7,18
"225",13,39
"226",4,16
"227",5,54
"228",11,76
"229",8,62
"230",0,0
"231",0,0
"232",0,0
"233",1,2
"234",7,19
"235",3,21
"236",3,9
"237",2,9
"238",8,65
"239",4,5
"240",0,0
"241",0,0
"242",0,0
"243",4,8
"244",4,11
"245",3,7
"246",4,6
"247",3,7
"248",12,52
"249",1,4
"250",0,0
"251",0,0
"252",0,0
"253",4,7
"254",2,6
"255",6,31
"256",2,6
"257",5,22
"258",2,5
"259",0,0
"260",0,0
"261",0,0
"262",0,0
"263",2,4
"264",1,3
"265",5,10
"266",3,5
"267",5,21
"268",4,11
"269",0,0
"270",0,0
"271",0,0
"272",0,0
"273",3,5
"274",4,15
"275",4,15
"276",2,8
"277",2,4
"278",0,0
"279",0,0
"280",0,0
"281",0,0
"282",0,0
"283",4,9
"284",1,1
"285",2,3
"286",1,1
"287",1,4
"288",0,0
"289",0,0
"290",0,0
"291",0,0
"292",0,0
"293",1,2
"294",3,3
"295",1,2
"296",0,0
"297",5,11
"298",0,0
"299",0,0
"300",0,0
"301",0,0
"302",0,0
"303",4,4
"304",2,3
"305",1,4
"306",0,0
"307",0,0
"308",0,0
"309",0,0
"310",0,0
"311",0,0
"312",0,0
"313",0,0
"314",1,1
"315",1,3
"316",0,0
"317",0,0
"318",0,0
"319",0,0
"320",0,0
"321",0,0
"322",0,0
"323",1,1
"324",0,0
"325",0,0
"326",0,0
"327",0,0
"328",0,0
"329",0,0
"330",0,0
"331",0,0
"332",0,0
"333",0,0
"334",2,8
"335",0,0
"336",0,0
"337",0,0
"338",0,0
"339",0,0
"340",0,0
"341",0,0
"342",0,0
"343",0,0
"344",0,0
"345",0,0
"346",0,0
"347",0,0
"348",0,0
"349",0,0
"350",0,0
"351",0,0
"352",0,0
"353",0,0
"354",0,0
"355",1,1
"356",1,2
"357",0,0
"358",0,0
"359",0,0
"360",0,0
"361",0,0
"362",3,4
"363",0,0
"364",3,3
"365",1,2
"366",0,0
"367",0,0
"368",0,0
"369",0,0
"370",0,0
"371",0,0
"372",0,0
"373",0,0
"374",1,2
"375",1,1
"376",1,1
"377",0,0
"378",0,0
"379",0,0
"380",0,0
"381",0,0
"382",0,0
"383",1,10
"384",1,1
"385",1,1
"386",0,0
"387",0,0
"388",0,0
"389",0,0
"390",0,0
"391",0,0
"392",0,0
"393",4,20
"394",1,2
"395",2,11
"396",0,0
"397",0,0
"398",0,0
"399",0,0
"400",0,0
"401",0,0
"402",0,0
"403",1,3
"404",0,0
"405",2,10
"406",0,0
"407",0,0
"408",0,0
"409",0,0
"410",0,0
"411",0,0
"412",0,0
"413",1,1
"414",0,0
"415",0,0
"416",0,0
"417",0,0
"418",0,0
"419",0,0
"420",0,0
"421",0,0
"422",0,0
"423",0,0
"424",0,0
"425",1,2
"426",0,0
"427",0,0
"428",0,0
"429",0,0
"430",0,0
"431",0,0
"432",1,1
"433",0,0
"434",4,13
"435",2,12
"436",0,0
"437",0,0
"438",0,0
"439",0,0
"440",0,0
"441",0,0
"442",0,0
"443",0,0
"444",3,4
"445",0,0
"446",0,0
"447",0,0
"448",0,0
"449",0,0
"450",0,0
"451",0,0
"452",0,0
"453",0,0
"454",1,1
"455",0,0
"456",0,0
"457",0,0
"458",0,0
"459",0,0
"460",0,0
"461",0,0
"462",0,0
"463",0,0
"464",0,0
"465",0,0
"466",0,0
"467",0,0
"468",0,0
"469",0,0
"470",0,0
"471",0,0
"472",0,0
"473",0,0
"474",0,0
"475",0,0
"476",0,0
"477",0,0
"478",0,0
"479",0,0
"480",0,0
"481",0,0
"482",0,0
"483",0,0
"484",0,0
"485",0,0
"486",0,0
"487",0,0
"488",0,0
"489",0,0
"490",0,0
"491",0,0
"492",0,0
"493",0,0
"494",0,0
"495",0,0
"496",0,0
"497",0,0
"498",0,0
"499",0,0
"500",0,0
