"","n_obs","n_total"
"1",0,0
"2",0,0
"3",0,0
"4",0,0
"5",0,0
"6",0,0
"7",0,0
"8",0,0
"9",0,0
"10",0,0
"11",0,0
"12",0,0
"13",0,0
"14",0,0
"15",0,0
"16",0,0
"17",0,0
"18",0,0
"19",0,0
"20",0,0
"21",0,0
"22",0,0
"23",0,0
"24",2,19
"25",0,0
"26",0,0
"27",0,0
"28",0,0
"29",0,0
"30",0,0
"31",0,0
"32",0,0
"33",0,0
"34",4,34
"35",2,17
"36",0,0
"37",1,4
"38",0,0
"39",0,0
"40",0,0
"41",0,0
"42",0,0
"43",0,0
"44",10,84
"45",4,47
"46",4,30
"47",0,0
"48",0,0
"49",0,0
"50",0,0
"51",0,0
"52",0,0
"53",1,15
"54",8,64
"55",2,8
"56",7,44
"57",0,0
"58",0,0
"59",0,0
"60",1,10
"61",0,0
"62",0,0
"63",5,47
"64",8,61
"65",4,24
"66",6,22
"67",1,2
"68",0,0
"69",0,0
"70",2,8
"71",0,0
"72",0,0
"73",0,0
"74",6,13
"75",5,22
"76",4,22
"77",0,0
"78",0,0
"79",3,8
"80",8,137
"81",0,0
"82",0,0
"83",0,0
"84",3,11
"85",3,9
"86",0,0
"87",0,0
"88",4,99
"89",8,113
"90",11,470
"91",0,0
"92",0,0
"93",0,0
"94",0,0
"95",0,0
"96",0,0
"97",7,53
"98",13,108
"99",12,356
"100",17,616
"101",0,0
"102",0,0
"103",0,0
"104",0,0
"105",0,0
"106",0,0
"107",2,24
"108",3,24
"109",5,21
"110",7,36
"111",0,0
"112",0,0
"113",0,0
"114",0,0
"115",0,0
"116",0,0
"117",3,12
"118",5,20
"119",4,53
"120",3,27
"121",0,0
"122",0,0
"123",0,0
"124",0,0
"125",0,0
"126",0,0
"127",1,15
"128",5,70
"129",7,31
"130",8,59
"131",0,0
"132",0,0
"133",0,0
"134",0,0
"135",0,0
"136",0,0
"137",5,86
"138",2,38
"139",2,8
"140",6,35
"141",0,0
"142",0,0
"143",0,0
"144",0,0
"145",0,0
"146",3,34
"147",4,62
"148",9,107
"149",0,0
"150",8,111
"151",0,0
"152",0,0
"153",0,0
"154",0,0
"155",0,0
"156",0,0
"157",4,15
"158",13,154
"159",5,95
"160",11,147
"161",0,0
"162",0,0
"163",0,0
"164",0,0
"165",5,86
"166",3,26
"167",5,39
"168",8,148
"169",4,24
"170",12,135
"171",0,0
"172",0,0
"173",0,0
"174",0,0
"175",3,31
"176",11,255
"177",6,35
"178",9,100
"179",9,94
"180",6,88
"181",0,0
"182",0,0
"183",0,0
"184",0,0
"185",4,40
"186",3,24
"187",8,39
"188",9,93
"189",7,87
"190",7,203
"191",0,0
"192",0,0
"193",0,0
"194",0,0
"195",1,3
"196",2,14
"197",7,110
"198",11,649
"199",12,239
"200",7,186
"201",0,0
"202",0,0
"203",0,0
"204",0,0
"205",3,12
"206",4,25
"207",8,89
"208",9,332
"209",9,69
"210",0,0
"211",0,0
"212",0,0
"213",0,0
"214",0,0
"215",0,0
"216",5,20
"217",7,72
"218",13,296
"219",10,129
"220",0,0
"221",0,0
"222",0,0
"223",0,0
"224",2,7
"225",6,40
"226",11,60
"227",8,121
"228",15,193
"229",14,237
"230",0,0
"231",0,0
"232",0,0
"233",4,14
"234",7,62
"235",4,26
"236",2,4
"237",3,17
"238",10,255
"239",6,78
"240",0,0
"241",0,0
"242",0,0
"243",9,79
"244",7,30
"245",4,19
"246",4,101
"247",9,85
"248",13,141
"249",8,61
"250",0,0
"251",0,0
"252",0,0
"253",4,19
"254",11,77
"255",15,249
"256",8,180
"257",8,59
"258",7,47
"259",0,0
"260",0,0
"261",0,0
"262",0,0
"263",4,48
"264",9,165
"265",16,465
"266",4,33
"267",13,136
"268",4,27
"269",0,0
"270",0,0
"271",0,0
"272",0,0
"273",8,77
"274",10,201
"275",3,20
"276",3,18
"277",10,60
"278",3,26
"279",0,0
"280",0,0
"281",0,0
"282",0,0
"283",3,14
"284",3,8
"285",4,42
"286",6,264
"287",9,102
"288",1,1
"289",0,0
"290",0,0
"291",0,0
"292",1,7
"293",4,23
"294",4,20
"295",2,12
"296",9,115
"297",10,162
"298",0,0
"299",0,0
"300",0,0
"301",0,0
"302",1,8
"303",4,27
"304",3,10
"305",5,45
"306",2,6
"307",3,11
"308",0,0
"309",0,0
"310",0,0
"311",0,0
"312",2,23
"313",4,21
"314",4,21
"315",9,266
"316",1,40
"317",1,2
"318",0,0
"319",0,0
"320",0,0
"321",0,0
"322",2,12
"323",3,39
"324",4,28
"325",9,349
"326",2,15
"327",0,0
"328",0,0
"329",0,0
"330",0,0
"331",0,0
"332",3,23
"333",4,15
"334",1,4
"335",2,16
"336",4,39
"337",0,0
"338",0,0
"339",0,0
"340",0,0
"341",0,0
"342",10,161
"343",10,117
"344",3,16
"345",11,135
"346",3,16
"347",0,0
"348",0,0
"349",0,0
"350",0,0
"351",2,9
"352",7,39
"353",4,22
"354",4,32
"355",10,93
"356",4,18
"357",0,0
"358",0,0
"359",0,0
"360",0,0
"361",1,10
"362",9,73
"363",7,29
"364",6,72
"365",11,85
"366",5,60
"367",0,0
"368",0,0
"369",0,0
"370",0,0
"371",3,23
"372",10,120
"373",9,79
"374",11,102
"375",14,127
"376",6,23
"377",0,0
"378",0,0
"379",0,0
"380",0,0
"381",8,137
"382",4,45
"383",8,92
"384",3,17
"385",7,64
"386",4,81
"387",0,0
"388",0,0
"389",0,0
"390",0,0
"391",5,52
"392",5,25
"393",9,88
"394",10,108
"395",11,115
"396",1,13
"397",0,0
"398",0,0
"399",0,0
"400",0,0
"401",4,25
"402",3,12
"403",4,13
"404",6,93
"405",4,31
"406",0,0
"407",0,0
"408",0,0
"409",0,0
"410",0,0
"411",1,4
"412",2,6
"413",5,34
"414",8,80
"415",6,54
"416",0,0
"417",0,0
"418",0,0
"419",0,0
"420",0,0
"421",1,14
"422",10,110
"423",9,69
"424",5,43
"425",2,11
"426",0,0
"427",0,0
"428",0,0
"429",0,0
"430",0,0
"431",0,0
"432",2,12
"433",5,80
"434",4,37
"435",0,0
"436",0,0
"437",0,0
"438",0,0
"439",0,0
"440",0,0
"441",0,0
"442",0,0
"443",10,177
"444",7,64
"445",0,0
"446",0,0
"447",0,0
"448",0,0
"449",0,0
"450",0,0
"451",0,0
"452",0,0
"453",2,25
"454",0,0
"455",0,0
"456",0,0
"457",0,0
"458",0,0
"459",0,0
"460",0,0
"461",0,0
"462",0,0
"463",0,0
"464",0,0
"465",0,0
"466",0,0
"467",0,0
"468",0,0
"469",0,0
"470",0,0
"471",0,0
"472",0,0
"473",0,0
"474",0,0
"475",0,0
"476",0,0
"477",0,0
"478",0,0
"479",0,0
"480",0,0
"481",0,0
"482",0,0
"483",0,0
"484",0,0
"485",0,0
"486",0,0
"487",0,0
"488",0,0
"489",0,0
"490",0,0
"491",0,0
"492",0,0
"493",0,0
"494",0,0
"495",0,0
"496",0,0
"497",0,0
"498",0,0
"499",0,0
"500",0,0
