"","n_obs","n_total"
"1",0,0
"2",0,0
"3",0,0
"4",0,0
"5",0,0
"6",0,0
"7",0,0
"8",0,0
"9",0,0
"10",0,0
"11",0,0
"12",0,0
"13",0,0
"14",0,0
"15",0,0
"16",0,0
"17",2,2
"18",0,0
"19",0,0
"20",0,0
"21",0,0
"22",0,0
"23",0,0
"24",1,1
"25",0,0
"26",0,0
"27",1,1
"28",0,0
"29",0,0
"30",0,0
"31",0,0
"32",0,0
"33",0,0
"34",2,3
"35",0,0
"36",0,0
"37",0,0
"38",0,0
"39",0,0
"40",2,2
"41",0,0
"42",0,0
"43",0,0
"44",1,1
"45",0,0
"46",0,0
"47",0,0
"48",0,0
"49",6,9
"50",6,13
"51",0,0
"52",0,0
"53",0,0
"54",3,3
"55",0,0
"56",2,2
"57",0,0
"58",0,0
"59",1,2
"60",0,0
"61",0,0
"62",0,0
"63",0,0
"64",1,1
"65",2,2
"66",4,5
"67",0,0
"68",1,1
"69",0,0
"70",3,3
"71",0,0
"72",0,0
"73",1,2
"74",1,1
"75",4,5
"76",0,0
"77",0,0
"78",0,0
"79",1,1
"80",1,1
"81",0,0
"82",0,0
"83",0,0
"84",1,1
"85",0,0
"86",0,0
"87",0,0
"88",0,0
"89",0,0
"90",0,0
"91",0,0
"92",0,0
"93",0,0
"94",0,0
"95",0,0
"96",0,0
"97",3,4
"98",2,2
"99",0,0
"100",1,1
"101",0,0
"102",0,0
"103",0,0
"104",0,0
"105",0,0
"106",0,0
"107",3,4
"108",7,7
"109",5,5
"110",2,3
"111",0,0
"112",0,0
"113",0,0
"114",0,0
"115",0,0
"116",0,0
"117",5,5
"118",6,6
"119",12,15
"120",3,3
"121",0,0
"122",0,0
"123",0,0
"124",0,0
"125",0,0
"126",0,0
"127",6,9
"128",9,11
"129",18,20
"130",5,5
"131",0,0
"132",0,0
"133",0,0
"134",0,0
"135",0,0
"136",0,0
"137",5,7
"138",4,10
"139",4,4
"140",0,0
"141",0,0
"142",0,0
"143",0,0
"144",0,0
"145",0,0
"146",4,5
"147",20,28
"148",19,26
"149",9,9
"150",5,9
"151",0,0
"152",0,0
"153",0,0
"154",0,0
"155",1,1
"156",6,6
"157",6,9
"158",11,18
"159",23,26
"160",19,24
"161",0,0
"162",0,0
"163",0,0
"164",0,0
"165",9,10
"166",14,21
"167",8,8
"168",26,30
"169",33,43
"170",17,18
"171",0,0
"172",0,0
"173",0,0
"174",0,0
"175",13,15
"176",6,7
"177",7,10
"178",23,32
"179",27,39
"180",9,9
"181",0,0
"182",0,0
"183",0,0
"184",0,0
"185",11,13
"186",8,10
"187",12,13
"188",15,19
"189",30,37
"190",8,12
"191",0,0
"192",0,0
"193",0,0
"194",0,0
"195",0,0
"196",2,2
"197",6,6
"198",29,33
"199",50,56
"200",7,7
"201",0,0
"202",0,0
"203",0,0
"204",0,0
"205",0,0
"206",0,0
"207",5,5
"208",19,28
"209",9,10
"210",0,0
"211",0,0
"212",0,0
"213",0,0
"214",0,0
"215",0,0
"216",0,0
"217",3,3
"218",11,15
"219",9,11
"220",0,0
"221",0,0
"222",0,0
"223",0,0
"224",0,0
"225",0,0
"226",0,0
"227",1,1
"228",22,26
"229",10,11
"230",0,0
"231",0,0
"232",0,0
"233",0,0
"234",1,1
"235",0,0
"236",0,0
"237",0,0
"238",12,14
"239",1,1
"240",0,0
"241",0,0
"242",0,0
"243",3,4
"244",2,4
"245",0,0
"246",0,0
"247",0,0
"248",0,0
"249",0,0
"250",0,0
"251",0,0
"252",0,0
"253",7,7
"254",0,0
"255",0,0
"256",0,0
"257",1,1
"258",0,0
"259",0,0
"260",0,0
"261",0,0
"262",0,0
"263",5,5
"264",1,1
"265",1,1
"266",0,0
"267",0,0
"268",0,0
"269",0,0
"270",0,0
"271",0,0
"272",0,0
"273",2,2
"274",7,9
"275",0,0
"276",2,2
"277",0,0
"278",0,0
"279",0,0
"280",0,0
"281",0,0
"282",0,0
"283",2,2
"284",1,1
"285",1,2
"286",1,1
"287",0,0
"288",0,0
"289",0,0
"290",0,0
"291",0,0
"292",0,0
"293",0,0
"294",1,1
"295",0,0
"296",4,4
"297",0,0
"298",0,0
"299",0,0
"300",0,0
"301",0,0
"302",0,0
"303",1,2
"304",0,0
"305",0,0
"306",2,2
"307",0,0
"308",0,0
"309",0,0
"310",0,0
"311",0,0
"312",1,2
"313",1,1
"314",1,1
"315",3,3
"316",2,2
"317",0,0
"318",0,0
"319",0,0
"320",0,0
"321",0,0
"322",0,0
"323",0,0
"324",0,0
"325",5,5
"326",0,0
"327",0,0
"328",0,0
"329",0,0
"330",0,0
"331",0,0
"332",5,6
"333",0,0
"334",4,4
"335",0,0
"336",0,0
"337",0,0
"338",0,0
"339",0,0
"340",0,0
"341",0,0
"342",7,7
"343",3,3
"344",2,2
"345",1,1
"346",0,0
"347",0,0
"348",0,0
"349",0,0
"350",0,0
"351",0,0
"352",2,2
"353",1,1
"354",2,4
"355",10,16
"356",2,2
"357",0,0
"358",0,0
"359",0,0
"360",0,0
"361",6,7
"362",3,6
"363",7,16
"364",2,2
"365",6,8
"366",0,0
"367",0,0
"368",0,0
"369",0,0
"370",0,0
"371",3,3
"372",2,3
"373",10,11
"374",22,31
"375",16,19
"376",3,4
"377",0,0
"378",0,0
"379",0,0
"380",0,0
"381",6,8
"382",12,14
"383",5,5
"384",3,7
"385",6,6
"386",2,2
"387",0,0
"388",0,0
"389",0,0
"390",0,0
"391",2,2
"392",1,1
"393",12,13
"394",5,5
"395",5,6
"396",0,0
"397",0,0
"398",0,0
"399",0,0
"400",0,0
"401",1,1
"402",1,1
"403",9,9
"404",3,4
"405",6,12
"406",0,0
"407",0,0
"408",0,0
"409",0,0
"410",0,0
"411",1,1
"412",0,0
"413",1,1
"414",5,6
"415",4,9
"416",0,0
"417",0,0
"418",0,0
"419",0,0
"420",0,0
"421",0,0
"422",0,0
"423",3,3
"424",10,16
"425",3,4
"426",0,0
"427",0,0
"428",0,0
"429",0,0
"430",0,0
"431",0,0
"432",0,0
"433",2,3
"434",3,8
"435",0,0
"436",0,0
"437",0,0
"438",0,0
"439",0,0
"440",0,0
"441",0,0
"442",0,0
"443",0,0
"444",4,5
"445",0,0
"446",0,0
"447",0,0
"448",0,0
"449",0,0
"450",0,0
"451",0,0
"452",0,0
"453",0,0
"454",1,2
"455",0,0
"456",0,0
"457",0,0
"458",0,0
"459",0,0
"460",0,0
"461",0,0
"462",0,0
"463",0,0
"464",0,0
"465",0,0
"466",0,0
"467",0,0
"468",0,0
"469",0,0
"470",0,0
"471",0,0
"472",0,0
"473",0,0
"474",0,0
"475",0,0
"476",0,0
"477",0,0
"478",0,0
"479",0,0
"480",0,0
"481",0,0
"482",0,0
"483",0,0
"484",0,0
"485",0,0
"486",0,0
"487",0,0
"488",0,0
"489",0,0
"490",0,0
"491",0,0
"492",0,0
"493",0,0
"494",0,0
"495",0,0
"496",0,0
"497",0,0
"498",0,0
"499",0,0
"500",0,0
