"","n_obs","n_total"
"1",0,0
"2",0,0
"3",0,0
"4",0,0
"5",0,0
"6",0,0
"7",0,0
"8",0,0
"9",0,0
"10",0,0
"11",0,0
"12",0,0
"13",0,0
"14",0,0
"15",0,0
"16",5,20
"17",2,2
"18",0,0
"19",0,0
"20",0,0
"21",0,0
"22",0,0
"23",0,0
"24",0,0
"25",0,0
"26",2,3
"27",8,13
"28",1,2
"29",2,3
"30",1,4
"31",0,0
"32",0,0
"33",0,0
"34",4,9
"35",0,0
"36",2,2
"37",7,7
"38",1,1
"39",0,0
"40",0,0
"41",0,0
"42",0,0
"43",0,0
"44",1,4
"45",0,0
"46",1,1
"47",2,2
"48",1,3
"49",2,2
"50",1,2
"51",0,0
"52",0,0
"53",1,3
"54",0,0
"55",2,6
"56",0,0
"57",0,0
"58",0,0
"59",3,3
"60",6,12
"61",0,0
"62",0,0
"63",2,3
"64",1,1
"65",0,0
"66",0,0
"67",0,0
"68",1,4
"69",4,7
"70",10,14
"71",0,0
"72",0,0
"73",3,4
"74",1,1
"75",1,1
"76",1,2
"77",0,0
"78",2,2
"79",4,4
"80",10,21
"81",0,0
"82",0,0
"83",0,0
"84",1,1
"85",4,8
"86",2,3
"87",2,3
"88",3,7
"89",5,6
"90",0,0
"91",0,0
"92",0,0
"93",0,0
"94",0,0
"95",0,0
"96",0,0
"97",0,0
"98",0,0
"99",4,5
"100",2,5
"101",0,0
"102",0,0
"103",0,0
"104",0,0
"105",0,0
"106",0,0
"107",0,0
"108",1,1
"109",4,11
"110",0,0
"111",0,0
"112",0,0
"113",0,0
"114",0,0
"115",0,0
"116",0,0
"117",0,0
"118",1,1
"119",1,3
"120",0,0
"121",0,0
"122",0,0
"123",0,0
"124",0,0
"125",0,0
"126",0,0
"127",4,4
"128",1,7
"129",1,8
"130",1,1
"131",0,0
"132",0,0
"133",0,0
"134",0,0
"135",0,0
"136",0,0
"137",5,6
"138",6,13
"139",3,7
"140",1,1
"141",0,0
"142",0,0
"143",0,0
"144",0,0
"145",0,0
"146",9,16
"147",1,1
"148",2,18
"149",3,3
"150",2,5
"151",0,0
"152",0,0
"153",0,0
"154",0,0
"155",0,0
"156",4,7
"157",2,2
"158",1,1
"159",0,0
"160",1,4
"161",0,0
"162",0,0
"163",0,0
"164",0,0
"165",0,0
"166",3,3
"167",2,2
"168",2,2
"169",3,6
"170",0,0
"171",0,0
"172",0,0
"173",0,0
"174",0,0
"175",2,3
"176",1,1
"177",4,15
"178",6,13
"179",8,16
"180",1,2
"181",0,0
"182",0,0
"183",0,0
"184",0,0
"185",5,6
"186",0,0
"187",1,1
"188",3,14
"189",2,3
"190",1,3
"191",0,0
"192",0,0
"193",0,0
"194",0,0
"195",0,0
"196",0,0
"197",0,0
"198",2,7
"199",3,3
"200",0,0
"201",0,0
"202",0,0
"203",0,0
"204",0,0
"205",2,7
"206",4,8
"207",7,10
"208",2,3
"209",1,2
"210",0,0
"211",0,0
"212",0,0
"213",0,0
"214",0,0
"215",0,0
"216",1,4
"217",1,2
"218",1,1
"219",1,2
"220",0,0
"221",0,0
"222",0,0
"223",0,0
"224",1,4
"225",0,0
"226",1,1
"227",4,4
"228",7,17
"229",3,8
"230",0,0
"231",0,0
"232",0,0
"233",1,1
"234",1,2
"235",0,0
"236",2,2
"237",2,2
"238",3,4
"239",0,0
"240",0,0
"241",0,0
"242",0,0
"243",9,19
"244",2,3
"245",1,1
"246",1,2
"247",6,9
"248",4,4
"249",2,4
"250",0,0
"251",0,0
"252",0,0
"253",4,6
"254",1,1
"255",2,3
"256",10,13
"257",9,22
"258",2,2
"259",0,0
"260",0,0
"261",0,0
"262",0,0
"263",1,1
"264",1,2
"265",2,5
"266",9,18
"267",16,27
"268",3,9
"269",0,0
"270",0,0
"271",0,0
"272",0,0
"273",3,4
"274",2,2
"275",3,5
"276",5,6
"277",3,3
"278",0,0
"279",0,0
"280",0,0
"281",0,0
"282",0,0
"283",7,9
"284",3,4
"285",4,4
"286",0,0
"287",2,3
"288",0,0
"289",0,0
"290",0,0
"291",0,0
"292",0,0
"293",5,6
"294",2,2
"295",3,3
"296",2,4
"297",10,17
"298",0,0
"299",0,0
"300",0,0
"301",0,0
"302",0,0
"303",1,1
"304",2,2
"305",6,7
"306",1,3
"307",4,8
"308",0,0
"309",0,0
"310",0,0
"311",0,0
"312",3,4
"313",2,2
"314",5,9
"315",6,13
"316",0,0
"317",0,0
"318",0,0
"319",0,0
"320",0,0
"321",0,0
"322",4,5
"323",1,1
"324",6,9
"325",3,11
"326",2,2
"327",0,0
"328",0,0
"329",0,0
"330",0,0
"331",0,0
"332",7,14
"333",1,1
"334",0,0
"335",6,24
"336",1,1
"337",0,0
"338",0,0
"339",0,0
"340",0,0
"341",0,0
"342",3,9
"343",0,0
"344",0,0
"345",3,3
"346",1,2
"347",0,0
"348",0,0
"349",0,0
"350",0,0
"351",0,0
"352",0,0
"353",5,5
"354",0,0
"355",14,22
"356",7,19
"357",0,0
"358",0,0
"359",0,0
"360",0,0
"361",3,5
"362",3,10
"363",2,6
"364",1,1
"365",10,42
"366",4,10
"367",0,0
"368",0,0
"369",0,0
"370",0,0
"371",8,29
"372",4,7
"373",1,1
"374",1,2
"375",23,48
"376",2,8
"377",0,0
"378",0,0
"379",0,0
"380",0,0
"381",3,26
"382",1,3
"383",2,10
"384",1,1
"385",5,7
"386",0,0
"387",0,0
"388",0,0
"389",0,0
"390",0,0
"391",7,31
"392",0,0
"393",2,2
"394",1,4
"395",3,27
"396",1,2
"397",0,0
"398",0,0
"399",0,0
"400",0,0
"401",2,10
"402",1,1
"403",0,0
"404",3,7
"405",1,2
"406",0,0
"407",0,0
"408",0,0
"409",0,0
"410",0,0
"411",2,9
"412",3,32
"413",1,3
"414",2,4
"415",1,5
"416",0,0
"417",0,0
"418",0,0
"419",0,0
"420",0,0
"421",0,0
"422",4,14
"423",3,5
"424",5,31
"425",1,1
"426",0,0
"427",0,0
"428",0,0
"429",0,0
"430",0,0
"431",0,0
"432",2,9
"433",2,2
"434",4,5
"435",3,4
"436",0,0
"437",0,0
"438",0,0
"439",0,0
"440",0,0
"441",0,0
"442",0,0
"443",6,14
"444",1,1
"445",0,0
"446",0,0
"447",0,0
"448",0,0
"449",0,0
"450",0,0
"451",0,0
"452",0,0
"453",1,2
"454",0,0
"455",0,0
"456",0,0
"457",0,0
"458",0,0
"459",0,0
"460",0,0
"461",0,0
"462",0,0
"463",0,0
"464",0,0
"465",0,0
"466",0,0
"467",0,0
"468",0,0
"469",0,0
"470",0,0
"471",0,0
"472",0,0
"473",0,0
"474",0,0
"475",0,0
"476",0,0
"477",0,0
"478",0,0
"479",0,0
"480",0,0
"481",0,0
"482",0,0
"483",0,0
"484",0,0
"485",0,0
"486",0,0
"487",0,0
"488",0,0
"489",0,0
"490",0,0
"491",0,0
"492",0,0
"493",0,0
"494",0,0
"495",0,0
"496",0,0
"497",0,0
"498",0,0
"499",0,0
"500",0,0
