"","n_obs","n_total"
"1",0,0
"2",0,0
"3",0,0
"4",0,0
"5",0,0
"6",1,20
"7",0,0
"8",0,0
"9",0,0
"10",0,0
"11",0,0
"12",0,0
"13",0,0
"14",0,0
"15",0,0
"16",1,1
"17",0,0
"18",0,0
"19",0,0
"20",1,5
"21",0,0
"22",0,0
"23",0,0
"24",3,30
"25",1,6
"26",1,6
"27",2,10
"28",0,0
"29",4,18
"30",1,4
"31",0,0
"32",0,0
"33",0,0
"34",2,14
"35",2,5
"36",8,53
"37",0,0
"38",0,0
"39",2,18
"40",7,78
"41",0,0
"42",0,0
"43",0,0
"44",0,0
"45",6,28
"46",2,14
"47",4,32
"48",2,10
"49",8,129
"50",14,199
"51",0,0
"52",0,0
"53",0,0
"54",9,79
"55",4,38
"56",3,14
"57",3,26
"58",3,22
"59",2,18
"60",5,51
"61",0,0
"62",0,0
"63",2,25
"64",0,0
"65",2,34
"66",10,79
"67",1,10
"68",0,0
"69",2,7
"70",0,0
"71",0,0
"72",0,0
"73",2,26
"74",1,2
"75",6,16
"76",1,10
"77",2,13
"78",0,0
"79",1,11
"80",7,176
"81",0,0
"82",0,0
"83",0,0
"84",1,1
"85",3,4
"86",1,20
"87",1,26
"88",0,0
"89",4,77
"90",8,150
"91",0,0
"92",0,0
"93",0,0
"94",0,0
"95",0,0
"96",0,0
"97",1,5
"98",1,32
"99",25,464
"100",16,370
"101",0,0
"102",0,0
"103",0,0
"104",0,0
"105",0,0
"106",0,0
"107",4,33
"108",11,56
"109",42,648
"110",6,35
"111",0,0
"112",0,0
"113",0,0
"114",0,0
"115",0,0
"116",0,0
"117",1,12
"118",8,71
"119",13,126
"120",3,53
"121",0,0
"122",0,0
"123",0,0
"124",0,0
"125",0,0
"126",0,0
"127",5,110
"128",30,287
"129",10,111
"130",9,36
"131",0,0
"132",0,0
"133",0,0
"134",0,0
"135",0,0
"136",0,0
"137",2,31
"138",4,36
"139",4,16
"140",4,5
"141",0,0
"142",0,0
"143",0,0
"144",0,0
"145",0,0
"146",8,160
"147",16,105
"148",14,183
"149",7,24
"150",16,69
"151",0,0
"152",0,0
"153",0,0
"154",0,0
"155",0,0
"156",1,24
"157",7,53
"158",10,80
"159",13,68
"160",10,40
"161",0,0
"162",0,0
"163",0,0
"164",0,0
"165",10,120
"166",12,98
"167",16,112
"168",39,351
"169",30,304
"170",16,128
"171",0,0
"172",0,0
"173",0,0
"174",0,0
"175",7,77
"176",15,220
"177",6,34
"178",28,239
"179",46,411
"180",25,204
"181",0,0
"182",0,0
"183",0,0
"184",0,0
"185",12,75
"186",7,17
"187",10,104
"188",8,106
"189",52,428
"190",14,108
"191",0,0
"192",0,0
"193",0,0
"194",0,0
"195",0,0
"196",2,6
"197",14,106
"198",33,471
"199",47,590
"200",6,62
"201",0,0
"202",0,0
"203",0,0
"204",0,0
"205",0,0
"206",0,0
"207",5,74
"208",20,383
"209",21,130
"210",0,0
"211",0,0
"212",0,0
"213",0,0
"214",0,0
"215",0,0
"216",2,6
"217",4,51
"218",5,44
"219",1,2
"220",0,0
"221",0,0
"222",0,0
"223",0,0
"224",1,3
"225",1,3
"226",0,0
"227",6,69
"228",12,90
"229",2,12
"230",0,0
"231",0,0
"232",0,0
"233",0,0
"234",1,2
"235",0,0
"236",0,0
"237",1,26
"238",0,0
"239",2,5
"240",0,0
"241",0,0
"242",0,0
"243",3,30
"244",3,8
"245",0,0
"246",0,0
"247",4,22
"248",5,36
"249",1,1
"250",0,0
"251",0,0
"252",0,0
"253",3,21
"254",2,13
"255",0,0
"256",3,26
"257",1,12
"258",1,5
"259",0,0
"260",0,0
"261",0,0
"262",0,0
"263",5,32
"264",0,0
"265",3,30
"266",2,23
"267",1,21
"268",0,0
"269",0,0
"270",0,0
"271",0,0
"272",0,0
"273",1,2
"274",14,89
"275",1,10
"276",4,56
"277",0,0
"278",0,0
"279",0,0
"280",0,0
"281",0,0
"282",0,0
"283",1,1
"284",3,22
"285",0,0
"286",5,105
"287",1,7
"288",0,0
"289",0,0
"290",0,0
"291",0,0
"292",0,0
"293",2,12
"294",1,8
"295",0,0
"296",5,62
"297",0,0
"298",0,0
"299",0,0
"300",0,0
"301",0,0
"302",0,0
"303",0,0
"304",1,3
"305",1,8
"306",1,15
"307",1,15
"308",0,0
"309",0,0
"310",0,0
"311",0,0
"312",0,0
"313",0,0
"314",1,4
"315",2,16
"316",0,0
"317",0,0
"318",0,0
"319",0,0
"320",0,0
"321",0,0
"322",0,0
"323",0,0
"324",0,0
"325",11,260
"326",0,0
"327",0,0
"328",0,0
"329",0,0
"330",0,0
"331",0,0
"332",3,51
"333",3,50
"334",2,32
"335",6,48
"336",0,0
"337",0,0
"338",0,0
"339",0,0
"340",0,0
"341",0,0
"342",4,25
"343",2,17
"344",2,14
"345",6,60
"346",1,16
"347",0,0
"348",0,0
"349",0,0
"350",0,0
"351",0,0
"352",3,18
"353",0,0
"354",2,22
"355",3,25
"356",1,11
"357",0,0
"358",0,0
"359",0,0
"360",0,0
"361",3,37
"362",7,58
"363",3,41
"364",5,66
"365",1,20
"366",0,0
"367",0,0
"368",0,0
"369",0,0
"370",0,0
"371",0,0
"372",1,11
"373",6,85
"374",9,149
"375",4,43
"376",0,0
"377",0,0
"378",0,0
"379",0,0
"380",0,0
"381",0,0
"382",2,20
"383",3,34
"384",8,90
"385",3,57
"386",1,9
"387",0,0
"388",0,0
"389",0,0
"390",0,0
"391",2,17
"392",4,40
"393",14,163
"394",4,52
"395",5,89
"396",0,0
"397",0,0
"398",0,0
"399",0,0
"400",0,0
"401",1,11
"402",3,26
"403",9,72
"404",5,34
"405",5,45
"406",0,0
"407",0,0
"408",0,0
"409",0,0
"410",0,0
"411",0,0
"412",0,0
"413",3,31
"414",6,38
"415",2,27
"416",0,0
"417",0,0
"418",0,0
"419",0,0
"420",0,0
"421",0,0
"422",0,0
"423",0,0
"424",16,217
"425",2,29
"426",0,0
"427",0,0
"428",0,0
"429",0,0
"430",0,0
"431",0,0
"432",0,0
"433",0,0
"434",3,13
"435",0,0
"436",0,0
"437",0,0
"438",0,0
"439",0,0
"440",0,0
"441",0,0
"442",0,0
"443",7,61
"444",3,24
"445",0,0
"446",0,0
"447",0,0
"448",0,0
"449",0,0
"450",0,0
"451",0,0
"452",0,0
"453",4,23
"454",0,0
"455",0,0
"456",0,0
"457",0,0
"458",0,0
"459",0,0
"460",0,0
"461",0,0
"462",0,0
"463",0,0
"464",0,0
"465",0,0
"466",0,0
"467",0,0
"468",0,0
"469",0,0
"470",0,0
"471",0,0
"472",0,0
"473",0,0
"474",0,0
"475",0,0
"476",0,0
"477",0,0
"478",0,0
"479",0,0
"480",0,0
"481",0,0
"482",0,0
"483",0,0
"484",0,0
"485",0,0
"486",0,0
"487",0,0
"488",0,0
"489",0,0
"490",0,0
"491",0,0
"492",0,0
"493",0,0
"494",0,0
"495",0,0
"496",0,0
"497",0,0
"498",0,0
"499",0,0
"500",0,0
