"","n_obs","n_total"
"1",0,0
"2",0,0
"3",0,0
"4",11,123
"5",59,714
"6",31,405
"7",0,0
"8",0,0
"9",0,0
"10",0,0
"11",0,0
"12",0,0
"13",0,0
"14",33,477
"15",30,343
"16",67,1009
"17",28,297
"18",0,0
"19",0,0
"20",27,226
"21",0,0
"22",0,0
"23",0,0
"24",26,256
"25",27,293
"26",106,1354
"27",76,730
"28",37,467
"29",38,441
"30",53,515
"31",0,0
"32",0,0
"33",0,0
"34",15,190
"35",30,293
"36",57,659
"37",73,852
"38",99,1046
"39",89,1086
"40",68,555
"41",0,0
"42",0,0
"43",0,0
"44",9,66
"45",49,587
"46",50,739
"47",46,473
"48",34,443
"49",86,919
"50",76,1194
"51",0,0
"52",0,0
"53",9,69
"54",28,188
"55",49,568
"56",53,791
"57",87,1808
"58",82,1165
"59",21,146
"60",95,1259
"61",0,0
"62",0,0
"63",3,13
"64",31,246
"65",26,330
"66",45,895
"67",61,722
"68",56,573
"69",61,540
"70",123,1644
"71",0,0
"72",0,0
"73",5,47
"74",58,438
"75",89,849
"76",122,1378
"77",76,895
"78",86,616
"79",48,606
"80",83,1073
"81",0,0
"82",0,0
"83",0,0
"84",64,452
"85",42,384
"86",49,345
"87",77,569
"88",82,652
"89",24,260
"90",33,372
"91",0,0
"92",0,0
"93",0,0
"94",0,0
"95",0,0
"96",0,0
"97",85,655
"98",113,1056
"99",15,174
"100",15,95
"101",0,0
"102",0,0
"103",0,0
"104",0,0
"105",0,0
"106",0,0
"107",37,423
"108",62,576
"109",51,568
"110",33,236
"111",0,0
"112",0,0
"113",0,0
"114",0,0
"115",0,0
"116",0,0
"117",6,22
"118",26,232
"119",110,1696
"120",92,1106
"121",0,0
"122",0,0
"123",0,0
"124",0,0
"125",0,0
"126",0,0
"127",14,165
"128",98,1151
"129",56,852
"130",69,519
"131",0,0
"132",0,0
"133",0,0
"134",0,0
"135",0,0
"136",0,0
"137",26,328
"138",96,1080
"139",11,203
"140",0,0
"141",0,0
"142",0,0
"143",0,0
"144",0,0
"145",0,0
"146",24,347
"147",68,1279
"148",123,2125
"149",19,310
"150",12,244
"151",0,0
"152",0,0
"153",0,0
"154",0,0
"155",7,66
"156",12,369
"157",33,406
"158",66,1245
"159",23,402
"160",33,741
"161",0,0
"162",0,0
"163",0,0
"164",0,0
"165",47,1044
"166",38,578
"167",37,569
"168",87,1363
"169",43,685
"170",49,990
"171",0,0
"172",0,0
"173",0,0
"174",0,0
"175",67,1256
"176",171,1756
"177",43,438
"178",67,1673
"179",43,571
"180",101,1399
"181",0,0
"182",0,0
"183",0,0
"184",0,0
"185",29,692
"186",47,414
"187",89,1038
"188",20,292
"189",33,732
"190",59,718
"191",0,0
"192",0,0
"193",0,0
"194",0,0
"195",11,155
"196",41,322
"197",80,797
"198",3,29
"199",17,193
"200",18,88
"201",0,0
"202",0,0
"203",0,0
"204",0,0
"205",9,51
"206",18,112
"207",67,762
"208",2,155
"209",3,17
"210",1,3
"211",0,0
"212",0,0
"213",0,0
"214",0,0
"215",0,0
"216",23,146
"217",68,695
"218",28,787
"219",23,280
"220",0,0
"221",0,0
"222",0,0
"223",5,11
"224",59,609
"225",95,909
"226",49,344
"227",69,724
"228",70,891
"229",53,911
"230",0,0
"231",0,0
"232",0,0
"233",10,164
"234",82,642
"235",27,290
"236",57,417
"237",88,717
"238",86,961
"239",63,885
"240",0,0
"241",0,0
"242",0,0
"243",66,693
"244",34,223
"245",12,89
"246",15,128
"247",63,422
"248",93,852
"249",22,132
"250",0,0
"251",0,0
"252",0,0
"253",53,509
"254",15,77
"255",9,75
"256",45,408
"257",93,534
"258",19,126
"259",2,4
"260",0,0
"261",0,0
"262",0,0
"263",79,567
"264",101,866
"265",20,165
"266",70,751
"267",72,538
"268",5,43
"269",0,0
"270",0,0
"271",0,0
"272",0,0
"273",150,1212
"274",102,583
"275",125,1217
"276",39,426
"277",33,339
"278",9,68
"279",0,0
"280",0,0
"281",0,0
"282",0,0
"283",70,448
"284",65,499
"285",29,184
"286",13,117
"287",44,555
"288",3,33
"289",0,0
"290",0,0
"291",0,0
"292",0,0
"293",73,396
"294",19,133
"295",35,421
"296",3,55
"297",13,107
"298",0,0
"299",0,0
"300",0,0
"301",0,0
"302",8,83
"303",66,547
"304",25,178
"305",16,92
"306",1,3
"307",8,132
"308",0,0
"309",0,0
"310",0,0
"311",0,0
"312",11,108
"313",19,149
"314",13,116
"315",28,273
"316",1,32
"317",0,0
"318",0,0
"319",0,0
"320",0,0
"321",0,0
"322",50,402
"323",11,96
"324",29,193
"325",10,52
"326",0,0
"327",0,0
"328",0,0
"329",0,0
"330",0,0
"331",0,0
"332",32,260
"333",19,204
"334",33,304
"335",1,15
"336",7,40
"337",0,0
"338",0,0
"339",0,0
"340",0,0
"341",1,5
"342",26,214
"343",33,265
"344",18,175
"345",0,0
"346",40,357
"347",0,0
"348",0,0
"349",0,0
"350",0,0
"351",15,103
"352",34,257
"353",160,1497
"354",25,205
"355",13,79
"356",54,592
"357",0,0
"358",0,0
"359",0,0
"360",0,0
"361",29,189
"362",72,526
"363",127,1170
"364",40,266
"365",32,314
"366",32,204
"367",0,0
"368",0,0
"369",0,0
"370",0,0
"371",18,204
"372",38,368
"373",34,370
"374",28,406
"375",76,471
"376",16,176
"377",0,0
"378",0,0
"379",0,0
"380",0,0
"381",26,207
"382",46,415
"383",49,538
"384",16,110
"385",31,292
"386",4,82
"387",0,0
"388",0,0
"389",0,0
"390",0,0
"391",24,237
"392",42,444
"393",35,360
"394",37,543
"395",10,133
"396",1,2
"397",0,0
"398",0,0
"399",0,0
"400",0,0
"401",5,29
"402",6,43
"403",72,1011
"404",14,99
"405",4,78
"406",0,0
"407",0,0
"408",0,0
"409",0,0
"410",0,0
"411",4,23
"412",21,228
"413",38,624
"414",4,47
"415",8,97
"416",0,0
"417",0,0
"418",0,0
"419",0,0
"420",0,0
"421",5,37
"422",3,19
"423",3,49
"424",7,140
"425",8,83
"426",0,0
"427",0,0
"428",0,0
"429",0,0
"430",0,0
"431",2,17
"432",5,29
"433",3,69
"434",4,114
"435",0,0
"436",0,0
"437",0,0
"438",0,0
"439",0,0
"440",0,0
"441",0,0
"442",0,0
"443",1,12
"444",5,44
"445",0,0
"446",0,0
"447",0,0
"448",0,0
"449",0,0
"450",0,0
"451",0,0
"452",0,0
"453",6,101
"454",10,104
"455",0,0
"456",0,0
"457",0,0
"458",0,0
"459",0,0
"460",0,0
"461",0,0
"462",0,0
"463",0,0
"464",0,0
"465",0,0
"466",0,0
"467",0,0
"468",0,0
"469",0,0
"470",0,0
"471",0,0
"472",0,0
"473",0,0
"474",0,0
"475",0,0
"476",0,0
"477",0,0
"478",0,0
"479",0,0
"480",0,0
"481",0,0
"482",0,0
"483",0,0
"484",0,0
"485",0,0
"486",0,0
"487",0,0
"488",0,0
"489",0,0
"490",0,0
"491",0,0
"492",0,0
"493",0,0
"494",0,0
"495",0,0
"496",0,0
"497",0,0
"498",0,0
"499",0,0
"500",0,0
