"","n_obs","n_total"
"1",0,0
"2",0,0
"3",0,0
"4",0,0
"5",5,11
"6",4,17
"7",0,0
"8",0,0
"9",0,0
"10",0,0
"11",0,0
"12",0,0
"13",0,0
"14",1,2
"15",0,0
"16",6,16
"17",1,1
"18",0,0
"19",0,0
"20",0,0
"21",0,0
"22",0,0
"23",0,0
"24",0,0
"25",1,2
"26",4,9
"27",12,25
"28",0,0
"29",4,10
"30",2,7
"31",0,0
"32",0,0
"33",0,0
"34",5,10
"35",1,1
"36",2,5
"37",2,3
"38",1,2
"39",4,9
"40",8,14
"41",0,0
"42",0,0
"43",0,0
"44",2,2
"45",4,6
"46",1,2
"47",2,7
"48",2,3
"49",13,41
"50",3,6
"51",0,0
"52",0,0
"53",0,0
"54",1,5
"55",2,3
"56",8,33
"57",6,15
"58",10,27
"59",3,8
"60",4,15
"61",0,0
"62",0,0
"63",2,3
"64",2,6
"65",3,9
"66",20,56
"67",2,3
"68",1,4
"69",9,31
"70",8,20
"71",0,0
"72",0,0
"73",0,0
"74",4,9
"75",14,41
"76",15,49
"77",5,8
"78",4,8
"79",5,13
"80",2,7
"81",0,0
"82",0,0
"83",0,0
"84",5,8
"85",4,7
"86",0,0
"87",6,13
"88",6,18
"89",3,6
"90",0,0
"91",0,0
"92",0,0
"93",0,0
"94",0,0
"95",0,0
"96",0,0
"97",6,16
"98",3,5
"99",6,12
"100",1,1
"101",0,0
"102",0,0
"103",0,0
"104",0,0
"105",0,0
"106",0,0
"107",6,14
"108",3,6
"109",12,28
"110",2,4
"111",0,0
"112",0,0
"113",0,0
"114",0,0
"115",0,0
"116",0,0
"117",2,3
"118",5,13
"119",15,35
"120",0,0
"121",0,0
"122",0,0
"123",0,0
"124",0,0
"125",0,0
"126",0,0
"127",14,39
"128",14,49
"129",18,57
"130",1,5
"131",0,0
"132",0,0
"133",0,0
"134",0,0
"135",0,0
"136",0,0
"137",8,21
"138",11,25
"139",15,47
"140",1,2
"141",0,0
"142",0,0
"143",0,0
"144",0,0
"145",0,0
"146",2,4
"147",3,7
"148",12,34
"149",16,46
"150",5,9
"151",0,0
"152",0,0
"153",0,0
"154",0,0
"155",1,6
"156",5,38
"157",5,15
"158",7,24
"159",10,19
"160",0,0
"161",0,0
"162",0,0
"163",0,0
"164",0,0
"165",13,44
"166",7,25
"167",2,6
"168",6,16
"169",12,34
"170",4,9
"171",0,0
"172",0,0
"173",0,0
"174",0,0
"175",14,39
"176",5,15
"177",4,8
"178",2,3
"179",3,8
"180",2,7
"181",0,0
"182",0,0
"183",0,0
"184",0,0
"185",12,44
"186",5,9
"187",1,1
"188",4,12
"189",4,19
"190",1,1
"191",0,0
"192",0,0
"193",0,0
"194",0,0
"195",1,1
"196",3,5
"197",1,1
"198",8,22
"199",8,19
"200",2,6
"201",0,0
"202",0,0
"203",0,0
"204",0,0
"205",0,0
"206",2,8
"207",0,0
"208",7,18
"209",7,18
"210",0,0
"211",0,0
"212",0,0
"213",0,0
"214",0,0
"215",0,0
"216",2,2
"217",3,5
"218",1,3
"219",2,6
"220",0,0
"221",0,0
"222",0,0
"223",0,0
"224",2,4
"225",0,0
"226",3,12
"227",3,9
"228",0,0
"229",1,6
"230",0,0
"231",0,0
"232",0,0
"233",1,3
"234",1,6
"235",0,0
"236",0,0
"237",3,6
"238",0,0
"239",0,0
"240",0,0
"241",0,0
"242",0,0
"243",15,52
"244",2,6
"245",7,17
"246",0,0
"247",2,8
"248",5,14
"249",1,3
"250",0,0
"251",0,0
"252",0,0
"253",15,48
"254",7,25
"255",5,13
"256",6,25
"257",3,5
"258",1,2
"259",0,0
"260",0,0
"261",0,0
"262",0,0
"263",4,16
"264",4,9
"265",6,13
"266",1,2
"267",3,7
"268",0,0
"269",0,0
"270",0,0
"271",0,0
"272",0,0
"273",6,15
"274",7,22
"275",3,13
"276",3,5
"277",1,1
"278",0,0
"279",0,0
"280",0,0
"281",0,0
"282",0,0
"283",1,3
"284",3,5
"285",2,6
"286",3,10
"287",0,0
"288",0,0
"289",0,0
"290",0,0
"291",0,0
"292",0,0
"293",1,1
"294",7,21
"295",2,5
"296",1,5
"297",3,14
"298",0,0
"299",0,0
"300",0,0
"301",0,0
"302",0,0
"303",9,22
"304",4,9
"305",2,2
"306",0,0
"307",0,0
"308",0,0
"309",0,0
"310",0,0
"311",0,0
"312",1,3
"313",15,49
"314",3,6
"315",3,9
"316",0,0
"317",0,0
"318",0,0
"319",0,0
"320",0,0
"321",0,0
"322",6,17
"323",11,38
"324",4,10
"325",5,16
"326",1,5
"327",0,0
"328",0,0
"329",0,0
"330",0,0
"331",0,0
"332",4,9
"333",4,12
"334",4,5
"335",1,1
"336",0,0
"337",0,0
"338",0,0
"339",0,0
"340",0,0
"341",0,0
"342",3,7
"343",1,2
"344",5,12
"345",0,0
"346",0,0
"347",0,0
"348",0,0
"349",0,0
"350",0,0
"351",0,0
"352",7,23
"353",8,15
"354",1,4
"355",3,12
"356",4,10
"357",0,0
"358",0,0
"359",0,0
"360",0,0
"361",1,1
"362",8,19
"363",7,20
"364",1,1
"365",0,0
"366",4,4
"367",0,0
"368",0,0
"369",0,0
"370",0,0
"371",5,10
"372",9,29
"373",6,13
"374",4,6
"375",0,0
"376",2,4
"377",0,0
"378",0,0
"379",0,0
"380",0,0
"381",8,24
"382",5,16
"383",2,6
"384",1,4
"385",1,3
"386",0,0
"387",0,0
"388",0,0
"389",0,0
"390",0,0
"391",6,17
"392",2,3
"393",21,64
"394",7,19
"395",1,1
"396",0,0
"397",0,0
"398",0,0
"399",0,0
"400",0,0
"401",0,0
"402",1,5
"403",21,67
"404",1,3
"405",0,0
"406",0,0
"407",0,0
"408",0,0
"409",0,0
"410",0,0
"411",2,4
"412",1,1
"413",1,3
"414",3,5
"415",0,0
"416",0,0
"417",0,0
"418",0,0
"419",0,0
"420",0,0
"421",0,0
"422",1,1
"423",1,1
"424",0,0
"425",0,0
"426",0,0
"427",0,0
"428",0,0
"429",0,0
"430",0,0
"431",0,0
"432",3,6
"433",0,0
"434",0,0
"435",0,0
"436",0,0
"437",0,0
"438",0,0
"439",0,0
"440",0,0
"441",0,0
"442",0,0
"443",0,0
"444",0,0
"445",0,0
"446",0,0
"447",0,0
"448",0,0
"449",0,0
"450",0,0
"451",0,0
"452",0,0
"453",0,0
"454",0,0
"455",0,0
"456",0,0
"457",0,0
"458",0,0
"459",0,0
"460",0,0
"461",0,0
"462",0,0
"463",0,0
"464",0,0
"465",0,0
"466",0,0
"467",0,0
"468",0,0
"469",0,0
"470",0,0
"471",0,0
"472",0,0
"473",0,0
"474",0,0
"475",0,0
"476",0,0
"477",0,0
"478",0,0
"479",0,0
"480",0,0
"481",0,0
"482",0,0
"483",0,0
"484",0,0
"485",0,0
"486",0,0
"487",0,0
"488",0,0
"489",0,0
"490",0,0
"491",0,0
"492",0,0
"493",0,0
"494",0,0
"495",0,0
"496",0,0
"497",0,0
"498",0,0
"499",0,0
"500",0,0
