"","n_obs","n_total"
"1",0,0
"2",0,0
"3",0,0
"4",0,0
"5",0,0
"6",0,0
"7",0,0
"8",0,0
"9",0,0
"10",0,0
"11",0,0
"12",0,0
"13",0,0
"14",0,0
"15",0,0
"16",0,0
"17",0,0
"18",0,0
"19",0,0
"20",0,0
"21",0,0
"22",0,0
"23",0,0
"24",9,32
"25",0,0
"26",0,0
"27",0,0
"28",0,0
"29",0,0
"30",0,0
"31",0,0
"32",0,0
"33",0,0
"34",14,72
"35",8,38
"36",9,48
"37",0,0
"38",0,0
"39",0,0
"40",0,0
"41",0,0
"42",0,0
"43",2,4
"44",18,143
"45",20,166
"46",18,137
"47",10,80
"48",0,0
"49",0,0
"50",0,0
"51",0,0
"52",0,0
"53",18,171
"54",23,181
"55",19,124
"56",23,233
"57",14,80
"58",0,0
"59",0,0
"60",0,0
"61",0,0
"62",0,0
"63",6,55
"64",16,102
"65",9,61
"66",31,179
"67",13,66
"68",0,0
"69",0,0
"70",0,0
"71",0,0
"72",0,0
"73",3,6
"74",16,65
"75",20,90
"76",10,32
"77",0,0
"78",0,0
"79",0,0
"80",0,0
"81",0,0
"82",0,0
"83",0,0
"84",18,72
"85",0,0
"86",0,0
"87",0,0
"88",0,0
"89",0,0
"90",0,0
"91",0,0
"92",0,0
"93",0,0
"94",0,0
"95",0,0
"96",0,0
"97",0,0
"98",0,0
"99",0,0
"100",0,0
"101",0,0
"102",0,0
"103",0,0
"104",0,0
"105",0,0
"106",0,0
"107",0,0
"108",0,0
"109",0,0
"110",0,0
"111",0,0
"112",0,0
"113",0,0
"114",0,0
"115",0,0
"116",0,0
"117",0,0
"118",0,0
"119",0,0
"120",0,0
"121",0,0
"122",0,0
"123",0,0
"124",0,0
"125",0,0
"126",0,0
"127",0,0
"128",0,0
"129",0,0
"130",0,0
"131",0,0
"132",0,0
"133",0,0
"134",0,0
"135",0,0
"136",0,0
"137",0,0
"138",0,0
"139",0,0
"140",0,0
"141",0,0
"142",0,0
"143",0,0
"144",0,0
"145",0,0
"146",0,0
"147",0,0
"148",0,0
"149",0,0
"150",0,0
"151",0,0
"152",0,0
"153",0,0
"154",0,0
"155",0,0
"156",0,0
"157",0,0
"158",0,0
"159",0,0
"160",0,0
"161",0,0
"162",0,0
"163",0,0
"164",0,0
"165",0,0
"166",0,0
"167",0,0
"168",0,0
"169",0,0
"170",0,0
"171",0,0
"172",0,0
"173",0,0
"174",0,0
"175",0,0
"176",0,0
"177",0,0
"178",0,0
"179",0,0
"180",0,0
"181",0,0
"182",0,0
"183",0,0
"184",0,0
"185",0,0
"186",0,0
"187",0,0
"188",0,0
"189",0,0
"190",0,0
"191",0,0
"192",0,0
"193",0,0
"194",0,0
"195",0,0
"196",0,0
"197",0,0
"198",0,0
"199",0,0
"200",0,0
"201",0,0
"202",0,0
"203",0,0
"204",0,0
"205",0,0
"206",0,0
"207",0,0
"208",0,0
"209",0,0
"210",0,0
"211",0,0
"212",0,0
"213",0,0
"214",0,0
"215",0,0
"216",0,0
"217",0,0
"218",0,0
"219",0,0
"220",0,0
"221",0,0
"222",0,0
"223",0,0
"224",0,0
"225",0,0
"226",0,0
"227",3,15
"228",0,0
"229",0,0
"230",0,0
"231",0,0
"232",0,0
"233",1,3
"234",0,0
"235",1,6
"236",2,8
"237",4,33
"238",4,17
"239",0,0
"240",0,0
"241",0,0
"242",0,0
"243",3,23
"244",2,9
"245",4,21
"246",3,13
"247",6,33
"248",10,61
"249",11,94
"250",0,0
"251",0,0
"252",0,0
"253",0,0
"254",2,10
"255",5,31
"256",7,30
"257",6,43
"258",2,11
"259",0,0
"260",0,0
"261",0,0
"262",0,0
"263",0,0
"264",1,4
"265",4,36
"266",6,35
"267",12,158
"268",1,7
"269",0,0
"270",0,0
"271",0,0
"272",0,0
"273",2,11
"274",0,0
"275",3,18
"276",1,4
"277",15,93
"278",2,8
"279",0,0
"280",0,0
"281",0,0
"282",0,0
"283",1,5
"284",2,8
"285",1,4
"286",4,19
"287",8,68
"288",0,0
"289",0,0
"290",0,0
"291",0,0
"292",0,0
"293",2,18
"294",3,14
"295",1,6
"296",2,8
"297",5,42
"298",0,0
"299",0,0
"300",0,0
"301",0,0
"302",0,0
"303",6,48
"304",0,0
"305",7,53
"306",3,14
"307",2,14
"308",0,0
"309",0,0
"310",0,0
"311",0,0
"312",0,0
"313",1,4
"314",2,12
"315",5,31
"316",11,72
"317",0,0
"318",0,0
"319",0,0
"320",0,0
"321",0,0
"322",1,5
"323",1,5
"324",0,0
"325",0,0
"326",4,44
"327",0,0
"328",0,0
"329",0,0
"330",0,0
"331",0,0
"332",3,15
"333",4,31
"334",1,5
"335",3,10
"336",6,24
"337",0,0
"338",0,0
"339",0,0
"340",0,0
"341",0,0
"342",0,0
"343",3,18
"344",1,7
"345",4,32
"346",5,38
"347",0,0
"348",0,0
"349",0,0
"350",0,0
"351",1,4
"352",2,10
"353",0,0
"354",1,6
"355",7,56
"356",2,20
"357",0,0
"358",0,0
"359",0,0
"360",0,0
"361",1,4
"362",2,12
"363",4,23
"364",3,36
"365",1,4
"366",6,39
"367",0,0
"368",0,0
"369",0,0
"370",0,0
"371",7,44
"372",10,62
"373",6,40
"374",7,84
"375",8,50
"376",6,74
"377",0,0
"378",0,0
"379",0,0
"380",0,0
"381",4,34
"382",0,0
"383",1,7
"384",2,12
"385",7,37
"386",1,6
"387",0,0
"388",0,0
"389",0,0
"390",0,0
"391",6,40
"392",10,54
"393",4,18
"394",8,53
"395",16,148
"396",5,93
"397",0,0
"398",0,0
"399",0,0
"400",0,0
"401",4,29
"402",3,13
"403",10,70
"404",8,43
"405",4,23
"406",0,0
"407",0,0
"408",0,0
"409",0,0
"410",0,0
"411",4,24
"412",14,112
"413",6,23
"414",3,13
"415",7,59
"416",0,0
"417",0,0
"418",0,0
"419",0,0
"420",0,0
"421",0,0
"422",5,38
"423",0,0
"424",5,27
"425",8,80
"426",0,0
"427",0,0
"428",0,0
"429",0,0
"430",0,0
"431",0,0
"432",4,26
"433",2,8
"434",0,0
"435",1,10
"436",0,0
"437",0,0
"438",0,0
"439",0,0
"440",0,0
"441",0,0
"442",0,0
"443",0,0
"444",0,0
"445",0,0
"446",0,0
"447",0,0
"448",0,0
"449",0,0
"450",0,0
"451",0,0
"452",0,0
"453",0,0
"454",2,7
"455",0,0
"456",0,0
"457",0,0
"458",0,0
"459",0,0
"460",0,0
"461",0,0
"462",0,0
"463",0,0
"464",0,0
"465",0,0
"466",0,0
"467",0,0
"468",0,0
"469",0,0
"470",0,0
"471",0,0
"472",0,0
"473",0,0
"474",0,0
"475",0,0
"476",0,0
"477",0,0
"478",0,0
"479",0,0
"480",0,0
"481",0,0
"482",0,0
"483",0,0
"484",0,0
"485",0,0
"486",0,0
"487",0,0
"488",0,0
"489",0,0
"490",0,0
"491",0,0
"492",0,0
"493",0,0
"494",0,0
"495",0,0
"496",0,0
"497",0,0
"498",0,0
"499",0,0
"500",0,0
