"","n_obs","n_total"
"1",0,0
"2",0,0
"3",0,0
"4",1,6
"5",6,28
"6",0,0
"7",0,0
"8",0,0
"9",0,0
"10",0,0
"11",0,0
"12",0,0
"13",0,0
"14",0,0
"15",2,7
"16",3,17
"17",1,12
"18",0,0
"19",0,0
"20",2,25
"21",0,0
"22",0,0
"23",0,0
"24",15,61
"25",9,29
"26",6,42
"27",2,8
"28",0,0
"29",1,2
"30",4,6
"31",0,0
"32",0,0
"33",0,0
"34",16,83
"35",4,19
"36",11,87
"37",2,9
"38",4,14
"39",10,49
"40",10,52
"41",0,0
"42",0,0
"43",0,0
"44",11,48
"45",22,120
"46",7,27
"47",4,14
"48",9,73
"49",19,145
"50",32,181
"51",0,0
"52",0,0
"53",0,0
"54",21,136
"55",7,42
"56",7,23
"57",10,38
"58",2,9
"59",7,99
"60",9,76
"61",0,0
"62",0,0
"63",6,41
"64",0,0
"65",11,96
"66",8,55
"67",3,8
"68",2,7
"69",6,34
"70",23,259
"71",0,0
"72",0,0
"73",2,12
"74",12,84
"75",27,132
"76",3,10
"77",0,0
"78",1,4
"79",4,55
"80",28,248
"81",0,0
"82",0,0
"83",0,0
"84",5,17
"85",8,32
"86",1,4
"87",1,8
"88",1,2
"89",13,134
"90",40,525
"91",0,0
"92",0,0
"93",0,0
"94",0,0
"95",0,0
"96",0,0
"97",7,48
"98",10,143
"99",33,362
"100",34,282
"101",0,0
"102",0,0
"103",0,0
"104",0,0
"105",0,0
"106",0,0
"107",3,10
"108",14,238
"109",38,657
"110",59,543
"111",0,0
"112",0,0
"113",0,0
"114",0,0
"115",0,0
"116",0,0
"117",3,34
"118",10,77
"119",8,49
"120",28,321
"121",0,0
"122",0,0
"123",0,0
"124",0,0
"125",0,0
"126",0,0
"127",12,196
"128",32,366
"129",9,73
"130",14,135
"131",0,0
"132",0,0
"133",0,0
"134",0,0
"135",0,0
"136",0,0
"137",11,228
"138",6,76
"139",10,57
"140",2,32
"141",0,0
"142",0,0
"143",0,0
"144",0,0
"145",0,0
"146",11,69
"147",42,319
"148",21,170
"149",5,36
"150",3,18
"151",0,0
"152",0,0
"153",0,0
"154",0,0
"155",2,8
"156",3,30
"157",25,198
"158",13,81
"159",8,41
"160",14,130
"161",0,0
"162",0,0
"163",0,0
"164",0,0
"165",11,92
"166",9,21
"167",32,185
"168",10,60
"169",7,48
"170",13,113
"171",0,0
"172",0,0
"173",0,0
"174",0,0
"175",12,90
"176",15,151
"177",29,213
"178",11,56
"179",15,110
"180",25,200
"181",0,0
"182",0,0
"183",0,0
"184",0,0
"185",6,24
"186",11,54
"187",31,277
"188",16,188
"189",35,654
"190",36,296
"191",0,0
"192",0,0
"193",0,0
"194",0,0
"195",2,7
"196",6,27
"197",51,317
"198",32,335
"199",24,181
"200",11,148
"201",0,0
"202",0,0
"203",0,0
"204",0,0
"205",6,36
"206",2,8
"207",18,111
"208",36,589
"209",17,108
"210",2,11
"211",0,0
"212",0,0
"213",0,0
"214",0,0
"215",0,0
"216",8,37
"217",21,115
"218",19,110
"219",16,129
"220",0,0
"221",0,0
"222",0,0
"223",0,0
"224",17,67
"225",18,91
"226",18,75
"227",15,92
"228",44,324
"229",33,267
"230",0,0
"231",0,0
"232",0,0
"233",2,8
"234",16,80
"235",19,83
"236",9,49
"237",10,80
"238",15,85
"239",13,98
"240",0,0
"241",0,0
"242",0,0
"243",12,47
"244",17,64
"245",5,16
"246",17,72
"247",36,219
"248",30,134
"249",7,29
"250",0,0
"251",0,0
"252",0,0
"253",21,84
"254",25,124
"255",16,76
"256",29,207
"257",42,219
"258",23,119
"259",2,5
"260",0,0
"261",0,0
"262",0,0
"263",49,234
"264",37,162
"265",26,153
"266",42,214
"267",14,56
"268",2,7
"269",0,0
"270",0,0
"271",0,0
"272",0,0
"273",25,92
"274",42,219
"275",31,137
"276",16,108
"277",38,320
"278",6,59
"279",0,0
"280",0,0
"281",0,0
"282",0,0
"283",18,74
"284",25,99
"285",19,111
"286",13,127
"287",12,91
"288",0,0
"289",0,0
"290",0,0
"291",0,0
"292",0,0
"293",43,353
"294",34,171
"295",13,115
"296",15,348
"297",10,53
"298",0,0
"299",0,0
"300",0,0
"301",0,0
"302",0,0
"303",19,76
"304",17,90
"305",11,89
"306",10,131
"307",7,55
"308",0,0
"309",0,0
"310",0,0
"311",0,0
"312",1,2
"313",24,114
"314",26,164
"315",33,279
"316",9,62
"317",0,0
"318",0,0
"319",0,0
"320",0,0
"321",0,0
"322",17,103
"323",21,146
"324",14,77
"325",29,175
"326",8,23
"327",0,0
"328",0,0
"329",0,0
"330",0,0
"331",0,0
"332",42,291
"333",28,113
"334",32,196
"335",18,117
"336",5,26
"337",0,0
"338",0,0
"339",0,0
"340",0,0
"341",2,17
"342",41,198
"343",21,113
"344",10,58
"345",27,275
"346",20,158
"347",0,0
"348",0,0
"349",0,0
"350",0,0
"351",29,183
"352",45,306
"353",2,6
"354",20,130
"355",35,267
"356",13,100
"357",0,0
"358",0,0
"359",0,0
"360",0,0
"361",25,152
"362",22,106
"363",11,71
"364",13,71
"365",16,88
"366",5,31
"367",0,0
"368",0,0
"369",0,0
"370",0,0
"371",16,71
"372",19,119
"373",32,181
"374",32,295
"375",34,215
"376",10,65
"377",0,0
"378",0,0
"379",0,0
"380",0,0
"381",10,63
"382",16,85
"383",20,148
"384",21,265
"385",15,129
"386",15,78
"387",0,0
"388",0,0
"389",0,0
"390",0,0
"391",39,226
"392",26,172
"393",25,185
"394",20,137
"395",39,342
"396",5,32
"397",0,0
"398",0,0
"399",0,0
"400",0,0
"401",16,118
"402",23,137
"403",32,225
"404",11,51
"405",38,487
"406",2,7
"407",0,0
"408",0,0
"409",0,0
"410",0,0
"411",17,106
"412",19,111
"413",43,304
"414",18,172
"415",30,307
"416",0,0
"417",0,0
"418",0,0
"419",0,0
"420",0,0
"421",11,73
"422",4,25
"423",9,48
"424",15,79
"425",9,73
"426",0,0
"427",0,0
"428",0,0
"429",0,0
"430",0,0
"431",1,6
"432",9,59
"433",9,69
"434",8,71
"435",5,17
"436",0,0
"437",0,0
"438",0,0
"439",0,0
"440",0,0
"441",3,17
"442",8,32
"443",26,497
"444",6,128
"445",0,0
"446",0,0
"447",0,0
"448",0,0
"449",0,0
"450",0,0
"451",0,0
"452",5,17
"453",15,83
"454",2,9
"455",0,0
"456",0,0
"457",0,0
"458",0,0
"459",0,0
"460",0,0
"461",1,3
"462",3,19
"463",28,176
"464",1,1
"465",0,0
"466",0,0
"467",0,0
"468",0,0
"469",0,0
"470",0,0
"471",3,7
"472",2,12
"473",8,26
"474",0,0
"475",0,0
"476",0,0
"477",0,0
"478",0,0
"479",0,0
"480",0,0
"481",0,0
"482",2,21
"483",4,23
"484",0,0
"485",0,0
"486",0,0
"487",0,0
"488",0,0
"489",0,0
"490",0,0
"491",0,0
"492",1,6
"493",7,45
"494",0,0
"495",0,0
"496",0,0
"497",0,0
"498",0,0
"499",0,0
"500",0,0
