"","n_obs","n_total"
"1",0,0
"2",0,0
"3",0,0
"4",0,0
"5",0,0
"6",0,0
"7",0,0
"8",0,0
"9",0,0
"10",0,0
"11",0,0
"12",0,0
"13",0,0
"14",0,0
"15",0,0
"16",1,4
"17",0,0
"18",0,0
"19",0,0
"20",0,0
"21",0,0
"22",0,0
"23",0,0
"24",0,0
"25",0,0
"26",3,6
"27",0,0
"28",0,0
"29",0,0
"30",0,0
"31",0,0
"32",0,0
"33",0,0
"34",0,0
"35",1,2
"36",2,10
"37",0,0
"38",3,7
"39",0,0
"40",2,2
"41",0,0
"42",0,0
"43",0,0
"44",1,1
"45",0,0
"46",1,1
"47",2,3
"48",0,0
"49",1,3
"50",3,10
"51",0,0
"52",0,0
"53",0,0
"54",1,10
"55",0,0
"56",3,4
"57",0,0
"58",0,0
"59",1,1
"60",5,20
"61",0,0
"62",0,0
"63",1,4
"64",0,0
"65",0,0
"66",1,1
"67",0,0
"68",0,0
"69",3,6
"70",5,14
"71",0,0
"72",0,0
"73",0,0
"74",1,1
"75",3,4
"76",2,6
"77",0,0
"78",0,0
"79",1,3
"80",2,3
"81",0,0
"82",0,0
"83",0,0
"84",4,6
"85",2,2
"86",2,3
"87",0,0
"88",0,0
"89",2,11
"90",2,4
"91",0,0
"92",0,0
"93",0,0
"94",0,0
"95",0,0
"96",0,0
"97",3,8
"98",4,8
"99",2,5
"100",0,0
"101",0,0
"102",0,0
"103",0,0
"104",0,0
"105",0,0
"106",0,0
"107",0,0
"108",3,4
"109",4,13
"110",3,12
"111",0,0
"112",0,0
"113",0,0
"114",0,0
"115",0,0
"116",0,0
"117",1,1
"118",3,4
"119",5,9
"120",2,2
"121",0,0
"122",0,0
"123",0,0
"124",0,0
"125",0,0
"126",0,0
"127",4,10
"128",4,9
"129",1,1
"130",3,6
"131",0,0
"132",0,0
"133",0,0
"134",0,0
"135",0,0
"136",0,0
"137",4,8
"138",1,1
"139",1,1
"140",1,2
"141",0,0
"142",0,0
"143",0,0
"144",0,0
"145",0,0
"146",0,0
"147",1,1
"148",0,0
"149",2,2
"150",4,18
"151",0,0
"152",0,0
"153",0,0
"154",0,0
"155",2,3
"156",1,1
"157",0,0
"158",0,0
"159",1,2
"160",2,4
"161",0,0
"162",0,0
"163",0,0
"164",0,0
"165",0,0
"166",0,0
"167",3,10
"168",2,8
"169",7,19
"170",1,1
"171",0,0
"172",0,0
"173",0,0
"174",0,0
"175",2,3
"176",2,2
"177",4,12
"178",3,6
"179",2,2
"180",0,0
"181",0,0
"182",0,0
"183",0,0
"184",0,0
"185",2,4
"186",0,0
"187",3,3
"188",1,2
"189",2,3
"190",3,7
"191",0,0
"192",0,0
"193",0,0
"194",0,0
"195",0,0
"196",1,1
"197",1,5
"198",4,5
"199",0,0
"200",2,2
"201",0,0
"202",0,0
"203",0,0
"204",0,0
"205",0,0
"206",1,3
"207",2,4
"208",0,0
"209",0,0
"210",0,0
"211",0,0
"212",0,0
"213",0,0
"214",0,0
"215",0,0
"216",0,0
"217",2,3
"218",3,8
"219",2,9
"220",0,0
"221",0,0
"222",0,0
"223",0,0
"224",1,1
"225",1,2
"226",0,0
"227",5,5
"228",5,12
"229",5,9
"230",0,0
"231",0,0
"232",0,0
"233",0,0
"234",1,4
"235",1,1
"236",0,0
"237",2,8
"238",3,7
"239",0,0
"240",0,0
"241",0,0
"242",0,0
"243",5,36
"244",4,6
"245",4,5
"246",3,6
"247",2,2
"248",5,7
"249",1,1
"250",0,0
"251",0,0
"252",0,0
"253",2,3
"254",2,4
"255",1,2
"256",8,15
"257",1,3
"258",0,0
"259",0,0
"260",0,0
"261",0,0
"262",0,0
"263",7,13
"264",2,16
"265",2,2
"266",5,24
"267",6,20
"268",1,1
"269",0,0
"270",0,0
"271",0,0
"272",0,0
"273",2,4
"274",2,2
"275",2,2
"276",4,12
"277",4,7
"278",0,0
"279",0,0
"280",0,0
"281",0,0
"282",0,0
"283",1,1
"284",2,6
"285",2,3
"286",5,7
"287",2,2
"288",0,0
"289",0,0
"290",0,0
"291",0,0
"292",0,0
"293",2,3
"294",0,0
"295",2,2
"296",1,1
"297",1,3
"298",0,0
"299",0,0
"300",0,0
"301",0,0
"302",1,7
"303",1,1
"304",2,29
"305",3,7
"306",0,0
"307",0,0
"308",0,0
"309",0,0
"310",0,0
"311",0,0
"312",2,3
"313",5,11
"314",5,17
"315",3,4
"316",1,2
"317",0,0
"318",0,0
"319",0,0
"320",0,0
"321",0,0
"322",1,1
"323",0,0
"324",1,1
"325",2,7
"326",0,0
"327",0,0
"328",0,0
"329",0,0
"330",0,0
"331",0,0
"332",1,2
"333",2,3
"334",1,1
"335",0,0
"336",0,0
"337",0,0
"338",0,0
"339",0,0
"340",0,0
"341",0,0
"342",6,29
"343",0,0
"344",0,0
"345",1,8
"346",2,6
"347",0,0
"348",0,0
"349",0,0
"350",0,0
"351",0,0
"352",3,4
"353",1,1
"354",1,1
"355",6,20
"356",4,16
"357",0,0
"358",0,0
"359",0,0
"360",0,0
"361",1,4
"362",1,1
"363",1,1
"364",0,0
"365",5,12
"366",5,6
"367",0,0
"368",0,0
"369",0,0
"370",0,0
"371",7,44
"372",1,6
"373",1,1
"374",1,1
"375",14,49
"376",5,17
"377",0,0
"378",0,0
"379",0,0
"380",0,0
"381",2,5
"382",1,1
"383",0,0
"384",0,0
"385",2,7
"386",3,20
"387",0,0
"388",0,0
"389",0,0
"390",0,0
"391",2,11
"392",1,1
"393",0,0
"394",1,3
"395",0,0
"396",1,1
"397",0,0
"398",0,0
"399",0,0
"400",0,0
"401",4,13
"402",0,0
"403",3,10
"404",1,12
"405",3,9
"406",0,0
"407",0,0
"408",0,0
"409",0,0
"410",0,0
"411",2,9
"412",0,0
"413",1,7
"414",1,13
"415",2,7
"416",0,0
"417",0,0
"418",0,0
"419",0,0
"420",0,0
"421",2,10
"422",5,36
"423",1,1
"424",1,3
"425",1,1
"426",0,0
"427",0,0
"428",0,0
"429",0,0
"430",0,0
"431",0,0
"432",3,8
"433",0,0
"434",1,9
"435",0,0
"436",0,0
"437",0,0
"438",0,0
"439",0,0
"440",0,0
"441",0,0
"442",0,0
"443",0,0
"444",0,0
"445",0,0
"446",0,0
"447",0,0
"448",0,0
"449",0,0
"450",0,0
"451",0,0
"452",0,0
"453",2,4
"454",0,0
"455",0,0
"456",0,0
"457",0,0
"458",0,0
"459",0,0
"460",0,0
"461",0,0
"462",0,0
"463",0,0
"464",0,0
"465",0,0
"466",0,0
"467",0,0
"468",0,0
"469",0,0
"470",0,0
"471",0,0
"472",0,0
"473",0,0
"474",0,0
"475",0,0
"476",0,0
"477",0,0
"478",0,0
"479",0,0
"480",0,0
"481",0,0
"482",0,0
"483",0,0
"484",0,0
"485",0,0
"486",0,0
"487",0,0
"488",0,0
"489",0,0
"490",0,0
"491",0,0
"492",0,0
"493",0,0
"494",0,0
"495",0,0
"496",0,0
"497",0,0
"498",0,0
"499",0,0
"500",0,0
