"","n_obs","n_total"
"1",0,0
"2",0,0
"3",0,0
"4",0,0
"5",7,48
"6",2,6
"7",0,0
"8",0,0
"9",0,0
"10",0,0
"11",0,0
"12",0,0
"13",0,0
"14",0,0
"15",4,7
"16",6,21
"17",0,0
"18",0,0
"19",0,0
"20",0,0
"21",0,0
"22",0,0
"23",0,0
"24",6,16
"25",12,33
"26",10,26
"27",4,12
"28",0,0
"29",0,0
"30",6,20
"31",0,0
"32",0,0
"33",0,0
"34",15,57
"35",3,5
"36",6,20
"37",5,15
"38",2,7
"39",6,16
"40",10,25
"41",0,0
"42",0,0
"43",1,4
"44",4,16
"45",9,36
"46",1,3
"47",12,39
"48",7,13
"49",5,13
"50",3,7
"51",0,0
"52",0,0
"53",2,5
"54",10,42
"55",5,19
"56",5,13
"57",7,20
"58",7,27
"59",7,34
"60",2,5
"61",0,0
"62",0,0
"63",2,8
"64",10,40
"65",7,21
"66",4,9
"67",4,8
"68",2,4
"69",4,12
"70",4,13
"71",0,0
"72",0,0
"73",0,0
"74",8,31
"75",10,26
"76",3,11
"77",3,6
"78",8,16
"79",1,3
"80",4,16
"81",0,0
"82",0,0
"83",0,0
"84",6,19
"85",11,30
"86",8,25
"87",3,11
"88",3,9
"89",3,9
"90",2,4
"91",0,0
"92",0,0
"93",0,0
"94",0,0
"95",0,0
"96",0,0
"97",7,17
"98",5,24
"99",3,14
"100",3,8
"101",0,0
"102",0,0
"103",0,0
"104",0,0
"105",0,0
"106",0,0
"107",10,35
"108",10,30
"109",7,40
"110",4,12
"111",0,0
"112",0,0
"113",0,0
"114",0,0
"115",0,0
"116",0,0
"117",9,34
"118",4,13
"119",5,12
"120",10,40
"121",0,0
"122",0,0
"123",0,0
"124",0,0
"125",0,0
"126",0,0
"127",4,12
"128",2,4
"129",4,18
"130",12,56
"131",0,0
"132",0,0
"133",0,0
"134",0,0
"135",0,0
"136",0,0
"137",2,9
"138",5,18
"139",3,9
"140",1,3
"141",0,0
"142",0,0
"143",0,0
"144",0,0
"145",0,0
"146",1,4
"147",2,2
"148",6,26
"149",1,5
"150",4,13
"151",0,0
"152",0,0
"153",0,0
"154",0,0
"155",0,0
"156",7,29
"157",11,36
"158",2,11
"159",5,25
"160",4,8
"161",0,0
"162",0,0
"163",0,0
"164",0,0
"165",8,20
"166",3,14
"167",8,37
"168",6,19
"169",3,21
"170",6,33
"171",0,0
"172",0,0
"173",0,0
"174",0,0
"175",9,37
"176",8,30
"177",3,15
"178",7,37
"179",6,27
"180",2,7
"181",0,0
"182",0,0
"183",0,0
"184",0,0
"185",4,10
"186",4,9
"187",6,20
"188",7,19
"189",6,19
"190",2,13
"191",0,0
"192",0,0
"193",0,0
"194",0,0
"195",0,0
"196",3,11
"197",12,48
"198",6,23
"199",10,29
"200",4,14
"201",0,0
"202",0,0
"203",0,0
"204",0,0
"205",2,4
"206",5,22
"207",4,20
"208",3,5
"209",3,12
"210",0,0
"211",0,0
"212",0,0
"213",0,0
"214",0,0
"215",0,0
"216",2,5
"217",8,24
"218",9,39
"219",13,57
"220",0,0
"221",0,0
"222",0,0
"223",0,0
"224",2,9
"225",1,6
"226",3,8
"227",5,19
"228",1,3
"229",4,19
"230",0,0
"231",0,0
"232",0,0
"233",3,4
"234",0,0
"235",1,6
"236",2,3
"237",3,23
"238",3,6
"239",4,14
"240",0,0
"241",0,0
"242",0,0
"243",1,1
"244",4,9
"245",3,3
"246",3,13
"247",7,27
"248",14,56
"249",11,51
"250",0,0
"251",0,0
"252",0,0
"253",0,0
"254",2,3
"255",2,5
"256",1,1
"257",4,9
"258",12,42
"259",0,0
"260",0,0
"261",0,0
"262",0,0
"263",0,0
"264",0,0
"265",0,0
"266",4,14
"267",6,15
"268",1,4
"269",0,0
"270",0,0
"271",0,0
"272",0,0
"273",0,0
"274",1,1
"275",2,4
"276",1,5
"277",4,10
"278",3,7
"279",0,0
"280",0,0
"281",0,0
"282",0,0
"283",4,11
"284",2,6
"285",4,13
"286",0,0
"287",3,6
"288",0,0
"289",0,0
"290",0,0
"291",0,0
"292",0,0
"293",2,14
"294",1,3
"295",2,2
"296",1,4
"297",2,8
"298",0,0
"299",0,0
"300",0,0
"301",0,0
"302",0,0
"303",2,9
"304",2,2
"305",1,1
"306",0,0
"307",1,4
"308",0,0
"309",0,0
"310",0,0
"311",0,0
"312",0,0
"313",2,8
"314",1,4
"315",1,2
"316",1,5
"317",0,0
"318",0,0
"319",0,0
"320",0,0
"321",0,0
"322",1,5
"323",1,1
"324",6,19
"325",0,0
"326",0,0
"327",0,0
"328",0,0
"329",0,0
"330",0,0
"331",0,0
"332",0,0
"333",3,9
"334",1,2
"335",0,0
"336",0,0
"337",0,0
"338",0,0
"339",0,0
"340",0,0
"341",0,0
"342",0,0
"343",2,9
"344",2,3
"345",0,0
"346",0,0
"347",0,0
"348",0,0
"349",0,0
"350",0,0
"351",0,0
"352",1,2
"353",0,0
"354",0,0
"355",1,4
"356",1,1
"357",0,0
"358",0,0
"359",0,0
"360",0,0
"361",0,0
"362",2,7
"363",1,4
"364",1,1
"365",0,0
"366",1,6
"367",0,0
"368",0,0
"369",0,0
"370",0,0
"371",0,0
"372",1,7
"373",0,0
"374",1,3
"375",1,6
"376",1,7
"377",0,0
"378",0,0
"379",0,0
"380",0,0
"381",2,4
"382",0,0
"383",1,6
"384",0,0
"385",1,3
"386",2,6
"387",0,0
"388",0,0
"389",0,0
"390",0,0
"391",0,0
"392",0,0
"393",5,11
"394",2,9
"395",1,5
"396",0,0
"397",0,0
"398",0,0
"399",0,0
"400",0,0
"401",0,0
"402",0,0
"403",2,3
"404",1,8
"405",2,11
"406",0,0
"407",0,0
"408",0,0
"409",0,0
"410",0,0
"411",0,0
"412",1,1
"413",0,0
"414",3,17
"415",0,0
"416",0,0
"417",0,0
"418",0,0
"419",0,0
"420",0,0
"421",0,0
"422",0,0
"423",0,0
"424",1,4
"425",0,0
"426",0,0
"427",0,0
"428",0,0
"429",0,0
"430",0,0
"431",0,0
"432",0,0
"433",2,5
"434",1,5
"435",0,0
"436",0,0
"437",0,0
"438",0,0
"439",0,0
"440",0,0
"441",4,13
"442",3,6
"443",0,0
"444",1,7
"445",0,0
"446",0,0
"447",0,0
"448",0,0
"449",0,0
"450",0,0
"451",0,0
"452",0,0
"453",0,0
"454",4,12
"455",0,0
"456",0,0
"457",0,0
"458",0,0
"459",0,0
"460",0,0
"461",0,0
"462",4,16
"463",3,6
"464",0,0
"465",0,0
"466",0,0
"467",0,0
"468",0,0
"469",0,0
"470",0,0
"471",0,0
"472",4,13
"473",5,9
"474",2,5
"475",0,0
"476",0,0
"477",0,0
"478",0,0
"479",0,0
"480",0,0
"481",0,0
"482",1,1
"483",8,17
"484",6,12
"485",0,0
"486",0,0
"487",0,0
"488",0,0
"489",0,0
"490",0,0
"491",0,0
"492",0,0
"493",6,10
"494",1,5
"495",0,0
"496",0,0
"497",0,0
"498",0,0
"499",0,0
"500",0,0
