"","n_obs","n_total"
"1",0,0
"2",0,0
"3",0,0
"4",0,0
"5",0,0
"6",0,0
"7",0,0
"8",0,0
"9",0,0
"10",0,0
"11",0,0
"12",0,0
"13",0,0
"14",0,0
"15",0,0
"16",3,9
"17",3,6
"18",0,0
"19",0,0
"20",0,0
"21",0,0
"22",0,0
"23",0,0
"24",2,5
"25",0,0
"26",0,0
"27",2,4
"28",2,3
"29",2,4
"30",14,32
"31",0,0
"32",0,0
"33",0,0
"34",3,8
"35",1,5
"36",1,2
"37",1,2
"38",6,14
"39",5,7
"40",5,10
"41",0,0
"42",0,0
"43",0,0
"44",1,3
"45",2,2
"46",0,0
"47",3,5
"48",3,4
"49",6,14
"50",10,24
"51",0,0
"52",0,0
"53",0,0
"54",0,0
"55",4,6
"56",8,15
"57",2,4
"58",2,4
"59",11,20
"60",6,14
"61",0,0
"62",0,0
"63",1,1
"64",1,1
"65",5,15
"66",10,22
"67",1,2
"68",3,6
"69",7,15
"70",8,18
"71",0,0
"72",0,0
"73",0,0
"74",3,7
"75",8,22
"76",3,5
"77",4,5
"78",0,0
"79",6,13
"80",5,7
"81",0,0
"82",0,0
"83",0,0
"84",3,9
"85",3,6
"86",7,11
"87",4,10
"88",6,10
"89",7,16
"90",9,23
"91",0,0
"92",0,0
"93",0,0
"94",0,0
"95",0,0
"96",0,0
"97",10,24
"98",9,20
"99",32,58
"100",13,38
"101",0,0
"102",0,0
"103",0,0
"104",0,0
"105",0,0
"106",0,0
"107",3,7
"108",4,6
"109",5,10
"110",1,1
"111",0,0
"112",0,0
"113",0,0
"114",0,0
"115",0,0
"116",0,0
"117",4,14
"118",0,0
"119",9,21
"120",0,0
"121",0,0
"122",0,0
"123",0,0
"124",0,0
"125",0,0
"126",0,0
"127",8,19
"128",2,3
"129",7,17
"130",2,4
"131",0,0
"132",0,0
"133",0,0
"134",0,0
"135",0,0
"136",0,0
"137",2,4
"138",3,4
"139",3,6
"140",5,11
"141",0,0
"142",0,0
"143",0,0
"144",0,0
"145",1,1
"146",3,5
"147",5,15
"148",6,12
"149",6,15
"150",1,1
"151",0,0
"152",0,0
"153",0,0
"154",0,0
"155",3,6
"156",3,9
"157",1,1
"158",8,13
"159",4,12
"160",4,10
"161",0,0
"162",0,0
"163",0,0
"164",0,0
"165",12,37
"166",10,30
"167",8,15
"168",9,18
"169",5,12
"170",3,6
"171",0,0
"172",0,0
"173",0,0
"174",0,0
"175",16,60
"176",6,22
"177",6,21
"178",3,7
"179",5,21
"180",2,3
"181",0,0
"182",0,0
"183",0,0
"184",0,0
"185",11,35
"186",2,3
"187",2,7
"188",2,3
"189",3,7
"190",4,6
"191",0,0
"192",0,0
"193",0,0
"194",0,0
"195",0,0
"196",4,7
"197",2,4
"198",1,3
"199",2,8
"200",2,3
"201",0,0
"202",0,0
"203",0,0
"204",0,0
"205",1,2
"206",2,5
"207",1,3
"208",3,6
"209",2,10
"210",0,0
"211",0,0
"212",0,0
"213",0,0
"214",0,0
"215",0,0
"216",2,3
"217",1,1
"218",3,13
"219",1,4
"220",0,0
"221",0,0
"222",0,0
"223",0,0
"224",0,0
"225",3,7
"226",3,8
"227",3,5
"228",4,12
"229",7,14
"230",0,0
"231",0,0
"232",0,0
"233",3,4
"234",7,25
"235",1,3
"236",0,0
"237",3,8
"238",3,3
"239",0,0
"240",0,0
"241",0,0
"242",0,0
"243",7,25
"244",5,13
"245",3,7
"246",4,7
"247",3,8
"248",3,6
"249",0,0
"250",0,0
"251",0,0
"252",0,0
"253",1,5
"254",2,8
"255",3,7
"256",2,5
"257",5,8
"258",2,4
"259",0,0
"260",0,0
"261",0,0
"262",0,0
"263",6,13
"264",2,3
"265",1,4
"266",3,5
"267",1,4
"268",1,2
"269",0,0
"270",0,0
"271",0,0
"272",0,0
"273",4,11
"274",1,2
"275",4,7
"276",2,6
"277",4,9
"278",0,0
"279",0,0
"280",0,0
"281",0,0
"282",0,0
"283",14,32
"284",4,11
"285",0,0
"286",2,8
"287",7,21
"288",0,0
"289",0,0
"290",0,0
"291",0,0
"292",0,0
"293",5,8
"294",4,6
"295",0,0
"296",0,0
"297",1,1
"298",0,0
"299",0,0
"300",0,0
"301",0,0
"302",0,0
"303",3,7
"304",3,6
"305",0,0
"306",4,6
"307",5,16
"308",0,0
"309",0,0
"310",0,0
"311",0,0
"312",2,5
"313",2,2
"314",11,20
"315",6,10
"316",3,7
"317",1,2
"318",0,0
"319",0,0
"320",0,0
"321",0,0
"322",1,1
"323",2,5
"324",3,7
"325",1,1
"326",1,1
"327",0,0
"328",0,0
"329",0,0
"330",0,0
"331",0,0
"332",3,4
"333",6,16
"334",5,10
"335",0,0
"336",0,0
"337",0,0
"338",0,0
"339",0,0
"340",0,0
"341",0,0
"342",4,6
"343",1,1
"344",6,19
"345",2,9
"346",3,7
"347",0,0
"348",0,0
"349",0,0
"350",0,0
"351",1,3
"352",3,3
"353",3,10
"354",2,6
"355",10,32
"356",3,8
"357",0,0
"358",0,0
"359",0,0
"360",0,0
"361",1,3
"362",1,2
"363",1,2
"364",4,17
"365",3,4
"366",1,3
"367",0,0
"368",0,0
"369",0,0
"370",0,0
"371",1,1
"372",3,7
"373",4,6
"374",5,8
"375",3,7
"376",1,2
"377",0,0
"378",0,0
"379",0,0
"380",0,0
"381",0,0
"382",4,9
"383",3,7
"384",0,0
"385",1,1
"386",0,0
"387",0,0
"388",0,0
"389",0,0
"390",0,0
"391",1,1
"392",12,32
"393",9,25
"394",2,4
"395",1,2
"396",1,1
"397",0,0
"398",0,0
"399",0,0
"400",0,0
"401",2,3
"402",10,33
"403",9,18
"404",0,0
"405",2,3
"406",0,0
"407",0,0
"408",0,0
"409",0,0
"410",0,0
"411",0,0
"412",0,0
"413",3,6
"414",1,4
"415",0,0
"416",0,0
"417",0,0
"418",0,0
"419",0,0
"420",0,0
"421",0,0
"422",5,11
"423",1,2
"424",2,3
"425",2,2
"426",0,0
"427",0,0
"428",0,0
"429",0,0
"430",0,0
"431",0,0
"432",2,3
"433",3,9
"434",0,0
"435",0,0
"436",0,0
"437",0,0
"438",0,0
"439",0,0
"440",0,0
"441",0,0
"442",0,0
"443",3,5
"444",0,0
"445",0,0
"446",0,0
"447",0,0
"448",0,0
"449",0,0
"450",0,0
"451",0,0
"452",0,0
"453",1,3
"454",1,2
"455",0,0
"456",0,0
"457",0,0
"458",0,0
"459",0,0
"460",0,0
"461",0,0
"462",0,0
"463",0,0
"464",0,0
"465",0,0
"466",0,0
"467",0,0
"468",0,0
"469",0,0
"470",0,0
"471",0,0
"472",0,0
"473",0,0
"474",0,0
"475",0,0
"476",0,0
"477",0,0
"478",0,0
"479",0,0
"480",0,0
"481",0,0
"482",0,0
"483",0,0
"484",0,0
"485",0,0
"486",0,0
"487",0,0
"488",0,0
"489",0,0
"490",0,0
"491",0,0
"492",0,0
"493",0,0
"494",0,0
"495",0,0
"496",0,0
"497",0,0
"498",0,0
"499",0,0
"500",0,0
