"","n_obs","n_total"
"1",0,0
"2",0,0
"3",0,0
"4",1,6
"5",0,0
"6",1,20
"7",0,0
"8",0,0
"9",0,0
"10",0,0
"11",0,0
"12",0,0
"13",0,0
"14",0,0
"15",0,0
"16",1,1
"17",0,0
"18",0,0
"19",0,0
"20",1,4
"21",0,0
"22",0,0
"23",0,0
"24",0,0
"25",5,20
"26",3,6
"27",0,0
"28",0,0
"29",4,33
"30",3,25
"31",0,0
"32",0,0
"33",0,0
"34",1,2
"35",11,79
"36",2,6
"37",1,3
"38",1,1
"39",8,62
"40",1,5
"41",0,0
"42",0,0
"43",0,0
"44",1,15
"45",1,14
"46",2,5
"47",2,10
"48",3,13
"49",12,51
"50",25,123
"51",0,0
"52",0,0
"53",0,0
"54",5,41
"55",2,10
"56",2,18
"57",3,31
"58",0,0
"59",4,15
"60",7,43
"61",0,0
"62",0,0
"63",1,16
"64",3,25
"65",5,33
"66",15,90
"67",1,1
"68",0,0
"69",0,0
"70",5,54
"71",0,0
"72",0,0
"73",3,15
"74",2,8
"75",8,56
"76",1,11
"77",0,0
"78",0,0
"79",7,53
"80",4,29
"81",0,0
"82",0,0
"83",0,0
"84",0,0
"85",1,8
"86",0,0
"87",0,0
"88",1,1
"89",9,110
"90",4,92
"91",0,0
"92",0,0
"93",0,0
"94",0,0
"95",0,0
"96",0,0
"97",5,12
"98",9,79
"99",49,745
"100",17,405
"101",0,0
"102",0,0
"103",0,0
"104",0,0
"105",0,0
"106",0,0
"107",3,12
"108",20,124
"109",59,533
"110",12,148
"111",0,0
"112",0,0
"113",0,0
"114",0,0
"115",0,0
"116",0,0
"117",4,16
"118",18,90
"119",20,120
"120",3,24
"121",0,0
"122",0,0
"123",0,0
"124",0,0
"125",0,0
"126",0,0
"127",20,164
"128",19,130
"129",59,611
"130",17,223
"131",0,0
"132",0,0
"133",0,0
"134",0,0
"135",0,0
"136",0,0
"137",15,122
"138",16,100
"139",21,117
"140",5,16
"141",0,0
"142",0,0
"143",0,0
"144",0,0
"145",0,0
"146",11,80
"147",36,269
"148",23,148
"149",4,24
"150",3,7
"151",0,0
"152",0,0
"153",0,0
"154",0,0
"155",0,0
"156",16,308
"157",11,59
"158",11,41
"159",1,1
"160",9,42
"161",0,0
"162",0,0
"163",0,0
"164",0,0
"165",67,547
"166",19,126
"167",11,92
"168",38,369
"169",14,69
"170",21,140
"171",0,0
"172",0,0
"173",0,0
"174",0,0
"175",52,215
"176",26,77
"177",17,151
"178",70,434
"179",20,197
"180",10,62
"181",0,0
"182",0,0
"183",0,0
"184",0,0
"185",23,155
"186",6,18
"187",17,129
"188",30,309
"189",29,161
"190",16,123
"191",0,0
"192",0,0
"193",0,0
"194",0,0
"195",0,0
"196",2,8
"197",8,53
"198",64,572
"199",20,102
"200",7,56
"201",0,0
"202",0,0
"203",0,0
"204",0,0
"205",0,0
"206",0,0
"207",18,116
"208",34,321
"209",14,74
"210",2,10
"211",0,0
"212",0,0
"213",0,0
"214",0,0
"215",0,0
"216",0,0
"217",14,57
"218",19,114
"219",10,52
"220",0,0
"221",0,0
"222",0,0
"223",0,0
"224",0,0
"225",0,0
"226",0,0
"227",12,74
"228",28,211
"229",16,156
"230",0,0
"231",0,0
"232",0,0
"233",1,8
"234",0,0
"235",0,0
"236",0,0
"237",3,26
"238",7,35
"239",4,12
"240",0,0
"241",0,0
"242",0,0
"243",4,9
"244",0,0
"245",0,0
"246",0,0
"247",0,0
"248",1,9
"249",0,0
"250",0,0
"251",0,0
"252",0,0
"253",3,13
"254",7,20
"255",3,8
"256",13,57
"257",0,0
"258",0,0
"259",0,0
"260",0,0
"261",0,0
"262",0,0
"263",3,12
"264",0,0
"265",9,42
"266",5,31
"267",3,8
"268",0,0
"269",0,0
"270",0,0
"271",0,0
"272",0,0
"273",0,0
"274",2,9
"275",2,3
"276",5,49
"277",3,11
"278",0,0
"279",0,0
"280",0,0
"281",0,0
"282",0,0
"283",0,0
"284",1,1
"285",0,0
"286",4,15
"287",1,4
"288",0,0
"289",0,0
"290",0,0
"291",0,0
"292",0,0
"293",0,0
"294",0,0
"295",2,2
"296",4,29
"297",0,0
"298",0,0
"299",0,0
"300",0,0
"301",0,0
"302",1,20
"303",2,9
"304",1,1
"305",2,2
"306",2,27
"307",0,0
"308",0,0
"309",0,0
"310",0,0
"311",0,0
"312",0,0
"313",0,0
"314",0,0
"315",0,0
"316",0,0
"317",0,0
"318",0,0
"319",0,0
"320",0,0
"321",0,0
"322",4,10
"323",0,0
"324",0,0
"325",4,32
"326",0,0
"327",0,0
"328",0,0
"329",0,0
"330",0,0
"331",0,0
"332",0,0
"333",0,0
"334",1,1
"335",3,15
"336",2,13
"337",0,0
"338",0,0
"339",0,0
"340",0,0
"341",0,0
"342",1,1
"343",0,0
"344",2,8
"345",4,17
"346",1,6
"347",0,0
"348",0,0
"349",0,0
"350",0,0
"351",0,0
"352",2,4
"353",0,0
"354",2,5
"355",0,0
"356",0,0
"357",0,0
"358",0,0
"359",0,0
"360",0,0
"361",0,0
"362",0,0
"363",1,1
"364",1,2
"365",1,2
"366",0,0
"367",0,0
"368",0,0
"369",0,0
"370",0,0
"371",1,7
"372",1,1
"373",2,8
"374",4,21
"375",1,5
"376",0,0
"377",0,0
"378",0,0
"379",0,0
"380",0,0
"381",1,11
"382",1,1
"383",2,2
"384",5,15
"385",7,31
"386",0,0
"387",0,0
"388",0,0
"389",0,0
"390",0,0
"391",0,0
"392",1,6
"393",3,3
"394",7,47
"395",10,43
"396",0,0
"397",0,0
"398",0,0
"399",0,0
"400",0,0
"401",1,1
"402",4,20
"403",3,16
"404",6,24
"405",2,2
"406",0,0
"407",0,0
"408",0,0
"409",0,0
"410",0,0
"411",3,16
"412",3,4
"413",1,7
"414",10,33
"415",2,12
"416",0,0
"417",0,0
"418",0,0
"419",0,0
"420",0,0
"421",1,1
"422",3,5
"423",0,0
"424",9,36
"425",2,2
"426",0,0
"427",0,0
"428",0,0
"429",0,0
"430",0,0
"431",0,0
"432",0,0
"433",2,16
"434",9,53
"435",0,0
"436",0,0
"437",0,0
"438",0,0
"439",0,0
"440",0,0
"441",0,0
"442",0,0
"443",4,8
"444",6,21
"445",0,0
"446",0,0
"447",0,0
"448",0,0
"449",0,0
"450",0,0
"451",0,0
"452",0,0
"453",2,7
"454",1,1
"455",0,0
"456",0,0
"457",0,0
"458",0,0
"459",0,0
"460",0,0
"461",0,0
"462",0,0
"463",0,0
"464",0,0
"465",0,0
"466",0,0
"467",0,0
"468",0,0
"469",0,0
"470",0,0
"471",0,0
"472",0,0
"473",0,0
"474",0,0
"475",0,0
"476",0,0
"477",0,0
"478",0,0
"479",0,0
"480",0,0
"481",0,0
"482",0,0
"483",1,8
"484",0,0
"485",0,0
"486",0,0
"487",0,0
"488",0,0
"489",0,0
"490",0,0
"491",0,0
"492",0,0
"493",0,0
"494",0,0
"495",0,0
"496",0,0
"497",0,0
"498",0,0
"499",0,0
"500",0,0
