"","n_obs","n_total"
"1",0,0
"2",0,0
"3",0,0
"4",0,0
"5",1,4
"6",0,0
"7",0,0
"8",0,0
"9",0,0
"10",0,0
"11",0,0
"12",0,0
"13",0,0
"14",0,0
"15",2,3
"16",0,0
"17",0,0
"18",0,0
"19",0,0
"20",0,0
"21",0,0
"22",0,0
"23",0,0
"24",4,4
"25",3,7
"26",5,10
"27",3,5
"28",1,2
"29",2,3
"30",3,6
"31",0,0
"32",0,0
"33",0,0
"34",2,5
"35",2,2
"36",1,3
"37",0,0
"38",3,5
"39",1,1
"40",2,3
"41",0,0
"42",0,0
"43",0,0
"44",8,16
"45",3,6
"46",6,7
"47",3,5
"48",2,7
"49",5,7
"50",2,2
"51",0,0
"52",0,0
"53",4,5
"54",1,2
"55",6,14
"56",5,12
"57",2,3
"58",2,5
"59",3,5
"60",2,3
"61",0,0
"62",0,0
"63",1,5
"64",2,2
"65",2,2
"66",2,2
"67",1,1
"68",1,2
"69",0,0
"70",2,3
"71",0,0
"72",0,0
"73",1,2
"74",1,1
"75",2,5
"76",2,4
"77",3,4
"78",1,2
"79",1,1
"80",0,0
"81",0,0
"82",0,0
"83",0,0
"84",0,0
"85",1,1
"86",0,0
"87",4,4
"88",0,0
"89",0,0
"90",1,2
"91",0,0
"92",0,0
"93",0,0
"94",0,0
"95",0,0
"96",0,0
"97",0,0
"98",1,1
"99",3,3
"100",2,6
"101",0,0
"102",0,0
"103",0,0
"104",0,0
"105",0,0
"106",0,0
"107",2,5
"108",0,0
"109",0,0
"110",1,5
"111",0,0
"112",0,0
"113",0,0
"114",0,0
"115",0,0
"116",0,0
"117",2,2
"118",4,5
"119",0,0
"120",3,4
"121",0,0
"122",0,0
"123",0,0
"124",0,0
"125",0,0
"126",0,0
"127",2,2
"128",1,2
"129",2,3
"130",1,1
"131",0,0
"132",0,0
"133",0,0
"134",0,0
"135",0,0
"136",0,0
"137",2,2
"138",0,0
"139",0,0
"140",2,3
"141",0,0
"142",0,0
"143",0,0
"144",0,0
"145",0,0
"146",0,0
"147",3,5
"148",1,1
"149",0,0
"150",3,5
"151",0,0
"152",0,0
"153",0,0
"154",0,0
"155",0,0
"156",1,1
"157",0,0
"158",3,3
"159",1,1
"160",3,5
"161",0,0
"162",0,0
"163",0,0
"164",0,0
"165",0,0
"166",1,1
"167",2,3
"168",3,3
"169",3,6
"170",2,2
"171",0,0
"172",0,0
"173",0,0
"174",0,0
"175",0,0
"176",4,5
"177",4,6
"178",7,11
"179",0,0
"180",4,10
"181",0,0
"182",0,0
"183",0,0
"184",0,0
"185",0,0
"186",5,6
"187",2,2
"188",3,6
"189",2,4
"190",5,16
"191",0,0
"192",0,0
"193",0,0
"194",0,0
"195",0,0
"196",2,5
"197",4,6
"198",2,5
"199",5,7
"200",5,8
"201",0,0
"202",0,0
"203",0,0
"204",0,0
"205",1,1
"206",2,2
"207",0,0
"208",1,3
"209",2,8
"210",1,1
"211",0,0
"212",0,0
"213",0,0
"214",0,0
"215",1,2
"216",2,2
"217",3,6
"218",1,1
"219",1,3
"220",0,0
"221",0,0
"222",0,0
"223",0,0
"224",0,0
"225",1,3
"226",0,0
"227",2,2
"228",1,1
"229",3,3
"230",0,0
"231",0,0
"232",0,0
"233",0,0
"234",5,6
"235",0,0
"236",1,1
"237",2,4
"238",2,6
"239",1,2
"240",0,0
"241",0,0
"242",0,0
"243",1,2
"244",0,0
"245",2,3
"246",0,0
"247",8,9
"248",3,3
"249",0,0
"250",0,0
"251",0,0
"252",0,0
"253",1,1
"254",3,5
"255",1,1
"256",2,3
"257",5,6
"258",3,3
"259",0,0
"260",0,0
"261",0,0
"262",0,0
"263",3,3
"264",4,4
"265",1,1
"266",1,1
"267",1,1
"268",2,3
"269",0,0
"270",0,0
"271",0,0
"272",0,0
"273",0,0
"274",0,0
"275",2,2
"276",3,3
"277",3,3
"278",0,0
"279",0,0
"280",0,0
"281",0,0
"282",0,0
"283",7,8
"284",0,0
"285",0,0
"286",0,0
"287",3,3
"288",0,0
"289",0,0
"290",0,0
"291",0,0
"292",0,0
"293",4,7
"294",2,4
"295",1,1
"296",3,5
"297",1,2
"298",0,0
"299",0,0
"300",0,0
"301",0,0
"302",0,0
"303",1,1
"304",0,0
"305",0,0
"306",0,0
"307",0,0
"308",0,0
"309",0,0
"310",0,0
"311",0,0
"312",0,0
"313",1,1
"314",1,2
"315",2,4
"316",2,4
"317",0,0
"318",0,0
"319",0,0
"320",0,0
"321",0,0
"322",4,4
"323",2,4
"324",4,4
"325",2,3
"326",0,0
"327",0,0
"328",0,0
"329",0,0
"330",0,0
"331",0,0
"332",1,2
"333",4,5
"334",2,3
"335",1,1
"336",0,0
"337",0,0
"338",0,0
"339",0,0
"340",0,0
"341",1,1
"342",1,3
"343",0,0
"344",0,0
"345",1,3
"346",2,2
"347",0,0
"348",0,0
"349",0,0
"350",0,0
"351",0,0
"352",1,1
"353",1,2
"354",4,6
"355",1,1
"356",2,7
"357",0,0
"358",0,0
"359",0,0
"360",0,0
"361",1,2
"362",1,3
"363",4,7
"364",2,2
"365",1,1
"366",0,0
"367",0,0
"368",0,0
"369",0,0
"370",0,0
"371",3,13
"372",2,8
"373",1,1
"374",4,9
"375",4,11
"376",1,2
"377",0,0
"378",0,0
"379",0,0
"380",0,0
"381",2,2
"382",1,1
"383",3,9
"384",1,4
"385",1,4
"386",0,0
"387",0,0
"388",0,0
"389",0,0
"390",0,0
"391",1,1
"392",2,7
"393",0,0
"394",0,0
"395",2,9
"396",1,4
"397",0,0
"398",0,0
"399",0,0
"400",0,0
"401",2,5
"402",4,14
"403",2,9
"404",0,0
"405",0,0
"406",0,0
"407",0,0
"408",0,0
"409",0,0
"410",0,0
"411",4,10
"412",2,9
"413",0,0
"414",1,1
"415",4,8
"416",0,0
"417",0,0
"418",0,0
"419",0,0
"420",0,0
"421",4,7
"422",1,1
"423",3,14
"424",0,0
"425",1,1
"426",0,0
"427",0,0
"428",0,0
"429",0,0
"430",0,0
"431",0,0
"432",3,9
"433",1,2
"434",2,7
"435",0,0
"436",0,0
"437",0,0
"438",0,0
"439",0,0
"440",0,0
"441",0,0
"442",1,1
"443",0,0
"444",0,0
"445",0,0
"446",0,0
"447",0,0
"448",0,0
"449",0,0
"450",0,0
"451",1,1
"452",0,0
"453",0,0
"454",3,5
"455",0,0
"456",0,0
"457",0,0
"458",0,0
"459",0,0
"460",0,0
"461",0,0
"462",1,1
"463",3,5
"464",2,4
"465",0,0
"466",0,0
"467",0,0
"468",0,0
"469",0,0
"470",0,0
"471",0,0
"472",1,1
"473",1,2
"474",0,0
"475",0,0
"476",0,0
"477",0,0
"478",0,0
"479",0,0
"480",0,0
"481",0,0
"482",2,3
"483",3,3
"484",2,7
"485",0,0
"486",0,0
"487",0,0
"488",0,0
"489",0,0
"490",0,0
"491",0,0
"492",2,6
"493",1,2
"494",0,0
"495",0,0
"496",0,0
"497",0,0
"498",0,0
"499",0,0
"500",0,0
