"","n_obs","n_total"
"1",0,0
"2",0,0
"3",0,0
"4",0,0
"5",2,6
"6",0,0
"7",0,0
"8",0,0
"9",0,0
"10",0,0
"11",0,0
"12",0,0
"13",0,0
"14",0,0
"15",0,0
"16",0,0
"17",0,0
"18",0,0
"19",0,0
"20",1,2
"21",0,0
"22",0,0
"23",0,0
"24",7,17
"25",2,4
"26",3,8
"27",4,8
"28",2,3
"29",11,25
"30",8,23
"31",0,0
"32",0,0
"33",0,0
"34",4,17
"35",2,5
"36",2,3
"37",2,4
"38",3,6
"39",6,16
"40",4,15
"41",0,0
"42",0,0
"43",0,0
"44",10,23
"45",4,10
"46",2,3
"47",11,27
"48",3,8
"49",9,28
"50",4,17
"51",0,0
"52",0,0
"53",0,0
"54",5,7
"55",4,16
"56",14,35
"57",11,32
"58",7,19
"59",5,13
"60",8,31
"61",0,0
"62",0,0
"63",4,10
"64",0,0
"65",10,34
"66",16,44
"67",2,8
"68",5,14
"69",9,33
"70",9,20
"71",0,0
"72",0,0
"73",0,0
"74",5,18
"75",13,33
"76",12,32
"77",3,7
"78",1,3
"79",10,35
"80",10,25
"81",0,0
"82",0,0
"83",0,0
"84",1,2
"85",4,4
"86",3,13
"87",5,12
"88",0,0
"89",1,2
"90",4,6
"91",0,0
"92",0,0
"93",0,0
"94",0,0
"95",0,0
"96",0,0
"97",7,20
"98",5,13
"99",3,10
"100",24,61
"101",0,0
"102",0,0
"103",0,0
"104",0,0
"105",0,0
"106",0,0
"107",8,14
"108",12,29
"109",8,25
"110",0,0
"111",0,0
"112",0,0
"113",0,0
"114",0,0
"115",0,0
"116",0,0
"117",5,12
"118",4,8
"119",11,25
"120",1,2
"121",0,0
"122",0,0
"123",0,0
"124",0,0
"125",0,0
"126",0,0
"127",6,21
"128",7,26
"129",12,42
"130",2,8
"131",0,0
"132",0,0
"133",0,0
"134",0,0
"135",0,0
"136",0,0
"137",3,18
"138",4,12
"139",12,36
"140",8,30
"141",0,0
"142",0,0
"143",0,0
"144",0,0
"145",0,0
"146",5,11
"147",7,28
"148",13,21
"149",17,50
"150",11,37
"151",0,0
"152",0,0
"153",0,0
"154",0,0
"155",2,9
"156",13,38
"157",2,5
"158",16,60
"159",16,44
"160",15,59
"161",0,0
"162",0,0
"163",0,0
"164",0,0
"165",15,39
"166",33,102
"167",12,32
"168",12,33
"169",18,36
"170",6,24
"171",0,0
"172",0,0
"173",0,0
"174",0,0
"175",39,124
"176",11,35
"177",10,30
"178",8,34
"179",19,44
"180",4,14
"181",0,0
"182",0,0
"183",0,0
"184",0,0
"185",19,44
"186",6,17
"187",9,30
"188",2,5
"189",8,23
"190",7,26
"191",0,0
"192",0,0
"193",0,0
"194",0,0
"195",2,2
"196",1,3
"197",6,20
"198",6,16
"199",10,22
"200",3,8
"201",0,0
"202",0,0
"203",0,0
"204",0,0
"205",1,4
"206",2,3
"207",4,12
"208",4,10
"209",6,21
"210",0,0
"211",0,0
"212",0,0
"213",0,0
"214",0,0
"215",0,0
"216",2,5
"217",4,7
"218",2,4
"219",5,11
"220",0,0
"221",0,0
"222",0,0
"223",0,0
"224",2,10
"225",5,13
"226",4,13
"227",1,2
"228",7,21
"229",9,29
"230",0,0
"231",0,0
"232",0,0
"233",0,0
"234",5,10
"235",1,1
"236",4,16
"237",4,11
"238",7,29
"239",4,7
"240",0,0
"241",0,0
"242",0,0
"243",16,60
"244",4,16
"245",1,5
"246",6,16
"247",4,14
"248",6,26
"249",1,2
"250",0,0
"251",0,0
"252",0,0
"253",7,19
"254",12,45
"255",2,2
"256",5,18
"257",4,11
"258",5,14
"259",0,0
"260",0,0
"261",0,0
"262",0,0
"263",5,15
"264",5,16
"265",7,15
"266",4,14
"267",4,9
"268",1,2
"269",0,0
"270",0,0
"271",0,0
"272",0,0
"273",5,11
"274",6,27
"275",5,15
"276",9,21
"277",2,6
"278",0,0
"279",0,0
"280",0,0
"281",0,0
"282",0,0
"283",10,33
"284",8,32
"285",4,10
"286",9,31
"287",2,6
"288",0,0
"289",0,0
"290",0,0
"291",0,0
"292",0,0
"293",7,20
"294",5,17
"295",6,21
"296",3,9
"297",3,12
"298",0,0
"299",0,0
"300",0,0
"301",0,0
"302",1,5
"303",7,15
"304",5,8
"305",6,18
"306",3,14
"307",2,4
"308",0,0
"309",0,0
"310",0,0
"311",0,0
"312",2,4
"313",10,26
"314",4,7
"315",4,10
"316",5,13
"317",0,0
"318",0,0
"319",0,0
"320",0,0
"321",0,0
"322",5,11
"323",10,29
"324",1,1
"325",6,9
"326",2,6
"327",0,0
"328",0,0
"329",0,0
"330",0,0
"331",0,0
"332",1,2
"333",5,16
"334",7,10
"335",0,0
"336",2,4
"337",0,0
"338",0,0
"339",0,0
"340",0,0
"341",0,0
"342",1,2
"343",5,8
"344",1,2
"345",1,3
"346",4,12
"347",0,0
"348",0,0
"349",0,0
"350",0,0
"351",1,4
"352",3,5
"353",6,11
"354",5,17
"355",6,14
"356",1,4
"357",0,0
"358",0,0
"359",0,0
"360",0,0
"361",0,0
"362",2,7
"363",4,7
"364",11,25
"365",2,6
"366",3,8
"367",0,0
"368",0,0
"369",0,0
"370",0,0
"371",0,0
"372",2,5
"373",5,18
"374",8,28
"375",4,13
"376",1,5
"377",0,0
"378",0,0
"379",0,0
"380",0,0
"381",2,3
"382",1,3
"383",4,11
"384",3,5
"385",2,14
"386",2,12
"387",0,0
"388",0,0
"389",0,0
"390",0,0
"391",4,9
"392",2,3
"393",0,0
"394",4,9
"395",5,11
"396",0,0
"397",0,0
"398",0,0
"399",0,0
"400",0,0
"401",3,7
"402",6,16
"403",1,5
"404",4,9
"405",5,9
"406",0,0
"407",0,0
"408",0,0
"409",0,0
"410",0,0
"411",3,8
"412",7,14
"413",6,16
"414",1,1
"415",0,0
"416",0,0
"417",0,0
"418",0,0
"419",0,0
"420",0,0
"421",1,2
"422",4,20
"423",3,6
"424",1,1
"425",0,0
"426",0,0
"427",0,0
"428",0,0
"429",0,0
"430",0,0
"431",0,0
"432",2,3
"433",1,5
"434",1,3
"435",3,4
"436",0,0
"437",0,0
"438",0,0
"439",0,0
"440",0,0
"441",0,0
"442",0,0
"443",7,20
"444",8,15
"445",0,0
"446",0,0
"447",0,0
"448",0,0
"449",0,0
"450",0,0
"451",0,0
"452",0,0
"453",3,15
"454",0,0
"455",0,0
"456",0,0
"457",0,0
"458",0,0
"459",0,0
"460",0,0
"461",0,0
"462",0,0
"463",3,5
"464",0,0
"465",0,0
"466",0,0
"467",0,0
"468",0,0
"469",0,0
"470",0,0
"471",0,0
"472",0,0
"473",1,1
"474",0,0
"475",0,0
"476",0,0
"477",0,0
"478",0,0
"479",0,0
"480",0,0
"481",0,0
"482",0,0
"483",2,2
"484",3,8
"485",0,0
"486",0,0
"487",0,0
"488",0,0
"489",0,0
"490",0,0
"491",0,0
"492",1,2
"493",10,26
"494",4,8
"495",0,0
"496",0,0
"497",0,0
"498",0,0
"499",0,0
"500",0,0
