"","n_obs","n_total"
"1",0,0
"2",0,0
"3",0,0
"4",0,0
"5",2,10
"6",1,9
"7",0,0
"8",0,0
"9",0,0
"10",0,0
"11",0,0
"12",0,0
"13",0,0
"14",0,0
"15",0,0
"16",1,3
"17",3,19
"18",0,0
"19",0,0
"20",1,1
"21",0,0
"22",0,0
"23",0,0
"24",1,8
"25",0,0
"26",0,0
"27",3,9
"28",3,8
"29",2,6
"30",5,22
"31",0,0
"32",0,0
"33",0,0
"34",0,0
"35",7,50
"36",0,0
"37",0,0
"38",5,12
"39",3,14
"40",8,41
"41",0,0
"42",0,0
"43",0,0
"44",2,6
"45",1,4
"46",0,0
"47",1,1
"48",0,0
"49",0,0
"50",3,18
"51",0,0
"52",0,0
"53",1,3
"54",4,13
"55",3,17
"56",5,17
"57",0,0
"58",4,29
"59",2,7
"60",10,44
"61",0,0
"62",0,0
"63",0,0
"64",3,21
"65",1,2
"66",4,31
"67",0,0
"68",1,2
"69",1,11
"70",10,49
"71",0,0
"72",0,0
"73",0,0
"74",0,0
"75",0,0
"76",0,0
"77",0,0
"78",1,1
"79",2,18
"80",14,71
"81",0,0
"82",0,0
"83",0,0
"84",2,3
"85",2,11
"86",1,2
"87",0,0
"88",2,8
"89",1,5
"90",3,30
"91",0,0
"92",0,0
"93",0,0
"94",0,0
"95",0,0
"96",0,0
"97",2,8
"98",14,53
"99",1,1
"100",2,20
"101",0,0
"102",0,0
"103",0,0
"104",0,0
"105",0,0
"106",0,0
"107",0,0
"108",3,34
"109",1,11
"110",0,0
"111",0,0
"112",0,0
"113",0,0
"114",0,0
"115",0,0
"116",0,0
"117",0,0
"118",1,12
"119",20,91
"120",20,79
"121",0,0
"122",0,0
"123",0,0
"124",0,0
"125",0,0
"126",0,0
"127",12,115
"128",1,3
"129",6,43
"130",5,9
"131",0,0
"132",0,0
"133",0,0
"134",0,0
"135",0,0
"136",0,0
"137",4,11
"138",0,0
"139",0,0
"140",0,0
"141",0,0
"142",0,0
"143",0,0
"144",0,0
"145",0,0
"146",0,0
"147",2,2
"148",2,7
"149",1,4
"150",1,3
"151",0,0
"152",0,0
"153",0,0
"154",0,0
"155",0,0
"156",0,0
"157",0,0
"158",0,0
"159",2,6
"160",8,23
"161",0,0
"162",0,0
"163",0,0
"164",0,0
"165",0,0
"166",0,0
"167",0,0
"168",1,1
"169",0,0
"170",19,56
"171",0,0
"172",0,0
"173",0,0
"174",0,0
"175",0,0
"176",2,5
"177",2,2
"178",18,62
"179",8,31
"180",9,48
"181",0,0
"182",0,0
"183",0,0
"184",0,0
"185",0,0
"186",4,16
"187",6,12
"188",2,5
"189",6,30
"190",11,46
"191",0,0
"192",0,0
"193",0,0
"194",0,0
"195",0,0
"196",0,0
"197",1,1
"198",2,14
"199",14,91
"200",4,12
"201",0,0
"202",0,0
"203",0,0
"204",0,0
"205",0,0
"206",1,3
"207",2,5
"208",0,0
"209",0,0
"210",1,1
"211",0,0
"212",0,0
"213",0,0
"214",0,0
"215",0,0
"216",0,0
"217",0,0
"218",0,0
"219",0,0
"220",0,0
"221",0,0
"222",0,0
"223",0,0
"224",12,31
"225",10,28
"226",7,20
"227",7,48
"228",2,3
"229",1,1
"230",0,0
"231",0,0
"232",0,0
"233",4,7
"234",0,0
"235",9,23
"236",19,54
"237",13,44
"238",3,11
"239",9,35
"240",0,0
"241",0,0
"242",0,0
"243",0,0
"244",2,7
"245",1,2
"246",0,0
"247",3,8
"248",2,2
"249",10,39
"250",0,0
"251",0,0
"252",0,0
"253",0,0
"254",1,2
"255",0,0
"256",4,6
"257",3,6
"258",8,19
"259",1,4
"260",0,0
"261",0,0
"262",0,0
"263",0,0
"264",0,0
"265",0,0
"266",1,12
"267",8,32
"268",0,0
"269",0,0
"270",0,0
"271",0,0
"272",0,0
"273",0,0
"274",3,32
"275",8,12
"276",0,0
"277",2,9
"278",0,0
"279",0,0
"280",0,0
"281",0,0
"282",0,0
"283",7,30
"284",7,23
"285",4,6
"286",15,67
"287",0,0
"288",0,0
"289",0,0
"290",0,0
"291",0,0
"292",0,0
"293",9,32
"294",2,2
"295",2,72
"296",2,4
"297",0,0
"298",0,0
"299",0,0
"300",0,0
"301",0,0
"302",0,0
"303",1,2
"304",0,0
"305",5,16
"306",0,0
"307",0,0
"308",0,0
"309",0,0
"310",0,0
"311",0,0
"312",1,9
"313",0,0
"314",0,0
"315",14,63
"316",2,10
"317",0,0
"318",0,0
"319",0,0
"320",0,0
"321",0,0
"322",0,0
"323",0,0
"324",5,9
"325",0,0
"326",0,0
"327",0,0
"328",0,0
"329",0,0
"330",0,0
"331",0,0
"332",0,0
"333",0,0
"334",1,3
"335",2,8
"336",0,0
"337",0,0
"338",0,0
"339",0,0
"340",0,0
"341",0,0
"342",0,0
"343",0,0
"344",0,0
"345",0,0
"346",2,8
"347",0,0
"348",0,0
"349",0,0
"350",0,0
"351",0,0
"352",0,0
"353",3,11
"354",2,26
"355",0,0
"356",1,1
"357",0,0
"358",0,0
"359",0,0
"360",0,0
"361",1,2
"362",2,5
"363",8,35
"364",2,11
"365",0,0
"366",11,55
"367",0,0
"368",0,0
"369",0,0
"370",0,0
"371",11,46
"372",3,9
"373",1,2
"374",2,4
"375",8,44
"376",7,25
"377",0,0
"378",0,0
"379",0,0
"380",0,0
"381",0,0
"382",0,0
"383",2,17
"384",2,2
"385",3,13
"386",2,11
"387",0,0
"388",0,0
"389",0,0
"390",0,0
"391",1,13
"392",4,23
"393",6,28
"394",0,0
"395",0,0
"396",0,0
"397",0,0
"398",0,0
"399",0,0
"400",0,0
"401",1,1
"402",0,0
"403",14,45
"404",2,5
"405",0,0
"406",0,0
"407",0,0
"408",0,0
"409",0,0
"410",0,0
"411",2,13
"412",10,77
"413",7,14
"414",0,0
"415",0,0
"416",0,0
"417",0,0
"418",0,0
"419",0,0
"420",0,0
"421",0,0
"422",1,1
"423",2,12
"424",0,0
"425",0,0
"426",0,0
"427",0,0
"428",0,0
"429",0,0
"430",0,0
"431",0,0
"432",0,0
"433",0,0
"434",0,0
"435",0,0
"436",0,0
"437",0,0
"438",0,0
"439",0,0
"440",0,0
"441",0,0
"442",0,0
"443",0,0
"444",0,0
"445",0,0
"446",0,0
"447",0,0
"448",0,0
"449",0,0
"450",0,0
"451",0,0
"452",0,0
"453",0,0
"454",0,0
"455",0,0
"456",0,0
"457",0,0
"458",0,0
"459",0,0
"460",0,0
"461",0,0
"462",0,0
"463",0,0
"464",0,0
"465",0,0
"466",0,0
"467",0,0
"468",0,0
"469",0,0
"470",0,0
"471",0,0
"472",0,0
"473",0,0
"474",0,0
"475",0,0
"476",0,0
"477",0,0
"478",0,0
"479",0,0
"480",0,0
"481",0,0
"482",0,0
"483",0,0
"484",3,3
"485",0,0
"486",0,0
"487",0,0
"488",0,0
"489",0,0
"490",0,0
"491",0,0
"492",0,0
"493",0,0
"494",0,0
"495",0,0
"496",0,0
"497",0,0
"498",0,0
"499",0,0
"500",0,0
