"","n_obs","n_total"
"1",0,0
"2",0,0
"3",0,0
"4",0,0
"5",0,0
"6",0,0
"7",0,0
"8",0,0
"9",0,0
"10",0,0
"11",0,0
"12",0,0
"13",0,0
"14",0,0
"15",0,0
"16",0,0
"17",0,0
"18",0,0
"19",0,0
"20",0,0
"21",0,0
"22",0,0
"23",0,0
"24",0,0
"25",0,0
"26",0,0
"27",1,1
"28",0,0
"29",0,0
"30",0,0
"31",0,0
"32",0,0
"33",0,0
"34",1,1
"35",0,0
"36",2,3
"37",0,0
"38",0,0
"39",0,0
"40",2,2
"41",0,0
"42",0,0
"43",0,0
"44",4,4
"45",6,7
"46",1,1
"47",2,3
"48",1,1
"49",6,9
"50",7,8
"51",0,0
"52",0,0
"53",2,2
"54",4,4
"55",1,1
"56",4,4
"57",4,4
"58",4,4
"59",5,5
"60",1,1
"61",0,0
"62",0,0
"63",2,3
"64",3,3
"65",0,0
"66",2,3
"67",3,3
"68",3,3
"69",3,3
"70",7,9
"71",0,0
"72",0,0
"73",2,2
"74",2,2
"75",0,0
"76",0,0
"77",9,14
"78",5,6
"79",3,3
"80",7,7
"81",0,0
"82",0,0
"83",0,0
"84",0,0
"85",0,0
"86",4,5
"87",1,2
"88",2,2
"89",1,2
"90",9,11
"91",0,0
"92",0,0
"93",0,0
"94",0,0
"95",0,0
"96",0,0
"97",1,1
"98",8,8
"99",6,8
"100",10,11
"101",0,0
"102",0,0
"103",0,0
"104",0,0
"105",0,0
"106",0,0
"107",1,1
"108",7,8
"109",11,12
"110",3,3
"111",0,0
"112",0,0
"113",0,0
"114",0,0
"115",0,0
"116",0,0
"117",1,1
"118",1,1
"119",8,9
"120",2,2
"121",0,0
"122",0,0
"123",0,0
"124",0,0
"125",0,0
"126",0,0
"127",2,4
"128",0,0
"129",8,13
"130",6,8
"131",0,0
"132",0,0
"133",0,0
"134",0,0
"135",0,0
"136",0,0
"137",4,5
"138",4,6
"139",20,26
"140",8,9
"141",0,0
"142",0,0
"143",0,0
"144",0,0
"145",0,0
"146",2,3
"147",4,5
"148",7,8
"149",15,22
"150",11,13
"151",0,0
"152",0,0
"153",0,0
"154",0,0
"155",0,0
"156",2,3
"157",1,1
"158",1,1
"159",8,11
"160",8,10
"161",0,0
"162",0,0
"163",0,0
"164",0,0
"165",0,0
"166",4,5
"167",6,6
"168",8,9
"169",9,12
"170",9,11
"171",0,0
"172",0,0
"173",0,0
"174",0,0
"175",1,1
"176",1,1
"177",10,12
"178",3,4
"179",9,11
"180",0,0
"181",0,0
"182",0,0
"183",0,0
"184",0,0
"185",0,0
"186",4,5
"187",7,7
"188",2,2
"189",4,5
"190",2,4
"191",0,0
"192",0,0
"193",0,0
"194",0,0
"195",2,2
"196",2,2
"197",7,8
"198",4,5
"199",5,5
"200",3,3
"201",0,0
"202",0,0
"203",0,0
"204",0,0
"205",0,0
"206",10,12
"207",4,6
"208",9,10
"209",11,16
"210",0,0
"211",0,0
"212",0,0
"213",0,0
"214",0,0
"215",0,0
"216",14,16
"217",1,1
"218",4,4
"219",9,9
"220",0,0
"221",0,0
"222",0,0
"223",0,0
"224",0,0
"225",1,1
"226",6,6
"227",3,3
"228",7,7
"229",13,14
"230",0,0
"231",0,0
"232",0,0
"233",3,4
"234",0,0
"235",1,1
"236",1,1
"237",0,0
"238",1,1
"239",8,8
"240",0,0
"241",0,0
"242",0,0
"243",4,4
"244",0,0
"245",1,1
"246",1,1
"247",6,7
"248",1,1
"249",2,3
"250",0,0
"251",0,0
"252",0,0
"253",6,8
"254",9,9
"255",0,0
"256",0,0
"257",2,2
"258",0,0
"259",0,0
"260",0,0
"261",0,0
"262",0,0
"263",2,3
"264",3,3
"265",12,15
"266",4,4
"267",0,0
"268",0,0
"269",0,0
"270",0,0
"271",0,0
"272",0,0
"273",0,0
"274",2,2
"275",4,4
"276",0,0
"277",1,1
"278",0,0
"279",0,0
"280",0,0
"281",0,0
"282",0,0
"283",0,0
"284",2,2
"285",5,6
"286",1,1
"287",0,0
"288",0,0
"289",0,0
"290",0,0
"291",0,0
"292",0,0
"293",6,6
"294",0,0
"295",2,2
"296",2,2
"297",2,2
"298",0,0
"299",0,0
"300",0,0
"301",0,0
"302",0,0
"303",3,3
"304",1,1
"305",5,5
"306",9,11
"307",0,0
"308",0,0
"309",0,0
"310",0,0
"311",0,0
"312",1,1
"313",8,8
"314",4,4
"315",8,9
"316",6,6
"317",1,2
"318",0,0
"319",0,0
"320",0,0
"321",0,0
"322",2,2
"323",8,8
"324",4,4
"325",11,12
"326",1,1
"327",0,0
"328",0,0
"329",0,0
"330",0,0
"331",0,0
"332",0,0
"333",0,0
"334",2,3
"335",2,2
"336",1,1
"337",0,0
"338",0,0
"339",0,0
"340",0,0
"341",0,0
"342",1,1
"343",0,0
"344",4,4
"345",7,7
"346",0,0
"347",0,0
"348",0,0
"349",0,0
"350",0,0
"351",5,5
"352",4,5
"353",1,1
"354",2,3
"355",15,16
"356",3,3
"357",0,0
"358",0,0
"359",0,0
"360",0,0
"361",2,2
"362",4,4
"363",1,1
"364",1,1
"365",8,9
"366",1,1
"367",0,0
"368",0,0
"369",0,0
"370",0,0
"371",6,8
"372",5,5
"373",2,2
"374",1,1
"375",3,3
"376",2,3
"377",0,0
"378",0,0
"379",0,0
"380",0,0
"381",0,0
"382",0,0
"383",2,2
"384",0,0
"385",4,4
"386",3,3
"387",0,0
"388",0,0
"389",0,0
"390",0,0
"391",0,0
"392",3,4
"393",2,2
"394",4,5
"395",5,6
"396",2,2
"397",0,0
"398",0,0
"399",0,0
"400",0,0
"401",5,6
"402",4,4
"403",4,4
"404",11,13
"405",3,3
"406",0,0
"407",0,0
"408",0,0
"409",0,0
"410",0,0
"411",0,0
"412",2,3
"413",0,0
"414",5,6
"415",2,2
"416",0,0
"417",0,0
"418",0,0
"419",0,0
"420",0,0
"421",1,1
"422",0,0
"423",0,0
"424",8,10
"425",2,2
"426",0,0
"427",0,0
"428",0,0
"429",0,0
"430",0,0
"431",0,0
"432",1,1
"433",2,2
"434",0,0
"435",1,3
"436",0,0
"437",0,0
"438",0,0
"439",0,0
"440",0,0
"441",1,1
"442",2,3
"443",12,16
"444",8,8
"445",0,0
"446",0,0
"447",0,0
"448",0,0
"449",0,0
"450",0,0
"451",0,0
"452",1,1
"453",3,3
"454",2,2
"455",2,2
"456",0,0
"457",0,0
"458",0,0
"459",0,0
"460",0,0
"461",1,1
"462",2,4
"463",2,2
"464",6,8
"465",0,0
"466",0,0
"467",0,0
"468",0,0
"469",0,0
"470",0,0
"471",0,0
"472",0,0
"473",1,1
"474",3,4
"475",0,0
"476",0,0
"477",0,0
"478",0,0
"479",0,0
"480",0,0
"481",0,0
"482",1,1
"483",1,1
"484",2,3
"485",0,0
"486",0,0
"487",0,0
"488",0,0
"489",0,0
"490",0,0
"491",0,0
"492",0,0
"493",0,0
"494",0,0
"495",0,0
"496",0,0
"497",0,0
"498",0,0
"499",0,0
"500",0,0
