"","n_obs","n_total"
"1",0,0
"2",0,0
"3",0,0
"4",0,0
"5",1,2
"6",2,3
"7",0,0
"8",0,0
"9",0,0
"10",0,0
"11",0,0
"12",0,0
"13",0,0
"14",1,2
"15",0,0
"16",1,1
"17",0,0
"18",0,0
"19",0,0
"20",1,4
"21",0,0
"22",0,0
"23",0,0
"24",0,0
"25",1,3
"26",0,0
"27",2,4
"28",1,4
"29",1,2
"30",2,2
"31",0,0
"32",0,0
"33",0,0
"34",0,0
"35",7,14
"36",4,5
"37",1,3
"38",1,1
"39",0,0
"40",1,1
"41",0,0
"42",0,0
"43",0,0
"44",5,10
"45",7,16
"46",2,2
"47",1,2
"48",1,1
"49",0,0
"50",0,0
"51",0,0
"52",0,0
"53",7,9
"54",7,10
"55",3,5
"56",0,0
"57",2,3
"58",1,1
"59",0,0
"60",4,12
"61",0,0
"62",0,0
"63",1,4
"64",6,6
"65",0,0
"66",3,7
"67",1,1
"68",0,0
"69",0,0
"70",2,2
"71",0,0
"72",0,0
"73",1,2
"74",2,3
"75",0,0
"76",1,2
"77",2,3
"78",4,7
"79",0,0
"80",3,6
"81",0,0
"82",0,0
"83",0,0
"84",1,1
"85",0,0
"86",0,0
"87",2,2
"88",2,2
"89",0,0
"90",1,1
"91",0,0
"92",0,0
"93",0,0
"94",0,0
"95",0,0
"96",0,0
"97",1,1
"98",5,6
"99",0,0
"100",8,15
"101",0,0
"102",0,0
"103",0,0
"104",0,0
"105",0,0
"106",0,0
"107",2,2
"108",2,3
"109",7,12
"110",8,22
"111",0,0
"112",0,0
"113",0,0
"114",0,0
"115",0,0
"116",0,0
"117",1,1
"118",3,7
"119",4,10
"120",8,14
"121",0,0
"122",0,0
"123",0,0
"124",0,0
"125",0,0
"126",0,0
"127",0,0
"128",1,2
"129",4,6
"130",6,12
"131",0,0
"132",0,0
"133",0,0
"134",0,0
"135",0,0
"136",0,0
"137",1,1
"138",7,10
"139",3,3
"140",0,0
"141",0,0
"142",0,0
"143",0,0
"144",0,0
"145",0,0
"146",0,0
"147",5,12
"148",1,1
"149",1,1
"150",0,0
"151",0,0
"152",0,0
"153",0,0
"154",0,0
"155",0,0
"156",4,15
"157",1,2
"158",1,2
"159",1,1
"160",1,2
"161",0,0
"162",0,0
"163",0,0
"164",0,0
"165",0,0
"166",0,0
"167",2,3
"168",2,4
"169",0,0
"170",0,0
"171",0,0
"172",0,0
"173",0,0
"174",0,0
"175",3,7
"176",2,2
"177",0,0
"178",1,1
"179",1,2
"180",0,0
"181",0,0
"182",0,0
"183",0,0
"184",0,0
"185",0,0
"186",1,5
"187",0,0
"188",0,0
"189",1,2
"190",1,1
"191",0,0
"192",0,0
"193",0,0
"194",0,0
"195",0,0
"196",0,0
"197",0,0
"198",3,8
"199",0,0
"200",0,0
"201",0,0
"202",0,0
"203",0,0
"204",0,0
"205",0,0
"206",2,7
"207",1,3
"208",0,0
"209",0,0
"210",1,2
"211",0,0
"212",0,0
"213",0,0
"214",0,0
"215",0,0
"216",0,0
"217",0,0
"218",1,2
"219",3,4
"220",0,0
"221",0,0
"222",0,0
"223",0,0
"224",0,0
"225",1,1
"226",0,0
"227",1,1
"228",0,0
"229",1,2
"230",0,0
"231",0,0
"232",0,0
"233",0,0
"234",2,4
"235",2,5
"236",0,0
"237",1,1
"238",5,6
"239",2,2
"240",0,0
"241",0,0
"242",0,0
"243",0,0
"244",1,1
"245",2,3
"246",1,1
"247",4,4
"248",1,1
"249",4,5
"250",0,0
"251",0,0
"252",0,0
"253",0,0
"254",3,3
"255",0,0
"256",0,0
"257",1,1
"258",1,3
"259",0,0
"260",0,0
"261",0,0
"262",0,0
"263",1,1
"264",0,0
"265",1,1
"266",0,0
"267",1,1
"268",0,0
"269",0,0
"270",0,0
"271",0,0
"272",0,0
"273",0,0
"274",0,0
"275",0,0
"276",0,0
"277",0,0
"278",1,1
"279",0,0
"280",0,0
"281",0,0
"282",0,0
"283",0,0
"284",0,0
"285",0,0
"286",0,0
"287",3,3
"288",0,0
"289",0,0
"290",0,0
"291",0,0
"292",0,0
"293",1,1
"294",2,3
"295",1,1
"296",0,0
"297",0,0
"298",0,0
"299",0,0
"300",0,0
"301",0,0
"302",0,0
"303",4,8
"304",0,0
"305",2,2
"306",1,1
"307",0,0
"308",0,0
"309",0,0
"310",0,0
"311",0,0
"312",2,2
"313",0,0
"314",2,2
"315",0,0
"316",1,1
"317",3,4
"318",0,0
"319",0,0
"320",0,0
"321",0,0
"322",0,0
"323",2,2
"324",0,0
"325",0,0
"326",1,2
"327",0,0
"328",0,0
"329",0,0
"330",0,0
"331",0,0
"332",0,0
"333",1,1
"334",3,5
"335",0,0
"336",2,2
"337",0,0
"338",0,0
"339",0,0
"340",0,0
"341",0,0
"342",1,1
"343",3,3
"344",1,1
"345",0,0
"346",2,2
"347",0,0
"348",0,0
"349",0,0
"350",0,0
"351",1,1
"352",1,1
"353",6,6
"354",3,3
"355",4,5
"356",2,2
"357",0,0
"358",0,0
"359",0,0
"360",0,0
"361",1,1
"362",3,3
"363",0,0
"364",6,11
"365",0,0
"366",0,0
"367",0,0
"368",0,0
"369",0,0
"370",0,0
"371",1,1
"372",4,7
"373",3,6
"374",2,7
"375",2,2
"376",0,0
"377",0,0
"378",0,0
"379",0,0
"380",0,0
"381",0,0
"382",1,1
"383",3,6
"384",1,3
"385",2,5
"386",0,0
"387",0,0
"388",0,0
"389",0,0
"390",0,0
"391",0,0
"392",1,2
"393",4,8
"394",4,8
"395",1,1
"396",0,0
"397",0,0
"398",0,0
"399",0,0
"400",0,0
"401",1,1
"402",1,2
"403",4,9
"404",0,0
"405",1,2
"406",1,1
"407",0,0
"408",0,0
"409",0,0
"410",0,0
"411",0,0
"412",0,0
"413",2,3
"414",1,1
"415",1,4
"416",0,0
"417",0,0
"418",0,0
"419",0,0
"420",0,0
"421",1,2
"422",0,0
"423",0,0
"424",0,0
"425",2,8
"426",0,0
"427",0,0
"428",0,0
"429",0,0
"430",0,0
"431",0,0
"432",1,1
"433",1,2
"434",0,0
"435",1,1
"436",0,0
"437",0,0
"438",0,0
"439",0,0
"440",0,0
"441",0,0
"442",1,2
"443",0,0
"444",0,0
"445",0,0
"446",0,0
"447",0,0
"448",0,0
"449",0,0
"450",0,0
"451",0,0
"452",0,0
"453",0,0
"454",2,2
"455",0,0
"456",0,0
"457",0,0
"458",0,0
"459",0,0
"460",0,0
"461",0,0
"462",0,0
"463",0,0
"464",0,0
"465",0,0
"466",0,0
"467",0,0
"468",0,0
"469",0,0
"470",0,0
"471",0,0
"472",0,0
"473",0,0
"474",0,0
"475",0,0
"476",0,0
"477",0,0
"478",0,0
"479",0,0
"480",0,0
"481",0,0
"482",0,0
"483",0,0
"484",0,0
"485",0,0
"486",0,0
"487",0,0
"488",0,0
"489",0,0
"490",0,0
"491",0,0
"492",0,0
"493",0,0
"494",0,0
"495",0,0
"496",0,0
"497",0,0
"498",0,0
"499",0,0
"500",0,0
