"","n_obs","n_total"
"1",0,0
"2",0,0
"3",0,0
"4",0,0
"5",5,20
"6",1,5
"7",0,0
"8",0,0
"9",0,0
"10",0,0
"11",0,0
"12",0,0
"13",0,0
"14",10,38
"15",8,29
"16",6,25
"17",3,12
"18",0,0
"19",0,0
"20",0,0
"21",0,0
"22",0,0
"23",0,0
"24",11,51
"25",17,56
"26",8,23
"27",10,45
"28",6,28
"29",0,0
"30",12,45
"31",0,0
"32",0,0
"33",0,0
"34",12,58
"35",3,9
"36",9,25
"37",12,50
"38",12,45
"39",3,10
"40",21,74
"41",0,0
"42",0,0
"43",0,0
"44",10,52
"45",9,43
"46",18,72
"47",16,55
"48",9,40
"49",9,40
"50",17,64
"51",0,0
"52",0,0
"53",6,21
"54",18,115
"55",19,104
"56",12,50
"57",3,9
"58",3,10
"59",14,44
"60",20,82
"61",0,0
"62",0,0
"63",3,10
"64",15,64
"65",10,42
"66",8,40
"67",3,8
"68",4,11
"69",9,33
"70",12,40
"71",0,0
"72",0,0
"73",1,7
"74",14,57
"75",9,34
"76",10,41
"77",16,42
"78",13,37
"79",6,21
"80",8,26
"81",0,0
"82",0,0
"83",0,0
"84",3,6
"85",8,26
"86",8,35
"87",16,48
"88",7,32
"89",13,52
"90",7,35
"91",0,0
"92",0,0
"93",0,0
"94",0,0
"95",0,0
"96",0,0
"97",9,16
"98",19,69
"99",9,50
"100",14,62
"101",0,0
"102",0,0
"103",0,0
"104",0,0
"105",0,0
"106",0,0
"107",4,25
"108",13,60
"109",4,21
"110",20,102
"111",0,0
"112",0,0
"113",0,0
"114",0,0
"115",0,0
"116",0,0
"117",5,21
"118",4,20
"119",15,68
"120",14,69
"121",0,0
"122",0,0
"123",0,0
"124",0,0
"125",0,0
"126",0,0
"127",7,27
"128",10,52
"129",10,62
"130",5,14
"131",0,0
"132",0,0
"133",0,0
"134",0,0
"135",0,0
"136",0,0
"137",8,26
"138",15,52
"139",8,28
"140",17,72
"141",0,0
"142",0,0
"143",0,0
"144",0,0
"145",0,0
"146",3,8
"147",9,31
"148",4,18
"149",7,26
"150",15,48
"151",0,0
"152",0,0
"153",0,0
"154",0,0
"155",1,5
"156",4,15
"157",10,29
"158",6,14
"159",3,4
"160",10,43
"161",0,0
"162",0,0
"163",0,0
"164",0,0
"165",3,13
"166",5,16
"167",9,34
"168",8,30
"169",4,18
"170",6,19
"171",0,0
"172",0,0
"173",0,0
"174",0,0
"175",14,63
"176",3,15
"177",13,49
"178",14,71
"179",7,41
"180",5,30
"181",0,0
"182",0,0
"183",0,0
"184",0,0
"185",5,20
"186",11,42
"187",7,27
"188",7,29
"189",9,43
"190",5,29
"191",0,0
"192",0,0
"193",0,0
"194",0,0
"195",1,5
"196",3,6
"197",6,23
"198",2,11
"199",5,19
"200",6,28
"201",0,0
"202",0,0
"203",0,0
"204",0,0
"205",0,0
"206",12,51
"207",4,8
"208",0,0
"209",5,21
"210",1,8
"211",0,0
"212",0,0
"213",0,0
"214",0,0
"215",0,0
"216",5,28
"217",3,15
"218",3,10
"219",11,42
"220",0,0
"221",0,0
"222",0,0
"223",1,4
"224",9,32
"225",9,33
"226",8,33
"227",11,36
"228",1,1
"229",6,25
"230",0,0
"231",0,0
"232",0,0
"233",3,7
"234",1,1
"235",2,8
"236",7,26
"237",7,27
"238",7,15
"239",4,14
"240",0,0
"241",0,0
"242",0,0
"243",8,25
"244",6,14
"245",6,14
"246",6,13
"247",1,2
"248",9,27
"249",19,110
"250",0,0
"251",0,0
"252",0,0
"253",6,11
"254",5,11
"255",1,2
"256",4,12
"257",1,3
"258",10,31
"259",1,9
"260",0,0
"261",0,0
"262",0,0
"263",6,11
"264",3,20
"265",2,5
"266",4,16
"267",4,12
"268",1,1
"269",0,0
"270",0,0
"271",0,0
"272",0,0
"273",6,13
"274",3,6
"275",3,6
"276",1,2
"277",11,46
"278",5,22
"279",0,0
"280",0,0
"281",0,0
"282",0,0
"283",16,47
"284",4,13
"285",2,7
"286",3,11
"287",2,6
"288",1,2
"289",0,0
"290",0,0
"291",0,0
"292",0,0
"293",9,22
"294",7,19
"295",4,13
"296",4,16
"297",4,24
"298",0,0
"299",0,0
"300",0,0
"301",0,0
"302",2,8
"303",2,6
"304",3,13
"305",4,13
"306",1,6
"307",3,11
"308",0,0
"309",0,0
"310",0,0
"311",0,0
"312",1,4
"313",2,7
"314",6,22
"315",4,24
"316",3,12
"317",0,0
"318",0,0
"319",0,0
"320",0,0
"321",0,0
"322",0,0
"323",1,5
"324",2,12
"325",2,11
"326",6,16
"327",0,0
"328",0,0
"329",0,0
"330",0,0
"331",0,0
"332",0,0
"333",5,26
"334",4,22
"335",1,4
"336",1,2
"337",0,0
"338",0,0
"339",0,0
"340",0,0
"341",1,3
"342",1,4
"343",1,2
"344",6,29
"345",2,5
"346",8,35
"347",0,0
"348",0,0
"349",0,0
"350",0,0
"351",4,21
"352",1,1
"353",10,40
"354",3,15
"355",3,16
"356",4,10
"357",0,0
"358",0,0
"359",0,0
"360",0,0
"361",9,22
"362",6,26
"363",8,33
"364",6,37
"365",7,30
"366",9,44
"367",0,0
"368",0,0
"369",0,0
"370",0,0
"371",3,10
"372",7,29
"373",6,23
"374",1,5
"375",14,67
"376",3,15
"377",0,0
"378",0,0
"379",0,0
"380",0,0
"381",5,20
"382",7,29
"383",13,73
"384",1,5
"385",4,16
"386",0,0
"387",0,0
"388",0,0
"389",0,0
"390",0,0
"391",7,28
"392",14,63
"393",8,36
"394",16,61
"395",0,0
"396",2,10
"397",0,0
"398",0,0
"399",0,0
"400",0,0
"401",6,19
"402",5,16
"403",11,71
"404",2,6
"405",1,5
"406",0,0
"407",0,0
"408",0,0
"409",0,0
"410",0,0
"411",1,4
"412",4,24
"413",11,27
"414",1,6
"415",6,22
"416",0,0
"417",0,0
"418",0,0
"419",0,0
"420",0,0
"421",3,11
"422",6,20
"423",7,21
"424",1,3
"425",3,12
"426",0,0
"427",0,0
"428",0,0
"429",0,0
"430",0,0
"431",1,4
"432",6,22
"433",3,8
"434",3,10
"435",8,29
"436",0,0
"437",0,0
"438",0,0
"439",0,0
"440",0,0
"441",2,8
"442",14,63
"443",1,2
"444",2,4
"445",0,0
"446",0,0
"447",0,0
"448",0,0
"449",0,0
"450",0,0
"451",0,0
"452",8,32
"453",4,15
"454",8,33
"455",0,0
"456",0,0
"457",0,0
"458",0,0
"459",0,0
"460",0,0
"461",1,2
"462",5,29
"463",10,39
"464",1,6
"465",0,0
"466",0,0
"467",0,0
"468",0,0
"469",0,0
"470",0,0
"471",0,0
"472",5,20
"473",22,99
"474",7,29
"475",0,0
"476",0,0
"477",0,0
"478",0,0
"479",0,0
"480",0,0
"481",0,0
"482",4,19
"483",22,70
"484",9,40
"485",0,0
"486",0,0
"487",0,0
"488",0,0
"489",0,0
"490",0,0
"491",0,0
"492",1,7
"493",3,6
"494",1,2
"495",0,0
"496",0,0
"497",0,0
"498",0,0
"499",0,0
"500",0,0
