"","n_obs","n_total"
"1",0,0
"2",0,0
"3",0,0
"4",0,0
"5",0,0
"6",0,0
"7",0,0
"8",0,0
"9",0,0
"10",0,0
"11",0,0
"12",0,0
"13",0,0
"14",0,0
"15",0,0
"16",1,2
"17",0,0
"18",0,0
"19",0,0
"20",0,0
"21",0,0
"22",0,0
"23",0,0
"24",0,0
"25",4,6
"26",2,3
"27",2,2
"28",0,0
"29",0,0
"30",0,0
"31",0,0
"32",0,0
"33",0,0
"34",0,0
"35",0,0
"36",1,2
"37",5,11
"38",0,0
"39",0,0
"40",1,1
"41",0,0
"42",0,0
"43",0,0
"44",0,0
"45",2,2
"46",0,0
"47",0,0
"48",3,3
"49",4,6
"50",4,7
"51",0,0
"52",0,0
"53",0,0
"54",0,0
"55",1,1
"56",3,6
"57",2,2
"58",2,3
"59",5,5
"60",4,4
"61",0,0
"62",0,0
"63",3,3
"64",2,2
"65",3,3
"66",2,2
"67",3,6
"68",1,1
"69",4,5
"70",3,4
"71",0,0
"72",0,0
"73",0,0
"74",1,4
"75",11,16
"76",6,12
"77",1,1
"78",4,4
"79",4,4
"80",4,4
"81",0,0
"82",0,0
"83",0,0
"84",1,1
"85",0,0
"86",1,2
"87",0,0
"88",5,10
"89",3,3
"90",3,4
"91",0,0
"92",0,0
"93",0,0
"94",0,0
"95",0,0
"96",0,0
"97",0,0
"98",1,1
"99",9,19
"100",0,0
"101",0,0
"102",0,0
"103",0,0
"104",0,0
"105",0,0
"106",0,0
"107",0,0
"108",1,1
"109",6,7
"110",3,6
"111",0,0
"112",0,0
"113",0,0
"114",0,0
"115",0,0
"116",0,0
"117",0,0
"118",2,2
"119",4,6
"120",0,0
"121",0,0
"122",0,0
"123",0,0
"124",0,0
"125",0,0
"126",0,0
"127",1,1
"128",1,1
"129",5,6
"130",0,0
"131",0,0
"132",0,0
"133",0,0
"134",0,0
"135",0,0
"136",0,0
"137",10,17
"138",0,0
"139",0,0
"140",4,5
"141",0,0
"142",0,0
"143",0,0
"144",0,0
"145",0,0
"146",4,4
"147",5,7
"148",1,1
"149",4,4
"150",1,1
"151",0,0
"152",0,0
"153",0,0
"154",0,0
"155",2,5
"156",1,1
"157",0,0
"158",0,0
"159",2,4
"160",6,7
"161",0,0
"162",0,0
"163",0,0
"164",0,0
"165",4,6
"166",1,1
"167",4,5
"168",2,3
"169",1,1
"170",0,0
"171",0,0
"172",0,0
"173",0,0
"174",0,0
"175",1,1
"176",3,4
"177",2,2
"178",4,13
"179",2,3
"180",2,2
"181",0,0
"182",0,0
"183",0,0
"184",0,0
"185",5,6
"186",6,7
"187",5,8
"188",3,6
"189",1,1
"190",2,4
"191",0,0
"192",0,0
"193",0,0
"194",0,0
"195",0,0
"196",2,3
"197",6,10
"198",0,0
"199",2,3
"200",5,10
"201",0,0
"202",0,0
"203",0,0
"204",0,0
"205",0,0
"206",2,8
"207",6,10
"208",0,0
"209",3,3
"210",0,0
"211",0,0
"212",0,0
"213",0,0
"214",0,0
"215",1,1
"216",4,9
"217",4,11
"218",0,0
"219",3,3
"220",0,0
"221",0,0
"222",0,0
"223",1,1
"224",2,2
"225",1,1
"226",3,6
"227",4,4
"228",3,25
"229",2,5
"230",0,0
"231",0,0
"232",0,0
"233",2,2
"234",2,2
"235",1,1
"236",2,3
"237",4,5
"238",2,4
"239",2,5
"240",0,0
"241",0,0
"242",0,0
"243",5,8
"244",2,2
"245",2,2
"246",9,17
"247",6,13
"248",2,2
"249",0,0
"250",0,0
"251",0,0
"252",0,0
"253",1,1
"254",2,10
"255",6,14
"256",13,27
"257",5,6
"258",0,0
"259",0,0
"260",0,0
"261",0,0
"262",0,0
"263",0,0
"264",2,6
"265",3,4
"266",17,32
"267",3,4
"268",0,0
"269",0,0
"270",0,0
"271",0,0
"272",0,0
"273",0,0
"274",0,0
"275",1,1
"276",8,8
"277",0,0
"278",0,0
"279",0,0
"280",0,0
"281",0,0
"282",0,0
"283",0,0
"284",0,0
"285",3,3
"286",1,1
"287",0,0
"288",0,0
"289",0,0
"290",0,0
"291",0,0
"292",0,0
"293",6,6
"294",0,0
"295",2,2
"296",0,0
"297",0,0
"298",0,0
"299",0,0
"300",0,0
"301",0,0
"302",4,9
"303",8,9
"304",1,1
"305",8,11
"306",1,1
"307",0,0
"308",0,0
"309",0,0
"310",0,0
"311",0,0
"312",4,6
"313",2,2
"314",1,3
"315",4,8
"316",1,5
"317",0,0
"318",0,0
"319",0,0
"320",0,0
"321",0,0
"322",1,1
"323",3,3
"324",6,15
"325",2,4
"326",1,4
"327",0,0
"328",0,0
"329",0,0
"330",0,0
"331",0,0
"332",5,9
"333",4,4
"334",0,0
"335",0,0
"336",1,5
"337",0,0
"338",0,0
"339",0,0
"340",0,0
"341",0,0
"342",7,13
"343",0,0
"344",0,0
"345",0,0
"346",1,2
"347",0,0
"348",0,0
"349",0,0
"350",0,0
"351",1,1
"352",3,12
"353",0,0
"354",0,0
"355",0,0
"356",2,6
"357",0,0
"358",0,0
"359",0,0
"360",0,0
"361",1,1
"362",10,17
"363",2,2
"364",1,3
"365",0,0
"366",2,16
"367",0,0
"368",0,0
"369",0,0
"370",0,0
"371",3,12
"372",1,1
"373",2,3
"374",1,3
"375",16,46
"376",1,1
"377",0,0
"378",0,0
"379",0,0
"380",0,0
"381",2,6
"382",1,1
"383",2,3
"384",0,0
"385",1,1
"386",0,0
"387",0,0
"388",0,0
"389",0,0
"390",0,0
"391",5,27
"392",5,12
"393",1,1
"394",4,5
"395",1,2
"396",0,0
"397",0,0
"398",0,0
"399",0,0
"400",0,0
"401",1,3
"402",0,0
"403",3,6
"404",2,7
"405",4,17
"406",0,0
"407",0,0
"408",0,0
"409",0,0
"410",0,0
"411",4,26
"412",4,12
"413",1,7
"414",1,2
"415",0,0
"416",0,0
"417",0,0
"418",0,0
"419",0,0
"420",0,0
"421",1,8
"422",6,17
"423",2,6
"424",1,2
"425",0,0
"426",0,0
"427",0,0
"428",0,0
"429",0,0
"430",0,0
"431",0,0
"432",3,21
"433",1,1
"434",0,0
"435",0,0
"436",0,0
"437",0,0
"438",0,0
"439",0,0
"440",0,0
"441",0,0
"442",0,0
"443",1,2
"444",0,0
"445",0,0
"446",0,0
"447",0,0
"448",0,0
"449",0,0
"450",0,0
"451",0,0
"452",0,0
"453",0,0
"454",0,0
"455",0,0
"456",0,0
"457",0,0
"458",0,0
"459",0,0
"460",0,0
"461",0,0
"462",0,0
"463",0,0
"464",0,0
"465",0,0
"466",0,0
"467",0,0
"468",0,0
"469",0,0
"470",0,0
"471",0,0
"472",0,0
"473",0,0
"474",0,0
"475",0,0
"476",0,0
"477",0,0
"478",0,0
"479",0,0
"480",0,0
"481",0,0
"482",0,0
"483",0,0
"484",0,0
"485",0,0
"486",0,0
"487",0,0
"488",0,0
"489",0,0
"490",0,0
"491",0,0
"492",0,0
"493",0,0
"494",0,0
"495",0,0
"496",0,0
"497",0,0
"498",0,0
"499",0,0
"500",0,0
