"","n_obs","n_total"
"1",0,0
"2",0,0
"3",0,0
"4",0,0
"5",0,0
"6",0,0
"7",0,0
"8",0,0
"9",0,0
"10",0,0
"11",0,0
"12",0,0
"13",0,0
"14",0,0
"15",0,0
"16",0,0
"17",0,0
"18",0,0
"19",0,0
"20",0,0
"21",0,0
"22",0,0
"23",0,0
"24",0,0
"25",0,0
"26",0,0
"27",0,0
"28",0,0
"29",0,0
"30",0,0
"31",0,0
"32",0,0
"33",0,0
"34",1,16
"35",0,0
"36",3,30
"37",0,0
"38",0,0
"39",0,0
"40",0,0
"41",0,0
"42",0,0
"43",0,0
"44",8,80
"45",4,4
"46",4,34
"47",6,6
"48",0,0
"49",0,0
"50",0,0
"51",0,0
"52",0,0
"53",2,24
"54",10,25
"55",4,25
"56",12,60
"57",17,92
"58",0,0
"59",0,0
"60",0,0
"61",0,0
"62",0,0
"63",2,2
"64",3,8
"65",2,8
"66",6,136
"67",0,0
"68",0,0
"69",0,0
"70",0,0
"71",0,0
"72",0,0
"73",3,12
"74",12,46
"75",14,52
"76",4,20
"77",0,0
"78",0,0
"79",0,0
"80",0,0
"81",0,0
"82",0,0
"83",0,0
"84",13,37
"85",3,15
"86",0,0
"87",0,0
"88",0,0
"89",0,0
"90",0,0
"91",0,0
"92",0,0
"93",0,0
"94",0,0
"95",0,0
"96",0,0
"97",0,0
"98",0,0
"99",0,0
"100",0,0
"101",0,0
"102",0,0
"103",0,0
"104",0,0
"105",0,0
"106",0,0
"107",0,0
"108",0,0
"109",0,0
"110",0,0
"111",0,0
"112",0,0
"113",0,0
"114",0,0
"115",0,0
"116",0,0
"117",0,0
"118",0,0
"119",0,0
"120",0,0
"121",0,0
"122",0,0
"123",0,0
"124",0,0
"125",0,0
"126",0,0
"127",0,0
"128",0,0
"129",0,0
"130",0,0
"131",0,0
"132",0,0
"133",0,0
"134",0,0
"135",0,0
"136",0,0
"137",0,0
"138",0,0
"139",0,0
"140",0,0
"141",0,0
"142",0,0
"143",0,0
"144",0,0
"145",0,0
"146",0,0
"147",0,0
"148",0,0
"149",0,0
"150",0,0
"151",0,0
"152",0,0
"153",0,0
"154",0,0
"155",0,0
"156",0,0
"157",0,0
"158",0,0
"159",0,0
"160",0,0
"161",0,0
"162",0,0
"163",0,0
"164",0,0
"165",0,0
"166",0,0
"167",0,0
"168",0,0
"169",0,0
"170",0,0
"171",0,0
"172",0,0
"173",0,0
"174",0,0
"175",0,0
"176",0,0
"177",0,0
"178",0,0
"179",0,0
"180",0,0
"181",0,0
"182",0,0
"183",0,0
"184",0,0
"185",0,0
"186",0,0
"187",0,0
"188",0,0
"189",0,0
"190",0,0
"191",0,0
"192",0,0
"193",0,0
"194",0,0
"195",0,0
"196",0,0
"197",0,0
"198",0,0
"199",0,0
"200",0,0
"201",0,0
"202",0,0
"203",0,0
"204",0,0
"205",0,0
"206",0,0
"207",0,0
"208",0,0
"209",0,0
"210",0,0
"211",0,0
"212",0,0
"213",0,0
"214",0,0
"215",0,0
"216",0,0
"217",0,0
"218",0,0
"219",0,0
"220",0,0
"221",0,0
"222",0,0
"223",0,0
"224",0,0
"225",0,0
"226",0,0
"227",0,0
"228",2,2
"229",0,0
"230",0,0
"231",0,0
"232",0,0
"233",1,12
"234",1,1
"235",0,0
"236",0,0
"237",3,13
"238",6,52
"239",0,0
"240",0,0
"241",0,0
"242",0,0
"243",0,0
"244",3,11
"245",1,3
"246",2,12
"247",1,1
"248",7,51
"249",0,0
"250",0,0
"251",0,0
"252",0,0
"253",1,8
"254",2,30
"255",2,4
"256",4,20
"257",0,0
"258",0,0
"259",0,0
"260",0,0
"261",0,0
"262",0,0
"263",4,33
"264",5,11
"265",2,8
"266",1,1
"267",3,48
"268",0,0
"269",0,0
"270",0,0
"271",0,0
"272",0,0
"273",1,13
"274",2,22
"275",0,0
"276",5,16
"277",2,2
"278",0,0
"279",0,0
"280",0,0
"281",0,0
"282",0,0
"283",3,9
"284",1,10
"285",0,0
"286",4,28
"287",8,150
"288",0,0
"289",0,0
"290",0,0
"291",0,0
"292",0,0
"293",0,0
"294",0,0
"295",0,0
"296",2,18
"297",2,12
"298",0,0
"299",0,0
"300",0,0
"301",0,0
"302",0,0
"303",0,0
"304",0,0
"305",2,8
"306",4,7
"307",1,25
"308",0,0
"309",0,0
"310",0,0
"311",0,0
"312",0,0
"313",0,0
"314",0,0
"315",0,0
"316",1,1
"317",0,0
"318",0,0
"319",0,0
"320",0,0
"321",0,0
"322",1,1
"323",0,0
"324",0,0
"325",8,125
"326",1,1
"327",0,0
"328",0,0
"329",0,0
"330",0,0
"331",0,0
"332",2,4
"333",2,24
"334",0,0
"335",0,0
"336",0,0
"337",0,0
"338",0,0
"339",0,0
"340",0,0
"341",0,0
"342",4,34
"343",0,0
"344",0,0
"345",2,8
"346",0,0
"347",0,0
"348",0,0
"349",0,0
"350",0,0
"351",0,0
"352",0,0
"353",1,7
"354",2,6
"355",9,38
"356",1,1
"357",0,0
"358",0,0
"359",0,0
"360",0,0
"361",0,0
"362",5,11
"363",0,0
"364",8,37
"365",9,132
"366",0,0
"367",0,0
"368",0,0
"369",0,0
"370",0,0
"371",5,72
"372",4,27
"373",5,112
"374",13,296
"375",15,125
"376",0,0
"377",0,0
"378",0,0
"379",0,0
"380",0,0
"381",0,0
"382",0,0
"383",3,3
"384",0,0
"385",0,0
"386",0,0
"387",0,0
"388",0,0
"389",0,0
"390",0,0
"391",1,1
"392",4,38
"393",0,0
"394",0,0
"395",1,10
"396",0,0
"397",0,0
"398",0,0
"399",0,0
"400",0,0
"401",0,0
"402",0,0
"403",0,0
"404",1,24
"405",4,70
"406",0,0
"407",0,0
"408",0,0
"409",0,0
"410",0,0
"411",0,0
"412",4,21
"413",0,0
"414",1,1
"415",0,0
"416",0,0
"417",0,0
"418",0,0
"419",0,0
"420",0,0
"421",0,0
"422",0,0
"423",0,0
"424",0,0
"425",0,0
"426",0,0
"427",0,0
"428",0,0
"429",0,0
"430",0,0
"431",0,0
"432",0,0
"433",4,12
"434",1,1
"435",0,0
"436",0,0
"437",0,0
"438",0,0
"439",0,0
"440",0,0
"441",0,0
"442",0,0
"443",4,14
"444",10,93
"445",0,0
"446",0,0
"447",0,0
"448",0,0
"449",0,0
"450",0,0
"451",0,0
"452",0,0
"453",0,0
"454",1,1
"455",0,0
"456",0,0
"457",0,0
"458",0,0
"459",0,0
"460",0,0
"461",0,0
"462",0,0
"463",0,0
"464",0,0
"465",0,0
"466",0,0
"467",0,0
"468",0,0
"469",0,0
"470",0,0
"471",0,0
"472",0,0
"473",0,0
"474",0,0
"475",0,0
"476",0,0
"477",0,0
"478",0,0
"479",0,0
"480",0,0
"481",0,0
"482",0,0
"483",0,0
"484",0,0
"485",0,0
"486",0,0
"487",0,0
"488",0,0
"489",0,0
"490",0,0
"491",0,0
"492",0,0
"493",0,0
"494",0,0
"495",0,0
"496",0,0
"497",0,0
"498",0,0
"499",0,0
"500",0,0
