"","ID","Year","Cenb","Sp","Description","No","Lat","Long","X.coord","Y.coord"
"147230",147230,1985,11,"bg","Roan antelope bull",1,-23.26,31.24,319960.19,7426605.61
"147849",147849,1985,12,"bg","Roan antelope bull",1,-23.25,31.13,308690.74,7427572.2
"148097",148097,1985,13,"bg","Roan antelope bull",1,-23.63,31.52,349028.88,7385954.95
"148221",148221,1985,13,"bg","Roan antelope bull",1,-23.59,31.54,351024.12,7390405.25
"148233",148233,1985,13,"bg","Roan antelope bull",1,-23.61,31.56,353087.47,7388211.28
"148490",148490,1985,13,"bg","Roan antelope bull",1,-23.6,31.59,356137.66,7389349.09
"148498",148498,1985,13,"bg","Roan antelope bull",1,-23.61,31.59,356148.58,7388241.78
"148824",148824,1985,14,"bg","Roan antelope bull",1,-23.43,31.38,334495.27,7407947.53
"148831",148831,1985,14,"bg","Roan antelope bull",2,-23.43,31.4,336538.91,7407970.37
"149038",149038,1985,14,"bg","Roan antelope bull",1,-23.53,31.48,344830.39,7396985.57
"149071",149071,1985,14,"bg","Roan antelope bull",1,-23.48,31.47,343750.39,7402511.41
"149080",149080,1985,14,"bg","Roan antelope bull",3,-23.49,31.48,344783.51,7401414.92
"149113",149113,1985,14,"bg","Roan antelope bull",1,-23.55,31.51,347916.44,7394803.04
"149168",149168,1985,14,"bg","Roan antelope bull",1,-23.58,31.55,352033.44,7391522.95
"149203",149203,1985,15,"bg","Roan antelope bull",1,-23.27,31.32,328158.31,7425595.31
"149229",149229,1985,15,"bg","Roan antelope bull",1,-23.34,31.33,329270.79,7417855.57
"149241",149241,1985,15,"bg","Roan antelope bull",1,-23.31,31.36,332300.71,7421212.75
"149302",149302,1985,15,"bg","Roan antelope bull",1,-23.41,31.38,334470.38,7410162.26
"149438",149438,1985,15,"bg","Roan antelope bull",1,-23.34,31.48,344608.36,7418024.77
"149464",149464,1985,15,"bg","Roan antelope bull",1,-23.42,31.53,349810.92,7409219.22
"149588",149588,1985,18,"bg","Roan antelope bull",1,-23.25,31.36,332225.52,7427856.86
"150001",150001,1985,18,"bg","Roan antelope bull",2,-23.26,31.5,346561.56,7426904.55
"150018",150018,1985,18,"bg","Roan antelope bull",1,-23.27,31.51,347596.02,7425807.8
"150073",150073,1985,18,"bg","Roan antelope bull",1,-23.24,31.51,347561.9,7429129.67
"150580",150580,1985,2,"bg","Roan antelope bull",2,-23.91,31.4,337134.99,7354815.83
"164612",164612,1985,40,"bg","Roan antelope bull",1,-25.21,31.28,326714.76,7210690.84
"169397",169397,1985,47,"bg","Roan antelope bull",1,-22.76,31.19,314160.31,7481911.89
"169402",169402,1985,47,"bg","Roan antelope bull",1,-22.76,31.2,315187.29,7481924.41
"169585",169585,1985,47,"bg","Roan antelope bull",1,-22.71,31.26,321284.07,7487534.68
"169761",169761,1985,48,"bg","Roan antelope bull",1,-22.88,31.32,327661.87,7468781.55
"169805",169805,1985,48,"bg","Roan antelope bull",1,-22.78,31.31,326509.07,7479842.94
"169807",169807,1985,48,"bg","Roan antelope bull",1,-22.78,31.32,327535.85,7479854.64
"171124",171124,1985,50,"bg","Roan antelope bull",1,-23.14,31.53,349496.47,7440223.3
"171206",171206,1985,51,"bg","Roan antelope bull",1,-22.66,31.28,323274.6,7493095.17
"171595",171595,1985,52,"bg","Roan antelope bull",1,-23.05,31.25,320703.98,7449872.93
"171635",171635,1985,52,"bg","Roan antelope bull",1,-23.09,31.29,324854.85,7445492
"171666",171666,1985,52,"bg","Roan antelope bull",1,-23.08,31.3,325866.42,7446611.31
"171745",171745,1985,52,"bg","Roan antelope bull",1,-23.07,31.37,333025.65,7447800.35
"172058",172058,1985,53,"bg","Roan antelope bull",1,-23.14,31.03,298292.54,7439619.06
"172071",172071,1985,53,"bg","Roan antelope bull",1,-23.12,31.03,298262.61,7441834
"172356",172356,1985,53,"bg","Roan antelope bull",1,-23.05,31.14,309431.26,7449733.84
"173071",173071,1985,55,"bg","Roan antelope bull",1,-22.84,31.17,312216.03,7473027.7
"174835",174835,1985,62,"bg","Roan antelope bull",1,-22.61,31.21,316014.07,7498546.89
