"","ID","Year","Cenb","Sp","Description","No","Lat","Long","X.coord","Y.coord"
"176394",176394,1986,48,"sb","Sable antelope bull",1,-22.8,31.24,319347.86,7477544.46
"176403",176403,1986,48,"sb","Sable antelope bull",1,-22.78,31.28,323428.71,7479807.44
"176409",176409,1986,48,"sb","Sable antelope bull",1,-22.77,31.31,326496.43,7480950.25
"176411",176411,1986,48,"sb","Sable antelope bull",1,-22.76,31.33,328537.64,7482080.86
"176455",176455,1986,48,"sb","Sable antelope bull",1,-22.81,31.26,321414.21,7476461.44
"176473",176473,1986,48,"sb","Sable antelope bull",1,-22.78,31.37,332669.71,7479912.07
"176551",176551,1986,48,"sb","Sable antelope bull",1,-22.8,31.39,334747.33,7477720.01
"176576",176576,1986,48,"sb","Sable antelope bull",1,-22.83,31.3,325545.98,7474294.61
"176601",176601,1986,48,"sb","Sable antelope bull",1,-22.88,31.24,319453.52,7468685.72
"176630",176630,1986,48,"sb","Sable antelope bull",1,-22.82,31.41,336824.37,7475527.69
"176656",176656,1986,48,"sb","Sable antelope bull",1,-22.86,31.36,331741.31,7471042.39
"176760",176760,1986,3,"sb","Sable antelope bull",3,-23.94,31.35,332083.33,7351434.98
"176768",176768,1986,3,"sb","Sable antelope bull",2,-23.95,31.34,331078.49,7350315.6
"176783",176783,1986,3,"sb","Sable antelope bull",1,-23.93,31.31,327998.58,7352494.27
"176790",176790,1986,3,"sb","Sable antelope bull",1,-23.92,31.3,326967.29,7353589.51
"176793",176793,1986,3,"sb","Sable antelope bull",1,-23.91,31.3,326953.96,7354696.96
"176822",176822,1986,3,"sb","Sable antelope bull",1,-23.87,31.34,330974.42,7359175.12
"176824",176824,1986,3,"sb","Sable antelope bull",1,-23.87,31.35,331992.84,7359187.03
"176861",176861,1986,3,"sb","Sable antelope bull",1,-23.89,31.22,318781,7356811.65
"176865",176865,1986,3,"sb","Sable antelope bull",1,-23.89,31.21,317762.69,7356798.8
"176930",176930,1986,3,"sb","Sable antelope bull",1,-23.86,31.19,315683.57,7360095.36
"176955",176955,1986,3,"sb","Sable antelope bull",1,-23.98,31.27,323994.62,7346907.59
"176963",176963,1986,3,"sb","Sable antelope bull",1,-23.95,31.28,324971.67,7350242.46
"176971",176971,1986,3,"sb","Sable antelope bull",1,-23.93,31.26,322908.74,7352432.45
"176974",176974,1986,3,"sb","Sable antelope bull",1,-23.95,31.25,321918.22,7350204.91
"177002",177002,1986,3,"sb","Sable antelope bull",1,-23.93,31.22,318836.8,7352381.7
"177053",177053,1986,3,"sb","Sable antelope bull",1,-23.93,31.22,318836.8,7352381.7
"177190",177190,1986,3,"sb","Sable antelope bull",1,-24.01,31.27,324035.43,7343585.16
"177365",177365,1986,35,"sb","Sable antelope bull",3,-24.78,31.64,362511,7258728.17
"177367",177367,1986,35,"sb","Sable antelope bull",1,-24.78,31.67,365544.2,7258758.02
"177369",177369,1986,35,"sb","Sable antelope bull",1,-24.8,31.64,362533.04,7256513.25
"177384",177384,1986,35,"sb","Sable antelope bull",1,-24.81,31.68,366587.37,7255445.48
"177417",177417,1986,35,"sb","Sable antelope bull",2,-24.85,31.69,367640.73,7251025.42
"177462",177462,1986,35,"sb","Sable antelope bull",1,-24.88,31.69,367672.67,7247703.05
"177770",177770,1986,32,"sb","Sable antelope bull",1,-24.51,31.52,350055.77,7288503.95
"177980",177980,1986,32,"sb","Sable antelope bull",1,-24.5,31.62,360177.41,7289716.31
"177999",177999,1986,32,"sb","Sable antelope bull",1,-24.54,31.59,357182.64,7285255.87
"178020",178020,1986,36,"sb","Sable antelope bull",1,-24.77,31.71,369577.99,7259904.21
"178039",178039,1986,36,"sb","Sable antelope bull",2,-24.82,31.71,369630.28,7254367.02
"178219",178219,1986,36,"sb","Sable antelope bull",6,-24.84,31.86,384809.45,7252287.19
"179295",179295,1986,42,"sb","Sable antelope bull",6,-25.15,31.52,350824.78,7217623.86
"180813",180813,1986,39,"sb","Sable antelope bull",1,-25.1,31.34,332610.61,7222950.51
"180866",180866,1986,39,"sb","Sable antelope bull",1,-25.11,31.32,330607.29,7221817.95
"180871",180871,1986,39,"sb","Sable antelope bull",1,-25.1,31.31,329584.94,7222912.98
"180895",180895,1986,39,"sb","Sable antelope bull",1,-25.1,31.22,320507.75,7222796.34
"180915",180915,1986,39,"sb","Sable antelope bull",1,-25.15,31.26,324613.53,7217310.76
"180926",180926,1986,39,"sb","Sable antelope bull",1,-25.15,31.26,324613.53,7217310.76
"180927",180927,1986,39,"sb","Sable antelope bull",1,-25.15,31.27,325621.69,7217323.74
"181379",181379,1986,38,"sb","Sable antelope bull",1,-24.97,31.82,380892.18,7237856.29
"181389",181389,1986,38,"sb","Sable antelope bull",1,-24.94,31.84,382882.76,7241195.98
"181446",181446,1986,38,"sb","Sable antelope bull",3,-24.98,31.89,387967.55,7236808.49
"182184",182184,1986,40,"sb","Sable antelope bull",1,-25.16,31.34,332692.4,7216304.88
"182224",182224,1986,40,"sb","Sable antelope bull",4,-25.17,31.21,319602.08,7215029.43
"182302",182302,1986,40,"sb","Sable antelope bull",1,-25.18,31.34,332719.71,7214089.66
"182320",182320,1986,40,"sb","Sable antelope bull",1,-25.21,31.33,331753.05,7210754.35
"182369",182369,1986,40,"sb","Sable antelope bull",1,-25.21,31.25,323691.75,7210651.84
"182426",182426,1986,40,"sb","Sable antelope bull",1,-25.24,31.29,327764.71,7207380.79
"182487",182487,1986,40,"sb","Sable antelope bull",1,-25.31,31.31,329877.2,7199652.84
"182553",182553,1986,57,"sb","Sable antelope bull",1,-25.18,31.66,364970.74,7214448.98
"182788",182788,1986,57,"sb","Sable antelope bull",1,-23.35,31.08,303721.06,7416430.68
"182806",182806,1986,57,"sb","Sable antelope bull",1,-23.32,31.06,301631.37,7419725.82
"182815",182815,1986,57,"sb","Sable antelope bull",1,-23.35,31.07,302698.51,7416417.06
"182903",182903,1986,57,"sb","Sable antelope bull",1,-23.38,31.11,306832.17,7413148.73
"183012",183012,1986,57,"sb","Sable antelope bull",1,-23.45,31.06,301824.94,7405328.46
"183030",183030,1986,57,"sb","Sable antelope bull",1,-23.43,31.11,306904.76,7407611.39
"183128",183128,1986,57,"sb","Sable antelope bull",1,-23.39,31.14,309913.35,7412081.12
"183148",183148,1986,57,"sb","Sable antelope bull",1,-23.36,31.18,313960.31,7415455.57
"183153",183153,1986,57,"sb","Sable antelope bull",1,-23.36,31.16,311915.44,7415429.67
"183156",183156,1986,57,"sb","Sable antelope bull",1,-23.36,31.17,312937.88,7415442.65
"183163",183163,1986,57,"sb","Sable antelope bull",5,-23.35,31.21,317013.87,7416601.32
"183165",183165,1986,57,"sb","Sable antelope bull",1,-23.34,31.21,317000.16,7417708.74
"183166",183166,1986,57,"sb","Sable antelope bull",1,-23.37,31.12,307840.06,7414269.54
"183750",183750,1986,31,"sb","Sable antelope bull",1,-24.54,31.69,367312.74,7285355.76
"184773",184773,1986,26,"sb","Sable antelope bull",1,-24.26,31.79,377172.03,7316454.4
"185686",185686,1986,24,"sb","Sable antelope bull",1,-22.85,31.07,301966.44,7471789.51
"185696",185696,1986,24,"sb","Sable antelope bull",4,-22.82,31.07,301922.99,7475111.76
"185701",185701,1986,24,"sb","Sable antelope bull",1,-22.87,31.07,301995.43,7469574.67
"185730",185730,1986,24,"sb","Sable antelope bull",1,-22.82,31.13,308082.39,7475191
"185736",185736,1986,24,"sb","Sable antelope bull",1,-22.87,31.13,308152.57,7469654.05
"185766",185766,1986,24,"sb","Sable antelope bull",1,-22.87,31.16,311231.09,7469692.8
"185805",185805,1986,24,"sb","Sable antelope bull",3,-22.8,31.19,314214.51,7477482.46
"185814",185814,1986,24,"sb","Sable antelope bull",1,-22.83,31.19,314255.21,7474160.38
"185841",185841,1986,24,"sb","Sable antelope bull",1,-22.87,31.21,316361.87,7469755.99
"185947",185947,1986,24,"sb","Sable antelope bull",2,-22.76,31.18,313133.33,7481899.3
"185965",185965,1986,24,"sb","Sable antelope bull",1,-22.86,31.03,297875.78,7470627.79
"185967",185967,1986,24,"sb","Sable antelope bull",7,-22.86,31.02,296849.49,7470614.05
"185969",185969,1986,24,"sb","Sable antelope bull",5,-22.86,31.02,296849.49,7470614.05
"185970",185970,1986,24,"sb","Sable antelope bull",1,-22.86,31.02,296849.49,7470614.05
"186014",186014,1986,24,"sb","Sable antelope bull",1,-22.82,31.06,300896.41,7475098.31
"186058",186058,1986,24,"sb","Sable antelope bull",1,-22.79,31,294691.86,7478338.47
"186064",186064,1986,24,"sb","Sable antelope bull",1,-22.77,31,294661.92,7480553.36
"186071",186071,1986,24,"sb","Sable antelope bull",2,-22.76,31.03,297728.11,7481702.11
"186450",186450,1986,11,"sb","Sable antelope bull",2,-23.4,31.21,317082.53,7411064.21
"186468",186468,1986,11,"sb","Sable antelope bull",2,-23.39,31.27,323201.87,7412246.45
"186490",186490,1986,11,"sb","Sable antelope bull",1,-23.35,31.28,324171.27,7416688.24
"186524",186524,1986,11,"sb","Sable antelope bull",1,-23.35,31.23,319058.86,7416626.51
"186535",186535,1986,11,"sb","Sable antelope bull",1,-23.32,31.28,324131.76,7420010.41
"186611",186611,1986,11,"sb","Sable antelope bull",1,-23.24,31.25,320956.66,7428832.77
"186668",186668,1986,11,"sb","Sable antelope bull",1,-23.22,31.24,319906.49,7431035.18
"187654",187654,1986,12,"sb","Sable antelope bull",1,-23.26,30.99,294379.54,7426273.14
"187658",187658,1986,12,"sb","Sable antelope bull",5,-23.28,31,295433.37,7424072.28
"187940",187940,1986,12,"sb","Sable antelope bull",1,-23.22,31.07,302506.73,7430814.2
"187980",187980,1986,12,"sb","Sable antelope bull",2,-23.2,31.1,305548.4,7433069.57
"188120",188120,1986,12,"sb","Sable antelope bull",1,-23.23,31.15,310709.1,7429813.3
"188217",188217,1986,12,"sb","Sable antelope bull",1,-23.26,31.17,312797.86,7426516.97
"188226",188226,1986,12,"sb","Sable antelope bull",1,-23.26,31.19,314844.26,7426542.65
"188269",188269,1986,9,"sb","Sable antelope bull",1,-23.61,31.14,310228.85,7387716.82
"188274",188274,1986,9,"sb","Sable antelope bull",1,-23.59,31.14,310200.05,7389931.78
"188292",188292,1986,9,"sb","Sable antelope bull",1,-23.61,31.18,314310.9,7387769.34
"188418",188418,1986,9,"sb","Sable antelope bull",1,-23.6,31.2,316337.97,7388902.63
"188545",188545,1986,9,"sb","Sable antelope bull",1,-23.52,31.24,320311.42,7397812.89
"188554",188554,1986,9,"sb","Sable antelope bull",1,-23.53,31.22,318282.79,7396680.27
"188647",188647,1986,9,"sb","Sable antelope bull",1,-23.45,31.19,315107.86,7405501.5
"188666",188666,1986,9,"sb","Sable antelope bull",1,-23.47,31.23,319222.02,7403337.48
"188695",188695,1986,8,"sb","Sable antelope bull",1,-23.42,31.27,323241.73,7408924.24
"188718",188718,1986,8,"sb","Sable antelope bull",1,-23.47,31.25,321265.15,7403362.48
"188734",188734,1986,8,"sb","Sable antelope bull",1,-23.45,31.31,327368.43,7405650.57
"188738",188738,1986,8,"sb","Sable antelope bull",1,-23.45,31.29,325325.04,7405626.44
"188741",188741,1986,8,"sb","Sable antelope bull",2,-23.47,31.26,322286.71,7403374.88
"188746",188746,1986,8,"sb","Sable antelope bull",1,-23.48,31.25,321278.63,7402255.07
"188763",188763,1986,8,"sb","Sable antelope bull",1,-23.47,31.31,327394.45,7403435.79
"188767",188767,1986,8,"sb","Sable antelope bull",1,-23.48,31.28,324343.06,7402292.05
"188770",188770,1986,8,"sb","Sable antelope bull",1,-23.48,31.27,323321.59,7402279.79
"188775",188775,1986,8,"sb","Sable antelope bull",1,-23.51,31.25,321319.1,7398932.8
"188783",188783,1986,8,"sb","Sable antelope bull",1,-23.48,31.28,324343.06,7402292.05
"188839",188839,1986,8,"sb","Sable antelope bull",1,-23.49,31.33,329463.24,7401244.88
"188872",188872,1986,8,"sb","Sable antelope bull",1,-23.48,31.36,332514.72,7402387.54
"188917",188917,1986,8,"sb","Sable antelope bull",3,-23.54,31.3,326464.67,7395671.93
"188962",188962,1986,8,"sb","Sable antelope bull",1,-23.55,31.31,327498.72,7394576.59
"191547",191547,1986,53,"sb","Sable antelope bull",1,-23.12,31.14,309529.97,7441981.92
"191569",191569,1986,53,"sb","Sable antelope bull",1,-23.06,31.15,310470.08,7448639.42
"191764",191764,1986,53,"sb","Sable antelope bull",1,-23.03,31.05,300178.25,7451828.62
"191986",191986,1986,53,"sb","Sable antelope bull",1,-23.13,30.95,290083.41,7440613.56
"193267",193267,1986,41,"sb","Sable antelope bull",3,-25.13,31.51,349792.22,7219827.85
"193290",193290,1986,41,"sb","Sable antelope bull",1,-25.21,31.49,347875.04,7210944.96
"193405",193405,1986,41,"sb","Sable antelope bull",1,-25.12,31.46,344738.27,7220878.79
"193428",193428,1986,41,"sb","Sable antelope bull",1,-25.19,31.45,343819.1,7213114.26
"193453",193453,1986,41,"sb","Sable antelope bull",1,-25.2,31.43,341816.46,7211983.31
"193534",193534,1986,41,"sb","Sable antelope bull",1,-25.19,31.41,339787.97,7213067.23
"193620",193620,1986,41,"sb","Sable antelope bull",1,-25.14,31.38,336697.99,7218569.15
"193673",193673,1986,41,"sb","Sable antelope bull",1,-25.27,31.43,341907.06,7204230.2
"193693",193693,1986,41,"sb","Sable antelope bull",2,-25.27,31.47,345935.53,7204276.74
"193794",193794,1986,41,"sb","Sable antelope bull",1,-25.28,31.39,337891.84,7203074.86
"193801",193801,1986,41,"sb","Sable antelope bull",1,-25.28,31.35,333863.6,7203025.91
"193816",193816,1986,41,"sb","Sable antelope bull",1,-25.28,31.35,333863.6,7203025.91
"193819",193819,1986,41,"sb","Sable antelope bull",1,-25.29,31.35,333877.23,7201918.29
"193869",193869,1986,41,"sb","Sable antelope bull",1,-25.32,31.34,332911.41,7198582.97
"194047",194047,1986,43,"sb","Sable antelope bull",1,-25.06,31.4,338609.41,7227453.86
"194190",194190,1986,43,"sb","Sable antelope bull",1,-25.08,31.43,341661.7,7225274.2
"194943",194943,1986,19,"sb","Sable antelope bull",1,-23.63,31.69,366372.36,7386124.24
"195093",195093,1986,19,"sb","Sable antelope bull",1,-23.57,31.61,358146.29,7392690.97
"196253",196253,1986,2,"sb","Sable antelope bull",1,-23.97,31.47,344333.52,7348250.36
"196266",196266,1986,2,"sb","Sable antelope bull",1,-23.99,31.45,342322.69,7346013.31
"196287",196287,1986,2,"sb","Sable antelope bull",1,-24,31.41,338265.4,7344860.53
"196356",196356,1986,47,"sb","Sable antelope bull",1,-22.64,31.15,309886.72,7495149.47
"196473",196473,1986,47,"sb","Sable antelope bull",1,-22.7,31.29,324353.27,7488677.82
"197054",197054,1986,7,"sb","Sable antelope bull",1,-23.65,31.22,318448.07,7383390.91
"197139",197139,1986,7,"sb","Sable antelope bull",2,-23.66,31.29,325602.49,7382370.76
"197217",197217,1986,51,"sb","Sable antelope bull",2,-22.63,31.31,326319.92,7496452.39
"197619",197619,1986,4,"sb","Sable antelope bull",2,-23.79,31.17,313546.4,7367821.66
"197622",197622,1986,4,"sb","Sable antelope bull",1,-23.81,31.17,313574.96,7365606.67
"197974",197974,1986,4,"sb","Sable antelope bull",1,-23.79,31.29,325775.42,7367974.1
"198331",198331,1986,21,"sb","Sable antelope bull",1,-24.21,31.58,355795.74,7321790.32
"198561",198561,1986,6,"sb","Sable antelope bull",1,-23.65,31.4,336810.69,7383608.25
"198572",198572,1986,6,"sb","Sable antelope bull",3,-23.66,31.39,335803.07,7382489.4
"198575",198575,1986,6,"sb","Sable antelope bull",1,-23.65,31.42,338850.92,7383630.97
"198584",198584,1986,6,"sb","Sable antelope bull",1,-23.68,31.38,334808.17,7380263.07
"198593",198593,1986,6,"sb","Sable antelope bull",1,-23.66,31.43,339883.2,7382534.85
"198622",198622,1986,6,"sb","Sable antelope bull",3,-23.7,31.4,336872.8,7378071.31
"198765",198765,1986,54,"sb","Sable antelope bull",1,-22.97,30.95,289835.07,7458333.54
"198824",198824,1986,54,"sb","Sable antelope bull",1,-22.92,31,294887.13,7463941.61
"198833",198833,1986,54,"sb","Sable antelope bull",2,-22.89,31,294841.98,7467263.98
"198870",198870,1986,54,"sb","Sable antelope bull",1,-22.98,31.05,300104.58,7457365.85
"198909",198909,1986,54,"sb","Sable antelope bull",2,-23,31.09,304234.92,7455204.96
"198930",198930,1986,54,"sb","Sable antelope bull",2,-23.01,31.1,305274.49,7454110.86
"198952",198952,1986,49,"sb","Sable antelope bull",1,-22.92,31.24,319506.48,7464256.32
"199046",199046,1986,49,"sb","Sable antelope bull",1,-22.97,31.34,329826.42,7458839
"199134",199134,1986,49,"sb","Sable antelope bull",1,-22.91,31.27,322570.71,7465400.17
"199189",199189,1986,49,"sb","Sable antelope bull",1,-22.93,31.44,340032.63,7463380.58
"199206",199206,1986,49,"sb","Sable antelope bull",2,-22.91,31.38,333854.52,7465528.62
"199734",199734,1986,60,"sb","Sable antelope bull",1,-24.98,31.66,364751.12,7236598.84
"200134",200134,1986,52,"sb","Sable antelope bull",1,-23.08,31.31,326890.94,7446623.19
"200221",200221,1986,52,"sb","Sable antelope bull",2,-23.1,31.33,328965.3,7444432.07
"200263",200263,1986,52,"sb","Sable antelope bull",1,-23.08,31.37,333038,7446693.03
"200472",200472,1986,18,"sb","Sable antelope bull",1,-23.17,31.43,339292.21,7436794.6
"200490",200490,1986,18,"sb","Sable antelope bull",1,-23.17,31.46,342363.58,7436827.4
"200589",200589,1986,18,"sb","Sable antelope bull",1,-23.29,31.5,346595.93,7423582.65
"200810",200810,1986,18,"sb","Sable antelope bull",1,-23.17,31.38,334173.2,7436738.52
"200990",200990,1986,50,"sb","Sable antelope bull",1,-23.09,31.52,348416.32,7445749.3
"201122",201122,1986,50,"sb","Sable antelope bull",1,-23.04,31.41,337087.81,7451167.39
"201140",201140,1986,50,"sb","Sable antelope bull",1,-23.02,31.46,342188.42,7453436.74
"201394",201394,1986,15,"sb","Sable antelope bull",1,-23.41,31.52,348777.7,7410316.07
"201395",201395,1986,15,"sb","Sable antelope bull",1,-23.41,31.5,346733.84,7410294.95
"201837",201837,1986,1,"sb","Sable antelope bull",1,-23.95,31.61,358557.67,7350612.57
"202774",202774,1986,54,"sb","Sable antelope bull",1,-23.02,31.2,315539.23,7453132.91
"202779",202779,1986,54,"sb","Sable antelope bull",1,-23.04,31.19,314541.59,7450905.5
"202791",202791,1986,54,"sb","Sable antelope bull",1,-23.01,31.19,314500.52,7454227.66
"202805",202805,1986,14,"sb","Sable antelope bull",1,-23.42,31.34,330395.2,7409008.38
"202818",202818,1986,14,"sb","Sable antelope bull",1,-23.46,31.36,332489.47,7404602.29
