"","ID","Year","Cenb","Sp","Description","No","Lat","Long","X.coord","Y.coord"
"387105",387105,1994,10,"wa","Waterbuck bull",5,-24.01,31.56,353536.98,7343917.32
"387140",387140,1994,11,"wa","Waterbuck bull",1,-24.05,31.54,351548.45,7339466.82
"387144",387144,1994,11,"wa","Waterbuck bull",1,-24.05,31.54,351548.45,7339466.82
"387155",387155,1994,11,"wa","Waterbuck bull",1,-24.05,31.52,349514.57,7339445.55
"387161",387161,1994,10,"wa","Waterbuck bull",3,-24.03,31.51,348474.15,7341649.6
"387274",387274,1994,10,"wa","Waterbuck bull",1,-23.92,31.47,344273.49,7353787.35
"388301",388301,1994,46,"wa","Waterbuck bull",1,-23.75,31.47,344070.3,7372612.86
"388598",388598,1994,58,"wa","Waterbuck bull",1,-23.54,31.38,334632.56,7395766.47
"388636",388636,1994,58,"wa","Waterbuck bull",3,-23.54,31.41,337695.47,7395800.75
"388820",388820,1994,65,"wa","Waterbuck bull",2,-23.52,31.37,333586.43,7397969.66
"389218",389218,1994,66,"wa","Waterbuck bull",1,-23.58,31.22,318351.56,7391143.06
"389811",389811,1994,3,"wa","Waterbuck bull",1,-23.23,31.23,318896.5,7429915.35
"389858",389858,1994,3,"wa","Waterbuck bull",1,-23.24,31.27,323003.3,7428857.3
"390658",390658,1994,6,"wa","Waterbuck bull",1,-23.5,31.48,344795.22,7400307.58
"390939",390939,1994,8,"wa","Waterbuck bull",3,-23.14,31.43,339256.41,7440116.52
"391588",391588,1994,11,"wa","Waterbuck bull",1,-24.04,31.64,361706.99,7340676.18
"391609",391609,1994,11,"wa","Waterbuck bull",1,-24.09,31.64,361760.59,7335139.39
"391653",391653,1994,11,"wa","Waterbuck bull",1,-24.07,31.58,355638.57,7337293.74
"391659",391659,1994,11,"wa","Waterbuck bull",1,-24.06,31.58,355627.38,7338401.12
"391886",391886,1994,11,"wa","Waterbuck bull",1,-24.09,31.33,330244.7,7334799.17
"392300",392300,1994,15,"wa","Waterbuck bull",1,-24.24,31.65,362937.43,7318538.68
"392724",392724,1994,16,"wa","Waterbuck bull",1,-24.26,31.62,359913.12,7316294.1
"392730",392730,1994,16,"wa","Waterbuck bull",1,-24.29,31.62,359946.02,7312971.92
"392826",392826,1994,15,"wa","Waterbuck bull",1,-24.25,31.65,362948.14,7317431.3
"392849",392849,1994,16,"wa","Waterbuck bull",1,-24.37,31.67,365105.8,7304162.21
"393033",393033,1994,17,"wa","Waterbuck bull",1,-24.03,31.88,386105.13,7341998.69
"393096",393096,1994,17,"wa","Waterbuck bull",1,-24.01,31.88,386087.51,7344213.26
"393106",393106,1994,17,"wa","Waterbuck bull",1,-24.04,31.87,385097.02,7340883.27
"393472",393472,1994,17,"wa","Waterbuck bull",1,-23.99,31.78,375896.58,7346343.35
"394365",394365,1994,19,"wa","Waterbuck bull",1,-24.41,31.98,396582.41,7299999.08
"394846",394846,1994,20,"wa","Waterbuck bull",2,-24.38,31.91,389458.47,7303267.05
"395217",395217,1994,23,"wa","Waterbuck bull",1,-24.47,31.99,397644.84,7293362.6
"395500",395500,1994,23,"wa","Waterbuck bull",1,-24.47,31.99,397644.84,7293362.6
"397406",397406,1994,49,"wa","Waterbuck bull",1,-23.11,31.34,330002.25,7443336.42
"397413",397413,1994,49,"wa","Waterbuck bull",1,-23.12,31.34,330014.85,7442229.08
"397949",397949,1994,50,"wa","Waterbuck bull",1,-23.02,31.05,300163.51,7452936.07
"398233",398233,1994,50,"wa","Waterbuck bull",1,-23.17,31.05,300385.36,7436324.21
"398314",398314,1994,50,"wa","Waterbuck bull",2,-23.16,30.98,293202.31,7437333.96
"398594",398594,1994,51,"wa","Waterbuck bull",1,-22.97,30.93,287784.06,7458304.75
"398600",398600,1994,51,"wa","Waterbuck bull",1,-22.98,30.92,286774.24,7457182.75
"398786",398786,1994,52,"wa","Waterbuck bull",1,-22.91,31.16,311286.44,7465263.27
"398789",398789,1994,52,"wa","Waterbuck bull",2,-22.91,31.15,310260.57,7465250.41
"398836",398836,1994,52,"wa","Waterbuck bull",1,-22.92,31.14,309248.71,7464130.08
"398841",398841,1994,52,"wa","Waterbuck bull",1,-22.89,31.12,307154.66,7467426.2
"398943",398943,1994,52,"wa","Waterbuck bull",1,-23.03,31.19,314527.89,7452012.89
"399106",399106,1994,53,"wa","Waterbuck bull",2,-22.87,31.03,297890.59,7469520.36
