"","ID","Year","Cenb","Sp","Description","No","Lat","Long","X.coord","Y.coord"
"413602",413602,1996,48,"o","Elephant",15,-22.64,31.27,322221.14,7495297.86
"413604",413604,1996,43,"o","Elephant",1,-22.64,31.27,322221.14,7495297.86
"413666",413666,1996,43,"o","Elephant",6,-22.73,31.29,324391.57,7485355.9
"413667",413667,1996,43,"o","Elephant",48,-22.73,31.3,325418.73,7485367.71
"413748",413748,1996,44,"o","Elephant",10,-22.79,31.33,328575.13,7478758.97
"413749",413749,1996,44,"o","Elephant",6,-22.79,31.33,328575.13,7478758.97
"413750",413750,1996,44,"o","Elephant",4,-22.82,31.34,329639.15,7475448.63
