"","ID","Year","Cenb","Sp","Description","No","Lat","Long","X.coord","Y.coord"
"15495",15495,1979,1,"bb","Buffalo bull",2,-23.89,31.57,354419.57,7357216.06
"15514",15514,1979,1,"bb","Buffalo bull",7,-24.03,31.61,358645.06,7341753.72
"15541",15541,1979,1,"bb","Buffalo bull",15,-23.87,31.59,356433.87,7359451.2
"15547",15547,1979,1,"bb","Buffalo bull",4,-24.01,31.63,360657.65,7343988.38
"15554",15554,1979,1,"bb","Buffalo bull",4,-24.01,31.65,362692.1,7344008.03
"15560",15560,1979,1,"bb","Buffalo bull",1,-23.99,31.63,360636.11,7346203.09
"15571",15571,1979,1,"bb","Buffalo bull",2,-23.95,31.65,362628.46,7350652.09
"15583",15583,1979,1,"bb","Buffalo bull",1,-23.91,31.65,362586.12,7355081.44
"15597",15597,1979,1,"bb","Buffalo bull",1,-24.06,31.69,366812.54,7338509.78
"15603",15603,1979,1,"bb","Buffalo bull",4,-24.01,31.67,364726.54,7344027.4
"15650",15650,1979,1,"bb","Buffalo bull",5,-24.06,31.73,370879.78,7338547.12
"15663",15663,1979,1,"bb","Buffalo bull",1,-24.01,31.73,370829.79,7344083.75
"15676",15676,1979,1,"bb","Buffalo bull",1,-24.03,31.73,370849.78,7341869.1
"15748",15748,1979,2,"bb","Buffalo bull",3,-24.01,31.4,337260.61,7343741.58
"15779",15779,1979,2,"bb","Buffalo bull",1,-23.91,31.38,335098.81,7354792.63
"15815",15815,1979,2,"bb","Buffalo bull",1,-23.99,31.42,339270.35,7345979.4
"15874",15874,1979,2,"bb","Buffalo bull",1,-23.87,31.48,345231.96,7359335.27
"15878",15878,1979,2,"bb","Buffalo bull",2,-24.06,31.51,348509.36,7338327.41
"15892",15892,1979,2,"bb","Buffalo bull",5,-24.03,31.53,350508.36,7341671
"15980",15980,1979,2,"bb","Buffalo bull",2,-23.87,31.55,352360.49,7359410.06
"15983",15983,1979,3,"bb","Buffalo bull",1,-23.97,31.17,313804.25,7347886.58
"16008",16008,1979,3,"bb","Buffalo bull",1,-23.89,31.19,315726.07,7356772.88
"16067",16067,1979,3,"bb","Buffalo bull",2,-23.89,31.21,317762.69,7356798.8
"16076",16076,1979,3,"bb","Buffalo bull",1,-23.87,31.21,317734.67,7359013.77
"16080",16080,1979,3,"bb","Buffalo bull",5,-23.87,31.23,319771.6,7359039.39
"16130",16130,1979,3,"bb","Buffalo bull",4,-23.93,31.28,324944.69,7352457.39
"16135",16135,1979,3,"bb","Buffalo bull",3,-23.95,31.28,324971.67,7350242.46
"16152",16152,1979,3,"bb","Buffalo bull",1,-23.87,31.26,322826.96,7359077.27
"16186",16186,1979,3,"bb","Buffalo bull",1,-23.97,31.32,329069.28,7348076.6
"16190",16190,1979,3,"bb","Buffalo bull",1,-23.99,31.3,327060.71,7345837.27
"16227",16227,1979,3,"bb","Buffalo bull",50,-24.06,31.34,331222.11,7338133.62
"16240",16240,1979,3,"bb","Buffalo bull",3,-24.01,31.34,331156.75,7343670.9
"16255",16255,1979,3,"bb","Buffalo bull",2,-23.97,31.36,333139.82,7348124.52
"16259",16259,1979,3,"bb","Buffalo bull",2,-23.99,31.34,331130.64,7345885.81
"16263",16263,1979,3,"bb","Buffalo bull",2,-23.93,31.34,331052.44,7352530.49
"16282",16282,1979,4,"bb","Buffalo bull",1,-23.68,31.15,311349.8,7379977.68
"16290",16290,1979,4,"bb","Buffalo bull",1,-23.7,31.15,311378.54,7377762.7
"16322",16322,1979,4,"bb","Buffalo bull",12,-23.76,31.17,313503.61,7371144.13
"16335",16335,1979,4,"bb","Buffalo bull",1,-23.72,31.19,315485.93,7375600.14
"16340",16340,1979,4,"bb","Buffalo bull",1,-23.7,31.17,313418.17,7377789.04
"16347",16347,1979,4,"bb","Buffalo bull",2,-23.7,31.19,315457.78,7377815.09
"16416",16416,1979,4,"bb","Buffalo bull",1,-23.85,31.26,322799.74,7361292.2
"16420",16420,1979,4,"bb","Buffalo bull",2,-23.85,31.28,324836.94,7361317.08
"16450",16450,1979,4,"bb","Buffalo bull",9,-23.72,31.28,324662.59,7375713.89
"16462",16462,1979,4,"bb","Buffalo bull",5,-23.85,31.3,326874.13,7361341.67
"16473",16473,1979,4,"bb","Buffalo bull",1,-23.81,31.32,328858.81,7365795.73
"16500",16500,1979,4,"bb","Buffalo bull",1,-23.72,31.32,328741,7375762.59
"16525",16525,1979,4,"bb","Buffalo bull",1,-23.76,31.36,332870.43,7371380.49
"16538",16538,1979,5,"bb","Buffalo bull",1,-23.85,31.4,337059.85,7361460.31
"16553",16553,1979,5,"bb","Buffalo bull",1,-23.76,31.38,334908.96,7371403.86
"16567",16567,1979,5,"bb","Buffalo bull",3,-23.85,31.42,339096.96,7361483.17
"16575",16575,1979,5,"bb","Buffalo bull",2,-23.83,31.42,339072.27,7363697.98
"16577",16577,1979,5,"bb","Buffalo bull",3,-23.83,31.44,341109.67,7363720.54
"16588",16588,1979,5,"bb","Buffalo bull",1,-23.78,31.42,339010.62,7369234.96
"16593",16593,1979,5,"bb","Buffalo bull",3,-23.78,31.44,341048.8,7369257.49
"16601",16601,1979,5,"bb","Buffalo bull",3,-23.81,31.46,343123.01,7365957.58
"16633",16633,1979,5,"bb","Buffalo bull",2,-23.81,31.51,348217.21,7366011.97
"16661",16661,1979,5,"bb","Buffalo bull",2,-23.83,31.57,354352.48,7363860.18
"16668",16668,1979,5,"bb","Buffalo bull",3,-23.83,31.59,356389.79,7363880.58
"16673",16673,1979,6,"bb","Buffalo bull",1,-23.66,31.32,328662.7,7382407.1
"16695",16695,1979,6,"bb","Buffalo bull",1,-23.66,31.36,332742.93,7382454.56
"16701",16701,1979,6,"bb","Buffalo bull",1,-23.56,31.34,330574.29,7393504.98
"16710",16710,1979,6,"bb","Buffalo bull",1,-23.58,31.36,332641.3,7391313.71
"16717",16717,1979,6,"bb","Buffalo bull",1,-23.74,31.4,336922.57,7373641.74
"16742",16742,1979,6,"bb","Buffalo bull",4,-23.56,31.38,334657.59,7393551.71
"16750",16750,1979,6,"bb","Buffalo bull",1,-23.58,31.38,334682.64,7391336.95
"16755",16755,1979,6,"bb","Buffalo bull",1,-23.53,31.4,336662.15,7396896.76
"16783",16783,1979,6,"bb","Buffalo bull",2,-23.56,31.42,338740.84,7393597.3
"16789",16789,1979,6,"bb","Buffalo bull",4,-23.56,31.44,340782.44,7393619.67
"16797",16797,1979,6,"bb","Buffalo bull",6,-23.58,31.44,340806.56,7391404.95
"16801",16801,1979,6,"bb","Buffalo bull",3,-23.53,31.42,338704.23,7396919.39
"16810",16810,1979,6,"bb","Buffalo bull",2,-23.68,31.46,342967.17,7380353.45
"16812",16812,1979,6,"bb","Buffalo bull",1,-23.68,31.48,345006.88,7380375.33
"16818",16818,1979,6,"bb","Buffalo bull",4,-23.66,31.46,342943.26,7382568.18
"16822",16822,1979,7,"bb","Buffalo bull",2,-23.64,31.15,311292.38,7384407.62
"16828",16828,1979,7,"bb","Buffalo bull",5,-23.66,31.17,313361.32,7382218.95
"16839",16839,1979,7,"bb","Buffalo bull",1,-23.7,31.23,319536.96,7377866.33
"16852",16852,1979,7,"bb","Buffalo bull",6,-23.66,31.23,319481.98,7382296.15
"16854",16854,1979,7,"bb","Buffalo bull",1,-23.6,31.23,319399.67,7388940.83
"16856",16856,1979,7,"bb","Buffalo bull",1,-23.62,31.23,319427.08,7386725.94
"16861",16861,1979,7,"bb","Buffalo bull",1,-23.66,31.26,322542.25,7382333.77
"16874",16874,1979,7,"bb","Buffalo bull",2,-23.66,31.3,326622.57,7382382.95
"16896",16896,1979,8,"bb","Buffalo bull",3,-23.49,31.28,324356.31,7401184.64
"16899",16899,1979,8,"bb","Buffalo bull",1,-23.43,31.28,324276.88,7407829.07
"16908",16908,1979,8,"bb","Buffalo bull",1,-23.45,31.28,324303.34,7405614.27
"16921",16921,1979,8,"bb","Buffalo bull",1,-23.51,31.3,326425.31,7398994.15
"16958",16958,1979,8,"bb","Buffalo bull",1,-23.51,31.34,330510.21,7399041.94
"16962",16962,1979,8,"bb","Buffalo bull",2,-23.51,31.36,332552.64,7399065.41
"16972",16972,1979,8,"bb","Buffalo bull",2,-23.53,31.36,332577.95,7396850.64
"16974",16974,1979,8,"bb","Buffalo bull",3,-23.47,31.34,330459.05,7403471.48
"16989",16989,1979,8,"bb","Buffalo bull",3,-23.51,31.38,334595.06,7399088.59
"17006",17006,1979,9,"bb","Buffalo bull",1,-23.49,31.07,302906.18,7400912.22
"17009",17009,1979,9,"bb","Buffalo bull",2,-23.6,31.11,307152.64,7388784.17
"17015",17015,1979,9,"bb","Buffalo bull",1,-23.56,31.11,307094.16,7393214.14
"17017",17017,1979,9,"bb","Buffalo bull",6,-23.51,31.09,304978.58,7398724.54
"17021",17021,1979,9,"bb","Buffalo bull",1,-23.51,31.11,307021.2,7398751.57
"17039",17039,1979,9,"bb","Buffalo bull",1,-23.58,31.13,309164.91,7391025.96
"17064",17064,1979,9,"bb","Buffalo bull",2,-23.49,31.13,309034.96,7400993.26
"17134",17134,1979,9,"bb","Buffalo bull",3,-23.58,31.26,322434.42,7391193.24
"17137",17137,1979,10,"bb","Buffalo bull",13,-23.39,31.03,298668.7,7411931.86
"17168",17168,1979,10,"bb","Buffalo bull",1,-23.35,31.05,300653.39,7416389.61
"17184",17184,1979,10,"bb","Buffalo bull",4,-23.33,31.05,300623.51,7418604.58
"17188",17188,1979,10,"bb","Buffalo bull",11,-23.33,31.07,302668.94,7418632.02
"17192",17192,1979,10,"bb","Buffalo bull",2,-23.28,31.05,300548.92,7424142
"17198",17198,1979,10,"bb","Buffalo bull",1,-23.43,31.11,306904.76,7407611.39
"17240",17240,1979,10,"bb","Buffalo bull",4,-23.37,31.13,308862.44,7414282.82
"17259",17259,1979,10,"bb","Buffalo bull",3,-23.37,31.17,312951.91,7414335.22
"17268",17268,1979,10,"bb","Buffalo bull",1,-23.33,31.21,316986.45,7418816.16
"17303",17303,1979,11,"bb","Buffalo bull",1,-23.35,31.26,322126.32,7416663.76
"17309",17309,1979,11,"bb","Buffalo bull",1,-23.33,31.26,322099.66,7418878.55
"17354",17354,1979,12,"bb","Buffalo bull",2,-23.28,30.98,293387.12,7424043.9
"17357",17357,1979,12,"bb","Buffalo bull",3,-23.22,30.98,293294.61,7430688.95
"17361",17361,1979,12,"bb","Buffalo bull",1,-23.18,30.96,291185.26,7435090.39
"17366",17366,1979,12,"bb","Buffalo bull",3,-23.2,30.98,293263.82,7432903.96
"17393",17393,1979,12,"bb","Buffalo bull",1,-23.26,31.07,302565.63,7426384.33
"17404",17404,1979,12,"bb","Buffalo bull",1,-23.22,31.09,304553.82,7430841.25
"17405",17405,1979,12,"bb","Buffalo bull",1,-23.22,31.11,306600.89,7430868.03
"17413",17413,1979,12,"bb","Buffalo bull",4,-23.18,31.11,306543.31,7435297.8
"17418",17418,1979,12,"bb","Buffalo bull",1,-23.26,31.13,308705.02,7426464.76
"17439",17439,1979,12,"bb","Buffalo bull",2,-23.26,31.17,312797.86,7426516.97
"17448",17448,1979,12,"bb","Buffalo bull",3,-23.24,31.19,314816.63,7428757.48
"17507",17507,1979,13,"bb","Buffalo bull",5,-23.7,31.55,352168.31,7378234.99
"17538",17538,1979,13,"bb","Buffalo bull",2,-23.83,31.61,358427.09,7363900.7
"17558",17558,1979,13,"bb","Buffalo bull",4,-23.74,31.59,356290.85,7373846.61
"17574",17574,1979,13,"bb","Buffalo bull",4,-23.7,31.61,358286.32,7378295.95
"17594",17594,1979,13,"bb","Buffalo bull",3,-23.6,31.59,356137.66,7389349.09
"17618",17618,1979,13,"bb","Buffalo bull",3,-23.83,31.65,362501.64,7363940.07
"17620",17620,1979,13,"bb","Buffalo bull",3,-23.76,31.63,360389.58,7371671.8
"17625",17625,1979,13,"bb","Buffalo bull",1,-23.78,31.63,360410.93,7369457.16
"17634",17634,1979,13,"bb","Buffalo bull",5,-23.72,31.63,360346.93,7376101.07
"17652",17652,1979,13,"bb","Buffalo bull",8,-23.7,31.63,360325.63,7378315.7
"17659",17659,1979,13,"bb","Buffalo bull",1,-23.66,31.63,360283.09,7382744.93
"17666",17666,1979,14,"bb","Buffalo bull",1,-23.43,31.36,332451.62,7407924.41
"17676",17676,1979,14,"bb","Buffalo bull",3,-23.47,31.38,334545.13,7403518.07
"17680",17680,1979,14,"bb","Buffalo bull",2,-23.47,31.4,336588.15,7403540.94
"17707",17707,1979,14,"bb","Buffalo bull",1,-23.45,31.44,340650.13,7405800.52
"17728",17728,1979,14,"bb","Buffalo bull",2,-23.58,31.48,344889.11,7391448.86
"17760",17760,1979,14,"bb","Buffalo bull",2,-23.51,31.51,347870.44,7399232.35
"17775",17775,1979,14,"bb","Buffalo bull",1,-23.56,31.57,354052.54,7393758.1
"17788",17788,1979,15,"bb","Buffalo bull",2,-23.33,31.36,332325.81,7418998.04
"17794",17794,1979,15,"bb","Buffalo bull",6,-23.28,31.36,332263.09,7424534.81
"17806",17806,1979,15,"bb","Buffalo bull",3,-23.28,31.4,336354.98,7424580.55
"17810",17810,1979,15,"bb","Buffalo bull",1,-23.43,31.44,340626.14,7408015.2
"17819",17819,1979,15,"bb","Buffalo bull",1,-23.43,31.46,342669.74,7408037.19
"17824",17824,1979,15,"bb","Buffalo bull",2,-23.39,31.48,344666.62,7412488.19
"17836",17836,1979,15,"bb","Buffalo bull",2,-23.33,31.48,344596.72,7419132.09
"17846",17846,1979,15,"bb","Buffalo bull",1,-23.39,31.53,349777.06,7412541.14
"17874",17874,1979,15,"bb","Buffalo bull",4,-23.33,31.53,349709.46,7419184.93
"17880",17880,1979,18,"bb","Buffalo bull",1,-23.26,31.32,328145.48,7426702.67
"17922",17922,1979,18,"bb","Buffalo bull",2,-23.18,31.4,336232.98,7435653.84
"17966",17966,1979,18,"bb","Buffalo bull",2,-23.18,31.42,338280.44,7435676.21
"17977",17977,1979,18,"bb","Buffalo bull",2,-23.14,31.44,340280.43,7440127.52
"17994",17994,1979,18,"bb","Buffalo bull",6,-23.26,31.46,342469.19,7426861.66
"18010",18010,1979,18,"bb","Buffalo bull",12,-23.14,31.46,342328.46,7440149.3
"18034",18034,1979,18,"bb","Buffalo bull",1,-23.22,31.53,349585.95,7431365.1
"18041",18041,1979,18,"bb","Buffalo bull",5,-23.18,31.51,347493.8,7435773.39
"18046",18046,1979,18,"bb","Buffalo bull",2,-23.2,31.51,347516.48,7433558.82
"18050",18050,1979,18,"bb","Buffalo bull",2,-23.2,31.53,349563.55,7433579.66
"18060",18060,1979,18,"bb","Buffalo bull",1,-23.22,31.55,351632.7,7431385.67
"18067",18067,1979,19,"bb","Buffalo bull",1,-23.37,31.53,349754.51,7414755.74
"18078",18078,1979,19,"bb","Buffalo bull",3,-23.85,31.65,362522.74,7361725.42
"18092",18092,1979,19,"bb","Buffalo bull",3,-23.56,31.63,360177.03,7393817.93
"18093",18093,1979,19,"bb","Buffalo bull",1,-23.58,31.63,360198.21,7391603.34
"18101",18101,1979,19,"bb","Buffalo bull",2,-23.85,31.67,364559.69,7361744.69
"18107",18107,1979,19,"bb","Buffalo bull",1,-23.87,31.69,366617.11,7359549.04
"18123",18123,1979,19,"bb","Buffalo bull",5,-23.62,31.67,364321.69,7387212.68
"18143",18143,1979,19,"bb","Buffalo bull",2,-23.87,31.71,368653.73,7359567.74
"18150",18150,1979,19,"bb","Buffalo bull",1,-23.83,31.73,370650.63,7364015.36
"18164",18164,1979,19,"bb","Buffalo bull",1,-23.95,31.76,373822.93,7350754.82
"18177",18177,1979,19,"bb","Buffalo bull",1,-23.89,31.76,373764.62,7357398.64
"18184",18184,1979,19,"bb","Buffalo bull",1,-23.97,31.8,377912.41,7348575.42
"18197",18197,1979,19,"bb","Buffalo bull",5,-23.93,31.82,379910.36,7353021.75
"18220",18220,1979,19,"bb","Buffalo bull",5,-23.97,31.86,384017.34,7348626.07
"18231",18231,1979,19,"bb","Buffalo bull",2,-23.95,31.86,383999.45,7350840.63
"18247",18247,1979,20,"bb","Buffalo bull",3,-24.1,31.36,333307.7,7333727.68
"18320",18320,1979,20,"bb","Buffalo bull",2,-24.08,31.59,356666.46,7336196.61
"18334",18334,1979,20,"bb","Buffalo bull",1,-24.06,31.63,360711.58,7338451.59
"18348",18348,1979,20,"bb","Buffalo bull",4,-24.08,31.65,362766.53,7336256.57
"18352",18352,1979,20,"bb","Buffalo bull",10,-24.03,31.63,360679.21,7341773.67
"18356",18356,1979,20,"bb","Buffalo bull",2,-24.03,31.65,362713.35,7341793.34
"18375",18375,1979,21,"bb","Buffalo bull",8,-24.14,31.48,345554.73,7329435.41
"18397",18397,1979,21,"bb","Buffalo bull",3,-24.2,31.51,348674.22,7322823.68
"18445",18445,1979,21,"bb","Buffalo bull",1,-24.16,31.61,358787.67,7327357.88
"18454",18454,1979,21,"bb","Buffalo bull",3,-24.24,31.63,360906.61,7318518.88
"18480",18480,1979,22,"bb","Buffalo bull",3,-24.45,31.4,337819.21,7295013.3
"18562",18562,1979,22,"bb","Buffalo bull",3,-24.43,31.46,343877.34,7297297.24
"18577",18577,1979,22,"bb","Buffalo bull",4,-24.41,31.46,343852.72,7299512.17
"18590",18590,1979,22,"bb","Buffalo bull",7,-24.35,31.48,345808.14,7306179.28
"18609",18609,1979,22,"bb","Buffalo bull",2,-24.39,31.51,348899.41,7301782.49
"18615",18615,1979,22,"bb","Buffalo bull",1,-24.41,31.51,348923.21,7299567.59
"18637",18637,1979,22,"bb","Buffalo bull",13,-24.39,31.55,352956.38,7301825.48
"18654",18654,1979,22,"bb","Buffalo bull",2,-24.31,31.57,354893.66,7310705.89
"18728",18728,1979,23,"bb","Buffalo bull",9,-24.16,31.67,364883.92,7327417.12
"18739",18739,1979,23,"bb","Buffalo bull",5,-24.1,31.69,366853.86,7334080.4
"18793",18793,1979,23,"bb","Buffalo bull",5,-24.16,31.71,368948.02,7327455.16
"18825",18825,1979,24,"bb","Buffalo bull",3,-24.37,31.61,359019.57,7304102.59
"18869",18869,1979,24,"bb","Buffalo bull",16,-24.39,31.67,365127.02,7301947.43
"18870",18870,1979,24,"bb","Buffalo bull",3,-24.39,31.69,367155.42,7301966.73
"18909",18909,1979,24,"bb","Buffalo bull",12,-24.39,31.76,374254.75,7302031.98
"18953",18953,1979,25,"bb","Buffalo bull",2,-24.1,31.78,376002.27,7334162.89
"18968",18968,1979,25,"bb","Buffalo bull",1,-24.06,31.76,373930.19,7338574.36
"18984",18984,1979,25,"bb","Buffalo bull",4,-24.08,31.78,375983.02,7336377.53
"19029",19029,1979,25,"bb","Buffalo bull",2,-24.06,31.8,377997.36,7338609.67
"19092",19092,1979,25,"bb","Buffalo bull",4,-24.12,31.84,382119.41,7332000
"19098",19098,1979,25,"bb","Buffalo bull",1,-24.12,31.86,384152.02,7332016.68
"19157",19157,1979,25,"bb","Buffalo bull",1,-24.01,31.88,386087.51,7344213.26
"19166",19166,1979,26,"bb","Buffalo bull",2,-24.41,31.78,376302.58,7299835.23
"19179",19179,1979,26,"bb","Buffalo bull",4,-24.26,31.78,376156.82,7316445.55
"19185",19185,1979,26,"bb","Buffalo bull",1,-24.22,31.78,376118.09,7320874.92
"19245",19245,1979,26,"bb","Buffalo bull",9,-24.28,31.8,378206.3,7314248.5
"19261",19261,1979,26,"bb","Buffalo bull",12,-24.39,31.84,382368.1,7302102.16
"19267",19267,1979,26,"bb","Buffalo bull",5,-24.39,31.86,384396.42,7302118.97
"19271",19271,1979,26,"bb","Buffalo bull",6,-24.41,31.84,382386.63,7299887.46
"19344",19344,1979,26,"bb","Buffalo bull",2,-24.39,31.92,390481.31,7302167.66
"19441",19441,1979,27,"bb","Buffalo bull",3,-24.33,31.92,390429.65,7308811.59
"19477",19477,1979,27,"bb","Buffalo bull",8,-24.43,31.96,394571.09,7297769.37
"19501",19501,1979,27,"bb","Buffalo bull",10,-24.41,31.96,394554.47,7299984.02
"19523",19523,1979,27,"bb","Buffalo bull",11,-24.33,31.96,394488.11,7308842.53
"19569",19569,1979,28,"bb","Buffalo bull",1,-24.41,31.82,380358.62,7299870.35
"19701",19701,1979,28,"bb","Buffalo bull",2,-24.51,31.94,392611.35,7288895.34
"19720",19720,1979,28,"bb","Buffalo bull",3,-24.49,31.92,390567.68,7291094.32
"19742",19742,1979,28,"bb","Buffalo bull",24,-24.56,31.96,394679.44,7283374.06
"19857",19857,1979,29,"bb","Buffalo bull",10,-24.49,31.8,378407.41,7290994.01
"19872",19872,1979,29,"bb","Buffalo bull",9,-24.78,31.86,384753.97,7258931.59
"19908",19908,1979,29,"bb","Buffalo bull",1,-24.6,31.84,382563.33,7278847.57
"19919",19919,1979,29,"bb","Buffalo bull",4,-24.62,31.84,382582.01,7276632.82
"19936",19936,1979,29,"bb","Buffalo bull",6,-24.78,31.88,386776,7258948.31
"20114",20114,1979,31,"bb","Buffalo bull",3,-24.51,31.63,361201.73,7288618.98
"20163",20163,1979,31,"bb","Buffalo bull",20,-24.58,31.69,367354.84,7280926.11
"20221",20221,1979,31,"bb","Buffalo bull",27,-24.62,31.73,371446.4,7276534.43
"20262",20262,1979,31,"bb","Buffalo bull",4,-24.49,31.73,371313.77,7290930.62
"20276",20276,1979,31,"bb","Buffalo bull",1,-24.45,31.71,369245.67,7295341.42
"20344",20344,1979,32,"bb","Buffalo bull",4,-24.47,31.44,341899.37,7292844.64
"20407",20407,1979,32,"bb","Buffalo bull",5,-24.53,31.53,351092.64,7286299.87
"20417",20417,1979,32,"bb","Buffalo bull",5,-24.47,31.53,351021.93,7292944.58
"20472",20472,1979,32,"bb","Buffalo bull",2,-24.41,31.55,352979.54,7299610.61
"20547",20547,1979,33,"bb","Buffalo bull",9,-24.7,31.61,359387.8,7267557.33
"20560",20560,1979,33,"bb","Buffalo bull",1,-24.6,31.59,357250.64,7278611.21
"20690",20690,1979,34,"bb","Buffalo bull",10,-24.74,31.73,371569.41,7263245.43
"20758",20758,1979,34,"bb","Buffalo bull",4,-24.66,31.78,376547.41,7272150.67
"20778",20778,1979,34,"bb","Buffalo bull",1,-24.78,31.84,382731.93,7258914.58
"20791",20791,1979,35,"bb","Buffalo bull",5,-24.97,31.61,359692.54,7237655.55
"20817",20817,1979,35,"bb","Buffalo bull",3,-24.95,31.63,361689.25,7239891.05
"20824",20824,1979,35,"bb","Buffalo bull",8,-24.89,31.65,363642.65,7246556.11
"20841",20841,1979,35,"bb","Buffalo bull",2,-24.87,31.63,361600,7248750.87
"20909",20909,1979,35,"bb","Buffalo bull",7,-24.95,31.71,369766.7,7239970.16
"20911",20911,1979,35,"bb","Buffalo bull",6,-24.95,31.73,371786.04,7239989.19
"20989",20989,1979,36,"bb","Buffalo bull",1,-24.89,31.82,380815.26,7246715.71
"21001",21001,1979,36,"bb","Buffalo bull",8,-24.85,31.82,380776.89,7251145.39
"21058",21058,1979,36,"bb","Buffalo bull",17,-24.81,31.84,382760.14,7255592.37
"21126",21126,1979,37,"bb","Buffalo bull",4,-25.16,31.94,393170.72,7216915.33
"21340",21340,1979,37,"bb","Buffalo bull",6,-25.1,32.01,400177.19,7223613.46
"21345",21345,1979,37,"bb","Buffalo bull",9,-25.1,32.03,402193.94,7223628.1
"21353",21353,1979,37,"bb","Buffalo bull",3,-25.06,32.01,400144.74,7228043.08
"21366",21366,1979,37,"bb","Buffalo bull",5,-25.01,32.01,400104.25,7233580.07
"21383",21383,1979,37,"bb","Buffalo bull",3,-24.91,32.01,400023.5,7244653.94
"21477",21477,1979,38,"bb","Buffalo bull",10,-25.1,31.88,387068.13,7223511.06
"21539",21539,1979,38,"bb","Buffalo bull",4,-25.12,31.92,391119.44,7221329.05
"21556",21556,1979,39,"bb","Buffalo bull",6,-25.14,31.19,317541.4,7218325.48
"21562",21562,1979,39,"bb","Buffalo bull",1,-25.12,31.19,317511.67,7220540.8
"21574",21574,1979,39,"bb","Buffalo bull",10,-25.16,31.21,319587.36,7216137.09
"21677",21677,1979,39,"bb","Buffalo bull",2,-25.1,31.32,330593.5,7222925.56
"21942",21942,1979,40,"bb","Buffalo bull",13,-25.2,31.36,334762.48,7211899.16
"21987",21987,1979,41,"bb","Buffalo bull",12,-25.28,31.34,332856.53,7203013.48
"21988",21988,1979,41,"bb","Buffalo bull",2,-25.28,31.36,334870.66,7203038.26
"22021",22021,1979,41,"bb","Buffalo bull",5,-25.31,31.38,336924.94,7199739.9
"22032",22032,1979,41,"bb","Buffalo bull",4,-25.26,31.38,336858.04,7205277.95
"22354",22354,1979,42,"bb","Buffalo bull",4,-25.28,31.55,354004.29,7203258.64
"22360",22360,1979,42,"bb","Buffalo bull",2,-25.22,31.55,353932.53,7209903.94
"22701",22701,1979,44,"bb","Buffalo bull",7,-25.18,31.71,370009.7,7214498.19
"22781",22781,1979,44,"bb","Buffalo bull",3,-25.37,31.84,383292.63,7193575.42
"22789",22789,1979,44,"bb","Buffalo bull",3,-25.31,31.84,383235.04,7200220.3
"22816",22816,1979,44,"bb","Buffalo bull",28,-25.35,31.88,387298.81,7195824.68
"22953",22953,1979,45,"bb","Buffalo bull",5,-25.33,31.9,389293.29,7198056.31
"22968",22968,1979,45,"bb","Buffalo bull",2,-25.28,31.9,389247.84,7203593.62
"23018",23018,1979,45,"bb","Buffalo bull",8,-25.16,31.9,389139.11,7216883.01
"23023",23023,1979,45,"bb","Buffalo bull",6,-25.12,31.88,387086.51,7221296.18
"23057",23057,1979,45,"bb","Buffalo bull",8,-25.18,31.94,393188.15,7214700.46
"23070",23070,1979,45,"bb","Buffalo bull",5,-25.14,31.92,391137.18,7219114.19
"23085",23085,1979,46,"bb","Buffalo bull",2,-25.35,31.94,393336.82,7195873.87
"23094",23094,1979,46,"bb","Buffalo bull",3,-25.33,31.92,391306.29,7198072.7
"23123",23123,1979,46,"bb","Buffalo bull",11,-25.39,31.96,395383.93,7191459.83
"23152",23152,1979,46,"bb","Buffalo bull",1,-25.35,31.98,397362.12,7195905.15
"23180",23180,1979,46,"bb","Buffalo bull",3,-25.33,31.96,395332.27,7198104.57
"23225",23225,1979,46,"bb","Buffalo bull",5,-25.18,31.98,397219.06,7214731.59
"23297",23297,1979,47,"bb","Buffalo bull",2,-22.66,31.15,309914.27,7492934.76
"23299",23299,1979,47,"bb","Buffalo bull",1,-22.76,31.19,314160.31,7481911.89
"23306",23306,1979,47,"bb","Buffalo bull",2,-22.68,31.17,311997.02,7490745.5
"23308",23308,1979,47,"bb","Buffalo bull",3,-22.64,31.17,311942.5,7495174.9
"23321",23321,1979,47,"bb","Buffalo bull",2,-22.7,31.21,316134.03,7488580.91
"23378",23378,1979,48,"bb","Buffalo bull",5,-22.87,31.21,316361.87,7469755.99
"23459",23459,1979,48,"bb","Buffalo bull",8,-22.81,31.38,333732.87,7476601.51
"23461",23461,1979,48,"bb","Buffalo bull",4,-22.83,31.38,333757.16,7474386.94
"23463",23463,1979,48,"bb","Buffalo bull",8,-22.83,31.4,335809.92,7474409.33
"23470",23470,1979,48,"bb","Buffalo bull",2,-22.89,31.42,337933.85,7467787.8
"23476",23476,1979,48,"bb","Buffalo bull",4,-22.85,31.42,337886.37,7472216.9
"23480",23480,1979,48,"bb","Buffalo bull",3,-22.87,31.42,337910.1,7470002.35
"23487",23487,1979,49,"bb","Buffalo bull",5,-22.93,31.23,318494.05,7463136.65
"23497",23497,1979,49,"bb","Buffalo bull",8,-22.93,31.26,321571.09,7463173.39
"23540",23540,1979,49,"bb","Buffalo bull",3,-23.01,31.4,336026.73,7454478.13
"23551",23551,1979,49,"bb","Buffalo bull",1,-22.95,31.4,335954.28,7461121.91
"23569",23569,1979,49,"bb","Buffalo bull",10,-22.93,31.44,340032.63,7463380.58
"23575",23575,1979,49,"bb","Buffalo bull",3,-22.91,31.42,337957.62,7465573.24
"23579",23579,1979,49,"bb","Buffalo bull",16,-22.91,31.44,340009.15,7465595.13
"23590",23590,1979,50,"bb","Buffalo bull",8,-23.06,31.4,336087.24,7448941.61
"23601",23601,1979,50,"bb","Buffalo bull",10,-23.1,31.44,340233.07,7444556.72
"23609",23609,1979,50,"bb","Buffalo bull",10,-23.08,31.44,340209.41,7446771.31
"23613",23613,1979,50,"bb","Buffalo bull",3,-23.03,31.42,338100.65,7452285.79
"23644",23644,1979,50,"bb","Buffalo bull",6,-23.08,31.48,344307.29,7446814.5
"23646",23646,1979,50,"bb","Buffalo bull",3,-23.18,31.53,349541.17,7435794.21
"23651",23651,1979,50,"bb","Buffalo bull",6,-23.14,31.53,349496.47,7440223.3
"23653",23653,1979,50,"bb","Buffalo bull",2,-23.16,31.51,347471.13,7437987.95
"23663",23663,1979,50,"bb","Buffalo bull",2,-23.12,31.51,347425.86,7442417.06
"23668",23668,1979,50,"bb","Buffalo bull",1,-23.12,31.53,349474.15,7442437.84
"23671",23671,1979,50,"bb","Buffalo bull",1,-23.08,31.51,347380.66,7446846.15
"23682",23682,1979,50,"bb","Buffalo bull",7,-23.16,31.55,351566.48,7438029.29
"23687",23687,1979,51,"bb","Buffalo bull",2,-22.7,31.32,327435.42,7488713.01
"23714",23714,1979,52,"bb","Buffalo bull",3,-23.18,31.19,314733.88,7435401.94
"23734",23734,1979,52,"bb","Buffalo bull",2,-23.08,31.19,314596.42,7446475.94
"23736",23736,1979,52,"bb","Buffalo bull",4,-23.18,31.21,316781.49,7435427.27
"23739",23739,1979,52,"bb","Buffalo bull",8,-23.18,31.23,318829.08,7435452.31
"23741",23741,1979,52,"bb","Buffalo bull",3,-23.2,31.21,316808.74,7433212.47
"23765",23765,1979,52,"bb","Buffalo bull",3,-23.18,31.26,321900.43,7435489.36
"23780",23780,1979,52,"bb","Buffalo bull",1,-23.12,31.28,323869.55,7442157.89
"23842",23842,1979,52,"bb","Buffalo bull",3,-23.06,31.38,334037.96,7448919.05
"23864",23864,1979,53,"bb","Buffalo bull",8,-23.12,30.94,289043.48,7441706.64
"23875",23875,1979,53,"bb","Buffalo bull",4,-23.01,30.94,288871.8,7453889.2
"23892",23892,1979,53,"bb","Buffalo bull",3,-23.16,30.96,291154.21,7437305.41
"23923",23923,1979,53,"bb","Buffalo bull",4,-23.01,30.98,292972.58,7453946.3
"23927",23927,1979,53,"bb","Buffalo bull",1,-23.03,30.96,290953.05,7451702.91
"23934",23934,1979,53,"bb","Buffalo bull",3,-22.99,30.96,290891.37,7456132.86
"23937",23937,1979,53,"bb","Buffalo bull",2,-22.99,30.98,292942.05,7456161.25
"23967",23967,1979,53,"bb","Buffalo bull",4,-23.01,31.01,296048.11,7453988.38
"23971",23971,1979,53,"bb","Buffalo bull",3,-23.03,31.01,296078.21,7451773.45
"23983",23983,1979,53,"bb","Buffalo bull",2,-23.18,31.07,302447.92,7435244.04
"24014",24014,1979,53,"bb","Buffalo bull",3,-23.18,31.09,304495.62,7435271.06
"24029",24029,1979,53,"bb","Buffalo bull",2,-23.12,31.11,306457.1,7441942.43
"24042",24042,1979,53,"bb","Buffalo bull",2,-23.03,31.11,306328.2,7451909.28
"24062",24062,1979,53,"bb","Buffalo bull",8,-23.12,31.15,310554.25,7441994.95
"24069",24069,1979,53,"bb","Buffalo bull",1,-23.06,31.15,310470.08,7448639.42
"24079",24079,1979,53,"bb","Buffalo bull",3,-23.14,31.17,312630.6,7439805.97
"24087",24087,1979,54,"bb","Buffalo bull",4,-22.97,30.94,288809.56,7458319.18
"24092",24092,1979,54,"bb","Buffalo bull",1,-22.95,30.94,288778.48,7460534.17
"24098",24098,1979,54,"bb","Buffalo bull",3,-22.97,30.96,290860.57,7458347.83
"24118",24118,1979,54,"bb","Buffalo bull",3,-22.91,30.96,290768.31,7464992.72
"24171",24171,1979,54,"bb","Buffalo bull",5,-23.01,31.09,304249.35,7454097.53
"24229",24229,1979,54,"bb","Buffalo bull",6,-23.03,31.17,312477.99,7451987.41
"24243",24243,1979,54,"bb","Buffalo bull",3,-22.93,31.19,314391.27,7463086.7
"24249",24249,1979,54,"bb","Buffalo bull",2,-22.95,31.19,314418.55,7460871.95
"24286",24286,1979,55,"bb","Buffalo bull",5,-22.85,30.98,292729.08,7471665.81
"24295",24295,1979,55,"bb","Buffalo bull",2,-22.83,30.98,292698.76,7473880.73
"24302",24302,1979,55,"bb","Buffalo bull",2,-22.81,31.01,295748.52,7476137.45
"24305",24305,1979,55,"bb","Buffalo bull",2,-22.81,31.03,297801.87,7476164.97
"24306",24306,1979,55,"bb","Buffalo bull",5,-22.83,31.01,295778.37,7473922.56
"24309",24309,1979,55,"bb","Buffalo bull",5,-22.83,31.03,297831.42,7473950.1
"24310",24310,1979,55,"bb","Buffalo bull",4,-22.76,31.01,295674.01,7481674.64
"24314",24314,1979,55,"bb","Buffalo bull",1,-22.78,31.01,295703.79,7479459.76
"24329",24329,1979,55,"bb","Buffalo bull",6,-22.87,31.07,301995.43,7469574.67
"24336",24336,1979,55,"bb","Buffalo bull",21,-22.83,31.07,301937.47,7474004.34
"24360",24360,1979,55,"bb","Buffalo bull",9,-22.83,31.11,306043.45,7474057.47
"24380",24380,1979,55,"bb","Buffalo bull",1,-22.81,31.15,310121.62,7476324.24
"24387",24387,1979,55,"bb","Buffalo bull",9,-22.76,31.15,310052.36,7481861.11
"24394",24394,1979,55,"bb","Buffalo bull",1,-22.89,31.17,312284.77,7467490.83
"24398",24398,1979,55,"bb","Buffalo bull",1,-22.89,31.19,314336.78,7467516.19
"24408",24408,1979,55,"bb","Buffalo bull",1,-22.91,31.19,314364.02,7465301.45
"24412",24412,1979,55,"bb","Buffalo bull",9,-22.85,31.17,312229.76,7471920.33
"24418",24418,1979,55,"bb","Buffalo bull",3,-22.87,31.17,312257.25,7469705.58
"24421",24421,1979,55,"bb","Buffalo bull",2,-22.87,31.19,314309.57,7469730.92
"24449",24449,1979,56,"bb","Buffalo bull",4,-25.35,31.46,345030.26,7195404.51
"24464",24464,1979,56,"bb","Buffalo bull",2,-25.31,31.46,344979.3,7199834.88
"24474",24474,1979,56,"bb","Buffalo bull",7,-25.33,31.46,345004.77,7197619.7
