"","ID","Year","Cenb","Sp","Description","No","Lat","Long","X.coord","Y.coord"
"399931",399931,1995,65,"w","Blue wildebeest",3,-23.39,31.28,324224.03,7412258.67
"400096",400096,1995,2,"w","Blue wildebeest",4,-23.47,31.08,303898.07,7403140.89
"400189",400189,1995,66,"w","Blue wildebeest",15,-23.53,31.2,316240.57,7396654.79
"400208",400208,1995,66,"w","Blue wildebeest",15,-23.52,31.21,317247.87,7397775
"400225",400225,1995,66,"w","Blue wildebeest",2,-23.46,31.2,316143.44,7404406.88
"400229",400229,1995,66,"w","Blue wildebeest",8,-23.47,31.22,318200.45,7403324.87
"400233",400233,1995,66,"w","Blue wildebeest",1,-23.49,31.23,319249.29,7401122.63
"400299",400299,1995,2,"w","Blue wildebeest",7,-23.33,31.01,296532.61,7418548.86
"400312",400312,1995,2,"w","Blue wildebeest",3,-23.32,31.02,297540.18,7419670.39
"400334",400334,1995,2,"w","Blue wildebeest",5,-23.31,31.04,299570.79,7420805.74
"400461",400461,1995,3,"w","Blue wildebeest",2,-23.39,31.27,323201.87,7412246.45
"400479",400479,1995,7,"w","Blue wildebeest",16,-23.33,31.32,328235.39,7418951.1
"400495",400495,1995,3,"w","Blue wildebeest",1,-23.3,31.29,325128.29,7422237.29
"400512",400512,1995,3,"w","Blue wildebeest",3,-23.29,31.28,324092.29,7423332.56
"400517",400517,1995,3,"w","Blue wildebeest",3,-23.28,31.28,324079.14,7424439.94
"400634",400634,1995,4,"w","Blue wildebeest",1,-23.29,31,295448.66,7422964.78
"400711",400711,1995,4,"w","Blue wildebeest",1,-23.28,31.03,298502.72,7424114.32
"400730",400730,1995,4,"w","Blue wildebeest",2,-23.22,31.03,298412.49,7430759.24
"400805",400805,1995,4,"w","Blue wildebeest",1,-23.26,31.11,306658.57,7426438.23
"400865",400865,1995,4,"w","Blue wildebeest",2,-23.22,31.14,309671.47,7430907.66
"400867",400867,1995,4,"w","Blue wildebeest",1,-23.22,31.14,309671.47,7430907.66
"400927",400927,1995,5,"w","Blue wildebeest",1,-23.66,31.56,353143.27,7382674.66
"400936",400936,1995,5,"w","Blue wildebeest",1,-23.67,31.54,351114.62,7381546.6
"400951",400951,1995,5,"w","Blue wildebeest",11,-23.67,31.54,351114.62,7381546.6
"400952",400952,1995,5,"w","Blue wildebeest",5,-23.67,31.54,351114.62,7381546.6
"400954",400954,1995,5,"w","Blue wildebeest",2,-23.67,31.54,351114.62,7381546.6
"400956",400956,1995,5,"w","Blue wildebeest",10,-23.69,31.55,352157.05,7379342.33
"400962",400962,1995,5,"w","Blue wildebeest",1,-23.62,31.51,347997.11,7387051.69
"400979",400979,1995,5,"w","Blue wildebeest",8,-23.65,31.48,344971.5,7383697.41
"400980",400980,1995,5,"w","Blue wildebeest",16,-23.65,31.48,344971.5,7383697.41
"401074",401074,1995,5,"w","Blue wildebeest",1,-23.75,31.59,356301.83,7372739.28
"401077",401077,1995,5,"w","Blue wildebeest",2,-23.76,31.58,355293.61,7371621.8
"401097",401097,1995,5,"w","Blue wildebeest",2,-23.71,31.54,351159.98,7377117.24
"401127",401127,1995,5,"w","Blue wildebeest",1,-23.62,31.6,357179.78,7387144.5
"401148",401148,1995,6,"w","Blue wildebeest",1,-23.42,31.37,333460.92,7409043.37
"401156",401156,1995,6,"w","Blue wildebeest",20,-23.44,31.43,339616.41,7406896.76
"401160",401160,1995,6,"w","Blue wildebeest",1,-23.43,31.37,333473.45,7407936.01
"401176",401176,1995,6,"w","Blue wildebeest",5,-23.48,31.48,344771.8,7402522.25
"401196",401196,1995,6,"w","Blue wildebeest",1,-23.48,31.39,335579.04,7402422.18
"401221",401221,1995,6,"w","Blue wildebeest",19,-23.56,31.52,348948.72,7393706.28
"401223",401223,1995,6,"w","Blue wildebeest",2,-23.56,31.53,349969.49,7393716.79
"401234",401234,1995,6,"w","Blue wildebeest",1,-23.59,31.52,348983.05,7390384.29
"401308",401308,1995,7,"w","Blue wildebeest",15,-23.38,31.49,345677.13,7413606.24
"401318",401318,1995,7,"w","Blue wildebeest",1,-23.41,31.44,340602.17,7410229.88
"401350",401350,1995,7,"w","Blue wildebeest",5,-23.39,31.38,334445.5,7412376.97
"401357",401357,1995,7,"w","Blue wildebeest",1,-23.39,31.37,333423.37,7412365.46
"401362",401362,1995,7,"w","Blue wildebeest",1,-23.36,31.37,333385.87,7415687.54
"401384",401384,1995,7,"w","Blue wildebeest",1,-23.31,31.35,331277.96,7421201.13
"401421",401421,1995,7,"w","Blue wildebeest",2,-23.27,31.37,333273.62,7425653.7
"401549",401549,1995,8,"w","Blue wildebeest",1,-23.21,31.44,340363.5,7432376.37
"401572",401572,1995,8,"w","Blue wildebeest",20,-23.17,31.43,339292.21,7436794.6
"401586",401586,1995,8,"w","Blue wildebeest",1,-23.2,31.41,337280.92,7433450.42
"402173",402173,1995,12,"w","Blue wildebeest",5,-24.13,31.48,345542.72,7330542.83
"402182",402182,1995,12,"w","Blue wildebeest",1,-24.18,31.63,360841.45,7325163.17
"402232",402232,1995,12,"w","Blue wildebeest",1,-24.24,31.63,360906.61,7318518.88
"402280",402280,1995,12,"w","Blue wildebeest",1,-24.2,31.61,358831.7,7322928.35
"402290",402290,1995,12,"w","Blue wildebeest",1,-24.23,31.62,359880.25,7319616.26
"402292",402292,1995,12,"w","Blue wildebeest",2,-24.23,31.62,359880.25,7319616.26
"402295",402295,1995,12,"w","Blue wildebeest",10,-24.24,31.62,359891.2,7318508.88
"402297",402297,1995,12,"w","Blue wildebeest",1,-24.24,31.62,359891.2,7318508.88
"402301",402301,1995,12,"w","Blue wildebeest",1,-24.25,31.62,359902.16,7317401.49
"402305",402305,1995,12,"w","Blue wildebeest",11,-24.23,31.61,358864.76,7319606.19
"402321",402321,1995,12,"w","Blue wildebeest",1,-24.18,31.6,357793.78,7325132.99
"402331",402331,1995,12,"w","Blue wildebeest",2,-24.24,31.61,358875.79,7318498.8
"402352",402352,1995,12,"w","Blue wildebeest",6,-24.19,31.58,355773.23,7324005.11
"402482",402482,1995,13,"w","Blue wildebeest",8,-24.33,31.55,352887.01,7308470.04
"402483",402483,1995,13,"w","Blue wildebeest",2,-24.34,31.55,352898.56,7307362.62
"402533",402533,1995,13,"w","Blue wildebeest",8,-24.34,31.45,342752.04,7307253.11
"402537",402537,1995,13,"w","Blue wildebeest",7,-24.34,31.45,342752.04,7307253.11
"402541",402541,1995,13,"w","Blue wildebeest",10,-24.34,31.45,342752.04,7307253.11
"402544",402544,1995,13,"w","Blue wildebeest",5,-24.35,31.4,337691.41,7306088.14
"402546",402546,1995,14,"w","Blue wildebeest",3,-24.48,31.46,343938.97,7291759.89
"402547",402547,1995,14,"w","Blue wildebeest",2,-24.48,31.46,343938.97,7291759.89
"402548",402548,1995,14,"w","Blue wildebeest",4,-24.48,31.45,342925.42,7291748.57
"402549",402549,1995,14,"w","Blue wildebeest",6,-24.48,31.45,342925.42,7291748.57
"402551",402551,1995,14,"w","Blue wildebeest",2,-24.48,31.45,342925.42,7291748.57
"402552",402552,1995,14,"w","Blue wildebeest",6,-24.48,31.44,341911.87,7291737.16
"402553",402553,1995,14,"w","Blue wildebeest",2,-24.48,31.44,341911.87,7291737.16
"402555",402555,1995,14,"w","Blue wildebeest",1,-24.48,31.43,340898.32,7291725.69
"402558",402558,1995,14,"w","Blue wildebeest",1,-24.47,31.4,337844.82,7292798.32
"402559",402559,1995,14,"w","Blue wildebeest",1,-24.47,31.41,338858.47,7292810.01
"402565",402565,1995,14,"w","Blue wildebeest",1,-24.47,31.45,342913,7292856.04
"402568",402568,1995,14,"w","Blue wildebeest",1,-24.47,31.46,343926.63,7292867.37
"402572",402572,1995,14,"w","Blue wildebeest",1,-24.46,31.44,341886.88,7293952.12
"402574",402574,1995,14,"w","Blue wildebeest",1,-24.46,31.41,338845.74,7293917.5
"402584",402584,1995,14,"w","Blue wildebeest",1,-24.46,31.44,341886.88,7293952.12
"402585",402585,1995,14,"w","Blue wildebeest",6,-24.45,31.44,341874.4,7295059.6
"402586",402586,1995,14,"w","Blue wildebeest",14,-24.45,31.44,341874.4,7295059.6
"402588",402588,1995,14,"w","Blue wildebeest",12,-24.45,31.44,341874.4,7295059.6
"402589",402589,1995,14,"w","Blue wildebeest",10,-24.45,31.42,339846.81,7295036.6
"402590",402590,1995,14,"w","Blue wildebeest",4,-24.45,31.41,338833.01,7295024.99
"402594",402594,1995,14,"w","Blue wildebeest",1,-24.44,31.41,338820.29,7296132.47
"402595",402595,1995,14,"w","Blue wildebeest",2,-24.44,31.42,339834.17,7296144.08
"402597",402597,1995,14,"w","Blue wildebeest",1,-24.44,31.43,340848.04,7296155.61
"402605",402605,1995,14,"w","Blue wildebeest",3,-24.44,31.42,339834.17,7296144.08
"402609",402609,1995,14,"w","Blue wildebeest",1,-24.44,31.41,338820.29,7296132.47
"402610",402610,1995,14,"w","Blue wildebeest",2,-24.43,31.39,336779.64,7297216.53
"402611",402611,1995,14,"w","Blue wildebeest",4,-24.43,31.39,336779.64,7297216.53
"402612",402612,1995,14,"w","Blue wildebeest",1,-24.43,31.4,337793.61,7297228.28
"402618",402618,1995,14,"w","Blue wildebeest",14,-24.42,31.45,342851,7298393.4
"402619",402619,1995,14,"w","Blue wildebeest",1,-24.42,31.44,341836.97,7298382.02
"402621",402621,1995,14,"w","Blue wildebeest",3,-24.42,31.44,341836.97,7298382.02
"402624",402624,1995,14,"w","Blue wildebeest",1,-24.42,31.43,340822.94,7298370.57
"402626",402626,1995,14,"w","Blue wildebeest",3,-24.42,31.4,337780.82,7298335.77
"402627",402627,1995,14,"w","Blue wildebeest",1,-24.42,31.4,337780.82,7298335.77
"402628",402628,1995,14,"w","Blue wildebeest",1,-24.42,31.39,336766.77,7298324.02
"402629",402629,1995,14,"w","Blue wildebeest",2,-24.43,31.39,336779.64,7297216.53
"402630",402630,1995,14,"w","Blue wildebeest",5,-24.43,31.39,336779.64,7297216.53
"402633",402633,1995,14,"w","Blue wildebeest",1,-24.43,31.38,335765.67,7297204.71
"402634",402634,1995,14,"w","Blue wildebeest",10,-24.42,31.4,337780.82,7298335.77
"402638",402638,1995,14,"w","Blue wildebeest",1,-24.42,31.43,340822.94,7298370.57
"402641",402641,1995,14,"w","Blue wildebeest",3,-24.42,31.44,341836.97,7298382.02
"402642",402642,1995,14,"w","Blue wildebeest",2,-24.42,31.44,341836.97,7298382.02
"402643",402643,1995,14,"w","Blue wildebeest",7,-24.42,31.44,341836.97,7298382.02
"402645",402645,1995,14,"w","Blue wildebeest",13,-24.42,31.45,342851,7298393.4
"402647",402647,1995,14,"w","Blue wildebeest",1,-24.41,31.45,342838.61,7299500.87
"402650",402650,1995,14,"w","Blue wildebeest",2,-24.41,31.43,340810.39,7299478.04
"402660",402660,1995,14,"w","Blue wildebeest",3,-24.41,31.46,343852.72,7299512.17
"402662",402662,1995,14,"w","Blue wildebeest",8,-24.4,31.45,342826.23,7300608.34
"402664",402664,1995,14,"w","Blue wildebeest",1,-24.4,31.44,341812.04,7300596.96
"402665",402665,1995,14,"w","Blue wildebeest",4,-24.4,31.43,340797.85,7300585.52
"402671",402671,1995,14,"w","Blue wildebeest",1,-24.39,31.44,341799.58,7301704.43
"402673",402673,1995,14,"w","Blue wildebeest",3,-24.39,31.45,342813.85,7301715.8
"402683",402683,1995,14,"w","Blue wildebeest",1,-24.37,31.46,343803.54,7303942.02
"402687",402687,1995,14,"w","Blue wildebeest",1,-24.37,31.44,341774.68,7303919.37
"402688",402688,1995,14,"w","Blue wildebeest",1,-24.37,31.42,339745.81,7303896.42
"402696",402696,1995,14,"w","Blue wildebeest",1,-24.37,31.46,343803.54,7303942.02
"402700",402700,1995,14,"w","Blue wildebeest",1,-24.36,31.42,339733.21,7305003.89
"402704",402704,1995,13,"w","Blue wildebeest",1,-24.35,31.41,338706.01,7306099.79
"402709",402709,1995,13,"w","Blue wildebeest",20,-24.35,31.42,339720.61,7306111.36
"402713",402713,1995,14,"w","Blue wildebeest",24,-24.41,31.46,343852.72,7299512.17
"402715",402715,1995,14,"w","Blue wildebeest",1,-24.41,31.46,343852.72,7299512.17
"402719",402719,1995,14,"w","Blue wildebeest",6,-24.44,31.46,343889.65,7296189.78
"402722",402722,1995,14,"w","Blue wildebeest",12,-24.41,31.46,343852.72,7299512.17
"402748",402748,1995,14,"w","Blue wildebeest",16,-24.43,31.47,344891.28,7297308.48
"402757",402757,1995,14,"w","Blue wildebeest",1,-24.4,31.48,345868.78,7300642.02
"402770",402770,1995,14,"w","Blue wildebeest",7,-24.42,31.48,345893.07,7298427.1
"402772",402772,1995,14,"w","Blue wildebeest",2,-24.43,31.48,345905.22,7297319.65
"402785",402785,1995,14,"w","Blue wildebeest",6,-24.45,31.48,345929.54,7295104.72
"402786",402786,1995,14,"w","Blue wildebeest",1,-24.45,31.48,345929.54,7295104.72
"402789",402789,1995,14,"w","Blue wildebeest",1,-24.44,31.49,346931.23,7296223.28
"402797",402797,1995,14,"w","Blue wildebeest",5,-24.37,31.51,348875.62,7303997.37
"402804",402804,1995,14,"w","Blue wildebeest",1,-24.4,31.5,347897.13,7300664.11
"402807",402807,1995,14,"w","Blue wildebeest",1,-24.43,31.5,347933.09,7297341.75
"402812",402812,1995,14,"w","Blue wildebeest",9,-24.44,31.5,347945.09,7296234.3
"402813",402813,1995,14,"w","Blue wildebeest",1,-24.45,31.49,346943.32,7295115.82
"402819",402819,1995,14,"w","Blue wildebeest",1,-24.44,31.5,347945.09,7296234.3
"402820",402820,1995,14,"w","Blue wildebeest",1,-24.44,31.5,347945.09,7296234.3
"402824",402824,1995,14,"w","Blue wildebeest",3,-24.43,31.51,348947.02,7297352.7
"402836",402836,1995,14,"w","Blue wildebeest",11,-24.43,31.51,348947.02,7297352.7
"402839",402839,1995,14,"w","Blue wildebeest",1,-24.44,31.51,348958.94,7296245.25
"402863",402863,1995,14,"w","Blue wildebeest",1,-24.41,31.55,352979.54,7299610.61
"402910",402910,1995,15,"w","Blue wildebeest",5,-24.08,31.69,366833.19,7336295.09
"402925",402925,1995,15,"w","Blue wildebeest",5,-24.09,31.7,367860.1,7335197.2
"402927",402927,1995,15,"w","Blue wildebeest",3,-24.09,31.71,368876.68,7335206.58
"402928",402928,1995,15,"w","Blue wildebeest",4,-24.09,31.72,369893.25,7335215.88
"402935",402935,1995,15,"w","Blue wildebeest",6,-24.09,31.69,366843.52,7335187.74
"402940",402940,1995,15,"w","Blue wildebeest",1,-24.1,31.67,364820.85,7334061.27
"402949",402949,1995,15,"w","Blue wildebeest",1,-24.1,31.7,367870.36,7334089.85
"402950",402950,1995,15,"w","Blue wildebeest",1,-24.1,31.71,368886.86,7334099.23
"402953",402953,1995,15,"w","Blue wildebeest",7,-24.1,31.72,369903.36,7334108.55
"402956",402956,1995,15,"w","Blue wildebeest",4,-24.11,31.72,369913.46,7333001.21
"402959",402959,1995,15,"w","Blue wildebeest",20,-24.11,31.7,367880.63,7332982.51
"402961",402961,1995,15,"w","Blue wildebeest",10,-24.11,31.7,367880.63,7332982.51
"402963",402963,1995,15,"w","Blue wildebeest",5,-24.11,31.69,366864.2,7332973.05
"402969",402969,1995,15,"w","Blue wildebeest",3,-24.11,31.66,363814.92,7332944.24
"402975",402975,1995,15,"w","Blue wildebeest",1,-24.12,31.67,364841.86,7331846.56
"402976",402976,1995,15,"w","Blue wildebeest",1,-24.12,31.67,364841.86,7331846.56
"402977",402977,1995,15,"w","Blue wildebeest",1,-24.12,31.68,365858.21,7331856.16
"402978",402978,1995,15,"w","Blue wildebeest",15,-24.12,31.68,365858.21,7331856.16
"402979",402979,1995,15,"w","Blue wildebeest",5,-24.12,31.69,366874.55,7331865.7
"402987",402987,1995,15,"w","Blue wildebeest",8,-24.12,31.72,369923.57,7331893.86
"402988",402988,1995,15,"w","Blue wildebeest",4,-24.12,31.72,369923.57,7331893.86
"402992",402992,1995,15,"w","Blue wildebeest",6,-24.13,31.72,369933.68,7330786.52
"402993",402993,1995,15,"w","Blue wildebeest",6,-24.13,31.72,369933.68,7330786.52
"402995",402995,1995,15,"w","Blue wildebeest",7,-24.13,31.71,368917.42,7330777.2
"402997",402997,1995,15,"w","Blue wildebeest",2,-24.13,31.7,367901.16,7330767.81
"402999",402999,1995,15,"w","Blue wildebeest",10,-24.13,31.7,367901.16,7330767.81
"403001",403001,1995,15,"w","Blue wildebeest",7,-24.13,31.68,365868.64,7330748.81
"403002",403002,1995,15,"w","Blue wildebeest",1,-24.13,31.67,364852.37,7330739.2
"403010",403010,1995,15,"w","Blue wildebeest",1,-24.13,31.65,362819.82,7330719.76
"403011",403011,1995,15,"w","Blue wildebeest",15,-24.13,31.65,362819.82,7330719.76
"403022",403022,1995,15,"w","Blue wildebeest",1,-24.13,31.68,365868.64,7330748.81
"403023",403023,1995,15,"w","Blue wildebeest",3,-24.13,31.68,365868.64,7330748.81
"403024",403024,1995,15,"w","Blue wildebeest",5,-24.13,31.69,366884.9,7330758.35
"403033",403033,1995,15,"w","Blue wildebeest",5,-24.15,31.72,369953.92,7328571.83
"403034",403034,1995,15,"w","Blue wildebeest",1,-24.15,31.7,367921.72,7328553.11
"403038",403038,1995,15,"w","Blue wildebeest",8,-24.14,31.68,365879.07,7329641.45
"403039",403039,1995,15,"w","Blue wildebeest",5,-24.14,31.67,364862.88,7329631.84
"403041",403041,1995,15,"w","Blue wildebeest",4,-24.14,31.67,364862.88,7329631.84
"403051",403051,1995,15,"w","Blue wildebeest",5,-24.14,31.64,361814.29,7329602.57
"403057",403057,1995,15,"w","Blue wildebeest",5,-24.14,31.63,360798.09,7329592.67
"403059",403059,1995,15,"w","Blue wildebeest",15,-24.14,31.64,361814.29,7329602.57
"403060",403060,1995,15,"w","Blue wildebeest",5,-24.14,31.64,361814.29,7329602.57
"403068",403068,1995,15,"w","Blue wildebeest",15,-24.15,31.67,364873.4,7328524.48
"403070",403070,1995,15,"w","Blue wildebeest",5,-24.15,31.67,364873.4,7328524.48
"403072",403072,1995,15,"w","Blue wildebeest",30,-24.15,31.68,365889.51,7328534.1
"403074",403074,1995,15,"w","Blue wildebeest",6,-24.15,31.69,366905.61,7328543.64
"403082",403082,1995,15,"w","Blue wildebeest",1,-24.15,31.72,369953.92,7328571.83
"403085",403085,1995,15,"w","Blue wildebeest",1,-24.15,31.73,370970.02,7328581.09
"403086",403086,1995,15,"w","Blue wildebeest",3,-24.15,31.73,370970.02,7328581.09
"403090",403090,1995,15,"w","Blue wildebeest",1,-24.16,31.72,369964.05,7327464.49
"403091",403091,1995,15,"w","Blue wildebeest",5,-24.16,31.72,369964.05,7327464.49
"403093",403093,1995,15,"w","Blue wildebeest",18,-24.16,31.72,369964.05,7327464.49
"403097",403097,1995,15,"w","Blue wildebeest",15,-24.16,31.72,369964.05,7327464.49
"403100",403100,1995,15,"w","Blue wildebeest",30,-24.16,31.71,368948.02,7327455.16
"403113",403113,1995,15,"w","Blue wildebeest",10,-24.16,31.66,363867.88,7327407.43
"403127",403127,1995,15,"w","Blue wildebeest",10,-24.16,31.64,361835.81,7327387.83
"403150",403150,1995,15,"w","Blue wildebeest",1,-24.16,31.64,361835.81,7327387.83
"403178",403178,1995,15,"w","Blue wildebeest",20,-24.18,31.64,361857.33,7325173.08
"403190",403190,1995,15,"w","Blue wildebeest",20,-24.2,31.73,371020.28,7323044.35
"403191",403191,1995,15,"w","Blue wildebeest",1,-24.2,31.74,372035.98,7323053.55
"403192",403192,1995,15,"w","Blue wildebeest",1,-24.21,31.73,371030.35,7321937
"403196",403196,1995,15,"w","Blue wildebeest",1,-24.21,31.72,370014.73,7321927.73
"403197",403197,1995,15,"w","Blue wildebeest",2,-24.21,31.72,370014.73,7321927.73
"403199",403199,1995,15,"w","Blue wildebeest",5,-24.21,31.71,368999.1,7321918.39
"403203",403203,1995,15,"w","Blue wildebeest",4,-24.2,31.68,365941.75,7322997.29
"403204",403204,1995,15,"w","Blue wildebeest",1,-24.19,31.65,362883.91,7324075.55
"403205",403205,1995,15,"w","Blue wildebeest",5,-24.19,31.64,361868.11,7324065.71
"403207",403207,1995,15,"w","Blue wildebeest",1,-24.19,31.63,360852.3,7324055.79
"403208",403208,1995,15,"w","Blue wildebeest",13,-24.19,31.63,360852.3,7324055.79
"403209",403209,1995,15,"w","Blue wildebeest",1,-24.2,31.64,361878.88,7322958.33
"403211",403211,1995,15,"w","Blue wildebeest",14,-24.2,31.65,362894.6,7322968.18
"403212",403212,1995,15,"w","Blue wildebeest",20,-24.2,31.65,362894.6,7322968.18
"403215",403215,1995,15,"w","Blue wildebeest",1,-24.21,31.72,370014.73,7321927.73
"403220",403220,1995,15,"w","Blue wildebeest",1,-24.22,31.73,371040.42,7320829.65
"403221",403221,1995,15,"w","Blue wildebeest",1,-24.22,31.73,371040.42,7320829.65
"403223",403223,1995,15,"w","Blue wildebeest",2,-24.21,31.67,364936.58,7321880.29
"403224",403224,1995,15,"w","Blue wildebeest",15,-24.2,31.64,361878.88,7322958.33
"403227",403227,1995,15,"w","Blue wildebeest",1,-24.21,31.65,362905.3,7321860.81
"403228",403228,1995,15,"w","Blue wildebeest",1,-24.21,31.65,362905.3,7321860.81
"403229",403229,1995,15,"w","Blue wildebeest",1,-24.21,31.65,362905.3,7321860.81
"403230",403230,1995,15,"w","Blue wildebeest",1,-24.22,31.66,363931.57,7320763.21
"403231",403231,1995,15,"w","Blue wildebeest",5,-24.22,31.67,364947.13,7320772.92
"403240",403240,1995,15,"w","Blue wildebeest",2,-24.23,31.73,371050.49,7319722.3
"403241",403241,1995,15,"w","Blue wildebeest",1,-24.23,31.74,372065.95,7319731.5
"403242",403242,1995,15,"w","Blue wildebeest",2,-24.23,31.74,372065.95,7319731.5
"403243",403243,1995,15,"w","Blue wildebeest",2,-24.24,31.74,372075.95,7318624.15
"403247",403247,1995,15,"w","Blue wildebeest",1,-24.23,31.72,370035.03,7319713.02
"403253",403253,1995,15,"w","Blue wildebeest",5,-24.22,31.66,363931.57,7320763.21
"403259",403259,1995,12,"w","Blue wildebeest",5,-24.22,31.63,360884.88,7320733.65
"403271",403271,1995,15,"w","Blue wildebeest",1,-24.24,31.72,370045.19,7318605.66
"403272",403272,1995,15,"w","Blue wildebeest",1,-24.25,31.74,372085.95,7317516.79
"403273",403273,1995,18,"w","Blue wildebeest",1,-24.25,31.75,373101.25,7317525.93
"403275",403275,1995,15,"w","Blue wildebeest",10,-24.25,31.73,371070.65,7317507.59
"403293",403293,1995,16,"w","Blue wildebeest",2,-24.31,31.67,365042.22,7310806.53
"403300",403300,1995,16,"w","Blue wildebeest",2,-24.32,31.69,367082.32,7309718.41
"403301",403301,1995,16,"w","Blue wildebeest",6,-24.32,31.69,367082.32,7309718.41
"403311",403311,1995,16,"w","Blue wildebeest",1,-24.39,31.77,375268.92,7302041.01
"403315",403315,1995,16,"w","Blue wildebeest",1,-24.37,31.77,375249.29,7304255.73
"403318",403318,1995,16,"w","Blue wildebeest",8,-24.33,31.76,374195.43,7308676.16
"403320",403320,1995,16,"w","Blue wildebeest",4,-24.32,31.76,374185.55,7309783.52
"403321",403321,1995,16,"w","Blue wildebeest",5,-24.32,31.76,374185.55,7309783.52
"403324",403324,1995,16,"w","Blue wildebeest",20,-24.31,31.76,374175.68,7310890.88
"403326",403326,1995,16,"w","Blue wildebeest",7,-24.3,31.75,373150.92,7311989.16
"403327",403327,1995,16,"w","Blue wildebeest",15,-24.3,31.75,373150.92,7311989.16
"403328",403328,1995,16,"w","Blue wildebeest",13,-24.3,31.75,373150.92,7311989.16
"403329",403329,1995,16,"w","Blue wildebeest",1,-24.3,31.75,373150.92,7311989.16
"403330",403330,1995,16,"w","Blue wildebeest",25,-24.3,31.75,373150.92,7311989.16
"403331",403331,1995,16,"w","Blue wildebeest",1,-24.29,31.75,373140.98,7313096.51
"403333",403333,1995,16,"w","Blue wildebeest",1,-24.28,31.75,373131.04,7314203.87
"403335",403335,1995,16,"w","Blue wildebeest",1,-24.29,31.75,373140.98,7313096.51
"403336",403336,1995,16,"w","Blue wildebeest",2,-24.3,31.75,373150.92,7311989.16
"403341",403341,1995,16,"w","Blue wildebeest",1,-24.38,31.76,374244.85,7303139.35
"403344",403344,1995,16,"w","Blue wildebeest",3,-24.4,31.76,374264.65,7300924.61
"403347",403347,1995,16,"w","Blue wildebeest",50,-24.39,31.76,374254.75,7302031.98
"403354",403354,1995,16,"w","Blue wildebeest",28,-24.33,31.75,373180.77,7308667.08
"403356",403356,1995,16,"w","Blue wildebeest",24,-24.33,31.75,373180.77,7308667.08
"403357",403357,1995,16,"w","Blue wildebeest",14,-24.33,31.75,373180.77,7308667.08
"403358",403358,1995,16,"w","Blue wildebeest",18,-24.33,31.75,373180.77,7308667.08
"403359",403359,1995,16,"w","Blue wildebeest",4,-24.33,31.75,373180.77,7308667.08
"403361",403361,1995,16,"w","Blue wildebeest",29,-24.33,31.75,373180.77,7308667.08
"403363",403363,1995,16,"w","Blue wildebeest",30,-24.32,31.74,372156.07,7309765.28
"403365",403365,1995,16,"w","Blue wildebeest",1,-24.31,31.74,372146.04,7310872.64
"403366",403366,1995,16,"w","Blue wildebeest",1,-24.31,31.74,372146.04,7310872.64
"403367",403367,1995,16,"w","Blue wildebeest",16,-24.29,31.74,372126,7313087.37
"403375",403375,1995,15,"w","Blue wildebeest",1,-24.27,31.73,371090.82,7315292.87
"403376",403376,1995,15,"w","Blue wildebeest",10,-24.26,31.72,370065.51,7316390.94
"403377",403377,1995,15,"w","Blue wildebeest",1,-24.26,31.72,370065.51,7316390.94
"403378",403378,1995,16,"w","Blue wildebeest",3,-24.27,31.73,371090.82,7315292.87
"403379",403379,1995,16,"w","Blue wildebeest",3,-24.27,31.73,371090.82,7315292.87
"403380",403380,1995,16,"w","Blue wildebeest",1,-24.27,31.73,371090.82,7315292.87
"403381",403381,1995,16,"w","Blue wildebeest",1,-24.27,31.73,371090.82,7315292.87
"403383",403383,1995,16,"w","Blue wildebeest",1,-24.29,31.73,371111.01,7313078.15
"403384",403384,1995,16,"w","Blue wildebeest",1,-24.29,31.73,371111.01,7313078.15
"403385",403385,1995,16,"w","Blue wildebeest",5,-24.29,31.73,371111.01,7313078.15
"403386",403386,1995,16,"w","Blue wildebeest",1,-24.29,31.73,371111.01,7313078.15
"403389",403389,1995,16,"w","Blue wildebeest",6,-24.31,31.73,371131.22,7310863.42
"403390",403390,1995,16,"w","Blue wildebeest",12,-24.31,31.73,371131.22,7310863.42
"403391",403391,1995,16,"w","Blue wildebeest",14,-24.31,31.73,371131.22,7310863.42
"403392",403392,1995,16,"w","Blue wildebeest",40,-24.32,31.73,371141.33,7309756.05
"403393",403393,1995,16,"w","Blue wildebeest",20,-24.32,31.74,372156.07,7309765.28
"403394",403394,1995,16,"w","Blue wildebeest",1,-24.32,31.74,372156.07,7309765.28
"403395",403395,1995,16,"w","Blue wildebeest",20,-24.33,31.74,372166.1,7308657.92
"403396",403396,1995,16,"w","Blue wildebeest",7,-24.33,31.74,372166.1,7308657.92
"403397",403397,1995,16,"w","Blue wildebeest",10,-24.33,31.74,372166.1,7308657.92
"403398",403398,1995,16,"w","Blue wildebeest",13,-24.33,31.74,372166.1,7308657.92
"403401",403401,1995,16,"w","Blue wildebeest",8,-24.34,31.74,372176.14,7307550.55
"403411",403411,1995,16,"w","Blue wildebeest",3,-24.38,31.74,372216.32,7303121.07
"403412",403412,1995,16,"w","Blue wildebeest",1,-24.38,31.74,372216.32,7303121.07
"403413",403413,1995,16,"w","Blue wildebeest",1,-24.38,31.74,372216.32,7303121.07
"403417",403417,1995,16,"w","Blue wildebeest",2,-24.36,31.74,372196.22,7305335.82
"403420",403420,1995,16,"w","Blue wildebeest",17,-24.32,31.73,371141.33,7309756.05
"403421",403421,1995,16,"w","Blue wildebeest",10,-24.32,31.73,371141.33,7309756.05
"403423",403423,1995,16,"w","Blue wildebeest",6,-24.32,31.73,371141.33,7309756.05
"403426",403426,1995,16,"w","Blue wildebeest",3,-24.31,31.73,371131.22,7310863.42
"403427",403427,1995,16,"w","Blue wildebeest",12,-24.31,31.72,370116.39,7310854.12
"403428",403428,1995,16,"w","Blue wildebeest",7,-24.3,31.72,370106.21,7311961.49
"403429",403429,1995,16,"w","Blue wildebeest",1,-24.3,31.72,370106.21,7311961.49
"403430",403430,1995,16,"w","Blue wildebeest",18,-24.3,31.72,370106.21,7311961.49
"403433",403433,1995,16,"w","Blue wildebeest",5,-24.3,31.72,370106.21,7311961.49
"403435",403435,1995,16,"w","Blue wildebeest",8,-24.29,31.72,370096.03,7313068.85
"403437",403437,1995,16,"w","Blue wildebeest",1,-24.27,31.71,369060.53,7315274.22
"403440",403440,1995,16,"w","Blue wildebeest",1,-24.3,31.72,370106.21,7311961.49
"403442",403442,1995,16,"w","Blue wildebeest",13,-24.3,31.72,370106.21,7311961.49
"403446",403446,1995,16,"w","Blue wildebeest",14,-24.31,31.72,370116.39,7310854.12
"403447",403447,1995,16,"w","Blue wildebeest",14,-24.31,31.72,370116.39,7310854.12
"403449",403449,1995,16,"w","Blue wildebeest",3,-24.32,31.72,370126.58,7309746.75
"403450",403450,1995,16,"w","Blue wildebeest",6,-24.32,31.72,370126.58,7309746.75
"403451",403451,1995,16,"w","Blue wildebeest",5,-24.34,31.73,371161.55,7307541.32
"403457",403457,1995,16,"w","Blue wildebeest",1,-24.37,31.73,371191.93,7304219.2
"403460",403460,1995,16,"w","Blue wildebeest",2,-24.34,31.72,370146.97,7307532.01
"403462",403462,1995,16,"w","Blue wildebeest",2,-24.32,31.71,369111.83,7309737.38
"403464",403464,1995,16,"w","Blue wildebeest",1,-24.33,31.71,369122.1,7308630
"403465",403465,1995,16,"w","Blue wildebeest",11,-24.33,31.71,369122.1,7308630
"403466",403466,1995,16,"w","Blue wildebeest",15,-24.33,31.71,369122.1,7308630
"403468",403468,1995,16,"w","Blue wildebeest",12,-24.35,31.71,369142.66,7306415.25
"403474",403474,1995,16,"w","Blue wildebeest",1,-24.37,31.71,369163.23,7304200.5
"403477",403477,1995,16,"w","Blue wildebeest",12,-24.33,31.7,368107.43,7308620.55
"403479",403479,1995,16,"w","Blue wildebeest",1,-24.32,31.7,368097.08,7309727.93
"403480",403480,1995,16,"w","Blue wildebeest",9,-24.32,31.7,368097.08,7309727.93
"403484",403484,1995,16,"w","Blue wildebeest",9,-24.34,31.69,367103.19,7307503.65
"403486",403486,1995,16,"w","Blue wildebeest",20,-24.34,31.69,367103.19,7307503.65
"403487",403487,1995,16,"w","Blue wildebeest",13,-24.35,31.7,368128.14,7306405.8
"403489",403489,1995,16,"w","Blue wildebeest",1,-24.36,31.7,368138.51,7305298.42
"403490",403490,1995,16,"w","Blue wildebeest",5,-24.36,31.7,368138.51,7305298.42
"403495",403495,1995,16,"w","Blue wildebeest",9,-24.37,31.7,368148.87,7304191.04
"403498",403498,1995,16,"w","Blue wildebeest",9,-24.38,31.71,369173.52,7303093.12
"403502",403502,1995,24,"w","Blue wildebeest",2,-24.39,31.71,369183.81,7301985.74
"403503",403503,1995,16,"w","Blue wildebeest",2,-24.39,31.7,368169.62,7301976.27
"403506",403506,1995,16,"w","Blue wildebeest",1,-24.38,31.7,368159.25,7303083.65
"403507",403507,1995,16,"w","Blue wildebeest",2,-24.38,31.7,368159.25,7303083.65
"403509",403509,1995,16,"w","Blue wildebeest",1,-24.37,31.69,367134.52,7304181.5
"403513",403513,1995,16,"w","Blue wildebeest",23,-24.34,31.69,367103.19,7307503.65
"403516",403516,1995,16,"w","Blue wildebeest",31,-24.34,31.68,366088.59,7307494.05
"403519",403519,1995,16,"w","Blue wildebeest",9,-24.31,31.68,366057.06,7310816.2
"403522",403522,1995,16,"w","Blue wildebeest",12,-24.33,31.67,365063.39,7308591.77
"403524",403524,1995,16,"w","Blue wildebeest",1,-24.34,31.68,366088.59,7307494.05
"403529",403529,1995,16,"w","Blue wildebeest",10,-24.35,31.68,366099.11,7306386.67
"403540",403540,1995,16,"w","Blue wildebeest",16,-24.37,31.68,366120.16,7304171.89
"403550",403550,1995,16,"w","Blue wildebeest",1,-24.32,31.66,364038.04,7309689.41
"403560",403560,1995,16,"w","Blue wildebeest",13,-24.28,31.65,362980.32,7314109.15
"403565",403565,1995,16,"w","Blue wildebeest",2,-24.27,31.65,362969.59,7315216.53
"403572",403572,1995,16,"w","Blue wildebeest",1,-24.26,31.64,361943.62,7316314.05
"403580",403580,1995,16,"w","Blue wildebeest",1,-24.34,31.66,364059.39,7307474.63
"403581",403581,1995,16,"w","Blue wildebeest",5,-24.35,31.66,364070.06,7306367.24
"403584",403584,1995,16,"w","Blue wildebeest",5,-24.36,31.66,364080.75,7305259.85
"403587",403587,1995,16,"w","Blue wildebeest",1,-24.37,31.67,365105.8,7304162.21
"403594",403594,1995,16,"w","Blue wildebeest",1,-24.31,31.65,363012.53,7310786.99
"403596",403596,1995,16,"w","Blue wildebeest",1,-24.3,31.64,361986.86,7311884.5
"403599",403599,1995,16,"w","Blue wildebeest",6,-24.28,31.64,361965.23,7314099.28
"403600",403600,1995,16,"w","Blue wildebeest",8,-24.27,31.64,361954.42,7315206.66
"403605",403605,1995,16,"w","Blue wildebeest",1,-24.26,31.63,360928.37,7316304.11
"403626",403626,1995,16,"w","Blue wildebeest",1,-24.34,31.64,362030.17,7307454.93
"403649",403649,1995,16,"w","Blue wildebeest",2,-24.32,31.61,358964.18,7309639.62
"403660",403660,1995,16,"w","Blue wildebeest",1,-24.27,31.59,356878.55,7315156.22
"403721",403721,1995,16,"w","Blue wildebeest",1,-24.31,31.58,355908.53,7310716.28
"403729",403729,1995,14,"w","Blue wildebeest",2,-24.39,31.59,357013.31,7301867.3
"403744",403744,1995,17,"w","Blue wildebeest",1,-24.07,31.82,380040.24,7337519.59
"403748",403748,1995,17,"w","Blue wildebeest",1,-24.1,31.81,379051.69,7334189.08
"403757",403757,1995,17,"w","Blue wildebeest",1,-24.04,31.81,378995.4,7340832.94
"403761",403761,1995,17,"w","Blue wildebeest",1,-24.02,31.81,378976.67,7343047.54
"403766",403766,1995,17,"w","Blue wildebeest",1,-24,31.81,378957.95,7345262.15
"403773",403773,1995,17,"w","Blue wildebeest",1,-24.02,31.8,377959.57,7343038.91
"403783",403783,1995,17,"w","Blue wildebeest",7,-24.09,31.8,378025.75,7335287.74
"403785",403785,1995,17,"w","Blue wildebeest",4,-24.09,31.79,377009.2,7335279.01
"403787",403787,1995,17,"w","Blue wildebeest",11,-24.07,31.79,376990.11,7337493.64
"403810",403810,1995,17,"w","Blue wildebeest",1,-24.04,31.79,376961.51,7340815.58
"403831",403831,1995,17,"w","Blue wildebeest",1,-24.03,31.77,374917.93,7341905.25
"403834",403834,1995,17,"w","Blue wildebeest",1,-24.05,31.77,374937.3,7339690.62
"403836",403836,1995,17,"w","Blue wildebeest",1,-24.08,31.77,374966.38,7336368.66
"403839",403839,1995,17,"w","Blue wildebeest",12,-24.07,31.76,373939.96,7337467.04
"403895",403895,1995,17,"w","Blue wildebeest",1,-24.05,31.75,372903.54,7339672.68
"403899",403899,1995,17,"w","Blue wildebeest",2,-24.07,31.74,371906.52,7337448.94
"403900",403900,1995,17,"w","Blue wildebeest",2,-24.06,31.74,371896.59,7338556.27
"403904",403904,1995,17,"w","Blue wildebeest",6,-24.04,31.74,371876.74,7340770.92
"403905",403905,1995,17,"w","Blue wildebeest",15,-24.04,31.74,371876.74,7340770.92
"403907",403907,1995,17,"w","Blue wildebeest",6,-24.03,31.74,371866.82,7341878.25
"403912",403912,1995,17,"w","Blue wildebeest",4,-24.02,31.74,371856.9,7342985.57
"403921",403921,1995,17,"w","Blue wildebeest",5,-24.04,31.74,371876.74,7340770.92
"403924",403924,1995,17,"w","Blue wildebeest",1,-24.06,31.74,371896.59,7338556.27
"403931",403931,1995,17,"w","Blue wildebeest",3,-24.11,31.81,379061.09,7333081.76
"403933",403933,1995,17,"w","Blue wildebeest",1,-24.11,31.82,380077.48,7333090.35
"403936",403936,1995,17,"w","Blue wildebeest",1,-24.11,31.82,380077.48,7333090.35
"403939",403939,1995,17,"w","Blue wildebeest",1,-24.12,31.82,380086.79,7331983.04
"403940",403940,1995,17,"w","Blue wildebeest",5,-24.12,31.82,380086.79,7331983.04
"403941",403941,1995,17,"w","Blue wildebeest",5,-24.12,31.82,380086.79,7331983.04
"403942",403942,1995,17,"w","Blue wildebeest",1,-24.12,31.82,380086.79,7331983.04
"403943",403943,1995,17,"w","Blue wildebeest",3,-24.16,31.83,381140.1,7327562.3
"403947",403947,1995,17,"w","Blue wildebeest",15,-24.14,31.81,379089.29,7329759.81
"403950",403950,1995,17,"w","Blue wildebeest",1,-24.12,31.81,379070.48,7331974.45
"403955",403955,1995,17,"w","Blue wildebeest",1,-24.11,31.81,379061.09,7333081.76
"403956",403956,1995,17,"w","Blue wildebeest",6,-24.1,31.8,378035.22,7334180.42
"403960",403960,1995,17,"w","Blue wildebeest",2,-24.11,31.8,378044.69,7333073.1
"403961",403961,1995,17,"w","Blue wildebeest",1,-24.11,31.8,378044.69,7333073.1
"403962",403962,1995,17,"w","Blue wildebeest",4,-24.11,31.8,378044.69,7333073.1
"403964",403964,1995,17,"w","Blue wildebeest",20,-24.12,31.8,378054.17,7331965.78
"403975",403975,1995,17,"w","Blue wildebeest",1,-24.1,31.79,377018.75,7334171.69
"403977",403977,1995,17,"w","Blue wildebeest",4,-24.1,31.79,377018.75,7334171.69
"403978",403978,1995,17,"w","Blue wildebeest",1,-24.09,31.78,375992.64,7335270.21
"403981",403981,1995,17,"w","Blue wildebeest",9,-24.12,31.78,376021.54,7331948.24
"403998",403998,1995,17,"w","Blue wildebeest",2,-24.1,31.77,374985.79,7334154.01
"403999",403999,1995,17,"w","Blue wildebeest",1,-24.1,31.77,374985.79,7334154.01
"404001",404001,1995,17,"w","Blue wildebeest",1,-24.08,31.77,374966.38,7336368.66
"404002",404002,1995,17,"w","Blue wildebeest",1,-24.08,31.76,373949.74,7336359.71
"404003",404003,1995,17,"w","Blue wildebeest",9,-24.09,31.76,373959.52,7335252.39
"404016",404016,1995,17,"w","Blue wildebeest",1,-24.09,31.75,372942.96,7335243.37
"404017",404017,1995,17,"w","Blue wildebeest",1,-24.08,31.75,372933.1,7336350.7
"404018",404018,1995,17,"w","Blue wildebeest",1,-24.07,31.75,372923.24,7337458.03
"404021",404021,1995,17,"w","Blue wildebeest",2,-24.09,31.74,371926.39,7335234.28
"404026",404026,1995,17,"w","Blue wildebeest",5,-24.1,31.74,371936.34,7334126.95
"404037",404037,1995,17,"w","Blue wildebeest",7,-24.17,31.76,374037.91,7326393.73
"404040",404040,1995,17,"w","Blue wildebeest",2,-24.15,31.75,373002.2,7328599.37
"404045",404045,1995,17,"w","Blue wildebeest",1,-24.1,31.74,371936.34,7334126.95
"404050",404050,1995,17,"w","Blue wildebeest",1,-24.08,31.73,370899.81,7336332.45
"404051",404051,1995,17,"w","Blue wildebeest",1,-24.07,31.73,370889.79,7337439.79
"404052",404052,1995,17,"w","Blue wildebeest",1,-24.06,31.73,370879.78,7338547.12
"404053",404053,1995,17,"w","Blue wildebeest",1,-24.05,31.73,370869.78,7339654.45
"404082",404082,1995,17,"w","Blue wildebeest",4,-24.15,31.73,370970.02,7328581.09
"404083",404083,1995,17,"w","Blue wildebeest",1,-24.14,31.73,370959.98,7329688.43
"404090",404090,1995,17,"w","Blue wildebeest",4,-24.11,31.73,370929.87,7333010.45
"404157",404157,1995,17,"w","Blue wildebeest",1,-24.07,31.85,383090.34,7337544.89
"404161",404161,1995,17,"w","Blue wildebeest",5,-24.08,31.85,383099.41,7336437.59
"404162",404162,1995,17,"w","Blue wildebeest",5,-24.09,31.85,383108.48,7335330.29
"404172",404172,1995,17,"w","Blue wildebeest",12,-24.11,31.84,382110.25,7333107.31
"404175",404175,1995,17,"w","Blue wildebeest",1,-24.1,31.84,382101.09,7334214.62
"404176",404176,1995,17,"w","Blue wildebeest",2,-24.09,31.84,382091.94,7335321.92
"404188",404188,1995,17,"w","Blue wildebeest",1,-24,31.82,379975.21,7345270.71
"404204",404204,1995,17,"w","Blue wildebeest",9,-24.09,31.83,381075.4,7335313.48
"404206",404206,1995,17,"w","Blue wildebeest",1,-24.1,31.83,381084.63,7334206.18
"404213",404213,1995,17,"w","Blue wildebeest",2,-24.12,31.82,380086.79,7331983.04
"404214",404214,1995,17,"w","Blue wildebeest",1,-24.11,31.82,380077.48,7333090.35
"404215",404215,1995,17,"w","Blue wildebeest",2,-24.11,31.82,380077.48,7333090.35
"404217",404217,1995,17,"w","Blue wildebeest",1,-24.1,31.82,380068.16,7334197.66
"404218",404218,1995,17,"w","Blue wildebeest",35,-24.1,31.82,380068.16,7334197.66
"404220",404220,1995,17,"w","Blue wildebeest",7,-24.09,31.82,380058.85,7335304.97
"404221",404221,1995,17,"w","Blue wildebeest",15,-24.09,31.82,380058.85,7335304.97
"404225",404225,1995,18,"w","Blue wildebeest",20,-24.19,31.84,382183.64,7324248.81
"404233",404233,1995,18,"w","Blue wildebeest",5,-24.24,31.83,381214.26,7318703.72
"404236",404236,1995,18,"w","Blue wildebeest",4,-24.25,31.82,380208.27,7317587.84
"404238",404238,1995,18,"w","Blue wildebeest",3,-24.24,31.82,380198.9,7318695.17
"404240",404240,1995,18,"w","Blue wildebeest",1,-24.18,31.82,380142.78,7325339.13
"404247",404247,1995,18,"w","Blue wildebeest",3,-24.24,31.81,379183.54,7318686.55
"404251",404251,1995,18,"w","Blue wildebeest",5,-24.26,31.81,379202.44,7316471.88
"404262",404262,1995,18,"w","Blue wildebeest",1,-24.19,31.79,377104.85,7324205.76
"404266",404266,1995,18,"w","Blue wildebeest",2,-24.23,31.79,377143.21,7319776.42
"404273",404273,1995,18,"w","Blue wildebeest",1,-24.27,31.8,378196.77,7315355.84
"404276",404276,1995,18,"w","Blue wildebeest",6,-24.28,31.8,378206.3,7314248.5
"404277",404277,1995,18,"w","Blue wildebeest",1,-24.28,31.8,378206.3,7314248.5
"404279",404279,1995,18,"w","Blue wildebeest",1,-24.29,31.8,378215.84,7313141.15
"404281",404281,1995,18,"w","Blue wildebeest",1,-24.29,31.79,377200.87,7313132.37
"404283",404283,1995,18,"w","Blue wildebeest",50,-24.29,31.79,377200.87,7313132.37
"404288",404288,1995,18,"w","Blue wildebeest",2,-24.28,31.78,376176.2,7314230.86
"404289",404289,1995,18,"w","Blue wildebeest",9,-24.28,31.78,376176.2,7314230.86
"404290",404290,1995,18,"w","Blue wildebeest",14,-24.27,31.78,376166.51,7315338.21
"404310",404310,1995,18,"w","Blue wildebeest",1,-24.18,31.77,375063.58,7325295.37
"404313",404313,1995,18,"w","Blue wildebeest",14,-24.2,31.77,375083.06,7323080.69
"404314",404314,1995,18,"w","Blue wildebeest",1,-24.21,31.77,375092.81,7321973.35
"404320",404320,1995,18,"w","Blue wildebeest",3,-24.22,31.77,375102.56,7320866.01
"404322",404322,1995,18,"w","Blue wildebeest",9,-24.23,31.77,375112.32,7319758.67
"404329",404329,1995,18,"w","Blue wildebeest",7,-24.27,31.78,376166.51,7315338.21
"404333",404333,1995,18,"w","Blue wildebeest",1,-24.29,31.78,376185.9,7313123.52
"404336",404336,1995,18,"w","Blue wildebeest",2,-24.3,31.78,376195.61,7312016.17
"404337",404337,1995,18,"w","Blue wildebeest",9,-24.3,31.78,376195.61,7312016.17
"404338",404338,1995,18,"w","Blue wildebeest",2,-24.3,31.78,376195.61,7312016.17
"404340",404340,1995,18,"w","Blue wildebeest",1,-24.31,31.78,376205.31,7310908.82
"404341",404341,1995,18,"w","Blue wildebeest",1,-24.31,31.77,375190.5,7310899.88
"404342",404342,1995,18,"w","Blue wildebeest",20,-24.3,31.77,375180.71,7312007.24
"404343",404343,1995,18,"w","Blue wildebeest",15,-24.3,31.77,375180.71,7312007.24
"404346",404346,1995,18,"w","Blue wildebeest",1,-24.26,31.76,374126.39,7316427.64
"404348",404348,1995,18,"w","Blue wildebeest",2,-24.25,31.76,374116.55,7317534.99
"404353",404353,1995,18,"w","Blue wildebeest",19,-24.22,31.76,374087.03,7320857.03
"404356",404356,1995,18,"w","Blue wildebeest",4,-24.19,31.76,374057.55,7324179.06
"404357",404357,1995,18,"w","Blue wildebeest",6,-24.19,31.76,374057.55,7324179.06
"404360",404360,1995,17,"w","Blue wildebeest",6,-24.17,31.76,374037.91,7326393.73
"404368",404368,1995,18,"w","Blue wildebeest",15,-24.25,31.75,373101.25,7317525.93
"404369",404369,1995,18,"w","Blue wildebeest",30,-24.25,31.75,373101.25,7317525.93
"404373",404373,1995,18,"w","Blue wildebeest",1,-24.26,31.75,373111.18,7316418.58
"404374",404374,1995,18,"w","Blue wildebeest",8,-24.3,31.76,374165.82,7311998.23
"404377",404377,1995,18,"w","Blue wildebeest",1,-24.31,31.76,374175.68,7310890.88
"404378",404378,1995,18,"w","Blue wildebeest",1,-24.31,31.76,374175.68,7310890.88
"404379",404379,1995,18,"w","Blue wildebeest",4,-24.32,31.76,374185.55,7309783.52
"404381",404381,1995,16,"w","Blue wildebeest",1,-24.28,31.75,373131.04,7314203.87
"404382",404382,1995,18,"w","Blue wildebeest",1,-24.26,31.75,373111.18,7316418.58
"404386",404386,1995,18,"w","Blue wildebeest",1,-24.24,31.75,373091.33,7318633.28
"404387",404387,1995,18,"w","Blue wildebeest",5,-24.24,31.75,373091.33,7318633.28
"404389",404389,1995,18,"w","Blue wildebeest",7,-24.24,31.75,373091.33,7318633.28
"404399",404399,1995,18,"w","Blue wildebeest",12,-24.32,31.76,374185.55,7309783.52
"404405",404405,1995,18,"w","Blue wildebeest",1,-24.35,31.77,375229.68,7306470.46
"404407",404407,1995,18,"w","Blue wildebeest",1,-24.38,31.77,375259.11,7303148.37
"404410",404410,1995,18,"w","Blue wildebeest",1,-24.38,31.77,375259.11,7303148.37
"404414",404414,1995,24,"w","Blue wildebeest",14,-24.4,31.78,376292.84,7300942.6
"404428",404428,1995,18,"w","Blue wildebeest",1,-24.34,31.78,376234.45,7307586.76
"404432",404432,1995,18,"w","Blue wildebeest",15,-24.32,31.77,375200.29,7309792.53
"404433",404433,1995,18,"w","Blue wildebeest",1,-24.3,31.78,376195.61,7312016.17
"404434",404434,1995,18,"w","Blue wildebeest",1,-24.3,31.78,376195.61,7312016.17
"404435",404435,1995,18,"w","Blue wildebeest",1,-24.3,31.78,376195.61,7312016.17
"404436",404436,1995,18,"w","Blue wildebeest",2,-24.3,31.78,376195.61,7312016.17
"404437",404437,1995,18,"w","Blue wildebeest",8,-24.31,31.78,376205.31,7310908.82
"404438",404438,1995,18,"w","Blue wildebeest",1,-24.31,31.78,376205.31,7310908.82
"404442",404442,1995,18,"w","Blue wildebeest",1,-24.31,31.79,377220.12,7310917.68
"404443",404443,1995,18,"w","Blue wildebeest",10,-24.32,31.79,377229.75,7309810.33
"404455",404455,1995,18,"w","Blue wildebeest",3,-24.35,31.79,377258.67,7306488.27
"404464",404464,1995,18,"w","Blue wildebeest",1,-24.39,31.8,378311.44,7302067.65
"404472",404472,1995,18,"w","Blue wildebeest",1,-24.37,31.81,379306.62,7304291.1
"404477",404477,1995,18,"w","Blue wildebeest",1,-24.35,31.8,378273.16,7306497.07
"404482",404482,1995,18,"w","Blue wildebeest",1,-24.33,31.8,378254.04,7308711.77
"404484",404484,1995,18,"w","Blue wildebeest",2,-24.32,31.8,378244.48,7309819.12
"404485",404485,1995,18,"w","Blue wildebeest",1,-24.32,31.79,377229.75,7309810.33
"404486",404486,1995,18,"w","Blue wildebeest",5,-24.31,31.79,377220.12,7310917.68
"404487",404487,1995,18,"w","Blue wildebeest",4,-24.31,31.79,377220.12,7310917.68
"404488",404488,1995,18,"w","Blue wildebeest",5,-24.31,31.79,377220.12,7310917.68
"404489",404489,1995,18,"w","Blue wildebeest",3,-24.31,31.79,377220.12,7310917.68
"404490",404490,1995,18,"w","Blue wildebeest",1,-24.31,31.79,377220.12,7310917.68
"404492",404492,1995,18,"w","Blue wildebeest",1,-24.3,31.79,377210.5,7312025.02
"404494",404494,1995,18,"w","Blue wildebeest",8,-24.3,31.79,377210.5,7312025.02
"404501",404501,1995,18,"w","Blue wildebeest",70,-24.29,31.78,376185.9,7313123.52
"404503",404503,1995,18,"w","Blue wildebeest",25,-24.3,31.79,377210.5,7312025.02
"404504",404504,1995,18,"w","Blue wildebeest",20,-24.29,31.8,378215.84,7313141.15
"404505",404505,1995,18,"w","Blue wildebeest",1,-24.29,31.8,378215.84,7313141.15
"404507",404507,1995,18,"w","Blue wildebeest",3,-24.29,31.8,378215.84,7313141.15
"404512",404512,1995,18,"w","Blue wildebeest",1,-24.3,31.8,378225.39,7312033.81
"404514",404514,1995,18,"w","Blue wildebeest",8,-24.31,31.81,379249.74,7310935.18
"404518",404518,1995,18,"w","Blue wildebeest",10,-24.32,31.81,379259.21,7309827.84
"404519",404519,1995,18,"w","Blue wildebeest",3,-24.33,31.81,379268.69,7308720.49
"404520",404520,1995,18,"w","Blue wildebeest",12,-24.33,31.81,379268.69,7308720.49
"404522",404522,1995,18,"w","Blue wildebeest",1,-24.33,31.81,379268.69,7308720.49
"404523",404523,1995,18,"w","Blue wildebeest",2,-24.34,31.81,379278.16,7307613.14
"404527",404527,1995,18,"w","Blue wildebeest",1,-24.35,31.81,379287.65,7306505.8
"404541",404541,1995,18,"w","Blue wildebeest",8,-24.38,31.83,381344.6,7303200.99
"404554",404554,1995,18,"w","Blue wildebeest",14,-24.36,31.82,380311.54,7305407.1
"404555",404555,1995,18,"w","Blue wildebeest",20,-24.35,31.82,380302.13,7306514.45
"404562",404562,1995,18,"w","Blue wildebeest",6,-24.33,31.82,380283.33,7308729.14
"404566",404566,1995,18,"w","Blue wildebeest",10,-24.32,31.82,380273.93,7309836.48
"404568",404568,1995,18,"w","Blue wildebeest",5,-24.32,31.82,380273.93,7309836.48
"404570",404570,1995,18,"w","Blue wildebeest",8,-24.31,31.81,379249.74,7310935.18
"404571",404571,1995,18,"w","Blue wildebeest",10,-24.31,31.81,379249.74,7310935.18
"404577",404577,1995,18,"w","Blue wildebeest",2,-24.3,31.81,379240.27,7312042.52
"404578",404578,1995,18,"w","Blue wildebeest",1,-24.3,31.81,379240.27,7312042.52
"404579",404579,1995,18,"w","Blue wildebeest",8,-24.3,31.81,379240.27,7312042.52
"404580",404580,1995,18,"w","Blue wildebeest",10,-24.3,31.81,379240.27,7312042.52
"404582",404582,1995,18,"w","Blue wildebeest",8,-24.29,31.81,379230.81,7313149.86
"404586",404586,1995,18,"w","Blue wildebeest",6,-24.28,31.81,379221.35,7314257.2
"404596",404596,1995,18,"w","Blue wildebeest",2,-24.31,31.82,380264.54,7310943.82
"404597",404597,1995,18,"w","Blue wildebeest",2,-24.31,31.83,381279.34,7310952.39
"404609",404609,1995,18,"w","Blue wildebeest",1,-24.33,31.83,381297.97,7308737.71
"404612",404612,1995,18,"w","Blue wildebeest",23,-24.33,31.83,381297.97,7308737.71
"404615",404615,1995,18,"w","Blue wildebeest",5,-24.34,31.83,381307.29,7307630.37
"404617",404617,1995,18,"w","Blue wildebeest",8,-24.35,31.83,381316.61,7306523.03
"404622",404622,1995,18,"w","Blue wildebeest",2,-24.35,31.83,381316.61,7306523.03
"404626",404626,1995,18,"w","Blue wildebeest",5,-24.36,31.84,382340.34,7305424.19
"404632",404632,1995,18,"w","Blue wildebeest",9,-24.37,31.84,382349.59,7304316.85
"404634",404634,1995,18,"w","Blue wildebeest",1,-24.37,31.84,382349.59,7304316.85
"404637",404637,1995,18,"w","Blue wildebeest",9,-24.38,31.84,382358.85,7303209.5
"404639",404639,1995,18,"w","Blue wildebeest",40,-24.38,31.84,382358.85,7303209.5
"404641",404641,1995,18,"w","Blue wildebeest",8,-24.37,31.85,383363.91,7304325.29
"404648",404648,1995,18,"w","Blue wildebeest",1,-24.31,31.84,382294.14,7310960.88
"404649",404649,1995,18,"w","Blue wildebeest",5,-24.31,31.84,382294.14,7310960.88
"404651",404651,1995,18,"w","Blue wildebeest",1,-24.3,31.84,382284.92,7312068.22
"404655",404655,1995,18,"w","Blue wildebeest",7,-24.28,31.84,382266.47,7314282.88
"404658",404658,1995,18,"w","Blue wildebeest",1,-24.28,31.85,383281.5,7314291.3
"404659",404659,1995,18,"w","Blue wildebeest",1,-24.28,31.85,383281.5,7314291.3
"404660",404660,1995,18,"w","Blue wildebeest",10,-24.28,31.85,383281.5,7314291.3
"404672",404672,1995,18,"w","Blue wildebeest",12,-24.3,31.85,383299.79,7312076.64
"404683",404683,1995,18,"w","Blue wildebeest",1,-24.38,31.87,385401.55,7303234.61
"404684",404684,1995,18,"w","Blue wildebeest",1,-24.38,31.87,385401.55,7303234.61
"404691",404691,1995,18,"w","Blue wildebeest",12,-24.31,31.86,384323.74,7310977.66
"404699",404699,1995,18,"w","Blue wildebeest",8,-24.29,31.86,384305.6,7313192.31
"404703",404703,1995,18,"w","Blue wildebeest",2,-24.3,31.87,385329.54,7312093.26
"404705",404705,1995,18,"w","Blue wildebeest",2,-24.31,31.87,385338.53,7310985.93
"404715",404715,1995,18,"w","Blue wildebeest",1,-24.35,31.88,386388.99,7306564.83
"404718",404718,1995,18,"w","Blue wildebeest",1,-24.39,31.9,388453.02,7302151.72
"404719",404719,1995,18,"w","Blue wildebeest",1,-24.39,31.9,388453.02,7302151.72
"404728",404728,1995,18,"w","Blue wildebeest",1,-24.33,31.89,387385.78,7308787.62
"404735",404735,1995,19,"w","Blue wildebeest",1,-24.31,31.88,386353.32,7310994.14
"404739",404739,1995,19,"w","Blue wildebeest",10,-24.33,31.9,388400.4,7308795.68
"404740",404740,1995,19,"w","Blue wildebeest",2,-24.33,31.9,388400.4,7308795.68
"404757",404757,1995,18,"w","Blue wildebeest",1,-24.36,31.9,388426.7,7305473.71
"404759",404759,1995,18,"w","Blue wildebeest",2,-24.36,31.91,389441.08,7305481.71
"404760",404760,1995,19,"w","Blue wildebeest",20,-24.36,31.91,389441.08,7305481.71
"404767",404767,1995,20,"w","Blue wildebeest",1,-24.38,31.92,390472.69,7303274.98
"404771",404771,1995,19,"w","Blue wildebeest",7,-24.38,31.93,391486.91,7303282.84
"404786",404786,1995,19,"w","Blue wildebeest",2,-24.24,31.9,388321.7,7318761.53
"404788",404788,1995,19,"w","Blue wildebeest",1,-24.27,31.91,389363.01,7315447.57
"404789",404789,1995,19,"w","Blue wildebeest",12,-24.28,31.91,389371.67,7314340.26
"404795",404795,1995,19,"w","Blue wildebeest",13,-24.26,31.89,387323.98,7316538.86
"404799",404799,1995,19,"w","Blue wildebeest",1,-24.22,31.87,385257.74,7320951.82
"404801",404801,1995,19,"w","Blue wildebeest",6,-24.25,31.87,385284.64,7317629.87
"404807",404807,1995,19,"w","Blue wildebeest",16,-24.3,31.88,386344.41,7312101.46
"404811",404811,1995,19,"w","Blue wildebeest",7,-24.25,31.86,384269.37,7317621.61
"404812",404812,1995,19,"w","Blue wildebeest",8,-24.25,31.86,384269.37,7317621.61
"404813",404813,1995,19,"w","Blue wildebeest",1,-24.2,31.85,383208.5,7323149.88
"404814",404814,1995,18,"w","Blue wildebeest",1,-24.21,31.84,382202.02,7322034.17
"404815",404815,1995,18,"w","Blue wildebeest",1,-24.23,31.84,382220.41,7319819.52
"404816",404816,1995,19,"w","Blue wildebeest",1,-24.23,31.84,382220.41,7319819.52
"404818",404818,1995,19,"w","Blue wildebeest",4,-24.24,31.84,382229.62,7318712.2
"404842",404842,1995,19,"w","Blue wildebeest",10,-24.36,31.99,397556.08,7305543.05
"404883",404883,1995,19,"w","Blue wildebeest",4,-24.38,31.97,395543.77,7303313.53
"404887",404887,1995,19,"w","Blue wildebeest",10,-24.38,31.97,395543.77,7303313.53
"404913",404913,1995,19,"w","Blue wildebeest",1,-24.32,31.95,393465.14,7309942.21
"404917",404917,1995,19,"w","Blue wildebeest",1,-24.34,31.95,393481.86,7307727.59
"404922",404922,1995,19,"w","Blue wildebeest",6,-24.36,31.95,393498.6,7305512.96
"404927",404927,1995,19,"w","Blue wildebeest",1,-24.39,31.96,394537.86,7302198.65
"404939",404939,1995,19,"w","Blue wildebeest",1,-24.38,31.94,392501.13,7303290.62
"404941",404941,1995,19,"w","Blue wildebeest",10,-24.37,31.94,392492.67,7304397.94
"404943",404943,1995,19,"w","Blue wildebeest",10,-24.35,31.94,392475.77,7306612.58
"404944",404944,1995,19,"w","Blue wildebeest",5,-24.34,31.94,392467.33,7307719.89
"404945",404945,1995,19,"w","Blue wildebeest",17,-24.34,31.94,392467.33,7307719.89
"404948",404948,1995,19,"w","Blue wildebeest",1,-24.27,31.93,391393.2,7315463.3
"404954",404954,1995,19,"w","Blue wildebeest",15,-24.32,31.92,390421.05,7309918.91
"404955",404955,1995,19,"w","Blue wildebeest",23,-24.32,31.92,390421.05,7309918.91
"404960",404960,1995,19,"w","Blue wildebeest",4,-24.34,31.92,390438.25,7307704.27
"404964",404964,1995,19,"w","Blue wildebeest",3,-24.35,31.93,391461.31,7306604.8
"404967",404967,1995,19,"w","Blue wildebeest",12,-24.36,31.93,391469.84,7305497.48
"404971",404971,1995,19,"w","Blue wildebeest",20,-24.37,31.93,391478.37,7304390.16
"404979",404979,1995,19,"w","Blue wildebeest",3,-24.31,31.91,389397.67,7311018.31
"404999",404999,1995,20,"w","Blue wildebeest",1,-24.49,31.95,393607.69,7291117.75
"405005",405005,1995,20,"w","Blue wildebeest",14,-24.41,31.95,393540.49,7299976.37
"405006",405006,1995,20,"w","Blue wildebeest",1,-24.41,31.95,393540.49,7299976.37
"405007",405007,1995,20,"w","Blue wildebeest",6,-24.42,31.94,392534.98,7298861.33
"405009",405009,1995,20,"w","Blue wildebeest",15,-24.43,31.94,392543.46,7297754
"405017",405017,1995,20,"w","Blue wildebeest",1,-24.48,31.94,392585.86,7292217.35
"405020",405020,1995,20,"w","Blue wildebeest",1,-24.48,31.93,391572.45,7292209.54
"405023",405023,1995,20,"w","Blue wildebeest",3,-24.47,31.93,391563.88,7293316.88
"405025",405025,1995,20,"w","Blue wildebeest",1,-24.45,31.93,391546.75,7295531.55
"405032",405032,1995,20,"w","Blue wildebeest",6,-24.47,31.92,390550.38,7293309
"405033",405033,1995,20,"w","Blue wildebeest",15,-24.47,31.92,390550.38,7293309
"405036",405036,1995,20,"w","Blue wildebeest",3,-24.48,31.92,390559.03,7292201.66
"405037",405037,1995,20,"w","Blue wildebeest",11,-24.44,31.91,389510.71,7296623.06
"405039",405039,1995,20,"w","Blue wildebeest",2,-24.4,31.92,390489.93,7301060.33
"405040",405040,1995,20,"w","Blue wildebeest",15,-24.39,31.92,390481.31,7302167.66
"405044",405044,1995,20,"w","Blue wildebeest",1,-24.39,31.91,389467.17,7302159.73
"405047",405047,1995,20,"w","Blue wildebeest",1,-24.4,31.91,389475.87,7301052.4
"405048",405048,1995,20,"w","Blue wildebeest",7,-24.41,31.9,388470.59,7299937.06
"405049",405049,1995,20,"w","Blue wildebeest",8,-24.41,31.9,388470.59,7299937.06
"405050",405050,1995,20,"w","Blue wildebeest",1,-24.42,31.9,388479.38,7298829.72
"405051",405051,1995,20,"w","Blue wildebeest",2,-24.43,31.9,388488.17,7297722.39
"405053",405053,1995,20,"w","Blue wildebeest",2,-24.47,31.88,386496.35,7293276.76
"405055",405055,1995,20,"w","Blue wildebeest",15,-24.44,31.89,387483.22,7296606.96
"405057",405057,1995,20,"w","Blue wildebeest",1,-24.44,31.89,387483.22,7296606.96
"405061",405061,1995,20,"w","Blue wildebeest",1,-24.43,31.89,387474.34,7297714.3
"405062",405062,1995,20,"w","Blue wildebeest",2,-24.43,31.89,387474.34,7297714.3
"405065",405065,1995,18,"w","Blue wildebeest",1,-24.39,31.89,387438.87,7302143.64
"405066",405066,1995,18,"w","Blue wildebeest",1,-24.39,31.89,387438.87,7302143.64
"405067",405067,1995,18,"w","Blue wildebeest",1,-24.38,31.89,387430.02,7303250.98
"405070",405070,1995,20,"w","Blue wildebeest",1,-24.4,31.88,386433.67,7301028.16
"405074",405074,1995,20,"w","Blue wildebeest",10,-24.48,31.86,384478.46,7292152.84
"405094",405094,1995,20,"w","Blue wildebeest",6,-24.48,31.83,381438.14,7292127.44
"405098",405098,1995,20,"w","Blue wildebeest",1,-24.39,31.84,382368.1,7302102.16
"405103",405103,1995,20,"w","Blue wildebeest",5,-24.48,31.82,380424.7,7292118.83
"405104",405104,1995,20,"w","Blue wildebeest",4,-24.47,31.81,379401.72,7293217.51
"405105",405105,1995,20,"w","Blue wildebeest",10,-24.46,31.81,379392.19,7294324.88
"405106",405106,1995,20,"w","Blue wildebeest",1,-24.4,31.82,380349.2,7300977.7
"405112",405112,1995,20,"w","Blue wildebeest",1,-24.42,31.8,378340.2,7298745.58
"405114",405114,1995,20,"w","Blue wildebeest",1,-24.47,31.8,378388.19,7293208.75
"405116",405116,1995,20,"w","Blue wildebeest",1,-24.48,31.8,378397.8,7292101.38
"405119",405119,1995,20,"w","Blue wildebeest",1,-24.41,31.79,377316.6,7299844.12
"405124",405124,1995,20,"w","Blue wildebeest",1,-24.56,31.87,385564.41,7283302.31
"405127",405127,1995,20,"w","Blue wildebeest",6,-24.61,31.89,387634.62,7277781.96
"405133",405133,1995,20,"w","Blue wildebeest",3,-24.58,31.89,387607.83,7281104.05
"405135",405135,1995,20,"w","Blue wildebeest",6,-24.54,31.88,386559.21,7285525.29
"405136",405136,1995,20,"w","Blue wildebeest",5,-24.54,31.88,386559.21,7285525.29
"405138",405138,1995,20,"w","Blue wildebeest",1,-24.57,31.9,388611.61,7282219.53
"405141",405141,1995,20,"w","Blue wildebeest",1,-24.57,31.91,389624.31,7282227.58
"405144",405144,1995,20,"w","Blue wildebeest",1,-24.53,31.89,387563.25,7286640.83
"405146",405146,1995,20,"w","Blue wildebeest",1,-24.48,31.88,386505.32,7292169.41
"405154",405154,1995,20,"w","Blue wildebeest",1,-24.56,31.92,390628.33,7283342.91
"405158",405158,1995,20,"w","Blue wildebeest",1,-24.55,31.92,390619.66,7284450.26
"405159",405159,1995,20,"w","Blue wildebeest",1,-24.54,31.91,389598.05,7285549.64
"405163",405163,1995,20,"w","Blue wildebeest",2,-24.51,31.91,389571.81,7288871.68
"405167",405167,1995,20,"w","Blue wildebeest",2,-24.51,31.91,389571.81,7288871.68
"405169",405169,1995,20,"w","Blue wildebeest",1,-24.5,31.9,388549.81,7289970.99
"405172",405172,1995,20,"w","Blue wildebeest",1,-24.48,31.91,389545.6,7292193.71
"405173",405173,1995,20,"w","Blue wildebeest",1,-24.48,31.91,389545.6,7292193.71
"405177",405177,1995,20,"w","Blue wildebeest",7,-24.53,31.92,390602.32,7286664.95
"405180",405180,1995,20,"w","Blue wildebeest",1,-24.55,31.93,391632.52,7284458.15
"405185",405185,1995,23,"w","Blue wildebeest",2,-24.59,31.95,393691.98,7280044.35
"405189",405189,1995,20,"w","Blue wildebeest",1,-24.56,31.94,392653.89,7283358.63
"405190",405190,1995,20,"w","Blue wildebeest",8,-24.55,31.94,392645.37,7284465.98
"405191",405191,1995,20,"w","Blue wildebeest",8,-24.55,31.94,392645.37,7284465.98
"405195",405195,1995,20,"w","Blue wildebeest",1,-24.53,31.93,391615.34,7286672.84
"405197",405197,1995,20,"w","Blue wildebeest",5,-24.51,31.93,391598.17,7288887.53
"405204",405204,1995,20,"w","Blue wildebeest",1,-24.53,31.95,393641.37,7286688.41
"405211",405211,1995,23,"w","Blue wildebeest",1,-24.53,31.96,394654.38,7286696.08
"405213",405213,1995,20,"w","Blue wildebeest",1,-24.51,31.95,393624.52,7288903.08
"405214",405214,1995,20,"w","Blue wildebeest",9,-24.51,31.95,393624.52,7288903.08
"405216",405216,1995,23,"w","Blue wildebeest",1,-24.53,31.96,394654.38,7286696.08
"405284",405284,1995,23,"w","Blue wildebeest",1,-24.56,31.96,394679.44,7283374.06
"405285",405285,1995,23,"w","Blue wildebeest",5,-24.56,31.96,394679.44,7283374.06
"405312",405312,1995,23,"w","Blue wildebeest",7,-24.56,31.96,394679.44,7283374.06
"405343",405343,1995,23,"w","Blue wildebeest",1,-24.66,31.96,394763.15,7272300.58
"405369",405369,1995,23,"w","Blue wildebeest",1,-24.66,31.94,392739.21,7272285.1
"405370",405370,1995,23,"w","Blue wildebeest",1,-24.66,31.94,392739.21,7272285.1
"405371",405371,1995,23,"w","Blue wildebeest",1,-24.65,31.94,392730.67,7273392.46
"405376",405376,1995,23,"w","Blue wildebeest",1,-24.65,31.92,390706.56,7273376.7
"405394",405394,1995,24,"w","Blue wildebeest",1,-24.4,31.77,375278.74,7300933.64
"405395",405395,1995,24,"w","Blue wildebeest",1,-24.41,31.77,375288.57,7299826.27
"405399",405399,1995,24,"w","Blue wildebeest",9,-24.47,31.77,375347.59,7293182.04
"405402",405402,1995,24,"w","Blue wildebeest",31,-24.48,31.77,375357.44,7292074.66
"405403",405403,1995,24,"w","Blue wildebeest",5,-24.47,31.75,373320.51,7293163.87
"405405",405405,1995,24,"w","Blue wildebeest",11,-24.46,31.75,373310.5,7294271.25
"405406",405406,1995,24,"w","Blue wildebeest",5,-24.44,31.75,373290.5,7296486.01
"405407",405407,1995,24,"w","Blue wildebeest",20,-24.44,31.75,373290.5,7296486.01
"405408",405408,1995,24,"w","Blue wildebeest",1,-24.44,31.75,373290.5,7296486.01
"405409",405409,1995,24,"w","Blue wildebeest",1,-24.44,31.75,373290.5,7296486.01
"405411",405411,1995,24,"w","Blue wildebeest",1,-24.43,31.75,373280.51,7297593.38
"405412",405412,1995,24,"w","Blue wildebeest",3,-24.42,31.75,373270.52,7298700.76
"405413",405413,1995,24,"w","Blue wildebeest",2,-24.42,31.75,373270.52,7298700.76
"405414",405414,1995,24,"w","Blue wildebeest",22,-24.42,31.75,373270.52,7298700.76
"405418",405418,1995,16,"w","Blue wildebeest",1,-24.4,31.76,374264.65,7300924.61
"405420",405420,1995,24,"w","Blue wildebeest",25,-24.4,31.75,373250.54,7300915.5
"405423",405423,1995,24,"w","Blue wildebeest",1,-24.42,31.75,373270.52,7298700.76
"405424",405424,1995,24,"w","Blue wildebeest",16,-24.43,31.75,373280.51,7297593.38
"405426",405426,1995,24,"w","Blue wildebeest",1,-24.43,31.75,373280.51,7297593.38
"405427",405427,1995,24,"w","Blue wildebeest",1,-24.43,31.75,373280.51,7297593.38
"405428",405428,1995,24,"w","Blue wildebeest",1,-24.43,31.75,373280.51,7297593.38
"405430",405430,1995,24,"w","Blue wildebeest",1,-24.44,31.75,373290.5,7296486.01
"405435",405435,1995,24,"w","Blue wildebeest",1,-24.47,31.73,371293.42,7293145.4
"405436",405436,1995,24,"w","Blue wildebeest",1,-24.44,31.74,372276.72,7296476.82
"405439",405439,1995,24,"w","Blue wildebeest",1,-24.43,31.74,372266.64,7297584.2
"405440",405440,1995,24,"w","Blue wildebeest",2,-24.43,31.74,372266.64,7297584.2
"405442",405442,1995,24,"w","Blue wildebeest",6,-24.42,31.74,372256.57,7298691.57
"405443",405443,1995,24,"w","Blue wildebeest",4,-24.42,31.74,372256.57,7298691.57
"405447",405447,1995,24,"w","Blue wildebeest",1,-24.4,31.74,372236.44,7300906.33
"405451",405451,1995,24,"w","Blue wildebeest",5,-24.42,31.73,371242.63,7298682.32
"405455",405455,1995,24,"w","Blue wildebeest",10,-24.44,31.73,371262.93,7296467.55
"405457",405457,1995,24,"w","Blue wildebeest",1,-24.44,31.73,371262.93,7296467.55
"405463",405463,1995,24,"w","Blue wildebeest",1,-24.47,31.73,371293.42,7293145.4
"405478",405478,1995,24,"w","Blue wildebeest",1,-24.43,31.71,369225.04,7297556.2
"405484",405484,1995,24,"w","Blue wildebeest",1,-24.4,31.71,369194.11,7300878.35
"405491",405491,1995,24,"w","Blue wildebeest",15,-24.47,31.64,362171.39,7293058.66
"405492",405492,1995,24,"w","Blue wildebeest",4,-24.46,31.64,362160.5,7294166.08
"405509",405509,1995,24,"w","Blue wildebeest",4,-24.46,31.64,362160.5,7294166.08
"405529",405529,1995,24,"w","Blue wildebeest",1,-24.48,31.66,364209.26,7291971.04
"405533",405533,1995,24,"w","Blue wildebeest",1,-24.49,31.66,364219.99,7290863.63
"405536",405536,1995,24,"w","Blue wildebeest",6,-24.43,31.66,364155.64,7297508.07
"405537",405537,1995,24,"w","Blue wildebeest",2,-24.41,31.66,364134.22,7299722.87
"405551",405551,1995,24,"w","Blue wildebeest",1,-24.44,31.67,365180.16,7296410.44
"405558",405558,1995,24,"w","Blue wildebeest",5,-24.48,31.68,366236.22,7291990.54
"405561",405561,1995,24,"w","Blue wildebeest",6,-24.5,31.69,367270.7,7289785.38
"405562",405562,1995,24,"w","Blue wildebeest",18,-24.5,31.69,367270.7,7289785.38
"405566",405566,1995,24,"w","Blue wildebeest",1,-24.48,31.69,367249.7,7292000.18
"405574",405574,1995,24,"w","Blue wildebeest",1,-24.45,31.68,366204.52,7295312.75
"405575",405575,1995,24,"w","Blue wildebeest",1,-24.45,31.68,366204.52,7295312.75
"405576",405576,1995,24,"w","Blue wildebeest",10,-24.45,31.68,366204.52,7295312.75
"405581",405581,1995,24,"w","Blue wildebeest",11,-24.41,31.67,365148.27,7299732.64
"405588",405588,1995,24,"w","Blue wildebeest",1,-24.45,31.68,366204.52,7295312.75
"405605",405605,1995,24,"w","Blue wildebeest",3,-24.5,31.7,368284.01,7289794.95
"405606",405606,1995,24,"w","Blue wildebeest",1,-24.5,31.7,368284.01,7289794.95
"405607",405607,1995,24,"w","Blue wildebeest",1,-24.5,31.7,368284.01,7289794.95
"405608",405608,1995,24,"w","Blue wildebeest",5,-24.5,31.7,368284.01,7289794.95
"405609",405609,1995,24,"w","Blue wildebeest",14,-24.5,31.7,368284.01,7289794.95
"405613",405613,1995,24,"w","Blue wildebeest",7,-24.51,31.7,368294.44,7288687.55
"405622",405622,1995,24,"w","Blue wildebeest",1,-24.45,31.7,368231.96,7295331.94
"405625",405625,1995,24,"w","Blue wildebeest",1,-24.44,31.69,367207.76,7296429.77
"405637",405637,1995,24,"w","Blue wildebeest",1,-24.42,31.69,367186.81,7298644.56
"405659",405659,1995,24,"w","Blue wildebeest",3,-24.53,31.71,369328.37,7286482.25
"405665",405665,1995,24,"w","Blue wildebeest",1,-24.6,31.72,370413.45,7278739.86
"405670",405670,1995,24,"w","Blue wildebeest",4,-24.59,31.73,371415.73,7279856.65
"405674",405674,1995,24,"w","Blue wildebeest",6,-24.56,31.72,370372.28,7283169.49
"405706",405706,1995,24,"w","Blue wildebeest",1,-24.59,31.74,372428.31,7279865.95
"405710",405710,1995,24,"w","Blue wildebeest",1,-24.61,31.75,373461.01,7277660.38
"405715",405715,1995,24,"w","Blue wildebeest",1,-24.59,31.74,372428.31,7279865.95
"405718",405718,1995,24,"w","Blue wildebeest",4,-24.58,31.74,372418.18,7280973.35
"405720",405720,1995,24,"w","Blue wildebeest",1,-24.56,31.74,372397.93,7283188.15
"405721",405721,1995,24,"w","Blue wildebeest",11,-24.55,31.74,372387.8,7284295.55
"405725",405725,1995,24,"w","Blue wildebeest",5,-24.52,31.74,372357.46,7287617.73
"405736",405736,1995,25,"w","Blue wildebeest",4,-24.47,31.61,359130.66,7293028.43
"405738",405738,1995,25,"w","Blue wildebeest",4,-24.46,31.61,359119.53,7294135.85
"405774",405774,1995,25,"w","Blue wildebeest",10,-24.44,31.56,354028.15,7296298.89
"405784",405784,1995,25,"w","Blue wildebeest",6,-24.45,31.54,352012.16,7295170.21
"405798",405798,1995,25,"w","Blue wildebeest",2,-24.48,31.54,352047.22,7291847.87
"405800",405800,1995,25,"w","Blue wildebeest",2,-24.47,31.53,351021.93,7292944.58
"405805",405805,1995,25,"w","Blue wildebeest",9,-24.45,31.52,349984.63,7295148.67
"405810",405810,1995,25,"w","Blue wildebeest",4,-24.46,31.51,348982.79,7294030.34
"405816",405816,1995,25,"w","Blue wildebeest",1,-24.47,31.51,348994.72,7292922.89
"405819",405819,1995,25,"w","Blue wildebeest",5,-24.46,31.51,348982.79,7294030.34
"405826",405826,1995,25,"w","Blue wildebeest",12,-24.47,31.5,347981.1,7292911.93
"405827",405827,1995,25,"w","Blue wildebeest",1,-24.48,31.51,349006.65,7291815.43
"405838",405838,1995,14,"w","Blue wildebeest",8,-24.46,31.49,346955.4,7294008.36
"405851",405851,1995,25,"w","Blue wildebeest",6,-24.48,31.48,345966.05,7291782.33
"405854",405854,1995,25,"w","Blue wildebeest",2,-24.47,31.48,345953.87,7292889.8
"405858",405858,1995,25,"w","Blue wildebeest",10,-24.48,31.47,344952.51,7291771.15
"405859",405859,1995,25,"w","Blue wildebeest",1,-24.5,31.48,345990.41,7289567.39
"405863",405863,1995,25,"w","Blue wildebeest",19,-24.51,31.48,346002.6,7288459.92
"405866",405866,1995,25,"w","Blue wildebeest",15,-24.49,31.46,343951.31,7290652.42
"405870",405870,1995,25,"w","Blue wildebeest",4,-24.5,31.47,344977.03,7289556.21
"405872",405872,1995,25,"w","Blue wildebeest",4,-24.52,31.48,346014.8,7287352.45
"405876",405876,1995,25,"w","Blue wildebeest",15,-24.54,31.48,346039.2,7285137.5
"405877",405877,1995,25,"w","Blue wildebeest",5,-24.55,31.49,347064.38,7284041.16
"405878",405878,1995,25,"w","Blue wildebeest",6,-24.55,31.49,347064.38,7284041.16
"405901",405901,1995,25,"w","Blue wildebeest",6,-24.53,31.43,340961.27,7286188.25
"405902",405902,1995,25,"w","Blue wildebeest",8,-24.53,31.43,340961.27,7286188.25
"405903",405903,1995,25,"w","Blue wildebeest",10,-24.53,31.43,340961.27,7286188.25
"405912",405912,1995,25,"w","Blue wildebeest",5,-24.51,31.63,361201.73,7288618.98
"405914",405914,1995,25,"w","Blue wildebeest",8,-24.55,31.64,362258.64,7284199.31
"405955",405955,1995,25,"w","Blue wildebeest",8,-24.55,31.61,359219.84,7284169
"405956",405956,1995,25,"w","Blue wildebeest",1,-24.54,31.6,358195.66,7285266.19
"405976",405976,1995,25,"w","Blue wildebeest",18,-24.5,31.55,353083.98,7289643.65
"405979",405979,1995,25,"w","Blue wildebeest",3,-24.48,31.55,353060.74,7291858.54
"405982",405982,1995,25,"w","Blue wildebeest",11,-24.56,31.56,354166.69,7283009.57
"405983",405983,1995,26,"w","Blue wildebeest",1,-24.56,31.55,353153.81,7282998.95
"405986",405986,1995,26,"w","Blue wildebeest",14,-24.56,31.55,353153.81,7282998.95
"405996",405996,1995,25,"w","Blue wildebeest",8,-24.53,31.55,353118.88,7286321.31
"405999",405999,1995,25,"w","Blue wildebeest",1,-24.55,31.54,352129.21,7284095.71
"406006",406006,1995,26,"w","Blue wildebeest",1,-24.56,31.53,351128.06,7282977.49
"406008",406008,1995,25,"w","Blue wildebeest",21,-24.56,31.52,350115.18,7282966.65
"406013",406013,1995,25,"w","Blue wildebeest",6,-24.51,31.51,349042.48,7288493.06
"406022",406022,1995,25,"w","Blue wildebeest",1,-24.58,31.52,350138.97,7280751.72
"406023",406023,1995,25,"w","Blue wildebeest",29,-24.58,31.52,350138.97,7280751.72
"406028",406028,1995,25,"w","Blue wildebeest",7,-24.57,31.51,349114.27,7281848.27
"406073",406073,1995,43,"w","Blue wildebeest",1,-22.66,31.24,319163.8,7493047.06
"406091",406091,1995,43,"w","Blue wildebeest",2,-22.72,31.21,316160.75,7486366.23
"406093",406093,1995,43,"w","Blue wildebeest",1,-22.72,31.21,316160.75,7486366.23
"406125",406125,1995,43,"w","Blue wildebeest",1,-22.74,31.27,322350.15,7484224.75
"406165",406165,1995,44,"w","Blue wildebeest",3,-22.82,31.33,328612.67,7475437.06
"406199",406199,1995,44,"w","Blue wildebeest",1,-22.89,31.25,320492.73,7467590.6
"406219",406219,1995,44,"w","Blue wildebeest",4,-22.86,31.37,332767.47,7471053.77
"406234",406234,1995,44,"w","Blue wildebeest",1,-22.86,31.32,327636.62,7470996.18
"406241",406241,1995,44,"w","Blue wildebeest",1,-22.87,31.3,325597.03,7469865.34
"406271",406271,1995,44,"w","Blue wildebeest",1,-22.86,31.42,337898.23,7471109.62
"406309",406309,1995,45,"w","Blue wildebeest",8,-22.96,31.27,322635.88,7459863.46
"406311",406311,1995,45,"w","Blue wildebeest",19,-22.97,31.28,323674.29,7458768.17
"406317",406317,1995,45,"w","Blue wildebeest",3,-22.96,31.28,323661.32,7459875.51
"406318",406318,1995,45,"w","Blue wildebeest",5,-22.95,31.27,322622.83,7460970.81
"406320",406320,1995,45,"w","Blue wildebeest",1,-22.98,31.3,325737.85,7457684.72
"406322",406322,1995,45,"w","Blue wildebeest",1,-22.99,31.3,325750.68,7456577.39
"406358",406358,1995,44,"w","Blue wildebeest",9,-22.88,31.42,337921.97,7468895.07
"406375",406375,1995,45,"w","Blue wildebeest",3,-23,31.36,331914.24,7455540.12
"406396",406396,1995,45,"w","Blue wildebeest",3,-22.95,31.39,334928.81,7461110.71
"406456",406456,1995,47,"w","Blue wildebeest",1,-23.09,31.44,340221.24,7445664.01
"406465",406465,1995,47,"w","Blue wildebeest",6,-23.07,31.44,340197.59,7447878.6
"406469",406469,1995,47,"w","Blue wildebeest",1,-23.04,31.44,340162.17,7451200.48
"406576",406576,1995,47,"w","Blue wildebeest",2,-23.04,31.38,334013.43,7451133.68
"406583",406583,1995,49,"w","Blue wildebeest",1,-23.08,31.39,335086.99,7446715.74
"406587",406587,1995,49,"w","Blue wildebeest",9,-23.08,31.38,334062.5,7446704.42
"406596",406596,1995,49,"w","Blue wildebeest",10,-23.05,31.37,333000.97,7450014.98
"406605",406605,1995,49,"w","Blue wildebeest",1,-23.09,31.38,334074.78,7445597.1
"406606",406606,1995,49,"w","Blue wildebeest",6,-23.09,31.38,334074.78,7445597.1
"406614",406614,1995,49,"w","Blue wildebeest",1,-23.06,31.36,331988.65,7448896.21
"406624",406624,1995,49,"w","Blue wildebeest",9,-23.11,31.36,332050.81,7443359.58
"406630",406630,1995,49,"w","Blue wildebeest",8,-23.11,31.36,332050.81,7443359.58
"406636",406636,1995,49,"w","Blue wildebeest",2,-23.14,31.36,332088.16,7440037.59
"406647",406647,1995,49,"w","Blue wildebeest",12,-23.09,31.34,329977.07,7445551.09
"406664",406664,1995,49,"w","Blue wildebeest",1,-23.1,31.33,328965.3,7444432.07
"406679",406679,1995,49,"w","Blue wildebeest",1,-23.14,31.32,327991.95,7439990.94
"406684",406684,1995,49,"w","Blue wildebeest",1,-23.1,31.31,326916.57,7444408.5
"406694",406694,1995,49,"w","Blue wildebeest",10,-23.12,31.3,325918,7442181.9
"406702",406702,1995,49,"w","Blue wildebeest",1,-23.14,31.3,325943.82,7439967.19
"406706",406706,1995,49,"w","Blue wildebeest",3,-23.11,31.29,324880.79,7443277.29
"406709",406709,1995,49,"w","Blue wildebeest",5,-23.1,31.29,324867.82,7444384.64
"406725",406725,1995,49,"w","Blue wildebeest",1,-23.12,31.29,324893.77,7442169.93
"406734",406734,1995,49,"w","Blue wildebeest",1,-23.15,31.29,324932.74,7438847.85
"406739",406739,1995,49,"w","Blue wildebeest",1,-23.11,31.27,322832.19,7443253.14
"406742",406742,1995,49,"w","Blue wildebeest",1,-23.14,31.28,323895.67,7439943.16
"406747",406747,1995,49,"w","Blue wildebeest",1,-23.15,31.29,324932.74,7438847.85
"406755",406755,1995,49,"w","Blue wildebeest",1,-23.15,31.28,323908.74,7438835.8
"406786",406786,1995,49,"w","Blue wildebeest",1,-23.13,31.25,320810.13,7441013.97
"406843",406843,1995,49,"w","Blue wildebeest",1,-23.16,31.21,316754.25,7437642.06
"406859",406859,1995,49,"w","Blue wildebeest",2,-23.15,31.19,314692.58,7438724.15
"406866",406866,1995,49,"w","Blue wildebeest",3,-23.17,31.21,316767.87,7436534.66
"406908",406908,1995,49,"w","Blue wildebeest",1,-23.06,31.34,329939.34,7448873.09
"406918",406918,1995,49,"w","Blue wildebeest",3,-23.09,31.33,328952.63,7445539.41
"406932",406932,1995,49,"w","Blue wildebeest",20,-23.09,31.31,326903.75,7445515.85
"406933",406933,1995,49,"w","Blue wildebeest",8,-23.09,31.31,326903.75,7445515.85
"406958",406958,1995,49,"w","Blue wildebeest",1,-23.09,31.3,325879.3,7445503.96
"406960",406960,1995,49,"w","Blue wildebeest",1,-23.1,31.3,325892.2,7444396.61
"406967",406967,1995,49,"w","Blue wildebeest",1,-23.05,31.29,324803.04,7449921.4
"406985",406985,1995,49,"w","Blue wildebeest",1,-23.06,31.29,324815.98,7448814.05
"406992",406992,1995,49,"w","Blue wildebeest",1,-23.1,31.29,324867.82,7444384.64
"407027",407027,1995,49,"w","Blue wildebeest",2,-23.11,31.23,318734.92,7443204.01
"407058",407058,1995,49,"w","Blue wildebeest",1,-23.07,31.18,313558.06,7447570.61
"407065",407065,1995,49,"w","Blue wildebeest",3,-23.07,31.17,312533.41,7447557.81
"407078",407078,1995,50,"w","Blue wildebeest",8,-23.08,30.92,286931.6,7446107.64
"407086",407086,1995,50,"w","Blue wildebeest",3,-23.02,30.92,286837.11,7452752.72
"407092",407092,1995,50,"w","Blue wildebeest",8,-23.08,30.93,287956.28,7446122.19
"407106",407106,1995,50,"w","Blue wildebeest",1,-23.08,30.95,290005.63,7446151.09
"407108",407108,1995,50,"w","Blue wildebeest",12,-23.08,30.96,291030.29,7446165.43
"407123",407123,1995,50,"w","Blue wildebeest",10,-23.08,30.97,292054.95,7446179.71
"407135",407135,1995,50,"w","Blue wildebeest",1,-23.01,30.97,291947.39,7453932.13
"407167",407167,1995,50,"w","Blue wildebeest",1,-23.01,30.98,292972.58,7453946.3
"407204",407204,1995,50,"w","Blue wildebeest",1,-23.09,31.02,297193.21,7445142.55
"407238",407238,1995,50,"w","Blue wildebeest",10,-23.03,31.03,298128.24,7451801.18
"407287",407287,1995,50,"w","Blue wildebeest",1,-23.06,31.06,301247.31,7448519.9
"407329",407329,1995,50,"w","Blue wildebeest",1,-23.06,31.11,306371.11,7448587
"407346",407346,1995,50,"w","Blue wildebeest",2,-23.08,31.15,310498.12,7446424.6
"407437",407437,1995,50,"w","Blue wildebeest",2,-23.16,30.95,290130.16,7437291.03
"407451",407451,1995,50,"w","Blue wildebeest",4,-23.09,30.94,288996.58,7445029.17
"407544",407544,1995,50,"w","Blue wildebeest",2,-23.11,31.08,303369.63,7443009.74
"407563",407563,1995,51,"w","Blue wildebeest",1,-22.93,31.07,302082.56,7462930.13
"407573",407573,1995,51,"w","Blue wildebeest",1,-22.91,31.05,300001.68,7465117.92
"407577",407577,1995,53,"w","Blue wildebeest",2,-22.87,31.03,297890.59,7469520.36
"407618",407618,1995,51,"w","Blue wildebeest",1,-22.91,31,294872.08,7465049.06
"407631",407631,1995,51,"w","Blue wildebeest",1,-22.93,30.98,292850.63,7462806.09
"407686",407686,1995,52,"w","Blue wildebeest",1,-23,31.29,324738.38,7455458.13
"407751",407751,1995,52,"w","Blue wildebeest",1,-23.03,31.23,318627.65,7452063.01
"407846",407846,1995,52,"w","Blue wildebeest",6,-22.96,31.18,313406.72,7459751.89
"407847",407847,1995,52,"w","Blue wildebeest",5,-22.96,31.18,313406.72,7459751.89
"407863",407863,1995,52,"w","Blue wildebeest",1,-22.98,31.16,311383.52,7457511.54
"407864",407864,1995,52,"w","Blue wildebeest",1,-22.95,31.17,312367.44,7460846.53
"407871",407871,1995,52,"w","Blue wildebeest",1,-23.02,31.14,309389.05,7453056.06
"407888",407888,1995,52,"w","Blue wildebeest",1,-22.92,31.14,309248.71,7464130.08
"407964",407964,1995,53,"w","Blue wildebeest",1,-22.85,30.97,291702.69,7471651.72
"407970",407970,1995,53,"w","Blue wildebeest",5,-22.84,31.02,296819.75,7472828.93
"407978",407978,1995,53,"w","Blue wildebeest",2,-22.83,31.04,298857.94,7473963.77
"407992",407992,1995,53,"w","Blue wildebeest",9,-22.82,31.03,297816.64,7475057.53
"407994",407994,1995,53,"w","Blue wildebeest",8,-22.82,31.06,300896.41,7475098.31
"408003",408003,1995,53,"w","Blue wildebeest",1,-22.82,30.99,293710.22,7475002.2
"408012",408012,1995,53,"w","Blue wildebeest",10,-22.81,31.03,297801.87,7476164.97
"408047",408047,1995,0,"w","Blue wildebeest",2,-22.76,30.99,293619.89,7481646.89
"408074",408074,1995,45,"w","Blue wildebeest",5,-22.95,31.24,319546.26,7460934.26
"408130",408130,1995,54,"w","Blue wildebeest",1,-22.9,31.16,311272.59,7466370.66
"408134",408134,1995,52,"w","Blue wildebeest",1,-22.91,31.16,311286.44,7465263.27
