"","ID","Year","Cenb","Sp","Description","No","Lat","Long","X.coord","Y.coord"
"49745",49745,1981,9,"rb","Reedbuck",1,-23.58,31.23,319372.28,7391155.71
"50509",50509,1981,12,"rb","Reedbuck",2,-23.28,30.98,293387.12,7424043.9
"51008",51008,1981,13,"rb","Reedbuck",1,-23.72,31.55,352190.86,7376020.31
"51257",51257,1981,13,"rb","Reedbuck",2,-23.66,31.61,358243.16,7382725.21
"51511",51511,1981,14,"rb","Reedbuck",1,-23.56,31.46,342824.03,7393641.75
"51512",51512,1981,14,"rb","Reedbuck",3,-23.56,31.46,342824.03,7393641.75
"51519",51519,1981,14,"rb","Reedbuck",1,-23.58,31.46,342847.84,7391427.05
"51525",51525,1981,14,"rb","Reedbuck",3,-23.58,31.48,344889.11,7391448.86
"51530",51530,1981,14,"rb","Reedbuck",1,-23.51,31.46,342764.59,7399178.48
"51531",51531,1981,14,"rb","Reedbuck",1,-23.51,31.46,342764.59,7399178.48
"51539",51539,1981,14,"rb","Reedbuck",1,-23.51,31.48,344806.94,7399200.25
"51551",51551,1981,14,"rb","Reedbuck",1,-23.53,31.48,344830.39,7396985.57
"51552",51552,1981,14,"rb","Reedbuck",3,-23.53,31.48,344830.39,7396985.57
"51568",51568,1981,14,"rb","Reedbuck",2,-23.49,31.46,342740.85,7401393.17
"51573",51573,1981,14,"rb","Reedbuck",2,-23.49,31.48,344783.51,7401414.92
"51579",51579,1981,14,"rb","Reedbuck",1,-23.45,31.46,342693.42,7405822.52
"51600",51600,1981,14,"rb","Reedbuck",1,-23.56,31.53,349969.49,7393716.79
"51601",51601,1981,14,"rb","Reedbuck",2,-23.56,31.53,349969.49,7393716.79
"51611",51611,1981,14,"rb","Reedbuck",1,-23.58,31.53,349992.22,7391502.14
"51612",51612,1981,14,"rb","Reedbuck",1,-23.58,31.53,349992.22,7391502.14
"51613",51613,1981,14,"rb","Reedbuck",1,-23.58,31.53,349992.22,7391502.14
"51614",51614,1981,14,"rb","Reedbuck",1,-23.58,31.53,349992.22,7391502.14
"51615",51615,1981,14,"rb","Reedbuck",2,-23.58,31.53,349992.22,7391502.14
"51619",51619,1981,14,"rb","Reedbuck",1,-23.51,31.51,347870.44,7399232.35
"51620",51620,1981,14,"rb","Reedbuck",1,-23.51,31.51,347870.44,7399232.35
"51621",51621,1981,14,"rb","Reedbuck",3,-23.51,31.51,347870.44,7399232.35
"51628",51628,1981,14,"rb","Reedbuck",1,-23.53,31.53,349935.44,7397038.76
"51629",51629,1981,14,"rb","Reedbuck",2,-23.53,31.53,349935.44,7397038.76
"51634",51634,1981,14,"rb","Reedbuck",1,-23.47,31.51,347824.52,7403661.65
"51641",51641,1981,14,"rb","Reedbuck",2,-23.47,31.53,349867.45,7403682.67
"51646",51646,1981,14,"rb","Reedbuck",1,-23.49,31.51,347847.47,7401447
"51647",51647,1981,14,"rb","Reedbuck",2,-23.49,31.51,347847.47,7401447
"51648",51648,1981,14,"rb","Reedbuck",2,-23.49,31.51,347847.47,7401447
"51649",51649,1981,14,"rb","Reedbuck",4,-23.49,31.51,347847.47,7401447
"51656",51656,1981,14,"rb","Reedbuck",3,-23.45,31.51,347801.58,7405876.28
"51757",51757,1981,15,"rb","Reedbuck",1,-23.41,31.38,334470.38,7410162.26
"51760",51760,1981,15,"rb","Reedbuck",2,-23.37,31.4,336465.21,7414614.48
"51777",51777,1981,15,"rb","Reedbuck",1,-23.43,31.44,340626.14,7408015.2
"51842",51842,1981,15,"rb","Reedbuck",1,-23.43,31.51,347778.67,7408090.92
"51905",51905,1981,18,"rb","Reedbuck",2,-23.18,31.32,328043.04,7435561.54
"51918",51918,1981,18,"rb","Reedbuck",1,-23.26,31.34,330191.77,7426726.23
"51921",51921,1981,18,"rb","Reedbuck",1,-23.26,31.36,332238.04,7426749.51
"51986",51986,1981,18,"rb","Reedbuck",2,-23.28,31.38,334309.04,7424557.82
"52001",52001,1981,18,"rb","Reedbuck",1,-23.24,31.4,336306.12,7429009.88
"52089",52089,1981,18,"rb","Reedbuck",1,-23.26,31.42,338376.77,7426817.65
"55008",55008,1981,24,"rb","Reedbuck",1,-24.31,31.61,358953.12,7310747.02
"57675",57675,1981,29,"rb","Reedbuck",1,-24.68,31.82,380614.45,7269971.26
"59348",59348,1981,32,"rb","Reedbuck",2,-24.49,31.61,359152.93,7290813.58
"59357",59357,1981,32,"rb","Reedbuck",1,-24.43,31.61,359086.17,7297458.11
"60329",60329,1981,35,"rb","Reedbuck",1,-24.83,31.63,361555.48,7253180.75
"60334",60334,1981,35,"rb","Reedbuck",1,-24.83,31.65,363576.81,7253200.9
"60465",60465,1981,35,"rb","Reedbuck",1,-24.87,31.69,367662.02,7248810.51
"61461",61461,1981,38,"rb","Reedbuck",1,-24.95,31.84,382892.22,7240088.55
"61462",61462,1981,38,"rb","Reedbuck",3,-24.95,31.84,382892.22,7240088.55
"61479",61479,1981,38,"rb","Reedbuck",1,-24.91,31.86,384874.33,7244535.32
"61503",61503,1981,38,"rb","Reedbuck",1,-25.06,31.9,389048.88,7227957.35
"61521",61521,1981,38,"rb","Reedbuck",1,-25.03,31.88,387003.93,7231263.08
"61522",61522,1981,38,"rb","Reedbuck",1,-25.03,31.88,387003.93,7231263.08
"61526",61526,1981,38,"rb","Reedbuck",1,-25.03,31.9,389021.87,7231279.62
"61530",61530,1981,38,"rb","Reedbuck",2,-24.99,31.88,386967.31,7235692.78
"61586",61586,1981,38,"rb","Reedbuck",1,-25.14,31.94,393153.3,7219130.19
"61594",61594,1981,38,"rb","Reedbuck",2,-25.1,31.92,391101.72,7223543.91
"61603",61603,1981,38,"rb","Reedbuck",1,-25.12,31.94,393135.9,7221345.04
"61627",61627,1981,38,"rb","Reedbuck",1,-25.01,31.94,393040.41,7233526.64
"62187",62187,1981,39,"rb","Reedbuck",1,-25.14,31.19,317541.4,7218325.48
"62188",62188,1981,39,"rb","Reedbuck",1,-25.14,31.19,317541.4,7218325.48
"62205",62205,1981,39,"rb","Reedbuck",1,-25.14,31.21,319557.94,7218352.4
"62206",62206,1981,39,"rb","Reedbuck",1,-25.14,31.21,319557.94,7218352.4
"62207",62207,1981,39,"rb","Reedbuck",1,-25.14,31.21,319557.94,7218352.4
"62208",62208,1981,39,"rb","Reedbuck",5,-25.14,31.21,319557.94,7218352.4
"62228",62228,1981,39,"rb","Reedbuck",1,-25.14,31.23,321574.47,7218379.02
"62229",62229,1981,39,"rb","Reedbuck",3,-25.14,31.23,321574.47,7218379.02
"62230",62230,1981,39,"rb","Reedbuck",6,-25.14,31.23,321574.47,7218379.02
"62236",62236,1981,39,"rb","Reedbuck",1,-25.16,31.21,319587.36,7216137.09
"62243",62243,1981,39,"rb","Reedbuck",1,-25.16,31.23,321603.56,7216163.73
"62244",62244,1981,39,"rb","Reedbuck",1,-25.16,31.23,321603.56,7216163.73
"62250",62250,1981,39,"rb","Reedbuck",1,-25.1,31.23,321516.34,7222809.6
"62251",62251,1981,39,"rb","Reedbuck",1,-25.1,31.23,321516.34,7222809.6
"62258",62258,1981,39,"rb","Reedbuck",1,-25.12,31.21,319528.54,7220567.71
"62259",62259,1981,39,"rb","Reedbuck",3,-25.12,31.21,319528.54,7220567.71
"62260",62260,1981,39,"rb","Reedbuck",3,-25.12,31.21,319528.54,7220567.71
"62270",62270,1981,39,"rb","Reedbuck",1,-25.12,31.23,321545.39,7220594.31
"62271",62271,1981,39,"rb","Reedbuck",2,-25.12,31.23,321545.39,7220594.31
"62290",62290,1981,39,"rb","Reedbuck",1,-25.08,31.21,319469.8,7224998.3
"62291",62291,1981,39,"rb","Reedbuck",1,-25.08,31.21,319469.8,7224998.3
"62307",62307,1981,39,"rb","Reedbuck",1,-25.03,31.23,321414.84,7230563.06
"62313",62313,1981,39,"rb","Reedbuck",1,-25.14,31.26,324599.23,7218418.4
"62314",62314,1981,39,"rb","Reedbuck",2,-25.14,31.26,324599.23,7218418.4
"62315",62315,1981,39,"rb","Reedbuck",2,-25.14,31.26,324599.23,7218418.4
"62316",62316,1981,39,"rb","Reedbuck",3,-25.14,31.26,324599.23,7218418.4
"62324",62324,1981,39,"rb","Reedbuck",1,-25.14,31.28,326615.72,7218444.27
"62325",62325,1981,39,"rb","Reedbuck",1,-25.14,31.28,326615.72,7218444.27
"62326",62326,1981,39,"rb","Reedbuck",1,-25.14,31.28,326615.72,7218444.27
"62327",62327,1981,39,"rb","Reedbuck",2,-25.14,31.28,326615.72,7218444.27
"62328",62328,1981,39,"rb","Reedbuck",2,-25.14,31.28,326615.72,7218444.27
"62348",62348,1981,39,"rb","Reedbuck",2,-25.12,31.26,324570.65,7220633.66
"62349",62349,1981,39,"rb","Reedbuck",2,-25.12,31.26,324570.65,7220633.66
"62359",62359,1981,39,"rb","Reedbuck",1,-25.12,31.28,326587.47,7220659.52
"62360",62360,1981,39,"rb","Reedbuck",1,-25.12,31.28,326587.47,7220659.52
"62361",62361,1981,39,"rb","Reedbuck",2,-25.12,31.28,326587.47,7220659.52
"62397",62397,1981,39,"rb","Reedbuck",1,-25.08,31.26,324513.56,7225064.18
"62398",62398,1981,39,"rb","Reedbuck",2,-25.08,31.26,324513.56,7225064.18
"62465",62465,1981,39,"rb","Reedbuck",1,-25.14,31.3,328632.2,7218469.85
"62466",62466,1981,39,"rb","Reedbuck",1,-25.14,31.3,328632.2,7218469.85
"62467",62467,1981,39,"rb","Reedbuck",2,-25.14,31.3,328632.2,7218469.85
"62468",62468,1981,39,"rb","Reedbuck",3,-25.14,31.3,328632.2,7218469.85
"62469",62469,1981,39,"rb","Reedbuck",3,-25.14,31.3,328632.2,7218469.85
"62481",62481,1981,39,"rb","Reedbuck",1,-25.12,31.3,328604.28,7220685.08
"62491",62491,1981,39,"rb","Reedbuck",1,-25.06,31.32,330538.42,7227355.98
"62653",62653,1981,40,"rb","Reedbuck",1,-25.16,31.19,317571.15,7216110.15
"62659",62659,1981,40,"rb","Reedbuck",1,-25.22,31.23,321690.97,7209517.81
"62671",62671,1981,40,"rb","Reedbuck",1,-25.18,31.21,319616.81,7213921.77
"62672",62672,1981,40,"rb","Reedbuck",1,-25.18,31.21,319616.81,7213921.77
"62673",62673,1981,40,"rb","Reedbuck",1,-25.18,31.21,319616.81,7213921.77
"62674",62674,1981,40,"rb","Reedbuck",1,-25.18,31.21,319616.81,7213921.77
"62675",62675,1981,40,"rb","Reedbuck",1,-25.18,31.21,319616.81,7213921.77
"62676",62676,1981,40,"rb","Reedbuck",1,-25.18,31.21,319616.81,7213921.77
"62677",62677,1981,40,"rb","Reedbuck",1,-25.18,31.21,319616.81,7213921.77
"62689",62689,1981,40,"rb","Reedbuck",1,-25.18,31.23,321632.67,7213948.43
"62690",62690,1981,40,"rb","Reedbuck",1,-25.18,31.23,321632.67,7213948.43
"62691",62691,1981,40,"rb","Reedbuck",2,-25.18,31.23,321632.67,7213948.43
"62692",62692,1981,40,"rb","Reedbuck",2,-25.18,31.23,321632.67,7213948.43
"62693",62693,1981,40,"rb","Reedbuck",3,-25.18,31.23,321632.67,7213948.43
"62705",62705,1981,40,"rb","Reedbuck",1,-25.2,31.21,319646.27,7211706.45
"62706",62706,1981,40,"rb","Reedbuck",1,-25.2,31.21,319646.27,7211706.45
"62707",62707,1981,40,"rb","Reedbuck",2,-25.2,31.21,319646.27,7211706.45
"62718",62718,1981,40,"rb","Reedbuck",1,-25.2,31.23,321661.81,7211733.12
"62719",62719,1981,40,"rb","Reedbuck",2,-25.2,31.23,321661.81,7211733.12
"62735",62735,1981,40,"rb","Reedbuck",1,-25.31,31.28,326856.7,7199614.4
"62752",62752,1981,40,"rb","Reedbuck",1,-25.26,31.28,326785.67,7205152.64
"62753",62753,1981,40,"rb","Reedbuck",2,-25.26,31.28,326785.67,7205152.64
"62754",62754,1981,40,"rb","Reedbuck",2,-25.26,31.28,326785.67,7205152.64
"62769",62769,1981,40,"rb","Reedbuck",1,-25.22,31.26,324713.76,7209557.27
"62770",62770,1981,40,"rb","Reedbuck",1,-25.22,31.26,324713.76,7209557.27
"62771",62771,1981,40,"rb","Reedbuck",2,-25.22,31.26,324713.76,7209557.27
"62772",62772,1981,40,"rb","Reedbuck",2,-25.22,31.26,324713.76,7209557.27
"62773",62773,1981,40,"rb","Reedbuck",2,-25.22,31.26,324713.76,7209557.27
"62783",62783,1981,40,"rb","Reedbuck",1,-25.22,31.28,326728.93,7209583.2
"62784",62784,1981,40,"rb","Reedbuck",1,-25.22,31.28,326728.93,7209583.2
"62785",62785,1981,40,"rb","Reedbuck",3,-25.22,31.28,326728.93,7209583.2
"62793",62793,1981,40,"rb","Reedbuck",1,-25.24,31.26,324742.44,7207341.98
"62801",62801,1981,40,"rb","Reedbuck",1,-25.24,31.28,326757.29,7207367.92
"62802",62802,1981,40,"rb","Reedbuck",2,-25.24,31.28,326757.29,7207367.92
"62803",62803,1981,40,"rb","Reedbuck",2,-25.24,31.28,326757.29,7207367.92
"62816",62816,1981,40,"rb","Reedbuck",1,-25.18,31.26,324656.45,7213987.84
"62817",62817,1981,40,"rb","Reedbuck",1,-25.18,31.26,324656.45,7213987.84
"62841",62841,1981,40,"rb","Reedbuck",2,-25.2,31.26,324685.09,7211772.56
"62850",62850,1981,40,"rb","Reedbuck",1,-25.2,31.28,326700.6,7211798.48
"62863",62863,1981,40,"rb","Reedbuck",1,-25.16,31.28,326643.99,7216229.01
"62870",62870,1981,40,"rb","Reedbuck",2,-25.35,31.3,328926.63,7195209.52
"62880",62880,1981,40,"rb","Reedbuck",3,-25.35,31.32,330939.63,7195234.95
"62891",62891,1981,40,"rb","Reedbuck",1,-25.31,31.32,330884.03,7199665.5
"62892",62892,1981,40,"rb","Reedbuck",2,-25.31,31.32,330884.03,7199665.5
"62895",62895,1981,40,"rb","Reedbuck",2,-25.33,31.3,328898.49,7197424.81
"62918",62918,1981,40,"rb","Reedbuck",1,-25.26,31.3,328800.17,7205178.3
"62919",62919,1981,40,"rb","Reedbuck",1,-25.26,31.3,328800.17,7205178.3
"62940",62940,1981,40,"rb","Reedbuck",2,-25.22,31.32,330759.24,7209634.17
"62951",62951,1981,40,"rb","Reedbuck",1,-25.24,31.3,328772.12,7207393.57
"62955",62955,1981,40,"rb","Reedbuck",1,-25.24,31.32,330786.94,7207418.92
"62956",62956,1981,40,"rb","Reedbuck",1,-25.24,31.32,330786.94,7207418.92
"62957",62957,1981,40,"rb","Reedbuck",2,-25.24,31.32,330786.94,7207418.92
"62958",62958,1981,40,"rb","Reedbuck",2,-25.24,31.32,330786.94,7207418.92
"62971",62971,1981,40,"rb","Reedbuck",1,-25.18,31.3,328688.11,7214039.35
"62972",62972,1981,40,"rb","Reedbuck",1,-25.18,31.3,328688.11,7214039.35
"62973",62973,1981,40,"rb","Reedbuck",1,-25.18,31.3,328688.11,7214039.35
"62974",62974,1981,40,"rb","Reedbuck",1,-25.18,31.3,328688.11,7214039.35
"62975",62975,1981,40,"rb","Reedbuck",1,-25.18,31.3,328688.11,7214039.35
"62976",62976,1981,40,"rb","Reedbuck",2,-25.18,31.3,328688.11,7214039.35
"62994",62994,1981,40,"rb","Reedbuck",2,-25.2,31.3,328716.09,7211824.1
"63020",63020,1981,40,"rb","Reedbuck",1,-25.16,31.3,328660.14,7216254.6
"63021",63021,1981,40,"rb","Reedbuck",2,-25.16,31.3,328660.14,7216254.6
"63022",63022,1981,40,"rb","Reedbuck",2,-25.16,31.3,328660.14,7216254.6
"63027",63027,1981,40,"rb","Reedbuck",1,-25.16,31.32,330676.28,7216279.89
"63050",63050,1981,40,"rb","Reedbuck",1,-25.18,31.36,334735.49,7214114.37
"63051",63051,1981,40,"rb","Reedbuck",1,-25.18,31.36,334735.49,7214114.37
"63052",63052,1981,40,"rb","Reedbuck",1,-25.18,31.36,334735.49,7214114.37
"63053",63053,1981,40,"rb","Reedbuck",2,-25.18,31.36,334735.49,7214114.37
"63128",63128,1981,41,"rb","Reedbuck",1,-25.14,31.36,334681.56,7218544.77
"63140",63140,1981,41,"rb","Reedbuck",3,-25.35,31.38,336978.54,7195309.43
"63240",63240,1981,41,"rb","Reedbuck",1,-25.12,31.4,338688.12,7220808.39
"63285",63285,1981,41,"rb","Reedbuck",1,-25.22,31.44,342849.86,7209779.88
"63350",63350,1981,41,"rb","Reedbuck",3,-25.16,31.44,342772.83,7216425.34
"64225",64225,1981,43,"rb","Reedbuck",1,-25.1,31.38,336644.79,7222999.51
"65020",65020,1981,44,"rb","Reedbuck",3,-25.22,31.67,366022.33,7210028.94
"65061",65061,1981,44,"rb","Reedbuck",2,-25.2,31.67,366000.42,7212243.96
"65338",65338,1981,44,"rb","Reedbuck",1,-25.24,31.76,375109.86,7207900.63
"66180",66180,1981,46,"rb","Reedbuck",2,-25.16,31.9,389139.11,7216883.01
"66246",66246,1981,46,"rb","Reedbuck",2,-25.28,31.92,391261.67,7203609.98
"67056",67056,1981,47,"rb","Reedbuck",1,-22.68,31.17,311997.02,7490745.5
"67080",67080,1981,47,"rb","Reedbuck",2,-22.66,31.17,311969.75,7492960.2
"67089",67089,1981,47,"rb","Reedbuck",1,-22.83,31.21,316308.12,7474185.42
"67100",67100,1981,47,"rb","Reedbuck",2,-22.72,31.21,316160.75,7486366.23
"67104",67104,1981,47,"rb","Reedbuck",2,-22.72,31.23,318215.29,7486390.89
"67113",67113,1981,47,"rb","Reedbuck",2,-22.68,31.21,316107.33,7490795.58
"67115",67115,1981,47,"rb","Reedbuck",3,-22.68,31.23,318162.47,7490820.21
"67122",67122,1981,47,"rb","Reedbuck",2,-22.7,31.23,318188.87,7488605.55
"67179",67179,1981,47,"rb","Reedbuck",2,-22.72,31.26,321297.06,7486427.36
"67196",67196,1981,47,"rb","Reedbuck",3,-22.68,31.26,321245.13,7490856.63
"67335",67335,1981,48,"rb","Reedbuck",1,-22.81,31.23,318334.46,7476424.86
"67352",67352,1981,48,"rb","Reedbuck",2,-22.89,31.28,323570.65,7467626.86
"67373",67373,1981,48,"rb","Reedbuck",2,-22.87,31.28,323544.8,7469841.53
"67379",67379,1981,48,"rb","Reedbuck",3,-22.81,31.26,321414.21,7476461.44
"67384",67384,1981,48,"rb","Reedbuck",2,-22.81,31.28,323467.35,7476485.48
"67385",67385,1981,48,"rb","Reedbuck",2,-22.81,31.28,323467.35,7476485.48
"67398",67398,1981,48,"rb","Reedbuck",2,-22.78,31.26,321375.11,7479783.42
"67408",67408,1981,48,"rb","Reedbuck",1,-22.89,31.3,325622.58,7467650.69
"67415",67415,1981,48,"rb","Reedbuck",1,-22.85,31.3,325571.49,7472079.98
"67426",67426,1981,48,"rb","Reedbuck",1,-22.87,31.3,325597.03,7469865.34
"67427",67427,1981,48,"rb","Reedbuck",1,-22.87,31.3,325597.03,7469865.34
"67450",67450,1981,48,"rb","Reedbuck",2,-22.83,31.32,327598.79,7474318.11
"67484",67484,1981,48,"rb","Reedbuck",3,-22.87,31.36,331753.63,7469935.1
"67489",67489,1981,48,"rb","Reedbuck",2,-22.81,31.34,329626.71,7476555.93
"67607",67607,1981,49,"rb","Reedbuck",1,-22.93,31.28,323622.43,7463197.53
"67641",67641,1981,49,"rb","Reedbuck",2,-22.95,31.32,327750.39,7461030.32
"67645",67645,1981,49,"rb","Reedbuck",3,-22.91,31.3,325648.16,7465436.04
"67646",67646,1981,49,"rb","Reedbuck",4,-22.91,31.3,325648.16,7465436.04
"67655",67655,1981,49,"rb","Reedbuck",1,-22.97,31.34,329826.42,7458839
"67656",67656,1981,49,"rb","Reedbuck",2,-22.97,31.34,329826.42,7458839
"67924",67924,1981,50,"rb","Reedbuck",1,-23.01,31.48,344226.78,7454565.42
"68963",68963,1981,54,"rb","Reedbuck",1,-22.93,31.03,297979.52,7462875.7
"68971",68971,1981,54,"rb","Reedbuck",1,-22.95,31.03,298009.22,7460660.8
"68992",68992,1981,54,"rb","Reedbuck",1,-22.89,31.03,297920.21,7467305.48
"69402",69402,1981,55,"rb","Reedbuck",2,-22.87,31.03,297890.59,7469520.36
"69500",69500,1981,55,"rb","Reedbuck",1,-22.76,31.05,299782.19,7481729.3
"69831",69831,1981,56,"rb","Reedbuck",1,-25.31,31.46,344979.3,7199834.88
"69832",69832,1981,56,"rb","Reedbuck",1,-25.31,31.46,344979.3,7199834.88
"69833",69833,1981,56,"rb","Reedbuck",2,-25.31,31.46,344979.3,7199834.88
"69867",69867,1981,56,"rb","Reedbuck",1,-25.33,31.48,347017.99,7197642.7
"69876",69876,1981,56,"rb","Reedbuck",1,-25.28,31.48,346955.18,7203180.61
"69877",69877,1981,56,"rb","Reedbuck",1,-25.28,31.48,346955.18,7203180.61
"69942",69942,1981,56,"rb","Reedbuck",1,-25.35,31.53,352075.34,7195483.76
"69979",69979,1981,56,"rb","Reedbuck",1,-25.33,31.51,350037.82,7197676.65
"70099",70099,1981,56,"rb","Reedbuck",2,-25.37,31.55,354112.22,7193290.6
"70374",70374,1981,56,"rb","Reedbuck",3,-25.28,31.63,362060.23,7203343.32
