"","ID","Year","Cenb","Sp","Description","No","Lat","Long","X.coord","Y.coord"
"313856",313856,1991,52,"v","Warthog",5,-23.06,31.24,319692.53,7448753.26
"313858",313858,1991,52,"v","Warthog",5,-23.06,31.24,319692.53,7448753.26
"313972",313972,1991,52,"v","Warthog",3,-23.07,31.37,333025.65,7447800.35
"314094",314094,1991,52,"v","Warthog",3,-23.14,31.28,323895.67,7439943.16
"314099",314099,1991,52,"v","Warthog",9,-23.16,31.27,322897.89,7437716.31
"314102",314102,1991,52,"v","Warthog",4,-23.12,31.25,320796.84,7442121.34
"314109",314109,1991,52,"v","Warthog",1,-23.14,31.23,318775.24,7439881.86
"314225",314225,1991,52,"v","Warthog",4,-23.04,31.34,329914.21,7451087.74
"314228",314228,1991,52,"v","Warthog",1,-23.05,31.34,329926.77,7449980.42
"314268",314268,1991,53,"v","Warthog",2,-23.13,30.93,288034.83,7440584.62
"314337",314337,1991,53,"v","Warthog",3,-23.11,30.97,292101.15,7442857.22
"314343",314343,1991,53,"v","Warthog",4,-23.14,30.98,293171.6,7439548.96
"314344",314344,1991,53,"v","Warthog",1,-23.15,30.98,293186.95,7438441.46
"314346",314346,1991,53,"v","Warthog",2,-23.16,30.99,294226.36,7437348.13
"314347",314347,1991,53,"v","Warthog",2,-23.16,30.99,294226.36,7437348.13
"314369",314369,1991,53,"v","Warthog",2,-23.15,31,295235.19,7438469.72
"314381",314381,1991,53,"v","Warthog",2,-23.14,31.01,296244.18,7439591.23
"314396",314396,1991,53,"v","Warthog",2,-23.14,31.02,297268.36,7439605.18
"314435",314435,1991,53,"v","Warthog",2,-23.14,31.05,300340.88,7439646.6
"314456",314456,1991,53,"v","Warthog",2,-23.18,31.07,302447.92,7435244.04
"314476",314476,1991,53,"v","Warthog",4,-23.11,31.05,300296.46,7442968.99
"314487",314487,1991,53,"v","Warthog",2,-23.18,31.1,305519.47,7435284.47
"314513",314513,1991,53,"v","Warthog",6,-23.12,31.1,305432.81,7441929.12
"314538",314538,1991,53,"v","Warthog",2,-23.17,31.14,309600.65,7436444.81
"314564",314564,1991,53,"v","Warthog",1,-23.14,31.16,311606.48,7439793.08
"314575",314575,1991,53,"v","Warthog",2,-23.18,31.18,313710.08,7435389.17
"314611",314611,1991,53,"v","Warthog",3,-23,30.93,287830.95,7454982.25
"314613",314613,1991,53,"v","Warthog",3,-23.01,30.92,286821.38,7453860.23
"314651",314651,1991,53,"v","Warthog",6,-23.05,30.93,287909.23,7449444.72
"314661",314661,1991,53,"v","Warthog",2,-22.98,30.96,290875.96,7457240.35
"314685",314685,1991,53,"v","Warthog",2,-23.01,30.97,291947.39,7453932.13
"314687",314687,1991,53,"v","Warthog",1,-23.01,30.97,291947.39,7453932.13
"314688",314688,1991,53,"v","Warthog",4,-23.01,30.97,291947.39,7453932.13
"314691",314691,1991,53,"v","Warthog",3,-23.01,30.99,293997.76,7453960.39
"314733",314733,1991,53,"v","Warthog",1,-23.05,31.02,297133.19,7449572.42
"314754",314754,1991,53,"v","Warthog",1,-23.07,31.03,298187.9,7447371.33
"314802",314802,1991,53,"v","Warthog",4,-23.04,31.12,307367.4,7450815.05
"314897",314897,1991,53,"v","Warthog",2,-23.02,31.04,299138.43,7452922.39
"314958",314958,1991,54,"v","Warthog",1,-22.95,31.1,305188.43,7460755.38
"314976",314976,1991,54,"v","Warthog",1,-22.95,31.08,303137.25,7460728.71
"315016",315016,1991,54,"v","Warthog",1,-22.97,31.07,302140.76,7458500.41
"315027",315027,1991,54,"v","Warthog",1,-22.98,31.06,301129.96,7457379.45
"315099",315099,1991,54,"v","Warthog",1,-22.93,31,294902.2,7462834.15
"315100",315100,1991,54,"v","Warthog",1,-22.93,31,294902.2,7462834.15
"315102",315102,1991,54,"v","Warthog",4,-22.9,30.99,293831.01,7466142.54
"315179",315179,1991,54,"v","Warthog",3,-22.94,30.95,289788.68,7461656.01
"315341",315341,1991,54,"v","Warthog",2,-23.02,31.21,316564.24,7453145.47
"315369",315369,1991,54,"v","Warthog",4,-23.01,31.22,317575.8,7454265.33
"315388",315388,1991,54,"v","Warthog",3,-23.03,31.18,313502.95,7452000.18
"315450",315450,1991,54,"v","Warthog",2,-23.01,31.19,314500.52,7454227.66
"315453",315453,1991,54,"v","Warthog",2,-22.99,31.2,315498.42,7456455.05
"315482",315482,1991,54,"v","Warthog",1,-22.99,31.18,313447.93,7456429.74
"315484",315484,1991,54,"v","Warthog",4,-23,31.18,313461.67,7455322.35
"315487",315487,1991,54,"v","Warthog",2,-23.01,31.18,313475.43,7454214.96
"315489",315489,1991,54,"v","Warthog",1,-23.01,31.16,311425.21,7454189.36
"315524",315524,1991,54,"v","Warthog",1,-22.98,31.18,313434.19,7457537.12
"315527",315527,1991,54,"v","Warthog",2,-22.99,31.18,313447.93,7456429.74
"315528",315528,1991,54,"v","Warthog",2,-22.99,31.17,312422.67,7456416.98
"315554",315554,1991,54,"v","Warthog",2,-22.95,31.2,315444.1,7460884.55
"315563",315563,1991,54,"v","Warthog",1,-22.99,31.15,310372.15,7456391.25
"315569",315569,1991,54,"v","Warthog",2,-22.98,31.15,310358.18,7457498.65
"315581",315581,1991,54,"v","Warthog",3,-22.93,31.19,314391.27,7463086.7
"315613",315613,1991,54,"v","Warthog",2,-22.93,31.16,311314.15,7463048.5
"315663",315663,1991,54,"v","Warthog",1,-22.91,31.12,307182.95,7465211.4
"315671",315671,1991,54,"v","Warthog",2,-22.92,31.11,306171.29,7464090.84
"315748",315748,1991,55,"v","Warthog",2,-22.79,31.08,302906.4,7478447.36
"315751",315751,1991,55,"v","Warthog",1,-22.77,31.13,308012.35,7480727.93
"315752",315752,1991,55,"v","Warthog",1,-22.78,31.11,305972.63,7479594.44
"315787",315787,1991,55,"v","Warthog",3,-22.76,31,294646.95,7481660.8
"315790",315790,1991,55,"v","Warthog",5,-22.73,31.01,295629.38,7484996.94
"315829",315829,1991,55,"v","Warthog",3,-22.78,31.01,295703.79,7479459.76
"315858",315858,1991,55,"v","Warthog",3,-22.88,31.05,299957.67,7468440.22
"315923",315923,1991,55,"v","Warthog",3,-22.87,31.13,308152.57,7469654.05
"315981",315981,1991,55,"v","Warthog",3,-22.92,31.21,316429.19,7464219.18
"315984",315984,1991,55,"v","Warthog",1,-22.93,31.23,318494.05,7463136.65
"315995",315995,1991,47,"v","Warthog",1,-22.8,31.22,317294.53,7477519.87
"316022",316022,1991,47,"v","Warthog",2,-22.75,31.25,320309.03,7483093.3
"316332",316332,1991,48,"v","Warthog",3,-22.87,31.34,329701.44,7469912.12
"316343",316343,1991,48,"v","Warthog",4,-22.86,31.35,330715.14,7471030.95
"316394",316394,1991,48,"v","Warthog",1,-22.81,31.28,323467.35,7476485.48
"316670",316670,1991,49,"v","Warthog",1,-22.96,31.36,331864.73,7459969.37
"316765",316765,1991,49,"v","Warthog",2,-23.02,31.41,337063.77,7453381.99
"317158",317158,1991,6,"v","Warthog",2,-23.75,31.42,338973.69,7372557.14
"317224",317224,1991,6,"v","Warthog",5,-23.73,31.39,335890.63,7374737.64
"317232",317232,1991,6,"v","Warthog",4,-23.7,31.37,333813.61,7378036.65
"317237",317237,1991,6,"v","Warthog",6,-23.65,31.36,332730.21,7383561.96
"317271",317271,1991,6,"v","Warthog",2,-23.65,31.35,331710.08,7383550.2
"317292",317292,1991,6,"v","Warthog",5,-23.6,31.38,334707.7,7389122.18
"317301",317301,1991,6,"v","Warthog",3,-23.58,31.41,337744.61,7391371.27
"317549",317549,1991,7,"v","Warthog",4,-23.65,31.27,323548.92,7383453.61
"317561",317561,1991,7,"v","Warthog",1,-23.59,31.27,323468.51,7390098.19
"317602",317602,1991,7,"v","Warthog",4,-23.66,31.3,326622.57,7382382.95
"317611",317611,1991,7,"v","Warthog",3,-23.71,31.3,326688.58,7376845.81
"317700",317700,1991,7,"v","Warthog",5,-23.7,31.25,321576.52,7377891.52
"317718",317718,1991,7,"v","Warthog",1,-23.66,31.23,319481.98,7382296.15
"317754",317754,1991,7,"v","Warthog",1,-23.68,31.18,314409.7,7380017.05
"317793",317793,1991,8,"v","Warthog",4,-23.5,31.37,333561.29,7400184.41
"317813",317813,1991,8,"v","Warthog",5,-23.49,31.32,328441.87,7401232.97
"317817",317817,1991,8,"v","Warthog",4,-23.49,31.35,331505.99,7401268.47
"317820",317820,1991,8,"v","Warthog",2,-23.49,31.37,333548.72,7401291.79
"317869",317869,1991,8,"v","Warthog",4,-23.4,31.27,323215.15,7411139.04
"317874",317874,1991,8,"v","Warthog",3,-23.37,31.31,327264.58,7414509.67
"317885",317885,1991,8,"v","Warthog",1,-23.48,31.25,321278.63,7402255.07
"317891",317891,1991,8,"v","Warthog",4,-23.48,31.28,324343.06,7402292.05
"317911",317911,1991,8,"v","Warthog",4,-23.5,31.3,326412.2,7400101.55
"317927",317927,1991,8,"v","Warthog",3,-23.52,31.34,330523.02,7397934.55
"317929",317929,1991,8,"v","Warthog",5,-23.56,31.28,324449.23,7393432.75
"317943",317943,1991,8,"v","Warthog",2,-23.55,31.32,328519.64,7394588.59
"317944",317944,1991,8,"v","Warthog",2,-23.55,31.33,329540.55,7394600.52
"317948",317948,1991,8,"v","Warthog",1,-23.53,31.38,334620.06,7396873.84
"317956",317956,1991,9,"v","Warthog",3,-23.45,31.22,318173.05,7405539.73
"317969",317969,1991,9,"v","Warthog",1,-23.42,31.19,315066.1,7408823.82
"317974",317974,1991,9,"v","Warthog",1,-23.45,31.2,316129.59,7405514.32
"317976",317976,1991,9,"v","Warthog",7,-23.48,31.22,318214.16,7402217.44
"317978",317978,1991,9,"v","Warthog",2,-23.5,31.22,318241.6,7400002.58
"317979",317979,1991,9,"v","Warthog",1,-23.5,31.23,319262.94,7400015.2
"317991",317991,1991,9,"v","Warthog",2,-23.45,31.18,314086.12,7405488.62
"318012",318012,1991,9,"v","Warthog",3,-23.45,31.16,312042.63,7405462.64
"318018",318018,1991,9,"v","Warthog",1,-23.52,31.19,315205.48,7397749.39
"318021",318021,1991,9,"v","Warthog",2,-23.53,31.19,315219.45,7396641.94
"318025",318025,1991,9,"v","Warthog",1,-23.51,31.18,314170.24,7398843.93
"318027",318027,1991,9,"v","Warthog",6,-23.5,31.18,314156.21,7399951.38
"318031",318031,1991,9,"v","Warthog",5,-23.45,31.15,311020.88,7405449.54
"318032",318032,1991,9,"v","Warthog",1,-23.46,31.15,311035.11,7404342.08
"318036",318036,1991,9,"v","Warthog",2,-23.48,31.16,312085.13,7402140.27
"318038",318038,1991,9,"v","Warthog",1,-23.48,31.16,312085.13,7402140.27
"318052",318052,1991,9,"v","Warthog",2,-23.5,31.16,312113.49,7399925.36
"318076",318076,1991,9,"v","Warthog",4,-23.52,31.15,311120.66,7397697.31
"318085",318085,1991,9,"v","Warthog",5,-23.5,31.13,309049.38,7399885.78
"318173",318173,1991,9,"v","Warthog",3,-23.48,31.07,302891.3,7402019.71
"318180",318180,1991,9,"v","Warthog",3,-23.5,31.09,304963.85,7399832.03
"318197",318197,1991,9,"v","Warthog",3,-23.52,31.09,304993.31,7397617.04
"318198",318198,1991,9,"v","Warthog",1,-23.52,31.09,304993.31,7397617.04
"318214",318214,1991,9,"v","Warthog",3,-23.48,31.07,302891.3,7402019.71
"318229",318229,1991,9,"v","Warthog",2,-23.56,31.22,318324.04,7393357.95
"318239",318239,1991,9,"v","Warthog",3,-23.55,31.23,319331.24,7394478.03
"318253",318253,1991,9,"v","Warthog",1,-23.55,31.2,316268.37,7394439.89
"318258",318258,1991,9,"v","Warthog",4,-23.58,31.2,316310.11,7391117.54
"318261",318261,1991,9,"v","Warthog",2,-23.55,31.18,314226.44,7394414.11
"318267",318267,1991,9,"v","Warthog",5,-23.6,31.19,315317.39,7388889.75
"318274",318274,1991,9,"v","Warthog",1,-23.56,31.14,310156.9,7393254.21
"318281",318281,1991,9,"v","Warthog",3,-23.56,31.13,309135.99,7393240.93
"318291",318291,1991,9,"v","Warthog",1,-23.61,31.16,312269.88,7387743.22
"318294",318294,1991,9,"v","Warthog",2,-23.62,31.17,313304.57,7386648.85
"318341",318341,1991,10,"v","Warthog",2,-23.29,31.2,315908.71,7423233.14
"318343",318343,1991,10,"v","Warthog",1,-23.31,31.2,315936.24,7421018.3
"318350",318350,1991,10,"v","Warthog",5,-23.29,31.2,315908.71,7423233.14
"318364",318364,1991,10,"v","Warthog",3,-23.34,31.2,315977.58,7417696.04
"318384",318384,1991,10,"v","Warthog",3,-23.32,31.16,311859.06,7419859.42
"318389",318389,1991,10,"v","Warthog",2,-23.3,31.15,310808,7422061.26
"318393",318393,1991,10,"v","Warthog",3,-23.34,31.15,310864.64,7417631.5
"318422",318422,1991,10,"v","Warthog",4,-23.29,31.09,304655.89,7423089.04
"318428",318428,1991,10,"v","Warthog",2,-23.31,31.08,303662.25,7420860.58
"318441",318441,1991,10,"v","Warthog",1,-23.3,31.05,300578.74,7421927.04
"318474",318474,1991,10,"v","Warthog",2,-23.34,31.05,300638.45,7417497.09
"318478",318478,1991,10,"v","Warthog",3,-23.38,31.06,301720.58,7413080.91
"318489",318489,1991,10,"v","Warthog",2,-23.31,31.02,297525.03,7420777.89
"318579",318579,1991,10,"v","Warthog",1,-23.41,31.17,313008.1,7409905.45
"318601",318601,1991,10,"v","Warthog",5,-23.43,31.16,312014.32,7407677.54
"318615",318615,1991,10,"v","Warthog",3,-23.36,31.14,309870.55,7415403.48
"318632",318632,1991,10,"v","Warthog",2,-23.43,31.13,308948.6,7407638.06
"318634",318634,1991,10,"v","Warthog",1,-23.42,31.13,308934.22,7408745.52
"318694",318694,1991,10,"v","Warthog",3,-23.41,31.05,300743.17,7409744.65
"318718",318718,1991,10,"v","Warthog",4,-23.45,31.05,300803.14,7405314.65
"318719",318719,1991,10,"v","Warthog",3,-23.44,31.05,300788.14,7406422.15
"318752",318752,1991,11,"v","Warthog",3,-23.39,31.21,317068.79,7412171.63
"318755",318755,1991,11,"v","Warthog",4,-23.38,31.26,322166.34,7413341.56
"318768",318768,1991,11,"v","Warthog",4,-23.37,31.24,320108.34,7414424.18
"318900",318900,1991,11,"v","Warthog",3,-23.21,31.26,321940.18,7432167.22
"318956",318956,1991,12,"v","Warthog",1,-23.21,30.97,292255.54,7431782.19
"318971",318971,1991,12,"v","Warthog",1,-23.18,30.97,292209.16,7435104.71
"318990",318990,1991,12,"v","Warthog",1,-23.28,31,295433.37,7424072.28
"319003",319003,1991,12,"v","Warthog",4,-23.18,30.97,292209.16,7435104.71
"319133",319133,1991,12,"v","Warthog",3,-23.23,31.07,302521.44,7429706.73
"319160",319160,1991,12,"v","Warthog",1,-23.22,31.07,302506.73,7430814.2
"319170",319170,1991,12,"v","Warthog",2,-23.25,31.08,303574.21,7427505.38
"319171",319171,1991,12,"v","Warthog",1,-23.27,31.1,305649.85,7425317.41
"319176",319176,1991,12,"v","Warthog",2,-23.25,31.09,304597.53,7427518.88
"319214",319214,1991,12,"v","Warthog",3,-23.27,31.1,305649.85,7425317.41
"319231",319231,1991,12,"v","Warthog",3,-23.23,31.1,305591.84,7429747.23
"319240",319240,1991,12,"v","Warthog",3,-23.2,31.1,305548.4,7433069.57
"319245",319245,1991,12,"v","Warthog",4,-23.21,31.1,305562.87,7431962.13
"319294",319294,1991,12,"v","Warthog",1,-23.18,31.11,306543.31,7435297.8
"319298",319298,1991,12,"v","Warthog",1,-23.2,31.11,306572.09,7433082.92
"319393",319393,1991,12,"v","Warthog",2,-23.25,31.15,310737.33,7427598.44
"319415",319415,1991,12,"v","Warthog",4,-23.24,31.16,311746.57,7428718.88
"319473",319473,1991,12,"v","Warthog",4,-23.24,31.18,313793.28,7428744.68
"319533",319533,1991,13,"v","Warthog",2,-23.74,31.52,349155.3,7373774.14
"319610",319610,1991,13,"v","Warthog",6,-23.83,31.59,356389.79,7363880.58
"319648",319648,1991,13,"v","Warthog",3,-23.79,31.58,355326.81,7368299.79
"319650",319650,1991,13,"v","Warthog",1,-23.79,31.6,357364.74,7368320.02
"319748",319748,1991,13,"v","Warthog",2,-23.63,31.58,355150.21,7386017.05
"319750",319750,1991,13,"v","Warthog",2,-23.61,31.55,352067.1,7388200.98
"319881",319881,1991,14,"v","Warthog",3,-23.57,31.59,356104.95,7392671.02
"319898",319898,1991,14,"v","Warthog",2,-23.51,31.51,347870.44,7399232.35
"319901",319901,1991,14,"v","Warthog",2,-23.5,31.52,348880.19,7400350.23
"319908",319908,1991,14,"v","Warthog",1,-23.48,31.51,347835.99,7402554.32
"319941",319941,1991,14,"v","Warthog",7,-23.45,31.5,346779.96,7405865.67
"319947",319947,1991,14,"v","Warthog",1,-23.43,31.51,347778.67,7408090.92
"320075",320075,1991,14,"v","Warthog",3,-23.57,31.59,356104.95,7392671.02
"320092",320092,1991,14,"v","Warthog",2,-23.51,31.51,347870.44,7399232.35
"320095",320095,1991,14,"v","Warthog",2,-23.5,31.52,348880.19,7400350.23
"320102",320102,1991,14,"v","Warthog",1,-23.48,31.51,347835.99,7402554.32
"320135",320135,1991,14,"v","Warthog",7,-23.45,31.5,346779.96,7405865.67
"320141",320141,1991,14,"v","Warthog",1,-23.43,31.51,347778.67,7408090.92
"320271",320271,1991,15,"v","Warthog",3,-23.32,31.33,329245.22,7420070.31
"320280",320280,1991,15,"v","Warthog",1,-23.27,31.38,334296.67,7425665.16
"320530",320530,1991,18,"v","Warthog",1,-23.19,31.52,348528.75,7434676.56
"320569",320569,1991,18,"v","Warthog",1,-23.23,31.53,349597.15,7430257.82
"320646",320646,1991,18,"v","Warthog",3,-23.17,31.44,340316,7436805.6
"320718",320718,1991,19,"v","Warthog",2,-23.84,31.73,370660.55,7362908.06
"320902",320902,1991,19,"v","Warthog",1,-23.88,31.7,367645.59,7358451.11
"320951",320951,1991,19,"v","Warthog",7,-23.87,31.64,361525.53,7359501.02
"320988",320988,1991,1,"v","Warthog",6,-24.04,31.73,370859.77,7340761.78
"321092",321092,1991,1,"v","Warthog",3,-24,31.58,355560.31,7345045.35
"321093",321093,1991,1,"v","Warthog",1,-24.02,31.59,356599.81,7342840.84
"321183",321183,1991,1,"v","Warthog",6,-23.96,31.72,369762.3,7349611.16
"321420",321420,1991,1,"v","Warthog",3,-23.89,31.61,358492.3,7357256.66
"321455",321455,1991,1,"v","Warthog",1,-23.86,31.59,356422.84,7360558.55
"321467",321467,1991,1,"v","Warthog",2,-23.87,31.57,354397.19,7359430.77
"321474",321474,1991,2,"v","Warthog",2,-23.87,31.56,353378.84,7359420.45
"321478",321478,1991,2,"v","Warthog",1,-23.89,31.56,353401.38,7357205.73
"321557",321557,1991,2,"v","Warthog",3,-23.95,31.51,348380.46,7350508.72
"321563",321563,1991,2,"v","Warthog",3,-23.89,31.51,348310.39,7357153
"321584",321584,1991,2,"v","Warthog",5,-23.89,31.48,345255.75,7357120.5
"321589",321589,1991,2,"v","Warthog",2,-23.88,31.48,345243.86,7358227.89
"321602",321602,1991,2,"v","Warthog",2,-23.9,31.48,345267.66,7356013.11
"321630",321630,1991,2,"v","Warthog",5,-23.93,31.44,341231.76,7352646.54
"321631",321631,1991,2,"v","Warthog",2,-23.87,31.42,339121.67,7359268.37
"321663",321663,1991,2,"v","Warthog",5,-23.89,31.37,334055.18,7356995.78
"321664",321664,1991,2,"v","Warthog",6,-23.89,31.37,334055.18,7356995.78
"321739",321739,1991,2,"v","Warthog",1,-23.98,31.53,350450.55,7347207.93
"321932",321932,1991,3,"v","Warthog",3,-23.91,31.17,313718.1,7354531.65
"321939",321939,1991,3,"v","Warthog",1,-23.86,31.17,313646.46,7360069.18
"321955",321955,1991,3,"v","Warthog",4,-23.93,31.18,314764.8,7352329.79
"321973",321973,1991,3,"v","Warthog",3,-23.85,31.19,315669.42,7361202.86
"321986",321986,1991,3,"v","Warthog",1,-23.91,31.19,315754.43,7354557.88
"321996",321996,1991,3,"v","Warthog",1,-23.92,31.2,316786.69,7353463.39
"322001",322001,1991,3,"v","Warthog",1,-23.91,31.2,316772.58,7354570.88
"322002",322002,1991,3,"v","Warthog",4,-23.91,31.2,316772.58,7354570.88
"322012",322012,1991,3,"v","Warthog",3,-23.88,31.21,317748.68,7357906.29
"322015",322015,1991,3,"v","Warthog",2,-23.9,31.21,317776.71,7355691.31
"322018",322018,1991,3,"v","Warthog",8,-23.91,31.21,317790.74,7354583.82
"322021",322021,1991,3,"v","Warthog",1,-23.91,31.21,317790.74,7354583.82
"322027",322027,1991,3,"v","Warthog",4,-23.9,31.22,318794.94,7355704.16
"322035",322035,1991,3,"v","Warthog",2,-23.87,31.22,318753.14,7359026.62
"322041",322041,1991,3,"v","Warthog",1,-23.89,31.23,319799.31,7356824.43
"322046",322046,1991,3,"v","Warthog",1,-23.9,31.23,319813.17,7355716.95
"322050",322050,1991,3,"v","Warthog",3,-23.91,31.23,319827.04,7354609.46
"322055",322055,1991,3,"v","Warthog",3,-23.89,31.24,320817.61,7356837.14
"322068",322068,1991,3,"v","Warthog",1,-23.9,31.25,321849.61,7355742.3
"322069",322069,1991,3,"v","Warthog",5,-23.9,31.25,321849.61,7355742.3
"322091",322091,1991,3,"v","Warthog",5,-23.88,31.28,324877.31,7357994.71
"322095",322095,1991,3,"v","Warthog",1,-23.91,31.3,326953.96,7354696.96
"322100",322100,1991,3,"v","Warthog",5,-23.88,31.31,327932.38,7358031.52
"322102",322102,1991,3,"v","Warthog",2,-23.91,31.31,327972.08,7354709.17
"322109",322109,1991,3,"v","Warthog",1,-23.89,31.32,328963.88,7356936.2
"322121",322121,1991,3,"v","Warthog",4,-23.94,31.17,313761.15,7351209.12
"322126",322126,1991,3,"v","Warthog",4,-23.95,31.17,313775.51,7350101.61
"322131",322131,1991,3,"v","Warthog",1,-23.94,31.17,313761.15,7351209.12
"322132",322132,1991,3,"v","Warthog",10,-23.94,31.17,313761.15,7351209.12
"322142",322142,1991,3,"v","Warthog",1,-23.97,31.18,314821.95,7347899.76
"322158",322158,1991,3,"v","Warthog",1,-23.94,31.18,314779.08,7351222.29
"322167",322167,1991,3,"v","Warthog",3,-23.98,31.21,317889.07,7346831.34
"322196",322196,1991,3,"v","Warthog",2,-23.92,31.22,318822.84,7353489.19
"322201",322201,1991,3,"v","Warthog",1,-23.94,31.23,319868.67,7351287.01
"322208",322208,1991,3,"v","Warthog",9,-23.98,31.24,320941.86,7346869.79
"322209",322209,1991,3,"v","Warthog",2,-23.98,31.24,320941.86,7346869.79
"322212",322212,1991,3,"v","Warthog",1,-23.95,31.24,320900.39,7350192.25
"322215",322215,1991,3,"v","Warthog",4,-23.92,31.23,319840.91,7353501.98
"322222",322222,1991,3,"v","Warthog",4,-23.98,31.25,321959.45,7346882.46
"322230",322230,1991,3,"v","Warthog",4,-23.91,31.24,320845.18,7354622.18
"322236",322236,1991,3,"v","Warthog",3,-23.92,31.28,324931.2,7353564.86
"322238",322238,1991,3,"v","Warthog",1,-23.95,31.27,323953.86,7350230.02
"322240",322240,1991,3,"v","Warthog",1,-23.95,31.27,323953.86,7350230.02
"322263",322263,1991,3,"v","Warthog",2,-23.92,31.35,332057.45,7353649.86
"322299",322299,1991,3,"v","Warthog",5,-24.03,31.22,318976.68,7341306.73
"322309",322309,1991,3,"v","Warthog",2,-24.04,31.23,320007.82,7340212.07
"322311",322311,1991,3,"v","Warthog",2,-24.05,31.23,320021.77,7339104.57
"322329",322329,1991,3,"v","Warthog",3,-24.05,31.24,321038.81,7339117.34
"322333",322333,1991,3,"v","Warthog",2,-24.06,31.24,321052.68,7338009.84
"322340",322340,1991,3,"v","Warthog",1,-24.08,31.24,321080.44,7335794.84
"322343",322343,1991,3,"v","Warthog",5,-24.08,31.24,321080.44,7335794.84
"322344",322344,1991,3,"v","Warthog",1,-24.09,31.25,322111.05,7334700.06
"322614",322614,1991,3,"v","Warthog",1,-23.85,31.32,328911.3,7361365.98
"322624",322624,1991,3,"v","Warthog",1,-23.81,31.31,327839.91,7365783.63
"322690",322690,1991,3,"v","Warthog",7,-23.75,31.29,325722.12,7372403.86
"322750",322750,1991,3,"v","Warthog",1,-23.79,31.28,324756.36,7367961.79
"322752",322752,1991,3,"v","Warthog",2,-23.78,31.28,324742.95,7369069.24
"322781",322781,1991,3,"v","Warthog",2,-23.8,31.28,324769.77,7366854.34
"322804",322804,1991,3,"v","Warthog",1,-23.8,31.27,323750.78,7366841.96
"322811",322811,1991,3,"v","Warthog",4,-23.78,31.27,323723.8,7369056.86
"322934",322934,1991,3,"v","Warthog",3,-23.78,31.23,319647.18,7369006.64
"322997",322997,1991,3,"v","Warthog",1,-23.8,31.22,318655.78,7366778.96
"323067",323067,1991,3,"v","Warthog",1,-23.81,31.2,316631.8,7365645.78
"323161",323161,1991,3,"v","Warthog",3,-23.7,31.17,313418.17,7377789.04
"323218",323218,1991,3,"v","Warthog",7,-23.71,31.27,323629.52,7376808.98
"323292",323292,1991,3,"v","Warthog",3,-23.77,31.34,330844.81,7370249.41
"323304",323304,1991,3,"v","Warthog",7,-23.74,31.34,330806.02,7373571.67
"323403",323403,1991,5,"v","Warthog",1,-23.85,31.49,346226.72,7361560.93
"323413",323413,1991,5,"v","Warthog",2,-23.8,31.48,345148.84,7367086.93
"323425",323425,1991,5,"v","Warthog",7,-23.86,31.48,345220.07,7360442.66
"323436",323436,1991,5,"v","Warthog",3,-23.84,31.46,343159.09,7362635.43
"323438",323438,1991,5,"v","Warthog",4,-23.85,31.45,342152.59,7361516.93
"323445",323445,1991,5,"v","Warthog",1,-23.82,31.46,343135.03,7364850.2
"323449",323449,1991,5,"v","Warthog",1,-23.81,31.46,343123.01,7365957.58
"323464",323464,1991,5,"v","Warthog",6,-23.81,31.45,342104.16,7365946.49
"323469",323469,1991,5,"v","Warthog",1,-23.86,31.44,341146.25,7360398.35
"323511",323511,1991,5,"v","Warthog",1,-23.83,31.41,338053.56,7363686.59
"323559",323559,1991,5,"v","Warthog",1,-23.81,31.36,332934.36,7365843.41
"323699",323699,1991,20,"v","Warthog",1,-24.09,31.32,329228.01,7334787.03
"323987",323987,1991,20,"v","Warthog",1,-24.05,31.61,358666.96,7339538.99
"324016",324016,1991,20,"v","Warthog",1,-24.02,31.62,359651.28,7342871.09
"324049",324049,1991,21,"v","Warthog",2,-24.25,31.45,342641.07,7317220.18
"324051",324051,1991,21,"v","Warthog",4,-24.23,31.46,343632.01,7319446.31
"324063",324063,1991,21,"v","Warthog",3,-24.22,31.5,347682.24,7320597.97
"324091",324091,1991,21,"v","Warthog",1,-24.19,31.47,344599.03,7323887.21
"324112",324112,1991,21,"v","Warthog",4,-24.15,31.51,348615.24,7328360.76
"324221",324221,1991,21,"v","Warthog",1,-24.2,31.61,358831.7,7322928.35
"324344",324344,1991,22,"v","Warthog",3,-24.34,31.59,356957.08,7307404.37
"324366",324366,1991,22,"v","Warthog",1,-24.31,31.55,352863.92,7310684.88
"324425",324425,1991,22,"v","Warthog",1,-24.28,31.44,341662.87,7313886.5
"324429",324429,1991,22,"v","Warthog",1,-24.28,31.5,347753.71,7313953.4
"324448",324448,1991,22,"v","Warthog",4,-24.34,31.4,337678.66,7307195.62
"324455",324455,1991,22,"v","Warthog",1,-24.33,31.43,340710.19,7308337.79
"324642",324642,1991,22,"v","Warthog",1,-24.36,31.48,345820.26,7305071.83
"324657",324657,1991,22,"v","Warthog",3,-24.42,31.46,343865.03,7298404.71
"324722",324722,1991,22,"v","Warthog",1,-24.36,31.45,342776.75,7305038.19
"324734",324734,1991,22,"v","Warthog",2,-24.35,31.43,340735.21,7306122.87
"324739",324739,1991,22,"v","Warthog",2,-24.39,31.44,341799.58,7301704.43
"324753",324753,1991,22,"v","Warthog",6,-24.45,31.44,341874.4,7295059.6
"324760",324760,1991,22,"v","Warthog",2,-24.44,31.43,340848.04,7296155.61
"324761",324761,1991,22,"v","Warthog",2,-24.43,31.43,340835.49,7297263.09
"324767",324767,1991,22,"v","Warthog",3,-24.4,31.43,340797.85,7300585.52
"324793",324793,1991,22,"v","Warthog",2,-24.39,31.43,340785.31,7301692.99
"324799",324799,1991,22,"v","Warthog",4,-24.42,31.42,339808.9,7298359.04
"324819",324819,1991,22,"v","Warthog",1,-24.42,31.41,338794.86,7298347.44
"324821",324821,1991,22,"v","Warthog",5,-24.41,31.42,339796.27,7299466.52
"324848",324848,1991,22,"v","Warthog",2,-24.44,31.41,338820.29,7296132.47
"324853",324853,1991,22,"v","Warthog",4,-24.44,31.4,337806.4,7296120.79
"324867",324867,1991,22,"v","Warthog",1,-24.36,31.39,336689.64,7304968.94
"324868",324868,1991,22,"v","Warthog",5,-24.35,31.39,336676.81,7306076.42
"324873",324873,1991,22,"v","Warthog",4,-24.41,31.39,336753.9,7299431.51
"324877",324877,1991,22,"v","Warthog",2,-24.39,31.38,335713.9,7301634.68
"324881",324881,1991,22,"v","Warthog",3,-24.47,31.46,343926.63,7292867.37
"324886",324886,1991,22,"v","Warthog",5,-24.46,31.46,343914.3,7293974.84
"324889",324889,1991,22,"v","Warthog",2,-24.47,31.45,342913,7292856.04
"324890",324890,1991,22,"v","Warthog",1,-24.47,31.45,342913,7292856.04
"324897",324897,1991,22,"v","Warthog",1,-24.47,31.44,341899.37,7292844.64
"324908",324908,1991,22,"v","Warthog",2,-24.47,31.43,340885.74,7292833.17
"324913",324913,1991,22,"v","Warthog",5,-24.46,31.42,339859.45,7293929.11
"324920",324920,1991,22,"v","Warthog",1,-24.47,31.41,338858.47,7292810.01
"324922",324922,1991,22,"v","Warthog",3,-24.48,31.42,339884.76,7291714.14
"324924",324924,1991,22,"v","Warthog",3,-24.47,31.41,338858.47,7292810.01
"324926",324926,1991,22,"v","Warthog",6,-24.46,31.4,337832.01,7293905.81
"324928",324928,1991,22,"v","Warthog",2,-24.46,31.4,337832.01,7293905.81
"324937",324937,1991,22,"v","Warthog",3,-24.41,31.56,353993.62,7299621.18
"324940",324940,1991,22,"v","Warthog",4,-24.41,31.54,351965.46,7299599.97
"324947",324947,1991,22,"v","Warthog",1,-24.42,31.55,352991.13,7298503.18
"324960",324960,1991,22,"v","Warthog",2,-24.42,31.52,349949.12,7298471.01
"324962",324962,1991,22,"v","Warthog",1,-24.41,31.52,349937.29,7299578.46
"324967",324967,1991,22,"v","Warthog",2,-24.4,31.53,350939.64,7300696.69
"324968",324968,1991,22,"v","Warthog",3,-24.4,31.52,349925.47,7300685.9
"324970",324970,1991,22,"v","Warthog",4,-24.44,31.5,347945.09,7296234.3
"324974",324974,1991,22,"v","Warthog",1,-24.43,31.5,347933.09,7297341.75
"324979",324979,1991,22,"v","Warthog",5,-24.42,31.5,347921.1,7298449.21
"324981",324981,1991,22,"v","Warthog",8,-24.42,31.51,348935.11,7298460.15
"324986",324986,1991,22,"v","Warthog",4,-24.43,31.49,346919.16,7297330.74
"325034",325034,1991,22,"v","Warthog",3,-24.43,31.47,344891.28,7297308.48
"325035",325035,1991,22,"v","Warthog",2,-24.43,31.47,344891.28,7297308.48
"325038",325038,1991,22,"v","Warthog",4,-24.44,31.47,344903.52,7296201.02
"325045",325045,1991,22,"v","Warthog",2,-24.45,31.46,343901.97,7295082.31
"325046",325046,1991,22,"v","Warthog",6,-24.46,31.46,343914.3,7293974.84
"325049",325049,1991,22,"v","Warthog",1,-24.46,31.46,343914.3,7293974.84
"325145",325145,1991,23,"v","Warthog",5,-24.1,31.66,363804.35,7334051.6
"325290",325290,1991,23,"v","Warthog",7,-24.17,31.72,369974.17,7326357.14
"325295",325295,1991,23,"v","Warthog",1,-24.17,31.71,368958.23,7326347.81
"325303",325303,1991,23,"v","Warthog",2,-24.18,31.67,364904.97,7325202.39
"325313",325313,1991,23,"v","Warthog",4,-24.19,31.63,360852.3,7324055.79
"325314",325314,1991,23,"v","Warthog",2,-24.19,31.63,360852.3,7324055.79
"325338",325338,1991,23,"v","Warthog",7,-24.19,31.68,365931.3,7324104.66
"325360",325360,1991,23,"v","Warthog",4,-24.21,31.72,370014.73,7321927.73
"325378",325378,1991,23,"v","Warthog",24,-24.23,31.73,371050.49,7319722.3
"325383",325383,1991,23,"v","Warthog",7,-24.24,31.72,370045.19,7318605.66
"325389",325389,1991,23,"v","Warthog",6,-24.27,31.75,373121.11,7315311.22
"325446",325446,1991,24,"v","Warthog",7,-24.28,31.65,362980.32,7314109.15
"325701",325701,1991,24,"v","Warthog",1,-24.37,31.65,363077.07,7304142.63
"325704",325704,1991,24,"v","Warthog",1,-24.38,31.68,366130.69,7303064.51
"325708",325708,1991,24,"v","Warthog",1,-24.38,31.69,367144.97,7303074.12
"325722",325722,1991,24,"v","Warthog",5,-24.4,31.77,375278.74,7300933.64
"325723",325723,1991,24,"v","Warthog",1,-24.4,31.76,374264.65,7300924.61
"325733",325733,1991,24,"v","Warthog",2,-24.39,31.76,374254.75,7302031.98
"325750",325750,1991,24,"v","Warthog",2,-24.35,31.69,367113.63,7306396.27
"325781",325781,1991,24,"v","Warthog",3,-24.3,31.75,373150.92,7311989.16
"325810",325810,1991,24,"v","Warthog",3,-24.27,31.73,371090.82,7315292.87
"325823",325823,1991,24,"v","Warthog",4,-24.27,31.74,372105.97,7315302.08
"325924",325924,1991,25,"v","Warthog",4,-24.13,31.8,378063.65,7330858.46
"325979",325979,1991,25,"v","Warthog",2,-24.11,31.77,374995.5,7333046.68
"325992",325992,1991,25,"v","Warthog",4,-24.1,31.8,378035.22,7334180.42
"326029",326029,1991,25,"v","Warthog",1,-24.08,31.78,375983.02,7336377.53
"326051",326051,1991,25,"v","Warthog",1,-24.07,31.78,375973.4,7337484.85
"326056",326056,1991,25,"v","Warthog",2,-24.06,31.81,379014.15,7338618.32
"326199",326199,1991,25,"v","Warthog",1,-24.14,31.86,384170.03,7329802.07
"326214",326214,1991,25,"v","Warthog",3,-24.13,31.85,383144.8,7330901.07
"326232",326232,1991,25,"v","Warthog",6,-24.11,31.83,381093.86,7333098.87
"326325",326325,1991,26,"v","Warthog",2,-24.3,31.76,374165.82,7311998.23
"326328",326328,1991,26,"v","Warthog",5,-24.29,31.77,375170.93,7313114.59
"326337",326337,1991,26,"v","Warthog",2,-24.28,31.76,374146.1,7314212.94
"326343",326343,1991,26,"v","Warthog",2,-24.27,31.76,374136.24,7315320.29
"326358",326358,1991,26,"v","Warthog",4,-24.25,31.76,374116.55,7317534.99
"326372",326372,1991,26,"v","Warthog",1,-24.23,31.84,382220.41,7319819.52
"326374",326374,1991,26,"v","Warthog",4,-24.23,31.83,381204.98,7319811.05
"326387",326387,1991,26,"v","Warthog",1,-24.22,31.79,377133.62,7320883.76
"326417",326417,1991,26,"v","Warthog",4,-24.19,31.79,377104.85,7324205.76
"326420",326420,1991,26,"v","Warthog",1,-24.19,31.77,375073.32,7324188.03
"326427",326427,1991,26,"v","Warthog",2,-24.17,31.75,373021.98,7326384.69
"326522",326522,1991,26,"v","Warthog",2,-24.32,31.83,381288.66,7309845.05
"326526",326526,1991,26,"v","Warthog",3,-24.31,31.78,376205.31,7310908.82
"326531",326531,1991,26,"v","Warthog",1,-24.4,31.94,392518.05,7301075.98
"326533",326533,1991,26,"v","Warthog",2,-24.4,31.93,391503.99,7301068.19
"326539",326539,1991,26,"v","Warthog",7,-24.4,31.92,390489.93,7301060.33
"326550",326550,1991,26,"v","Warthog",2,-24.38,31.92,390472.69,7303274.98
"326559",326559,1991,26,"v","Warthog",4,-24.37,31.91,389449.77,7304374.38
"326646",326646,1991,26,"v","Warthog",2,-24.32,31.85,383318.09,7309861.97
"326696",326696,1991,26,"v","Warthog",5,-24.28,31.81,379221.35,7314257.2
"326770",326770,1991,27,"v","Warthog",2,-24.21,31.87,385248.78,7322059.14
"326808",326808,1991,27,"v","Warthog",3,-24.23,31.87,385266.7,7319844.51
"326812",326812,1991,27,"v","Warthog",4,-24.22,31.85,383226.73,7320935.24
"326835",326835,1991,27,"v","Warthog",1,-24.3,31.88,386344.41,7312101.46
"326846",326846,1991,27,"v","Warthog",1,-24.22,31.85,383226.73,7320935.24
"326943",326943,1991,27,"v","Warthog",6,-24.41,31.98,396582.41,7299999.08
"326974",326974,1991,27,"v","Warthog",1,-24.31,31.95,393456.78,7311049.52
"326975",326975,1991,27,"v","Warthog",3,-24.31,31.95,393456.78,7311049.52
"327051",327051,1991,27,"v","Warthog",1,-24.28,31.93,391401.7,7314355.99
"327070",327070,1991,27,"v","Warthog",2,-24.35,31.95,393490.23,7306620.28
"327144",327144,1991,27,"v","Warthog",1,-24.37,31.93,391478.37,7304390.16
"327207",327207,1991,28,"v","Warthog",1,-24.63,31.91,389676.94,7275583.43
"327214",327214,1991,28,"v","Warthog",2,-24.62,31.91,389668.16,7276690.79
"327217",327217,1991,28,"v","Warthog",2,-24.6,31.95,393700.43,7278937
"327228",327228,1991,28,"v","Warthog",2,-24.57,31.91,389624.31,7282227.58
"327289",327289,1991,28,"v","Warthog",4,-24.48,31.91,389545.6,7292193.71
"327329",327329,1991,28,"v","Warthog",1,-24.48,31.96,394612.69,7292232.74
"327347",327347,1991,28,"v","Warthog",2,-24.47,31.94,392577.38,7293324.68
"327352",327352,1991,28,"v","Warthog",4,-24.49,31.94,392594.36,7291110.02
"327359",327359,1991,28,"v","Warthog",4,-24.45,31.93,391546.75,7295531.55
"327363",327363,1991,28,"v","Warthog",2,-24.46,31.93,391555.31,7294424.21
"327395",327395,1991,28,"v","Warthog",2,-24.48,31.88,386505.32,7292169.41
"327417",327417,1991,28,"v","Warthog",3,-24.49,31.85,383474.23,7291037.09
"327430",327430,1991,28,"v","Warthog",3,-24.46,31.85,383446.6,7294359.16
"327435",327435,1991,28,"v","Warthog",3,-24.45,31.86,384451.08,7295474.9
"327442",327442,1991,28,"v","Warthog",3,-24.48,31.85,383465.02,7292144.45
"327443",327443,1991,28,"v","Warthog",3,-24.48,31.85,383465.02,7292144.45
"327479",327479,1991,28,"v","Warthog",3,-24.46,31.82,380405.8,7294333.56
"327506",327506,1991,28,"v","Warthog",2,-24.46,31.8,378378.58,7294316.12
"327512",327512,1991,28,"v","Warthog",1,-24.43,31.79,377335.94,7297629.39
"327533",327533,1991,28,"v","Warthog",2,-24.42,31.8,378340.2,7298745.58
"327538",327538,1991,28,"v","Warthog",5,-24.41,31.81,379344.62,7299861.68
"327625",327625,1991,28,"v","Warthog",2,-24.41,31.89,387456.6,7299928.97
"327628",327628,1991,28,"v","Warthog",4,-24.41,31.89,387456.6,7299928.97
"327816",327816,1991,29,"v","Warthog",7,-24.57,31.81,379497.18,7282143.79
"327835",327835,1991,29,"v","Warthog",3,-24.55,31.8,378465.18,7284349.76
"327840",327840,1991,29,"v","Warthog",3,-24.55,31.78,376439.39,7284331.99
"327846",327846,1991,29,"v","Warthog",2,-24.54,31.78,376429.6,7285439.37
"327855",327855,1991,29,"v","Warthog",3,-24.53,31.83,381485.04,7286590.62
"327882",327882,1991,29,"v","Warthog",2,-24.51,31.77,375387.02,7288752.52
"327885",327885,1991,29,"v","Warthog",2,-24.5,31.79,377403.74,7289877.8
"327894",327894,1991,29,"v","Warthog",2,-24.51,31.82,380453.07,7288796.73
"327905",327905,1991,29,"v","Warthog",3,-24.5,31.85,383483.45,7289929.74
"327909",327909,1991,29,"v","Warthog",1,-24.5,31.83,381456.89,7289912.72
"327950",327950,1991,29,"v","Warthog",1,-24.49,31.86,384487.59,7291045.49
"327959",327959,1991,29,"v","Warthog",2,-24.48,31.81,379411.25,7292110.14
"327966",327966,1991,29,"v","Warthog",1,-24.48,31.79,377384.35,7292092.55
"327980",327980,1991,29,"v","Warthog",3,-24.66,31.88,386667.35,7272236.9
"327984",327984,1991,29,"v","Warthog",1,-24.67,31.85,383640.67,7271104.42
"327985",327985,1991,29,"v","Warthog",3,-24.66,31.87,385655.37,7272228.61
"327990",327990,1991,29,"v","Warthog",4,-24.63,31.88,386640.27,7275559.02
"327993",327993,1991,29,"v","Warthog",3,-24.66,31.83,381607.41,7272194.71
"328006",328006,1991,29,"v","Warthog",2,-24.66,31.81,379583.41,7272177.31
"328007",328007,1991,29,"v","Warthog",5,-24.65,31.81,379573.82,7273284.7
"328008",328008,1991,29,"v","Warthog",4,-24.65,31.82,380585.9,7273293.44
"328011",328011,1991,29,"v","Warthog",1,-24.63,31.84,382591.35,7275525.44
"328032",328032,1991,29,"v","Warthog",2,-24.64,31.81,379564.23,7274392.09
"328035",328035,1991,29,"v","Warthog",5,-24.63,31.83,381579.12,7275516.86
"328061",328061,1991,29,"v","Warthog",2,-24.58,31.82,380519.39,7281045.12
"328067",328067,1991,29,"v","Warthog",2,-24.6,31.81,379525.89,7278821.64
"328087",328087,1991,29,"v","Warthog",3,-24.7,31.92,390750.14,7267839.86
"328093",328093,1991,29,"v","Warthog",4,-24.66,31.92,390715.27,7272269.33
"328101",328101,1991,29,"v","Warthog",3,-24.68,31.91,389720.88,7270046.6
"328104",328104,1991,29,"v","Warthog",3,-24.69,31.91,389729.68,7268939.23
"328129",328129,1991,29,"v","Warthog",3,-24.69,31.87,385682.73,7268906.47
"328173",328173,1991,29,"v","Warthog",7,-24.76,31.87,385746.68,7261154.77
"328200",328200,1991,29,"v","Warthog",6,-24.75,31.84,382703.75,7262236.78
"328203",328203,1991,29,"v","Warthog",2,-24.73,31.84,382684.98,7264451.57
"328206",328206,1991,29,"v","Warthog",5,-24.72,31.83,381664.09,7265550.36
"328213",328213,1991,29,"v","Warthog",1,-24.7,31.83,381645.18,7267765.15
"328229",328229,1991,30,"v","Warthog",4,-24.76,31.89,387769.03,7261171.33
"328750",328750,1991,31,"v","Warthog",4,-24.48,31.77,375357.44,7292074.66
"328763",328763,1991,31,"v","Warthog",3,-24.4,31.74,372236.44,7300906.33
"328776",328776,1991,31,"v","Warthog",3,-24.47,31.76,374334.05,7293172.99
"328782",328782,1991,31,"v","Warthog",2,-24.53,31.76,374393.69,7286528.69
"328786",328786,1991,31,"v","Warthog",1,-24.58,31.77,375456.15,7281000.82
"328793",328793,1991,31,"v","Warthog",4,-24.6,31.78,376488.43,7278795.04
"328795",328795,1991,31,"v","Warthog",7,-24.61,31.77,375485.84,7277678.64
"328816",328816,1991,31,"v","Warthog",3,-24.4,31.73,371222.33,7300897.08
"328821",328821,1991,31,"v","Warthog",3,-24.4,31.72,370208.23,7300887.75
"328829",328829,1991,31,"v","Warthog",4,-24.45,31.73,371273.09,7295360.17
"328833",328833,1991,31,"v","Warthog",2,-24.46,31.74,372296.88,7294262.05
"328926",328926,1991,31,"v","Warthog",4,-24.45,31.71,369245.67,7295341.42
"328937",328937,1991,31,"v","Warthog",3,-24.39,31.69,367155.42,7301966.73
"328964",328964,1991,31,"v","Warthog",1,-24.51,31.74,372347.35,7288725.12
"328967",328967,1991,31,"v","Warthog",1,-24.52,31.74,372357.46,7287617.73
"328968",328968,1991,31,"v","Warthog",2,-24.52,31.74,372357.46,7287617.73
"328972",328972,1991,31,"v","Warthog",1,-24.54,31.74,372377.69,7285402.94
"328995",328995,1991,31,"v","Warthog",3,-24.55,31.74,372387.8,7284295.55
"328996",328996,1991,31,"v","Warthog",2,-24.53,31.73,371354.51,7286501.05
"328997",328997,1991,31,"v","Warthog",3,-24.52,31.73,371344.32,7287608.44
"329026",329026,1991,31,"v","Warthog",4,-24.59,31.74,372428.31,7279865.95
"329035",329035,1991,31,"v","Warthog",3,-24.58,31.73,371405.52,7280964.05
"329058",329058,1991,31,"v","Warthog",6,-24.59,31.71,369390.56,7279837.82
"329085",329085,1991,31,"v","Warthog",4,-24.52,31.7,368304.87,7287580.15
"329088",329088,1991,31,"v","Warthog",1,-24.53,31.7,368315.3,7286472.75
"329118",329118,1991,31,"v","Warthog",4,-24.59,31.7,368377.97,7279828.29
"329119",329119,1991,31,"v","Warthog",6,-24.59,31.7,368377.97,7279828.29
"329134",329134,1991,31,"v","Warthog",5,-24.55,31.69,367323.26,7284248.35
"329163",329163,1991,31,"v","Warthog",2,-24.54,31.68,366299.74,7285346.1
"329164",329164,1991,31,"v","Warthog",1,-24.54,31.69,367312.74,7285355.76
"329166",329166,1991,31,"v","Warthog",2,-24.61,31.7,368398.89,7277613.47
"329171",329171,1991,31,"v","Warthog",6,-24.59,31.69,367365.38,7279818.69
"329180",329180,1991,31,"v","Warthog",2,-24.57,31.69,367344.31,7282033.52
"329186",329186,1991,31,"v","Warthog",1,-24.55,31.68,366310.34,7284238.69
"329210",329210,1991,31,"v","Warthog",3,-24.5,31.66,364230.73,7289756.22
"329211",329211,1991,31,"v","Warthog",4,-24.5,31.66,364230.73,7289756.22
"329224",329224,1991,31,"v","Warthog",2,-24.55,31.67,365297.42,7284228.95
"329250",329250,1991,31,"v","Warthog",2,-24.55,31.66,364284.5,7284219.14
"329255",329255,1991,31,"v","Warthog",2,-24.53,31.65,363249.89,7286424.1
"329341",329341,1991,31,"v","Warthog",1,-24.4,31.65,363109.39,7300820.43
"329349",329349,1991,31,"v","Warthog",5,-24.4,31.66,364123.52,7300830.27
"329403",329403,1991,31,"v","Warthog",5,-24.43,31.69,367197.29,7297537.17
"329639",329639,1991,32,"v","Warthog",2,-24.48,31.52,350020.18,7291826.32
"329651",329651,1991,32,"v","Warthog",2,-24.45,31.52,349984.63,7295148.67
"329655",329655,1991,32,"v","Warthog",1,-24.45,31.51,348970.86,7295137.8
"329656",329656,1991,32,"v","Warthog",2,-24.45,31.5,347957.09,7295126.84
"329657",329657,1991,32,"v","Warthog",2,-24.46,31.51,348982.79,7294030.34
"329678",329678,1991,32,"v","Warthog",5,-24.47,31.5,347981.1,7292911.93
"329684",329684,1991,32,"v","Warthog",1,-24.47,31.5,347981.1,7292911.93
"329701",329701,1991,32,"v","Warthog",1,-24.46,31.48,345941.7,7293997.26
"329724",329724,1991,32,"v","Warthog",4,-24.57,31.51,349114.27,7281848.27
"329738",329738,1991,32,"v","Warthog",5,-24.5,31.47,344977.03,7289556.21
"329742",329742,1991,32,"v","Warthog",1,-24.49,31.46,343951.31,7290652.42
"329748",329748,1991,32,"v","Warthog",1,-24.51,31.47,344989.3,7288448.73
"329780",329780,1991,32,"v","Warthog",4,-24.52,31.43,340948.67,7287295.74
"329784",329784,1991,32,"v","Warthog",2,-24.48,31.63,361168.79,7291941.24
"329806",329806,1991,32,"v","Warthog",1,-24.47,31.62,360144.24,7293038.58
"329843",329843,1991,32,"v","Warthog",2,-24.49,31.59,357126.09,7290793.05
"329849",329849,1991,32,"v","Warthog",1,-24.51,31.6,358161.96,7288588.49
"329878",329878,1991,32,"v","Warthog",1,-24.48,31.57,355087.77,7291879.66
"329891",329891,1991,32,"v","Warthog",1,-24.53,31.56,354131.99,7286331.92
"329894",329894,1991,32,"v","Warthog",3,-24.52,31.56,354120.44,7287439.36
"329914",329914,1991,32,"v","Warthog",2,-24.56,31.53,351128.06,7282977.49
"329930",329930,1991,32,"v","Warthog",2,-24.56,31.52,350115.18,7282966.65
"329965",329965,1991,33,"v","Warthog",3,-24.56,31.59,357205.29,7283040.99
"329981",329981,1991,33,"v","Warthog",4,-24.59,31.59,357239.3,7279718.66
"330012",330012,1991,33,"v","Warthog",2,-24.59,31.57,355214.05,7279697.77
"330082",330082,1991,33,"v","Warthog",1,-24.75,31.68,366523.2,7262090.15
"330092",330092,1991,33,"v","Warthog",1,-24.74,31.64,362466.95,7263157.98
"330101",330101,1991,33,"v","Warthog",1,-24.74,31.65,363478.35,7263168
"330112",330112,1991,33,"v","Warthog",2,-24.72,31.63,361433.39,7265362.8
"330153",330153,1991,33,"v","Warthog",3,-24.7,31.6,358376.07,7267547.04
"330171",330171,1991,33,"v","Warthog",2,-24.67,31.61,359354.13,7270879.69
"330177",330177,1991,33,"v","Warthog",1,-24.67,31.61,359354.13,7270879.69
"330181",330181,1991,33,"v","Warthog",3,-24.66,31.59,357318.81,7271966.5
"330195",330195,1991,33,"v","Warthog",3,-24.66,31.6,358330.86,7271976.86
"330198",330198,1991,33,"v","Warthog",2,-24.64,31.63,361344.92,7274222.37
"330209",330209,1991,33,"v","Warthog",4,-24.63,31.62,360321.59,7275319.68
"330239",330239,1991,33,"v","Warthog",1,-24.62,31.61,359298.1,7276416.93
"330332",330332,1991,34,"v","Warthog",3,-24.75,31.78,376636.12,7262184.01
"330401",330401,1991,34,"v","Warthog",3,-24.76,31.82,380690.76,7261112.08
"330402",330402,1991,34,"v","Warthog",3,-24.76,31.83,381701.95,7261120.77
"330434",330434,1991,34,"v","Warthog",1,-24.76,31.85,383724.32,7261137.92
"330437",330437,1991,34,"v","Warthog",2,-24.76,31.85,383724.32,7261137.92
"330439",330439,1991,34,"v","Warthog",3,-24.76,31.86,384735.5,7261146.38
"330440",330440,1991,34,"v","Warthog",1,-24.76,31.86,384735.5,7261146.38
"330445",330445,1991,34,"v","Warthog",1,-24.74,31.72,370558.04,7263236.01
"330463",330463,1991,34,"v","Warthog",1,-24.73,31.73,371559.14,7264352.85
"330464",330464,1991,34,"v","Warthog",2,-24.73,31.73,371559.14,7264352.85
"330513",330513,1991,34,"v","Warthog",5,-24.7,31.71,369504.95,7267656.23
"330585",330585,1991,34,"v","Warthog",3,-24.68,31.77,375555.25,7269926.83
"330673",330673,1991,35,"v","Warthog",3,-24.97,31.58,356663.92,7237624.19
"330694",330694,1991,35,"v","Warthog",1,-24.96,31.62,360690.81,7238773.34
"330778",330778,1991,35,"v","Warthog",1,-24.92,31.65,363675.62,7243233.7
"330797",330797,1991,35,"v","Warthog",2,-24.92,31.62,360645.81,7243203.28
"330819",330819,1991,35,"v","Warthog",4,-24.88,31.64,362621.4,7247653.53
"330820",330820,1991,35,"v","Warthog",3,-24.89,31.65,363642.65,7246556.11
"330849",330849,1991,35,"v","Warthog",1,-24.82,31.62,360533.61,7254278.03
"330857",330857,1991,35,"v","Warthog",4,-24.83,31.66,364587.48,7253210.87
"330876",330876,1991,35,"v","Warthog",4,-24.86,31.64,362599.29,7249868.47
"330888",330888,1991,35,"v","Warthog",2,-24.86,31.69,367651.37,7249917.96
"330892",330892,1991,35,"v","Warthog",2,-24.87,31.65,363620.69,7248771.05
"330897",330897,1991,35,"v","Warthog",2,-24.87,31.68,366651.69,7248800.76
"330903",330903,1991,35,"v","Warthog",3,-24.87,31.73,371703.31,7248848.78
"330908",330908,1991,35,"v","Warthog",2,-24.88,31.73,371713.64,7247741.34
"330924",330924,1991,35,"v","Warthog",3,-24.9,31.7,368704.07,7245497.83
"330955",330955,1991,35,"v","Warthog",3,-24.91,31.73,371744.64,7244419
"330961",330961,1991,35,"v","Warthog",1,-24.93,31.71,369745.67,7242185.07
"330977",330977,1991,35,"v","Warthog",1,-24.94,31.74,372785.43,7241106.04
"330983",330983,1991,35,"v","Warthog",4,-24.95,31.74,372795.7,7239998.59
"330994",330994,1991,36,"v","Warthog",2,-24.82,31.88,386812.32,7254518.73
"331021",331021,1991,36,"v","Warthog",2,-24.83,31.86,384800.19,7253394.59
"331034",331034,1991,36,"v","Warthog",5,-24.81,31.85,383770.92,7255600.92
"331037",331037,1991,36,"v","Warthog",3,-24.82,31.85,383780.25,7254493.52
"331049",331049,1991,36,"v","Warthog",1,-24.8,31.85,383761.59,7256708.32
"331077",331077,1991,36,"v","Warthog",1,-24.83,31.82,380757.73,7253360.22
"331095",331095,1991,36,"v","Warthog",2,-24.84,31.81,379756.77,7252244.02
"331108",331108,1991,36,"v","Warthog",2,-24.79,31.85,383752.27,7257815.72
"331116",331116,1991,36,"v","Warthog",2,-24.78,31.84,382731.93,7258914.58
"331135",331135,1991,36,"v","Warthog",1,-24.81,31.83,381749.36,7255583.74
"331145",331145,1991,36,"v","Warthog",2,-24.78,31.82,380709.88,7258897.27
"331147",331147,1991,36,"v","Warthog",1,-24.78,31.82,380709.88,7258897.27
"331163",331163,1991,36,"v","Warthog",2,-24.78,31.81,379698.85,7258888.5
"331168",331168,1991,36,"v","Warthog",1,-24.78,31.81,379698.85,7258888.5
"331169",331169,1991,36,"v","Warthog",1,-24.79,31.81,379708.49,7257781.09
"331174",331174,1991,36,"v","Warthog",1,-24.81,31.81,379727.79,7255566.27
"331183",331183,1991,36,"v","Warthog",5,-24.83,31.8,378736.48,7253342.59
"331184",331184,1991,36,"v","Warthog",1,-24.83,31.8,378736.48,7253342.59
"331192",331192,1991,36,"v","Warthog",1,-24.8,31.8,378707.27,7256664.84
"331216",331216,1991,36,"v","Warthog",6,-24.84,31.8,378746.22,7252235.17
"331222",331222,1991,36,"v","Warthog",1,-24.82,31.79,377716.03,7254441.08
"331254",331254,1991,36,"v","Warthog",2,-24.81,31.77,375684.63,7255530.44
"331282",331282,1991,36,"v","Warthog",2,-24.85,31.77,375724.57,7251100.73
"331312",331312,1991,36,"v","Warthog",3,-24.8,31.76,374663.78,7256628.72
"331317",331317,1991,36,"v","Warthog",2,-24.83,31.75,373683.32,7253297.21
"331322",331322,1991,36,"v","Warthog",2,-24.87,31.76,374734.25,7248876.71
"331328",331328,1991,36,"v","Warthog",1,-24.8,31.75,373652.9,7256619.5
"331330",331330,1991,36,"v","Warthog",1,-24.78,31.74,372621.59,7258825.07
"331345",331345,1991,36,"v","Warthog",2,-24.78,31.73,371610.54,7258815.72
"331346",331346,1991,36,"v","Warthog",2,-24.77,31.73,371600.25,7259923.15
"331350",331350,1991,36,"v","Warthog",3,-24.76,31.73,371589.97,7261030.58
"331359",331359,1991,36,"v","Warthog",3,-24.78,31.71,369588.44,7258796.78
"331367",331367,1991,36,"v","Warthog",2,-24.77,31.68,366544.57,7259875.26
"331427",331427,1991,37,"v","Warthog",4,-24.79,31.97,395883.37,7257912.5
"331520",331520,1991,37,"v","Warthog",3,-24.88,31.91,389897.5,7247898.92
"331536",331536,1991,37,"v","Warthog",4,-24.85,31.88,386839.6,7251196.53
"331544",331544,1991,37,"v","Warthog",2,-24.88,31.88,386866.91,7247874.32
"331550",331550,1991,37,"v","Warthog",2,-25.01,32.02,401113.36,7233587.4
"331628",331628,1991,37,"v","Warthog",1,-24.96,31.99,398044.79,7239102.15
"331629",331629,1991,37,"v","Warthog",1,-24.96,31.99,398044.79,7239102.15
"331651",331651,1991,37,"v","Warthog",2,-24.96,31.93,391987.6,7239055.75
"331659",331659,1991,37,"v","Warthog",1,-24.95,31.97,396017.34,7240194.37
"331666",331666,1991,37,"v","Warthog",3,-24.93,31.97,396000.55,7242409.16
"331731",331731,1991,37,"v","Warthog",6,-24.92,31.9,388923.12,7243461.18
"331747",331747,1991,37,"v","Warthog",2,-24.92,31.9,388923.12,7243461.18
"331751",331751,1991,37,"v","Warthog",3,-24.91,31.9,388914.16,7244568.59
"331757",331757,1991,37,"v","Warthog",1,-24.9,31.92,390925.27,7245692.17
"331767",331767,1991,37,"v","Warthog",3,-25.07,31.98,397126.98,7226913.18
"331768",331768,1991,37,"v","Warthog",4,-25.07,31.98,397126.98,7226913.18
"331776",331776,1991,37,"v","Warthog",2,-25.09,31.96,395126.76,7224682.99
"331784",331784,1991,37,"v","Warthog",2,-25.08,31.99,398143.88,7225813.35
"331787",331787,1991,37,"v","Warthog",2,-25.09,31.99,398152.15,7224705.94
"331795",331795,1991,37,"v","Warthog",4,-25.11,31.94,393127.2,7222452.46
"332039",332039,1991,38,"v","Warthog",4,-24.94,31.76,374804.92,7241124.63
"332093",332093,1991,38,"v","Warthog",1,-24.91,31.84,382854.41,7244518.24
"332098",332098,1991,38,"v","Warthog",3,-24.95,31.85,383901.85,7240097.14
"332123",332123,1991,38,"v","Warthog",1,-25.01,31.79,377903.26,7233399.85
"332167",332167,1991,38,"v","Warthog",2,-25.05,31.83,381978.16,7229005.54
"332241",332241,1991,38,"v","Warthog",3,-25.09,31.89,388067.43,7224626.82
"332265",332265,1991,38,"v","Warthog",4,-25.1,31.92,391101.72,7223543.91
"332286",332286,1991,38,"v","Warthog",2,-25.02,31.88,386994.77,7232370.51
"332292",332292,1991,38,"v","Warthog",1,-25.01,31.87,385976.47,7233469.55
"332304",332304,1991,38,"v","Warthog",3,-24.96,31.89,387949.44,7239023.33
"332329",332329,1991,38,"v","Warthog",3,-24.92,31.88,386903.37,7243444.69
"332367",332367,1991,38,"v","Warthog",2,-24.89,31.86,384855.78,7246750.15
"332368",332368,1991,38,"v","Warthog",2,-24.89,31.86,384855.78,7246750.15
"332374",332374,1991,39,"v","Warthog",2,-24.97,31.32,330414.79,7237324.35
"332508",332508,1991,39,"v","Warthog",2,-25.06,31.31,329529.54,7227343.41
"332775",332775,1991,39,"v","Warthog",3,-25.13,31.2,318534.88,7219446.63
"332777",332777,1991,39,"v","Warthog",2,-25.14,31.22,320566.2,7218365.75
"332793",332793,1991,40,"v","Warthog",1,-25.15,31.31,329654.32,7217374.9
"332809",332809,1991,40,"v","Warthog",1,-25.16,31.33,331684.34,7216292.43
"332821",332821,1991,40,"v","Warthog",2,-25.18,31.3,328688.11,7214039.35
"332847",332847,1991,40,"v","Warthog",1,-25.19,31.29,327694.27,7212918.96
"332996",332996,1991,40,"v","Warthog",2,-25.2,31.23,321661.81,7211733.12
"333027",333027,1991,40,"v","Warthog",3,-25.21,31.29,327722.43,7210703.69
"333061",333061,1991,40,"v","Warthog",2,-25.28,31.26,324799.88,7202911.37
"333066",333066,1991,40,"v","Warthog",2,-25.29,31.31,329849.27,7201868.12
"333069",333069,1991,40,"v","Warthog",3,-25.29,31.3,328842.27,7201855.39
"333116",333116,1991,40,"v","Warthog",2,-25.32,31.32,330897.92,7198557.87
"333171",333171,1991,41,"v","Warthog",5,-25.4,31.36,335033.54,7189746.75
"333410",333410,1991,41,"v","Warthog",3,-25.27,31.46,344928.41,7204265.22
"333489",333489,1991,41,"v","Warthog",2,-25.18,31.43,341790.62,7214198.48
"333528",333528,1991,41,"v","Warthog",1,-25.22,31.46,344864.92,7209803.11
"333533",333533,1991,41,"v","Warthog",2,-25.18,31.48,346829.91,7214256.3
"333591",333591,1991,41,"v","Warthog",3,-25.22,31.5,348895,7209848.67
"333701",333701,1991,41,"v","Warthog",1,-25.15,31.4,338727.55,7217485.64
"333731",333731,1991,41,"v","Warthog",2,-25.13,31.36,334668.09,7219652.37
"333776",333776,1991,42,"v","Warthog",2,-25.06,31.56,354750.78,7227635.28
"333824",333824,1991,42,"v","Warthog",1,-25.14,31.56,354845.27,7218775.07
"333887",333887,1991,42,"v","Warthog",1,-25.16,31.58,356884.91,7216581.4
"333897",333897,1991,42,"v","Warthog",2,-25.17,31.57,355888.68,7215463.21
"333919",333919,1991,42,"v","Warthog",2,-25.17,31.6,358912.38,7215494.98
"333924",333924,1991,42,"v","Warthog",4,-25.17,31.58,356896.58,7215473.87
"333984",333984,1991,42,"v","Warthog",2,-25.21,31.6,358958.46,7211064.87
"334041",334041,1991,42,"v","Warthog",2,-25.11,31.53,351784.58,7222065.05
"334048",334048,1991,42,"v","Warthog",1,-25.09,31.53,351760.47,7224280.12
"334057",334057,1991,42,"v","Warthog",6,-25.13,31.53,351808.71,7219849.98
"334094",334094,1991,42,"v","Warthog",1,-25.21,31.55,353920.59,7211011.49
"334098",334098,1991,42,"v","Warthog",1,-25.22,31.52,350910.02,7209871.01
"334147",334147,1991,42,"v","Warthog",2,-25.32,31.58,357072.22,7198860.77
"334309",334309,1991,43,"v","Warthog",2,-24.99,31.36,334480.04,7235158.6
"334347",334347,1991,43,"v","Warthog",1,-24.99,31.4,338517.8,7235206.84
"334373",334373,1991,43,"v","Warthog",4,-25.04,31.41,339592.23,7229680.9
"334395",334395,1991,43,"v","Warthog",1,-25.02,31.42,340575.4,7231907.84
"334402",334402,1991,43,"v","Warthog",7,-25.05,31.42,340614.19,7228585.15
"334408",334408,1991,43,"v","Warthog",1,-24.99,31.43,341546.09,7235242.24
"334418",334418,1991,43,"v","Warthog",2,-25,31.43,341558.92,7234134.69
"334448",334448,1991,43,"v","Warthog",3,-24.99,31.44,342555.51,7235253.89
"334455",334455,1991,43,"v","Warthog",1,-25.04,31.44,342619.28,7229716.12
"334457",334457,1991,43,"v","Warthog",2,-25.03,31.45,343615.61,7230835.27
"334478",334478,1991,43,"v","Warthog",2,-25.03,31.45,343615.61,7230835.27
"334504",334504,1991,43,"v","Warthog",1,-25.03,31.48,346642.87,7230869.59
"334527",334527,1991,43,"v","Warthog",1,-25.03,31.49,347651.95,7230880.88
"334553",334553,1991,43,"v","Warthog",6,-25.02,31.51,349657.91,7232010.78
"334593",334593,1991,43,"v","Warthog",1,-25.01,31.56,354691.88,7233172.87
"334652",334652,1991,43,"v","Warthog",2,-25.06,31.4,338609.41,7227453.86
"334653",334653,1991,43,"v","Warthog",6,-25.06,31.4,338609.41,7227453.86
"334715",334715,1991,43,"v","Warthog",1,-25.07,31.44,342657.61,7226393.45
"334718",334718,1991,43,"v","Warthog",3,-25.07,31.44,342657.61,7226393.45
"334730",334730,1991,43,"v","Warthog",2,-25.05,31.46,344649.91,7228631.69
"334774",334774,1991,43,"v","Warthog",1,-25.06,31.49,347689.03,7227558.26
"334782",334782,1991,43,"v","Warthog",1,-25.04,31.49,347664.3,7229773.35
"334797",334797,1991,43,"v","Warthog",1,-25.07,31.5,348710.15,7226461.95
"334844",334844,1991,43,"v","Warthog",1,-25.08,31.53,351748.42,7225387.66
"334863",334863,1991,43,"v","Warthog",2,-25.03,31.55,353706.37,7230947.07
"334900",334900,1991,44,"v","Warthog",4,-25.33,31.74,373188.94,7197914.39
"334901",334901,1991,44,"v","Warthog",1,-25.33,31.74,373188.94,7197914.39
"334907",334907,1991,44,"v","Warthog",1,-25.36,31.75,374226.51,7194601.31
"334990",334990,1991,44,"v","Warthog",3,-25.39,31.66,365203.11,7191191.02
"335010",335010,1991,44,"v","Warthog",2,-25.27,31.66,365070.11,7204481.36
"335060",335060,1991,44,"v","Warthog",2,-25.4,31.58,357166.29,7190000.32
"335076",335076,1991,44,"v","Warthog",1,-25.36,31.88,387308.08,7194717.21
"335078",335078,1991,44,"v","Warthog",6,-25.37,31.88,387317.35,7193609.73
"335108",335108,1991,44,"v","Warthog",8,-25.38,31.87,386320.54,7192493.79
"335113",335113,1991,44,"v","Warthog",1,-25.34,31.85,384270.25,7196906.55
"335128",335128,1991,44,"v","Warthog",2,-25.32,31.84,383244.63,7199112.83
"335154",335154,1991,44,"v","Warthog",2,-25.33,31.81,380234.66,7197978.85
"335165",335165,1991,44,"v","Warthog",2,-25.35,31.81,380254.36,7195763.87
"335181",335181,1991,44,"v","Warthog",2,-25.33,31.78,377215.08,7197951.68
"335293",335293,1991,44,"v","Warthog",2,-25.3,31.73,372150.9,7201227.4
"335334",335334,1991,44,"v","Warthog",2,-25.29,31.72,371133.54,7202325.33
"335443",335443,1991,44,"v","Warthog",2,-25.28,31.68,367095.11,7203393.8
"335464",335464,1991,44,"v","Warthog",3,-25.17,31.7,368991.22,7215596
"335512",335512,1991,44,"v","Warthog",1,-25.23,31.67,366033.29,7208921.43
"335578",335578,1991,44,"v","Warthog",1,-25.22,31.62,360984.96,7209978.17
"335583",335583,1991,44,"v","Warthog",2,-25.27,31.91,390245.76,7204709.29
"335586",335586,1991,44,"v","Warthog",1,-25.28,31.91,390254.76,7203601.84
"335590",335590,1991,44,"v","Warthog",1,-25.32,31.9,389284.19,7199163.77
"335609",335609,1991,44,"v","Warthog",3,-25.33,31.88,387280.27,7198039.62
"335611",335611,1991,44,"v","Warthog",2,-25.32,31.88,387271.01,7199147.09
"335625",335625,1991,44,"v","Warthog",2,-25.33,31.87,386273.77,7198031.17
"335665",335665,1991,44,"v","Warthog",3,-25.23,31.94,393231.78,7209163.27
"335667",335667,1991,44,"v","Warthog",5,-25.21,31.94,393214.32,7211378.15
"335670",335670,1991,44,"v","Warthog",6,-25.2,31.94,393205.59,7212485.59
"335684",335684,1991,44,"v","Warthog",1,-25.22,31.92,391208.24,7210254.68
"335695",335695,1991,44,"v","Warthog",2,-25.18,31.92,391172.68,7214684.44
"335701",335701,1991,44,"v","Warthog",2,-25.21,31.92,391199.34,7211362.12
"335712",335712,1991,44,"v","Warthog",6,-25.26,31.91,390236.77,7205816.75
"335716",335716,1991,44,"v","Warthog",3,-25.24,31.91,390218.79,7208031.65
"335727",335727,1991,44,"v","Warthog",2,-25.2,31.91,390182.88,7212461.44
"335728",335728,1991,44,"v","Warthog",2,-25.19,31.91,390173.91,7213568.88
"335749",335749,1991,44,"v","Warthog",3,-25.21,31.9,389184.36,7211345.79
"335771",335771,1991,44,"v","Warthog",1,-25.22,31.85,384156.33,7210196.19
"335789",335789,1991,44,"v","Warthog",4,-25.23,31.84,383158.46,7209080.07
"335792",335792,1991,44,"v","Warthog",2,-25.21,31.86,385154.36,7211312.23
"335799",335799,1991,44,"v","Warthog",3,-25.22,31.84,383148.9,7210187.54
"335807",335807,1991,44,"v","Warthog",5,-25.26,31.82,381172.96,7205740.12
"335813",335813,1991,44,"v","Warthog",3,-25.22,31.83,382141.48,7210178.81
"335821",335821,1991,44,"v","Warthog",3,-25.21,31.83,382131.84,7211286.28
"335843",335843,1991,44,"v","Warthog",1,-25.2,31.83,382122.21,7212393.74
"335851",335851,1991,44,"v","Warthog",3,-25.22,31.81,380126.62,7210161.13
"335911",335911,1991,44,"v","Warthog",2,-25.19,31.77,376066.49,7213447.3
"335945",335945,1991,44,"v","Warthog",4,-25.15,31.92,391146.05,7218006.75
"335951",335951,1991,44,"v","Warthog",2,-25.15,31.92,391146.05,7218006.75
"335993",335993,1991,44,"v","Warthog",2,-25.12,31.91,390111.21,7221320.95
"335998",335998,1991,44,"v","Warthog",2,-25.14,31.9,389121.04,7219097.89
"336009",336009,1991,44,"v","Warthog",2,-25.17,31.9,389148.16,7215775.57
"336035",336035,1991,44,"v","Warthog",3,-25.1,31.9,389084.93,7223527.63
"336218",336218,1991,46,"v","Warthog",3,-25.22,31.95,394230.45,7210278.62
"336221",336221,1991,46,"v","Warthog",2,-25.22,31.95,394230.45,7210278.62
"336228",336228,1991,46,"v","Warthog",1,-25.2,31.95,394213.16,7212493.49
"336239",336239,1991,46,"v","Warthog",1,-25.16,31.95,394178.62,7216923.22
"336354",336354,1991,46,"v","Warthog",6,-25.23,31.96,395246.42,7209179.01
"336357",336357,1991,46,"v","Warthog",2,-25.23,31.96,395246.42,7209179.01
"336381",336381,1991,46,"v","Warthog",4,-25.26,31.95,394265.07,7205848.85
"336401",336401,1991,46,"v","Warthog",4,-25.29,31.97,396304.71,7202542.13
"336407",336407,1991,46,"v","Warthog",2,-25.3,31.96,395306.48,7201426.91
"336409",336409,1991,46,"v","Warthog",2,-25.3,31.97,396313.22,7201434.69
"336441",336441,1991,46,"v","Warthog",2,-25.33,31.92,391306.29,7198072.7
"336608",336608,1991,46,"v","Warthog",4,-25.27,32,399308.65,7204779.86
"336660",336660,1991,46,"v","Warthog",2,-25.4,31.32,331009.24,7189696.72
"336735",336735,1991,46,"v","Warthog",2,-25.48,31.37,336147.92,7180897.97
"336766",336766,1991,46,"v","Warthog",1,-25.49,31.43,342193.32,7179862.84
"336777",336777,1991,46,"v","Warthog",4,-25.48,31.46,345196.39,7181005.68
"336796",336796,1991,46,"v","Warthog",2,-25.47,31.49,348199.93,7182147.83
"336827",336827,1991,46,"v","Warthog",1,-25.46,31.52,351203.96,7183289.27
"336869",336869,1991,46,"v","Warthog",1,-25.46,31.48,347181.85,7183243.99
"336875",336875,1991,46,"v","Warthog",3,-25.45,31.46,345157.98,7184328.51
"336876",336876,1991,46,"v","Warthog",4,-25.45,31.45,344152.36,7184316.85
"336912",336912,1991,46,"v","Warthog",2,-25.42,31.54,353166.49,7187741.78
"337057",337057,1991,46,"v","Warthog",2,-25.35,31.57,356101.04,7195527.39
"337104",337104,1991,46,"v","Warthog",2,-25.3,31.52,351007.71,7201010.52
"337112",337112,1991,46,"v","Warthog",3,-25.32,31.5,349018.81,7198772.98
"337551",337551,1991,58,"v","Warthog",2,-25.07,31.78,376953.99,7226746.07
"337607",337607,1991,58,"v","Warthog",2,-25.07,31.75,373927.96,7226718.43
"337731",337731,1991,58,"v","Warthog",1,-25.11,31.66,364893.68,7222201.5
"337748",337748,1991,58,"v","Warthog",4,-25.11,31.66,364893.68,7222201.5
"337783",337783,1991,58,"v","Warthog",2,-25.1,31.63,361857.31,7223278.64
"337805",337805,1991,58,"v","Warthog",2,-25.15,31.67,365945.74,7217781.48
"337820",337820,1991,58,"v","Warthog",2,-25.11,31.63,361868.55,7222171.13
"337850",337850,1991,58,"v","Warthog",1,-25.16,31.65,363940.74,7216653.93
"337875",337875,1991,58,"v","Warthog",1,-25.17,31.62,360928.17,7215515.78
"337903",337903,1991,60,"v","Warthog",2,-24.98,31.75,373835.96,7236685.57
"337924",337924,1991,60,"v","Warthog",3,-24.97,31.73,371806.76,7237774.28
"338005",338005,1991,60,"v","Warthog",3,-25.04,31.65,363807.88,7229943.92
"338029",338029,1991,60,"v","Warthog",2,-25.04,31.62,360781.01,7229913.39
"338165",338165,1991,61,"v","Warthog",2,-22.56,31.05,299491.68,7503877.38
"338173",338173,1991,61,"v","Warthog",4,-22.55,31.07,301534.41,7505011.5
"338236",338236,1991,61,"v","Warthog",1,-22.63,31.06,300621.09,7496139.04
"338273",338273,1991,62,"v","Warthog",5,-22.42,31.18,312673.77,7519548.75
"338376",338376,1991,62,"v","Warthog",1,-22.54,31.12,306663.4,7506184.45
"338385",338385,1991,62,"v","Warthog",3,-22.57,31.18,312875.71,7502938.87
"338390",338390,1991,62,"v","Warthog",3,-22.59,31.17,311874.47,7500711.62
"338451",338451,1991,63,"v","Warthog",1,-22.43,31.3,325040.17,7518586.26
"338455",338455,1991,63,"v","Warthog",1,-22.42,31.3,325027.63,7519693.53
"338468",338468,1991,63,"v","Warthog",2,-22.42,31.22,316791.79,7519598.1
"338480",338480,1991,63,"v","Warthog",2,-22.43,31.27,321951.98,7518550.98
"338537",338537,1991,63,"v","Warthog",3,-22.47,31.26,320973.95,7514109.94
"338589",338589,1991,64,"v","Warthog",2,-22.41,31.29,323985.56,7520789.11
"338596",338596,1991,64,"v","Warthog",4,-22.39,31.27,321900.98,7522980.08
"338601",338601,1991,64,"v","Warthog",3,-22.39,31.27,321900.98,7522980.08
"338608",338608,1991,64,"v","Warthog",3,-22.4,31.27,321913.72,7521872.81
"338621",338621,1991,64,"v","Warthog",1,-22.41,31.26,320896.92,7520753.64
"338627",338627,1991,64,"v","Warthog",3,-22.37,31.26,320845.66,7525182.76
"338630",338630,1991,64,"v","Warthog",1,-22.36,31.25,319802.94,7526278.09
"338678",338678,1991,64,"v","Warthog",4,-22.4,31.24,318824.83,7521836.95
"338730",338730,1991,64,"v","Warthog",2,-22.4,31.23,317795.19,7521824.86
"338739",338739,1991,64,"v","Warthog",3,-22.37,31.22,316726.24,7525134.58
"338753",338753,1991,64,"v","Warthog",3,-22.42,31.21,315762.29,7519585.87
"338776",338776,1991,64,"v","Warthog",4,-22.41,31.2,314719.52,7520680.87
"338777",338777,1991,64,"v","Warthog",4,-22.41,31.2,314719.52,7520680.87
