"","ID","Year","Cenb","Sp","Description","No","Lat","Long","X.coord","Y.coord"
"48895",48895,1981,6,"wr","White rhino",3,-23.64,31.38,334757.9,7384692.64
"48991",48991,1981,6,"wr","White rhino",1,-23.68,31.44,340927.44,7380331.29
"49003",49003,1981,6,"wr","White rhino",1,-23.64,31.44,340879.03,7384760.77
"49310",49310,1981,8,"wr","White rhino",1,-23.43,31.28,324276.88,7407829.07
"49472",49472,1981,8,"wr","White rhino",1,-23.49,31.34,330484.62,7401256.71
"50331",50331,1981,11,"wr","White rhino",2,-23.28,31.23,318964.05,7424378.35
"50332",50332,1981,11,"wr","White rhino",6,-23.28,31.23,318964.05,7424378.35
"50359",50359,1981,11,"wr","White rhino",2,-23.39,31.26,322179.7,7412234.15
"50382",50382,1981,11,"wr","White rhino",1,-23.31,31.26,322073.03,7421093.34
"50383",50383,1981,11,"wr","White rhino",3,-23.31,31.26,322073.03,7421093.34
"50384",50384,1981,11,"wr","White rhino",3,-23.31,31.26,322073.03,7421093.34
"50393",50393,1981,11,"wr","White rhino",2,-23.33,31.26,322099.66,7418878.55
"53668",53668,1981,21,"wr","White rhino",3,-24.16,31.61,358787.67,7327357.88
"53704",53704,1981,21,"wr","White rhino",2,-24.2,31.63,360863.16,7322948.41
"54420",54420,1981,22,"wr","White rhino",2,-24.37,31.57,354962.03,7304061.38
"54438",54438,1981,22,"wr","White rhino",2,-24.33,31.57,354916.43,7308491.06
"54447",54447,1981,22,"wr","White rhino",1,-24.26,31.57,354836.81,7316242.94
"55080",55080,1981,24,"wr","White rhino",1,-24.28,31.61,358919.95,7314069.22
"55861",55861,1981,25,"wr","White rhino",1,-24.1,31.86,384134.01,7334231.28
"56658",56658,1981,27,"wr","White rhino",1,-24.31,31.9,388382.89,7311010.33
"56703",56703,1981,27,"wr","White rhino",3,-24.22,31.9,388304.25,7320976.15
"56729",56729,1981,27,"wr","White rhino",2,-24.24,31.9,388321.7,7318761.53
"56833",56833,1981,27,"wr","White rhino",3,-24.31,31.94,392442.01,7311041.83
"57707",57707,1981,29,"wr","White rhino",3,-24.64,31.82,380576.39,7274400.82
"57738",57738,1981,29,"wr","White rhino",1,-24.6,31.82,380538.38,7278830.36
"57739",57739,1981,29,"wr","White rhino",2,-24.6,31.82,380538.38,7278830.36
"57901",57901,1981,29,"wr","White rhino",2,-24.56,31.86,384551.62,7283293.97
"57918",57918,1981,29,"wr","White rhino",2,-24.51,31.84,382479.47,7288813.9
"58040",58040,1981,30,"wr","White rhino",2,-24.76,31.94,392824.86,7261211.43
"58963",58963,1981,31,"wr","White rhino",2,-24.45,31.73,371273.09,7295360.17
"59013",59013,1981,31,"wr","White rhino",5,-24.56,31.76,374423.57,7283206.52
"59680",59680,1981,33,"wr","White rhino",2,-24.78,31.67,365544.2,7258758.02
"59857",59857,1981,34,"wr","White rhino",1,-24.7,31.71,369504.95,7267656.23
"59974",59974,1981,34,"wr","White rhino",6,-24.68,31.78,376567.09,7269935.86
"59993",59993,1981,34,"wr","White rhino",2,-24.64,31.76,374503.39,7274347.34
"60000",60000,1981,34,"wr","White rhino",1,-24.64,31.78,376527.73,7274365.47
"60925",60925,1981,37,"wr","White rhino",2,-24.81,31.9,388824.77,7255642.56
"61448",61448,1981,38,"wr","White rhino",1,-24.99,31.86,384948.7,7235675.96
"61472",61472,1981,38,"wr","White rhino",1,-24.89,31.84,382835.53,7246733.08
"61846",61846,1981,38,"wr","White rhino",1,-25.06,31.98,397118.62,7228020.59
"62217",62217,1981,39,"wr","White rhino",2,-25.14,31.21,319557.94,7218352.4
"62218",62218,1981,39,"wr","White rhino",7,-25.14,31.21,319557.94,7218352.4
"62296",62296,1981,39,"wr","White rhino",1,-25.08,31.21,319469.8,7224998.3
"62319",62319,1981,39,"wr","White rhino",1,-25.14,31.26,324599.23,7218418.4
"62340",62340,1981,39,"wr","White rhino",2,-25.1,31.28,326559.24,7222874.77
"62341",62341,1981,39,"wr","White rhino",2,-25.1,31.28,326559.24,7222874.77
"62365",62365,1981,39,"wr","White rhino",3,-25.12,31.28,326587.47,7220659.52
"62378",62378,1981,39,"wr","White rhino",3,-25.06,31.26,324485.04,7227279.44
"62400",62400,1981,39,"wr","White rhino",2,-25.08,31.26,324513.56,7225064.18
"62405",62405,1981,39,"wr","White rhino",1,-25.08,31.28,326531.04,7225090.01
"62406",62406,1981,39,"wr","White rhino",1,-25.08,31.28,326531.04,7225090.01
"62461",62461,1981,39,"wr","White rhino",4,-24.99,31.28,326404.36,7235058.53
"62478",62478,1981,39,"wr","White rhino",1,-25.1,31.32,330593.5,7222925.56
"62479",62479,1981,39,"wr","White rhino",3,-25.1,31.32,330593.5,7222925.56
"62484",62484,1981,39,"wr","White rhino",1,-25.12,31.32,330621.08,7220710.34
"62485",62485,1981,39,"wr","White rhino",2,-25.12,31.32,330621.08,7220710.34
"62487",62487,1981,39,"wr","White rhino",1,-25.06,31.3,328520.64,7227330.76
"62495",62495,1981,39,"wr","White rhino",2,-25.08,31.32,330565.95,7225140.77
"62524",62524,1981,39,"wr","White rhino",4,-25.03,31.3,328478.89,7230653.59
"62568",62568,1981,39,"wr","White rhino",2,-25.1,31.34,332610.61,7222950.51
"62575",62575,1981,39,"wr","White rhino",2,-25.1,31.36,334627.71,7222975.16
"62578",62578,1981,39,"wr","White rhino",1,-25.12,31.34,332637.86,7220735.31
"62579",62579,1981,39,"wr","White rhino",4,-25.12,31.34,332637.86,7220735.31
"62586",62586,1981,39,"wr","White rhino",2,-25.06,31.34,332556.19,7227380.9
"62597",62597,1981,39,"wr","White rhino",1,-25.06,31.36,334573.94,7227405.52
"62598",62598,1981,39,"wr","White rhino",2,-25.06,31.36,334573.94,7227405.52
"62599",62599,1981,39,"wr","White rhino",5,-25.06,31.36,334573.94,7227405.52
"62605",62605,1981,39,"wr","White rhino",1,-25.08,31.36,334600.82,7225190.34
"62649",62649,1981,39,"wr","White rhino",2,-25.08,31.38,336618.23,7225214.68
"62698",62698,1981,40,"wr","White rhino",1,-25.18,31.23,321632.67,7213948.43
"62788",62788,1981,40,"wr","White rhino",1,-25.22,31.28,326728.93,7209583.2
"62830",62830,1981,40,"wr","White rhino",2,-25.18,31.28,326672.29,7214013.75
"62885",62885,1981,40,"wr","White rhino",1,-25.31,31.3,328870.37,7199640.1
"62910",62910,1981,40,"wr","White rhino",1,-25.33,31.32,330911.82,7197450.23
"62911",62911,1981,40,"wr","White rhino",5,-25.33,31.32,330911.82,7197450.23
"62920",62920,1981,40,"wr","White rhino",3,-25.26,31.3,328800.17,7205178.3
"62924",62924,1981,40,"wr","White rhino",2,-25.26,31.32,330814.65,7205203.67
"62925",62925,1981,40,"wr","White rhino",4,-25.26,31.32,330814.65,7205203.67
"62934",62934,1981,40,"wr","White rhino",1,-25.22,31.3,328744.09,7209608.84
"62980",62980,1981,40,"wr","White rhino",1,-25.18,31.3,328688.11,7214039.35
"62981",62981,1981,40,"wr","White rhino",2,-25.18,31.3,328688.11,7214039.35
"63000",63000,1981,40,"wr","White rhino",1,-25.2,31.3,328716.09,7211824.1
"63012",63012,1981,40,"wr","White rhino",2,-25.2,31.32,330731.57,7211849.42
"63040",63040,1981,40,"wr","White rhino",1,-25.22,31.36,334789.5,7209683.94
"63047",63047,1981,40,"wr","White rhino",1,-25.18,31.34,332719.71,7214089.66
"63056",63056,1981,40,"wr","White rhino",3,-25.18,31.36,334735.49,7214114.37
"63064",63064,1981,40,"wr","White rhino",2,-25.2,31.36,334762.48,7211899.16
"63068",63068,1981,40,"wr","White rhino",2,-25.16,31.34,332692.4,7216304.88
"63069",63069,1981,40,"wr","White rhino",4,-25.16,31.34,332692.4,7216304.88
"63089",63089,1981,41,"wr","White rhino",2,-25.35,31.36,334965.59,7195284.9
"63090",63090,1981,41,"wr","White rhino",3,-25.35,31.36,334965.59,7195284.9
"63119",63119,1981,41,"wr","White rhino",2,-25.24,31.36,334816.53,7207468.72
"63120",63120,1981,41,"wr","White rhino",2,-25.24,31.36,334816.53,7207468.72
"63130",63130,1981,41,"wr","White rhino",2,-25.14,31.36,334681.56,7218544.77
"63141",63141,1981,41,"wr","White rhino",2,-25.35,31.38,336978.54,7195309.43
"63155",63155,1981,41,"wr","White rhino",2,-25.35,31.4,338991.49,7195333.65
"63158",63158,1981,41,"wr","White rhino",1,-25.33,31.38,336951.73,7197524.66
"63164",63164,1981,41,"wr","White rhino",1,-25.26,31.4,338872.47,7205302.11
"63171",63171,1981,41,"wr","White rhino",2,-25.22,31.38,336804.61,7209708.37
"63182",63182,1981,41,"wr","White rhino",1,-25.22,31.4,338819.7,7209732.51
"63183",63183,1981,41,"wr","White rhino",2,-25.22,31.4,338819.7,7209732.51
"63184",63184,1981,41,"wr","White rhino",3,-25.22,31.4,338819.7,7209732.51
"63188",63188,1981,41,"wr","White rhino",2,-25.24,31.38,336831.31,7207493.17
"63200",63200,1981,41,"wr","White rhino",1,-25.18,31.4,338767.01,7214162.88
"63211",63211,1981,41,"wr","White rhino",2,-25.2,31.4,338793.35,7211947.7
"63212",63212,1981,41,"wr","White rhino",3,-25.2,31.4,338793.35,7211947.7
"63221",63221,1981,41,"wr","White rhino",2,-25.14,31.4,338714.4,7218593.23
"63226",63226,1981,41,"wr","White rhino",3,-25.16,31.38,336724.61,7216353.97
"63234",63234,1981,41,"wr","White rhino",1,-25.16,31.4,338740.7,7216378.06
"63252",63252,1981,41,"wr","White rhino",5,-25.31,31.44,342965.73,7199811.58
"63255",63255,1981,41,"wr","White rhino",2,-25.26,31.42,340886.9,7205325.98
"63266",63266,1981,41,"wr","White rhino",1,-25.28,31.42,340912.98,7203110.78
"63267",63267,1981,41,"wr","White rhino",2,-25.28,31.42,340912.98,7203110.78
"63279",63279,1981,41,"wr","White rhino",1,-25.22,31.42,340834.79,7209756.34
"63280",63280,1981,41,"wr","White rhino",2,-25.22,31.42,340834.79,7209756.34
"63281",63281,1981,41,"wr","White rhino",4,-25.22,31.42,340834.79,7209756.34
"63282",63282,1981,41,"wr","White rhino",5,-25.22,31.42,340834.79,7209756.34
"63294",63294,1981,41,"wr","White rhino",2,-25.24,31.44,342875.57,7207564.71
"63295",63295,1981,41,"wr","White rhino",2,-25.24,31.44,342875.57,7207564.71
"63304",63304,1981,41,"wr","White rhino",1,-25.18,31.42,340782.75,7214186.69
"63305",63305,1981,41,"wr","White rhino",1,-25.18,31.42,340782.75,7214186.69
"63313",63313,1981,41,"wr","White rhino",2,-25.2,31.42,340808.76,7211971.52
"63314",63314,1981,41,"wr","White rhino",3,-25.2,31.42,340808.76,7211971.52
"63321",63321,1981,41,"wr","White rhino",2,-25.2,31.44,342824.16,7211995.04
"63326",63326,1981,41,"wr","White rhino",1,-25.14,31.42,340730.8,7218617.01
"63332",63332,1981,41,"wr","White rhino",1,-25.14,31.44,342747.19,7218640.49
"63333",63333,1981,41,"wr","White rhino",1,-25.14,31.44,342747.19,7218640.49
"63341",63341,1981,41,"wr","White rhino",2,-25.16,31.42,340756.77,7216401.85
"63379",63379,1981,41,"wr","White rhino",5,-25.22,31.46,344864.92,7209803.11
"63389",63389,1981,41,"wr","White rhino",2,-25.24,31.46,344890.3,7207587.96
"63390",63390,1981,41,"wr","White rhino",3,-25.24,31.46,344890.3,7207587.96
"63401",63401,1981,41,"wr","White rhino",1,-25.18,31.46,344814.2,7214233.4
"63402",63402,1981,41,"wr","White rhino",1,-25.18,31.46,344814.2,7214233.4
"63403",63403,1981,41,"wr","White rhino",2,-25.18,31.46,344814.2,7214233.4
"63404",63404,1981,41,"wr","White rhino",3,-25.18,31.46,344814.2,7214233.4
"63409",63409,1981,41,"wr","White rhino",9,-25.2,31.48,346854.93,7212041.18
"63427",63427,1981,41,"wr","White rhino",2,-25.14,31.48,346779.93,7218686.55
"63440",63440,1981,41,"wr","White rhino",1,-25.16,31.48,346804.91,7216471.43
"63441",63441,1981,41,"wr","White rhino",1,-25.16,31.48,346804.91,7216471.43
"63442",63442,1981,41,"wr","White rhino",2,-25.16,31.48,346804.91,7216471.43
"63451",63451,1981,41,"wr","White rhino",2,-25.12,31.46,344738.27,7220878.79
"63452",63452,1981,41,"wr","White rhino",2,-25.12,31.46,344738.27,7220878.79
"63453",63453,1981,41,"wr","White rhino",4,-25.12,31.46,344738.27,7220878.79
"63471",63471,1981,41,"wr","White rhino",2,-25.18,31.51,349853.44,7214290.1
"63503",63503,1981,41,"wr","White rhino",1,-25.12,31.51,349779.98,7220935.4
"63558",63558,1981,42,"wr","White rhino",2,-25.22,31.53,351917.53,7209882.06
"63559",63559,1981,42,"wr","White rhino",2,-25.22,31.53,351917.53,7209882.06
"63572",63572,1981,42,"wr","White rhino",1,-25.24,31.51,349927.07,7207644.76
"63594",63594,1981,42,"wr","White rhino",1,-25.2,31.51,349877.97,7212074.99
"63603",63603,1981,42,"wr","White rhino",1,-25.2,31.53,351893.31,7212097.16
"63604",63604,1981,42,"wr","White rhino",1,-25.2,31.53,351893.31,7212097.16
"63605",63605,1981,42,"wr","White rhino",2,-25.2,31.53,351893.31,7212097.16
"63615",63615,1981,42,"wr","White rhino",1,-25.16,31.53,351844.94,7216527.35
"63616",63616,1981,42,"wr","White rhino",2,-25.16,31.53,351844.94,7216527.35
"63663",63663,1981,42,"wr","White rhino",2,-25.31,31.57,356053.73,7199957.61
"63664",63664,1981,42,"wr","White rhino",2,-25.31,31.57,356053.73,7199957.61
"63682",63682,1981,42,"wr","White rhino",2,-25.26,31.55,353980.35,7205473.75
"63683",63683,1981,42,"wr","White rhino",3,-25.26,31.55,353980.35,7205473.75
"63723",63723,1981,42,"wr","White rhino",3,-25.28,31.55,354004.29,7203258.64
"63738",63738,1981,42,"wr","White rhino",2,-25.28,31.57,356018.29,7203280.26
"63752",63752,1981,42,"wr","White rhino",2,-25.22,31.55,353932.53,7209903.94
"63753",63753,1981,42,"wr","White rhino",2,-25.22,31.55,353932.53,7209903.94
"63754",63754,1981,42,"wr","White rhino",4,-25.22,31.55,353932.53,7209903.94
"63813",63813,1981,42,"wr","White rhino",1,-25.18,31.55,353884.79,7214334.12
"63833",63833,1981,42,"wr","White rhino",2,-25.2,31.55,353908.65,7212119.03
"63861",63861,1981,42,"wr","White rhino",2,-25.14,31.55,353837.11,7218764.27
"63869",63869,1981,42,"wr","White rhino",2,-25.14,31.57,355853.42,7218785.8
"63870",63870,1981,42,"wr","White rhino",3,-25.14,31.57,355853.42,7218785.8
"63989",63989,1981,42,"wr","White rhino",2,-25.26,31.59,358009.01,7205516.67
"63990",63990,1981,42,"wr","White rhino",6,-25.26,31.59,358009.01,7205516.67
"64033",64033,1981,42,"wr","White rhino",2,-25.28,31.59,358032.28,7203301.58
"64084",64084,1981,42,"wr","White rhino",3,-25.22,31.61,359977.48,7209967.79
"64140",64140,1981,42,"wr","White rhino",2,-25.18,31.61,359931.71,7214397.89
"64231",64231,1981,43,"wr","White rhino",2,-25.1,31.4,338661.87,7223023.56
"64235",64235,1981,43,"wr","White rhino",2,-25.06,31.38,336591.68,7227429.84
"64257",64257,1981,43,"wr","White rhino",2,-25.08,31.4,338635.63,7225238.71
"64258",64258,1981,43,"wr","White rhino",2,-25.08,31.4,338635.63,7225238.71
"64280",64280,1981,43,"wr","White rhino",2,-25.03,31.4,338570.12,7230776.58
"64281",64281,1981,43,"wr","White rhino",3,-25.03,31.4,338570.12,7230776.58
"64322",64322,1981,43,"wr","White rhino",2,-25.1,31.44,342695.97,7223070.76
"64339",64339,1981,43,"wr","White rhino",2,-25.06,31.44,342644.83,7227501.01
"64348",64348,1981,43,"wr","White rhino",4,-25.08,31.42,340653.01,7225262.45
"64358",64358,1981,43,"wr","White rhino",2,-25.08,31.44,342670.39,7225285.89
"64410",64410,1981,43,"wr","White rhino",1,-25.1,31.46,344713,7223093.91
"64411",64411,1981,43,"wr","White rhino",2,-25.1,31.46,344713,7223093.91
"64424",64424,1981,43,"wr","White rhino",2,-25.1,31.48,346730.02,7223116.76
"64438",64438,1981,43,"wr","White rhino",3,-25.06,31.46,344662.52,7227524.13
"64458",64458,1981,43,"wr","White rhino",2,-25.06,31.48,346680.19,7227546.96
"64469",64469,1981,43,"wr","White rhino",2,-25.08,31.46,344687.75,7225309.02
"64470",64470,1981,43,"wr","White rhino",3,-25.08,31.46,344687.75,7225309.02
"64485",64485,1981,43,"wr","White rhino",2,-25.08,31.48,346705.1,7225331.87
"64622",64622,1981,43,"wr","White rhino",4,-25.08,31.53,351748.42,7225387.66
"64964",64964,1981,44,"wr","White rhino",2,-25.31,31.69,368134.54,7200081.13
"64994",64994,1981,44,"wr","White rhino",3,-25.28,31.67,366088.14,7203383.86
"65022",65022,1981,44,"wr","White rhino",2,-25.22,31.67,366022.33,7210028.94
"65028",65028,1981,44,"wr","White rhino",2,-25.22,31.69,368037.26,7210048.73
"65070",65070,1981,44,"wr","White rhino",3,-25.2,31.69,368015.68,7212263.73
"65168",65168,1981,44,"wr","White rhino",1,-25.22,31.71,370052.18,7210068.21
"65169",65169,1981,44,"wr","White rhino",4,-25.22,31.71,370052.18,7210068.21
"65201",65201,1981,44,"wr","White rhino",1,-25.24,31.73,372088.02,7207872.4
"65209",65209,1981,44,"wr","White rhino",1,-25.18,31.71,370009.7,7214498.19
"65210",65210,1981,44,"wr","White rhino",6,-25.18,31.71,370009.7,7214498.19
"65343",65343,1981,44,"wr","White rhino",2,-25.2,31.76,375069.01,7212330.57
"65415",65415,1981,44,"wr","White rhino",1,-25.35,31.84,383273.42,7195790.38
"65498",65498,1981,44,"wr","White rhino",1,-25.33,31.86,385267.25,7198022.64
"65565",65565,1981,45,"wr","White rhino",1,-25.2,31.78,377084.22,7212349
"65566",65566,1981,45,"wr","White rhino",3,-25.2,31.78,377084.22,7212349
"65567",65567,1981,45,"wr","White rhino",3,-25.2,31.78,377084.22,7212349
"65641",65641,1981,45,"wr","White rhino",2,-25.18,31.82,381095.2,7214599.87
"65658",65658,1981,45,"wr","White rhino",2,-25.2,31.82,381114.62,7212384.94
"65679",65679,1981,45,"wr","White rhino",2,-25.16,31.82,381075.8,7216814.8
"65700",65700,1981,45,"wr","White rhino",2,-25.22,31.84,383148.9,7210187.54
"65701",65701,1981,45,"wr","White rhino",3,-25.22,31.84,383148.9,7210187.54
"65738",65738,1981,45,"wr","White rhino",1,-25.2,31.84,383129.8,7212402.47
"65806",65806,1981,45,"wr","White rhino",2,-25.16,31.86,385107.47,7216849.5
"65807",65807,1981,45,"wr","White rhino",3,-25.16,31.86,385107.47,7216849.5
"65835",65835,1981,45,"wr","White rhino",2,-25.12,31.86,385070.02,7221279.29
"65858",65858,1981,45,"wr","White rhino",2,-25.14,31.88,387104.89,7219081.3
"65924",65924,1981,45,"wr","White rhino",2,-25.12,31.88,387086.51,7221296.18
"65983",65983,1981,46,"wr","White rhino",2,-25.22,31.86,385163.75,7210204.77
"66074",66074,1981,46,"wr","White rhino",3,-25.28,31.88,387234,7203576.96
"66091",66091,1981,46,"wr","White rhino",2,-25.22,31.88,387178.59,7210221.71
"66100",66100,1981,46,"wr","White rhino",2,-25.22,31.9,389193.42,7210238.34
"66101",66101,1981,46,"wr","White rhino",3,-25.22,31.9,389193.42,7210238.34
"66143",66143,1981,46,"wr","White rhino",1,-25.2,31.88,387160.14,7212436.61
"66144",66144,1981,46,"wr","White rhino",3,-25.2,31.88,387160.14,7212436.61
"66161",66161,1981,46,"wr","White rhino",1,-25.2,31.9,389175.3,7212453.24
"66183",66183,1981,46,"wr","White rhino",2,-25.16,31.9,389139.11,7216883.01
"66245",66245,1981,46,"wr","White rhino",1,-25.26,31.94,393258,7205840.94
"66272",66272,1981,46,"wr","White rhino",5,-25.22,31.92,391208.24,7210254.68
"66305",66305,1981,46,"wr","White rhino",2,-25.24,31.92,391226.03,7208039.78
"66329",66329,1981,46,"wr","White rhino",1,-25.24,31.94,393240.51,7208055.83
"66380",66380,1981,46,"wr","White rhino",2,-25.2,31.92,391190.45,7212469.56
"66682",66682,1981,46,"wr","White rhino",1,-25.22,31.96,395237.85,7210286.45
"66694",66694,1981,46,"wr","White rhino",2,-25.22,31.98,397252.64,7210301.88
"66943",66943,1981,46,"wr","White rhino",2,-25.24,32.01,400291.13,7208109.62
"68203",68203,1981,52,"wr","White rhino",2,-23.12,31.3,325918,7442181.9
"69114",69114,1981,54,"wr","White rhino",1,-22.93,31.11,306185.53,7462983.44
"69132",69132,1981,54,"wr","White rhino",2,-22.91,31.09,304105.29,7465171.76
"69133",69133,1981,54,"wr","White rhino",4,-22.91,31.09,304105.29,7465171.76
"69164",69164,1981,54,"wr","White rhino",1,-22.93,31.13,308236.99,7463009.67
"69611",69611,1981,55,"wr","White rhino",2,-22.91,31.15,310260.57,7465250.41
"69680",69680,1981,55,"wr","White rhino",2,-22.91,31.17,312312.3,7465276.07
"69783",69783,1981,56,"wr","White rhino",1,-25.37,31.42,341030.6,7193142.36
"69784",69784,1981,56,"wr","White rhino",2,-25.37,31.42,341030.6,7193142.36
"69792",69792,1981,56,"wr","White rhino",1,-25.37,31.44,343043.18,7193165.99
"69796",69796,1981,56,"wr","White rhino",2,-25.33,31.42,340978.27,7197572.78
"69807",69807,1981,56,"wr","White rhino",2,-25.33,31.44,342991.53,7197596.39
"69808",69808,1981,56,"wr","White rhino",2,-25.33,31.44,342991.53,7197596.39
"69818",69818,1981,56,"wr","White rhino",2,-25.35,31.46,345030.26,7195404.51
"69836",69836,1981,56,"wr","White rhino",3,-25.31,31.46,344979.3,7199834.88
"69837",69837,1981,56,"wr","White rhino",3,-25.31,31.46,344979.3,7199834.88
"69859",69859,1981,56,"wr","White rhino",1,-25.33,31.46,345004.77,7197619.7
"69860",69860,1981,56,"wr","White rhino",3,-25.33,31.46,345004.77,7197619.7
"69869",69869,1981,56,"wr","White rhino",2,-25.33,31.48,347017.99,7197642.7
"69870",69870,1981,56,"wr","White rhino",3,-25.33,31.48,347017.99,7197642.7
"69872",69872,1981,56,"wr","White rhino",1,-25.28,31.46,344941.13,7203157.63
"69878",69878,1981,56,"wr","White rhino",3,-25.28,31.48,346955.18,7203180.61
"69919",69919,1981,56,"wr","White rhino",1,-25.41,31.53,352148.44,7188838.31
"69943",69943,1981,56,"wr","White rhino",2,-25.35,31.53,352075.34,7195483.76
"69951",69951,1981,56,"wr","White rhino",2,-25.37,31.51,350087.15,7193246.34
"69961",69961,1981,56,"wr","White rhino",1,-25.37,31.53,352099.69,7193268.62
"69980",69980,1981,56,"wr","White rhino",1,-25.33,31.51,350037.82,7197676.65
"69981",69981,1981,56,"wr","White rhino",2,-25.33,31.51,350037.82,7197676.65
"69993",69993,1981,56,"wr","White rhino",1,-25.33,31.53,352051.01,7197698.9
"69994",69994,1981,56,"wr","White rhino",2,-25.33,31.53,352051.01,7197698.9
"70020",70020,1981,56,"wr","White rhino",2,-25.39,31.55,354136.25,7191075.46
"70021",70021,1981,56,"wr","White rhino",2,-25.39,31.55,354136.25,7191075.46
"70131",70131,1981,56,"wr","White rhino",4,-25.33,31.55,354064.2,7197720.85
"70156",70156,1981,56,"wr","White rhino",2,-25.39,31.59,358160.6,7191118.53
"70194",70194,1981,56,"wr","White rhino",2,-25.35,31.61,360126.7,7195569.82
"70244",70244,1981,56,"wr","White rhino",1,-25.33,31.61,360103.7,7197784.9
"70315",70315,1981,56,"wr","White rhino",2,-25.35,31.65,364152.31,7195611.04
"70358",70358,1981,56,"wr","White rhino",4,-25.33,31.63,362116.84,7197805.65
"70547",70547,1981,56,"wr","White rhino",1,-25.33,31.71,370169.31,7197885.64
"70692",70692,1981,58,"wr","White rhino",2,-25.16,31.65,363940.74,7216653.93
"70693",70693,1981,58,"wr","White rhino",2,-25.16,31.65,363940.74,7216653.93
"70841",70841,1981,58,"wr","White rhino",1,-25.14,31.67,365934.81,7218888.98
"71073",71073,1981,58,"wr","White rhino",1,-25.06,31.71,369882.66,7227788.01
"71102",71102,1981,58,"wr","White rhino",2,-25.08,31.73,371921,7225592.16
"71139",71139,1981,58,"wr","White rhino",1,-25.1,31.76,374967.13,7223405.32
"71144",71144,1981,58,"wr","White rhino",3,-25.12,31.76,374987.47,7221190.38
"71222",71222,1981,58,"wr","White rhino",2,-25.14,31.8,379040.23,7219011.92
"71246",71246,1981,58,"wr","White rhino",2,-25.12,31.8,379020.52,7221226.84
"71254",71254,1981,58,"wr","White rhino",1,-25.12,31.82,381037.03,7221244.63
