"","ID","Year","Cenb","Sp","Description","No","Lat","Long","X.coord","Y.coord"
"123704",123704,1984,8,"t","Tsessebe",2,-23.47,31.32,328415.98,7403447.76
"123764",123764,1984,8,"t","Tsessebe",8,-23.41,31.3,326294.46,7410068.12
"124269",124269,1984,9,"t","Tsessebe",1,-23.56,31.21,317303.16,7393345.23
"124415",124415,1984,10,"t","Tsessebe",1,-23.43,31.05,300773.15,7407529.65
"124468",124468,1984,10,"t","Tsessebe",1,-23.39,31.07,302757.72,7411987.13
"124588",124588,1984,10,"t","Tsessebe",13,-23.39,31.09,304802.21,7412014.34
"124950",124950,1984,11,"t","Tsessebe",8,-23.26,31.3,326099.18,7426678.83
"125234",125234,1984,12,"t","Tsessebe",3,-23.26,31.11,306658.57,7426438.23
"125280",125280,1984,12,"t","Tsessebe",2,-23.24,31.09,304582.95,7428626.34
"125425",125425,1984,13,"t","Tsessebe",2,-23.64,31.48,344959.72,7384804.76
"125426",125426,1984,13,"t","Tsessebe",9,-23.64,31.48,344959.72,7384804.76
"125472",125472,1984,13,"t","Tsessebe",8,-23.68,31.53,350106.12,7380428.78
"125480",125480,1984,13,"t","Tsessebe",5,-23.7,31.53,350128.95,7378214.1
"125481",125481,1984,13,"t","Tsessebe",10,-23.7,31.53,350128.95,7378214.1
"125491",125491,1984,13,"t","Tsessebe",3,-23.64,31.53,350060.5,7384858.14
"125504",125504,1984,13,"t","Tsessebe",1,-23.62,31.53,350037.72,7387072.81
"125523",125523,1984,13,"t","Tsessebe",9,-23.76,31.57,354274.41,7371611.59
"125564",125564,1984,13,"t","Tsessebe",9,-23.68,31.55,352145.79,7380449.66
"125572",125572,1984,13,"t","Tsessebe",1,-23.68,31.57,354185.45,7380470.26
"125573",125573,1984,13,"t","Tsessebe",1,-23.68,31.57,354185.45,7380470.26
"125574",125574,1984,13,"t","Tsessebe",7,-23.68,31.57,354185.45,7380470.26
"125580",125580,1984,13,"t","Tsessebe",1,-23.7,31.55,352168.31,7378234.99
"125584",125584,1984,13,"t","Tsessebe",3,-23.7,31.57,354207.66,7378255.6
"125600",125600,1984,13,"t","Tsessebe",1,-23.66,31.57,354163.25,7382684.91
"125602",125602,1984,13,"t","Tsessebe",1,-23.6,31.55,352055.87,7389308.3
"125698",125698,1984,13,"t","Tsessebe",3,-23.78,31.59,356334.78,7369417.28
"125735",125735,1984,13,"t","Tsessebe",2,-23.68,31.59,356225.1,7380490.56
"125739",125739,1984,13,"t","Tsessebe",1,-23.68,31.61,358264.73,7380510.58
"125740",125740,1984,13,"t","Tsessebe",5,-23.68,31.61,358264.73,7380510.58
"125746",125746,1984,13,"t","Tsessebe",3,-23.7,31.59,356247,7378275.92
"125757",125757,1984,13,"t","Tsessebe",1,-23.64,31.59,356181.34,7384919.84
"125773",125773,1984,13,"t","Tsessebe",8,-23.62,31.61,358200.06,7387154.45
"125894",125894,1984,13,"t","Tsessebe",3,-23.68,31.63,360304.35,7380530.32
"125895",125895,1984,13,"t","Tsessebe",6,-23.68,31.63,360304.35,7380530.32
"125915",125915,1984,13,"t","Tsessebe",1,-23.66,31.63,360283.09,7382744.93
"125916",125916,1984,13,"t","Tsessebe",1,-23.66,31.63,360283.09,7382744.93
"125917",125917,1984,13,"t","Tsessebe",5,-23.66,31.63,360283.09,7382744.93
"125928",125928,1984,14,"t","Tsessebe",1,-23.43,31.36,332451.62,7407924.41
"125943",125943,1984,14,"t","Tsessebe",8,-23.47,31.38,334545.13,7403518.07
"125946",125946,1984,14,"t","Tsessebe",11,-23.47,31.4,336588.15,7403540.94
"125965",125965,1984,14,"t","Tsessebe",13,-23.45,31.4,336563.52,7405755.66
"125978",125978,1984,14,"t","Tsessebe",16,-23.56,31.44,340782.44,7393619.67
"125985",125985,1984,14,"t","Tsessebe",4,-23.51,31.42,338679.85,7399134.11
"126003",126003,1984,14,"t","Tsessebe",12,-23.53,31.42,338704.23,7396919.39
"126038",126038,1984,14,"t","Tsessebe",2,-23.49,31.42,338655.49,7401348.82
"126062",126062,1984,14,"t","Tsessebe",20,-23.45,31.44,340650.13,7405800.52
"126081",126081,1984,14,"t","Tsessebe",3,-23.6,31.48,344912.62,7389234.16
"126082",126082,1984,14,"t","Tsessebe",4,-23.6,31.48,344912.62,7389234.16
"126088",126088,1984,14,"t","Tsessebe",4,-23.56,31.46,342824.03,7393641.75
"126098",126098,1984,14,"t","Tsessebe",12,-23.56,31.48,344865.61,7393663.55
"126104",126104,1984,14,"t","Tsessebe",9,-23.58,31.46,342847.84,7391427.05
"126110",126110,1984,14,"t","Tsessebe",5,-23.58,31.48,344889.11,7391448.86
"126111",126111,1984,14,"t","Tsessebe",5,-23.58,31.48,344889.11,7391448.86
"126121",126121,1984,14,"t","Tsessebe",3,-23.51,31.46,342764.59,7399178.48
"126122",126122,1984,14,"t","Tsessebe",5,-23.51,31.46,342764.59,7399178.48
"126123",126123,1984,14,"t","Tsessebe",6,-23.51,31.46,342764.59,7399178.48
"126124",126124,1984,14,"t","Tsessebe",7,-23.51,31.46,342764.59,7399178.48
"126125",126125,1984,14,"t","Tsessebe",17,-23.51,31.46,342764.59,7399178.48
"126138",126138,1984,14,"t","Tsessebe",1,-23.51,31.48,344806.94,7399200.25
"126139",126139,1984,14,"t","Tsessebe",4,-23.51,31.48,344806.94,7399200.25
"126140",126140,1984,14,"t","Tsessebe",4,-23.51,31.48,344806.94,7399200.25
"126162",126162,1984,14,"t","Tsessebe",3,-23.53,31.48,344830.39,7396985.57
"126165",126165,1984,14,"t","Tsessebe",3,-23.47,31.46,342717.13,7403607.85
"126175",126175,1984,14,"t","Tsessebe",7,-23.47,31.48,344760.09,7403629.58
"126180",126180,1984,14,"t","Tsessebe",2,-23.49,31.46,342740.85,7401393.17
"126181",126181,1984,14,"t","Tsessebe",3,-23.49,31.46,342740.85,7401393.17
"126182",126182,1984,14,"t","Tsessebe",4,-23.49,31.46,342740.85,7401393.17
"126190",126190,1984,14,"t","Tsessebe",3,-23.49,31.48,344783.51,7401414.92
"126191",126191,1984,14,"t","Tsessebe",3,-23.49,31.48,344783.51,7401414.92
"126193",126193,1984,14,"t","Tsessebe",2,-23.45,31.46,342693.42,7405822.52
"126198",126198,1984,14,"t","Tsessebe",6,-23.45,31.48,344736.7,7405844.24
"126215",126215,1984,14,"t","Tsessebe",2,-23.6,31.53,350014.96,7389287.48
"126216",126216,1984,14,"t","Tsessebe",3,-23.6,31.53,350014.96,7389287.48
"126235",126235,1984,14,"t","Tsessebe",4,-23.53,31.51,347893.43,7397017.7
"126236",126236,1984,14,"t","Tsessebe",11,-23.53,31.51,347893.43,7397017.7
"126239",126239,1984,14,"t","Tsessebe",1,-23.53,31.53,349935.44,7397038.76
"126243",126243,1984,14,"t","Tsessebe",4,-23.47,31.51,347824.52,7403661.65
"126252",126252,1984,14,"t","Tsessebe",2,-23.49,31.51,347847.47,7401447
"126255",126255,1984,14,"t","Tsessebe",16,-23.49,31.53,349890.1,7401468.04
"126259",126259,1984,14,"t","Tsessebe",1,-23.45,31.51,347801.58,7405876.28
"126260",126260,1984,14,"t","Tsessebe",7,-23.45,31.51,347801.58,7405876.28
"126290",126290,1984,15,"t","Tsessebe",4,-23.35,31.34,330306.04,7416759.98
"126325",126325,1984,15,"t","Tsessebe",3,-23.41,31.4,336514.32,7410185.08
"126326",126326,1984,15,"t","Tsessebe",3,-23.41,31.4,336514.32,7410185.08
"126327",126327,1984,15,"t","Tsessebe",5,-23.41,31.4,336514.32,7410185.08
"126349",126349,1984,15,"t","Tsessebe",10,-23.28,31.38,334309.04,7424557.82
"126373",126373,1984,15,"t","Tsessebe",1,-23.43,31.46,342669.74,7408037.19
"126374",126374,1984,15,"t","Tsessebe",2,-23.43,31.46,342669.74,7408037.19
"126376",126376,1984,15,"t","Tsessebe",1,-23.43,31.48,344713.32,7408058.89
"126377",126377,1984,15,"t","Tsessebe",1,-23.43,31.48,344713.32,7408058.89
"126378",126378,1984,15,"t","Tsessebe",1,-23.43,31.48,344713.32,7408058.89
"126382",126382,1984,15,"t","Tsessebe",1,-23.39,31.48,344666.62,7412488.19
"126387",126387,1984,15,"t","Tsessebe",2,-23.41,31.46,342646.07,7410251.85
"126388",126388,1984,15,"t","Tsessebe",3,-23.41,31.46,342646.07,7410251.85
"126396",126396,1984,15,"t","Tsessebe",5,-23.41,31.48,344689.96,7410273.54
"126408",126408,1984,15,"t","Tsessebe",2,-23.33,31.46,342551.6,7419110.45
"126409",126409,1984,15,"t","Tsessebe",4,-23.33,31.46,342551.6,7419110.45
"126415",126415,1984,15,"t","Tsessebe",1,-23.33,31.48,344596.72,7419132.09
"126416",126416,1984,15,"t","Tsessebe",11,-23.33,31.48,344596.72,7419132.09
"126430",126430,1984,15,"t","Tsessebe",3,-23.41,31.51,347755.77,7410305.55
"126438",126438,1984,15,"t","Tsessebe",6,-23.35,31.51,347687.19,7416949.4
"126455",126455,1984,15,"t","Tsessebe",4,-23.33,31.51,347664.37,7419164.01
"126461",126461,1984,15,"t","Tsessebe",12,-23.33,31.53,349709.46,7419184.93
"126474",126474,1984,18,"t","Tsessebe",4,-23.18,31.32,328043.04,7435561.54
"126486",126486,1984,18,"t","Tsessebe",1,-23.26,31.36,332238.04,7426749.51
"126526",126526,1984,18,"t","Tsessebe",5,-23.26,31.4,336330.54,7426795.22
"126534",126534,1984,18,"t","Tsessebe",3,-23.28,31.4,336354.98,7424580.55
"126541",126541,1984,18,"t","Tsessebe",1,-23.22,31.4,336281.72,7431224.54
"126542",126542,1984,18,"t","Tsessebe",3,-23.22,31.4,336281.72,7431224.54
"126548",126548,1984,18,"t","Tsessebe",2,-23.24,31.38,334259.57,7428987.18
"126550",126550,1984,18,"t","Tsessebe",1,-23.24,31.4,336306.12,7429009.88
"126551",126551,1984,18,"t","Tsessebe",9,-23.24,31.4,336306.12,7429009.88
"126554",126554,1984,18,"t","Tsessebe",3,-23.18,31.38,334185.52,7435631.19
"126559",126559,1984,18,"t","Tsessebe",5,-23.18,31.4,336232.98,7435653.84
"126570",126570,1984,18,"t","Tsessebe",5,-23.16,31.4,336208.65,7437868.48
"126597",126597,1984,18,"t","Tsessebe",17,-23.26,31.44,340422.99,7426839.8
"126621",126621,1984,18,"t","Tsessebe",1,-23.24,31.44,340399.18,7429054.43
"126625",126625,1984,18,"t","Tsessebe",2,-23.18,31.42,338280.44,7435676.21
"126626",126626,1984,18,"t","Tsessebe",5,-23.18,31.42,338280.44,7435676.21
"126642",126642,1984,18,"t","Tsessebe",1,-23.14,31.44,340280.43,7440127.52
"126663",126663,1984,18,"t","Tsessebe",7,-23.26,31.46,342469.19,7426861.66
"126664",126664,1984,18,"t","Tsessebe",9,-23.26,31.46,342469.19,7426861.66
"126671",126671,1984,18,"t","Tsessebe",5,-23.26,31.48,344515.38,7426883.24
"126673",126673,1984,18,"t","Tsessebe",9,-23.28,31.46,342492.71,7424647.04
"126678",126678,1984,18,"t","Tsessebe",1,-23.22,31.48,344469.01,7431312.45
"126701",126701,1984,18,"t","Tsessebe",1,-23.2,31.46,342398.74,7433505.5
"134116",134116,1984,34,"t","Tsessebe",5,-24.72,31.69,367502.71,7265422.17
"135229",135229,1984,36,"t","Tsessebe",5,-24.87,31.84,382816.66,7248947.91
"135298",135298,1984,36,"t","Tsessebe",7,-24.89,31.88,386876.02,7246766.92
"135441",135441,1984,37,"t","Tsessebe",5,-25.01,31.94,393040.41,7233526.64
"136389",136389,1984,38,"t","Tsessebe",5,-24.97,31.84,382911.14,7237873.7
"136414",136414,1984,38,"t","Tsessebe",5,-24.93,31.86,384892.9,7242320.49
"136417",136417,1984,38,"t","Tsessebe",1,-24.95,31.84,382892.22,7240088.55
"136418",136418,1984,38,"t","Tsessebe",3,-24.95,31.84,382892.22,7240088.55
"136422",136422,1984,38,"t","Tsessebe",1,-24.95,31.86,384911.49,7240105.65
"136552",136552,1984,38,"t","Tsessebe",5,-24.91,31.88,386894.25,7244552.1
"136555",136555,1984,38,"t","Tsessebe",3,-24.91,31.9,388914.16,7244568.59
"136617",136617,1984,38,"t","Tsessebe",1,-25.03,31.92,391039.81,7231295.87
"137411",137411,1984,40,"t","Tsessebe",6,-25.22,31.28,326728.93,7209583.2
"139369",139369,1984,43,"t","Tsessebe",3,-25.03,31.46,344624.7,7230846.79
"141641",141641,1984,47,"t","Tsessebe",9,-22.68,31.15,309941.84,7490720.04
"141652",141652,1984,47,"t","Tsessebe",4,-22.76,31.19,314160.31,7481911.89
"141664",141664,1984,47,"t","Tsessebe",5,-22.72,31.19,314106.2,7486341.29
"141672",141672,1984,47,"t","Tsessebe",1,-22.68,31.17,311997.02,7490745.5
"141673",141673,1984,47,"t","Tsessebe",2,-22.68,31.19,314052.19,7490770.68
"141693",141693,1984,47,"t","Tsessebe",4,-22.76,31.21,316214.26,7481936.86
"141717",141717,1984,47,"t","Tsessebe",1,-22.74,31.21,316187.5,7484151.55
"141723",141723,1984,47,"t","Tsessebe",7,-22.74,31.23,318241.73,7484176.23
"141727",141727,1984,47,"t","Tsessebe",1,-22.68,31.21,316107.33,7490795.58
"141748",141748,1984,47,"t","Tsessebe",1,-22.66,31.21,316080.66,7493010.25
"141756",141756,1984,47,"t","Tsessebe",1,-22.76,31.26,321349.07,7481998.07
"141757",141757,1984,47,"t","Tsessebe",8,-22.76,31.26,321349.07,7481998.07
"141847",141847,1984,48,"t","Tsessebe",1,-22.81,31.23,318334.46,7476424.86
"141850",141850,1984,48,"t","Tsessebe",4,-22.83,31.21,316308.12,7474185.42
"141858",141858,1984,48,"t","Tsessebe",8,-22.83,31.23,318361,7474210.17
"141861",141861,1984,48,"t","Tsessebe",7,-22.89,31.26,321518.71,7467602.76
"141877",141877,1984,48,"t","Tsessebe",5,-22.85,31.28,323518.96,7472056.18
"141899",141899,1984,48,"t","Tsessebe",3,-22.81,31.28,323467.35,7476485.48
"141938",141938,1984,48,"t","Tsessebe",1,-22.87,31.32,327649.24,7469888.87
"141939",141939,1984,48,"t","Tsessebe",1,-22.87,31.32,327649.24,7469888.87
"141966",141966,1984,48,"t","Tsessebe",2,-22.85,31.34,329676.51,7472126.73
"141974",141974,1984,48,"t","Tsessebe",1,-22.87,31.36,331753.63,7469935.1
"141975",141975,1984,48,"t","Tsessebe",3,-22.87,31.36,331753.63,7469935.1
"142011",142011,1984,48,"t","Tsessebe",1,-22.85,31.38,333781.47,7472172.37
"142020",142020,1984,48,"t","Tsessebe",5,-22.85,31.4,335833.93,7472194.77
"142028",142028,1984,48,"t","Tsessebe",10,-22.87,31.38,333805.8,7469957.79
"142037",142037,1984,48,"t","Tsessebe",2,-22.87,31.4,335857.96,7469980.21
"142175",142175,1984,49,"t","Tsessebe",7,-22.95,31.28,323648.35,7460982.85
"142206",142206,1984,49,"t","Tsessebe",5,-22.93,31.3,325673.76,7463221.38
"142209",142209,1984,49,"t","Tsessebe",1,-22.93,31.32,327725.07,7463244.97
"142210",142210,1984,49,"t","Tsessebe",1,-22.93,31.32,327725.07,7463244.97
"142214",142214,1984,49,"t","Tsessebe",3,-22.91,31.3,325648.16,7465436.04
"142220",142220,1984,49,"t","Tsessebe",4,-23.01,31.34,329876.55,7454409.72
"142232",142232,1984,49,"t","Tsessebe",6,-22.97,31.36,331877.1,7458862.06
"142246",142246,1984,49,"t","Tsessebe",1,-22.93,31.34,329776.37,7463268.27
"142262",142262,1984,49,"t","Tsessebe",2,-23.01,31.38,333976.69,7454455.61
"142265",142265,1984,49,"t","Tsessebe",1,-23.01,31.4,336026.73,7454478.13
"142266",142266,1984,49,"t","Tsessebe",1,-23.01,31.4,336026.73,7454478.13
"142285",142285,1984,49,"t","Tsessebe",11,-22.99,31.4,336002.56,7456692.73
"142294",142294,1984,49,"t","Tsessebe",9,-22.93,31.4,335930.17,7463336.49
"142310",142310,1984,49,"t","Tsessebe",7,-22.91,31.4,335906.08,7465551.07
"142319",142319,1984,49,"t","Tsessebe",11,-22.97,31.44,340079.67,7458951.47
"142324",142324,1984,49,"t","Tsessebe",3,-22.99,31.42,338052.89,7456714.96
"142338",142338,1984,49,"t","Tsessebe",2,-22.95,31.42,338005.22,7461144.11
"142339",142339,1984,49,"t","Tsessebe",4,-22.95,31.42,338005.22,7461144.11
"142342",142342,1984,49,"t","Tsessebe",1,-22.95,31.44,340056.14,7461166.03
"142441",142441,1984,50,"t","Tsessebe",1,-23.06,31.42,338136.52,7448963.89
"142442",142442,1984,50,"t","Tsessebe",8,-23.06,31.42,338136.52,7448963.89
"142461",142461,1984,50,"t","Tsessebe",7,-23.01,31.42,338076.76,7454500.37
"142464",142464,1984,50,"t","Tsessebe",1,-23.01,31.44,340126.78,7454522.34
"142513",142513,1984,50,"t","Tsessebe",3,-23.06,31.46,342235.03,7449007.61
"142521",142521,1984,50,"t","Tsessebe",3,-23.08,31.46,342258.36,7446793.04
"142527",142527,1984,50,"t","Tsessebe",7,-23.08,31.48,344307.29,7446814.5
"142535",142535,1984,50,"t","Tsessebe",3,-23.01,31.46,342176.78,7454544.02
"142550",142550,1984,50,"t","Tsessebe",1,-23.03,31.46,342200.07,7452329.46
"142599",142599,1984,50,"t","Tsessebe",11,-23.06,31.51,347358.09,7449060.69
"142803",142803,1984,52,"t","Tsessebe",5,-23.1,31.23,318721.49,7444311.39
"142811",142811,1984,52,"t","Tsessebe",3,-23.12,31.21,316699.85,7442071.63
"142991",142991,1984,52,"t","Tsessebe",1,-23.12,31.32,327966.43,7442205.63
"142997",142997,1984,52,"t","Tsessebe",1,-23.06,31.3,325840.66,7448826
"143000",143000,1984,52,"t","Tsessebe",7,-23.06,31.32,327890.01,7448849.68
"143006",143006,1984,52,"t","Tsessebe",6,-23.08,31.32,327915.46,7446635.01
"143051",143051,1984,52,"t","Tsessebe",1,-23.08,31.36,332013.5,7446681.56
"143068",143068,1984,52,"t","Tsessebe",6,-23.08,31.38,334062.5,7446704.42
"143076",143076,1984,53,"t","Tsessebe",3,-23.08,30.9,284882.23,7446078.32
"143295",143295,1984,53,"t","Tsessebe",7,-23.08,31.01,296153.55,7446236.09
"143347",143347,1984,53,"t","Tsessebe",1,-23.1,31.05,300281.66,7444076.45
"143359",143359,1984,53,"t","Tsessebe",3,-23.06,31.07,302272.08,7448533.46
"143439",143439,1984,53,"t","Tsessebe",2,-23.1,31.11,306428.42,7444157.29
"143757",143757,1984,54,"t","Tsessebe",2,-22.97,31.09,304191.65,7458527.24
"144481",144481,1984,55,"t","Tsessebe",2,-22.83,31.19,314255.21,7474160.38
"144482",144482,1984,55,"t","Tsessebe",5,-22.83,31.19,314255.21,7474160.38
