"","ID","Year","Cenb","Sp","Description","No","Lat","Long","X.coord","Y.coord"
"287383",287383,1990,52,"kk","Giraffe calf",1,-23.11,31.26,321807.88,7443240.96
"288930",288930,1990,54,"kk","Giraffe calf",2,-22.99,31.27,322675.04,7456541.42
"289227",289227,1990,55,"kk","Giraffe calf",1,-22.92,31.22,317454.96,7464231.63
"289350",289350,1990,55,"kk","Giraffe calf",1,-22.82,31.16,311162.03,7475229.69
"289354",289354,1990,55,"kk","Giraffe calf",1,-22.8,31.16,311134.45,7477444.43
"289703",289703,1990,48,"kk","Giraffe calf",2,-22.76,31.34,329564.57,7482092.41
"289875",289875,1990,48,"kk","Giraffe calf",3,-22.87,31.36,331753.63,7469935.1
"290047",290047,1990,49,"kk","Giraffe calf",1,-23,31.4,336014.64,7455585.43
"290091",290091,1990,49,"kk","Giraffe calf",1,-22.93,31.4,335930.17,7463336.49
"290161",290161,1990,50,"kk","Giraffe calf",1,-23.02,31.44,340138.57,7453415.05
"290793",290793,1990,7,"kk","Giraffe calf",2,-23.65,31.19,315387.52,7383352.44
"294696",294696,1990,19,"kk","Giraffe calf",1,-23.87,31.65,362543.85,7359510.77
"295564",295564,1990,1,"kk","Giraffe calf",1,-23.99,31.74,371827.18,7346307.53
"296442",296442,1990,3,"kk","Giraffe calf",1,-23.92,31.18,314750.53,7353437.3
"296582",296582,1990,3,"kk","Giraffe calf",1,-23.9,31.25,321849.61,7355742.3
"297361",297361,1990,4,"kk","Giraffe calf",1,-23.7,31.2,316477.58,7377828.01
"297802",297802,1990,5,"kk","Giraffe calf",1,-23.81,31.48,345160.7,7365979.56
"298013",298013,1990,20,"kk","Giraffe calf",1,-24.06,31.64,361728.41,7338461.47
"298024",298024,1990,20,"kk","Giraffe calf",1,-24.08,31.64,361749.86,7336246.75
"298039",298039,1990,20,"kk","Giraffe calf",1,-24.03,31.62,359662.14,7341763.73
"298043",298043,1990,20,"kk","Giraffe calf",1,-24.06,31.63,360711.58,7338451.59
"298362",298362,1990,20,"kk","Giraffe calf",1,-24.11,31.32,329254.53,7332572.09
"298588",298588,1990,21,"kk","Giraffe calf",1,-24.2,31.62,359847.43,7322938.42
"298598",298598,1990,21,"kk","Giraffe calf",1,-24.18,31.55,352714.28,7325081.23
"299195",299195,1990,22,"kk","Giraffe calf",2,-24.38,31.5,347873.18,7302879
"299505",299505,1990,22,"kk","Giraffe calf",2,-24.37,31.45,342789.11,7303930.73
"299515",299515,1990,22,"kk","Giraffe calf",1,-24.37,31.4,337716.93,7303873.18
"299616",299616,1990,23,"kk","Giraffe calf",1,-24.18,31.67,364904.97,7325202.39
"299717",299717,1990,23,"kk","Giraffe calf",2,-24.12,31.65,362809.15,7331827.13
"299761",299761,1990,23,"kk","Giraffe calf",1,-24.08,31.68,365816.53,7336285.57
"300022",300022,1990,24,"kk","Giraffe calf",3,-24.33,31.62,359989.95,7308542.33
"300056",300056,1990,24,"kk","Giraffe calf",1,-24.32,31.65,363023.27,7309679.6
"300153",300153,1990,24,"kk","Giraffe calf",1,-24.28,31.62,359935.05,7314079.31
"300205",300205,1990,24,"kk","Giraffe calf",2,-24.26,31.62,359913.12,7316294.1
"300229",300229,1990,24,"kk","Giraffe calf",1,-24.38,31.72,370187.79,7303102.51
"300284",300284,1990,24,"kk","Giraffe calf",1,-24.35,31.75,373200.68,7306452.35
"300487",300487,1990,25,"kk","Giraffe calf",2,-24.02,31.79,376942.46,7343030.2
"300491",300491,1990,25,"kk","Giraffe calf",2,-24.02,31.8,377959.57,7343038.91
"300503",300503,1990,25,"kk","Giraffe calf",2,-24.04,31.77,374927.61,7340797.93
"300505",300505,1990,25,"kk","Giraffe calf",3,-24.04,31.76,373910.65,7340789
"300507",300507,1990,25,"kk","Giraffe calf",4,-24.04,31.76,373910.65,7340789
"300532",300532,1990,25,"kk","Giraffe calf",3,-24.05,31.77,374937.3,7339690.62
"300578",300578,1990,25,"kk","Giraffe calf",1,-24.06,31.8,377997.36,7338609.67
"300606",300606,1990,25,"kk","Giraffe calf",2,-24.06,31.8,377997.36,7338609.67
"300701",300701,1990,25,"kk","Giraffe calf",1,-24.12,31.8,378054.17,7331965.78
"300750",300750,1990,25,"kk","Giraffe calf",1,-24.16,31.79,377076.11,7327527.75
"300753",300753,1990,25,"kk","Giraffe calf",1,-24.15,31.82,380114.77,7328661.09
"300964",300964,1990,25,"kk","Giraffe calf",1,-24.08,31.85,383099.41,7336437.59
"301046",301046,1990,25,"kk","Giraffe calf",1,-24.14,31.88,386202.31,7329818.46
"301067",301067,1990,25,"kk","Giraffe calf",1,-24.15,31.86,384179.04,7328694.76
"301165",301165,1990,26,"kk","Giraffe calf",1,-24.25,31.8,378177.71,7317570.51
"301223",301223,1990,26,"kk","Giraffe calf",1,-24.18,31.82,380142.78,7325339.13
"301404",301404,1990,26,"kk","Giraffe calf",2,-24.3,31.87,385329.54,7312093.26
"301530",301530,1990,26,"kk","Giraffe calf",1,-24.37,31.84,382349.59,7304316.85
"301549",301549,1990,26,"kk","Giraffe calf",1,-24.34,31.79,377249.03,7307595.62
"301561",301561,1990,26,"kk","Giraffe calf",1,-24.32,31.78,376215.02,7309801.46
"301606",301606,1990,27,"kk","Giraffe calf",3,-24.21,31.91,389311.11,7322091.42
"301622",301622,1990,27,"kk","Giraffe calf",4,-24.22,31.9,388304.25,7320976.15
"301625",301625,1990,27,"kk","Giraffe calf",2,-24.24,31.91,389337.04,7318769.5
"301698",301698,1990,27,"kk","Giraffe calf",3,-24.28,31.9,388356.65,7314332.28
"301737",301737,1990,27,"kk","Giraffe calf",1,-24.28,31.88,386326.6,7314316.11
"301855",301855,1990,27,"kk","Giraffe calf",1,-24.42,31.98,396590.56,7298891.77
"301914",301914,1990,27,"kk","Giraffe calf",2,-24.35,31.96,394504.68,7306627.91
"302133",302133,1990,28,"kk","Giraffe calf",1,-24.42,31.81,379354.12,7298754.32
"302152",302152,1990,28,"kk","Giraffe calf",1,-24.48,31.83,381438.14,7292127.44
"302331",302331,1990,28,"kk","Giraffe calf",2,-24.41,31.9,388470.59,7299937.06
"302672",302672,1990,28,"kk","Giraffe calf",1,-24.55,31.95,393658.23,7284473.73
"302688",302688,1990,28,"kk","Giraffe calf",1,-24.56,31.87,385564.41,7283302.31
"302757",302757,1990,28,"kk","Giraffe calf",1,-24.62,31.89,387643.55,7276674.6
"302874",302874,1990,28,"kk","Giraffe calf",1,-24.51,31.85,383492.67,7288822.38
"302892",302892,1990,28,"kk","Giraffe calf",1,-24.52,31.82,380462.53,7287689.36
"303038",303038,1990,28,"kk","Giraffe calf",3,-24.62,31.82,380557.37,7276615.59
"303083",303083,1990,28,"kk","Giraffe calf",2,-24.6,31.8,378513.41,7278812.85
"303464",303464,1990,30,"kk","Giraffe calf",1,-24.76,31.92,390802.54,7261195.61
"303566",303566,1990,31,"kk","Giraffe calf",1,-24.61,31.75,373461.01,7277660.38
"303943",303943,1990,31,"kk","Giraffe calf",2,-24.42,31.64,362116.99,7298595.71
"304019",304019,1990,31,"kk","Giraffe calf",1,-24.47,31.77,375347.59,7293182.04
"304066",304066,1990,31,"kk","Giraffe calf",1,-24.46,31.76,374324.13,7294280.37
"304146",304146,1990,31,"kk","Giraffe calf",1,-24.43,31.71,369225.04,7297556.2
"304192",304192,1990,32,"kk","Giraffe calf",1,-24.43,31.61,359086.17,7297458.11
"304332",304332,1990,32,"kk","Giraffe calf",1,-24.54,31.63,361234.71,7285296.71
"304339",304339,1990,32,"kk","Giraffe calf",1,-24.51,31.61,359175.22,7288598.73
"304647",304647,1990,32,"kk","Giraffe calf",1,-24.61,31.69,367386.46,7277603.86
"304719",304719,1990,32,"kk","Giraffe calf",1,-24.6,31.57,355225.56,7278590.31
"304726",304726,1990,32,"kk","Giraffe calf",1,-24.58,31.6,358240.66,7280836.43
"304756",304756,1990,32,"kk","Giraffe calf",1,-24.57,31.57,355191.05,7281912.67
"304844",304844,1990,34,"kk","Giraffe calf",1,-24.61,31.76,374473.43,7277669.55
"304858",304858,1990,34,"kk","Giraffe calf",1,-24.68,31.78,376567.09,7269935.86
"304902",304902,1990,34,"kk","Giraffe calf",1,-24.69,31.76,374553.41,7268810.31
"305073",305073,1990,34,"kk","Giraffe calf",2,-24.65,31.7,368440.79,7273183.79
"305077",305077,1990,34,"kk","Giraffe calf",1,-24.64,31.7,368430.31,7274291.21
"305183",305183,1990,34,"kk","Giraffe calf",1,-24.74,31.84,382694.36,7263344.17
"305327",305327,1990,34,"kk","Giraffe calf",4,-24.7,31.74,372540.04,7267684.45
"305334",305334,1990,34,"kk","Giraffe calf",1,-24.7,31.74,372540.04,7267684.45
"305338",305338,1990,34,"kk","Giraffe calf",1,-24.72,31.74,372560.4,7265469.62
"305521",305521,1990,35,"kk","Giraffe calf",1,-24.9,31.66,364663.73,7245458.63
"306194",306194,1990,36,"kk","Giraffe calf",1,-24.82,31.85,383780.25,7254493.52
"306200",306200,1990,36,"kk","Giraffe calf",2,-24.85,31.86,384818.71,7251179.78
"306202",306202,1990,36,"kk","Giraffe calf",2,-24.84,31.86,384809.45,7252287.19
"306258",306258,1990,36,"kk","Giraffe calf",2,-24.86,31.85,383817.6,7250063.89
"306400",306400,1990,36,"kk","Giraffe calf",1,-24.86,31.81,379776.1,7250029.19
"306409",306409,1990,36,"kk","Giraffe calf",1,-24.87,31.8,378775.47,7248912.9
"306444",306444,1990,36,"kk","Giraffe calf",1,-24.85,31.79,377745.51,7251118.82
"306448",306448,1990,36,"kk","Giraffe calf",1,-24.85,31.79,377745.51,7251118.82
"306453",306453,1990,36,"kk","Giraffe calf",1,-24.87,31.79,377765.17,7248903.96
"306550",306550,1990,37,"kk","Giraffe calf",1,-24.86,31.99,397962.56,7250175.99
"306606",306606,1990,37,"kk","Giraffe calf",4,-24.82,31.97,395908.43,7254590.38
"306955",306955,1990,37,"kk","Giraffe calf",2,-25.13,31.94,393144.6,7220237.61
"307030",307030,1990,37,"kk","Giraffe calf",2,-25.08,31.97,396126.78,7225798.13
"307249",307249,1990,37,"kk","Giraffe calf",1,-25.16,32.02,401233.83,7216976.36
"307307",307307,1990,37,"kk","Giraffe calf",1,-25.02,31.98,397085.24,7232450.21
"307312",307312,1990,37,"kk","Giraffe calf",1,-25.03,31.96,395075.67,7231327.46
"307356",307356,1990,37,"kk","Giraffe calf",1,-24.98,31.97,396042.55,7236872.18
"307631",307631,1990,37,"kk","Giraffe calf",2,-25.02,32.02,401121.37,7232480.01
"307637",307637,1990,37,"kk","Giraffe calf",2,-25.04,32.02,401137.4,7230265.22
"307674",307674,1990,37,"kk","Giraffe calf",1,-25.06,32.01,400144.74,7228043.08
"307712",307712,1990,38,"kk","Giraffe calf",1,-24.98,31.85,383930,7236774.86
"307738",307738,1990,38,"kk","Giraffe calf",1,-24.97,31.84,382911.14,7237873.7
"307749",307749,1990,38,"kk","Giraffe calf",1,-24.91,31.82,380834.47,7244500.87
"307761",307761,1990,38,"kk","Giraffe calf",1,-24.99,31.81,379902.13,7235632.6
"307764",307764,1990,38,"kk","Giraffe calf",1,-24.97,31.81,379882.7,7237847.48
"307783",307783,1990,38,"kk","Giraffe calf",1,-24.98,31.8,378883.01,7236731.15
"307933",307933,1990,38,"kk","Giraffe calf",2,-25.03,31.84,382968,7231229.1
"308394",308394,1990,39,"kk","Giraffe calf",1,-25.11,31.26,324556.37,7221741.3
"308557",308557,1990,39,"kk","Giraffe calf",1,-25,31.3,328437.19,7233976.4
"308837",308837,1990,40,"kk","Giraffe calf",1,-25.24,31.31,329779.53,7207406.29
"308946",308946,1990,40,"kk","Giraffe calf",1,-25.18,31.23,321632.67,7213948.43
"309119",309119,1990,40,"kk","Giraffe calf",1,-25.26,31.31,329807.41,7205191.02
"309124",309124,1990,40,"kk","Giraffe calf",1,-25.26,31.27,325778.41,7205139.69
"309134",309134,1990,40,"kk","Giraffe calf",1,-25.25,31.27,325764.14,7206247.34
"309203",309203,1990,41,"kk","Giraffe calf",1,-25.37,31.36,334992.75,7193069.64
"309327",309327,1990,41,"kk","Giraffe calf",1,-25.27,31.48,346942.63,7204288.18
"309774",309774,1990,42,"kk","Giraffe calf",1,-25.3,31.55,354028.24,7201043.53
"310157",310157,1990,42,"kk","Giraffe calf",1,-25.12,31.56,354821.62,7220990.13
"310189",310189,1990,42,"kk","Giraffe calf",1,-25.11,31.56,354809.8,7222097.66
"310628",310628,1990,43,"kk","Giraffe calf",1,-25.08,31.52,350739.76,7225376.65
"310656",310656,1990,43,"kk","Giraffe calf",1,-25.07,31.53,351736.38,7226495.19
"310884",310884,1990,44,"kk","Giraffe calf",1,-25.33,31.65,364129.97,7197826.1
"311177",311177,1990,44,"kk","Giraffe calf",1,-25.21,31.66,365003.82,7211126.45
"311562",311562,1990,45,"kk","Giraffe calf",2,-25.21,31.81,380116.82,7211268.6
"311665",311665,1990,45,"kk","Giraffe calf",1,-25.27,31.9,389238.76,7204701.08
"311705",311705,1990,45,"kk","Giraffe calf",1,-25.26,31.89,388222.6,7205800.24
"311825",311825,1990,45,"kk","Giraffe calf",2,-25.2,31.93,392198.02,7212477.61
"311830",311830,1990,45,"kk","Giraffe calf",1,-25.19,31.93,392189.22,7213585.05
"311843",311843,1990,45,"kk","Giraffe calf",6,-25.19,31.92,391181.56,7213577
"311864",311864,1990,45,"kk","Giraffe calf",1,-25.15,31.81,380058.09,7217913.39
"311994",311994,1990,46,"kk","Giraffe calf",2,-25.42,31.98,397421.29,7188152.97
"312099",312099,1990,46,"kk","Giraffe calf",1,-25.34,32,399366.49,7197027.79
"312456",312456,1990,46,"kk","Giraffe calf",1,-25.18,31.96,395203.61,7214716.18
"312473",312473,1990,56,"kk","Giraffe calf",1,-25.28,31.49,347962.21,7203191.98
"312487",312487,1990,56,"kk","Giraffe calf",1,-25.33,31.42,340978.27,7197572.78
"312505",312505,1990,56,"kk","Giraffe calf",1,-25.32,31.45,343985.33,7198715.67
"312983",312983,1990,56,"kk","Giraffe calf",1,-25.42,31.45,344113.74,7187639.68
"313018",313018,1990,56,"kk","Giraffe calf",1,-25.42,31.47,346125.48,7187662.9
"313259",313259,1990,57,"kk","Giraffe calf",1,-25.14,31.74,372991.62,7218956.75
"313265",313265,1990,57,"kk","Giraffe calf",2,-25.11,31.71,369935.52,7222250.61
"313676",313676,1990,58,"kk","Giraffe calf",1,-25.03,31.77,375905.04,7231166.77
"313812",313812,1990,60,"kk","Giraffe calf",1,-25.02,31.64,362776.68,7232148.8
