"","ID","Year","Cenb","Sp","Description","No","Lat","Long","X.coord","Y.coord"
"41996",41996,1980,39,"sr","Black rhino",1,-25.01,31.34,332488.27,7232918.86
"41997",41997,1980,43,"sr","Black rhino",1,-25.03,31.44,342606.52,7230823.68
"41998",41998,1980,42,"sr","Black rhino",2,-25.24,31.61,360000.39,7207752.74
"41999",41999,1980,43,"sr","Black rhino",2,-25.01,31.53,351664.2,7233140.35
"42000",42000,1980,40,"sr","Black rhino",3,-25.2,31.23,321661.81,7211733.12
"42001",42001,1980,43,"sr","Black rhino",3,-25.03,31.55,353706.37,7230947.07
