"","ID","Year","Cenb","Sp","Description","No","Lat","Long","X.coord","Y.coord"
"217575",217575,1987,31,"sr","Black rhino",1,-24.43,31.65,363141.75,7297498.23
"217693",217693,1987,31,"sr","Black rhino",1,-24.45,31.66,364177.07,7295293.26
"221725",221725,1987,39,"sr","Black rhino",1,-25.03,31.32,330497.17,7230678.78
"221832",221832,1987,39,"sr","Black rhino",1,-25.05,31.29,327497.75,7228425.66
"223705",223705,1987,43,"sr","Black rhino",2,-24.97,31.51,349597.05,7237548.41
"223868",223868,1987,43,"sr","Black rhino",1,-25,31.55,353670.8,7234269.62
"223901",223901,1987,43,"sr","Black rhino",1,-25.02,31.57,355712.79,7232076.04
"224226",224226,1987,44,"sr","Black rhino",2,-25.2,31.71,370030.93,7212283.2
"224399",224399,1987,44,"sr","Black rhino",2,-25.26,31.65,364051.91,7205578.79
"224530",224530,1987,44,"sr","Black rhino",2,-25.3,31.65,364096.49,7201148.69
"224875",224875,1987,45,"sr","Black rhino",1,-25.12,31.87,386078.27,7221287.77
"224952",224952,1987,45,"sr","Black rhino",1,-25.15,31.92,391146.05,7218006.75
"229985",229985,1987,58,"sr","Black rhino",2,-25.05,31.7,368863.24,7228885.83
