"","ID","Year","Cenb","Sp","Description","No","Lat","Long","X.coord","Y.coord"
"231180",231180,1988,1,"ob","Elephant bull",1,-23.86,31.57,354386,7360538.13
"231254",231254,1988,1,"ob","Elephant bull",2,-23.91,31.59,356478.03,7355021.8
"231491",231491,1988,1,"ob","Elephant bull",1,-23.83,31.62,359445.73,7363910.65
"231508",231508,1988,1,"ob","Elephant bull",2,-23.85,31.62,359467.29,7361695.98
"231509",231509,1988,1,"ob","Elephant bull",1,-23.85,31.62,359467.29,7361695.98
"231612",231612,1988,1,"ob","Elephant bull",1,-23.93,31.7,367696.51,7352914.52
"231663",231663,1988,1,"ob","Elephant bull",1,-23.95,31.71,368734.58,7350709.21
"231682",231682,1988,1,"ob","Elephant bull",2,-23.96,31.69,366709.5,7349583.13
"231791",231791,1988,1,"ob","Elephant bull",1,-24.02,31.73,370839.78,7342976.43
"231794",231794,1988,1,"ob","Elephant bull",1,-24.02,31.71,368805.53,7342957.93
"231890",231890,1988,2,"ob","Elephant bull",1,-23.97,31.56,353491.71,7348346.81
"231929",231929,1988,2,"ob","Elephant bull",1,-24.02,31.47,344393.66,7342713.34
"231941",231941,1988,2,"ob","Elephant bull",2,-24,31.44,341317.51,7344894.67
"231947",231947,1988,2,"ob","Elephant bull",1,-24,31.43,340300.14,7344883.36
"231960",231960,1988,2,"ob","Elephant bull",1,-24,31.42,339282.77,7344871.98
"231961",231961,1988,2,"ob","Elephant bull",1,-24,31.43,340300.14,7344883.36
"231981",231981,1988,2,"ob","Elephant bull",1,-23.98,31.4,337222.87,7347063.87
"232077",232077,1988,2,"ob","Elephant bull",1,-23.93,31.54,351410.75,7352755.38
"232149",232149,1988,2,"ob","Elephant bull",1,-23.9,31.49,346285.79,7356024.02
"232183",232183,1988,2,"ob","Elephant bull",1,-23.91,31.46,343243.44,7354883.68
"232194",232194,1988,2,"ob","Elephant bull",1,-23.91,31.43,340189.23,7354850.08
"232195",232195,1988,2,"ob","Elephant bull",1,-23.9,31.43,340176.93,7355957.49
"232216",232216,1988,2,"ob","Elephant bull",1,-23.97,31.4,337210.3,7348171.29
"232223",232223,1988,2,"ob","Elephant bull",1,-23.87,31.39,336066.48,7359233.94
"232224",232224,1988,2,"ob","Elephant bull",2,-23.91,31.38,335098.81,7354792.63
"232234",232234,1988,2,"ob","Elephant bull",1,-23.89,31.37,334055.18,7356995.78
"232310",232310,1988,3,"ob","Elephant bull",1,-24.02,31.29,326083.56,7342502.54
"232350",232350,1988,3,"ob","Elephant bull",1,-23.99,31.31,328078.2,7345849.52
"232452",232452,1988,3,"ob","Elephant bull",1,-23.94,31.18,314779.08,7351222.29
"232460",232460,1988,3,"ob","Elephant bull",1,-23.93,31.19,315782.81,7352342.88
"232521",232521,1988,3,"ob","Elephant bull",1,-23.92,31.22,318822.84,7353489.19
"232565",232565,1988,3,"ob","Elephant bull",4,-23.96,31.28,324985.18,7349134.99
"232577",232577,1988,3,"ob","Elephant bull",1,-23.94,31.29,325976.07,7351362.29
"232579",232579,1988,3,"ob","Elephant bull",3,-23.94,31.3,326993.95,7351374.59
"232601",232601,1988,3,"ob","Elephant bull",1,-23.97,31.35,332122.19,7348112.65
"232637",232637,1988,3,"ob","Elephant bull",5,-23.89,31.17,313689.43,7356746.67
"232649",232649,1988,3,"ob","Elephant bull",4,-23.89,31.17,313689.43,7356746.67
"232651",232651,1988,3,"ob","Elephant bull",3,-23.9,31.17,313703.76,7355639.16
"232668",232668,1988,3,"ob","Elephant bull",2,-23.89,31.18,314707.75,7356759.81
"232670",232670,1988,3,"ob","Elephant bull",1,-23.86,31.19,315683.57,7360095.36
"232740",232740,1988,3,"ob","Elephant bull",1,-23.91,31.24,320845.18,7354622.18
"232790",232790,1988,3,"ob","Elephant bull",1,-23.91,31.32,328990.2,7354721.31
"233061",233061,1988,4,"ob","Elephant bull",3,-23.83,31.18,314622.34,7363404.79
"233150",233150,1988,4,"ob","Elephant bull",2,-23.83,31.2,316659.91,7363430.81
"233358",233358,1988,4,"ob","Elephant bull",3,-23.83,31.26,322772.54,7363507.13
"233359",233359,1988,4,"ob","Elephant bull",1,-23.83,31.26,322772.54,7363507.13
"233459",233459,1988,4,"ob","Elephant bull",3,-23.8,31.28,324769.77,7366854.34
"233464",233464,1988,4,"ob","Elephant bull",1,-23.82,31.29,325815.46,7364651.76
"233512",233512,1988,4,"ob","Elephant bull",2,-23.8,31.31,327826.72,7366891.06
"233545",233545,1988,4,"ob","Elephant bull",2,-23.79,31.31,327813.54,7367998.5
"233564",233564,1988,4,"ob","Elephant bull",1,-23.82,31.32,328871.92,7364688.29
"233586",233586,1988,4,"ob","Elephant bull",3,-23.78,31.33,329838.62,7369130.04
"233621",233621,1988,5,"ob","Elephant bull",1,-23.81,31.36,332934.36,7365843.41
"233627",233627,1988,5,"ob","Elephant bull",1,-23.8,31.37,333940.52,7366962.56
"233628",233628,1988,5,"ob","Elephant bull",1,-23.8,31.37,333940.52,7366962.56
"233639",233639,1988,5,"ob","Elephant bull",1,-23.82,31.38,334984.77,7364759.41
"233677",233677,1988,5,"ob","Elephant bull",2,-23.76,31.4,336947.49,7371426.95
"233712",233712,1988,5,"ob","Elephant bull",1,-23.85,31.42,339096.96,7361483.17
"233727",233727,1988,5,"ob","Elephant bull",1,-23.84,31.43,340103.23,7362601.9
"233728",233728,1988,5,"ob","Elephant bull",1,-23.84,31.43,340103.23,7362601.9
"233891",233891,1988,5,"ob","Elephant bull",1,-23.84,31.51,348252.12,7362689.87
"233923",233923,1988,5,"ob","Elephant bull",2,-23.77,31.53,350209.02,7370462.65
"233939",233939,1988,5,"ob","Elephant bull",5,-23.84,31.53,350289.31,7362711.14
"233942",233942,1988,5,"ob","Elephant bull",1,-23.85,31.53,350300.8,7361603.78
"233948",233948,1988,5,"ob","Elephant bull",6,-23.83,31.54,351296.49,7363829.03
"233962",233962,1988,5,"ob","Elephant bull",1,-23.78,31.56,353277.64,7369386.61
"233963",233963,1988,5,"ob","Elephant bull",1,-23.79,31.56,353288.87,7368279.27
"233964",233964,1988,5,"ob","Elephant bull",3,-23.79,31.56,353288.87,7368279.27
"233968",233968,1988,5,"ob","Elephant bull",1,-23.8,31.56,353300.1,7367171.92
"233971",233971,1988,5,"ob","Elephant bull",2,-23.84,31.57,354363.65,7362752.83
"233982",233982,1988,5,"ob","Elephant bull",2,-23.81,31.59,356367.77,7366095.26
"234045",234045,1988,6,"ob","Elephant bull",1,-23.63,31.4,336785.89,7385823.01
"234050",234050,1988,6,"ob","Elephant bull",3,-23.63,31.41,337806.16,7385834.4
"234059",234059,1988,6,"ob","Elephant bull",4,-23.56,31.37,333636.77,7393540.14
"234062",234062,1988,6,"ob","Elephant bull",1,-23.57,31.38,334670.11,7392444.33
"234063",234063,1988,6,"ob","Elephant bull",1,-23.59,31.39,335715.75,7390241.08
"234064",234064,1988,6,"ob","Elephant bull",1,-23.59,31.4,336736.33,7390252.53
"234158",234158,1988,6,"ob","Elephant bull",1,-23.56,31.43,339761.64,7393608.52
"234163",234163,1988,6,"ob","Elephant bull",1,-23.54,31.41,337695.47,7395800.75
"234192",234192,1988,6,"ob","Elephant bull",1,-23.75,31.37,333877,7372499.62
"234193",234193,1988,6,"ob","Elephant bull",2,-23.75,31.37,333877,7372499.62
"234202",234202,1988,6,"ob","Elephant bull",1,-23.69,31.36,332781.13,7379132.35
"234204",234204,1988,6,"ob","Elephant bull",2,-23.71,31.38,334845.93,7376940.87
"234219",234219,1988,6,"ob","Elephant bull",1,-23.71,31.38,334845.93,7376940.87
"234313",234313,1988,6,"ob","Elephant bull",2,-23.68,31.47,343987.03,7380364.43
"234627",234627,1988,7,"ob","Elephant bull",1,-23.6,31.28,324502.44,7389003.07
"234681",234681,1988,7,"ob","Elephant bull",1,-23.69,31.31,327682,7379072.8
"234729",234729,1988,8,"ob","Elephant bull",2,-23.54,31.35,331569.63,7395731.55
"234770",234770,1988,8,"ob","Elephant bull",1,-23.53,31.35,331556.89,7396838.94
"234941",234941,1988,8,"ob","Elephant bull",1,-23.48,31.32,328428.92,7402340.37
"234952",234952,1988,8,"ob","Elephant bull",1,-23.49,31.26,322313.52,7401160.05
"234977",234977,1988,8,"ob","Elephant bull",1,-23.48,31.24,320257.14,7402242.6
"235010",235010,1988,8,"ob","Elephant bull",1,-23.44,31.27,323268.33,7406709.43
"235033",235033,1988,8,"ob","Elephant bull",8,-23.41,31.32,328338.46,7410092.08
"235119",235119,1988,9,"ob","Elephant bull",1,-23.54,31.15,311149.22,7395482.37
"235126",235126,1988,9,"ob","Elephant bull",1,-23.45,31.11,306933.83,7405396.44
"235131",235131,1988,9,"ob","Elephant bull",1,-23.5,31.14,310070.75,7399899.05
"235145",235145,1988,9,"ob","Elephant bull",1,-23.49,31.15,311077.86,7401019.7
"235163",235163,1988,9,"ob","Elephant bull",2,-23.49,31.16,312099.3,7401032.81
"235164",235164,1988,9,"ob","Elephant bull",1,-23.48,31.16,312085.13,7402140.27
"235184",235184,1988,9,"ob","Elephant bull",3,-23.49,31.17,313120.74,7401045.86
"235240",235240,1988,9,"ob","Elephant bull",1,-23.43,31.21,317123.79,7407741.92
"235385",235385,1988,10,"ob","Elephant bull",2,-23.3,31,295463.96,7421857.27
"235417",235417,1988,10,"ob","Elephant bull",2,-23.32,31.02,297540.18,7419670.39
"235659",235659,1988,10,"ob","Elephant bull",1,-23.46,31.05,300818.15,7404207.15
"235699",235699,1988,10,"ob","Elephant bull",1,-23.47,31.08,303898.07,7403140.89
"236049",236049,1988,11,"ob","Elephant bull",1,-23.38,31.28,324210.84,7413366.06
"236167",236167,1988,11,"ob","Elephant bull",2,-23.29,31.26,322046.42,7423308.13
"236181",236181,1988,11,"ob","Elephant bull",2,-23.27,31.29,325089.09,7425559.43
"236183",236183,1988,11,"ob","Elephant bull",3,-23.27,31.27,323042.92,7425535.15
"236245",236245,1988,11,"ob","Elephant bull",8,-23.24,31.28,324026.62,7428869.46
"236273",236273,1988,11,"ob","Elephant bull",2,-23.23,31.22,317873.09,7429902.84
"236279",236279,1988,11,"ob","Elephant bull",1,-23.2,31.3,326021.4,7433323.03
"236282",236282,1988,11,"ob","Elephant bull",1,-23.21,31.26,321940.18,7432167.22
"236286",236286,1988,11,"ob","Elephant bull",4,-23.21,31.24,319893.07,7432142.57
"236297",236297,1988,11,"ob","Elephant bull",1,-23.19,31.3,326008.46,7434430.4
"236417",236417,1988,12,"ob","Elephant bull",1,-23.19,31.05,300415.05,7434109.27
"236423",236423,1988,12,"ob","Elephant bull",1,-23.19,31.04,299391.26,7434095.51
"236424",236424,1988,12,"ob","Elephant bull",1,-23.19,31.04,299391.26,7434095.51
"236461",236461,1988,12,"ob","Elephant bull",1,-23.19,31.04,299391.26,7434095.51
"236506",236506,1988,12,"ob","Elephant bull",6,-23.19,31.04,299391.26,7434095.51
"236517",236517,1988,12,"ob","Elephant bull",1,-23.2,31.03,298382.47,7432974.2
"236544",236544,1988,12,"ob","Elephant bull",1,-23.24,31.03,298442.54,7428544.27
"236599",236599,1988,12,"ob","Elephant bull",1,-23.2,31.02,297358.75,7432960.29
"236682",236682,1988,12,"ob","Elephant bull",1,-23.19,31.01,296319.86,7434053.8
"236711",236711,1988,12,"ob","Elephant bull",3,-23.19,31,295296.06,7434039.76
"236712",236712,1988,12,"ob","Elephant bull",1,-23.19,31,295296.06,7434039.76
"236739",236739,1988,12,"ob","Elephant bull",1,-23.2,30.99,294287.56,7432918.15
"236761",236761,1988,12,"ob","Elephant bull",1,-23.18,30.98,293233.05,7435118.96
"236767",236767,1988,12,"ob","Elephant bull",2,-23.25,30.99,294364.19,7427380.64
"236768",236768,1988,12,"ob","Elephant bull",3,-23.25,30.99,294364.19,7427380.64
"236783",236783,1988,12,"ob","Elephant bull",1,-23.21,30.98,293279.21,7431796.46
"236804",236804,1988,12,"ob","Elephant bull",1,-23.21,30.98,293279.21,7431796.46
"236809",236809,1988,12,"ob","Elephant bull",1,-23.26,30.99,294379.54,7426273.14
"236810",236810,1988,12,"ob","Elephant bull",1,-23.27,30.99,294394.89,7425165.63
"236812",236812,1988,12,"ob","Elephant bull",1,-23.28,30.99,294410.25,7424058.12
"236813",236813,1988,12,"ob","Elephant bull",1,-23.28,30.99,294410.25,7424058.12
"236814",236814,1988,12,"ob","Elephant bull",1,-23.28,30.99,294410.25,7424058.12
"236816",236816,1988,12,"ob","Elephant bull",1,-23.21,30.98,293279.21,7431796.46
"236924",236924,1988,13,"ob","Elephant bull",1,-23.67,31.48,344995.09,7381482.69
"237043",237043,1988,13,"ob","Elephant bull",1,-23.8,31.57,354318.99,7367182.22
"237044",237044,1988,13,"ob","Elephant bull",2,-23.8,31.57,354318.99,7367182.22
"237045",237045,1988,13,"ob","Elephant bull",3,-23.8,31.57,354318.99,7367182.22
"237046",237046,1988,13,"ob","Elephant bull",2,-23.81,31.57,354330.15,7366074.87
"237047",237047,1988,13,"ob","Elephant bull",3,-23.81,31.57,354330.15,7366074.87
"237079",237079,1988,13,"ob","Elephant bull",4,-23.63,31.61,358210.83,7386047.14
"237085",237085,1988,13,"ob","Elephant bull",3,-23.64,31.61,358221.6,7384939.83
"237114",237114,1988,13,"ob","Elephant bull",1,-23.66,31.64,361303.05,7382754.69
"237363",237363,1988,13,"ob","Elephant bull",2,-23.84,31.58,355382.23,7362763.07
"237367",237367,1988,13,"ob","Elephant bull",1,-23.85,31.57,354374.82,7361645.48
"237370",237370,1988,13,"ob","Elephant bull",3,-23.85,31.58,355393.32,7361655.72
"237371",237371,1988,13,"ob","Elephant bull",1,-23.85,31.58,355393.32,7361655.72
"237628",237628,1988,15,"ob","Elephant bull",2,-23.32,31.33,329245.22,7420070.31
"237689",237689,1988,15,"ob","Elephant bull",1,-23.29,31.39,335344.32,7423461.88
"237878",237878,1988,15,"ob","Elephant bull",1,-23.26,31.31,327122.34,7426690.79
"237941",237941,1988,15,"ob","Elephant bull",1,-23.17,31.34,330077.92,7436692.38
"237951",237951,1988,15,"ob","Elephant bull",6,-23.16,31.35,331089.2,7437811.36
"237988",237988,1988,15,"ob","Elephant bull",1,-23.14,31.37,333112.21,7440049.08
"237996",237996,1988,15,"ob","Elephant bull",2,-23.16,31.43,339280.27,7437901.91
"238037",238037,1988,15,"ob","Elephant bull",2,-23.16,31.45,341328.01,7437923.84
"238106",238106,1988,15,"ob","Elephant bull",2,-23.12,31.43,339232.57,7442331.13
"238135",238135,1988,15,"ob","Elephant bull",1,-23.12,31.44,340256.74,7442342.12
"238164",238164,1988,15,"ob","Elephant bull",2,-23.26,31.42,338376.77,7426817.65
"238176",238176,1988,15,"ob","Elephant bull",1,-23.25,31.43,339387.9,7427936.08
"238177",238177,1988,15,"ob","Elephant bull",3,-23.26,31.46,342469.19,7426861.66
"238178",238178,1988,15,"ob","Elephant bull",3,-23.25,31.45,341434.26,7427958.08
"238195",238195,1988,15,"ob","Elephant bull",2,-23.23,31.44,340387.28,7430161.74
"238196",238196,1988,15,"ob","Elephant bull",1,-23.22,31.42,338328.56,7431246.94
"238197",238197,1988,15,"ob","Elephant bull",3,-23.22,31.41,337305.15,7431235.77
"238202",238202,1988,15,"ob","Elephant bull",1,-23.22,31.44,340375.39,7431269.06
"238211",238211,1988,15,"ob","Elephant bull",3,-23.19,31.43,339316.1,7434579.98
"238216",238216,1988,15,"ob","Elephant bull",2,-23.17,31.42,338268.42,7436783.52
"238217",238217,1988,15,"ob","Elephant bull",2,-23.15,31.47,343364.1,7439052.79
"238234",238234,1988,15,"ob","Elephant bull",2,-23.17,31.51,347482.46,7436880.67
"238235",238235,1988,15,"ob","Elephant bull",1,-23.18,31.52,348517.49,7435783.84
"238245",238245,1988,15,"ob","Elephant bull",2,-23.19,31.51,347505.14,7434666.11
"238248",238248,1988,15,"ob","Elephant bull",9,-23.2,31.53,349563.55,7433579.66
"238295",238295,1988,15,"ob","Elephant bull",3,-23.24,31.48,344492.18,7429097.85
"238305",238305,1988,15,"ob","Elephant bull",1,-23.25,31.51,347573.27,7428022.38
"238315",238315,1988,15,"ob","Elephant bull",1,-23.26,31.49,345538.47,7426893.93
"238686",238686,1988,19,"ob","Elephant bull",1,-23.87,31.66,363562.17,7359520.44
"239348",239348,1988,20,"ob","Elephant bull",1,-24.1,31.66,363804.35,7334051.6
"239359",239359,1988,20,"ob","Elephant bull",5,-24.08,31.65,362766.53,7336256.57
"239434",239434,1988,21,"ob","Elephant bull",1,-24.12,31.49,346547.11,7331661.23
"239530",239530,1988,21,"ob","Elephant bull",1,-24.23,31.56,353787.25,7319554.71
"239790",239790,1988,22,"ob","Elephant bull",1,-24.33,31.5,347813.39,7308416.22
"239829",239829,1988,22,"ob","Elephant bull",1,-24.3,31.44,341687.68,7311671.59
"239840",239840,1988,22,"ob","Elephant bull",1,-24.28,31.51,348768.83,7313964.29
"240220",240220,1988,22,"ob","Elephant bull",1,-24.45,31.41,338833.01,7295024.99
"240842",240842,1988,23,"ob","Elephant bull",1,-24.07,31.71,368856.33,7337421.25
"240971",240971,1988,23,"ob","Elephant bull",2,-24.12,31.63,360776.44,7331807.41
"240983",240983,1988,23,"ob","Elephant bull",1,-24.11,31.67,364831.35,7332953.91
"241011",241011,1988,23,"ob","Elephant bull",1,-24.12,31.67,364841.86,7331846.56
"241019",241019,1988,23,"ob","Elephant bull",1,-24.12,31.64,361792.8,7331817.3
"241283",241283,1988,23,"ob","Elephant bull",1,-24.2,31.73,371020.28,7323044.35
"241644",241644,1988,24,"ob","Elephant bull",3,-24.32,31.67,365052.8,7309699.15
"241864",241864,1988,24,"ob","Elephant bull",1,-24.3,31.71,369091.3,7311952.12
"241966",241966,1988,24,"ob","Elephant bull",2,-24.39,31.74,372226.38,7302013.7
"242261",242261,1988,25,"ob","Elephant bull",1,-24.06,31.84,382064.5,7338643.83
"242338",242338,1988,25,"ob","Elephant bull",3,-24.11,31.82,380077.48,7333090.35
"242386",242386,1988,25,"ob","Elephant bull",1,-24.02,31.82,379993.77,7343056.11
"242706",242706,1988,25,"ob","Elephant bull",1,-24.16,31.74,371996.08,7327482.92
"242955",242955,1988,25,"ob","Elephant bull",1,-24.11,31.81,379061.09,7333081.76
"242962",242962,1988,26,"ob","Elephant bull",2,-24.18,31.83,381158.62,7325347.66
"243022",243022,1988,26,"ob","Elephant bull",1,-24.22,31.76,374087.03,7320857.03
"243133",243133,1988,26,"ob","Elephant bull",2,-24.28,31.82,380236.39,7314265.84
"243181",243181,1988,26,"ob","Elephant bull",1,-24.3,31.84,382284.92,7312068.22
"243196",243196,1988,26,"ob","Elephant bull",2,-24.3,31.85,383299.79,7312076.64
"243229",243229,1988,26,"ob","Elephant bull",1,-24.36,31.8,378282.72,7305389.72
"243249",243249,1988,26,"ob","Elephant bull",1,-24.37,31.8,378292.29,7304282.36
"243250",243250,1988,26,"ob","Elephant bull",1,-24.36,31.81,379297.13,7305398.45
"243264",243264,1988,26,"ob","Elephant bull",1,-24.38,31.79,377287.62,7303166.2
"243315",243315,1988,26,"ob","Elephant bull",1,-24.37,31.84,382349.59,7304316.85
"243331",243331,1988,26,"ob","Elephant bull",2,-24.36,31.87,385383.53,7305449.28
"243369",243369,1988,26,"ob","Elephant bull",2,-24.36,31.87,385383.53,7305449.28
"243401",243401,1988,26,"ob","Elephant bull",1,-24.36,31.9,388426.7,7305473.71
"243403",243403,1988,26,"ob","Elephant bull",2,-24.36,31.91,389441.08,7305481.71
"243679",243679,1988,27,"ob","Elephant bull",1,-24.44,31.97,395593.13,7296669.63
"243869",243869,1988,27,"ob","Elephant bull",1,-24.34,31.91,389423.71,7307696.35
"244142",244142,1988,27,"ob","Elephant bull",1,-24.3,31.9,388374.14,7312117.65
"244221",244221,1988,28,"ob","Elephant bull",1,-24.47,31.8,378388.19,7293208.75
"244323",244323,1988,28,"ob","Elephant bull",1,-24.39,31.85,383382.26,7302110.6
"244390",244390,1988,28,"ob","Elephant bull",2,-24.39,31.88,386424.72,7302135.49
"244572",244572,1988,28,"ob","Elephant bull",1,-24.54,31.87,385546.26,7285517.03
"244589",244589,1988,28,"ob","Elephant bull",1,-24.53,31.87,385537.19,7286624.39
"244607",244607,1988,28,"ob","Elephant bull",1,-24.59,31.91,389641.84,7280012.87
"244615",244615,1988,28,"ob","Elephant bull",1,-24.55,31.9,388593.93,7284434.24
"244630",244630,1988,28,"ob","Elephant bull",1,-24.53,31.9,388576.27,7286648.95
"244690",244690,1988,28,"ob","Elephant bull",1,-24.55,31.92,390619.66,7284450.26
"244722",244722,1988,28,"ob","Elephant bull",1,-24.56,31.94,392653.89,7283358.63
"244733",244733,1988,28,"ob","Elephant bull",2,-24.52,31.93,391606.75,7287780.19
"244752",244752,1988,28,"ob","Elephant bull",1,-24.53,31.94,392628.36,7286680.66
"244753",244753,1988,28,"ob","Elephant bull",1,-24.54,31.94,392636.86,7285573.32
"244831",244831,1988,29,"ob","Elephant bull",1,-24.49,31.85,383474.23,7291037.09
"244888",244888,1988,29,"ob","Elephant bull",1,-24.52,31.85,383501.89,7287715.01
"244912",244912,1988,29,"ob","Elephant bull",2,-24.52,31.79,377423.15,7287663.05
"244928",244928,1988,29,"ob","Elephant bull",2,-24.53,31.85,383511.12,7286607.65
"244932",244932,1988,29,"ob","Elephant bull",1,-24.53,31.83,381485.04,7286590.62
"244961",244961,1988,29,"ob","Elephant bull",4,-24.54,31.83,381494.43,7285483.25
"244962",244962,1988,29,"ob","Elephant bull",2,-24.54,31.84,382507.39,7285491.8
"244964",244964,1988,29,"ob","Elephant bull",1,-24.54,31.84,382507.39,7285491.8
"244992",244992,1988,29,"ob","Elephant bull",4,-24.57,31.83,381522.63,7282161.13
"245020",245020,1988,29,"ob","Elephant bull",1,-24.58,31.8,378494.1,7281027.62
"245021",245021,1988,29,"ob","Elephant bull",1,-24.58,31.8,378494.1,7281027.62
"245152",245152,1988,29,"ob","Elephant bull",1,-24.68,31.82,380614.45,7269971.26
"245155",245155,1988,29,"ob","Elephant bull",3,-24.67,31.86,384652.58,7271112.87
"245156",245156,1988,29,"ob","Elephant bull",2,-24.67,31.87,385664.48,7271121.23
"245158",245158,1988,29,"ob","Elephant bull",1,-24.67,31.87,385664.48,7271121.23
"245167",245167,1988,29,"ob","Elephant bull",1,-24.67,31.87,385664.48,7271121.23
"245168",245168,1988,29,"ob","Elephant bull",3,-24.67,31.87,385664.48,7271121.23
"245171",245171,1988,29,"ob","Elephant bull",3,-24.68,31.84,382638.12,7269988.52
"245183",245183,1988,29,"ob","Elephant bull",4,-24.68,31.89,387697.25,7270030.37
"245207",245207,1988,29,"ob","Elephant bull",1,-24.7,31.85,383668.52,7267782.27
"245209",245209,1988,29,"ob","Elephant bull",1,-24.7,31.86,384680.19,7267790.72
"245213",245213,1988,29,"ob","Elephant bull",1,-24.69,31.9,388717.95,7268931.15
"245372",245372,1988,30,"ob","Elephant bull",1,-24.7,31.94,392773.43,7267855.65
"245415",245415,1988,30,"ob","Elephant bull",1,-24.7,31.93,391761.79,7267847.79
"245497",245497,1988,30,"ob","Elephant bull",1,-24.73,31.89,387742.08,7264493.48
"245622",245622,1988,30,"ob","Elephant bull",5,-24.55,31.98,396696.78,7284496.53
"245624",245624,1988,30,"ob","Elephant bull",1,-24.56,31.98,396704.97,7283389.2
"245862",245862,1988,31,"ob","Elephant bull",2,-24.47,31.68,366225.65,7293097.94
"246138",246138,1988,31,"ob","Elephant bull",1,-24.53,31.72,370341.44,7286491.69
"246157",246157,1988,31,"ob","Elephant bull",1,-24.55,31.73,371374.9,7284286.25
"246177",246177,1988,31,"ob","Elephant bull",2,-24.51,31.73,371334.13,7288715.84
"246364",246364,1988,31,"ob","Elephant bull",3,-24.48,31.66,364209.26,7291971.04
"246553",246553,1988,32,"ob","Elephant bull",2,-24.57,31.49,347088.65,7281826.21
"246571",246571,1988,32,"ob","Elephant bull",1,-24.57,31.5,348101.46,7281837.28
"246593",246593,1988,32,"ob","Elephant bull",1,-24.56,31.51,349102.29,7282955.74
"246650",246650,1988,32,"ob","Elephant bull",1,-24.47,31.49,346967.49,7292900.9
"246948",246948,1988,32,"ob","Elephant bull",3,-24.5,31.54,352070.63,7289632.98
"246949",246949,1988,32,"ob","Elephant bull",1,-24.51,31.54,352082.33,7288525.53
"247091",247091,1988,33,"ob","Elephant bull",1,-24.57,31.58,356203.84,7281923.14
"247138",247138,1988,33,"ob","Elephant bull",1,-24.59,31.58,356226.68,7279708.25
"247141",247141,1988,33,"ob","Elephant bull",2,-24.59,31.6,358251.92,7279728.99
"247241",247241,1988,33,"ob","Elephant bull",1,-24.66,31.63,361367.01,7272007.49
"247253",247253,1988,33,"ob","Elephant bull",1,-24.67,31.62,360366.1,7270889.91
"247264",247264,1988,33,"ob","Elephant bull",2,-24.67,31.6,358342.16,7270869.41
"247394",247394,1988,34,"ob","Elephant bull",1,-24.65,31.73,371477.1,7273212.2
"247413",247413,1988,34,"ob","Elephant bull",3,-24.68,31.77,375555.25,7269926.83
"247809",247809,1988,34,"ob","Elephant bull",1,-24.73,31.7,368524.77,7264324.38
"247874",247874,1988,34,"ob","Elephant bull",1,-24.67,31.75,373521.46,7271015.95
"247956",247956,1988,34,"ob","Elephant bull",1,-24.59,31.68,366352.78,7279809.02
"248184",248184,1988,35,"ob","Elephant bull",1,-24.95,31.74,372795.7,7239998.59
"248224",248224,1988,35,"ob","Elephant bull",1,-24.95,31.66,364718.31,7239921.27
"248253",248253,1988,35,"ob","Elephant bull",3,-24.94,31.67,365717.15,7241038.67
"248372",248372,1988,35,"ob","Elephant bull",2,-24.9,31.62,360623.34,7245418.24
"248403",248403,1988,35,"ob","Elephant bull",5,-24.88,31.62,360600.88,7247633.2
"248561",248561,1988,36,"ob","Elephant bull",3,-24.87,31.85,383826.95,7248956.48
"248581",248581,1988,36,"ob","Elephant bull",1,-24.85,31.83,381787.35,7251154.1
"248681",248681,1988,36,"ob","Elephant bull",1,-24.81,31.7,368609,7255464.88
"248785",248785,1988,36,"ob","Elephant bull",1,-24.78,31.81,379698.85,7258888.5
"248813",248813,1988,36,"ob","Elephant bull",1,-24.81,31.81,379727.79,7255566.27
"248843",248843,1988,36,"ob","Elephant bull",1,-24.81,31.82,380738.58,7255575.04
"248846",248846,1988,36,"ob","Elephant bull",2,-24.8,31.82,380729.01,7256682.45
"248869",248869,1988,37,"ob","Elephant bull",3,-24.9,32,399005.43,7245753.93
"248962",248962,1988,37,"ob","Elephant bull",1,-24.78,31.98,396886.01,7259027.45
"249012",249012,1988,37,"ob","Elephant bull",2,-24.84,31.96,394914.64,7252367.96
"249019",249019,1988,37,"ob","Elephant bull",2,-24.82,31.96,394897.76,7254582.72
"249118",249118,1988,37,"ob","Elephant bull",1,-24.88,31.93,391917.88,7247914.94
"249119",249119,1988,37,"ob","Elephant bull",1,-24.88,31.93,391917.88,7247914.94
"249208",249208,1988,37,"ob","Elephant bull",1,-24.85,31.9,388860.48,7251212.99
"249281",249281,1988,37,"ob","Elephant bull",2,-25.05,32.02,401145.42,7229157.82
"249303",249303,1988,37,"ob","Elephant bull",1,-24.94,32.01,400047.69,7241331.79
"249307",249307,1988,37,"ob","Elephant bull",3,-24.98,32,399070.64,7236894.84
"249397",249397,1988,37,"ob","Elephant bull",2,-25.09,32.02,401177.53,7224728.22
"249498",249498,1988,37,"ob","Elephant bull",1,-25.14,31.99,398193.59,7219168.87
"249704",249704,1988,37,"ob","Elephant bull",1,-24.98,31.93,392005.07,7236840.93
"249706",249706,1988,37,"ob","Elephant bull",1,-24.98,31.94,393014.44,7236848.86
"249825",249825,1988,38,"ob","Elephant bull",4,-24.99,31.92,391004.51,7235725.53
"249853",249853,1988,38,"ob","Elephant bull",2,-24.99,31.89,387976.61,7235701.08
"249914",249914,1988,38,"ob","Elephant bull",2,-24.94,31.85,383892.48,7241204.56
"249938",249938,1988,38,"ob","Elephant bull",1,-24.95,31.84,382892.22,7240088.55
"249953",249953,1988,38,"ob","Elephant bull",2,-24.96,31.83,381892.12,7238972.46
"250239",250239,1988,38,"ob","Elephant bull",2,-25.11,31.91,390102.27,7222428.38
"250245",250245,1988,38,"ob","Elephant bull",3,-25.06,31.95,394092.48,7227997.44
"250246",250246,1988,38,"ob","Elephant bull",3,-25.07,31.95,394101.08,7226890.02
"250254",250254,1988,38,"ob","Elephant bull",6,-25.07,31.94,393092.45,7226882.15
"250256",250256,1988,38,"ob","Elephant bull",2,-25.03,31.91,390030.84,7231287.78
"250262",250262,1988,38,"ob","Elephant bull",1,-25.1,31.93,392110.12,7223551.94
"250269",250269,1988,38,"ob","Elephant bull",2,-25.08,31.92,391084.02,7225758.76
"250369",250369,1988,39,"ob","Elephant bull",1,-25.01,31.33,331478.98,7232906.45
"250531",250531,1988,39,"ob","Elephant bull",1,-25.09,31.31,329571.08,7224020.59
"250985",250985,1988,40,"ob","Elephant bull",1,-25.17,31.37,335729.97,7215234.21
"251129",251129,1988,40,"ob","Elephant bull",1,-25.31,31.31,329877.2,7199652.84
"251370",251370,1988,41,"ob","Elephant bull",2,-25.28,31.39,337891.84,7203074.86
"251384",251384,1988,41,"ob","Elephant bull",1,-25.27,31.39,337878.54,7204182.47
"251745",251745,1988,41,"ob","Elephant bull",2,-25.15,31.52,350824.78,7217623.86
"251754",251754,1988,41,"ob","Elephant bull",4,-25.16,31.52,350836.94,7216516.32
"251769",251769,1988,41,"ob","Elephant bull",1,-25.13,31.51,349792.22,7219827.85
"251963",251963,1988,41,"ob","Elephant bull",1,-25.21,31.4,338806.52,7210840.1
"252074",252074,1988,42,"ob","Elephant bull",1,-25.12,31.53,351796.65,7220957.52
"253119",253119,1988,43,"ob","Elephant bull",2,-24.99,31.38,336498.93,7235182.87
"253231",253231,1988,44,"ob","Elephant bull",2,-25.4,31.59,358172.29,7190010.98
"253293",253293,1988,44,"ob","Elephant bull",1,-25.35,31.59,358113.88,7195548.75
"253317",253317,1988,44,"ob","Elephant bull",3,-25.3,31.62,361076.04,7201117.93
"253347",253347,1988,44,"ob","Elephant bull",1,-25.34,31.58,357095.71,7196645.66
"253412",253412,1988,44,"ob","Elephant bull",1,-25.36,31.62,361144.53,7194472.69
"253466",253466,1988,44,"ob","Elephant bull",1,-25.38,31.61,360161.24,7192247.17
"253672",253672,1988,44,"ob","Elephant bull",1,-25.36,31.71,370201.33,7194563.09
"253725",253725,1988,44,"ob","Elephant bull",3,-25.35,31.74,373209.79,7195699.38
"253736",253736,1988,44,"ob","Elephant bull",2,-25.37,31.74,373230.66,7193484.36
"253757",253757,1988,44,"ob","Elephant bull",4,-25.35,31.87,386292.46,7195816.22
"253790",253790,1988,44,"ob","Elephant bull",3,-25.36,31.83,382276.75,7194674.14
"253796",253796,1988,44,"ob","Elephant bull",4,-25.33,31.83,382247.71,7197996.59
"254042",254042,1988,44,"ob","Elephant bull",1,-25.23,31.71,370062.8,7208960.71
"254211",254211,1988,44,"ob","Elephant bull",2,-25.27,31.64,363055.99,7204461.09
"254308",254308,1988,44,"ob","Elephant bull",4,-25.27,31.7,369098.31,7204520.98
"254351",254351,1988,44,"ob","Elephant bull",3,-25.28,31.75,374143.83,7203461.32
"254653",254653,1988,45,"ob","Elephant bull",3,-25.2,31.92,391190.45,7212469.56
"254668",254668,1988,45,"ob","Elephant bull",2,-25.21,31.89,388176.86,7211337.51
"254720",254720,1988,45,"ob","Elephant bull",3,-25.22,31.94,393223.05,7210270.71
"254724",254724,1988,45,"ob","Elephant bull",1,-25.23,31.93,392224.46,7209155.29
"254728",254728,1988,45,"ob","Elephant bull",1,-25.23,31.9,389202.48,7209130.89
"254744",254744,1988,45,"ob","Elephant bull",1,-25.24,31.92,391226.03,7208039.78
"254951",254951,1988,46,"ob","Elephant bull",1,-25.23,32.01,400282.98,7209217.04
"254958",254958,1988,46,"ob","Elephant bull",1,-25.23,32.01,400282.98,7209217.04
"254968",254968,1988,46,"ob","Elephant bull",1,-25.19,32,399242.73,7213639.29
"255060",255060,1988,46,"ob","Elephant bull",1,-25.27,31.97,396287.71,7204757.01
"255089",255089,1988,46,"ob","Elephant bull",9,-25.16,31.97,396194.4,7216938.77
"255105",255105,1988,46,"ob","Elephant bull",1,-25.26,31.96,395272.14,7205856.69
"255124",255124,1988,46,"ob","Elephant bull",1,-25.19,31.95,394204.52,7213600.92
"255428",255428,1988,47,"ob","Elephant bull",2,-22.64,31.18,312970.38,7495187.5
"255496",255496,1988,47,"ob","Elephant bull",2,-22.67,31.25,320204.54,7491951.87
"255497",255497,1988,47,"ob","Elephant bull",8,-22.67,31.25,320204.54,7491951.87
"255505",255505,1988,47,"ob","Elephant bull",2,-22.7,31.14,308941.99,7488492.47
"255515",255515,1988,47,"ob","Elephant bull",1,-22.68,31.28,323300.23,7490880.56
"255531",255531,1988,47,"ob","Elephant bull",2,-22.71,31.15,309983.24,7487397.95
"255542",255542,1988,47,"ob","Elephant bull",3,-22.69,31.28,323313.05,7489773.25
"255550",255550,1988,47,"ob","Elephant bull",7,-22.73,31.17,312065.3,7485208.72
"255559",255559,1988,47,"ob","Elephant bull",1,-22.74,31.18,313106.11,7484114.01
"255613",255613,1988,48,"ob","Elephant bull",1,-22.77,31.33,328550.13,7480973.56
"255799",255799,1988,48,"ob","Elephant bull",2,-22.81,31.36,331679.79,7476578.86
"255899",255899,1988,48,"ob","Elephant bull",1,-22.89,31.39,334856.08,7467754.46
"255981",255981,1988,49,"ob","Elephant bull",2,-22.92,31.24,319506.48,7464256.32
"255982",255982,1988,49,"ob","Elephant bull",4,-22.91,31.26,321544.89,7465388.07
"256065",256065,1988,49,"ob","Elephant bull",1,-22.95,31.38,333903.33,7461099.43
"256092",256092,1988,49,"ob","Elephant bull",3,-23,31.37,332939.34,7455551.55
"256144",256144,1988,49,"ob","Elephant bull",3,-22.93,31.42,337981.41,7463358.68
"256148",256148,1988,49,"ob","Elephant bull",1,-22.93,31.44,340032.63,7463380.58
"256310",256310,1988,50,"ob","Elephant bull",4,-23.03,31.37,332976.3,7452229.61
"256341",256341,1988,50,"ob","Elephant bull",2,-23.05,31.46,342223.37,7450114.9
"256363",256363,1988,50,"ob","Elephant bull",8,-23.07,31.4,336099.36,7447834.31
"256397",256397,1988,50,"ob","Elephant bull",1,-23.08,31.44,340209.41,7446771.31
"256459",256459,1988,50,"ob","Elephant bull",4,-23.13,31.45,341292.68,7441245.74
"256528",256528,1988,51,"ob","Elephant bull",3,-22.68,31.31,326382.84,7490915.94
"256572",256572,1988,52,"ob","Elephant bull",5,-23.19,31.23,318842.55,7434344.92
"256687",256687,1988,52,"ob","Elephant bull",1,-23.13,31.3,325930.9,7441074.55
"256742",256742,1988,52,"ob","Elephant bull",2,-23.08,31.36,332013.5,7446681.56
"256743",256743,1988,52,"ob","Elephant bull",3,-23.1,31.38,334087.06,7444489.78
"256955",256955,1988,53,"ob","Elephant bull",2,-23.16,30.95,290130.16,7437291.03
"256956",256956,1988,53,"ob","Elephant bull",2,-23.15,30.95,290114.57,7438398.54
"256957",256957,1988,53,"ob","Elephant bull",2,-23.15,30.95,290114.57,7438398.54
"256963",256963,1988,53,"ob","Elephant bull",4,-23.12,30.94,289043.48,7441706.64
"256965",256965,1988,53,"ob","Elephant bull",3,-23.11,30.94,289027.84,7442814.15
"256967",256967,1988,53,"ob","Elephant bull",3,-23.08,30.93,287956.28,7446122.19
"256989",256989,1988,53,"ob","Elephant bull",1,-23.15,30.96,291138.7,7438412.92
"256991",256991,1988,53,"ob","Elephant bull",2,-23.14,30.96,291123.2,7439520.42
"256997",256997,1988,53,"ob","Elephant bull",3,-23.12,30.96,291092.2,7441735.43
"257001",257001,1988,53,"ob","Elephant bull",1,-23.11,30.95,290052.28,7442828.58
"257011",257011,1988,53,"ob","Elephant bull",6,-23.13,30.96,291107.7,7440627.93
"257012",257012,1988,53,"ob","Elephant bull",1,-23.13,30.96,291107.7,7440627.93
"257018",257018,1988,53,"ob","Elephant bull",1,-23.14,30.97,292147.4,7439534.72
"257048",257048,1988,53,"ob","Elephant bull",2,-23.13,30.98,293156.25,7440656.45
"257050",257050,1988,53,"ob","Elephant bull",1,-23.14,30.98,293171.6,7439548.96
"257060",257060,1988,53,"ob","Elephant bull",2,-23.17,31,295265.61,7436254.74
"257077",257077,1988,53,"ob","Elephant bull",1,-23.13,31,295204.79,7440684.69
"257078",257078,1988,53,"ob","Elephant bull",7,-23.12,30.99,294165.26,7441778.1
"257087",257087,1988,53,"ob","Elephant bull",8,-23.11,31,295174.42,7442899.66
"257117",257117,1988,53,"ob","Elephant bull",2,-23.11,31.01,296198.84,7442913.67
"257156",257156,1988,53,"ob","Elephant bull",2,-23.14,31.06,301365.05,7439660.27
"257186",257186,1988,53,"ob","Elephant bull",3,-23.14,31.08,303413.37,7439687.4
"257287",257287,1988,53,"ob","Elephant bull",3,-23.21,31.2,315798.81,7432092.42
"257303",257303,1988,53,"ob","Elephant bull",6,-23.06,30.9,284850.41,7448293.37
"257314",257314,1988,53,"ob","Elephant bull",3,-23.05,30.91,285859.42,7449415.57
"257322",257322,1988,53,"ob","Elephant bull",1,-22.99,30.94,288840.67,7456104.19
"257332",257332,1988,53,"ob","Elephant bull",3,-23.08,30.93,287956.28,7446122.19
"257341",257341,1988,53,"ob","Elephant bull",1,-23.01,30.95,289897,7453903.58
"257342",257342,1988,53,"ob","Elephant bull",7,-23.01,30.95,289897,7453903.58
"257346",257346,1988,53,"ob","Elephant bull",4,-22.99,30.96,290891.37,7456132.86
"257489",257489,1988,53,"ob","Elephant bull",1,-23.03,31.09,304278.23,7451882.67
"257492",257492,1988,53,"ob","Elephant bull",4,-23.04,31.09,304292.68,7450775.24
"257534",257534,1988,54,"ob","Elephant bull",1,-22.93,30.94,288747.43,7462749.15
"257543",257543,1988,54,"ob","Elephant bull",5,-22.88,30.95,289696.09,7468300.9
"257546",257546,1988,54,"ob","Elephant bull",2,-22.88,30.96,290722.27,7468315.14
"257553",257553,1988,54,"ob","Elephant bull",1,-22.93,30.95,289773.24,7462763.49
"257555",257555,1988,54,"ob","Elephant bull",5,-22.94,30.94,288762.95,7461641.66
"257562",257562,1988,54,"ob","Elephant bull",2,-22.97,30.94,288809.56,7458319.18
"257568",257568,1988,54,"ob","Elephant bull",3,-22.97,30.94,288809.56,7458319.18
"257569",257569,1988,54,"ob","Elephant bull",1,-22.95,30.95,289804.14,7460548.52
"257576",257576,1988,54,"ob","Elephant bull",1,-22.93,30.95,289773.24,7462763.49
"257581",257581,1988,54,"ob","Elephant bull",4,-22.89,30.97,291763.71,7467221.85
"257595",257595,1988,54,"ob","Elephant bull",2,-22.95,30.96,290829.79,7460562.8
"257600",257600,1988,54,"ob","Elephant bull",1,-22.96,30.95,289819.6,7459441.03
"257629",257629,1988,54,"ob","Elephant bull",1,-22.92,30.99,293861.27,7463927.62
"257649",257649,1988,54,"ob","Elephant bull",1,-22.93,30.99,293876.41,7462820.15
"257658",257658,1988,54,"ob","Elephant bull",1,-22.91,31,294872.08,7465049.06
"257662",257662,1988,54,"ob","Elephant bull",1,-22.89,31.01,295868.06,7467277.88
"257684",257684,1988,54,"ob","Elephant bull",5,-22.98,30.99,293952.21,7457282.81
"257774",257774,1988,54,"ob","Elephant bull",1,-22.96,31.06,301100.68,7459594.32
"257789",257789,1988,54,"ob","Elephant bull",1,-22.96,31.08,303151.73,7459621.28
"258243",258243,1988,54,"ob","Elephant bull",4,-23.06,31.24,319692.53,7448753.26
"258328",258328,1988,55,"ob","Elephant bull",3,-22.84,31.02,296819.75,7472828.93
"258340",258340,1988,55,"ob","Elephant bull",1,-22.83,31,294751.83,7473908.69
"258356",258356,1988,55,"ob","Elephant bull",1,-22.81,30.99,293695.15,7476109.65
"258362",258362,1988,55,"ob","Elephant bull",1,-22.8,31.01,295733.6,7477244.89
"258371",258371,1988,55,"ob","Elephant bull",3,-22.78,30.99,293649.98,7479431.99
"258385",258385,1988,55,"ob","Elephant bull",10,-22.77,31.03,297742.85,7480594.68
"258387",258387,1988,55,"ob","Elephant bull",5,-22.77,31.03,297742.85,7480594.68
"258388",258388,1988,55,"ob","Elephant bull",11,-22.76,31.02,296701.06,7481688.41
"258407",258407,1988,55,"ob","Elephant bull",2,-22.75,31.03,297713.38,7482809.53
"258451",258451,1988,55,"ob","Elephant bull",1,-22.73,31.09,303847.48,7485105.05
"258457",258457,1988,55,"ob","Elephant bull",1,-22.76,31.16,311079.35,7481873.91
"258458",258458,1988,55,"ob","Elephant bull",5,-22.76,31.16,311079.35,7481873.91
"258470",258470,1988,55,"ob","Elephant bull",1,-22.69,31.07,301735.35,7489508.04
"258473",258473,1988,55,"ob","Elephant bull",1,-22.68,31.11,305831.43,7490668.29
"258549",258549,1988,55,"ob","Elephant bull",1,-22.8,31.15,310107.76,7477431.62
"258888",258888,1988,56,"ob","Elephant bull",6,-25.37,31.56,355118.47,7193301.47
"258914",258914,1988,56,"ob","Elephant bull",1,-25.4,31.52,351130.23,7189934.78
"258971",258971,1988,56,"ob","Elephant bull",2,-25.45,31.47,346163.6,7184340.09
"258996",258996,1988,56,"ob","Elephant bull",2,-25.49,31.48,347219.77,7179921.18
"259040",259040,1988,56,"ob","Elephant bull",2,-25.51,31.4,339204.06,7177611.65
"259158",259158,1988,56,"ob","Elephant bull",2,-25.41,31.43,342088.96,7188723.78
"259308",259308,1988,57,"ob","Elephant bull",1,-25.09,31.8,378990.99,7224549.22
"259361",259361,1988,58,"ob","Elephant bull",2,-25.08,31.61,359817.58,7225473.04
"259531",259531,1988,60,"ob","Elephant bull",4,-25.03,31.58,356733.54,7230979.15
"259608",259608,1988,60,"ob","Elephant bull",8,-24.97,31.66,364740.18,7237706.32
"259713",259713,1988,61,"ob","Elephant bull",2,-22.5,31.01,295289.06,7510467.53
"259727",259727,1988,61,"ob","Elephant bull",1,-22.55,31.09,303591.6,7505037.94
"259751",259751,1988,61,"ob","Elephant bull",3,-22.56,30.98,292291.86,7503781.65
"259752",259752,1988,61,"ob","Elephant bull",1,-22.56,30.98,292291.86,7503781.65
"259846",259846,1988,61,"ob","Elephant bull",2,-22.66,31.06,300664.41,7492816.85
"259852",259852,1988,61,"ob","Elephant bull",2,-22.67,31.04,298623.45,7491682.48
"259856",259856,1988,61,"ob","Elephant bull",1,-22.67,31.02,296568.01,7491655.23
"259860",259860,1988,61,"ob","Elephant bull",1,-22.66,31,294497.65,7492735.13
"259869",259869,1988,61,"ob","Elephant bull",1,-22.67,31.05,299651.16,7491696
"259890",259890,1988,61,"ob","Elephant bull",3,-22.69,31.06,300707.79,7489494.65
"259930",259930,1988,61,"ob","Elephant bull",2,-22.69,31.02,296597.53,7489440.39
"259971",259971,1988,61,"ob","Elephant bull",1,-22.72,30.97,291505.06,7486048.66
"260098",260098,1988,62,"ob","Elephant bull",1,-22.52,31.18,312808.25,7508475.53
