"","ID","Year","Cenb","Sp","Description","No","Lat","Long","X.coord","Y.coord"
"45717",45717,1980,10,"wr","White rhino",1,-23.33,31.15,310850.47,7418738.94
"45718",45718,1980,10,"wr","White rhino",1,-23.41,31.17,313008.1,7409905.45
"45719",45719,1980,11,"wr","White rhino",1,-23.33,31.26,322099.66,7418878.55
"45720",45720,1980,22,"wr","White rhino",1,-24.43,31.53,350974.88,7297374.37
"45721",45721,1980,24,"wr","White rhino",1,-24.26,31.61,358897.86,7316284.01
"45722",45722,1980,27,"wr","White rhino",1,-24.33,31.92,390429.65,7308811.59
"45723",45723,1980,27,"wr","White rhino",1,-24.33,31.94,392458.88,7308827.21
"45724",45724,1980,31,"wr","White rhino",1,-24.58,31.67,365329.49,7280906.7
"45725",45725,1980,31,"wr","White rhino",1,-24.47,31.71,369266.32,7293126.64
"45726",45726,1980,34,"wr","White rhino",1,-24.64,31.69,367418.12,7274281.6
"45727",45727,1980,34,"wr","White rhino",1,-24.64,31.78,376527.73,7274365.47
"45728",45728,1980,36,"wr","White rhino",1,-24.78,31.8,378687.82,7258879.67
"45729",45729,1980,39,"wr","White rhino",1,-25.12,31.23,321545.39,7220594.31
"45730",45730,1980,39,"wr","White rhino",1,-25.08,31.23,321487.31,7225024.88
"45731",45731,1980,39,"wr","White rhino",1,-25.1,31.28,326559.24,7222874.77
"45732",45732,1980,39,"wr","White rhino",1,-25.01,31.28,326432.48,7232843.32
"45733",45733,1980,39,"wr","White rhino",1,-25.12,31.3,328604.28,7220685.08
"45734",45734,1980,39,"wr","White rhino",1,-25.08,31.34,332583.39,7225165.71
"45735",45735,1980,39,"wr","White rhino",1,-25.08,31.36,334600.82,7225190.34
"45736",45736,1980,40,"wr","White rhino",1,-25.35,31.28,326913.62,7195183.79
"45737",45737,1980,40,"wr","White rhino",1,-25.31,31.32,330884.03,7199665.5
"45738",45738,1980,40,"wr","White rhino",1,-25.26,31.3,328800.17,7205178.3
"45739",45739,1980,40,"wr","White rhino",1,-25.22,31.3,328744.09,7209608.84
"45740",45740,1980,40,"wr","White rhino",1,-25.18,31.32,330703.91,7214064.66
"45741",45741,1980,40,"wr","White rhino",1,-25.22,31.34,332774.38,7209659.21
"45742",45742,1980,40,"wr","White rhino",1,-25.14,31.34,332665.12,7218520.1
"45743",45743,1980,41,"wr","White rhino",1,-25.28,31.32,330842.39,7202988.4
"45744",45744,1980,41,"wr","White rhino",1,-25.33,31.4,338965.01,7197548.87
"45745",45745,1980,41,"wr","White rhino",1,-25.33,31.4,338965.01,7197548.87
"45746",45746,1980,41,"wr","White rhino",1,-25.26,31.38,336858.04,7205277.95
"45747",45747,1980,41,"wr","White rhino",1,-25.26,31.38,336858.04,7205277.95
"45748",45748,1980,41,"wr","White rhino",1,-25.26,31.4,338872.47,7205302.11
"45749",45749,1980,41,"wr","White rhino",1,-25.28,31.4,338898.89,7203086.91
"45750",45750,1980,41,"wr","White rhino",1,-25.28,31.4,338898.89,7203086.91
"45751",45751,1980,41,"wr","White rhino",1,-25.18,31.4,338767.01,7214162.88
"45752",45752,1980,41,"wr","White rhino",1,-25.14,31.38,336697.99,7218569.15
"45753",45753,1980,41,"wr","White rhino",1,-25.16,31.4,338740.7,7216378.06
"45754",45754,1980,41,"wr","White rhino",1,-25.16,31.42,340756.77,7216401.85
"45755",45755,1980,41,"wr","White rhino",1,-25.16,31.44,342772.83,7216425.34
"45756",45756,1980,41,"wr","White rhino",1,-25.16,31.44,342772.83,7216425.34
"45757",45757,1980,41,"wr","White rhino",1,-25.18,31.46,344814.2,7214233.4
"45758",45758,1980,41,"wr","White rhino",1,-25.18,31.48,346829.91,7214256.3
"45759",45759,1980,41,"wr","White rhino",1,-25.2,31.51,349877.97,7212074.99
"45760",45760,1980,41,"wr","White rhino",1,-25.14,31.51,349804.45,7218720.3
"45761",45761,1980,42,"wr","White rhino",1,-25.28,31.53,351990.27,7203236.72
"45762",45762,1980,42,"wr","White rhino",1,-25.22,31.53,351917.53,7209882.06
"45763",45763,1980,42,"wr","White rhino",1,-25.16,31.57,355876.92,7216570.74
"45764",45764,1980,42,"wr","White rhino",1,-25.14,31.59,357869.72,7218807.04
"45765",45765,1980,43,"wr","White rhino",1,-25.06,31.42,340627.12,7227477.58
"45766",45766,1980,43,"wr","White rhino",1,-25.1,31.48,346730.02,7223116.76
"45767",45767,1980,43,"wr","White rhino",1,-25.03,31.48,346642.87,7230869.59
"45768",45768,1980,44,"wr","White rhino",1,-25.2,31.76,375069.01,7212330.57
"45769",45769,1980,44,"wr","White rhino",1,-25.33,31.82,381241.19,7197987.76
"45770",45770,1980,45,"wr","White rhino",1,-25.24,31.84,383168.02,7207972.61
"45771",45771,1980,45,"wr","White rhino",1,-25.24,31.86,385182.54,7207989.85
"45772",45772,1980,45,"wr","White rhino",1,-25.24,31.9,389211.54,7208023.44
"45773",45773,1980,45,"wr","White rhino",1,-25.22,31.92,391208.24,7210254.68
"45774",45774,1980,46,"wr","White rhino",1,-25.26,31.94,393258,7205840.94
"45775",45775,1980,46,"wr","White rhino",1,-25.28,31.94,393275.49,7203626.04
"45776",45776,1980,56,"wr","White rhino",1,-25.37,31.44,343043.18,7193165.99
"45777",45777,1980,56,"wr","White rhino",1,-25.33,31.48,347017.99,7197642.7
"45778",45778,1980,56,"wr","White rhino",1,-25.41,31.53,352148.44,7188838.31
"45779",45779,1980,56,"wr","White rhino",1,-25.28,31.65,364074.19,7203363.74
"45780",45780,1980,57,"wr","White rhino",1,-25.12,31.8,379020.52,7221226.84
"45781",45781,1980,11,"wr","White rhino",2,-23.31,31.23,319004.65,7421056.14
"45782",45782,1980,11,"wr","White rhino",2,-23.33,31.23,319031.75,7418841.33
"45783",45783,1980,11,"wr","White rhino",2,-23.33,31.28,324144.92,7418903.02
"45784",45784,1980,20,"wr","White rhino",2,-24.12,31.59,356710.98,7331767.09
"45785",45785,1980,21,"wr","White rhino",2,-24.14,31.48,345554.73,7329435.41
"45786",45786,1980,21,"wr","White rhino",2,-24.16,31.59,356755.57,7327337.56
"45787",45787,1980,21,"wr","White rhino",2,-24.22,31.63,360884.88,7320733.65
"45788",45788,1980,22,"wr","White rhino",2,-24.37,31.51,348875.62,7303997.37
"45789",45789,1980,27,"wr","White rhino",2,-24.28,31.92,390386.69,7314348.16
"45790",45790,1980,28,"wr","White rhino",2,-24.58,31.92,390645.69,7281128.2
"45791",45791,1980,29,"wr","White rhino",2,-24.58,31.8,378494.1,7281027.62
"45792",45792,1980,31,"wr","White rhino",2,-24.45,31.71,369245.67,7295341.42
"45793",45793,1980,34,"wr","White rhino",2,-24.62,31.71,369421.71,7276515.58
"45794",45794,1980,36,"wr","White rhino",2,-24.83,31.8,378736.48,7253342.59
"45795",45795,1980,39,"wr","White rhino",2,-25.12,31.26,324570.65,7220633.66
"45796",45796,1980,39,"wr","White rhino",2,-25.06,31.28,326502.85,7227305.25
"45797",45797,1980,39,"wr","White rhino",2,-25.06,31.28,326502.85,7227305.25
"45798",45798,1980,39,"wr","White rhino",2,-25.08,31.26,324513.56,7225064.18
"45799",45799,1980,39,"wr","White rhino",2,-25.03,31.28,326460.61,7230628.09
"45800",45800,1980,39,"wr","White rhino",2,-25.03,31.28,326460.61,7230628.09
"45801",45801,1980,39,"wr","White rhino",2,-25.08,31.3,328548.5,7225115.54
"45802",45802,1980,39,"wr","White rhino",2,-25.01,31.3,328451.09,7232868.8
"45803",45803,1980,39,"wr","White rhino",2,-25.03,31.3,328478.89,7230653.59
"45804",45804,1980,39,"wr","White rhino",2,-25.1,31.34,332610.61,7222950.51
"45805",45805,1980,39,"wr","White rhino",2,-25.08,31.36,334600.82,7225190.34
"45806",45806,1980,39,"wr","White rhino",2,-25.03,31.34,332515.42,7230703.68
"45807",45807,1980,40,"wr","White rhino",2,-25.31,31.32,330884.03,7199665.5
"45808",45808,1980,40,"wr","White rhino",2,-25.18,31.34,332719.71,7214089.66
"45809",45809,1980,40,"wr","White rhino",2,-25.16,31.34,332692.4,7216304.88
"45810",45810,1980,41,"wr","White rhino",2,-25.28,31.36,334870.66,7203038.26
"45811",45811,1980,41,"wr","White rhino",2,-25.24,31.36,334816.53,7207468.72
"45812",45812,1980,41,"wr","White rhino",2,-25.14,31.36,334681.56,7218544.77
"45813",45813,1980,41,"wr","White rhino",2,-25.18,31.38,336751.26,7214138.77
"45814",45814,1980,41,"wr","White rhino",2,-25.18,31.4,338767.01,7214162.88
"45815",45815,1980,41,"wr","White rhino",2,-25.18,31.4,338767.01,7214162.88
"45816",45816,1980,41,"wr","White rhino",2,-25.2,31.38,336777.92,7211923.58
"45817",45817,1980,41,"wr","White rhino",2,-25.2,31.4,338793.35,7211947.7
"45818",45818,1980,41,"wr","White rhino",2,-25.14,31.38,336697.99,7218569.15
"45819",45819,1980,41,"wr","White rhino",2,-25.14,31.4,338714.4,7218593.23
"45820",45820,1980,41,"wr","White rhino",2,-25.16,31.38,336724.61,7216353.97
"45821",45821,1980,41,"wr","White rhino",2,-25.16,31.38,336724.61,7216353.97
"45822",45822,1980,41,"wr","White rhino",2,-25.16,31.4,338740.7,7216378.06
"45823",45823,1980,41,"wr","White rhino",2,-25.26,31.42,340886.9,7205325.98
"45824",45824,1980,41,"wr","White rhino",2,-25.22,31.42,340834.79,7209756.34
"45825",45825,1980,41,"wr","White rhino",2,-25.24,31.44,342875.57,7207564.71
"45826",45826,1980,41,"wr","White rhino",2,-25.2,31.42,340808.76,7211971.52
"45827",45827,1980,41,"wr","White rhino",2,-25.2,31.44,342824.16,7211995.04
"45828",45828,1980,41,"wr","White rhino",2,-25.2,31.44,342824.16,7211995.04
"45829",45829,1980,41,"wr","White rhino",2,-25.12,31.44,342721.57,7220855.62
"45830",45830,1980,41,"wr","White rhino",2,-25.26,31.48,346930.09,7205395.76
"45831",45831,1980,41,"wr","White rhino",2,-25.22,31.46,344864.92,7209803.11
"45832",45832,1980,41,"wr","White rhino",2,-25.22,31.46,344864.92,7209803.11
"45833",45833,1980,41,"wr","White rhino",2,-25.22,31.46,344864.92,7209803.11
"45834",45834,1980,41,"wr","White rhino",2,-25.22,31.46,344864.92,7209803.11
"45835",45835,1980,41,"wr","White rhino",2,-25.22,31.46,344864.92,7209803.11
"45836",45836,1980,41,"wr","White rhino",2,-25.22,31.48,346879.96,7209826.04
"45837",45837,1980,41,"wr","White rhino",2,-25.24,31.46,344890.3,7207587.96
"45838",45838,1980,41,"wr","White rhino",2,-25.24,31.46,344890.3,7207587.96
"45839",45839,1980,41,"wr","White rhino",2,-25.24,31.46,344890.3,7207587.96
"45840",45840,1980,41,"wr","White rhino",2,-25.18,31.46,344814.2,7214233.4
"45841",45841,1980,41,"wr","White rhino",2,-25.18,31.46,344814.2,7214233.4
"45842",45842,1980,41,"wr","White rhino",2,-25.18,31.48,346829.91,7214256.3
"45843",45843,1980,41,"wr","White rhino",2,-25.2,31.46,344839.55,7212018.26
"45844",45844,1980,41,"wr","White rhino",2,-25.2,31.46,344839.55,7212018.26
"45845",45845,1980,41,"wr","White rhino",2,-25.2,31.48,346854.93,7212041.18
"45846",45846,1980,41,"wr","White rhino",2,-25.14,31.48,346779.93,7218686.55
"45847",45847,1980,41,"wr","White rhino",2,-25.16,31.46,344788.87,7216448.53
"45848",45848,1980,41,"wr","White rhino",2,-25.16,31.46,344788.87,7216448.53
"45849",45849,1980,41,"wr","White rhino",2,-25.16,31.48,346804.91,7216471.43
"45850",45850,1980,41,"wr","White rhino",2,-25.14,31.51,349804.45,7218720.3
"45851",45851,1980,42,"wr","White rhino",2,-25.26,31.53,351966,7205451.84
"45852",45852,1980,42,"wr","White rhino",2,-25.26,31.53,351966,7205451.84
"45853",45853,1980,42,"wr","White rhino",2,-25.22,31.51,349902.51,7209859.88
"45854",45854,1980,42,"wr","White rhino",2,-25.2,31.53,351893.31,7212097.16
"45855",45855,1980,42,"wr","White rhino",2,-25.22,31.57,355947.53,7209925.53
"45856",45856,1980,42,"wr","White rhino",2,-25.31,31.59,358067.23,7199978.95
"45857",45857,1980,42,"wr","White rhino",2,-25.31,31.59,358067.23,7199978.95
"45858",45858,1980,42,"wr","White rhino",2,-25.28,31.59,358032.28,7203301.58
"45859",45859,1980,42,"wr","White rhino",2,-25.16,31.59,357892.89,7216591.99
"45860",45860,1980,43,"wr","White rhino",2,-25.08,31.38,336618.23,7225214.68
"45861",45861,1980,43,"wr","White rhino",2,-25.03,31.4,338570.12,7230776.58
"45862",45862,1980,43,"wr","White rhino",2,-25.08,31.44,342670.39,7225285.89
"45863",45863,1980,43,"wr","White rhino",2,-25.08,31.44,342670.39,7225285.89
"45864",45864,1980,43,"wr","White rhino",2,-25.08,31.44,342670.39,7225285.89
"45865",45865,1980,43,"wr","White rhino",2,-25.03,31.42,340588.33,7230800.28
"45866",45866,1980,43,"wr","White rhino",2,-25.1,31.46,344713,7223093.91
"45867",45867,1980,43,"wr","White rhino",2,-25.08,31.48,346705.1,7225331.87
"45868",45868,1980,43,"wr","White rhino",2,-25.08,31.51,349731.1,7225365.57
"45869",45869,1980,44,"wr","White rhino",2,-25.2,31.65,363985.16,7212223.89
"45870",45870,1980,44,"wr","White rhino",2,-25.2,31.73,372046.17,7212302.38
"45871",45871,1980,44,"wr","White rhino",2,-25.28,31.84,383206.3,7203542.73
"45872",45872,1980,45,"wr","White rhino",2,-25.22,31.8,379119.19,7210152.17
"45873",45873,1980,45,"wr","White rhino",2,-25.22,31.8,379119.19,7210152.17
"45874",45874,1980,45,"wr","White rhino",2,-25.2,31.8,379099.42,7212367.12
"45875",45875,1980,45,"wr","White rhino",2,-25.2,31.82,381114.62,7212384.94
"45876",45876,1980,45,"wr","White rhino",2,-25.22,31.84,383148.9,7210187.54
"45877",45877,1980,45,"wr","White rhino",2,-25.22,31.86,385163.75,7210204.77
"45878",45878,1980,45,"wr","White rhino",2,-25.2,31.84,383129.8,7212402.47
"45879",45879,1980,45,"wr","White rhino",2,-25.14,31.84,383072.58,7219047.21
"45880",45880,1980,45,"wr","White rhino",2,-25.16,31.86,385107.47,7216849.5
"45881",45881,1980,45,"wr","White rhino",2,-25.22,31.88,387178.59,7210221.71
"45882",45882,1980,45,"wr","White rhino",2,-25.22,31.9,389193.42,7210238.34
"45883",45883,1980,45,"wr","White rhino",2,-25.24,31.88,387197.05,7208006.8
"45884",45884,1980,45,"wr","White rhino",2,-25.18,31.88,387141.71,7214651.51
"45885",45885,1980,45,"wr","White rhino",2,-25.2,31.9,389175.3,7212453.24
"45886",45886,1980,45,"wr","White rhino",2,-25.2,31.9,389175.3,7212453.24
"45887",45887,1980,45,"wr","White rhino",2,-25.2,31.9,389175.3,7212453.24
"45888",45888,1980,45,"wr","White rhino",2,-25.22,31.92,391208.24,7210254.68
"45889",45889,1980,46,"wr","White rhino",2,-25.24,31.96,395254.99,7208071.57
"45890",45890,1980,56,"wr","White rhino",2,-25.35,31.42,341004.42,7195357.57
"45891",45891,1980,56,"wr","White rhino",2,-25.37,31.44,343043.18,7193165.99
"45892",45892,1980,56,"wr","White rhino",2,-25.37,31.44,343043.18,7193165.99
"45893",45893,1980,56,"wr","White rhino",2,-25.35,31.48,347043.15,7195427.53
"45894",45894,1980,56,"wr","White rhino",2,-25.31,31.46,344979.3,7199834.88
"45895",45895,1980,56,"wr","White rhino",2,-25.31,31.48,346992.86,7199857.87
"45896",45896,1980,56,"wr","White rhino",2,-25.33,31.48,347017.99,7197642.7
"45897",45897,1980,56,"wr","White rhino",2,-25.33,31.51,350037.82,7197676.65
"45898",45898,1980,56,"wr","White rhino",2,-25.35,31.55,354088.2,7195505.73
"45899",45899,1980,56,"wr","White rhino",2,-25.37,31.55,354112.22,7193290.6
"45900",45900,1980,56,"wr","White rhino",2,-25.37,31.55,354112.22,7193290.6
"45901",45901,1980,57,"wr","White rhino",2,-25.16,31.69,367972.58,7216693.73
"45902",45902,1980,57,"wr","White rhino",2,-25.16,31.71,369988.49,7216713.18
"45903",45903,1980,57,"wr","White rhino",2,-25.16,31.76,375028.21,7216760.49
"45904",45904,1980,58,"wr","White rhino",2,-25.14,31.67,365934.81,7218888.98
"45905",45905,1980,11,"wr","White rhino",3,-23.31,31.23,319004.65,7421056.14
"45906",45906,1980,27,"wr","White rhino",3,-24.31,31.92,390412.45,7311026.22
"45907",45907,1980,31,"wr","White rhino",3,-24.58,31.76,374443.5,7280991.74
"45908",45908,1980,37,"wr","White rhino",3,-24.89,31.94,392936.7,7246815.45
"45909",45909,1980,37,"wr","White rhino",3,-25.01,31.96,395058.66,7233542.27
"45910",45910,1980,39,"wr","White rhino",3,-25.12,31.21,319528.54,7220567.71
"45911",45911,1980,39,"wr","White rhino",3,-25.08,31.26,324513.56,7225064.18
"45912",45912,1980,39,"wr","White rhino",3,-25.08,31.28,326531.04,7225090.01
"45913",45913,1980,39,"wr","White rhino",3,-25.06,31.32,330538.42,7227355.98
"45914",45914,1980,39,"wr","White rhino",3,-25.14,31.34,332665.12,7218520.1
"45915",45915,1980,39,"wr","White rhino",3,-25.03,31.38,336551.9,7230752.57
"45916",45916,1980,40,"wr","White rhino",3,-25.26,31.32,330814.65,7205203.67
"45917",45917,1980,40,"wr","White rhino",3,-25.2,31.34,332747.03,7211874.44
"45918",45918,1980,40,"wr","White rhino",3,-25.16,31.34,332692.4,7216304.88
"45919",45919,1980,41,"wr","White rhino",3,-25.24,31.36,334816.53,7207468.72
"45920",45920,1980,41,"wr","White rhino",3,-25.35,31.38,336978.54,7195309.43
"45921",45921,1980,41,"wr","White rhino",3,-25.2,31.38,336777.92,7211923.58
"45922",45922,1980,41,"wr","White rhino",3,-25.2,31.4,338793.35,7211947.7
"45923",45923,1980,41,"wr","White rhino",3,-25.22,31.44,342849.86,7209779.88
"45924",45924,1980,41,"wr","White rhino",3,-25.22,31.48,346879.96,7209826.04
"45925",45925,1980,41,"wr","White rhino",3,-25.14,31.48,346779.93,7218686.55
"45926",45926,1980,41,"wr","White rhino",3,-25.18,31.51,349853.44,7214290.1
"45927",45927,1980,42,"wr","White rhino",3,-25.2,31.53,351893.31,7212097.16
"45928",45928,1980,42,"wr","White rhino",3,-25.28,31.55,354004.29,7203258.64
"45929",45929,1980,42,"wr","White rhino",3,-25.22,31.55,353932.53,7209903.94
"45930",45930,1980,42,"wr","White rhino",3,-25.22,31.55,353932.53,7209903.94
"45931",45931,1980,42,"wr","White rhino",3,-25.22,31.57,355947.53,7209925.53
"45932",45932,1980,42,"wr","White rhino",3,-25.26,31.59,358009.01,7205516.67
"45933",45933,1980,42,"wr","White rhino",3,-25.2,31.61,359954.59,7212182.85
"45934",45934,1980,43,"wr","White rhino",3,-25.06,31.4,338609.41,7227453.86
"45935",45935,1980,43,"wr","White rhino",3,-25.08,31.4,338635.63,7225238.71
"45936",45936,1980,43,"wr","White rhino",3,-25.03,31.38,336551.9,7230752.57
"45937",45937,1980,43,"wr","White rhino",3,-25.08,31.53,351748.42,7225387.66
"45938",45938,1980,44,"wr","White rhino",3,-25.28,31.69,368102.08,7203403.68
"45939",45939,1980,45,"wr","White rhino",3,-25.22,31.8,379119.19,7210152.17
"45940",45940,1980,45,"wr","White rhino",3,-25.22,31.82,381134.05,7210170.01
"45941",45941,1980,45,"wr","White rhino",3,-25.2,31.82,381114.62,7212384.94
"45942",45942,1980,45,"wr","White rhino",3,-25.22,31.92,391208.24,7210254.68
"45943",45943,1980,54,"wr","White rhino",3,-22.97,31.13,308293.38,7458580.06
"45944",45944,1980,56,"wr","White rhino",3,-25.35,31.42,341004.42,7195357.57
"45945",45945,1980,56,"wr","White rhino",3,-25.37,31.51,350087.15,7193246.34
"45946",45946,1980,56,"wr","White rhino",3,-25.33,31.53,352051.01,7197698.9
"45947",45947,1980,57,"wr","White rhino",3,-25.12,31.78,377004,7221208.76
"45948",45948,1980,34,"wr","White rhino",4,-24.64,31.76,374503.39,7274347.34
"45949",45949,1980,39,"wr","White rhino",4,-25.08,31.38,336618.23,7225214.68
"45950",45950,1980,39,"wr","White rhino",4,-25.08,31.38,336618.23,7225214.68
"45951",45951,1980,42,"wr","White rhino",4,-25.2,31.51,349877.97,7212074.99
"45952",45952,1980,42,"wr","White rhino",4,-25.2,31.53,351893.31,7212097.16
"45953",45953,1980,42,"wr","White rhino",4,-25.22,31.61,359977.48,7209967.79
"45954",45954,1980,43,"wr","White rhino",4,-25.1,31.46,344713,7223093.91
"45955",45955,1980,43,"wr","White rhino",4,-25.06,31.53,351724.34,7227602.72
"45956",45956,1980,45,"wr","White rhino",4,-25.22,31.82,381134.05,7210170.01
"45957",45957,1980,45,"wr","White rhino",4,-25.28,31.9,389247.84,7203593.62
"45958",45958,1980,45,"wr","White rhino",4,-25.22,31.9,389193.42,7210238.34
"45959",45959,1980,45,"wr","White rhino",4,-25.22,31.92,391208.24,7210254.68
"45960",45960,1980,46,"wr","White rhino",4,-25.26,31.98,397286.27,7205872.14
"45961",45961,1980,54,"wr","White rhino",4,-23.03,31.15,310428.08,7451961.64
"45962",45962,1980,56,"wr","White rhino",4,-25.35,31.44,343017.35,7195381.19
"45963",45963,1980,56,"wr","White rhino",4,-25.37,31.44,343043.18,7193165.99
"45964",45964,1980,56,"wr","White rhino",4,-25.35,31.48,347043.15,7195427.53
"45965",45965,1980,56,"wr","White rhino",4,-25.35,31.51,350062.48,7195461.5
"45966",45966,1980,56,"wr","White rhino",4,-25.35,31.63,362139.51,7195590.58
"45967",45967,1980,57,"wr","White rhino",4,-25.1,31.76,374967.13,7223405.32
"45968",45968,1980,11,"wr","White rhino",5,-23.31,31.28,324118.59,7421117.79
"45969",45969,1980,39,"wr","White rhino",5,-25.06,31.28,326502.85,7227305.25
"45970",45970,1980,40,"wr","White rhino",5,-25.16,31.36,334708.51,7216329.57
"45971",45971,1980,41,"wr","White rhino",5,-25.14,31.4,338714.4,7218593.23
"45972",45972,1980,41,"wr","White rhino",5,-25.2,31.42,340808.76,7211971.52
"45973",45973,1980,41,"wr","White rhino",5,-25.14,31.46,344763.57,7218663.67
"45974",45974,1980,45,"wr","White rhino",5,-25.22,31.92,391208.24,7210254.68
"45975",45975,1980,45,"wr","White rhino",5,-25.2,31.92,391190.45,7212469.56
"45976",45976,1980,56,"wr","White rhino",5,-25.35,31.44,343017.35,7195381.19
"45977",45977,1980,44,"wr","White rhino",6,-25.2,31.67,366000.42,7212243.96
"45978",45978,1980,56,"wr","White rhino",6,-25.33,31.44,342991.53,7197596.39
"45979",45979,1980,41,"wr","White rhino",7,-25.18,31.38,336751.26,7214138.77
"45980",45980,1980,41,"wr","White rhino",8,-25.14,31.42,340730.8,7218617.01
"45981",45981,1980,44,"wr","White rhino",8,-25.26,31.69,368080.46,7205618.7
