"","ID","Year","Cenb","Sp","Description","No","Lat","Long","X.coord","Y.coord"
"261678",261678,1989,53,"wk","White rhino calf",1,-23.07,31.11,306385.43,7447479.58
"262331",262331,1989,54,"wk","White rhino calf",1,-22.94,31.08,303122.77,7461836.13
"264315",264315,1989,6,"wk","White rhino calf",1,-23.64,31.45,341899.21,7384771.87
"264400",264400,1989,6,"wk","White rhino calf",1,-23.66,31.41,337843.14,7382512.26
"266055",266055,1989,11,"wk","White rhino calf",1,-23.26,31.25,320983.37,7426617.99
"266057",266057,1989,11,"wk","White rhino calf",1,-23.27,31.24,319973.63,7425498.21
"271231",271231,1989,21,"wk","White rhino calf",1,-24.15,31.57,354712.14,7328424.33
"271586",271586,1989,22,"wk","White rhino calf",1,-24.25,31.58,355840.8,7317360.72
"276716",276716,1989,31,"wk","White rhino calf",1,-24.52,31.74,372357.46,7287617.73
"276771",276771,1989,31,"wk","White rhino calf",1,-24.53,31.73,371354.51,7286501.05
"277709",277709,1989,34,"wk","White rhino calf",1,-24.62,31.7,368409.36,7276506.05
"277744",277744,1989,34,"wk","White rhino calf",1,-24.64,31.7,368430.31,7274291.21
"277763",277763,1989,34,"wk","White rhino calf",1,-24.66,31.7,368451.27,7272076.37
"278057",278057,1989,34,"wk","White rhino calf",1,-24.76,31.74,372601.18,7261039.93
"278691",278691,1989,36,"wk","White rhino calf",1,-24.8,31.78,376685.53,7256646.93
"280177",280177,1989,39,"wk","White rhino calf",1,-25.14,31.28,326615.72,7218444.27
"280235",280235,1989,39,"wk","White rhino calf",1,-25.08,31.3,328548.5,7225115.54
"280245",280245,1989,39,"wk","White rhino calf",1,-25.08,31.37,335609.52,7225202.55
"280264",280264,1989,39,"wk","White rhino calf",1,-25.06,31.37,335582.81,7227417.72
"280272",280272,1989,39,"wk","White rhino calf",1,-25.06,31.3,328520.64,7227330.76
"280293",280293,1989,39,"wk","White rhino calf",1,-25.06,31.34,332556.19,7227380.9
"280320",280320,1989,39,"wk","White rhino calf",1,-25.04,31.32,330510.91,7229571.18
"280481",280481,1989,39,"wk","White rhino calf",1,-25.05,31.27,325479.78,7228400
"280632",280632,1989,40,"wk","White rhino calf",1,-25.2,31.32,330731.57,7211849.42
"280654",280654,1989,40,"wk","White rhino calf",1,-25.2,31.32,330731.57,7211849.42
"280676",280676,1989,40,"wk","White rhino calf",1,-25.21,31.31,329737.75,7210729.17
"280714",280714,1989,40,"wk","White rhino calf",1,-25.22,31.28,326728.93,7209583.2
"280792",280792,1989,40,"wk","White rhino calf",1,-25.29,31.31,329849.27,7201868.12
"280811",280811,1989,40,"wk","White rhino calf",1,-25.34,31.32,330925.72,7196342.59
"280820",280820,1989,40,"wk","White rhino calf",1,-25.37,31.32,330967.46,7193019.66
"280856",280856,1989,40,"wk","White rhino calf",1,-25.3,31.31,329863.24,7200760.48
"280860",280860,1989,40,"wk","White rhino calf",1,-25.3,31.31,329863.24,7200760.48
"280866",280866,1989,40,"wk","White rhino calf",1,-25.28,31.3,328828.23,7202963.03
"280878",280878,1989,40,"wk","White rhino calf",1,-25.29,31.3,328842.27,7201855.39
"280951",280951,1989,41,"wk","White rhino calf",1,-25.15,31.38,336711.3,7217461.56
"280955",280955,1989,41,"wk","White rhino calf",1,-25.12,31.36,334654.63,7220759.97
"280972",280972,1989,41,"wk","White rhino calf",1,-25.16,31.39,337732.66,7216366.05
"280995",280995,1989,41,"wk","White rhino calf",1,-25.14,31.41,339722.6,7218605.16
"281027",281027,1989,41,"wk","White rhino calf",1,-25.15,31.46,344776.22,7217556.1
"281034",281034,1989,41,"wk","White rhino calf",1,-25.13,31.45,343742.65,7219759.68
"281035",281035,1989,41,"wk","White rhino calf",1,-25.13,31.45,343742.65,7219759.68
"281048",281048,1989,41,"wk","White rhino calf",1,-25.16,31.47,345796.89,7216460.02
"281121",281121,1989,41,"wk","White rhino calf",1,-25.2,31.5,348870.29,7212063.8
"281124",281124,1989,41,"wk","White rhino calf",1,-25.17,31.5,348833.27,7215386.47
"281153",281153,1989,41,"wk","White rhino calf",1,-25.18,31.48,346829.91,7214256.3
"281158",281158,1989,41,"wk","White rhino calf",1,-25.19,31.47,345834.65,7213137.32
"281173",281173,1989,41,"wk","White rhino calf",1,-25.24,31.46,344890.3,7207587.96
"281183",281183,1989,41,"wk","White rhino calf",1,-25.2,31.47,345847.24,7212029.75
"281188",281188,1989,41,"wk","White rhino calf",1,-25.19,31.47,345834.65,7213137.32
"281194",281194,1989,41,"wk","White rhino calf",1,-25.17,31.47,345809.47,7215352.45
"281198",281198,1989,41,"wk","White rhino calf",1,-25.19,31.46,344826.87,7213125.83
"281209",281209,1989,41,"wk","White rhino calf",1,-25.2,31.45,343831.86,7212006.68
"281214",281214,1989,41,"wk","White rhino calf",1,-25.17,31.46,344801.54,7215340.97
"281250",281250,1989,41,"wk","White rhino calf",1,-25.16,31.45,343780.85,7216436.98
"281261",281261,1989,41,"wk","White rhino calf",1,-25.2,31.43,341816.46,7211983.31
"281272",281272,1989,41,"wk","White rhino calf",1,-25.22,31.42,340834.79,7209756.34
"281279",281279,1989,41,"wk","White rhino calf",1,-25.2,31.43,341816.46,7211983.31
"281290",281290,1989,41,"wk","White rhino calf",1,-25.16,31.44,342772.83,7216425.34
"281316",281316,1989,41,"wk","White rhino calf",1,-25.2,31.4,338793.35,7211947.7
"281328",281328,1989,41,"wk","White rhino calf",1,-25.21,31.38,336791.26,7210815.98
"281360",281360,1989,41,"wk","White rhino calf",1,-25.25,31.4,338859.27,7206409.72
"281371",281371,1989,41,"wk","White rhino calf",1,-25.27,31.42,340899.94,7204218.38
"281432",281432,1989,41,"wk","White rhino calf",1,-25.29,31.39,337905.13,7201967.25
"281444",281444,1989,41,"wk","White rhino calf",1,-25.26,31.37,335850.81,7205265.76
"281455",281455,1989,41,"wk","White rhino calf",1,-25.23,31.37,335810.49,7208588.59
"281460",281460,1989,41,"wk","White rhino calf",1,-25.27,31.34,332842.83,7204121.11
"281495",281495,1989,41,"wk","White rhino calf",1,-25.34,31.37,335958.57,7196404.82
"281728",281728,1989,42,"wk","White rhino calf",1,-25.18,31.52,350861.28,7214301.22
"281742",281742,1989,42,"wk","White rhino calf",1,-25.2,31.55,353908.65,7212119.03
"281762",281762,1989,42,"wk","White rhino calf",1,-25.22,31.52,350910.02,7209871.01
"281820",281820,1989,42,"wk","White rhino calf",1,-25.26,31.55,353980.35,7205473.75
"281824",281824,1989,42,"wk","White rhino calf",1,-25.26,31.56,354987.52,7205484.59
"281859",281859,1989,42,"wk","White rhino calf",1,-25.27,31.6,359027.72,7204419.67
"282423",282423,1989,43,"wk","White rhino calf",1,-25.05,31.38,336578.42,7228537.42
"282476",282476,1989,43,"wk","White rhino calf",1,-25.06,31.38,336591.68,7227429.84
"282566",282566,1989,43,"wk","White rhino calf",1,-25.05,31.44,342632.05,7228608.57
"282568",282568,1989,43,"wk","White rhino calf",1,-25.05,31.45,343640.98,7228620.16
"282717",282717,1989,44,"wk","White rhino calf",1,-25.18,31.7,369001.91,7214488.5
"282896",282896,1989,44,"wk","White rhino calf",1,-25.31,31.85,384241.72,7200228.98
"283071",283071,1989,44,"wk","White rhino calf",1,-25.22,31.66,365014.86,7210018.94
"283078",283078,1989,44,"wk","White rhino calf",1,-25.27,31.66,365070.11,7204481.36
"283157",283157,1989,44,"wk","White rhino calf",1,-25.38,31.58,357142.75,7192215.44
"283175",283175,1989,44,"wk","White rhino calf",1,-25.35,31.59,358113.88,7195548.75
"283192",283192,1989,44,"wk","White rhino calf",1,-25.34,31.6,359108.7,7196666.87
"283303",283303,1989,44,"wk","White rhino calf",1,-25.38,31.63,362173.55,7192267.95
"283374",283374,1989,44,"wk","White rhino calf",1,-25.35,31.64,363145.91,7195600.84
"283420",283420,1989,44,"wk","White rhino calf",1,-25.28,31.64,363067.21,7203353.57
"283549",283549,1989,44,"wk","White rhino calf",1,-25.31,31.68,367127.82,7200071.25
"283811",283811,1989,45,"wk","White rhino calf",1,-25.18,31.88,387141.71,7214651.51
"283819",283819,1989,45,"wk","White rhino calf",1,-25.2,31.91,390182.88,7212461.44
"283873",283873,1989,45,"wk","White rhino calf",1,-25.22,31.89,388186,7210230.06
"284000",284000,1989,45,"wk","White rhino calf",1,-25.26,31.86,385201.34,7205774.93
"284166",284166,1989,45,"wk","White rhino calf",1,-25.13,31.84,383063.05,7220154.66
"284185",284185,1989,45,"wk","White rhino calf",1,-25.15,31.85,384090.11,7217948.39
"284194",284194,1989,45,"wk","White rhino calf",1,-25.14,31.82,381056.41,7219029.71
"284228",284228,1989,45,"wk","White rhino calf",1,-25.15,31.82,381066.1,7217922.26
"284271",284271,1989,45,"wk","White rhino calf",1,-25.17,31.8,379069.81,7215689.53
"284289",284289,1989,45,"wk","White rhino calf",1,-25.18,31.8,379079.68,7214582.06
"284294",284294,1989,45,"wk","White rhino calf",1,-25.19,31.78,377074.18,7213456.47
"284297",284297,1989,45,"wk","White rhino calf",1,-25.19,31.78,377074.18,7213456.47
"284339",284339,1989,45,"wk","White rhino calf",1,-25.22,31.83,382141.48,7210178.81
"284352",284352,1989,45,"wk","White rhino calf",1,-25.23,31.8,379129.07,7209044.7
"284399",284399,1989,46,"wk","White rhino calf",1,-25.18,31.95,394195.88,7214708.36
"284896",284896,1989,46,"wk","White rhino calf",1,-25.22,31.98,397252.64,7210301.88
"285030",285030,1989,56,"wk","White rhino calf",1,-25.28,31.48,346955.18,7203180.61
"285035",285035,1989,56,"wk","White rhino calf",1,-25.29,31.48,346967.74,7202073.03
"285054",285054,1989,56,"wk","White rhino calf",1,-25.33,31.46,345004.77,7197619.7
"285060",285060,1989,56,"wk","White rhino calf",1,-25.33,31.49,348024.6,7197654.09
"285062",285062,1989,56,"wk","White rhino calf",1,-25.32,31.5,349018.81,7198772.98
"285071",285071,1989,56,"wk","White rhino calf",1,-25.3,31.52,351007.71,7201010.52
"285218",285218,1989,56,"wk","White rhino calf",1,-25.36,31.4,339004.74,7194226.03
"285237",285237,1989,56,"wk","White rhino calf",1,-25.4,31.4,339057.78,7189795.56
"285511",285511,1989,56,"wk","White rhino calf",1,-25.36,31.48,347055.74,7194319.95
"286149",286149,1989,60,"wk","White rhino calf",1,-25.05,31.63,361801.18,7228816.14
