"","ID","Year","Cenb","Sp","Description","No","Lat","Long","X.coord","Y.coord"
"287524",287524,1990,53,"sk","Sable antelope calf",2,-23.13,30.95,290083.41,7440613.56
"287831",287831,1990,53,"sk","Sable antelope calf",3,-22.98,30.94,288825.11,7457211.69
"288000",288000,1990,53,"sk","Sable antelope calf",2,-23.08,31.04,299227.46,7446277.65
"288049",288049,1990,53,"sk","Sable antelope calf",5,-23.1,31.07,302330.6,7444103.67
"288167",288167,1990,53,"sk","Sable antelope calf",5,-23.06,31.1,305346.36,7448573.72
"288198",288198,1990,53,"sk","Sable antelope calf",1,-23.11,31.11,306442.76,7443049.86
"288356",288356,1990,54,"sk","Sable antelope calf",2,-22.97,30.96,290860.57,7458347.83
"289120",289120,1990,55,"sk","Sable antelope calf",2,-22.82,31.05,299869.82,7475084.79
"289124",289124,1990,55,"sk","Sable antelope calf",1,-22.82,31.04,298843.23,7475071.2
"289128",289128,1990,55,"sk","Sable antelope calf",3,-22.81,31.02,296775.2,7476151.24
"289177",289177,1990,55,"sk","Sable antelope calf",3,-22.86,31.01,295823.18,7470600.23
"289207",289207,1990,55,"sk","Sable antelope calf",5,-22.77,31.09,303904.6,7480675.46
"289219",289219,1990,55,"sk","Sable antelope calf",3,-22.8,31.08,302920.78,7477339.96
"289369",289369,1990,55,"sk","Sable antelope calf",2,-22.83,31.11,306043.45,7474057.47
"289387",289387,1990,55,"sk","Sable antelope calf",4,-22.85,31.1,305045.48,7471829.49
"289413",289413,1990,55,"sk","Sable antelope calf",4,-22.88,31.15,310218.83,7468572.57
"289590",289590,1990,47,"sk","Sable antelope calf",1,-22.7,31.28,323325.88,7488665.95
"289640",289640,1990,48,"sk","Sable antelope calf",1,-22.87,31.44,339962.23,7470024.21
"289739",289739,1990,48,"sk","Sable antelope calf",1,-22.81,31.28,323467.35,7476485.48
"289758",289758,1990,48,"sk","Sable antelope calf",2,-22.78,31.36,331642.94,7479900.72
"290310",290310,1990,50,"sk","Sable antelope calf",1,-23.01,31.47,343201.78,7454554.76
"290678",290678,1990,6,"sk","Sable antelope calf",2,-23.61,31.37,333699.81,7388003.21
"290684",290684,1990,6,"sk","Sable antelope calf",2,-23.62,31.33,329630.98,7386848.71
"290899",290899,1990,7,"sk","Sable antelope calf",3,-23.62,31.31,327590.23,7386824.73
"291041",291041,1990,7,"sk","Sable antelope calf",3,-23.4,31.3,326281.41,7411175.51
"291068",291068,1990,7,"sk","Sable antelope calf",2,-23.42,31.3,326307.52,7408960.72
"291123",291123,1990,7,"sk","Sable antelope calf",4,-23.46,31.28,324316.57,7404506.86
"291242",291242,1990,7,"sk","Sable antelope calf",3,-23.53,31.32,328493.69,7396803.39
"291321",291321,1990,9,"sk","Sable antelope calf",1,-23.43,31.18,314058.12,7407703.51
"291337",291337,1990,9,"sk","Sable antelope calf",5,-23.53,31.21,317261.68,7396667.56
"291350",291350,1990,9,"sk","Sable antelope calf",1,-23.46,31.16,312056.79,7404355.18
"291547",291547,1990,9,"sk","Sable antelope calf",3,-23.53,31.23,319303.9,7396692.9
"291593",291593,1990,9,"sk","Sable antelope calf",2,-23.58,31.21,317330.84,7391130.33
"291808",291808,1990,10,"sk","Sable antelope calf",2,-23.38,31.04,299675.92,7413053.28
"291846",291846,1990,10,"sk","Sable antelope calf",1,-23.36,31.07,302713.3,7415309.58
"291857",291857,1990,10,"sk","Sable antelope calf",1,-23.36,31.08,303735.78,7415323.21
"291895",291895,1990,10,"sk","Sable antelope calf",1,-23.34,31.1,305751.6,7417565.18
"291905",291905,1990,10,"sk","Sable antelope calf",1,-23.34,31.11,306774.21,7417578.59
"291910",291910,1990,10,"sk","Sable antelope calf",3,-23.33,31.12,307782.43,7418699.38
"291953",291953,1990,10,"sk","Sable antelope calf",4,-23.32,31.18,313904.55,7419885.29
"292140",292140,1990,10,"sk","Sable antelope calf",7,-23.4,31.15,310949.77,7410986.81
"292159",292159,1990,10,"sk","Sable antelope calf",3,-23.4,31.19,315038.29,7411038.69
"292264",292264,1990,11,"sk","Sable antelope calf",2,-23.36,31.24,320094.84,7415531.59
"293013",293013,1990,11,"sk","Sable antelope calf",3,-23.25,31.15,310737.33,7427598.44
"293681",293681,1990,14,"sk","Sable antelope calf",2,-23.42,31.36,332439.02,7409031.78
"293739",293739,1990,15,"sk","Sable antelope calf",2,-23.42,31.35,331417.11,7409020.11
"294074",294074,1990,18,"sk","Sable antelope calf",3,-23.29,31.45,341481.61,7423528.82
"294123",294123,1990,18,"sk","Sable antelope calf",2,-23.23,31.47,343457.27,7430194.4
"294406",294406,1990,18,"sk","Sable antelope calf",3,-23.29,31.5,346595.93,7423582.65
"294455",294455,1990,18,"sk","Sable antelope calf",2,-23.23,31.47,343457.27,7430194.4
"295059",295059,1990,1,"sk","Sable antelope calf",1,-23.98,31.61,358590.41,7347290.51
"296579",296579,1990,3,"sk","Sable antelope calf",2,-23.9,31.25,321849.61,7355742.3
"297171",297171,1990,4,"sk","Sable antelope calf",2,-23.83,31.2,316659.91,7363430.81
"297624",297624,1990,5,"sk","Sable antelope calf",1,-23.86,31.4,337072.36,7360352.9
"298427",298427,1990,21,"sk","Sable antelope calf",4,-24.22,31.5,347682.24,7320597.97
"298431",298431,1990,21,"sk","Sable antelope calf",5,-24.23,31.51,348709.67,7319501.42
"298477",298477,1990,21,"sk","Sable antelope calf",4,-24.16,31.48,345578.78,7327220.57
"298487",298487,1990,21,"sk","Sable antelope calf",3,-24.18,31.48,345602.84,7325005.72
"298688",298688,1990,21,"sk","Sable antelope calf",1,-24.22,31.55,352760.24,7320651.61
"298901",298901,1990,22,"sk","Sable antelope calf",2,-24.33,31.53,350857.57,7308448.73
"300765",300765,1990,25,"sk","Sable antelope calf",5,-24.16,31.82,380124.11,7327553.77
"301209",301209,1990,26,"sk","Sable antelope calf",5,-24.2,31.81,379145.8,7323115.87
"301229",301229,1990,26,"sk","Sable antelope calf",9,-24.18,31.8,378111.11,7325321.84
"301597",301597,1990,27,"sk","Sable antelope calf",2,-24.19,31.91,389293.84,7324306.02
"303174",303174,1990,28,"sk","Sable antelope calf",1,-24.7,31.86,384680.19,7267790.72
"303749",303749,1990,31,"sk","Sable antelope calf",1,-24.5,31.65,363217.41,7289746.35
"303751",303751,1990,31,"sk","Sable antelope calf",1,-24.52,31.63,361212.72,7287511.56
"304300",304300,1990,32,"sk","Sable antelope calf",5,-24.53,31.63,361223.71,7286404.13
"304303",304303,1990,32,"sk","Sable antelope calf",1,-24.51,31.63,361201.73,7288618.98
"304382",304382,1990,32,"sk","Sable antelope calf",1,-24.53,31.56,354131.99,7286331.92
"305794",305794,1990,35,"sk","Sable antelope calf",4,-24.85,31.74,372693.15,7251073.04
"305825",305825,1990,35,"sk","Sable antelope calf",6,-24.83,31.71,369640.75,7253259.58
"305849",305849,1990,35,"sk","Sable antelope calf",4,-24.81,31.67,365576.55,7255435.67
"305996",305996,1990,36,"sk","Sable antelope calf",4,-24.81,31.71,369619.81,7255474.46
"306040",306040,1990,36,"sk","Sable antelope calf",3,-24.83,31.74,372672.68,7253287.92
"306043",306043,1990,36,"sk","Sable antelope calf",2,-24.84,31.75,373693.47,7252189.78
"307681",307681,1990,38,"sk","Sable antelope calf",3,-24.99,31.86,384948.7,7235675.96
"307718",307718,1990,38,"sk","Sable antelope calf",5,-24.93,31.84,382873.3,7242303.4
"307740",307740,1990,38,"sk","Sable antelope calf",4,-24.98,31.84,382920.61,7236766.27
"307835",307835,1990,38,"sk","Sable antelope calf",2,-24.95,31.76,374815.02,7240017.18
"308185",308185,1990,39,"sk","Sable antelope calf",1,-25.09,31.33,331588.37,7224045.68
"308187",308187,1990,39,"sk","Sable antelope calf",9,-25.09,31.33,331588.37,7224045.68
"308371",308371,1990,39,"sk","Sable antelope calf",8,-25.14,31.26,324599.23,7218418.4
"308440",308440,1990,39,"sk","Sable antelope calf",7,-25.08,31.23,321487.31,7225024.88
"308443",308443,1990,39,"sk","Sable antelope calf",3,-25.15,31.22,320580.83,7217258.1
"308475",308475,1990,39,"sk","Sable antelope calf",3,-25.14,31.19,317541.4,7218325.48
"308713",308713,1990,40,"sk","Sable antelope calf",5,-25.21,31.35,333768.35,7210779.22
"308793",308793,1990,40,"sk","Sable antelope calf",5,-25.21,31.32,330745.4,7210741.8
"308869",308869,1990,40,"sk","Sable antelope calf",4,-25.22,31.28,326728.93,7209583.2
"308974",308974,1990,40,"sk","Sable antelope calf",3,-25.16,31.21,319587.36,7216137.09
"309099",309099,1990,40,"sk","Sable antelope calf",4,-25.29,31.27,325821.26,7201816.75
"309160",309160,1990,41,"sk","Sable antelope calf",3,-25.33,31.34,332925.14,7197475.34
"309170",309170,1990,41,"sk","Sable antelope calf",2,-25.34,31.36,334952.01,7196392.53
"309378",309378,1990,41,"sk","Sable antelope calf",3,-25.28,31.43,341920.02,7203122.61
"309427",309427,1990,41,"sk","Sable antelope calf",3,-25.24,31.4,338846.08,7207517.31
"309566",309566,1990,41,"sk","Sable antelope calf",2,-25.18,31.5,348845.6,7214278.91
"309586",309586,1990,41,"sk","Sable antelope calf",4,-25.23,31.46,344877.61,7208695.53
"309593",309593,1990,41,"sk","Sable antelope calf",2,-25.24,31.46,344890.3,7207587.96
"309629",309629,1990,41,"sk","Sable antelope calf",4,-25.12,31.36,334654.63,7220759.97
"309741",309741,1990,41,"sk","Sable antelope calf",1,-25.16,31.51,349828.94,7216505.21
