"","ID","Year","Cenb","Sp","Description","No","Lat","Long","X.coord","Y.coord"
"315222",315222,1991,54,"d","Duiker",1,-23.06,31.23,318667.83,7448740.9
"316951",316951,1991,50,"d","Duiker",1,-23.11,31.46,342293.39,7443471.18
"317029",317029,1991,50,"d","Duiker",1,-23.14,31.54,350520.46,7440233.6
"317052",317052,1991,51,"d","Duiker",1,-22.67,31.38,333563.39,7492103.34
"317058",317058,1991,51,"d","Duiker",1,-22.65,31.34,329428.32,7494272.54
"317059",317059,1991,51,"d","Duiker",1,-22.64,31.33,328388.14,7495368.31
"317274",317274,1991,6,"d","Duiker",1,-23.58,31.32,328558.59,7391266.38
"317528",317528,1991,7,"d","Duiker",1,-23.66,31.26,322542.25,7382333.77
"317855",317855,1991,8,"d","Duiker",1,-23.42,31.27,323241.73,7408924.24
"317968",317968,1991,9,"d","Duiker",1,-23.42,31.19,315066.1,7408823.82
"318063",318063,1991,9,"d","Duiker",1,-23.5,31.16,312113.49,7399925.36
"318753",318753,1991,11,"d","Duiker",1,-23.39,31.26,322179.7,7412234.15
"320374",320374,1991,18,"d","Duiker",1,-23.19,31.34,330103.18,7434477.69
"320771",320771,1991,19,"d","Duiker",1,-23.33,31.54,350732,7419195.29
"321922",321922,1991,3,"d","Duiker",1,-23.91,31.17,313718.1,7354531.65
"321975",321975,1991,3,"d","Duiker",1,-23.86,31.19,315683.57,7360095.36
"324263",324263,1991,21,"d","Duiker",1,-24.18,31.56,353730.18,7325091.73
"324394",324394,1991,22,"d","Duiker",1,-24.24,31.57,354814.11,7318457.75
"324480",324480,1991,22,"d","Duiker",2,-24.34,31.57,354927.82,7307383.64
"324528",324528,1991,22,"d","Duiker",1,-24.35,31.54,351895.55,7306244.57
"324539",324539,1991,22,"d","Duiker",1,-24.35,31.53,350880.99,7306233.87
"324571",324571,1991,22,"d","Duiker",1,-24.35,31.51,348851.86,7306212.25
"324593",324593,1991,22,"d","Duiker",1,-24.38,31.49,346858.85,7302868
"324820",324820,1991,22,"d","Duiker",1,-24.42,31.42,339808.9,7298359.04
"326741",326741,1991,27,"d","Duiker",1,-24.25,31.91,389345.69,7317662.19
"326756",326756,1991,27,"d","Duiker",1,-24.22,31.89,387288.75,7320968.11
"327983",327983,1991,29,"d","Duiker",1,-24.68,31.85,383649.95,7269997.04
"328440",328440,1991,30,"d","Duiker",1,-24.76,32,398891.79,7261257.12
"328456",328456,1991,30,"d","Duiker",1,-24.71,31.99,397839.8,7266786.48
"328570",328570,1991,30,"d","Duiker",1,-24.58,32,398746.58,7281189.37
"328579",328579,1991,30,"d","Duiker",1,-24.53,31.99,397693.41,7286718.65
"329078",329078,1991,31,"d","Duiker",1,-24.51,31.69,367281.2,7288677.98
"329115",329115,1991,31,"d","Duiker",1,-24.61,31.72,370423.75,7277632.45
"329208",329208,1991,31,"d","Duiker",1,-24.49,31.66,364219.99,7290863.63
"329378",329378,1991,31,"d","Duiker",1,-24.44,31.65,363152.55,7296390.82
"329519",329519,1991,32,"d","Duiker",1,-24.43,31.59,357058.37,7297437.61
"329633",329633,1991,32,"d","Duiker",1,-24.46,31.52,349996.47,7294041.22
"329638",329638,1991,32,"d","Duiker",1,-24.48,31.52,350020.18,7291826.32
"329660",329660,1991,32,"d","Duiker",1,-24.46,31.51,348982.79,7294030.34
"329686",329686,1991,32,"d","Duiker",1,-24.48,31.5,347993.12,7291804.47
"330081",330081,1991,33,"d","Duiker",1,-24.75,31.66,364500.58,7262070.49
"330109",330109,1991,33,"d","Duiker",1,-24.72,31.62,360421.83,7265352.65
"330110",330110,1991,33,"d","Duiker",1,-24.72,31.63,361433.39,7265362.8
"330140",330140,1991,33,"d","Duiker",1,-24.7,31.63,361411.25,7267577.7
"330168",330168,1991,33,"d","Duiker",1,-24.68,31.62,360377.24,7269782.46
"330533",330533,1991,34,"d","Duiker",1,-24.67,31.71,369473.7,7270978.5
"330613",330613,1991,35,"d","Duiker",1,-24.97,31.62,360702.07,7237665.85
"330636",330636,1991,35,"d","Duiker",1,-24.97,31.61,359692.54,7237655.55
"331106",331106,1991,36,"d","Duiker",2,-24.78,31.85,383742.95,7258923.12
"331292",331292,1991,36,"d","Duiker",1,-24.81,31.76,374673.83,7255521.29
"331298",331298,1991,36,"d","Duiker",1,-24.79,31.76,374653.72,7257736.14
"332186",332186,1991,38,"d","Duiker",1,-25.05,31.87,386013.44,7229039.84
"332279",332279,1991,38,"d","Duiker",1,-25.06,31.92,391066.33,7227973.61
"332373",332373,1991,39,"d","Duiker",1,-24.97,31.32,330414.79,7237324.35
"332488",332488,1991,39,"d","Duiker",1,-25.05,31.35,333551.56,7228500.84
"332556",332556,1991,39,"d","Duiker",1,-25.07,31.37,335596.17,7226310.13
"332643",332643,1991,39,"d","Duiker",1,-25.12,31.31,329612.68,7220697.75
"332784",332784,1991,40,"d","Duiker",1,-25.14,31.32,330648.67,7218495.12
"332903",332903,1991,40,"d","Duiker",1,-25.2,31.35,333754.76,7211886.84
"333009",333009,1991,40,"d","Duiker",1,-25.19,31.24,322655.09,7212853.99
"333038",333038,1991,40,"d","Duiker",1,-25.23,31.26,324728.1,7208449.62
"333164",333164,1991,41,"d","Duiker",1,-25.4,31.36,335033.54,7189746.75
"333175",333175,1991,41,"d","Duiker",1,-25.4,31.37,336039.6,7189759.06
"333894",333894,1991,42,"d","Duiker",1,-25.16,31.56,354868.93,7216560.01
"334277",334277,1991,42,"d","Duiker",1,-25.23,31.58,356966.72,7208828.67
"334306",334306,1991,43,"d","Duiker",1,-24.97,31.37,335462.87,7237385.92
"334641",334641,1991,43,"d","Duiker",1,-25.1,31.4,338661.87,7223023.56
"334701",334701,1991,43,"d","Duiker",2,-25.06,31.43,341635.98,7227489.33
"334763",334763,1991,43,"d","Duiker",1,-25.1,31.49,347738.53,7223128.08
"335129",335129,1991,44,"d","Duiker",1,-25.33,31.84,383254.22,7198005.35
"335249",335249,1991,44,"d","Duiker",1,-25.27,31.75,374133.51,7204568.82
"335306",335306,1991,44,"d","Duiker",1,-25.31,31.71,370147.97,7200100.66
"335352",335352,1991,44,"d","Duiker",1,-25.23,31.74,373084.92,7208989.38
"336062",336062,1991,44,"d","Duiker",1,-25.15,31.88,387114.09,7217973.85
"336815",336815,1991,46,"d","Duiker",1,-25.47,31.52,351216.26,7182181.68
"337054",337054,1991,46,"d","Duiker",1,-25.42,31.38,337072.55,7187556.05
"337099",337099,1991,46,"d","Duiker",1,-25.35,31.52,351068.91,7195472.67
"337846",337846,1991,58,"d","Duiker",1,-25.13,31.62,360882.82,7219945.84
"338065",338065,1991,61,"d","Duiker",1,-22.72,30.97,291505.06,7486048.66
"338420",338420,1991,63,"d","Duiker",1,-22.52,31.3,325153.23,7508620.81
"338422",338422,1991,63,"d","Duiker",1,-22.53,31.3,325165.82,7507513.54
"338441",338441,1991,63,"d","Duiker",1,-22.58,31.28,323172.28,7501953.55
