"","ID","Year","Cenb","Sp","Description","No","Lat","Long","X.coord","Y.coord"
"98814",98814,1983,1,"sb","Sable antelope bull",1,-23.99,31.63,360636.11,7346203.09
"99220",99220,1983,2,"sb","Sable antelope bull",1,-23.89,31.38,335073.43,7357007.48
"99228",99228,1983,2,"sb","Sable antelope bull",1,-23.91,31.38,335098.81,7354792.63
"99236",99236,1983,2,"sb","Sable antelope bull",2,-24.06,31.42,339357.41,7338227.42
"99246",99246,1983,2,"sb","Sable antelope bull",1,-24.01,31.42,339295.2,7343764.56
"99247",99247,1983,2,"sb","Sable antelope bull",1,-24.01,31.42,339295.2,7343764.56
"99281",99281,1983,2,"sb","Sable antelope bull",1,-23.93,31.42,339195.92,7352623.91
"99387",99387,1983,2,"sb","Sable antelope bull",1,-23.99,31.53,350462.11,7346100.55
"99588",99588,1983,3,"sb","Sable antelope bull",1,-23.89,31.19,315726.07,7356772.88
"99623",99623,1983,3,"sb","Sable antelope bull",1,-24.01,31.23,319966.02,7343534.57
"99667",99667,1983,3,"sb","Sable antelope bull",1,-23.93,31.23,319854.79,7352394.5
"99668",99668,1983,3,"sb","Sable antelope bull",4,-23.93,31.23,319854.79,7352394.5
"99696",99696,1983,3,"sb","Sable antelope bull",1,-23.91,31.21,317790.74,7354583.82
"99710",99710,1983,3,"sb","Sable antelope bull",1,-23.87,31.21,317734.67,7359013.77
"99777",99777,1983,3,"sb","Sable antelope bull",1,-23.93,31.26,322908.74,7352432.45
"99781",99781,1983,3,"sb","Sable antelope bull",4,-23.93,31.28,324944.69,7352457.39
"99787",99787,1983,3,"sb","Sable antelope bull",3,-23.95,31.26,322936.04,7350217.5
"99799",99799,1983,3,"sb","Sable antelope bull",1,-23.89,31.26,322854.2,7356862.34
"99810",99810,1983,3,"sb","Sable antelope bull",1,-23.91,31.26,322881.46,7354647.4
"99999",99999,1983,3,"sb","Sable antelope bull",1,-24.03,31.34,331182.88,7341455.99
"100030",100030,1983,3,"sb","Sable antelope bull",1,-23.95,31.36,333114.06,7350339.4
"100052",100052,1983,3,"sb","Sable antelope bull",1,-23.91,31.36,333062.62,7354769.15
"100178",100178,1983,4,"sb","Sable antelope bull",1,-23.78,31.17,313532.13,7368929.15
"100243",100243,1983,4,"sb","Sable antelope bull",1,-23.85,31.23,319743.91,7361254.34
"100254",100254,1983,4,"sb","Sable antelope bull",1,-23.81,31.21,317650.74,7365658.67
"100273",100273,1983,4,"sb","Sable antelope bull",1,-23.83,31.21,317678.69,7363443.71
"100473",100473,1983,4,"sb","Sable antelope bull",1,-23.78,31.36,332895.99,7369165.66
"100831",100831,1983,6,"sb","Sable antelope bull",1,-23.58,31.32,328558.59,7391266.38
"100832",100832,1983,6,"sb","Sable antelope bull",1,-23.58,31.32,328558.59,7391266.38
"100858",100858,1983,6,"sb","Sable antelope bull",1,-23.66,31.34,330702.82,7382430.97
"100975",100975,1983,6,"sb","Sable antelope bull",1,-23.64,31.42,338838.67,7384738.34
"101005",101005,1983,6,"sb","Sable antelope bull",1,-23.62,31.42,338814.18,7386953.09
"101209",101209,1983,7,"sb","Sable antelope bull",1,-23.6,31.26,322461.34,7388978.38
"101351",101351,1983,8,"sb","Sable antelope bull",1,-23.45,31.28,324303.34,7405614.27
"101364",101364,1983,8,"sb","Sable antelope bull",1,-23.56,31.3,326490.93,7393457.11
"101381",101381,1983,8,"sb","Sable antelope bull",1,-23.53,31.3,326451.54,7396779.34
"101382",101382,1983,8,"sb","Sable antelope bull",2,-23.53,31.3,326451.54,7396779.34
"101388",101388,1983,8,"sb","Sable antelope bull",1,-23.53,31.32,328493.69,7396803.39
"101408",101408,1983,8,"sb","Sable antelope bull",2,-23.49,31.3,326399.1,7401208.95
"101445",101445,1983,8,"sb","Sable antelope bull",1,-23.51,31.34,330510.21,7399041.94
"101466",101466,1983,8,"sb","Sable antelope bull",2,-23.53,31.34,330535.83,7396827.16
"101634",101634,1983,9,"sb","Sable antelope bull",1,-23.64,31.15,311292.38,7384407.62
"101665",101665,1983,9,"sb","Sable antelope bull",1,-23.56,31.13,309135.99,7393240.93
"101669",101669,1983,9,"sb","Sable antelope bull",1,-23.56,31.15,311177.81,7393267.43
"101691",101691,1983,9,"sb","Sable antelope bull",1,-23.51,31.15,311106.39,7398804.77
"101744",101744,1983,9,"sb","Sable antelope bull",1,-23.58,31.17,313247.91,7391078.72
"101749",101749,1983,9,"sb","Sable antelope bull",1,-23.58,31.19,315289.38,7391104.67
"101773",101773,1983,9,"sb","Sable antelope bull",1,-23.47,31.19,315135.72,7403286.62
"101783",101783,1983,9,"sb","Sable antelope bull",1,-23.49,31.19,315163.61,7401071.73
"101784",101784,1983,9,"sb","Sable antelope bull",1,-23.49,31.19,315163.61,7401071.73
"101828",101828,1983,9,"sb","Sable antelope bull",1,-23.58,31.23,319372.28,7391155.71
"101868",101868,1983,9,"sb","Sable antelope bull",1,-23.45,31.21,317151.32,7405527.06
"101936",101936,1983,10,"sb","Sable antelope bull",1,-23.43,31.05,300773.15,7407529.65
"102028",102028,1983,10,"sb","Sable antelope bull",2,-23.33,31.05,300623.51,7418604.58
"102062",102062,1983,10,"sb","Sable antelope bull",1,-23.45,31.11,306933.83,7405396.44
"102112",102112,1983,10,"sb","Sable antelope bull",1,-23.37,31.09,304772.9,7414229.29
"102120",102120,1983,10,"sb","Sable antelope bull",1,-23.37,31.11,306817.67,7414256.2
"102121",102121,1983,10,"sb","Sable antelope bull",2,-23.37,31.11,306817.67,7414256.2
"102150",102150,1983,10,"sb","Sable antelope bull",1,-23.43,31.13,308948.6,7407638.06
"102168",102168,1983,10,"sb","Sable antelope bull",1,-23.39,31.15,310935.57,7412094.26
"102194",102194,1983,10,"sb","Sable antelope bull",1,-23.37,31.13,308862.44,7414282.82
"102201",102201,1983,10,"sb","Sable antelope bull",1,-23.37,31.15,310907.18,7414309.16
"102259",102259,1983,10,"sb","Sable antelope bull",1,-23.31,31.17,312867.8,7420979.83
"102270",102270,1983,10,"sb","Sable antelope bull",1,-23.37,31.21,317041.32,7414386.48
"102271",102271,1983,11,"sb","Sable antelope bull",1,-23.28,31.19,314871.91,7424327.81
"102279",102279,1983,11,"sb","Sable antelope bull",1,-23.41,31.21,317096.28,7409956.78
"102287",102287,1983,11,"sb","Sable antelope bull",1,-23.35,31.23,319058.86,7416626.51
"102288",102288,1983,11,"sb","Sable antelope bull",5,-23.35,31.23,319058.86,7416626.51
"102300",102300,1983,11,"sb","Sable antelope bull",2,-23.31,31.21,316959.05,7421030.99
"102454",102454,1983,11,"sb","Sable antelope bull",1,-23.22,31.3,326047.31,7431108.3
"102571",102571,1983,12,"sb","Sable antelope bull",1,-23.22,31.05,300459.62,7430786.86
"102618",102618,1983,12,"sb","Sable antelope bull",1,-23.24,31.11,306629.72,7428653.13
"102626",102626,1983,12,"sb","Sable antelope bull",5,-23.2,31.11,306572.09,7433082.92
"102652",102652,1983,12,"sb","Sable antelope bull",1,-23.28,31.13,308733.59,7424249.87
"102807",102807,1983,13,"sb","Sable antelope bull",1,-23.62,31.53,350037.72,7387072.81
"103192",103192,1983,14,"sb","Sable antelope bull",1,-23.47,31.38,334545.13,7403518.07
"103193",103193,1983,14,"sb","Sable antelope bull",1,-23.47,31.38,334545.13,7403518.07
"103216",103216,1983,14,"sb","Sable antelope bull",1,-23.45,31.38,334520.19,7405732.81
"103493",103493,1983,14,"sb","Sable antelope bull",1,-23.58,31.59,356115.85,7391563.71
"103532",103532,1983,15,"sb","Sable antelope bull",3,-23.37,31.34,330331.49,7414545.24
"103535",103535,1983,15,"sb","Sable antelope bull",2,-23.37,31.36,332376.07,7414568.61
"103568",103568,1983,15,"sb","Sable antelope bull",1,-23.39,31.38,334445.5,7412376.97
"103664",103664,1983,15,"sb","Sable antelope bull",1,-23.31,31.46,342528.03,7421325.09
"103754",103754,1983,18,"sb","Sable antelope bull",1,-23.22,31.34,330141.12,7431155.64
"103906",103906,1983,18,"sb","Sable antelope bull",1,-23.12,31.38,334111.65,7442275.14
"104145",104145,1983,18,"sb","Sable antelope bull",5,-23.16,31.46,342351.87,7437934.7
"104169",104169,1983,18,"sb","Sable antelope bull",1,-23.26,31.53,349630.8,7426935.97
"104225",104225,1983,19,"sb","Sable antelope bull",1,-23.39,31.53,349777.06,7412541.14
"104243",104243,1983,19,"sb","Sable antelope bull",1,-23.53,31.57,354019.42,7397080.03
"104278",104278,1983,19,"sb","Sable antelope bull",3,-23.58,31.61,358157.03,7391583.67
"104288",104288,1983,19,"sb","Sable antelope bull",4,-23.53,31.59,356061.39,7397100.24
"104407",104407,1983,19,"sb","Sable antelope bull",2,-23.85,31.67,364559.69,7361744.69
"105225",105225,1983,21,"sb","Sable antelope bull",1,-24.2,31.51,348674.22,7322823.68
"107195",107195,1983,26,"sb","Sable antelope bull",1,-24.26,31.8,378187.23,7316463.18
"107210",107210,1983,26,"sb","Sable antelope bull",1,-24.24,31.8,378168.18,7318677.85
"107666",107666,1983,27,"sb","Sable antelope bull",1,-24.28,31.92,390386.69,7314348.16
"109151",109151,1983,31,"sb","Sable antelope bull",1,-24.49,31.65,363206.59,7290853.77
"109242",109242,1983,31,"sb","Sable antelope bull",1,-24.53,31.69,367302.22,7286463.16
"109814",109814,1983,32,"sb","Sable antelope bull",1,-24.53,31.61,359197.52,7286383.87
"109830",109830,1983,32,"sb","Sable antelope bull",1,-24.49,31.61,359152.93,7290813.58
"109866",109866,1983,32,"sb","Sable antelope bull",1,-24.51,31.63,361201.73,7288618.98
"110095",110095,1983,33,"sb","Sable antelope bull",1,-24.76,31.69,367545.1,7260992.43
"110096",110096,1983,33,"sb","Sable antelope bull",5,-24.76,31.69,367545.1,7260992.43
"110498",110498,1983,35,"sb","Sable antelope bull",1,-24.85,31.61,359556.71,7250945.35
"110588",110588,1983,35,"sb","Sable antelope bull",1,-24.85,31.65,363598.74,7250985.98
"110609",110609,1983,35,"sb","Sable antelope bull",1,-24.81,31.65,363554.9,7255415.82
"110696",110696,1983,35,"sb","Sable antelope bull",1,-24.87,31.67,365641.36,7248790.93
"110699",110699,1983,35,"sb","Sable antelope bull",1,-24.87,31.69,367662.02,7248810.51
"110768",110768,1983,36,"sb","Sable antelope bull",4,-24.76,31.69,367545.1,7260992.43
"110772",110772,1983,36,"sb","Sable antelope bull",1,-24.78,31.69,367566.33,7258777.55
"110792",110792,1983,36,"sb","Sable antelope bull",1,-24.78,31.73,371610.54,7258815.72
"110872",110872,1983,36,"sb","Sable antelope bull",1,-24.89,31.82,380815.26,7246715.71
"111061",111061,1983,37,"sb","Sable antelope bull",1,-24.91,31.9,388914.16,7244568.59
"111235",111235,1983,37,"sb","Sable antelope bull",4,-24.97,31.94,393005.79,7237956.26
"111817",111817,1983,38,"sb","Sable antelope bull",1,-24.93,31.76,374794.81,7242232.07
"111863",111863,1983,38,"sb","Sable antelope bull",1,-24.91,31.78,376794.57,7244465.22
"111941",111941,1983,38,"sb","Sable antelope bull",1,-24.93,31.8,378834.08,7242268.33
"111961",111961,1983,38,"sb","Sable antelope bull",2,-24.95,31.82,380872.93,7240071.15
"112307",112307,1983,39,"sb","Sable antelope bull",1,-25.14,31.19,317541.4,7218325.48
"112323",112323,1983,39,"sb","Sable antelope bull",1,-25.14,31.21,319557.94,7218352.4
"112328",112328,1983,39,"sb","Sable antelope bull",2,-25.14,31.23,321574.47,7218379.02
"112337",112337,1983,39,"sb","Sable antelope bull",1,-25.16,31.21,319587.36,7216137.09
"112360",112360,1983,39,"sb","Sable antelope bull",1,-25.12,31.21,319528.54,7220567.71
"112374",112374,1983,39,"sb","Sable antelope bull",1,-25.06,31.21,319440.47,7227213.59
"112384",112384,1983,39,"sb","Sable antelope bull",1,-25.08,31.21,319469.8,7224998.3
"112389",112389,1983,39,"sb","Sable antelope bull",1,-25.08,31.23,321487.31,7225024.88
"112407",112407,1983,39,"sb","Sable antelope bull",2,-25.14,31.28,326615.72,7218444.27
"112418",112418,1983,39,"sb","Sable antelope bull",1,-25.1,31.26,324542.09,7222848.93
"112509",112509,1983,39,"sb","Sable antelope bull",1,-25.14,31.3,328632.2,7218469.85
"112517",112517,1983,39,"sb","Sable antelope bull",1,-25.1,31.32,330593.5,7222925.56
"112558",112558,1983,39,"sb","Sable antelope bull",1,-25.03,31.3,328478.89,7230653.59
"112678",112678,1983,40,"sb","Sable antelope bull",1,-25.18,31.23,321632.67,7213948.43
"112679",112679,1983,40,"sb","Sable antelope bull",1,-25.18,31.23,321632.67,7213948.43
"112742",112742,1983,40,"sb","Sable antelope bull",1,-25.22,31.26,324713.76,7209557.27
"112764",112764,1983,40,"sb","Sable antelope bull",1,-25.18,31.26,324656.45,7213987.84
"112823",112823,1983,40,"sb","Sable antelope bull",1,-25.31,31.3,328870.37,7199640.1
"112857",112857,1983,40,"sb","Sable antelope bull",1,-25.33,31.32,330911.82,7197450.23
"112908",112908,1983,40,"sb","Sable antelope bull",1,-25.14,31.32,330648.67,7218495.12
"112947",112947,1983,40,"sb","Sable antelope bull",1,-25.16,31.36,334708.51,7216329.57
"112971",112971,1983,41,"sb","Sable antelope bull",1,-25.31,31.34,332897.68,7199690.6
"112993",112993,1983,41,"sb","Sable antelope bull",1,-25.26,31.36,334843.59,7205253.49
"112994",112994,1983,41,"sb","Sable antelope bull",3,-25.26,31.36,334843.59,7205253.49
"113051",113051,1983,41,"sb","Sable antelope bull",1,-25.33,31.4,338965.01,7197548.87
"113060",113060,1983,41,"sb","Sable antelope bull",1,-25.26,31.38,336858.04,7205277.95
"113061",113061,1983,41,"sb","Sable antelope bull",6,-25.26,31.38,336858.04,7205277.95
"113064",113064,1983,41,"sb","Sable antelope bull",1,-25.26,31.4,338872.47,7205302.11
"113077",113077,1983,41,"sb","Sable antelope bull",1,-25.24,31.4,338846.08,7207517.31
"113101",113101,1983,41,"sb","Sable antelope bull",1,-25.2,31.4,338793.35,7211947.7
"113117",113117,1983,41,"sb","Sable antelope bull",1,-25.16,31.38,336724.61,7216353.97
"113190",113190,1983,41,"sb","Sable antelope bull",1,-25.18,31.44,342798.49,7214210.19
"113251",113251,1983,41,"sb","Sable antelope bull",2,-25.12,31.44,342721.57,7220855.62
"113345",113345,1983,41,"sb","Sable antelope bull",2,-25.2,31.48,346854.93,7212041.18
"113403",113403,1983,41,"sb","Sable antelope bull",1,-25.16,31.46,344788.87,7216448.53
"114168",114168,1983,43,"sb","Sable antelope bull",1,-25.1,31.4,338661.87,7223023.56
"116632",116632,1983,47,"sb","Sable antelope bull",1,-22.78,31.19,314187.4,7479697.18
"116796",116796,1983,47,"sb","Sable antelope bull",1,-22.74,31.28,323377.25,7484236.7
"116797",116797,1983,47,"sb","Sable antelope bull",1,-22.74,31.28,323377.25,7484236.7
"116904",116904,1983,48,"sb","Sable antelope bull",1,-22.91,31.26,321544.89,7465388.07
"116939",116939,1983,48,"sb","Sable antelope bull",2,-22.81,31.26,321414.21,7476461.44
"116967",116967,1983,48,"sb","Sable antelope bull",1,-22.78,31.26,321375.11,7479783.42
"117014",117014,1983,48,"sb","Sable antelope bull",1,-22.81,31.32,327573.6,7476532.73
"117017",117017,1983,48,"sb","Sable antelope bull",1,-22.83,31.3,325545.98,7474294.61
"117045",117045,1983,48,"sb","Sable antelope bull",1,-22.78,31.32,327535.85,7479854.64
"117079",117079,1983,48,"sb","Sable antelope bull",1,-22.81,31.36,331679.79,7476578.86
"117149",117149,1983,48,"sb","Sable antelope bull",1,-22.83,31.38,333757.16,7474386.94
"117156",117156,1983,48,"sb","Sable antelope bull",5,-22.83,31.4,335809.92,7474409.33
"117187",117187,1983,48,"sb","Sable antelope bull",1,-22.89,31.44,339985.68,7467809.67
"117246",117246,1983,49,"sb","Sable antelope bull",1,-22.93,31.26,321571.09,7463173.39
"117301",117301,1983,49,"sb","Sable antelope bull",1,-22.97,31.3,325725.02,7458792.06
"117312",117312,1983,49,"sb","Sable antelope bull",1,-22.99,31.32,327801.08,7456601.02
"117348",117348,1983,49,"sb","Sable antelope bull",1,-22.97,31.36,331877.1,7458862.06
"117370",117370,1983,49,"sb","Sable antelope bull",1,-22.95,31.36,331852.36,7461076.67
"117452",117452,1983,49,"sb","Sable antelope bull",1,-22.99,31.44,340103.22,7456736.91
"117453",117453,1983,49,"sb","Sable antelope bull",1,-22.99,31.44,340103.22,7456736.91
"117485",117485,1983,49,"sb","Sable antelope bull",1,-23.01,31.48,344226.78,7454565.42
"117542",117542,1983,50,"sb","Sable antelope bull",1,-23.06,31.42,338136.52,7448963.89
"117616",117616,1983,50,"sb","Sable antelope bull",1,-23.03,31.48,344249.75,7452350.88
"117639",117639,1983,50,"sb","Sable antelope bull",4,-23.16,31.53,349518.81,7438008.76
"117671",117671,1983,50,"sb","Sable antelope bull",1,-23.08,31.51,347380.66,7446846.15
"117716",117716,1983,51,"sb","Sable antelope bull",1,-22.66,31.32,327385.33,7493142.17
"117761",117761,1983,52,"sb","Sable antelope bull",1,-23.12,31.19,314651.34,7442046.35
"117762",117762,1983,52,"sb","Sable antelope bull",1,-23.12,31.19,314651.34,7442046.35
"117778",117778,1983,52,"sb","Sable antelope bull",1,-23.08,31.19,314596.42,7446475.94
"117843",117843,1983,52,"sb","Sable antelope bull",1,-23.1,31.23,318721.49,7444311.39
"117850",117850,1983,52,"sb","Sable antelope bull",1,-23.12,31.21,316699.85,7442071.63
"117861",117861,1983,52,"sb","Sable antelope bull",5,-23.08,31.21,316645.54,7446501.18
"117976",117976,1983,52,"sb","Sable antelope bull",1,-23.14,31.34,330040.06,7440014.41
"118006",118006,1983,52,"sb","Sable antelope bull",1,-23.12,31.34,330014.85,7442229.08
"118044",118044,1983,53,"sb","Sable antelope bull",2,-23.06,30.9,284850.41,7448293.37
"118057",118057,1983,53,"sb","Sable antelope bull",4,-23.14,30.94,289074.77,7439491.61
"118084",118084,1983,53,"sb","Sable antelope bull",1,-23.08,30.92,286931.6,7446107.64
"118169",118169,1983,53,"sb","Sable antelope bull",1,-23.03,30.98,293003.13,7451731.33
"118265",118265,1983,53,"sb","Sable antelope bull",1,-23.18,31.07,302447.92,7435244.04
"118307",118307,1983,53,"sb","Sable antelope bull",1,-23.06,31.05,300222.53,7448506.27
"118318",118318,1983,53,"sb","Sable antelope bull",1,-23.01,31.05,300148.76,7454043.52
"118330",118330,1983,53,"sb","Sable antelope bull",1,-23.03,31.05,300178.25,7451828.62
"118368",118368,1983,53,"sb","Sable antelope bull",3,-23.12,31.09,304408.51,7441915.74
"118436",118436,1983,53,"sb","Sable antelope bull",1,-23.06,31.15,310470.08,7448639.42
"118439",118439,1983,53,"sb","Sable antelope bull",1,-23.08,31.13,308448.94,7446398.52
"118446",118446,1983,53,"sb","Sable antelope bull",1,-23.08,31.15,310498.12,7446424.6
"118497",118497,1983,53,"sb","Sable antelope bull",2,-23.16,31.17,312658.42,7437591.15
"118538",118538,1983,54,"sb","Sable antelope bull",3,-22.93,30.98,292850.63,7462806.09
"118815",118815,1983,54,"sb","Sable antelope bull",2,-22.99,31.19,314473.18,7456442.43
"118911",118911,1983,55,"sb","Sable antelope bull",1,-22.89,30.98,292789.8,7467235.96
"118980",118980,1983,55,"sb","Sable antelope bull",1,-22.81,31.01,295748.52,7476137.45
"119018",119018,1983,55,"sb","Sable antelope bull",1,-22.89,31.05,299972.34,7467332.79
"119027",119027,1983,55,"sb","Sable antelope bull",1,-22.85,31.05,299913.72,7471762.51
"119061",119061,1983,55,"sb","Sable antelope bull",1,-22.83,31.07,301937.47,7474004.34
"119112",119112,1983,55,"sb","Sable antelope bull",1,-22.85,31.11,306071.82,7471842.67
"119113",119113,1983,55,"sb","Sable antelope bull",4,-22.85,31.11,306071.82,7471842.67
"119164",119164,1983,55,"sb","Sable antelope bull",4,-22.85,31.13,308124.48,7471868.84
"119166",119166,1983,55,"sb","Sable antelope bull",1,-22.85,31.15,310177.13,7471894.72
"119218",119218,1983,55,"sb","Sable antelope bull",1,-22.89,31.19,314336.78,7467516.19
"119238",119238,1983,55,"sb","Sable antelope bull",1,-22.85,31.17,312229.76,7471920.33
