"","ID","Year","Cenb","Sp","Description","No","Lat","Long","X.coord","Y.coord"
"146196",146196,1985,1,"b","Buffalo",100,-23.87,31.62,359488.87,7359481.31
"146204",146204,1985,1,"b","Buffalo",60,-23.9,31.61,358503.18,7356149.32
"146251",146251,1985,1,"b","Buffalo",100,-24,31.62,359629.57,7345085.8
"146468",146468,1985,1,"b","Buffalo",15,-23.97,31.67,364684.73,7348456.75
"146470",146470,1985,1,"b","Buffalo",130,-23.96,31.67,364674.29,7349564.09
"146543",146543,1985,1,"b","Buffalo",30,-23.95,31.67,364663.85,7350671.42
"146557",146557,1985,1,"b","Buffalo",200,-23.94,31.69,366688.94,7351797.79
"146724",146724,1985,10,"b","Buffalo",20,-23.34,31.01,296547.86,7417441.35
"147036",147036,1985,10,"b","Buffalo",3,-23.37,31.15,310907.18,7414309.16
"147049",147049,1985,10,"b","Buffalo",11,-23.41,31.13,308919.85,7409852.99
"147205",147205,1985,11,"b","Buffalo",2,-23.36,31.24,320094.84,7415531.59
"147254",147254,1985,11,"b","Buffalo",3,-23.22,31.23,318883,7431022.74
"147258",147258,1985,11,"b","Buffalo",50,-23.21,31.23,318869.51,7432130.14
"147286",147286,1985,11,"b","Buffalo",300,-23.23,31.24,319919.9,7429927.79
"147299",147299,1985,11,"b","Buffalo",25,-23.38,31.28,324210.84,7413366.06
"147459",147459,1985,11,"b","Buffalo",120,-23.36,31.29,325206.85,7415592.99
"147531",147531,1985,11,"b","Buffalo",5,-23.2,31.3,326021.4,7433323.03
"147798",147798,1985,12,"b","Buffalo",4,-23.24,31.1,305606.34,7428639.77
"147813",147813,1985,12,"b","Buffalo",4,-23.18,31.11,306543.31,7435297.8
"147984",147984,1985,13,"b","Buffalo",70,-23.67,31.48,344995.09,7381482.69
"147985",147985,1985,13,"b","Buffalo",110,-23.67,31.48,344995.09,7381482.69
"147986",147986,1985,13,"b","Buffalo",120,-23.67,31.49,346015.02,7381493.52
"148045",148045,1985,13,"b","Buffalo",150,-23.71,31.5,347081.55,7377074.87
"148114",148114,1985,13,"b","Buffalo",150,-23.83,31.57,354352.48,7363860.18
"148303",148303,1985,13,"b","Buffalo",2,-23.83,31.61,358427.09,7363900.7
"148314",148314,1985,13,"b","Buffalo",400,-23.76,31.59,356312.81,7371631.94
"148537",148537,1985,13,"b","Buffalo",2,-23.8,31.65,362470.03,7367262.03
"148544",148544,1985,13,"b","Buffalo",2,-23.81,31.63,360442.98,7366135.18
"148983",148983,1985,14,"b","Buffalo",50,-23.58,31.47,343868.47,7391437.99
"148992",148992,1985,14,"b","Buffalo",200,-23.55,31.48,344853.86,7394770.89
"149345",149345,1985,15,"b","Buffalo",2,-23.28,31.38,334309.04,7424557.82
"149558",149558,1985,18,"b","Buffalo",80,-23.26,31.33,329168.63,7426714.49
"149570",149570,1985,18,"b","Buffalo",150,-23.24,31.32,328119.84,7428917.4
"149597",149597,1985,18,"b","Buffalo",100,-23.22,31.33,329117.67,7431143.92
"149761",149761,1985,18,"b","Buffalo",400,-23.28,31.44,340446.82,7424625.16
"150060",150060,1985,18,"b","Buffalo",3,-23.22,31.53,349585.95,7431365.1
"150319",150319,1985,19,"b","Buffalo",400,-23.85,31.73,370670.47,7361800.76
"150606",150606,1985,2,"b","Buffalo",1,-23.92,31.43,340201.53,7353742.67
"150646",150646,1985,2,"b","Buffalo",5,-24,31.48,345386.94,7344939.16
"150703",150703,1985,2,"b","Buffalo",60,-23.88,31.47,344225.56,7358216.91
"150790",150790,1985,2,"b","Buffalo",6,-23.92,31.53,350381.34,7353852.2
"150791",150791,1985,2,"b","Buffalo",50,-23.95,31.51,348380.46,7350508.72
"150885",150885,1985,2,"b","Buffalo",30,-24.01,31.57,354554.23,7343927.69
"150919",150919,1985,2,"b","Buffalo",1,-23.98,31.56,353503.02,7347239.44
"150940",150940,1985,2,"b","Buffalo",150,-23.95,31.55,352451.38,7350551.13
"150941",150941,1985,2,"b","Buffalo",60,-23.94,31.55,352440,7351658.5
"150968",150968,1985,2,"b","Buffalo",10,-23.9,31.55,352394.54,7356087.97
"151243",151243,1985,20,"b","Buffalo",100,-24.09,31.51,348544.61,7335005.2
"151262",151262,1985,20,"b","Buffalo",20,-24.04,31.5,347468.86,7340531.39
"151301",151301,1985,20,"b","Buffalo",200,-24.07,31.53,350554.68,7337241.44
"151734",151734,1985,21,"b","Buffalo",3,-24.21,31.63,360874.01,7321841.03
"152005",152005,1985,22,"b","Buffalo",150,-24.38,31.43,340772.78,7302800.46
"152075",152075,1985,22,"b","Buffalo",3,-24.33,31.44,341724.94,7308349.22
"152203",152203,1985,22,"b","Buffalo",3,-24.42,31.48,345893.07,7298427.1
"152284",152284,1985,22,"b","Buffalo",150,-24.41,31.47,344866.82,7299523.4
"152360",152360,1985,22,"b","Buffalo",70,-24.29,31.48,345735.53,7312823.95
"152392",152392,1985,22,"b","Buffalo",3,-24.26,31.49,346714.58,7316157.3
"152548",152548,1985,22,"b","Buffalo",1,-24.3,31.5,347777.56,7311738.53
"152553",152553,1985,22,"b","Buffalo",2,-24.3,31.51,348792.53,7311749.43
"152574",152574,1985,22,"b","Buffalo",3,-24.26,31.53,350775.72,7316200.7
"152847",152847,1985,23,"b","Buffalo",20,-24.1,31.65,362787.83,7334041.85
"152904",152904,1985,23,"b","Buffalo",300,-24.19,31.67,364915.5,7324095.03
"154132",154132,1985,25,"b","Buffalo",250,-24.07,31.82,380040.24,7337519.59
"154823",154823,1985,26,"b","Buffalo",170,-24.3,31.82,380255.16,7312051.16
"154961",154961,1985,26,"b","Buffalo",150,-24.29,31.83,381260.73,7313167.06
"155014",155014,1985,26,"b","Buffalo",6,-24.38,31.87,385401.55,7303234.61
"155944",155944,1985,28,"b","Buffalo",200,-24.48,31.8,378397.8,7292101.38
"157275",157275,1985,29,"b","Buffalo",30,-24.5,31.85,383483.45,7289929.74
"157514",157514,1985,3,"b","Buffalo",100,-23.94,31.19,315797.01,7351235.37
"157530",157530,1985,3,"b","Buffalo",7,-23.89,31.17,313689.43,7356746.67
"158027",158027,1985,3,"b","Buffalo",2,-23.89,31.3,326927.33,7356911.87
"158361",158361,1985,30,"b","Buffalo",300,-24.71,31.93,391770.43,7266740.43
"159381",159381,1985,31,"b","Buffalo",350,-24.39,31.69,367155.42,7301966.73
"160040",160040,1985,32,"b","Buffalo",150,-24.48,31.53,351033.7,7291837.13
"160080",160080,1985,32,"b","Buffalo",150,-24.53,31.55,353118.88,7286321.31
"160183",160183,1985,32,"b","Buffalo",200,-24.53,31.59,357171.32,7286363.31
"160651",160651,1985,34,"b","Buffalo",200,-24.65,31.68,366416.56,7273164.49
"161005",161005,1985,34,"b","Buffalo",150,-24.62,31.77,375495.75,7276571.24
"161865",161865,1985,36,"b","Buffalo",300,-24.86,31.88,386848.7,7250089.13
"161867",161867,1985,36,"b","Buffalo",140,-24.8,31.87,385783.3,7256725.2
"162235",162235,1985,37,"b","Buffalo",19,-24.79,31.95,393861.54,7257897.11
"163144",163144,1985,38,"b","Buffalo",400,-24.89,31.87,385865.9,7246758.57
"163175",163175,1985,38,"b","Buffalo",80,-25.04,31.91,390039.76,7230180.36
"163219",163219,1985,38,"b","Buffalo",150,-25.05,31.94,393075.09,7229096.98
"163406",163406,1985,39,"b","Buffalo",20,-24.99,31.28,326404.36,7235058.53
"163698",163698,1985,4,"b","Buffalo",2,-23.73,31.16,312441.29,7374453.45
"163874",163874,1985,4,"b","Buffalo",25,-23.72,31.17,313446.63,7375574.07
"164040",164040,1985,4,"b","Buffalo",3,-23.76,31.22,318600.27,7371208.84
"164151",164151,1985,4,"b","Buffalo",2,-23.81,31.25,321726.45,7365709.51
"164345",164345,1985,4,"b","Buffalo",1,-23.8,31.31,327826.72,7366891.06
"164540",164540,1985,40,"b","Buffalo",100,-25.19,31.23,321647.24,7212840.77
"165042",165042,1985,41,"b","Buffalo",100,-25.12,31.35,333646.24,7220747.67
"166715",166715,1985,43,"b","Buffalo",50,-25.06,31.42,340627.12,7227477.58
"167327",167327,1985,44,"b","Buffalo",30,-25.42,31.65,364230.64,7187858.26
"167989",167989,1985,44,"b","Buffalo",150,-25.38,31.75,374247.22,7192386.29
"168058",168058,1985,44,"b","Buffalo",4,-25.27,31.78,377154.61,7204596.62
"168157",168157,1985,44,"b","Buffalo",150,-25.35,31.83,382267.07,7195781.62
"168783",168783,1985,45,"b","Buffalo",200,-25.19,31.88,387150.93,7213544.06
"168950",168950,1985,45,"b","Buffalo",3,-25.12,31.92,391119.44,7221329.05
"169015",169015,1985,46,"b","Buffalo",3,-25.39,31.96,395383.93,7191459.83
"169017",169017,1985,46,"b","Buffalo",2,-25.38,31.96,395375.31,7192567.29
"169042",169042,1985,46,"b","Buffalo",100,-25.4,31.97,396398.47,7190360.16
"169065",169065,1985,46,"b","Buffalo",6,-25.35,31.96,395349.48,7195889.66
"169072",169072,1985,46,"b","Buffalo",2,-25.36,31.97,396364.33,7194789.99
"169181",169181,1985,46,"b","Buffalo",50,-25.24,31.97,396262.22,7208079.33
"169247",169247,1985,46,"b","Buffalo",4,-25.19,31.97,396219.81,7213616.49
"169867",169867,1985,48,"b","Buffalo",60,-22.76,31.37,332645.32,7482126.63
"170661",170661,1985,5,"b","Buffalo",1,-23.76,31.46,343062.98,7371494.48
"170741",170741,1985,5,"b","Buffalo",1,-23.73,31.47,344046.48,7374827.6
"170770",170770,1985,5,"b","Buffalo",60,-23.8,31.5,347186.67,7367108.61
"170858",170858,1985,5,"b","Buffalo",2,-23.82,31.55,352303.84,7364946.84
"170981",170981,1985,50,"b","Buffalo",120,-23.13,31.47,343340.85,7441267.37
"170988",170988,1985,50,"b","Buffalo",300,-23.13,31.48,344364.94,7441278.08
"171211",171211,1985,51,"b","Buffalo",400,-22.67,31.3,325342.63,7492011.51
"171266",171266,1985,51,"b","Buffalo",1,-22.59,31.36,331410.64,7500938.93
"171273",171273,1985,51,"b","Buffalo",80,-22.61,31.36,331435,7498724.41
"171363",171363,1985,52,"b","Buffalo",150,-23.06,31.19,314568.99,7448690.72
"171451",171451,1985,52,"b","Buffalo",50,-23.13,31.23,318761.8,7440989.24
"171472",171472,1985,52,"b","Buffalo",150,-23.15,31.22,317764.67,7438762
"171661",171661,1985,52,"b","Buffalo",280,-23.04,31.32,327864.57,7451064.36
"171914",171914,1985,53,"b","Buffalo",150,-23.03,30.95,289928,7451688.59
"172191",172191,1985,53,"b","Buffalo",250,-23.11,31.08,303369.63,7443009.74
"172273",172273,1985,53,"b","Buffalo",150,-23.09,31.1,305389.56,7445251.43
"172382",172382,1985,53,"b","Buffalo",2,-23.18,31.19,314733.88,7435401.94
"172406",172406,1985,54,"b","Buffalo",200,-22.96,30.93,287768.44,7459412.25
"172421",172421,1985,54,"b","Buffalo",150,-22.96,30.95,289819.6,7459441.03
"172706",172706,1985,55,"b","Buffalo",25,-22.83,30.98,292698.76,7473880.73
"172765",172765,1985,55,"b","Buffalo",2,-22.82,31,294736.83,7475016.14
"172790",172790,1985,55,"b","Buffalo",150,-22.78,31.01,295703.79,7479459.76
"173024",173024,1985,55,"b","Buffalo",200,-22.76,31.13,307998.36,7481835.31
"173665",173665,1985,57,"b","Buffalo",50,-25.08,31.81,379989.74,7225665.59
"174019",174019,1985,6,"b","Buffalo",1,-23.72,31.37,333838.95,7375821.84
"174021",174021,1985,6,"b","Buffalo",2,-23.71,31.37,333826.28,7376929.24
"174026",174026,1985,6,"b","Buffalo",80,-23.67,31.36,332755.66,7381347.16
"174033",174033,1985,6,"b","Buffalo",1,-23.69,31.34,330741.49,7379108.74
"174050",174050,1985,6,"b","Buffalo",150,-23.65,31.35,331710.08,7383550.2
"174212",174212,1985,6,"b","Buffalo",120,-23.64,31.45,341899.21,7384771.87
"174250",174250,1985,6,"b","Buffalo",350,-23.57,31.42,338753.05,7392489.94
"174282",174282,1985,6,"b","Buffalo",1,-23.73,31.46,343027.01,7374816.61
"175367",175367,1985,7,"b","Buffalo",150,-23.61,31.27,323495.29,7387883.33
"175420",175420,1985,7,"b","Buffalo",15,-23.66,31.3,326622.57,7382382.95
"175471",175471,1985,8,"b","Buffalo",40,-23.45,31.23,319194.78,7405552.33
"175509",175509,1985,8,"b","Buffalo",80,-23.48,31.26,322300.11,7402267.47
"175682",175682,1985,8,"b","Buffalo",180,-23.51,31.33,329488.99,7399030.1
"175878",175878,1985,9,"b","Buffalo",150,-23.53,31.11,307050.37,7396536.6
"175947",175947,1985,9,"b","Buffalo",100,-23.6,31.16,312255.64,7388850.7
"176043",176043,1985,9,"b","Buffalo",180,-23.52,31.15,311120.66,7397697.31
"176067",176067,1985,9,"b","Buffalo",70,-23.46,31.15,311035.11,7404342.08
"176261",176261,1985,9,"b","Buffalo",400,-23.45,31.17,313064.37,7405475.66
"176278",176278,1985,9,"b","Buffalo",200,-23.58,31.23,319372.28,7391155.71
