"","ID","Year","Cenb","Sp","Description","No","Lat","Long","X.coord","Y.coord"
"7511",7511,1978,2,"b","Buffalo",80,-23.89,31.55,352383.19,7357195.33
"7592",7592,1978,3,"b","Buffalo",250,-23.99,31.21,317903.14,7345723.84
"7598",7598,1978,3,"b","Buffalo",250,-23.99,31.23,319938.18,7345749.56
"7657",7657,1978,3,"b","Buffalo",200,-24.03,31.28,325079.84,7341382.67
"7721",7721,1978,3,"b","Buffalo",150,-23.93,31.3,326980.62,7352482.05
"7739",7739,1978,3,"b","Buffalo",400,-23.91,31.3,326953.96,7354696.96
"7815",7815,1978,1,"b","Buffalo",350,-23.99,31.59,356566.54,7346162.94
"7816",7816,1978,1,"b","Buffalo",150,-23.99,31.61,358601.33,7346183.16
"7863",7863,1978,1,"b","Buffalo",2,-23.97,31.63,360614.58,7348417.78
"7953",7953,1978,1,"b","Buffalo",250,-23.91,31.67,364622.13,7355100.74
"8158",8158,1978,2,"b","Buffalo",200,-23.91,31.53,350369.82,7354959.57
"8245",8245,1978,4,"b","Buffalo",200,-23.76,31.21,317580.94,7371196.04
"8259",8259,1978,4,"b","Buffalo",200,-23.74,31.23,319592.02,7373436.5
"8278",8278,1978,4,"b","Buffalo",300,-23.83,31.28,324810.06,7363531.99
"8328",8328,1978,4,"b","Buffalo",600,-23.78,31.32,328819.49,7369118.02
"8492",8492,1978,5,"b","Buffalo",400,-23.83,31.51,348240.48,7363797.24
"8529",8529,1978,6,"b","Buffalo",30,-23.6,31.32,328584.59,7389051.57
"8572",8572,1978,6,"b","Buffalo",200,-23.74,31.38,334883.74,7373618.67
"8595",8595,1978,6,"b","Buffalo",100,-23.66,31.4,336823.11,7382500.87
"8658",8658,1978,7,"b","Buffalo",50,-23.66,31.17,313361.32,7382218.95
"8678",8678,1978,7,"b","Buffalo",150,-23.7,31.28,324635.84,7377928.77
"8711",8711,1978,8,"b","Buffalo",150,-23.51,31.28,324382.83,7398969.82
"8809",8809,1978,9,"b","Buffalo",300,-23.56,31.13,309135.99,7393240.93
"8827",8827,1978,9,"b","Buffalo",250,-23.53,31.13,309092.66,7396563.36
"8924",8924,1978,10,"b","Buffalo",150,-23.31,31.05,300593.66,7420819.55
"9105",9105,1978,11,"b","Buffalo",150,-23.24,31.3,326073.24,7428893.57
"9147",9147,1978,12,"b","Buffalo",160,-23.24,31.01,296395.71,7428516.35
"9171",9171,1978,12,"b","Buffalo",80,-23.24,31.05,300489.36,7428571.91
"9173",9173,1978,12,"b","Buffalo",200,-23.24,31.07,302536.16,7428599.27
"9217",9217,1978,12,"b","Buffalo",50,-23.22,31.15,310694.99,7430920.73
"9324",9324,1978,13,"b","Buffalo",20,-23.83,31.61,358427.09,7363900.7
"9359",9359,1978,13,"b","Buffalo",400,-23.7,31.61,358286.32,7378295.95
"9388",9388,1978,13,"b","Buffalo",200,-23.83,31.63,360464.37,7363920.53
"9476",9476,1978,14,"b","Buffalo",50,-23.6,31.46,342871.67,7389212.34
"9488",9488,1978,14,"b","Buffalo",80,-23.56,31.48,344865.61,7393663.55
"9496",9496,1978,14,"b","Buffalo",150,-23.53,31.46,342788.35,7396963.79
"9637",9637,1978,15,"b","Buffalo",400,-23.33,31.51,347664.37,7419164.01
"9666",9666,1978,18,"b","Buffalo",1,-23.18,31.36,332138.04,7435608.25
"9686",9686,1978,18,"b","Buffalo",180,-23.18,31.38,334185.52,7435631.19
"9705",9705,1978,18,"b","Buffalo",50,-23.16,31.38,334160.88,7437845.84
"9710",9710,1978,18,"b","Buffalo",100,-23.16,31.4,336208.65,7437868.48
"9744",9744,1978,18,"b","Buffalo",100,-23.18,31.44,340327.87,7435698.3
"9819",9819,1978,18,"b","Buffalo",70,-23.14,31.46,342328.46,7440149.3
"9949",9949,1978,19,"b","Buffalo",1,-23.72,31.67,364424.9,7376139.73
"10006",10006,1978,19,"b","Buffalo",40,-23.93,31.78,375839.12,7352987.16
"10081",10081,1978,20,"b","Buffalo",30,-24.1,31.42,339407.26,7333797.69
"10137",10137,1978,20,"b","Buffalo",150,-24.1,31.65,362787.83,7334041.85
"10250",10250,1978,21,"b","Buffalo",80,-24.24,31.61,358875.79,7318498.8
"10254",10254,1978,21,"b","Buffalo",300,-24.18,31.59,356777.89,7325122.78
"10282",10282,1978,21,"b","Buffalo",60,-24.18,31.63,360841.45,7325163.17
"10339",10339,1978,22,"b","Buffalo",70,-24.41,31.42,339796.27,7299466.52
"10366",10366,1978,22,"b","Buffalo",200,-24.43,31.46,343877.34,7297297.24
"10481",10481,1978,23,"b","Buffalo",250,-24.24,31.65,362937.43,7318538.68
"10605",10605,1978,23,"b","Buffalo",150,-24.12,31.71,368907.23,7331884.55
"10885",10885,1978,25,"b","Buffalo",200,-24.06,31.8,377997.36,7338609.67
"11186",11186,1978,26,"b","Buffalo",30,-24.35,31.9,388417.93,7306581.04
"11276",11276,1978,27,"b","Buffalo",200,-24.31,31.94,392442.01,7311041.83
"11287",11287,1978,27,"b","Buffalo",400,-24.33,31.94,392458.88,7308827.21
"11292",11292,1978,27,"b","Buffalo",15,-24.26,31.94,392399.88,7316578.36
"11378",11378,1978,28,"b","Buffalo",50,-24.47,31.78,376361.13,7293191.02
"11541",11541,1978,28,"b","Buffalo",150,-24.47,31.94,392577.38,7293324.68
"11586",11586,1978,28,"b","Buffalo",14,-24.53,31.96,394654.38,7286696.08
"11743",11743,1978,29,"b","Buffalo",400,-24.53,31.84,382498.08,7286599.17
"11958",11958,1978,31,"b","Buffalo",400,-24.51,31.63,361201.73,7288618.98
"12008",12008,1978,31,"b","Buffalo",150,-24.62,31.69,367397.01,7276496.44
"12090",12090,1978,31,"b","Buffalo",50,-24.56,31.73,371385.1,7283178.85
"12116",12116,1978,31,"b","Buffalo",5,-24.47,31.73,371293.42,7293145.4
"12158",12158,1978,31,"b","Buffalo",40,-24.43,31.76,374294.37,7297602.5
"12263",12263,1978,32,"b","Buffalo",100,-24.43,31.53,350974.88,7297374.37
"12336",12336,1978,32,"b","Buffalo",150,-24.43,31.59,357058.37,7297437.61
"12636",12636,1978,35,"b","Buffalo",350,-24.87,31.65,363620.69,7248771.05
"12808",12808,1978,36,"b","Buffalo",800,-24.78,31.82,380709.88,7258897.27
"12882",12882,1978,37,"b","Buffalo",250,-25.16,31.94,393170.72,7216915.33
"12970",12970,1978,37,"b","Buffalo",170,-25.14,31.96,395169.42,7219145.88
"13059",13059,1978,37,"b","Buffalo",40,-24.93,31.98,397010.32,7242416.78
"13233",13233,1978,38,"b","Buffalo",40,-25.01,31.84,382949.03,7233443.97
"13251",13251,1978,38,"b","Buffalo",500,-24.97,31.84,382911.14,7237873.7
"13711",13711,1978,40,"b","Buffalo",60,-25.2,31.32,330731.57,7211849.42
"13782",13782,1978,41,"b","Buffalo",80,-25.31,31.4,338938.54,7199764.09
"13926",13926,1978,41,"b","Buffalo",200,-25.14,31.46,344763.57,7218663.67
"13952",13952,1978,41,"b","Buffalo",15,-25.18,31.51,349853.44,7214290.1
"14302",14302,1978,47,"b","Buffalo",150,-22.7,31.15,309969.44,7488505.31
"14305",14305,1978,47,"b","Buffalo",2,-22.66,31.15,309914.27,7492934.76
"14325",14325,1978,47,"b","Buffalo",600,-22.81,31.21,316281.27,7476400.12
"14506",14506,1978,48,"b","Buffalo",30,-22.81,31.4,335785.92,7476623.88
"14577",14577,1978,49,"b","Buffalo",350,-22.99,31.36,331901.85,7456647.43
"14583",14583,1978,49,"b","Buffalo",300,-22.93,31.36,331827.65,7463291.29
"14598",14598,1978,49,"b","Buffalo",2,-22.99,31.38,333952.21,7456670.22
"14663",14663,1978,50,"b","Buffalo",300,-23.08,31.44,340209.41,7446771.31
"14768",14768,1978,51,"b","Buffalo",50,-22.72,31.36,331569.38,7486544.42
"14773",14773,1978,51,"b","Buffalo",100,-22.68,31.34,329465.41,7490950.7
"14792",14792,1978,52,"b","Buffalo",400,-23.06,31.19,314568.99,7448690.72
"15028",15028,1978,53,"b","Buffalo",250,-23.14,31.05,300340.88,7439646.6
"15072",15072,1978,53,"b","Buffalo",30,-23.16,31.11,306514.55,7437512.68
"15132",15132,1978,54,"b","Buffalo",10,-22.95,30.94,288778.48,7460534.17
"15169",15169,1978,54,"b","Buffalo",100,-22.93,31.01,295927.98,7462848.07
"15191",15191,1978,54,"b","Buffalo",600,-22.99,31.05,300119.3,7456258.41
"15427",15427,1978,55,"b","Buffalo",80,-22.78,31.11,305972.63,7479594.44
"15474",15474,1978,55,"b","Buffalo",100,-22.81,31.17,312174.85,7476349.81
"15482",15482,1978,55,"b","Buffalo",200,-22.76,31.17,312106.34,7481886.64
