"","ID","Year","Cenb","Sp","Description","No","Lat","Long","X.coord","Y.coord"
"177533",177533,1986,35,"wr","White rhino",4,-24.92,31.66,364685.55,7243243.69
"178011",178011,1986,36,"wr","White rhino",3,-24.82,31.7,368619.55,7254357.43
"178445",178445,1986,29,"wr","White rhino",1,-24.59,31.85,383566.56,7279963.44
"178448",178448,1986,29,"wr","White rhino",2,-24.59,31.83,381541.44,7279946.38
"178538",178538,1986,29,"wr","White rhino",3,-24.64,31.84,382600.7,7274418.06
"178551",178551,1986,29,"wr","White rhino",5,-24.66,31.84,382619.4,7272203.29
"178553",178553,1986,29,"wr","White rhino",4,-24.66,31.85,383631.39,7272211.81
"178660",178660,1986,29,"wr","White rhino",3,-24.69,31.86,384670.98,7268898.1
"178662",178662,1986,29,"wr","White rhino",1,-24.69,31.86,384670.98,7268898.1
"178671",178671,1986,29,"wr","White rhino",3,-24.7,31.85,383668.52,7267782.27
"178674",178674,1986,29,"wr","White rhino",3,-24.69,31.83,381635.73,7268872.54
"178743",178743,1986,42,"wr","White rhino",2,-25.31,31.59,358067.23,7199978.95
"178746",178746,1986,42,"wr","White rhino",3,-25.31,31.58,357060.48,7199968.32
"178783",178783,1986,42,"wr","White rhino",7,-25.29,31.59,358043.92,7202194.04
"178784",178784,1986,42,"wr","White rhino",2,-25.29,31.59,358043.92,7202194.04
"178794",178794,1986,42,"wr","White rhino",2,-25.29,31.57,356030.1,7202172.71
"178803",178803,1986,42,"wr","White rhino",2,-25.28,31.58,357025.29,7203290.96
"178829",178829,1986,42,"wr","White rhino",1,-25.27,31.6,359027.72,7204419.67
"178854",178854,1986,42,"wr","White rhino",2,-25.28,31.57,356018.29,7203280.26
"178857",178857,1986,42,"wr","White rhino",1,-25.27,31.56,354999.4,7204377.04
"178859",178859,1986,42,"wr","White rhino",2,-25.27,31.56,354999.4,7204377.04
"178904",178904,1986,42,"wr","White rhino",3,-25.26,31.59,358009.01,7205516.67
"178931",178931,1986,42,"wr","White rhino",1,-25.29,31.55,354016.26,7202151.09
"178953",178953,1986,42,"wr","White rhino",2,-25.27,31.53,351978.14,7204344.28
"178992",178992,1986,42,"wr","White rhino",3,-25.25,31.52,350946.62,7206548.33
"179029",179029,1986,42,"wr","White rhino",2,-25.23,31.59,357974.13,7208839.28
"179033",179033,1986,42,"wr","White rhino",1,-25.24,31.6,358993.07,7207742.28
"179044",179044,1986,42,"wr","White rhino",3,-25.23,31.6,358981.53,7208849.81
"179065",179065,1986,42,"wr","White rhino",1,-25.21,31.6,358958.46,7211064.87
"179081",179081,1986,42,"wr","White rhino",2,-25.24,31.53,351941.76,7207666.95
"179087",179087,1986,42,"wr","White rhino",2,-25.25,31.51,349939.36,7206537.2
"179111",179111,1986,42,"wr","White rhino",2,-25.2,31.6,358946.94,7212172.4
"179117",179117,1986,42,"wr","White rhino",2,-25.17,31.61,359920.28,7215505.41
"179120",179120,1986,42,"wr","White rhino",2,-25.18,31.61,359931.71,7214397.89
"179123",179123,1986,42,"wr","White rhino",3,-25.18,31.6,358923.9,7214387.45
"179185",179185,1986,42,"wr","White rhino",4,-25.2,31.55,353908.65,7212119.03
"179193",179193,1986,42,"wr","White rhino",3,-25.21,31.52,350897.83,7210978.56
"179202",179202,1986,42,"wr","White rhino",2,-25.19,31.54,352888.97,7213215.68
"179217",179217,1986,42,"wr","White rhino",2,-25.16,31.61,359908.85,7216612.93
"179256",179256,1986,42,"wr","White rhino",5,-25.18,31.52,350861.28,7214301.22
"179262",179262,1986,42,"wr","White rhino",2,-25.17,31.54,352864.95,7215430.77
"179287",179287,1986,42,"wr","White rhino",1,-25.16,31.51,349828.94,7216505.21
"179288",179288,1986,42,"wr","White rhino",2,-25.16,31.51,349828.94,7216505.21
"179310",179310,1986,42,"wr","White rhino",3,-25.14,31.58,356861.57,7218796.46
"179315",179315,1986,42,"wr","White rhino",3,-25.14,31.58,356861.57,7218796.46
"179336",179336,1986,42,"wr","White rhino",2,-25.13,31.57,355841.68,7219893.33
"179345",179345,1986,42,"wr","White rhino",2,-25.14,31.54,352828.95,7218753.39
"179349",179349,1986,42,"wr","White rhino",1,-25.14,31.53,351820.79,7218742.44
"179359",179359,1986,42,"wr","White rhino",2,-25.13,31.57,355841.68,7219893.33
"179402",179402,1986,42,"wr","White rhino",6,-25.11,31.56,354809.8,7222097.66
"179640",179640,1986,42,"wr","White rhino",2,-25.06,31.56,354750.78,7227635.28
"179733",179733,1986,37,"wr","White rhino",3,-24.86,31.96,394931.53,7250153.19
"179855",179855,1986,37,"wr","White rhino",2,-24.84,31.91,389862.07,7252328.5
"180378",180378,1986,37,"wr","White rhino",5,-24.99,31.97,396050.96,7235764.79
"180598",180598,1986,39,"wr","White rhino",1,-25.01,31.31,329460.39,7232881.42
"180649",180649,1986,39,"wr","White rhino",2,-25.03,31.34,332515.42,7230703.68
"180653",180653,1986,39,"wr","White rhino",3,-25.03,31.32,330497.17,7230678.78
"180660",180660,1986,39,"wr","White rhino",2,-25.02,31.31,329474.21,7231773.82
"180700",180700,1986,39,"wr","White rhino",2,-25.04,31.32,330510.91,7229571.18
"180703",180703,1986,39,"wr","White rhino",2,-25.05,31.31,329515.7,7228451.02
"180710",180710,1986,39,"wr","White rhino",3,-25.06,31.32,330538.42,7227355.98
"180712",180712,1986,39,"wr","White rhino",3,-25.06,31.34,332556.19,7227380.9
"180741",180741,1986,39,"wr","White rhino",6,-25.07,31.27,325508.12,7226184.76
"180743",180743,1986,39,"wr","White rhino",2,-25.06,31.27,325493.95,7227292.38
"180761",180761,1986,39,"wr","White rhino",2,-25.07,31.3,328534.57,7226223.15
"180763",180763,1986,39,"wr","White rhino",2,-25.07,31.32,330552.19,7226248.38
"180765",180765,1986,39,"wr","White rhino",2,-25.07,31.32,330552.19,7226248.38
"180774",180774,1986,39,"wr","White rhino",1,-25.07,31.35,333578.58,7226285.65
"180780",180780,1986,39,"wr","White rhino",8,-25.07,31.37,335596.17,7226310.13
"180791",180791,1986,39,"wr","White rhino",2,-25.07,31.36,334587.38,7226297.93
"180796",180796,1986,39,"wr","White rhino",2,-25.07,31.34,332569.79,7226273.3
"180797",180797,1986,39,"wr","White rhino",2,-25.08,31.34,332583.39,7225165.71
"180801",180801,1986,39,"wr","White rhino",2,-25.08,31.37,335609.52,7225202.55
"180803",180803,1986,39,"wr","White rhino",2,-25.08,31.37,335609.52,7225202.55
"180807",180807,1986,39,"wr","White rhino",2,-25.08,31.35,333592.11,7225178.06
"180814",180814,1986,39,"wr","White rhino",2,-25.08,31.34,332583.39,7225165.71
"180816",180816,1986,39,"wr","White rhino",3,-25.08,31.33,331574.67,7225153.28
"180819",180819,1986,39,"wr","White rhino",2,-25.1,31.33,331602.06,7222938.07
"180824",180824,1986,39,"wr","White rhino",2,-25.08,31.32,330565.95,7225140.77
"180827",180827,1986,39,"wr","White rhino",3,-25.08,31.31,329557.23,7225128.2
"180831",180831,1986,39,"wr","White rhino",2,-25.08,31.28,326531.04,7225090.01
"180842",180842,1986,39,"wr","White rhino",2,-25.1,31.27,325550.67,7222861.89
"180851",180851,1986,39,"wr","White rhino",2,-25.08,31.25,323504.81,7225051.16
"180854",180854,1986,39,"wr","White rhino",2,-25.11,31.26,324556.37,7221741.3
"180861",180861,1986,39,"wr","White rhino",2,-25.12,31.3,328604.28,7220685.08
"180865",180865,1986,39,"wr","White rhino",2,-25.11,31.31,329598.81,7221805.36
"180868",180868,1986,39,"wr","White rhino",3,-25.11,31.32,330607.29,7221817.95
"180888",180888,1986,39,"wr","White rhino",1,-25.12,31.25,323562.24,7220620.62
"180889",180889,1986,39,"wr","White rhino",1,-25.12,31.24,322553.82,7220607.51
"180890",180890,1986,39,"wr","White rhino",1,-25.12,31.22,320536.97,7220581.05
"180891",180891,1986,39,"wr","White rhino",1,-25.12,31.22,320536.97,7220581.05
"180912",180912,1986,39,"wr","White rhino",1,-25.15,31.25,323605.36,7217297.71
"180917",180917,1986,39,"wr","White rhino",2,-25.15,31.26,324613.53,7217310.76
"180922",180922,1986,39,"wr","White rhino",4,-25.14,31.27,325607.48,7218431.37
"180932",180932,1986,39,"wr","White rhino",2,-25.15,31.28,326629.86,7217336.64
"180939",180939,1986,33,"wr","White rhino",1,-24.76,31.67,365522.66,7260972.91
"181084",181084,1986,33,"wr","White rhino",3,-24.67,31.65,363401.99,7270920.1
"181091",181091,1986,33,"wr","White rhino",4,-24.66,31.66,364403.14,7272037.45
"181406",181406,1986,38,"wr","White rhino",1,-24.98,31.85,383930,7236774.86
"181678",181678,1986,34,"wr","White rhino",3,-24.7,31.8,378610.16,7267738.91
"181681",181681,1986,34,"wr","White rhino",3,-24.71,31.8,378619.85,7266631.51
"181682",181682,1986,34,"wr","White rhino",2,-24.71,31.79,377608.25,7266622.62
"181712",181712,1986,34,"wr","White rhino",1,-24.72,31.76,374583.46,7265488.08
"181752",181752,1986,34,"wr","White rhino",4,-24.62,31.74,372458.74,7276543.74
"181784",181784,1986,34,"wr","White rhino",2,-24.62,31.7,368409.36,7276506.05
"181815",181815,1986,34,"wr","White rhino",4,-24.64,31.71,369442.49,7274300.75
"181853",181853,1986,34,"wr","White rhino",3,-24.65,31.75,373501.29,7273230.77
"181856",181856,1986,34,"wr","White rhino",1,-24.65,31.75,373501.29,7273230.77
"181963",181963,1986,34,"wr","White rhino",7,-24.67,31.71,369473.7,7270978.5
"181965",181965,1986,34,"wr","White rhino",2,-24.67,31.71,369473.7,7270978.5
"181983",181983,1986,34,"wr","White rhino",1,-24.68,31.69,367460.38,7269851.9
"181985",181985,1986,34,"wr","White rhino",2,-24.68,31.69,367460.38,7269851.9
"181998",181998,1986,34,"wr","White rhino",5,-24.69,31.7,368482.74,7268754.1
"182010",182010,1986,34,"wr","White rhino",6,-24.69,31.72,370506.31,7268773.13
"182162",182162,1986,34,"wr","White rhino",1,-24.74,31.73,371569.41,7263245.43
"182276",182276,1986,40,"wr","White rhino",2,-25.18,31.29,327680.2,7214026.59
"182277",182277,1986,40,"wr","White rhino",1,-25.18,31.29,327680.2,7214026.59
"182278",182278,1986,40,"wr","White rhino",2,-25.18,31.29,327680.2,7214026.59
"182295",182295,1986,40,"wr","White rhino",1,-25.17,31.35,333714.03,7215209.66
"182319",182319,1986,40,"wr","White rhino",1,-25.21,31.33,331753.05,7210754.35
"182331",182331,1986,40,"wr","White rhino",3,-25.18,31.3,328688.11,7214039.35
"182339",182339,1986,40,"wr","White rhino",1,-25.2,31.3,328716.09,7211824.1
"182345",182345,1986,40,"wr","White rhino",2,-25.19,31.3,328702.1,7212931.73
"182416",182416,1986,40,"wr","White rhino",2,-25.23,31.31,329765.6,7208513.92
"182451",182451,1986,40,"wr","White rhino",1,-25.26,31.32,330814.65,7205203.67
"182486",182486,1986,40,"wr","White rhino",1,-25.3,31.31,329863.24,7200760.48
"182507",182507,1986,40,"wr","White rhino",2,-25.32,31.31,329891.18,7198545.2
"182514",182514,1986,40,"wr","White rhino",3,-25.33,31.31,329905.16,7197437.56
"182516",182516,1986,40,"wr","White rhino",2,-25.33,31.29,327891.82,7197411.99
"182527",182527,1986,40,"wr","White rhino",1,-25.34,31.31,329919.14,7196329.91
"182531",182531,1986,40,"wr","White rhino",2,-25.34,31.32,330925.72,7196342.59
"182561",182561,1986,57,"wr","White rhino",2,-25.16,31.68,366964.62,7216683.89
"182568",182568,1986,57,"wr","White rhino",2,-25.15,31.7,368969.85,7217810.98
"182598",182598,1986,57,"wr","White rhino",1,-25.17,31.78,377054.11,7215671.42
"182599",182599,1986,57,"wr","White rhino",2,-25.16,31.76,375028.21,7216760.49
"182601",182601,1986,57,"wr","White rhino",3,-25.15,31.75,374010,7217858.65
"182630",182630,1986,57,"wr","White rhino",1,-25.15,31.79,378042.07,7217895.45
"182638",182638,1986,57,"wr","White rhino",2,-25.14,31.76,375007.83,7218975.44
"182645",182645,1986,57,"wr","White rhino",5,-25.13,31.77,376005.84,7220092.14
"182672",182672,1986,57,"wr","White rhino",1,-25.14,31.8,379040.23,7219011.92
"182694",182694,1986,57,"wr","White rhino",1,-25.08,31.74,372929.6,7225601.6
"182724",182724,1986,57,"wr","White rhino",2,-25.11,31.81,380019.01,7222343.23
"182725",182725,1986,57,"wr","White rhino",3,-25.11,31.82,381027.35,7222352.08
"182742",182742,1986,57,"wr","White rhino",2,-25.1,31.83,382026.09,7223468.31
"183141",183141,1986,57,"wr","White rhino",2,-23.37,31.15,310907.18,7414309.16
"183317",183317,1986,31,"wr","White rhino",3,-24.42,31.64,362116.99,7298595.71
"183621",183621,1986,31,"wr","White rhino",2,-24.49,31.71,369286.99,7290911.85
"183763",183763,1986,31,"wr","White rhino",3,-24.55,31.73,371374.9,7284286.25
"183940",183940,1986,25,"wr","White rhino",1,-24.14,31.81,379089.29,7329759.81
"184441",184441,1986,25,"wr","White rhino",2,-24.1,31.87,385150.47,7334239.5
"184524",184524,1986,25,"wr","White rhino",1,-24.15,31.83,381130.84,7328669.62
"185363",185363,1986,24,"wr","White rhino",2,-24.36,31.72,370167.37,7305317.26
"185509",185509,1986,24,"wr","White rhino",5,-24.31,31.68,366057.06,7310816.2
"185578",185578,1986,24,"wr","White rhino",1,-24.28,31.61,358919.95,7314069.22
"185605",185605,1986,24,"wr","White rhino",2,-24.28,31.67,365010.48,7314128.68
"186198",186198,1986,58,"wr","White rhino",3,-25.15,31.65,363929.64,7217761.44
"186199",186199,1986,58,"wr","White rhino",2,-25.16,31.66,364948.7,7216663.99
"186217",186217,1986,58,"wr","White rhino",2,-25.16,31.62,360916.83,7216623.3
"186220",186220,1986,58,"wr","White rhino",2,-25.17,31.63,361936.06,7215526.07
"186229",186229,1986,58,"wr","White rhino",1,-25.17,31.65,363951.84,7215546.42
"186275",186275,1986,58,"wr","White rhino",3,-25.04,31.67,365825.78,7229963.89
"186296",186296,1986,58,"wr","White rhino",3,-25.05,31.68,366845.52,7228866.29
"186297",186297,1986,58,"wr","White rhino",2,-25.05,31.68,366845.52,7228866.29
"186305",186305,1986,58,"wr","White rhino",5,-25.03,31.69,367832.95,7231091.05
"186330",186330,1986,58,"wr","White rhino",3,-25.08,31.72,370912.4,7225582.64
"186371",186371,1986,58,"wr","White rhino",1,-25.06,31.75,373917.72,7227825.9
"186474",186474,1986,11,"wr","White rhino",4,-23.37,31.27,323175.32,7414461.24
"186481",186481,1986,11,"wr","White rhino",1,-23.36,31.27,323162.06,7415568.64
"186513",186513,1986,11,"wr","White rhino",1,-23.37,31.22,318063.66,7414399.12
"186635",186635,1986,11,"wr","White rhino",1,-23.24,31.2,315839.98,7428770.2
"186660",186660,1986,11,"wr","White rhino",2,-23.22,31.26,321953.44,7431059.84
"186860",186860,1986,22,"wr","White rhino",2,-24.43,31.39,336779.64,7297216.53
"186993",186993,1986,22,"wr","White rhino",3,-24.46,31.46,343914.3,7293974.84
"188648",188648,1986,9,"wr","White rhino",1,-23.44,31.19,315093.93,7406608.94
"188650",188650,1986,9,"wr","White rhino",2,-23.43,31.2,316101.9,7407729.19
"188652",188652,1986,9,"wr","White rhino",1,-23.43,31.2,316101.9,7407729.19
"188655",188655,1986,9,"wr","White rhino",1,-23.45,31.21,317151.32,7405527.06
"188803",188803,1986,8,"wr","White rhino",3,-23.48,31.31,327407.46,7402328.39
"188821",188821,1986,8,"wr","White rhino",4,-23.49,31.31,327420.48,7401221
"188824",188824,1986,8,"wr","White rhino",4,-23.48,31.32,328428.92,7402340.37
"188837",188837,1986,8,"wr","White rhino",4,-23.48,31.35,331493.28,7402375.86
"188898",188898,1986,8,"wr","White rhino",3,-23.5,31.36,332540,7400172.79
"189056",189056,1986,30,"wr","White rhino",4,-24.6,31.98,396737.78,7278959.84
"189281",189281,1986,30,"wr","White rhino",5,-24.7,31.95,393785.08,7267863.44
"189333",189333,1986,30,"wr","White rhino",2,-24.71,31.95,393793.56,7266756.07
"189357",189357,1986,30,"wr","White rhino",1,-24.73,31.91,389764.91,7264509.73
"189508",189508,1986,30,"wr","White rhino",2,-24.76,31.93,391813.7,7261203.56
"189840",189840,1986,46,"wr","White rhino",1,-25.26,32,399300.4,7205887.3
"189847",189847,1986,46,"wr","White rhino",1,-25.23,32.01,400282.98,7209217.04
"189947",189947,1986,46,"wr","White rhino",1,-25.18,32,399234.51,7214746.71
"189987",189987,1986,46,"wr","White rhino",1,-25.2,31.98,397235.85,7212516.74
"190043",190043,1986,46,"wr","White rhino",2,-25.25,31.97,396270.71,7206971.89
"190045",190045,1986,46,"wr","White rhino",4,-25.24,31.97,396262.22,7208079.33
"190069",190069,1986,46,"wr","White rhino",1,-25.26,31.98,397286.27,7205872.14
"190078",190078,1986,46,"wr","White rhino",3,-25.24,31.94,393240.51,7208055.83
"190084",190084,1986,46,"wr","White rhino",2,-25.27,31.95,394273.73,7204741.41
"190091",190091,1986,46,"wr","White rhino",1,-25.28,31.97,396296.21,7203649.57
"190095",190095,1986,46,"wr","White rhino",3,-25.3,31.98,397319.95,7201442.38
"190104",190104,1986,46,"wr","White rhino",2,-25.28,31.95,394282.4,7203633.96
"190349",190349,1986,27,"wr","White rhino",1,-24.35,31.97,395519.13,7306635.46
"190582",190582,1986,27,"wr","White rhino",4,-24.29,31.9,388365.39,7313224.96
"190648",190648,1986,27,"wr","White rhino",2,-24.25,31.9,388330.43,7317654.22
"190649",190649,1986,27,"wr","White rhino",2,-24.25,31.89,387315.17,7317646.18
"190650",190650,1986,27,"wr","White rhino",2,-24.25,31.89,387315.17,7317646.18
"190652",190652,1986,27,"wr","White rhino",4,-24.25,31.88,386299.91,7317638.06
"190698",190698,1986,27,"wr","White rhino",1,-24.22,31.89,387288.75,7320968.11
"190728",190728,1986,27,"wr","White rhino",2,-24.2,31.84,382192.82,7323141.49
"190792",190792,1986,28,"wr","White rhino",3,-24.57,31.88,386586.2,7282203.21
"190827",190827,1986,28,"wr","White rhino",2,-24.56,31.89,387589.99,7283318.77
"191158",191158,1986,28,"wr","White rhino",8,-24.41,31.79,377316.6,7299844.12
"192077",192077,1986,53,"wr","White rhino",5,-25.36,31.6,359131.88,7194451.77
"192092",192092,1986,53,"wr","White rhino",1,-25.41,31.62,361201.72,7188934.95
"192119",192119,1986,53,"wr","White rhino",1,-25.32,31.6,359085.54,7198881.96
"192170",192170,1986,53,"wr","White rhino",1,-25.37,31.62,361155.96,7193365.14
"192185",192185,1986,53,"wr","White rhino",2,-25.32,31.61,360092.2,7198892.45
"192213",192213,1986,53,"wr","White rhino",2,-25.35,31.63,362139.51,7195590.58
"192215",192215,1986,53,"wr","White rhino",2,-25.35,31.63,362139.51,7195590.58
"192220",192220,1986,53,"wr","White rhino",2,-25.36,31.64,363157.17,7194493.31
"192237",192237,1986,53,"wr","White rhino",2,-25.36,31.65,364163.49,7194503.5
"192246",192246,1986,53,"wr","White rhino",1,-25.31,31.62,361087.45,7200010.39
"192278",192278,1986,53,"wr","White rhino",3,-25.35,31.66,365158.71,7195621.15
"192280",192280,1986,53,"wr","White rhino",2,-25.37,31.66,365180.9,7193406.09
"192320",192320,1986,53,"wr","White rhino",2,-25.36,31.68,367182.42,7194533.63
"192346",192346,1986,53,"wr","White rhino",3,-25.29,31.66,365092.23,7202266.31
"192547",192547,1986,45,"wr","White rhino",1,-25.12,31.88,387086.51,7221296.18
"192553",192553,1986,45,"wr","White rhino",1,-25.12,31.9,389102.98,7221312.76
"192602",192602,1986,45,"wr","White rhino",2,-25.11,31.86,385060.67,7222386.74
"192612",192612,1986,45,"wr","White rhino",3,-25.12,31.86,385070.02,7221279.29
"192647",192647,1986,45,"wr","White rhino",2,-25.12,31.84,383053.53,7221262.11
"192659",192659,1986,45,"wr","White rhino",2,-25.13,31.85,384071.22,7220163.29
"192668",192668,1986,45,"wr","White rhino",2,-25.14,31.88,387104.89,7219081.3
"192693",192693,1986,45,"wr","White rhino",2,-25.15,31.9,389130.07,7217990.45
"192700",192700,1986,45,"wr","White rhino",2,-25.14,31.87,386096.82,7219072.89
"192725",192725,1986,45,"wr","White rhino",3,-25.15,31.87,386106.1,7217965.44
"192731",192731,1986,45,"wr","White rhino",4,-25.16,31.89,388131.21,7216874.75
"192738",192738,1986,45,"wr","White rhino",2,-25.16,31.92,391154.92,7216899.32
"192760",192760,1986,45,"wr","White rhino",1,-25.18,31.91,390164.94,7214676.32
"192764",192764,1986,45,"wr","White rhino",3,-25.17,31.89,388140.33,7215767.3
"192786",192786,1986,45,"wr","White rhino",2,-25.16,31.82,381075.8,7216814.8
"192802",192802,1986,45,"wr","White rhino",1,-25.17,31.87,386124.67,7215750.54
"192826",192826,1986,45,"wr","White rhino",2,-25.18,31.88,387141.71,7214651.51
"192840",192840,1986,45,"wr","White rhino",1,-25.2,31.92,391190.45,7212469.56
"192879",192879,1986,45,"wr","White rhino",2,-25.18,31.8,379079.68,7214582.06
"192885",192885,1986,45,"wr","White rhino",2,-25.18,31.81,380087.44,7214591
"192886",192886,1986,45,"wr","White rhino",1,-25.18,31.82,381095.2,7214599.87
"192903",192903,1986,45,"wr","White rhino",2,-25.19,31.86,385135.6,7213527.14
"192911",192911,1986,45,"wr","White rhino",2,-25.19,31.86,385135.6,7213527.14
"192928",192928,1986,45,"wr","White rhino",2,-25.19,31.8,379089.55,7213474.59
"192929",192929,1986,45,"wr","White rhino",2,-25.2,31.8,379099.42,7212367.12
"192930",192930,1986,45,"wr","White rhino",2,-25.19,31.82,381104.91,7213492.41
"192936",192936,1986,45,"wr","White rhino",2,-25.2,31.84,383129.8,7212402.47
"192952",192952,1986,45,"wr","White rhino",2,-25.22,31.92,391208.24,7210254.68
"192956",192956,1986,45,"wr","White rhino",2,-25.22,31.93,392215.64,7210262.73
"192969",192969,1986,45,"wr","White rhino",2,-25.22,31.91,390200.83,7210246.55
"192975",192975,1986,45,"wr","White rhino",1,-25.21,31.87,386161.86,7211320.73
"192976",192976,1986,45,"wr","White rhino",1,-25.2,31.86,385144.98,7212419.69
"192984",192984,1986,45,"wr","White rhino",2,-25.2,31.83,382122.21,7212393.74
"192986",192986,1986,45,"wr","White rhino",1,-25.2,31.82,381114.62,7212384.94
"192996",192996,1986,45,"wr","White rhino",2,-25.2,31.82,381114.62,7212384.94
"193010",193010,1986,45,"wr","White rhino",2,-25.21,31.8,379109.3,7211259.65
"193011",193011,1986,45,"wr","White rhino",4,-25.21,31.81,380116.82,7211268.6
"193018",193018,1986,45,"wr","White rhino",1,-25.21,31.84,383139.35,7211295
"193019",193019,1986,45,"wr","White rhino",2,-25.21,31.84,383139.35,7211295
"193030",193030,1986,45,"wr","White rhino",3,-25.22,31.84,383148.9,7210187.54
"193061",193061,1986,45,"wr","White rhino",1,-25.24,31.84,383168.02,7207972.61
"193071",193071,1986,45,"wr","White rhino",2,-25.23,31.8,379129.07,7209044.7
"193097",193097,1986,45,"wr","White rhino",3,-25.25,31.82,381163.23,7206847.59
"193114",193114,1986,45,"wr","White rhino",2,-25.23,31.9,389202.48,7209130.89
"193116",193116,1986,45,"wr","White rhino",1,-25.23,31.93,392224.46,7209155.29
"193122",193122,1986,45,"wr","White rhino",2,-25.23,31.89,388195.15,7209122.61
"193131",193131,1986,45,"wr","White rhino",3,-25.23,31.86,385173.14,7209097.31
"193134",193134,1986,45,"wr","White rhino",2,-25.23,31.86,385173.14,7209097.31
"193158",193158,1986,45,"wr","White rhino",2,-25.24,31.86,385182.54,7207989.85
"193159",193159,1986,45,"wr","White rhino",2,-25.24,31.86,385182.54,7207989.85
"193172",193172,1986,45,"wr","White rhino",2,-25.27,31.9,389238.76,7204701.08
"193179",193179,1986,45,"wr","White rhino",3,-25.28,31.9,389247.84,7203593.62
"193181",193181,1986,45,"wr","White rhino",2,-25.28,31.89,388240.92,7203585.32
"193183",193183,1986,45,"wr","White rhino",2,-25.26,31.89,388222.6,7205800.24
"193225",193225,1986,45,"wr","White rhino",1,-25.3,31.91,390272.76,7201386.92
"193227",193227,1986,45,"wr","White rhino",1,-25.31,31.9,389275.1,7200271.24
"193237",193237,1986,45,"wr","White rhino",1,-25.33,31.89,388286.78,7198048
"193277",193277,1986,41,"wr","White rhino",4,-25.18,31.5,348845.6,7214278.91
"193285",193285,1986,41,"wr","White rhino",2,-25.24,31.47,345897.66,7207599.47
"193287",193287,1986,41,"wr","White rhino",2,-25.25,31.47,345910.28,7206491.89
"193322",193322,1986,41,"wr","White rhino",2,-25.15,31.49,347800.51,7217590.32
"193324",193324,1986,41,"wr","White rhino",1,-25.16,31.49,347812.92,7216482.76
"193325",193325,1986,41,"wr","White rhino",4,-25.17,31.49,347825.34,7215375.2
"193326",193326,1986,41,"wr","White rhino",1,-25.17,31.49,347825.34,7215375.2
"193331",193331,1986,41,"wr","White rhino",2,-25.2,31.48,346854.93,7212041.18
"193344",193344,1986,41,"wr","White rhino",1,-25.23,31.46,344877.61,7208695.53
"193350",193350,1986,41,"wr","White rhino",13,-25.22,31.47,345872.44,7209814.61
"193379",193379,1986,41,"wr","White rhino",2,-25.16,31.47,345796.89,7216460.02
"193386",193386,1986,41,"wr","White rhino",2,-25.2,31.47,345847.24,7212029.75
"193388",193388,1986,41,"wr","White rhino",6,-25.19,31.46,344826.87,7213125.83
"193398",193398,1986,41,"wr","White rhino",4,-25.14,31.47,345771.75,7218675.14
"193422",193422,1986,41,"wr","White rhino",1,-25.17,31.45,343793.6,7215329.4
"193432",193432,1986,41,"wr","White rhino",1,-25.2,31.46,344839.55,7212018.26
"193433",193433,1986,41,"wr","White rhino",2,-25.2,31.46,344839.55,7212018.26
"193446",193446,1986,41,"wr","White rhino",2,-25.22,31.44,342849.86,7209779.88
"193448",193448,1986,41,"wr","White rhino",2,-25.21,31.44,342837.01,7210887.46
"193451",193451,1986,41,"wr","White rhino",7,-25.21,31.43,341829.39,7210875.73
"193457",193457,1986,41,"wr","White rhino",8,-25.19,31.44,342811.32,7213102.61
"193465",193465,1986,41,"wr","White rhino",2,-25.16,31.45,343780.85,7216436.98
"193467",193467,1986,41,"wr","White rhino",6,-25.15,31.44,342760.01,7217532.91
"193468",193468,1986,41,"wr","White rhino",3,-25.14,31.44,342747.19,7218640.49
"193469",193469,1986,41,"wr","White rhino",3,-25.15,31.44,342760.01,7217532.91
"193479",193479,1986,41,"wr","White rhino",2,-25.19,31.44,342811.32,7213102.61
"193482",193482,1986,41,"wr","White rhino",2,-25.19,31.43,341803.54,7213090.9
"193484",193484,1986,41,"wr","White rhino",2,-25.19,31.43,341803.54,7213090.9
"193485",193485,1986,41,"wr","White rhino",2,-25.2,31.43,341816.46,7211983.31
"193486",193486,1986,41,"wr","White rhino",2,-25.2,31.42,340808.76,7211971.52
"193491",193491,1986,41,"wr","White rhino",6,-25.18,31.42,340782.75,7214186.69
"193493",193493,1986,41,"wr","White rhino",2,-25.17,31.41,339761.81,7215282.41
"193507",193507,1986,41,"wr","White rhino",2,-25.11,31.43,341700.33,7221951.5
"193510",193510,1986,41,"wr","White rhino",2,-25.11,31.42,340691.89,7221939.73
"193521",193521,1986,41,"wr","White rhino",2,-25.15,31.41,339735.67,7217497.57
"193522",193522,1986,41,"wr","White rhino",1,-25.15,31.41,339735.67,7217497.57
"193531",193531,1986,41,"wr","White rhino",6,-25.18,31.41,339774.89,7214174.82
"193535",193535,1986,41,"wr","White rhino",2,-25.2,31.41,339801.06,7211959.64
"193541",193541,1986,41,"wr","White rhino",2,-25.21,31.41,339814.15,7210852.05
"193544",193544,1986,41,"wr","White rhino",2,-25.21,31.4,338806.52,7210840.1
"193545",193545,1986,41,"wr","White rhino",5,-25.22,31.4,338819.7,7209732.51
"193547",193547,1986,41,"wr","White rhino",1,-25.21,31.39,337798.89,7210828.08
"193562",193562,1986,41,"wr","White rhino",3,-25.2,31.38,336777.92,7211923.58
"193565",193565,1986,41,"wr","White rhino",2,-25.2,31.37,335770.2,7211911.4
"193570",193570,1986,41,"wr","White rhino",3,-25.19,31.38,336764.59,7213031.18
"193572",193572,1986,41,"wr","White rhino",1,-25.19,31.38,336764.59,7213031.18
"193576",193576,1986,41,"wr","White rhino",2,-25.18,31.38,336751.26,7214138.77
"193582",193582,1986,41,"wr","White rhino",4,-25.18,31.39,337759.14,7214150.86
"193590",193590,1986,41,"wr","White rhino",2,-25.17,31.38,336737.93,7215246.37
"193601",193601,1986,41,"wr","White rhino",3,-25.16,31.38,336724.61,7216353.97
"193604",193604,1986,41,"wr","White rhino",2,-25.16,31.37,335716.56,7216341.81
"193605",193605,1986,41,"wr","White rhino",2,-25.16,31.37,335716.56,7216341.81
"193606",193606,1986,41,"wr","White rhino",2,-25.15,31.38,336711.3,7217461.56
"193609",193609,1986,41,"wr","White rhino",2,-25.15,31.4,338727.55,7217485.64
"193610",193610,1986,41,"wr","White rhino",4,-25.15,31.4,338727.55,7217485.64
"193612",193612,1986,41,"wr","White rhino",1,-25.15,31.38,336711.3,7217461.56
"193614",193614,1986,41,"wr","White rhino",3,-25.15,31.38,336711.3,7217461.56
"193618",193618,1986,41,"wr","White rhino",2,-25.15,31.37,335703.17,7217449.4
"193621",193621,1986,41,"wr","White rhino",2,-25.14,31.38,336697.99,7218569.15
"193622",193622,1986,41,"wr","White rhino",2,-25.14,31.4,338714.4,7218593.23
"193628",193628,1986,41,"wr","White rhino",2,-25.12,31.4,338688.12,7220808.39
"193632",193632,1986,41,"wr","White rhino",1,-25.12,31.37,335663,7220772.19
"193635",193635,1986,41,"wr","White rhino",2,-25.14,31.37,335689.77,7218557
"193639",193639,1986,41,"wr","White rhino",1,-25.14,31.36,334681.56,7218544.77
"193642",193642,1986,41,"wr","White rhino",2,-25.14,31.35,333673.34,7218532.47
"193644",193644,1986,41,"wr","White rhino",2,-25.13,31.36,334668.09,7219652.37
"193655",193655,1986,41,"wr","White rhino",2,-25.24,31.39,337838.7,7207505.28
"193657",193657,1986,41,"wr","White rhino",4,-25.25,31.39,337851.97,7206397.68
"193658",193658,1986,41,"wr","White rhino",1,-25.25,31.4,338859.27,7206409.72
"193670",193670,1986,41,"wr","White rhino",3,-25.26,31.43,341894.1,7205337.79
"193674",193674,1986,41,"wr","White rhino",2,-25.29,31.44,342939.94,7202026.77
"193675",193675,1986,41,"wr","White rhino",1,-25.28,31.44,342927.06,7203134.36
"193677",193677,1986,41,"wr","White rhino",2,-25.26,31.44,342901.31,7205349.54
"193679",193679,1986,41,"wr","White rhino",2,-25.26,31.45,343908.51,7205361.2
"193696",193696,1986,41,"wr","White rhino",2,-25.26,31.47,345922.9,7205384.31
"193702",193702,1986,41,"wr","White rhino",1,-25.26,31.48,346930.09,7205395.76
"193707",193707,1986,41,"wr","White rhino",2,-25.27,31.48,346942.63,7204288.18
"193716",193716,1986,41,"wr","White rhino",2,-25.23,31.36,334803.01,7208576.33
"193720",193720,1986,41,"wr","White rhino",2,-25.23,31.35,333795.54,7208564
"193733",193733,1986,41,"wr","White rhino",2,-25.24,31.36,334816.53,7207468.72
"193738",193738,1986,41,"wr","White rhino",3,-25.25,31.36,334830.06,7206361.11
"193745",193745,1986,41,"wr","White rhino",6,-25.24,31.38,336831.31,7207493.17
"193747",193747,1986,41,"wr","White rhino",2,-25.24,31.38,336831.31,7207493.17
"193749",193749,1986,41,"wr","White rhino",2,-25.25,31.37,335837.37,7206373.37
"193751",193751,1986,41,"wr","White rhino",3,-25.25,31.37,335837.37,7206373.37
"193753",193753,1986,41,"wr","White rhino",1,-25.25,31.36,334830.06,7206361.11
"193771",193771,1986,41,"wr","White rhino",2,-25.26,31.37,335850.81,7205265.76
"193777",193777,1986,41,"wr","White rhino",2,-25.25,31.39,337851.97,7206397.68
"193788",193788,1986,41,"wr","White rhino",3,-25.27,31.4,338885.68,7204194.51
"193790",193790,1986,41,"wr","White rhino",2,-25.27,31.4,338885.68,7204194.51
"193798",193798,1986,41,"wr","White rhino",3,-25.28,31.37,335877.72,7203050.53
"193817",193817,1986,41,"wr","White rhino",3,-25.3,31.33,331877.05,7200785.72
"193825",193825,1986,41,"wr","White rhino",2,-25.29,31.39,337905.13,7201967.25
"193833",193833,1986,41,"wr","White rhino",1,-25.29,31.41,339919.07,7201991.28
"193834",193834,1986,41,"wr","White rhino",2,-25.3,31.41,339932.2,7200883.68
"193836",193836,1986,41,"wr","White rhino",2,-25.31,31.41,339945.34,7199776.08
"193847",193847,1986,41,"wr","White rhino",1,-25.31,31.36,334911.31,7199715.4
"193851",193851,1986,41,"wr","White rhino",2,-25.3,31.36,334897.76,7200823.02
"193866",193866,1986,41,"wr","White rhino",1,-25.31,31.35,333904.5,7199703.04
"193889",193889,1986,41,"wr","White rhino",2,-25.34,31.35,333945.44,7196380.15
"193891",193891,1986,41,"wr","White rhino",4,-25.35,31.34,332952.61,7195260.07
"193902",193902,1986,41,"wr","White rhino",3,-25.35,31.38,336978.54,7195309.43
"193920",193920,1986,41,"wr","White rhino",2,-25.38,31.36,335006.34,7191962.01
"193923",193923,1986,41,"wr","White rhino",2,-25.38,31.38,337018.8,7191986.56
"193929",193929,1986,41,"wr","White rhino",8,-25.39,31.35,334013.78,7190841.99
"194031",194031,1986,43,"wr","White rhino",2,-25.05,31.4,338596.31,7228561.43
"194040",194040,1986,43,"wr","White rhino",1,-25.07,31.4,338622.52,7226346.29
"194041",194041,1986,43,"wr","White rhino",1,-25.07,31.39,337613.74,7226334.31
"194048",194048,1986,43,"wr","White rhino",4,-25.07,31.4,338622.52,7226346.29
"194051",194051,1986,43,"wr","White rhino",1,-25.09,31.4,338648.74,7224131.13
"194057",194057,1986,43,"wr","White rhino",1,-25.06,31.41,339618.27,7227465.76
"194058",194058,1986,43,"wr","White rhino",2,-25.06,31.41,339618.27,7227465.76
"194095",194095,1986,43,"wr","White rhino",2,-25.04,31.42,340601.25,7229692.71
"194097",194097,1986,43,"wr","White rhino",1,-25.03,31.42,340588.33,7230800.28
"194128",194128,1986,43,"wr","White rhino",1,-25.05,31.42,340614.19,7228585.15
"194133",194133,1986,43,"wr","White rhino",3,-25.06,31.42,340627.12,7227477.58
"194134",194134,1986,43,"wr","White rhino",4,-25.07,31.42,340640.07,7226370.02
"194141",194141,1986,43,"wr","White rhino",2,-25.07,31.43,341648.84,7226381.77
"194179",194179,1986,43,"wr","White rhino",5,-25.05,31.45,343640.98,7228620.16
"194183",194183,1986,43,"wr","White rhino",1,-25.06,31.44,342644.83,7227501.01
"194191",194191,1986,43,"wr","White rhino",2,-25.08,31.44,342670.39,7225285.89
"194193",194193,1986,43,"wr","White rhino",5,-25.06,31.45,343653.67,7227512.61
"194205",194205,1986,43,"wr","White rhino",1,-25.06,31.46,344662.52,7227524.13
"194256",194256,1986,43,"wr","White rhino",2,-25.05,31.5,348685.58,7228677.03
"194278",194278,1986,43,"wr","White rhino",1,-25.05,31.51,349694.49,7228688.18
"194296",194296,1986,43,"wr","White rhino",2,-25.03,31.54,352697.31,7230936.22
"194313",194313,1986,43,"wr","White rhino",2,-25.03,31.56,354715.43,7230957.84
"194401",194401,1986,43,"wr","White rhino",4,-25.02,31.48,346630.44,7231977.13
"194436",194436,1986,43,"wr","White rhino",2,-24.98,31.51,349609.22,7236440.89
"194914",194914,1986,20,"wr","White rhino",7,-24.07,31.22,319032.79,7336876.71
"195434",195434,1986,44,"wr","White rhino",1,-25.18,31.62,360939.52,7214408.26
"195443",195443,1986,44,"wr","White rhino",5,-25.2,31.65,363985.16,7212223.89
"195515",195515,1986,44,"wr","White rhino",2,-25.22,31.65,364007.39,7210008.86
"195517",195517,1986,44,"wr","White rhino",3,-25.22,31.65,364007.39,7210008.86
"195532",195532,1986,44,"wr","White rhino",1,-25.26,31.66,365059.05,7205588.88
"195533",195533,1986,44,"wr","White rhino",2,-25.27,31.65,364063.05,7204471.26
"195565",195565,1986,44,"wr","White rhino",2,-25.23,31.68,367040.67,7208931.36
"195596",195596,1986,44,"wr","White rhino",1,-25.18,31.68,366986.33,7214468.89
"195624",195624,1986,44,"wr","White rhino",3,-25.22,31.7,369044.72,7210058.51
"195675",195675,1986,44,"wr","White rhino",1,-25.21,31.71,370041.55,7211175.71
"195685",195685,1986,44,"wr","White rhino",2,-25.18,31.72,371017.49,7214507.81
"195686",195686,1986,44,"wr","White rhino",3,-25.18,31.72,371017.49,7214507.81
"195690",195690,1986,44,"wr","White rhino",2,-25.2,31.73,372046.17,7212302.38
"195698",195698,1986,44,"wr","White rhino",1,-25.23,31.73,372077.55,7208979.9
"195749",195749,1986,44,"wr","White rhino",2,-25.23,31.75,374092.28,7208998.79
"195758",195758,1986,44,"wr","White rhino",4,-25.26,31.75,374123.2,7205676.31
"195782",195782,1986,44,"wr","White rhino",3,-25.21,31.76,375079.22,7211223.09
"195887",195887,1986,44,"wr","White rhino",2,-25.33,31.84,383254.22,7198005.35
"195890",195890,1986,44,"wr","White rhino",2,-25.31,31.86,385248.4,7200237.58
"195891",195891,1986,44,"wr","White rhino",2,-25.32,31.86,385257.83,7199130.11
"195924",195924,1986,44,"wr","White rhino",2,-25.34,31.83,382257.39,7196889.11
"197263",197263,1986,56,"wr","White rhino",2,-25.33,31.46,345004.77,7197619.7
"197264",197264,1986,56,"wr","White rhino",2,-25.34,31.46,345017.51,7196512.11
"197266",197266,1986,56,"wr","White rhino",1,-25.35,31.46,345030.26,7195404.51
"197267",197267,1986,56,"wr","White rhino",2,-25.35,31.46,345030.26,7195404.51
"197276",197276,1986,56,"wr","White rhino",1,-25.37,31.48,347068.33,7193212.36
"197277",197277,1986,56,"wr","White rhino",3,-25.36,31.49,348062.1,7194331.34
"197286",197286,1986,56,"wr","White rhino",2,-25.37,31.49,348074.61,7193223.76
"197288",197288,1986,56,"wr","White rhino",2,-25.39,31.49,348099.64,7191008.58
"197295",197295,1986,56,"wr","White rhino",1,-25.33,31.52,351044.42,7197687.81
"197300",197300,1986,56,"wr","White rhino",2,-25.34,31.51,350050.14,7196569.07
"197301",197301,1986,56,"wr","White rhino",1,-25.35,31.51,350062.48,7195461.5
"197312",197312,1986,56,"wr","White rhino",2,-25.38,31.51,350099.5,7192138.76
"197393",197393,1986,56,"wr","White rhino",2,-25.41,31.56,355166.23,7188871.2
"197408",197408,1986,56,"wr","White rhino",1,-25.37,31.53,352099.69,7193268.62
"198330",198330,1986,21,"wr","White rhino",3,-24.2,31.6,357815.96,7322918.21
"198384",198384,1986,21,"wr","White rhino",3,-24.17,31.6,357782.7,7326240.37
"198408",198408,1986,21,"wr","White rhino",6,-24.2,31.61,358831.7,7322928.35
"198545",198545,1986,6,"wr","White rhino",4,-23.61,31.43,339822.36,7388071.7
"198600",198600,1986,6,"wr","White rhino",2,-23.66,31.45,341923.25,7382557.14
"198601",198601,1986,6,"wr","White rhino",2,-23.67,31.44,340915.33,7381438.66
"198631",198631,1986,6,"wr","White rhino",2,-23.68,31.45,341947.31,7380342.41
"198640",198640,1986,6,"wr","White rhino",1,-23.69,31.46,342979.13,7379246.09
"198912",198912,1986,54,"wr","White rhino",2,-22.99,31.1,305245.78,7456325.71
"198927",198927,1986,54,"wr","White rhino",1,-22.99,31.11,306271.06,7456338.95
"199308",199308,1986,23,"wr","White rhino",2,-24.21,31.69,366967.85,7321899.49
"199400",199400,1986,23,"wr","White rhino",2,-24.15,31.67,364873.4,7328524.48
"199705",199705,1986,60,"wr","White rhino",1,-24.98,31.74,372826.55,7236676.23
"199800",199800,1986,60,"wr","White rhino",2,-25.03,31.68,366823.92,7231081.25
"199801",199801,1986,60,"wr","White rhino",1,-25.03,31.68,366823.92,7231081.25
"199856",199856,1986,60,"wr","White rhino",1,-25.01,31.72,370839.07,7233334.94
