"","ID","Year","Cenb","Sp","Description","No","Lat","Long","X.coord","Y.coord"
"414097",414097,1997,33,"sb","Sable antelope bull",1,-25.04,31.24,322438.4,7229468.58
"414217",414217,1997,33,"sb","Sable antelope bull",1,-24.98,31.33,331438.05,7236229.22
