"","ID","Year","Cenb","Sp","Description","No","Lat","Long","X.coord","Y.coord"
"234541",234541,1988,7,"t","Tsessebe",4,-23.6,31.25,321440.79,7388965.94
"234867",234867,1988,8,"t","Tsessebe",3,-23.51,31.31,327446.54,7399006.2
"234993",234993,1988,8,"t","Tsessebe",1,-23.46,31.28,324316.57,7404506.86
"235046",235046,1988,8,"t","Tsessebe",5,-23.4,31.31,327303.49,7411187.52
"235061",235061,1988,8,"t","Tsessebe",1,-23.36,31.31,327251.62,7415617.05
"235221",235221,1988,9,"t","Tsessebe",7,-23.49,31.22,318227.88,7401110.01
"235348",235348,1988,9,"t","Tsessebe",6,-23.57,31.26,322420.96,7392300.67
"235414",235414,1988,10,"t","Tsessebe",12,-23.31,31.02,297525.03,7420777.89
"235442",235442,1988,10,"t","Tsessebe",2,-23.29,31.02,297494.74,7422992.88
"235483",235483,1988,10,"t","Tsessebe",9,-23.35,31.07,302698.51,7416417.06
"235511",235511,1988,10,"t","Tsessebe",3,-23.29,31.07,302609.87,7423061.92
"235621",235621,1988,10,"t","Tsessebe",1,-23.34,31.18,313932.42,7417670.44
"236017",236017,1988,11,"t","Tsessebe",1,-23.41,31.22,318118.31,7409969.43
"236053",236053,1988,11,"t","Tsessebe",4,-23.37,31.24,320108.34,7414424.18
"236096",236096,1988,11,"t","Tsessebe",5,-23.36,31.29,325206.85,7415592.99
"236147",236147,1988,11,"t","Tsessebe",5,-23.33,31.24,320054.39,7418853.81
"236174",236174,1988,11,"t","Tsessebe",2,-23.28,31.29,325102.15,7424452.05
"236176",236176,1988,11,"t","Tsessebe",6,-23.28,31.3,326125.15,7424464.08
"236284",236284,1988,11,"t","Tsessebe",3,-23.21,31.24,319893.07,7432142.57
"236409",236409,1988,12,"t","Tsessebe",2,-23.24,31.05,300489.36,7428571.91
"236749",236749,1988,12,"t","Tsessebe",2,-23.25,31,295387.55,7427394.78
"236811",236811,1988,12,"t","Tsessebe",9,-23.27,30.99,294394.89,7425165.63
"236904",236904,1988,13,"t","Tsessebe",8,-23.63,31.48,344947.94,7385912.11
"236909",236909,1988,13,"t","Tsessebe",6,-23.62,31.49,345956.48,7387030.28
"236910",236910,1988,13,"t","Tsessebe",4,-23.62,31.5,346976.79,7387041.02
"236932",236932,1988,13,"t","Tsessebe",2,-23.68,31.5,347046.59,7380396.93
"236948",236948,1988,13,"t","Tsessebe",6,-23.68,31.55,352145.79,7380449.66
"236954",236954,1988,13,"t","Tsessebe",4,-23.7,31.54,351148.63,7378224.58
"236960",236960,1988,13,"t","Tsessebe",6,-23.7,31.56,353187.99,7378245.33
"236996",236996,1988,13,"t","Tsessebe",2,-23.72,31.57,354229.89,7376040.93
"237054",237054,1988,13,"t","Tsessebe",1,-23.6,31.59,356137.66,7389349.09
"237058",237058,1988,13,"t","Tsessebe",5,-23.61,31.56,353087.47,7388211.28
"237062",237062,1988,13,"t","Tsessebe",2,-23.62,31.59,356159.49,7387134.47
"237084",237084,1988,13,"t","Tsessebe",3,-23.64,31.62,359241.72,7384949.72
"237092",237092,1988,13,"t","Tsessebe",3,-23.65,31.59,356192.28,7383812.52
"237093",237093,1988,13,"t","Tsessebe",3,-23.65,31.6,357212.33,7383822.56
"237394",237394,1988,14,"t","Tsessebe",1,-23.46,31.48,344748.39,7404736.91
"237397",237397,1988,14,"t","Tsessebe",3,-23.46,31.5,346791.5,7404758.35
"237401",237401,1988,14,"t","Tsessebe",5,-23.48,31.52,348857.38,7402564.87
"237409",237409,1988,14,"t","Tsessebe",1,-23.5,31.52,348880.19,7400350.23
"237410",237410,1988,14,"t","Tsessebe",6,-23.5,31.51,347858.95,7400339.68
"237413",237413,1988,14,"t","Tsessebe",2,-23.51,31.53,349912.76,7399253.4
"237418",237418,1988,14,"t","Tsessebe",3,-23.52,31.52,348903.01,7398135.59
"237420",237420,1988,14,"t","Tsessebe",6,-23.53,31.51,347893.43,7397017.7
"237423",237423,1988,14,"t","Tsessebe",6,-23.54,31.52,348925.86,7395920.94
"237444",237444,1988,14,"t","Tsessebe",1,-23.42,31.38,334482.82,7409054.9
"237447",237447,1988,14,"t","Tsessebe",2,-23.43,31.37,333473.45,7407936.01
"237453",237453,1988,14,"t","Tsessebe",6,-23.44,31.43,339616.41,7406896.76
"237458",237458,1988,14,"t","Tsessebe",3,-23.44,31.42,338594.68,7406885.58
"237460",237460,1988,14,"t","Tsessebe",2,-23.44,31.43,339616.41,7406896.76
"237469",237469,1988,14,"t","Tsessebe",1,-23.45,31.43,339628.49,7405789.41
"237479",237479,1988,14,"t","Tsessebe",8,-23.45,31.39,335541.86,7405744.27
"237480",237480,1988,14,"t","Tsessebe",1,-23.45,31.42,338606.83,7405778.23
"237483",237483,1988,14,"t","Tsessebe",1,-23.46,31.46,342705.27,7404715.19
"237484",237484,1988,14,"t","Tsessebe",5,-23.46,31.45,341683.71,7404704.22
"237485",237485,1988,14,"t","Tsessebe",3,-23.46,31.45,341683.71,7404704.22
"237499",237499,1988,14,"t","Tsessebe",2,-23.47,31.45,341695.64,7403596.87
"237504",237504,1988,14,"t","Tsessebe",8,-23.48,31.43,339664.74,7402467.37
"237520",237520,1988,14,"t","Tsessebe",1,-23.51,31.45,341743.41,7399167.5
"237523",237523,1988,14,"t","Tsessebe",5,-23.51,31.46,342764.59,7399178.48
"237528",237528,1988,14,"t","Tsessebe",6,-23.52,31.46,342776.47,7398071.14
"237530",237530,1988,14,"t","Tsessebe",1,-23.52,31.44,340734.26,7398049.09
"237534",237534,1988,14,"t","Tsessebe",1,-23.53,31.46,342788.35,7396963.79
"237540",237540,1988,14,"t","Tsessebe",6,-23.53,31.44,340746.3,7396941.73
"237547",237547,1988,14,"t","Tsessebe",5,-23.54,31.43,339737.39,7395823.24
"237549",237549,1988,14,"t","Tsessebe",1,-23.54,31.43,339737.39,7395823.24
"237550",237550,1988,14,"t","Tsessebe",1,-23.56,31.51,347927.95,7393695.71
"237551",237551,1988,14,"t","Tsessebe",4,-23.56,31.51,347927.95,7393695.71
"237553",237553,1988,14,"t","Tsessebe",2,-23.55,31.45,341791.26,7394738.1
"237558",237558,1988,14,"t","Tsessebe",5,-23.57,31.46,342835.93,7392534.4
"237571",237571,1988,14,"t","Tsessebe",7,-23.59,31.49,345921.41,7390352.31
"237576",237576,1988,15,"t","Tsessebe",4,-23.27,31.39,335319.72,7425676.56
"237577",237577,1988,15,"t","Tsessebe",1,-23.27,31.38,334296.67,7425665.16
"237578",237578,1988,15,"t","Tsessebe",4,-23.27,31.38,334296.67,7425665.16
"237594",237594,1988,15,"t","Tsessebe",5,-23.27,31.34,330204.45,7425618.88
"237610",237610,1988,15,"t","Tsessebe",7,-23.28,31.35,331240.11,7424523.2
"237613",237613,1988,15,"t","Tsessebe",2,-23.29,31.35,331252.72,7423415.85
"237616",237616,1988,15,"t","Tsessebe",3,-23.3,31.36,332288.16,7422320.11
"237625",237625,1988,15,"t","Tsessebe",1,-23.32,31.35,331290.58,7420093.77
"237685",237685,1988,15,"t","Tsessebe",14,-23.29,31.4,336367.21,7423473.21
"237692",237692,1988,15,"t","Tsessebe",2,-23.3,31.4,336379.44,7422365.88
"237701",237701,1988,15,"t","Tsessebe",3,-23.32,31.43,339471.88,7420184.8
"237702",237702,1988,15,"t","Tsessebe",4,-23.32,31.44,340494.53,7420195.86
"237708",237708,1988,15,"t","Tsessebe",4,-23.33,31.43,339483.9,7419077.47
"237709",237709,1988,15,"t","Tsessebe",2,-23.32,31.43,339471.88,7420184.8
"237713",237713,1988,15,"t","Tsessebe",4,-23.32,31.38,334358.6,7420128.44
"237715",237715,1988,15,"t","Tsessebe",2,-23.33,31.41,337438.75,7419055.13
"237717",237717,1988,15,"t","Tsessebe",1,-23.33,31.42,338461.33,7419066.34
"237720",237720,1988,15,"t","Tsessebe",6,-23.34,31.45,341540.91,7417992.21
"237738",237738,1988,15,"t","Tsessebe",4,-23.37,31.39,335442.93,7414603.12
"237742",237742,1988,15,"t","Tsessebe",7,-23.39,31.41,337511.87,7412411.08
"237767",237767,1988,15,"t","Tsessebe",5,-23.31,31.48,344573.46,7421346.71
"237773",237773,1988,15,"t","Tsessebe",3,-23.31,31.5,346618.87,7421368.05
"237807",237807,1988,15,"t","Tsessebe",7,-23.32,31.47,343562.45,7420228.62
"237824",237824,1988,15,"t","Tsessebe",1,-23.33,31.49,345619.27,7419142.8
"237834",237834,1988,15,"t","Tsessebe",7,-23.36,31.51,347698.61,7415842.09
"237835",237835,1988,15,"t","Tsessebe",6,-23.36,31.5,346676.3,7415831.51
"237839",237839,1988,15,"t","Tsessebe",5,-23.36,31.49,345653.97,7415820.86
"237841",237841,1988,15,"t","Tsessebe",1,-23.36,31.46,342586.99,7415788.49
"237842",237842,1988,15,"t","Tsessebe",1,-23.37,31.46,342598.8,7414681.16
"237847",237847,1988,15,"t","Tsessebe",5,-23.37,31.5,346687.79,7414724.2
"237853",237853,1988,15,"t","Tsessebe",1,-23.38,31.49,345677.13,7413606.24
"237854",237854,1988,15,"t","Tsessebe",3,-23.38,31.48,344654.96,7413595.51
"237856",237856,1988,15,"t","Tsessebe",2,-23.4,31.47,343656.27,7411370.06
"237857",237857,1988,15,"t","Tsessebe",3,-23.4,31.49,345700.31,7411391.6
"237859",237859,1988,15,"t","Tsessebe",1,-23.41,31.51,347755.77,7410305.55
"237862",237862,1988,15,"t","Tsessebe",2,-23.42,31.48,344701.64,7409166.22
"237865",237865,1988,15,"t","Tsessebe",2,-23.42,31.5,346745.36,7409187.63
"237876",237876,1988,15,"t","Tsessebe",4,-23.43,31.45,341647.94,7408026.23
"237880",237880,1988,15,"t","Tsessebe",3,-23.27,31.32,328158.31,7425595.31
"237903",237903,1988,15,"t","Tsessebe",6,-23.25,31.37,333248.73,7427868.39
"237912",237912,1988,15,"t","Tsessebe",5,-23.23,31.37,333223.86,7430083.07
"237914",237914,1988,15,"t","Tsessebe",2,-23.24,31.38,334259.57,7428987.18
"237928",237928,1988,15,"t","Tsessebe",1,-23.24,31.39,335282.85,7428998.57
"237937",237937,1988,15,"t","Tsessebe",9,-23.18,31.33,329066.8,7435573.32
"237946",237946,1988,15,"t","Tsessebe",7,-23.18,31.35,331114.3,7435596.68
"237956",237956,1988,15,"t","Tsessebe",5,-23.18,31.38,334185.52,7435631.19
"237966",237966,1988,15,"t","Tsessebe",5,-23.17,31.39,335197.01,7436749.87
"238004",238004,1988,15,"t","Tsessebe",1,-23.19,31.45,341363.38,7434601.93
"238076",238076,1988,15,"t","Tsessebe",5,-23.11,31.39,335123.62,7443393.8
"238158",238158,1988,15,"t","Tsessebe",2,-23.29,31.42,338412.98,7423495.67
"238168",238168,1988,15,"t","Tsessebe",2,-23.26,31.43,339399.88,7426828.76
"238170",238170,1988,15,"t","Tsessebe",3,-23.26,31.41,337353.66,7426806.47
"238181",238181,1988,15,"t","Tsessebe",2,-23.24,31.42,338352.66,7429032.3
"238191",238191,1988,15,"t","Tsessebe",2,-23.23,31.41,337317.27,7430128.45
"238198",238198,1988,15,"t","Tsessebe",1,-23.21,31.4,336269.53,7432331.87
"238212",238212,1988,15,"t","Tsessebe",4,-23.19,31.45,341363.38,7434601.93
"238229",238229,1988,15,"t","Tsessebe",3,-23.17,31.49,345434.92,7436859.58
"238252",238252,1988,15,"t","Tsessebe",2,-23.2,31.47,343422.3,7433516.31
"238330",238330,1988,15,"t","Tsessebe",6,-23.27,31.48,344526.99,7425775.94
"238346",238346,1988,15,"t","Tsessebe",3,-23.28,31.48,344538.6,7424668.63
"238362",238362,1988,15,"t","Tsessebe",8,-23.3,31.46,342516.25,7422432.41
"241839",241839,1988,24,"t","Tsessebe",1,-24.28,31.75,373131.04,7314203.87
"241840",241840,1988,24,"t","Tsessebe",1,-24.28,31.75,373131.04,7314203.87
"243018",243018,1988,26,"t","Tsessebe",1,-24.22,31.76,374087.03,7320857.03
"243030",243030,1988,26,"t","Tsessebe",1,-24.23,31.82,380189.54,7319802.5
"243178",243178,1988,26,"t","Tsessebe",1,-24.3,31.83,381270.04,7312059.73
"246977",246977,1988,32,"t","Tsessebe",8,-24.55,31.6,358206.9,7284158.75
"247336",247336,1988,33,"t","Tsessebe",1,-24.75,31.68,366523.2,7262090.15
"248589",248589,1988,36,"t","Tsessebe",4,-24.88,31.83,381815.88,7247831.85
"249629",249629,1988,37,"t","Tsessebe",8,-24.91,31.89,387904.21,7244560.38
"249660",249660,1988,37,"t","Tsessebe",1,-24.95,31.99,398036.56,7240209.54
"249669",249669,1988,37,"t","Tsessebe",1,-24.95,31.93,391978.88,7240163.15
"249671",249671,1988,37,"t","Tsessebe",4,-24.95,31.92,390969.26,7240155.16
"249843",249843,1988,38,"t","Tsessebe",5,-24.92,31.89,387913.25,7243452.97
"249844",249844,1988,38,"t","Tsessebe",4,-24.94,31.89,387931.33,7241238.15
"249847",249847,1988,38,"t","Tsessebe",6,-25,31.89,387985.68,7234593.66
"249848",249848,1988,38,"t","Tsessebe",2,-25.01,31.89,387994.75,7233486.23
"249932",249932,1988,38,"t","Tsessebe",2,-24.89,31.84,382835.53,7246733.08
"250715",250715,1988,39,"t","Tsessebe",1,-25.09,31.21,319484.48,7223890.66
"250857",250857,1988,40,"t","Tsessebe",6,-25.23,31.28,326743.11,7208475.57
"250858",250858,1988,40,"t","Tsessebe",3,-25.23,31.28,326743.11,7208475.57
"250938",250938,1988,40,"t","Tsessebe",1,-25.17,31.29,327666.13,7215134.22
"250995",250995,1988,40,"t","Tsessebe",3,-25.19,31.31,329709.92,7212944.42
"255446",255446,1988,47,"t","Tsessebe",6,-22.65,31.2,315039.53,7494105.17
"255513",255513,1988,47,"t","Tsessebe",5,-22.68,31.25,320217.58,7490844.56
"255514",255514,1988,47,"t","Tsessebe",1,-22.68,31.27,322272.68,7490868.63
"255520",255520,1988,47,"t","Tsessebe",2,-22.69,31.25,320230.63,7489737.24
"255533",255533,1988,47,"t","Tsessebe",7,-22.71,31.21,316147.39,7487473.57
"255540",255540,1988,47,"t","Tsessebe",2,-22.7,31.26,321271.09,7488642
"255544",255544,1988,47,"t","Tsessebe",2,-22.7,31.27,322298.48,7488654.01
"255555",255555,1988,47,"t","Tsessebe",1,-22.71,31.27,322311.39,7487546.69
"255566",255566,1988,47,"t","Tsessebe",5,-22.74,31.21,316187.5,7484151.55
"255570",255570,1988,47,"t","Tsessebe",2,-22.73,31.27,322337.23,7485332.06
"255575",255575,1988,47,"t","Tsessebe",5,-22.75,31.21,316200.88,7483044.2
"255582",255582,1988,47,"t","Tsessebe",2,-22.76,31.27,322376.02,7482010.11
"255585",255585,1988,47,"t","Tsessebe",3,-22.76,31.24,319295.16,7481973.8
"255593",255593,1988,47,"t","Tsessebe",6,-22.77,31.27,322388.96,7480902.79
"255597",255597,1988,47,"t","Tsessebe",3,-22.77,31.25,320335.21,7480878.64
"255621",255621,1988,48,"t","Tsessebe",6,-22.79,31.26,321388.14,7478676.1
"255628",255628,1988,48,"t","Tsessebe",1,-22.79,31.28,323441.58,7478700.12
"255647",255647,1988,48,"t","Tsessebe",1,-22.8,31.27,322427.82,7477580.82
"255653",255653,1988,48,"t","Tsessebe",7,-22.81,31.24,319361.04,7476437.12
"255655",255655,1988,48,"t","Tsessebe",5,-22.81,31.23,318334.46,7476424.86
"255673",255673,1988,48,"t","Tsessebe",2,-22.79,31.32,327548.43,7478747.34
"255677",255677,1988,48,"t","Tsessebe",5,-22.78,31.33,328562.63,7479866.26
"255690",255690,1988,48,"t","Tsessebe",2,-22.81,31.29,324493.92,7476497.4
"255692",255692,1988,48,"t","Tsessebe",1,-22.81,31.28,323467.35,7476485.48
"255714",255714,1988,48,"t","Tsessebe",2,-22.81,31.3,325520.49,7476509.24
"255726",255726,1988,48,"t","Tsessebe",4,-22.81,31.31,326547.05,7476521.02
"255743",255743,1988,48,"t","Tsessebe",1,-22.83,31.29,324519.56,7474282.76
"255744",255744,1988,48,"t","Tsessebe",3,-22.83,31.29,324519.56,7474282.76
"255749",255749,1988,48,"t","Tsessebe",1,-22.82,31.32,327586.2,7475425.42
"255751",255751,1988,48,"t","Tsessebe",4,-22.81,31.33,328600.16,7476544.36
"255798",255798,1988,48,"t","Tsessebe",6,-22.82,31.34,329639.15,7475448.63
"255812",255812,1988,48,"t","Tsessebe",7,-22.85,31.32,327624.01,7472103.49
"255829",255829,1988,48,"t","Tsessebe",2,-22.87,31.25,320466.42,7469805.29
"255833",255833,1988,48,"t","Tsessebe",4,-22.87,31.27,322518.68,7469829.52
"255870",255870,1988,48,"t","Tsessebe",5,-22.87,31.36,331753.63,7469935.1
"255949",255949,1988,48,"t","Tsessebe",1,-22.88,31.43,338947.96,7468906.04
"255963",255963,1988,48,"t","Tsessebe",5,-22.88,31.42,337921.97,7468895.07
"255969",255969,1988,49,"t","Tsessebe",4,-22.91,31.25,320519.06,7465375.91
"255986",255986,1988,49,"t","Tsessebe",5,-22.9,31.3,325635.37,7466543.37
"255988",255988,1988,49,"t","Tsessebe",1,-22.9,31.33,328713.01,7466578.6
"255999",255999,1988,49,"t","Tsessebe",4,-22.91,31.38,333854.52,7465528.62
"256032",256032,1988,49,"t","Tsessebe",1,-22.94,31.34,329788.87,7462160.95
"256038",256038,1988,49,"t","Tsessebe",6,-22.95,31.35,330826.87,7461065.19
"256048",256048,1988,49,"t","Tsessebe",1,-22.97,31.3,325725.02,7458792.06
"256054",256054,1988,49,"t","Tsessebe",1,-22.96,31.33,328788.48,7459934.69
"256055",256055,1988,49,"t","Tsessebe",1,-22.96,31.34,329813.9,7459946.32
"256060",256060,1988,49,"t","Tsessebe",9,-22.95,31.36,331852.36,7461076.67
"256129",256129,1988,49,"t","Tsessebe",1,-22.91,31.41,336931.85,7465562.19
"256150",256150,1988,49,"t","Tsessebe",7,-22.93,31.41,336955.79,7463347.62
"256167",256167,1988,49,"t","Tsessebe",4,-22.95,31.41,336979.75,7461133.04
"256204",256204,1988,49,"t","Tsessebe",3,-22.98,31.43,339066.21,7457833.25
"256205",256205,1988,49,"t","Tsessebe",2,-22.98,31.42,338040.97,7457822.25
"256213",256213,1988,49,"t","Tsessebe",3,-22.98,31.42,338040.97,7457822.25
"256228",256228,1988,49,"t","Tsessebe",2,-23,31.43,339089.91,7455618.68
"256231",256231,1988,49,"t","Tsessebe",1,-23,31.42,338064.83,7455607.67
"256248",256248,1988,49,"t","Tsessebe",3,-23,31.44,340115,7455629.62
"256316",256316,1988,50,"t","Tsessebe",5,-23.03,31.44,340150.37,7452307.76
"256350",256350,1988,50,"t","Tsessebe",1,-23.05,31.49,345297.44,7450146.94
"256356",256356,1988,50,"t","Tsessebe",4,-23.06,31.46,342235.03,7449007.61
"256373",256373,1988,50,"t","Tsessebe",6,-23.07,31.45,341222.14,7447889.5
"256375",256375,1988,50,"t","Tsessebe",5,-23.07,31.46,342246.69,7447900.33
"256468",256468,1988,50,"t","Tsessebe",6,-23.13,31.52,348461.24,7441320.22
"256543",256543,1988,52,"t","Tsessebe",1,-23.18,31.21,316781.49,7435427.27
"256756",256756,1988,52,"t","Tsessebe",3,-23.05,31.38,334025.69,7450026.37
"256767",256767,1988,52,"t","Tsessebe",3,-23.09,31.18,313585.65,7445355.81
"256801",256801,1988,52,"t","Tsessebe",2,-23.08,31.2,315620.98,7446488.59
"256871",256871,1988,52,"t","Tsessebe",1,-23.05,31.27,322753.52,7449897.3
"256895",256895,1988,52,"t","Tsessebe",1,-23.06,31.31,326865.34,7448837.88
"256913",256913,1988,52,"t","Tsessebe",1,-23.02,31.31,326814.19,7453267.23
"256914",256914,1988,52,"t","Tsessebe",8,-23.02,31.31,326814.19,7453267.23
"256930",256930,1988,52,"t","Tsessebe",4,-23.05,31.36,331976.24,7450003.53
"257326",257326,1988,53,"t","Tsessebe",4,-22.99,30.95,289866.02,7456118.56
"257682",257682,1988,54,"t","Tsessebe",1,-22.98,30.98,292926.8,7457268.73
"257737",257737,1988,54,"t","Tsessebe",4,-22.9,31.06,301012.99,7466238.92
"257841",257841,1988,54,"t","Tsessebe",6,-23.02,31.11,306313.91,7453016.7
"257854",257854,1988,54,"t","Tsessebe",2,-22.88,31.07,302009.94,7468467.25
"258244",258244,1988,54,"t","Tsessebe",6,-23.06,31.23,318667.83,7448740.9
"258445",258445,1988,55,"t","Tsessebe",4,-22.78,31.07,301865.15,7479541.41
"258512",258512,1988,55,"t","Tsessebe",4,-22.87,31.12,307126.39,7469641
"258623",258623,1988,55,"t","Tsessebe",5,-22.82,31.2,315268.17,7475280.29
"258627",258627,1988,55,"t","Tsessebe",5,-22.85,31.2,315308.68,7471958.22
"260377",260377,1988,63,"t","Tsessebe",4,-22.6,31.18,312916.25,7499616.86
"260380",260380,1988,63,"t","Tsessebe",2,-22.61,31.18,312929.77,7498509.53
