"","ID","Year","Cenb","Sp","Description","No","Lat","Long","X.coord","Y.coord"
"313933",313933,1991,52,"b","Buffalo",100,-23.07,31.17,312533.41,7447557.81
"314001",314001,1991,52,"b","Buffalo",11,-23.09,31.34,329977.07,7445551.09
"314034",314034,1991,52,"b","Buffalo",200,-23.1,31.32,327940.94,7444420.32
"314127",314127,1991,52,"b","Buffalo",10,-23.13,31.21,316713.45,7440964.24
"314766",314766,1991,53,"b","Buffalo",400,-23.07,31.17,312533.41,7447557.81
"314977",314977,1991,54,"b","Buffalo",2,-22.96,31.09,304177.24,7459634.66
"315069",315069,1991,54,"b","Buffalo",300,-22.96,31.02,296998.53,7459539.56
"315155",315155,1991,54,"b","Buffalo",8,-22.93,30.95,289773.24,7462763.49
"315214",315214,1991,54,"b","Buffalo",1,-22.98,30.93,287799.68,7457197.25
"315727",315727,1991,54,"b","Buffalo",150,-22.88,31.08,303036.06,7468480.66
"315780",315780,1991,55,"b","Buffalo",5,-22.76,31.03,297728.11,7481702.11
"315807",315807,1991,55,"b","Buffalo",6,-22.88,30.97,291748.44,7468329.32
"315810",315810,1991,55,"b","Buffalo",5,-22.87,30.98,292759.43,7469450.89
"315966",315966,1991,55,"b","Buffalo",9,-22.86,31.22,317374.64,7470875.77
"315972",315972,1991,55,"b","Buffalo",150,-22.89,31.2,315362.78,7467528.76
"316031",316031,1991,47,"b","Buffalo",3,-22.75,31.19,314146.77,7483019.24
"316134",316134,1991,47,"b","Buffalo",9,-22.64,31.15,309886.72,7495149.47
"316424",316424,1991,48,"b","Buffalo",35,-22.86,31.31,326610.44,7470984.45
"316431",316431,1991,48,"b","Buffalo",120,-22.88,31.22,317401.39,7468661.06
"316536",316536,1991,49,"b","Buffalo",80,-22.92,31.37,332841.01,7464409.99
"316548",316548,1991,49,"b","Buffalo",20,-22.91,31.22,317441.56,7465338.99
"316680",316680,1991,49,"b","Buffalo",50,-22.96,31.38,333915.54,7459992.13
"316711",316711,1991,49,"b","Buffalo",150,-22.97,31.38,333927.76,7458884.83
"316753",316753,1991,49,"b","Buffalo",4,-23,31.36,331914.24,7455540.12
"316758",316758,1991,49,"b","Buffalo",30,-23.01,31.37,332951.66,7454444.24
"316825",316825,1991,50,"b","Buffalo",100,-23.05,31.44,340173.97,7450093.19
"316848",316848,1991,50,"b","Buffalo",100,-23.06,31.41,337111.88,7448952.79
"316982",316982,1991,50,"b","Buffalo",8,-23.13,31.5,346413.09,7441299.29
"317011",317011,1991,50,"b","Buffalo",450,-23.15,31.5,346435.88,7439084.73
"317043",317043,1991,50,"b","Buffalo",150,-23.17,31.54,350553.75,7436911.79
"317196",317196,1991,6,"b","Buffalo",80,-23.75,31.4,336935.03,7372534.35
"317811",317811,1991,8,"b","Buffalo",150,-23.5,31.33,329476.12,7400137.49
"317830",317830,1991,8,"b","Buffalo",200,-23.47,31.31,327394.45,7403435.79
"317852",317852,1991,8,"b","Buffalo",100,-23.42,31.31,327329.45,7408972.74
"317871",317871,1991,8,"b","Buffalo",80,-23.4,31.27,323215.15,7411139.04
"317908",317908,1991,8,"b","Buffalo",150,-23.51,31.28,324382.83,7398969.82
"317910",317910,1991,8,"b","Buffalo",100,-23.5,31.3,326412.2,7400101.55
"317917",317917,1991,8,"b","Buffalo",200,-23.52,31.29,325417.26,7397874.61
"318145",318145,1991,9,"b","Buffalo",15,-23.51,31.11,307021.2,7398751.57
"318564",318564,1991,10,"b","Buffalo",35,-23.36,31.17,312937.88,7415442.65
"318603",318603,1991,10,"b","Buffalo",25,-23.42,31.16,312000.18,7408784.99
"318604",318604,1991,10,"b","Buffalo",200,-23.42,31.16,312000.18,7408784.99
"318642",318642,1991,10,"b","Buffalo",120,-23.41,31.11,306875.71,7409826.33
"318655",318655,1991,10,"b","Buffalo",120,-23.41,31.08,303809.46,7409785.81
"318879",318879,1991,11,"b","Buffalo",200,-23.22,31.26,321953.44,7431059.84
"318953",318953,1991,12,"b","Buffalo",50,-23.23,30.97,292286.5,7429567.17
"318976",318976,1991,12,"b","Buffalo",50,-23.23,30.98,293310.01,7429581.45
"319081",319081,1991,12,"b","Buffalo",150,-23.23,31.05,300474.49,7429679.39
"319118",319118,1991,12,"b","Buffalo",50,-23.25,31.07,302550.89,7427491.8
"319217",319217,1991,12,"b","Buffalo",80,-23.27,31.1,305649.85,7425317.41
"319218",319218,1991,12,"b","Buffalo",50,-23.26,31.1,305635.34,7426424.86
"319432",319432,1991,12,"b","Buffalo",60,-23.19,31.16,311676.45,7434255.99
"319508",319508,1991,13,"b","Buffalo",200,-23.76,31.57,354274.41,7371611.59
"319565",319565,1991,13,"b","Buffalo",180,-23.69,31.52,349097.77,7379310.89
"319602",319602,1991,13,"b","Buffalo",150,-23.6,31.48,344912.62,7389234.16
"319701",319701,1991,13,"b","Buffalo",40,-23.72,31.62,359327.43,7376091.23
"319711",319711,1991,13,"b","Buffalo",10,-23.71,31.63,360336.28,7377208.38
"319785",319785,1991,14,"b","Buffalo",30,-23.56,31.45,341803.24,7393630.74
"319799",319799,1991,14,"b","Buffalo",150,-23.54,31.45,341779.29,7395845.45
"319801",319801,1991,14,"b","Buffalo",60,-23.54,31.44,340758.34,7395834.38
"319804",319804,1991,14,"b","Buffalo",80,-23.54,31.42,338716.43,7395812.03
"319928",319928,1991,14,"b","Buffalo",60,-23.45,31.53,349844.83,7405897.29
"319979",319979,1991,14,"b","Buffalo",30,-23.56,31.45,341803.24,7393630.74
"319993",319993,1991,14,"b","Buffalo",150,-23.54,31.45,341779.29,7395845.45
"319995",319995,1991,14,"b","Buffalo",60,-23.54,31.44,340758.34,7395834.38
"319998",319998,1991,14,"b","Buffalo",80,-23.54,31.42,338716.43,7395812.03
"320122",320122,1991,14,"b","Buffalo",60,-23.45,31.53,349844.83,7405897.29
"320428",320428,1991,18,"b","Buffalo",35,-23.25,31.32,328132.66,7427810.04
"320429",320429,1991,18,"b","Buffalo",20,-23.25,31.32,328132.66,7427810.04
"320510",320510,1991,18,"b","Buffalo",400,-23.17,31.49,345434.92,7436859.58
"320953",320953,1991,19,"b","Buffalo",25,-23.92,31.71,368704.23,7354031.17
"321014",321014,1991,1,"b","Buffalo",5,-24.03,31.72,369832.73,7341859.89
"321017",321017,1991,1,"b","Buffalo",50,-24.03,31.72,369832.73,7341859.89
"321086",321086,1991,1,"b","Buffalo",100,-23.99,31.62,359618.72,7346193.16
"321383",321383,1991,1,"b","Buffalo",100,-23.95,31.64,361610.77,7350642.32
"321552",321552,1991,2,"b","Buffalo",1,-23.87,31.51,348287.07,7359367.76
"321577",321577,1991,2,"b","Buffalo",120,-23.9,31.49,346285.79,7356024.02
"321597",321597,1991,2,"b","Buffalo",30,-23.93,31.48,345303.39,7352690.94
"321672",321672,1991,2,"b","Buffalo",40,-24,31.58,355560.31,7345045.35
"321947",321947,1991,3,"b","Buffalo",1,-23.88,31.18,314693.5,7357867.31
"321961",321961,1991,3,"b","Buffalo",15,-23.9,31.18,314722,7355652.31
"321964",321964,1991,3,"b","Buffalo",50,-23.91,31.19,315754.43,7354557.88
"321977",321977,1991,3,"b","Buffalo",7,-23.87,31.19,315697.73,7358987.87
"321994",321994,1991,3,"b","Buffalo",3,-23.92,31.19,315768.61,7353450.38
"322225",322225,1991,3,"b","Buffalo",90,-23.93,31.25,321890.76,7352419.87
"322582",322582,1991,3,"b","Buffalo",120,-23.83,31.35,331941.25,7363616.75
"322585",322585,1991,3,"b","Buffalo",80,-23.8,31.34,330883.64,7366927.14
"323325",323325,1991,5,"b","Buffalo",1,-23.83,31.58,355371.13,7363870.42
"323337",323337,1991,5,"b","Buffalo",120,-23.84,31.55,352326.48,7362732.13
"323338",323338,1991,5,"b","Buffalo",4,-23.82,31.56,353322.58,7364957.22
"323343",323343,1991,5,"b","Buffalo",7,-23.8,31.54,351262.3,7367151.1
"323361",323361,1991,5,"b","Buffalo",70,-23.78,31.53,350220.48,7369355.3
"323428",323428,1991,5,"b","Buffalo",70,-23.83,31.48,345184.44,7363764.8
"323442",323442,1991,5,"b","Buffalo",50,-23.83,31.45,342128.37,7363731.71
"323883",323883,1991,20,"b","Buffalo",12,-24.07,31.46,343437.11,7337165.17
"323949",323949,1991,20,"b","Buffalo",4,-24.06,31.54,351559.96,7338359.43
"324120",324120,1991,21,"b","Buffalo",50,-24.13,31.5,347575.36,7330564.73
"324125",324125,1991,21,"b","Buffalo",8,-24.12,31.5,347563.51,7331672.15
"324370",324370,1991,22,"b","Buffalo",5,-24.3,31.52,349807.5,7311760.26
"324383",324383,1991,22,"b","Buffalo",8,-24.27,31.54,351802.6,7315103.95
"324454",324454,1991,22,"b","Buffalo",2,-24.32,31.43,340697.69,7309445.26
"324895",324895,1991,22,"b","Buffalo",10,-24.46,31.44,341886.88,7293952.12
"325141",325141,1991,23,"b","Buffalo",200,-24.09,31.7,367860.1,7335197.2
"325368",325368,1991,23,"b","Buffalo",20,-24.23,31.64,361911.23,7319636.2
"325433",325433,1991,24,"b","Buffalo",40,-24.27,31.62,359924.08,7315186.7
"327129",327129,1991,27,"b","Buffalo",200,-24.32,31.93,391435.75,7309926.75
"327279",327279,1991,28,"b","Buffalo",6,-24.49,31.93,391581.02,7291102.21
"327446",327446,1991,28,"b","Buffalo",200,-24.47,31.84,382442.29,7293243.34
"327520",327520,1991,28,"b","Buffalo",2,-24.47,31.79,377374.66,7293199.92
"327535",327535,1991,28,"b","Buffalo",400,-24.41,31.8,378330.61,7299852.94
"327857",327857,1991,29,"b","Buffalo",250,-24.53,31.82,380472,7286581.99
"329417",329417,1991,31,"b","Buffalo",200,-24.47,31.65,363184.96,7293068.59
"329682",329682,1991,32,"b","Buffalo",30,-24.46,31.49,346955.4,7294008.36
"329709",329709,1991,32,"b","Buffalo",4,-24.48,31.47,344952.51,7291771.15
"329950",329950,1991,32,"b","Buffalo",150,-24.57,31.51,349114.27,7281848.27
"330458",330458,1991,34,"b","Buffalo",6,-24.73,31.71,369536.23,7264333.94
"330521",330521,1991,34,"b","Buffalo",300,-24.7,31.69,367481.54,7267637.04
"330639",330639,1991,35,"b","Buffalo",60,-24.96,31.64,362710.03,7238793.72
"330848",330848,1991,35,"b","Buffalo",14,-24.82,31.63,361544.36,7254288.22
"331120",331120,1991,36,"b","Buffalo",250,-24.78,31.84,382731.93,7258914.58
"331370",331370,1991,37,"b","Buffalo",15,-24.79,32,398916.09,7257935.03
"331373",331373,1991,37,"b","Buffalo",41,-24.8,32,398924.2,7256827.66
"331805",331805,1991,37,"b","Buffalo",250,-25.13,31.94,393144.6,7220237.61
"331834",331834,1991,37,"b","Buffalo",10,-25.14,31.94,393153.3,7219130.19
"332047",332047,1991,38,"b","Buffalo",300,-24.92,31.76,374784.71,7243339.51
"332146",332146,1991,38,"b","Buffalo",300,-25.04,31.81,379950.77,7230095.39
"332288",332288,1991,38,"b","Buffalo",2,-25,31.93,392022.54,7234626.12
"332691",332691,1991,39,"b","Buffalo",4,-24.99,31.25,323375.93,7235019.78
"332742",332742,1991,39,"b","Buffalo",100,-25.08,31.24,322496.07,7225038.06
"332750",332750,1991,39,"b","Buffalo",30,-25.09,31.23,321501.83,7223917.24
"332776",332776,1991,39,"b","Buffalo",100,-25.13,31.2,318534.88,7219446.63
"332780",332780,1991,39,"b","Buffalo",4,-25.13,31.23,321559.93,7219486.67
"333091",333091,1991,40,"b","Buffalo",350,-25.3,31.28,326842.48,7200722.05
"334556",334556,1991,43,"b","Buffalo",120,-24.99,31.52,350630.78,7235344.42
"334557",334557,1991,43,"b","Buffalo",50,-24.98,31.51,349609.22,7236440.89
"334762",334762,1991,43,"b","Buffalo",150,-25.1,31.48,346730.02,7223116.76
"334766",334766,1991,43,"b","Buffalo",100,-25.09,31.49,347726.15,7224235.63
"334956",334956,1991,44,"b","Buffalo",150,-25.37,31.71,370212.02,7193455.57
"335069",335069,1991,44,"b","Buffalo",30,-25.39,31.57,356148.43,7191097.15
"335605",335605,1991,44,"b","Buffalo",300,-25.32,31.89,388277.6,7199155.47
"335633",335633,1991,44,"b","Buffalo",350,-25.29,31.87,386236.41,7202461.05
"335915",335915,1991,44,"b","Buffalo",6,-25.18,31.77,376056.37,7214554.78
"335916",335916,1991,44,"b","Buffalo",54,-25.18,31.77,376056.37,7214554.78
"336421",336421,1991,46,"b","Buffalo",80,-25.31,31.91,390281.77,7200279.46
"336428",336428,1991,46,"b","Buffalo",200,-25.32,31.93,392303.94,7199188.23
"336433",336433,1991,46,"b","Buffalo",20,-25.32,31.9,389284.19,7199163.77
"336715",336715,1991,46,"b","Buffalo",70,-25.51,31.35,334178.32,7177550.25
"336795",336795,1991,46,"b","Buffalo",150,-25.47,31.5,349205.38,7182159.19
"336825",336825,1991,46,"b","Buffalo",20,-25.46,31.53,352209.47,7183300.4
"336885",336885,1991,46,"b","Buffalo",2,-25.43,31.46,345132.4,7186543.72
"337435",337435,1991,57,"b","Buffalo",41,-25.08,31.83,382006.91,7225683.2
"337492",337492,1991,57,"b","Buffalo",52,-25.08,31.85,384024.06,7225700.52
"337606",337606,1991,58,"b","Buffalo",20,-25.07,31.75,373927.96,7226718.43
"337952",337952,1991,60,"b","Buffalo",20,-24.98,31.71,369798.28,7236647.77
"338022",338022,1991,60,"b","Buffalo",100,-25,31.61,359726.59,7234333.06
"338078",338078,1991,61,"b","Buffalo",19,-22.68,30.91,285278.36,7490392.93
"338079",338079,1991,61,"b","Buffalo",200,-22.68,30.91,285278.36,7490392.93
"338083",338083,1991,61,"b","Buffalo",60,-22.68,30.93,287333.74,7490421.71
"338098",338098,1991,61,"b","Buffalo",2,-22.66,31.02,296553.25,7492762.65
"338136",338136,1991,61,"b","Buffalo",300,-22.57,31.02,296420.76,7502729.36
"338155",338155,1991,61,"b","Buffalo",50,-22.56,31.03,297434.61,7503850.37
"338189",338189,1991,61,"b","Buffalo",60,-22.52,30.97,291203.11,7508197.4
"338261",338261,1991,62,"b","Buffalo",1,-22.62,31.13,307803.11,7497338.5
"338262",338262,1991,62,"b","Buffalo",4,-22.61,31.13,307789.2,7498445.86
"338339",338339,1991,62,"b","Buffalo",400,-22.48,31.12,306579.91,7512828.57
"338342",338342,1991,62,"b","Buffalo",20,-22.48,31.16,310696.25,7512879.69
"338414",338414,1991,63,"b","Buffalo",2,-22.56,31.32,327260.47,7504214.98
"338544",338544,1991,63,"b","Buffalo",1,-22.49,31.32,327173.39,7511965.87
"338561",338561,1991,63,"b","Buffalo",70,-22.53,31.22,316936.49,7507417.75
"338769",338769,1991,64,"b","Buffalo",60,-22.39,31.21,315722.72,7522907.77
