"","ID","Year","Cenb","Sp","Description","No","Lat","Long","X.coord","Y.coord"
"7504",7504,1978,2,"ko","Kudu",3,-23.97,31.55,352474.15,7348336.38
"7554",7554,1978,3,"ko","Kudu",4,-23.91,31.19,315754.43,7354557.88
"7558",7558,1978,3,"ko","Kudu",3,-23.87,31.17,313660.78,7358961.68
"7587",7587,1978,3,"ko","Kudu",6,-23.97,31.21,317875.01,7347938.84
"7605",7605,1978,3,"ko","Kudu",3,-23.93,31.21,317818.81,7352368.83
"7619",7619,1978,3,"ko","Kudu",18,-23.89,31.23,319799.31,7356824.43
"7629",7629,1978,3,"ko","Kudu",6,-23.87,31.21,317734.67,7359013.77
"7636",7636,1978,3,"ko","Kudu",2,-24.1,31.28,325174.77,7333630.28
"7663",7663,1978,3,"ko","Kudu",3,-23.97,31.26,322963.37,7348002.54
"7720",7720,1978,3,"ko","Kudu",5,-23.99,31.32,329095.68,7345861.69
"7754",7754,1978,3,"ko","Kudu",5,-24.06,31.36,333255.96,7338157.5
"7782",7782,1978,3,"ko","Kudu",3,-23.99,31.34,331130.64,7345885.81
"7793",7793,1978,3,"ko","Kudu",6,-23.89,31.34,331000.41,7356960.25
"7798",7798,1978,3,"ko","Kudu",5,-23.87,31.34,330974.42,7359175.12
"7803",7803,1978,1,"ko","Kudu",6,-23.87,31.57,354397.19,7359430.77
"7807",7807,1978,1,"ko","Kudu",3,-24.06,31.59,356644.22,7338411.36
"7812",7812,1978,1,"ko","Kudu",9,-24.03,31.61,358645.06,7341753.72
"7817",7817,1978,1,"ko","Kudu",7,-23.99,31.61,358601.33,7346183.16
"7822",7822,1978,1,"ko","Kudu",5,-23.95,31.59,356522.25,7350592.38
"7824",7824,1978,1,"ko","Kudu",11,-23.95,31.61,358557.67,7350612.57
"7829",7829,1978,1,"ko","Kudu",7,-23.89,31.59,356455.94,7357236.51
"7831",7831,1978,1,"ko","Kudu",7,-23.89,31.61,358492.3,7357256.66
"7835",7835,1978,1,"ko","Kudu",3,-23.91,31.59,356478.03,7355021.8
"7838",7838,1978,1,"ko","Kudu",2,-23.91,31.61,358514.07,7355041.97
"7855",7855,1978,1,"ko","Kudu",2,-24.01,31.63,360657.65,7343988.38
"7864",7864,1978,1,"ko","Kudu",3,-23.97,31.63,360614.58,7348417.78
"7871",7871,1978,1,"ko","Kudu",7,-23.93,31.63,360571.58,7352847.17
"7874",7874,1978,1,"ko","Kudu",5,-23.93,31.65,362607.29,7352866.77
"7897",7897,1978,1,"ko","Kudu",7,-23.87,31.63,360507.2,7359491.2
"7910",7910,1978,1,"ko","Kudu",10,-24.01,31.69,366760.97,7344046.47
"7920",7920,1978,1,"ko","Kudu",3,-24.03,31.69,366781.58,7341831.8
"7924",7924,1978,1,"ko","Kudu",4,-23.97,31.67,364684.73,7348456.75
"7944",7944,1978,1,"ko","Kudu",3,-23.93,31.69,366678.67,7352905.11
"7956",7956,1978,1,"ko","Kudu",1,-23.91,31.69,366658.13,7355119.76
"7965",7965,1978,1,"ko","Kudu",8,-24.01,31.73,370829.79,7344083.75
"7971",7971,1978,1,"ko","Kudu",4,-24.03,31.71,368815.68,7341850.6
"7989",7989,1978,1,"ko","Kudu",5,-23.99,31.71,368775.1,7346279.91
"8005",8005,1978,1,"ko","Kudu",3,-23.95,31.73,370769.93,7350727.67
"8010",8010,1978,1,"ko","Kudu",11,-23.97,31.76,373842.4,7348540.21
"8015",8015,1978,1,"ko","Kudu",7,-23.97,31.78,375877.41,7348557.96
"8019",8019,1978,1,"ko","Kudu",7,-23.99,31.76,373861.88,7346325.58
"8029",8029,1978,1,"ko","Kudu",5,-23.99,31.8,377931.26,7346360.82
"8040",8040,1978,2,"ko","Kudu",9,-23.89,31.36,333036.93,7356984.01
"8044",8044,1978,2,"ko","Kudu",8,-23.91,31.36,333062.62,7354769.15
"8060",8060,1978,2,"ko","Kudu",6,-23.99,31.38,335200.52,7345933.18
"8071",8071,1978,2,"ko","Kudu",5,-23.89,31.38,335073.43,7357007.48
"8083",8083,1978,2,"ko","Kudu",2,-23.91,31.38,335098.81,7354792.63
"8093",8093,1978,2,"ko","Kudu",2,-23.95,31.44,341256.23,7350431.73
"8106",8106,1978,2,"ko","Kudu",4,-23.97,31.48,345351.11,7348261.36
"8107",8107,1978,2,"ko","Kudu",4,-23.99,31.46,343340.12,7346024.47
"8127",8127,1978,2,"ko","Kudu",5,-23.91,31.48,345279.56,7354905.73
"8143",8143,1978,2,"ko","Kudu",10,-24.03,31.51,348474.15,7341649.6
"8156",8156,1978,2,"ko","Kudu",6,-23.91,31.51,348333.73,7354938.25
"8166",8166,1978,4,"ko","Kudu",4,-23.76,31.15,311464.92,7371117.74
"8167",8167,1978,4,"ko","Kudu",4,-23.78,31.15,311493.75,7368902.75
"8205",8205,1978,4,"ko","Kudu",10,-23.76,31.17,313503.61,7371144.13
"8228",8228,1978,4,"ko","Kudu",6,-23.7,31.19,315457.78,7377815.09
"8232",8232,1978,4,"ko","Kudu",2,-23.85,31.21,317706.67,7361228.74
"8239",8239,1978,4,"ko","Kudu",4,-23.81,31.21,317650.74,7365658.67
"8240",8240,1978,4,"ko","Kudu",7,-23.81,31.23,319688.6,7365684.23
"8250",8250,1978,4,"ko","Kudu",7,-23.78,31.21,317608.85,7368981.1
"8261",8261,1978,4,"ko","Kudu",4,-23.74,31.23,319592.02,7373436.5
"8264",8264,1978,4,"ko","Kudu",5,-23.7,31.21,317497.38,7377840.85
"8270",8270,1978,4,"ko","Kudu",6,-23.85,31.28,324836.94,7361317.08
"8298",8298,1978,4,"ko","Kudu",3,-23.72,31.28,324662.59,7375713.89
"8318",8318,1978,4,"ko","Kudu",9,-23.83,31.32,328885.05,7363580.85
"8324",8324,1978,4,"ko","Kudu",3,-23.76,31.32,328793.31,7371332.88
"8342",8342,1978,4,"ko","Kudu",7,-23.74,31.32,328767.15,7373547.74
"8347",8347,1978,4,"ko","Kudu",6,-23.85,31.34,330948.46,7361389.99
"8352",8352,1978,4,"ko","Kudu",3,-23.81,31.34,330896.59,7365819.71
"8357",8357,1978,4,"ko","Kudu",6,-23.83,31.34,330922.52,7363604.85
"8378",8378,1978,5,"ko","Kudu",6,-23.81,31.36,332934.36,7365843.41
"8390",8390,1978,5,"ko","Kudu",6,-23.87,31.4,337084.88,7359245.49
"8399",8399,1978,5,"ko","Kudu",11,-23.83,31.38,334997.42,7363651.99
"8402",8402,1978,5,"ko","Kudu",6,-23.83,31.4,337034.85,7363675.13
"8423",8423,1978,5,"ko","Kudu",2,-23.87,31.44,341158.45,7359290.96
"8428",8428,1978,5,"ko","Kudu",5,-23.81,31.44,341085.31,7365935.32
"8444",8444,1978,5,"ko","Kudu",6,-23.78,31.42,339010.62,7369234.96
"8463",8463,1978,5,"ko","Kudu",5,-23.83,31.48,345184.44,7363764.8
"8470",8470,1978,5,"ko","Kudu",8,-23.76,31.46,343062.98,7371494.48
"8474",8474,1978,5,"ko","Kudu",7,-23.78,31.46,343086.98,7369279.73
"8479",8479,1978,5,"ko","Kudu",4,-23.78,31.48,345125.13,7369301.68
"8485",8485,1978,5,"ko","Kudu",4,-23.85,31.53,350300.8,7361603.78
"8490",8490,1978,5,"ko","Kudu",4,-23.81,31.53,350254.87,7366033.23
"8496",8496,1978,5,"ko","Kudu",4,-23.78,31.51,348182.35,7369334.07
"8503",8503,1978,5,"ko","Kudu",8,-23.85,31.55,352337.82,7361624.77
"8515",8515,1978,5,"ko","Kudu",11,-23.83,31.55,352315.16,7363839.49
"8533",8533,1978,6,"ko","Kudu",8,-23.62,31.32,328610.61,7386836.75
"8535",8535,1978,6,"ko","Kudu",9,-23.58,31.3,326517.21,7391242.29
"8539",8539,1978,6,"ko","Kudu",3,-23.58,31.32,328558.59,7391266.38
"8543",8543,1978,6,"ko","Kudu",5,-23.68,31.34,330728.59,7380216.15
"8564",8564,1978,6,"ko","Kudu",2,-23.56,31.34,330574.29,7393504.98
"8584",8584,1978,6,"ko","Kudu",5,-23.68,31.4,336847.94,7380286.09
"8592",8592,1978,6,"ko","Kudu",6,-23.66,31.38,334783.03,7382477.85
"8600",8600,1978,6,"ko","Kudu",2,-23.6,31.4,336748.71,7389145.15
"8604",8604,1978,6,"ko","Kudu",5,-23.62,31.4,336773.49,7386930.39
"8606",8606,1978,6,"ko","Kudu",5,-23.56,31.38,334657.59,7393551.71
"8610",8610,1978,6,"ko","Kudu",5,-23.58,31.4,336723.96,7391359.9
"8620",8620,1978,6,"ko","Kudu",6,-23.68,31.44,340927.44,7380331.29
"8625",8625,1978,6,"ko","Kudu",7,-23.66,31.42,338863.17,7382523.59
"8629",8629,1978,6,"ko","Kudu",13,-23.6,31.44,340830.7,7389190.23
"8649",8649,1978,6,"ko","Kudu",4,-23.7,31.46,342991.09,7378138.72
"8665",8665,1978,7,"ko","Kudu",3,-23.64,31.21,317414.01,7384485.62
"8676",8676,1978,7,"ko","Kudu",5,-23.62,31.23,319427.08,7386725.94
"8690",8690,1978,7,"ko","Kudu",2,-23.62,31.28,324529.08,7386788.22
"8708",8708,1978,8,"ko","Kudu",1,-23.43,31.23,319167.55,7407767.18
"8713",8713,1978,8,"ko","Kudu",4,-23.51,31.28,324382.83,7398969.82
"8718",8718,1978,8,"ko","Kudu",7,-23.47,31.26,322286.71,7403374.88
"8725",8725,1978,8,"ko","Kudu",4,-23.45,31.28,324303.34,7405614.27
"8733",8733,1978,8,"ko","Kudu",7,-23.51,31.32,328467.77,7399018.18
"8749",8749,1978,8,"ko","Kudu",2,-23.53,31.34,330535.83,7396827.16
"8758",8758,1978,8,"ko","Kudu",4,-23.49,31.36,332527.36,7401280.17
"8797",8797,1978,9,"ko","Kudu",2,-23.49,31.09,304949.12,7400939.52
"8817",8817,1978,9,"ko","Kudu",2,-23.58,31.13,309164.91,7391025.96
"8821",8821,1978,9,"ko","Kudu",3,-23.58,31.15,311206.42,7391052.48
"8842",8842,1978,9,"ko","Kudu",5,-23.51,31.19,315191.52,7398856.84
"8843",8843,1978,9,"ko","Kudu",4,-23.53,31.17,313177.2,7396616.03
"8855",8855,1978,9,"ko","Kudu",5,-23.49,31.17,313120.74,7401045.86
"8863",8863,1978,9,"ko","Kudu",5,-23.58,31.21,317330.84,7391130.33
"8866",8866,1978,9,"ko","Kudu",4,-23.58,31.23,319372.28,7391155.71
"8884",8884,1978,10,"ko","Kudu",6,-23.37,31.03,298638.47,7414146.87
"8890",8890,1978,10,"ko","Kudu",2,-23.33,31.01,296532.61,7418548.86
"8911",8911,1978,10,"ko","Kudu",2,-23.41,31.05,300743.17,7409744.65
"8928",8928,1978,10,"ko","Kudu",3,-23.31,31.07,302639.39,7420846.97
"8931",8931,1978,10,"ko","Kudu",2,-23.33,31.05,300623.51,7418604.58
"8940",8940,1978,10,"ko","Kudu",5,-23.28,31.05,300548.92,7424142
"8955",8955,1978,10,"ko","Kudu",5,-23.41,31.11,306875.71,7409826.33
"8971",8971,1978,10,"ko","Kudu",5,-23.39,31.15,310935.57,7412094.26
"8993",8993,1978,10,"ko","Kudu",1,-23.31,31.15,310822.15,7420953.82
"8999",8999,1978,10,"ko","Kudu",1,-23.33,31.15,310850.47,7418738.94
"9004",9004,1978,10,"ko","Kudu",1,-23.39,31.17,312979.99,7412120.34
"9006",9006,1978,10,"ko","Kudu",17,-23.39,31.19,315024.4,7412146.13
"9024",9024,1978,10,"ko","Kudu",1,-23.31,31.19,314913.43,7421005.55
"9029",9029,1978,10,"ko","Kudu",7,-23.33,31.19,314941.14,7418790.7
"9031",9031,1978,10,"ko","Kudu",3,-23.33,31.21,316986.45,7418816.16
"9034",9034,1978,11,"ko","Kudu",6,-23.39,31.21,317068.79,7412171.63
"9039",9039,1978,11,"ko","Kudu",1,-23.41,31.21,317096.28,7409956.78
"9047",9047,1978,11,"ko","Kudu",2,-23.28,31.21,316917.99,7424353.22
"9073",9073,1978,11,"ko","Kudu",2,-23.26,31.28,324052.87,7426654.7
"9080",9080,1978,11,"ko","Kudu",1,-23.22,31.28,324000.38,7431084.21
"9083",9083,1978,11,"ko","Kudu",5,-23.24,31.28,324026.62,7428869.46
"9088",9088,1978,11,"ko","Kudu",4,-23.2,31.26,321926.93,7433274.6
"9094",9094,1978,11,"ko","Kudu",2,-23.35,31.3,326216.21,7416712.44
"9097",9097,1978,11,"ko","Kudu",1,-23.33,31.3,326190.17,7418927.2
"9107",9107,1978,11,"ko","Kudu",3,-23.24,31.3,326073.24,7428893.57
"9109",9109,1978,11,"ko","Kudu",2,-23.24,31.32,328119.84,7428917.4
"9131",9131,1978,12,"ko","Kudu",10,-23.18,30.96,291185.26,7435090.39
"9142",9142,1978,12,"ko","Kudu",7,-23.22,31.01,296365.35,7430731.34
"9156",9156,1978,12,"ko","Kudu",6,-23.2,31.03,298382.47,7432974.2
"9161",9161,1978,12,"ko","Kudu",7,-23.26,31.07,302565.63,7426384.33
"9176",9176,1978,12,"ko","Kudu",4,-23.24,31.07,302536.16,7428599.27
"9178",9178,1978,12,"ko","Kudu",3,-23.18,31.05,300400.2,7435216.74
"9180",9180,1978,12,"ko","Kudu",4,-23.2,31.05,300429.9,7433001.8
"9187",9187,1978,12,"ko","Kudu",4,-23.26,31.11,306658.57,7426438.23
"9196",9196,1978,12,"ko","Kudu",16,-23.22,31.11,306600.89,7430868.03
"9201",9201,1978,12,"ko","Kudu",7,-23.24,31.11,306629.72,7428653.13
"9218",9218,1978,12,"ko","Kudu",5,-23.22,31.15,310694.99,7430920.73
"9227",9227,1978,12,"ko","Kudu",2,-23.2,31.13,308619.45,7433109.39
"9236",9236,1978,12,"ko","Kudu",2,-23.28,31.19,314871.91,7424327.81
"9246",9246,1978,12,"ko","Kudu",7,-23.24,31.17,312769.93,7428731.81
"9251",9251,1978,13,"ko","Kudu",5,-23.64,31.48,344959.72,7384804.76
"9257",9257,1978,13,"ko","Kudu",3,-23.76,31.53,350197.57,7371570.01
"9277",9277,1978,13,"ko","Kudu",10,-23.7,31.53,350128.95,7378214.1
"9280",9280,1978,13,"ko","Kudu",3,-23.64,31.53,350060.5,7384858.14
"9285",9285,1978,13,"ko","Kudu",6,-23.76,31.55,352235.99,7371590.94
"9293",9293,1978,13,"ko","Kudu",2,-23.72,31.57,354229.89,7376040.93
"9297",9297,1978,13,"ko","Kudu",1,-23.74,31.55,352213.42,7373805.63
"9298",9298,1978,13,"ko","Kudu",2,-23.74,31.57,354252.14,7373826.26
"9307",9307,1978,13,"ko","Kudu",2,-23.66,31.55,352123.28,7382664.33
"9322",9322,1978,13,"ko","Kudu",8,-23.81,31.61,358405.38,7366115.37
"9330",9330,1978,13,"ko","Kudu",10,-23.76,31.59,356312.81,7371631.94
"9333",9333,1978,13,"ko","Kudu",8,-23.76,31.61,358351.2,7371652.02
"9345",9345,1978,13,"ko","Kudu",3,-23.74,31.59,356290.85,7373846.61
"9347",9347,1978,13,"ko","Kudu",4,-23.74,31.61,358329.56,7373866.67
"9351",9351,1978,13,"ko","Kudu",19,-23.68,31.59,356225.1,7380490.56
"9353",9353,1978,13,"ko","Kudu",3,-23.68,31.61,358264.73,7380510.58
"9357",9357,1978,13,"ko","Kudu",1,-23.7,31.59,356247,7378275.92
"9364",9364,1978,13,"ko","Kudu",1,-23.66,31.59,356203.21,7382705.2
"9385",9385,1978,13,"ko","Kudu",1,-23.81,31.65,362480.57,7366154.71
"9394",9394,1978,13,"ko","Kudu",2,-23.83,31.65,362501.64,7363940.07
"9396",9396,1978,13,"ko","Kudu",3,-23.76,31.63,360389.58,7371671.8
"9402",9402,1978,13,"ko","Kudu",8,-23.76,31.65,362427.94,7371691.3
"9406",9406,1978,13,"ko","Kudu",9,-23.78,31.63,360410.93,7369457.16
"9408",9408,1978,13,"ko","Kudu",5,-23.78,31.65,362448.98,7369476.67
"9414",9414,1978,13,"ko","Kudu",5,-23.74,31.63,360368.25,7373886.44
"9430",9430,1978,13,"ko","Kudu",1,-23.64,31.63,360261.84,7384959.54
"9441",9441,1978,14,"ko","Kudu",3,-23.47,31.36,332502.09,7403494.92
"9479",9479,1978,14,"ko","Kudu",13,-23.6,31.46,342871.67,7389212.34
"9492",9492,1978,14,"ko","Kudu",5,-23.51,31.46,342764.59,7399178.48
"9499",9499,1978,14,"ko","Kudu",11,-23.53,31.46,342788.35,7396963.79
"9506",9506,1978,14,"ko","Kudu",5,-23.47,31.48,344760.09,7403629.58
"9517",9517,1978,14,"ko","Kudu",17,-23.45,31.48,344736.7,7405844.24
"9526",9526,1978,14,"ko","Kudu",1,-23.58,31.53,349992.22,7391502.14
"9527",9527,1978,14,"ko","Kudu",5,-23.51,31.53,349912.76,7399253.4
"9530",9530,1978,14,"ko","Kudu",2,-23.53,31.51,347893.43,7397017.7
"9534",9534,1978,14,"ko","Kudu",1,-23.47,31.53,349867.45,7403682.67
"9535",9535,1978,14,"ko","Kudu",6,-23.49,31.51,347847.47,7401447
"9547",9547,1978,14,"ko","Kudu",4,-23.49,31.55,351932.71,7401488.79
"9568",9568,1978,15,"ko","Kudu",3,-23.39,31.38,334445.5,7412376.97
"9577",9577,1978,15,"ko","Kudu",7,-23.31,31.38,334346.2,7421235.79
"9580",9580,1978,15,"ko","Kudu",3,-23.31,31.4,336391.68,7421258.54
"9596",9596,1978,15,"ko","Kudu",5,-23.39,31.42,338533.99,7412422.31
"9602",9602,1978,15,"ko","Kudu",2,-23.43,31.46,342669.74,7408037.19
"9604",9604,1978,15,"ko","Kudu",2,-23.43,31.48,344713.32,7408058.89
"9613",9613,1978,15,"ko","Kudu",9,-23.35,31.48,344620,7416917.46
"9621",9621,1978,15,"ko","Kudu",5,-23.33,31.48,344596.72,7419132.09
"9623",9623,1978,15,"ko","Kudu",3,-23.43,31.51,347778.67,7408090.92
"9626",9626,1978,15,"ko","Kudu",8,-23.39,31.51,347732.9,7412520.17
"9633",9633,1978,15,"ko","Kudu",2,-23.35,31.51,347687.19,7416949.4
"9635",9635,1978,15,"ko","Kudu",8,-23.31,31.53,349686.96,7421399.52
"9640",9640,1978,15,"ko","Kudu",8,-23.33,31.51,347664.37,7419164.01
"9646",9646,1978,18,"ko","Kudu",5,-23.26,31.32,328145.48,7426702.67
"9654",9654,1978,18,"ko","Kudu",2,-23.26,31.34,330191.77,7426726.23
"9657",9657,1978,18,"ko","Kudu",6,-23.26,31.36,332238.04,7426749.51
"9659",9659,1978,18,"ko","Kudu",14,-23.22,31.34,330141.12,7431155.64
"9662",9662,1978,18,"ko","Kudu",5,-23.24,31.34,330166.43,7428940.94
"9671",9671,1978,18,"ko","Kudu",3,-23.2,31.34,330115.82,7433370.34
"9674",9674,1978,18,"ko","Kudu",1,-23.2,31.36,332163.01,7433393.57
"9681",9681,1978,18,"ko","Kudu",1,-23.26,31.38,334284.3,7426772.51
"9684",9684,1978,18,"ko","Kudu",5,-23.26,31.4,336330.54,7426795.22
"9702",9702,1978,18,"ko","Kudu",5,-23.14,31.4,336184.33,7440083.12
"9711",9711,1978,18,"ko","Kudu",2,-23.16,31.4,336208.65,7437868.48
"9731",9731,1978,18,"ko","Kudu",2,-23.22,31.42,338328.56,7431246.94
"9736",9736,1978,18,"ko","Kudu",32,-23.24,31.44,340399.18,7429054.43
"9757",9757,1978,18,"ko","Kudu",16,-23.14,31.42,338232.38,7440105.46
"9769",9769,1978,18,"ko","Kudu",2,-23.16,31.42,338256.4,7437890.84
"9789",9789,1978,18,"ko","Kudu",9,-23.28,31.48,344538.6,7424668.63
"9795",9795,1978,18,"ko","Kudu",5,-23.22,31.48,344469.01,7431312.45
"9799",9799,1978,18,"ko","Kudu",2,-23.24,31.48,344492.18,7429097.85
"9813",9813,1978,18,"ko","Kudu",1,-23.2,31.46,342398.74,7433505.5
"9823",9823,1978,18,"ko","Kudu",7,-23.16,31.46,342351.87,7437934.7
"9828",9828,1978,18,"ko","Kudu",2,-23.26,31.51,347584.64,7426915.09
"9830",9830,1978,18,"ko","Kudu",6,-23.26,31.53,349630.8,7426935.97
"9834",9834,1978,18,"ko","Kudu",5,-23.28,31.51,347607.4,7424700.5
"9841",9841,1978,18,"ko","Kudu",8,-23.22,31.51,347539.18,7431344.25
"9844",9844,1978,18,"ko","Kudu",4,-23.22,31.53,349585.95,7431365.1
"9847",9847,1978,18,"ko","Kudu",6,-23.24,31.51,347561.9,7429129.67
"9852",9852,1978,18,"ko","Kudu",3,-23.2,31.53,349563.55,7433579.66
"9856",9856,1978,18,"ko","Kudu",20,-23.28,31.55,351699.09,7424742
"9862",9862,1978,18,"ko","Kudu",12,-23.24,31.55,351654.81,7429171.12
"9880",9880,1978,19,"ko","Kudu",3,-23.33,31.55,351754.53,7419205.57
"9893",9893,1978,19,"ko","Kudu",3,-23.87,31.65,362543.85,7359510.77
"9898",9898,1978,19,"ko","Kudu",1,-23.6,31.63,360219.4,7389388.75
"9902",9902,1978,19,"ko","Kudu",2,-23.6,31.65,362260.26,7389408.14
"9905",9905,1978,19,"ko","Kudu",2,-23.62,31.63,360240.62,7387174.15
"9910",9910,1978,19,"ko","Kudu",12,-23.62,31.65,362281.16,7387193.56
"9923",9923,1978,19,"ko","Kudu",1,-23.85,31.67,364559.69,7361744.69
"9935",9935,1978,19,"ko","Kudu",5,-23.81,31.69,366555.71,7366192.91
"9939",9939,1978,19,"ko","Kudu",5,-23.83,31.67,364538.91,7363959.32
"9947",9947,1978,19,"ko","Kudu",6,-23.78,31.69,366525.06,7369514.83
"9953",9953,1978,19,"ko","Kudu",1,-23.74,31.67,364445.59,7373925.12
"9956",9956,1978,19,"ko","Kudu",7,-23.68,31.67,364383.57,7380568.93
"9960",9960,1978,19,"ko","Kudu",2,-23.7,31.67,364404.23,7378354.33
"9969",9969,1978,19,"ko","Kudu",10,-23.93,31.73,370750.01,7352942.3
"9976",9976,1978,19,"ko","Kudu",11,-23.89,31.73,370710.21,7357371.54
"9979",9979,1978,19,"ko","Kudu",6,-23.91,31.71,368694.12,7355138.48
"9984",9984,1978,19,"ko","Kudu",9,-23.85,31.71,368633.56,7361782.36
"10008",10008,1978,19,"ko","Kudu",5,-23.93,31.78,375839.12,7352987.16
"10011",10011,1978,19,"ko","Kudu",3,-23.95,31.76,373822.93,7350754.82
"10014",10014,1978,19,"ko","Kudu",4,-23.95,31.78,375858.26,7350772.56
"10023",10023,1978,19,"ko","Kudu",1,-23.97,31.8,377912.41,7348575.42
"10027",10027,1978,19,"ko","Kudu",1,-23.97,31.82,379947.4,7348592.59
"10033",10033,1978,19,"ko","Kudu",6,-23.95,31.8,377893.57,7350790.01
"10036",10036,1978,19,"ko","Kudu",5,-23.95,31.82,379928.87,7350807.18
"10040",10040,1978,19,"ko","Kudu",7,-23.97,31.84,381982.38,7348609.48
"10045",10045,1978,19,"ko","Kudu",2,-23.97,31.86,384017.34,7348626.07
"10048",10048,1978,19,"ko","Kudu",1,-23.99,31.84,382000.6,7346394.9
"10054",10054,1978,19,"ko","Kudu",6,-23.95,31.84,381964.16,7350824.05
"10073",10073,1978,20,"ko","Kudu",17,-24.1,31.38,335340.9,7333751.31
"10076",10076,1978,20,"ko","Kudu",2,-24.1,31.4,337374.09,7333774.64
"10083",10083,1978,20,"ko","Kudu",4,-24.1,31.42,339407.26,7333797.69
"10091",10091,1978,20,"ko","Kudu",1,-24.06,31.44,341391.2,7338250.15
"10094",10094,1978,20,"ko","Kudu",2,-24.08,31.42,339382.32,7336012.56
"10101",10101,1978,20,"ko","Kudu",2,-24.06,31.48,345458.74,7338294.73
"10107",10107,1978,20,"ko","Kudu",3,-24.08,31.48,345482.71,7336079.91
"10128",10128,1978,20,"ko","Kudu",3,-24.1,31.59,356688.71,7333981.85
"10150",10150,1978,20,"ko","Kudu",2,-24.08,31.63,360733.18,7336236.87
"10154",10154,1978,20,"ko","Kudu",5,-24.08,31.65,362766.53,7336256.57
"10166",10166,1978,21,"ko","Kudu",3,-24.22,31.44,341588.55,7320531.2
"10172",10172,1978,21,"ko","Kudu",3,-24.22,31.46,343619.79,7320553.74
"10181",10181,1978,21,"ko","Kudu",6,-24.18,31.48,345602.84,7325005.72
"10185",10185,1978,21,"ko","Kudu",4,-24.2,31.46,343595.37,7322768.62
"10188",10188,1978,21,"ko","Kudu",10,-24.2,31.48,345626.92,7322790.86
"10198",10198,1978,21,"ko","Kudu",15,-24.18,31.51,348650.62,7325038.52
"10217",10217,1978,21,"ko","Kudu",9,-24.16,31.51,348627.03,7327253.34
"10225",10225,1978,21,"ko","Kudu",4,-24.12,31.51,348579.91,7331682.99
"10229",10229,1978,21,"ko","Kudu",8,-24.12,31.53,350612.69,7331704.45
"10241",10241,1978,21,"ko","Kudu",8,-24.2,31.57,354768.74,7322887.36
"10248",10248,1978,21,"ko","Kudu",4,-24.22,31.59,356822.58,7320693.21
"10256",10256,1978,21,"ko","Kudu",2,-24.18,31.61,358809.67,7325143.12
"10263",10263,1978,21,"ko","Kudu",11,-24.16,31.59,356755.57,7327337.56
"10265",10265,1978,21,"ko","Kudu",2,-24.16,31.61,358787.67,7327357.88
"10271",10271,1978,21,"ko","Kudu",5,-24.26,31.63,360928.37,7316304.11
"10274",10274,1978,21,"ko","Kudu",1,-24.22,31.63,360884.88,7320733.65
"10285",10285,1978,21,"ko","Kudu",1,-24.18,31.65,362873.22,7325182.93
"10295",10295,1978,22,"ko","Kudu",1,-24.43,31.38,335765.67,7297204.71
"10300",10300,1978,22,"ko","Kudu",18,-24.43,31.4,337793.61,7297228.28
"10304",10304,1978,22,"ko","Kudu",3,-24.41,31.4,337768.03,7299443.25
"10313",10313,1978,22,"ko","Kudu",3,-24.37,31.4,337716.93,7303873.18
"10316",10316,1978,22,"ko","Kudu",14,-24.43,31.42,339821.53,7297251.56
"10322",10322,1978,22,"ko","Kudu",6,-24.43,31.44,341849.44,7297274.55
"10340",10340,1978,22,"ko","Kudu",2,-24.41,31.42,339796.27,7299466.52
"10345",10345,1978,22,"ko","Kudu",2,-24.41,31.44,341824.5,7299489.49
"10374",10374,1978,22,"ko","Kudu",7,-24.43,31.48,345905.22,7297319.65
"10377",10377,1978,22,"ko","Kudu",1,-24.39,31.46,343828.12,7301727.1
"10381",10381,1978,22,"ko","Kudu",6,-24.39,31.48,345856.64,7301749.47
"10389",10389,1978,22,"ko","Kudu",1,-24.41,31.48,345880.92,7299534.56
"10406",10406,1978,22,"ko","Kudu",1,-24.31,31.46,343729.91,7310586.75
"10411",10411,1978,22,"ko","Kudu",6,-24.33,31.46,343754.44,7308371.84
"10414",10414,1978,22,"ko","Kudu",6,-24.33,31.48,345783.92,7308394.18
"10421",10421,1978,22,"ko","Kudu",5,-24.39,31.53,350927.9,7301804.13
"10430",10430,1978,22,"ko","Kudu",6,-24.41,31.53,350951.38,7299589.25
"10434",10434,1978,22,"ko","Kudu",8,-24.35,31.53,350880.99,7306233.87
"10437",10437,1978,22,"ko","Kudu",11,-24.37,31.53,350904.44,7304019
"10447",10447,1978,22,"ko","Kudu",15,-24.39,31.57,354984.85,7301846.53
"10454",10454,1978,22,"ko","Kudu",5,-24.37,31.55,352933.24,7304040.34
"10458",10458,1978,22,"ko","Kudu",7,-24.31,31.55,352863.92,7310684.88
"10476",10476,1978,23,"ko","Kudu",12,-24.26,31.65,362958.86,7316323.92
"10482",10482,1978,23,"ko","Kudu",5,-24.24,31.65,362937.43,7318538.68
"10494",10494,1978,23,"ko","Kudu",9,-24.16,31.65,362851.85,7327397.67
"10514",10514,1978,23,"ko","Kudu",3,-24.18,31.69,366936.71,7325221.57
"10518",10518,1978,23,"ko","Kudu",3,-24.2,31.67,364926.04,7322987.66
"10533",10533,1978,23,"ko","Kudu",9,-24.16,31.67,364883.92,7327417.12
"10537",10537,1978,23,"ko","Kudu",8,-24.16,31.69,366915.98,7327436.28
"10541",10541,1978,23,"ko","Kudu",6,-24.1,31.67,364820.85,7334061.27
"10567",10567,1978,23,"ko","Kudu",1,-24.26,31.71,369050.28,7316381.59
"10569",10569,1978,23,"ko","Kudu",7,-24.26,31.73,371080.73,7316400.23
"10611",10611,1978,23,"ko","Kudu",3,-24.08,31.71,368866.5,7336313.92
"10615",10615,1978,23,"ko","Kudu",4,-24.26,31.76,374126.39,7316427.64
"10629",10629,1978,24,"ko","Kudu",2,-24.35,31.61,358997.4,7306317.41
"10633",10633,1978,24,"ko","Kudu",4,-24.37,31.61,359019.57,7304102.59
"10637",10637,1978,24,"ko","Kudu",5,-24.31,31.61,358953.12,7310747.02
"10640",10640,1978,24,"ko","Kudu",2,-24.33,31.61,358975.25,7308532.22
"10649",10649,1978,24,"ko","Kudu",14,-24.28,31.61,358919.95,7314069.22
"10663",10663,1978,24,"ko","Kudu",4,-24.37,31.65,363077.07,7304142.63
"10669",10669,1978,24,"ko","Kudu",2,-24.31,31.65,363012.53,7310786.99
"10672",10672,1978,24,"ko","Kudu",6,-24.33,31.63,361004.64,7308552.36
"10687",10687,1978,24,"ko","Kudu",2,-24.28,31.65,362980.32,7314109.15
"10690",10690,1978,24,"ko","Kudu",9,-24.39,31.67,365127.02,7301947.43
"10693",10693,1978,24,"ko","Kudu",11,-24.39,31.69,367155.42,7301966.73
"10702",10702,1978,24,"ko","Kudu",3,-24.35,31.69,367113.63,7306396.27
"10706",10706,1978,24,"ko","Kudu",8,-24.37,31.67,365105.8,7304162.21
"10734",10734,1978,24,"ko","Kudu",10,-24.39,31.73,371212.19,7302004.45
"10738",10738,1978,24,"ko","Kudu",4,-24.35,31.71,369142.66,7306415.25
"10748",10748,1978,24,"ko","Kudu",6,-24.33,31.71,369122.1,7308630
"10749",10749,1978,24,"ko","Kudu",5,-24.33,31.73,371151.44,7308648.69
"10755",10755,1978,24,"ko","Kudu",1,-24.28,31.71,369070.78,7314166.86
"10762",10762,1978,24,"ko","Kudu",9,-24.39,31.78,376283.1,7302049.96
"10767",10767,1978,24,"ko","Kudu",5,-24.41,31.76,374274.55,7299817.24
"10778",10778,1978,25,"ko","Kudu",1,-24.1,31.73,370919.85,7334117.78
"10781",10781,1978,25,"ko","Kudu",5,-24.12,31.73,370939.9,7331903.11
"10785",10785,1978,25,"ko","Kudu",2,-24.08,31.73,370899.81,7336332.45
"10790",10790,1978,25,"ko","Kudu",4,-24.14,31.76,374008.49,7329715.74
"10810",10810,1978,25,"ko","Kudu",2,-24.12,31.78,376021.54,7331948.24
"10814",10814,1978,25,"ko","Kudu",6,-24.06,31.76,373930.19,7338574.36
"10819",10819,1978,25,"ko","Kudu",8,-24.06,31.78,375963.78,7338592.16
"10830",10830,1978,25,"ko","Kudu",2,-24.01,31.76,373881.38,7344110.96
"10839",10839,1978,25,"ko","Kudu",4,-24.03,31.76,373900.89,7341896.32
"10847",10847,1978,25,"ko","Kudu",9,-24.18,31.82,380142.78,7325339.13
"10850",10850,1978,25,"ko","Kudu",14,-24.14,31.8,378073.13,7329751.14
"10857",10857,1978,25,"ko","Kudu",8,-24.14,31.82,380105.44,7329768.41
"10866",10866,1978,25,"ko","Kudu",8,-24.1,31.8,378035.22,7334180.42
"10882",10882,1978,25,"ko","Kudu",2,-24.12,31.82,380086.79,7331983.04
"10890",10890,1978,25,"ko","Kudu",6,-24.06,31.82,380030.94,7338626.9
"10895",10895,1978,25,"ko","Kudu",12,-24.08,31.8,378016.29,7336395.05
"10899",10899,1978,25,"ko","Kudu",2,-24.08,31.82,380049.54,7336412.28
"10910",10910,1978,25,"ko","Kudu",4,-24.03,31.8,377969.01,7341931.6
"10919",10919,1978,25,"ko","Kudu",9,-24.18,31.84,382174.45,7325356.12
"10923",10923,1978,25,"ko","Kudu",3,-24.18,31.86,384206.11,7325372.83
"10934",10934,1978,25,"ko","Kudu",4,-24.16,31.86,384188.06,7327587.45
"10956",10956,1978,25,"ko","Kudu",5,-24.06,31.84,382064.5,7338643.83
"10972",10972,1978,25,"ko","Kudu",6,-24.01,31.84,382018.84,7344180.31
"10981",10981,1978,25,"ko","Kudu",4,-24.03,31.86,384071.12,7341982.35
"11006",11006,1978,25,"ko","Kudu",17,-24.06,31.88,386131.59,7338676.82
"11010",11010,1978,25,"ko","Kudu",17,-24.08,31.88,386149.25,7336462.24
"11016",11016,1978,25,"ko","Kudu",8,-24.03,31.88,386105.13,7341998.69
"11019",11019,1978,25,"ko","Kudu",1,-23.99,31.88,386069.9,7346427.82
"11028",11028,1978,26,"ko","Kudu",5,-24.37,31.78,376263.63,7304264.68
"11032",11032,1978,26,"ko","Kudu",6,-24.31,31.78,376205.31,7310908.82
"11037",11037,1978,26,"ko","Kudu",3,-24.33,31.78,376224.74,7308694.11
"11041",11041,1978,26,"ko","Kudu",22,-24.26,31.78,376156.82,7316445.55
"11044",11044,1978,26,"ko","Kudu",30,-24.28,31.78,376176.2,7314230.86
"11046",11046,1978,26,"ko","Kudu",8,-24.22,31.78,376118.09,7320874.92
"11049",11049,1978,26,"ko","Kudu",10,-24.24,31.76,374106.7,7318642.34
"11050",11050,1978,26,"ko","Kudu",6,-24.24,31.78,376137.45,7318660.24
"11060",11060,1978,26,"ko","Kudu",16,-24.2,31.78,376098.75,7323089.6
"11062",11062,1978,26,"ko","Kudu",8,-24.39,31.8,378311.44,7302067.65
"11078",11078,1978,26,"ko","Kudu",10,-24.35,31.8,378273.16,7306497.07
"11082",11082,1978,26,"ko","Kudu",21,-24.35,31.82,380302.13,7306514.45
"11087",11087,1978,26,"ko","Kudu",17,-24.37,31.8,378292.29,7304282.36
"11093",11093,1978,26,"ko","Kudu",9,-24.31,31.8,378234.93,7310926.46
"11100",11100,1978,26,"ko","Kudu",14,-24.26,31.82,380217.64,7316480.51
"11103",11103,1978,26,"ko","Kudu",5,-24.28,31.8,378206.3,7314248.5
"11108",11108,1978,26,"ko","Kudu",19,-24.22,31.8,378149.14,7320892.52
"11112",11112,1978,26,"ko","Kudu",9,-24.22,31.82,380180.18,7320909.83
"11116",11116,1978,26,"ko","Kudu",11,-24.24,31.8,378168.18,7318677.85
"11118",11118,1978,26,"ko","Kudu",6,-24.24,31.82,380198.9,7318695.17
"11122",11122,1978,26,"ko","Kudu",15,-24.2,31.8,378130.12,7323107.18
"11124",11124,1978,26,"ko","Kudu",6,-24.2,31.82,380161.48,7323124.48
"11128",11128,1978,26,"ko","Kudu",3,-24.39,31.84,382368.1,7302102.16
"11138",11138,1978,26,"ko","Kudu",3,-24.35,31.84,382331.09,7306531.53
"11152",11152,1978,26,"ko","Kudu",6,-24.33,31.84,382312.61,7308746.21
"11163",11163,1978,26,"ko","Kudu",9,-24.28,31.84,382266.47,7314282.88
"11169",11169,1978,26,"ko","Kudu",20,-24.22,31.84,382211.21,7320926.84
"11182",11182,1978,26,"ko","Kudu",14,-24.35,31.88,386388.99,7306564.83
"11211",11211,1978,26,"ko","Kudu",8,-24.39,31.94,392509.59,7302183.3
"11224",11224,1978,27,"ko","Kudu",5,-24.22,31.86,384242.24,7320943.57
"11231",11231,1978,27,"ko","Kudu",2,-24.24,31.86,384260.32,7318728.93
"11240",11240,1978,27,"ko","Kudu",31,-24.26,31.88,386308.8,7316530.74
"11251",11251,1978,27,"ko","Kudu",6,-24.28,31.9,388356.65,7314332.28
"11254",11254,1978,27,"ko","Kudu",3,-24.22,31.88,386273.25,7320960.01
"11257",11257,1978,27,"ko","Kudu",15,-24.22,31.9,388304.25,7320976.15
"11262",11262,1978,27,"ko","Kudu",9,-24.2,31.9,388286.81,7323190.76
"11295",11295,1978,27,"ko","Kudu",21,-24.26,31.94,392399.88,7316578.36
"11300",11300,1978,27,"ko","Kudu",6,-24.28,31.92,390386.69,7314348.16
"11307",11307,1978,27,"ko","Kudu",5,-24.43,31.96,394571.09,7297769.37
"11313",11313,1978,27,"ko","Kudu",5,-24.43,31.98,396598.71,7297784.45
"11318",11318,1978,27,"ko","Kudu",5,-24.45,31.96,394587.72,7295554.73
"11324",11324,1978,27,"ko","Kudu",5,-24.45,31.98,396615.02,7295569.81
"11329",11329,1978,27,"ko","Kudu",13,-24.39,31.96,394537.86,7302198.65
"11333",11333,1978,27,"ko","Kudu",6,-24.39,31.98,396566.12,7302213.71
"11336",11336,1978,27,"ko","Kudu",5,-24.41,31.96,394554.47,7299984.02
"11353",11353,1978,27,"ko","Kudu",21,-24.35,31.98,396533.58,7306642.95
"11356",11356,1978,27,"ko","Kudu",13,-24.37,31.96,394521.26,7304413.28
"11362",11362,1978,27,"ko","Kudu",7,-24.31,31.96,394471.55,7311057.14
"11366",11366,1978,27,"ko","Kudu",7,-24.33,31.96,394488.11,7308842.53
"11387",11387,1978,28,"ko","Kudu",4,-24.47,31.8,378388.19,7293208.75
"11403",11403,1978,28,"ko","Kudu",6,-24.41,31.82,380358.62,7299870.35
"11412",11412,1978,28,"ko","Kudu",2,-24.49,31.86,384487.59,7291045.49
"11416",11416,1978,28,"ko","Kudu",4,-24.45,31.84,382423.72,7295458.05
"11417",11417,1978,28,"ko","Kudu",10,-24.45,31.86,384451.08,7295474.9
"11423",11423,1978,28,"ko","Kudu",3,-24.41,31.86,384414.62,7299904.29
"11425",11425,1978,28,"ko","Kudu",1,-24.64,31.9,388673.58,7274468
"11429",11429,1978,28,"ko","Kudu",7,-24.66,31.9,388691.32,7272253.26
"11435",11435,1978,28,"ko","Kudu",7,-24.56,31.9,388602.77,7283326.89
"11441",11441,1978,28,"ko","Kudu",3,-24.51,31.88,386532.25,7288847.36
"11449",11449,1978,28,"ko","Kudu",15,-24.47,31.88,386496.35,7293276.76
"11452",11452,1978,28,"ko","Kudu",1,-24.47,31.9,388523.37,7293293.03
"11458",11458,1978,28,"ko","Kudu",10,-24.49,31.88,386514.29,7291062.06
"11474",11474,1978,28,"ko","Kudu",3,-24.45,31.9,388505.76,7295507.71
"11478",11478,1978,28,"ko","Kudu",7,-24.41,31.88,386442.61,7299920.82
"11486",11486,1978,28,"ko","Kudu",12,-24.64,31.92,390697.86,7274484.06
"11489",11489,1978,28,"ko","Kudu",2,-24.64,31.94,392722.12,7274499.82
"11501",11501,1978,28,"ko","Kudu",11,-24.62,31.92,390680.45,7276698.78
"11504",11504,1978,28,"ko","Kudu",8,-24.62,31.94,392705.04,7276714.53
"11513",11513,1978,28,"ko","Kudu",5,-24.58,31.92,390645.69,7281128.2
"11520",11520,1978,28,"ko","Kudu",13,-24.51,31.92,390584.99,7288879.64
"11527",11527,1978,28,"ko","Kudu",7,-24.53,31.92,390602.32,7286664.95
"11532",11532,1978,28,"ko","Kudu",5,-24.53,31.94,392628.36,7286680.66
"11543",11543,1978,28,"ko","Kudu",2,-24.47,31.94,392577.38,7293324.68
"11576",11576,1978,28,"ko","Kudu",5,-24.58,31.96,394696.15,7281159.38
"11588",11588,1978,28,"ko","Kudu",5,-24.53,31.96,394654.38,7286696.08
"11595",11595,1978,28,"ko","Kudu",6,-24.49,31.96,394621.03,7291125.41
"11612",11612,1978,29,"ko","Kudu",21,-24.51,31.78,376400.23,7288761.51
"11621",11621,1978,29,"ko","Kudu",1,-24.68,31.8,378590.78,7269953.71
"11625",11625,1978,29,"ko","Kudu",7,-24.64,31.8,378552.06,7274383.29
"11634",11634,1978,29,"ko","Kudu",8,-24.6,31.8,378513.41,7278812.85
"11638",11638,1978,29,"ko","Kudu",2,-24.6,31.82,380538.38,7278830.36
"11644",11644,1978,29,"ko","Kudu",2,-24.62,31.82,380557.37,7276615.59
"11678",11678,1978,29,"ko","Kudu",3,-24.76,31.84,382713.14,7261129.38
"11681",11681,1978,29,"ko","Kudu",6,-24.76,31.86,384735.5,7261146.38
"11700",11700,1978,29,"ko","Kudu",14,-24.74,31.84,382694.36,7263344.17
"11708",11708,1978,29,"ko","Kudu",3,-24.7,31.84,382656.85,7267773.74
"11721",11721,1978,29,"ko","Kudu",5,-24.6,31.86,384588.28,7278864.5
"11729",11729,1978,29,"ko","Kudu",4,-24.62,31.86,384606.63,7276649.75
"11758",11758,1978,29,"ko","Kudu",8,-24.68,31.9,388709.07,7270038.52
"11760",11760,1978,29,"ko","Kudu",11,-24.7,31.9,388726.83,7267823.78
"11761",11761,1978,29,"ko","Kudu",6,-24.64,31.88,386649.3,7274451.65
"11763",11763,1978,29,"ko","Kudu",4,-24.68,31.92,390732.7,7270054.6
"11767",11767,1978,29,"ko","Kudu",10,-24.7,31.92,390750.14,7267839.86
"11772",11772,1978,29,"ko","Kudu",7,-24.7,31.94,392773.43,7267855.65
"11780",11780,1978,30,"ko","Kudu",5,-24.76,31.9,388780.2,7261179.5
"11798",11798,1978,30,"ko","Kudu",5,-24.78,31.94,392842.03,7258996.68
"11806",11806,1978,30,"ko","Kudu",17,-24.72,31.94,392790.56,7265640.92
"11818",11818,1978,30,"ko","Kudu",2,-24.66,31.94,392739.21,7272285.1
"11822",11822,1978,30,"ko","Kudu",4,-24.81,31.96,394889.32,7255690.09
"11825",11825,1978,30,"ko","Kudu",3,-24.76,31.96,394847.18,7261226.96
"11831",11831,1978,30,"ko","Kudu",6,-24.76,31.98,396869.49,7261242.19
"11835",11835,1978,30,"ko","Kudu",5,-24.78,31.98,396886.01,7259027.45
"11839",11839,1978,30,"ko","Kudu",2,-24.72,31.96,394813.53,7265656.42
"11847",11847,1978,30,"ko","Kudu",3,-24.74,31.98,396852.98,7263456.91
"11849",11849,1978,30,"ko","Kudu",2,-24.68,31.96,394779.93,7270085.87
"11859",11859,1978,30,"ko","Kudu",1,-24.7,31.96,394796.72,7267871.15
"11866",11866,1978,30,"ko","Kudu",7,-24.64,31.96,394746.38,7274515.29
"11873",11873,1978,30,"ko","Kudu",8,-24.66,31.96,394763.15,7272300.58
"11882",11882,1978,30,"ko","Kudu",4,-24.6,31.96,394712.88,7278944.69
"11888",11888,1978,30,"ko","Kudu",3,-24.62,31.96,394729.62,7276729.99
"11891",11891,1978,30,"ko","Kudu",5,-24.62,31.98,396754.2,7276745.15
"11897",11897,1978,30,"ko","Kudu",5,-24.58,31.98,396721.37,7281174.52
"11929",11929,1978,31,"ko","Kudu",4,-24.43,31.61,359086.17,7297458.11
"11932",11932,1978,31,"ko","Kudu",9,-24.41,31.61,359063.95,7299672.94
"11937",11937,1978,31,"ko","Kudu",6,-24.6,31.65,363325.84,7278672.14
"11943",11943,1978,31,"ko","Kudu",5,-24.62,31.65,363347.58,7276457.27
"11950",11950,1978,31,"ko","Kudu",2,-24.56,31.65,363282.42,7283101.84
"11953",11953,1978,31,"ko","Kudu",12,-24.58,31.63,361278.74,7280866.99
"11961",11961,1978,31,"ko","Kudu",3,-24.51,31.65,363228.23,7288638.94
"11969",11969,1978,31,"ko","Kudu",6,-24.47,31.63,361157.81,7293048.66
"11975",11975,1978,31,"ko","Kudu",3,-24.47,31.65,363184.96,7293068.59
"11983",11983,1978,31,"ko","Kudu",3,-24.45,31.63,361135.88,7295263.49
"11990",11990,1978,31,"ko","Kudu",5,-24.41,31.63,361092.07,7299693.13
"11993",11993,1978,31,"ko","Kudu",2,-24.41,31.65,363120.17,7299713.03
"12000",12000,1978,31,"ko","Kudu",3,-24.6,31.69,367375.92,7278711.28
"12020",12020,1978,31,"ko","Kudu",1,-24.56,31.69,367333.78,7283140.94
"12028",12028,1978,31,"ko","Kudu",1,-24.58,31.69,367354.84,7280926.11
"12029",12029,1978,31,"ko","Kudu",11,-24.51,31.67,365254.72,7288658.6
"12033",12033,1978,31,"ko","Kudu",11,-24.51,31.69,367281.2,7288677.98
"12055",12055,1978,31,"ko","Kudu",13,-24.45,31.67,365190.8,7295303.04
"12064",12064,1978,31,"ko","Kudu",13,-24.41,31.67,365148.27,7299732.64
"12071",12071,1978,31,"ko","Kudu",9,-24.6,31.71,369400.94,7278730.41
"12084",12084,1978,31,"ko","Kudu",1,-24.62,31.73,371446.4,7276534.43
"12128",12128,1978,31,"ko","Kudu",1,-24.43,31.73,371252.78,7297574.94
"12150",12150,1978,31,"ko","Kudu",5,-24.58,31.76,374443.5,7280991.74
"12153",12153,1978,31,"ko","Kudu",5,-24.53,31.76,374393.69,7286528.69
"12155",12155,1978,31,"ko","Kudu",9,-24.47,31.76,374334.05,7293172.99
"12177",12177,1978,32,"ko","Kudu",2,-24.51,31.44,341949.39,7288414.72
"12181",12181,1978,32,"ko","Kudu",2,-24.53,31.44,341974.42,7286199.75
"12194",12194,1978,32,"ko","Kudu",9,-24.58,31.48,346088.06,7280707.59
"12198",12198,1978,32,"ko","Kudu",10,-24.53,31.46,344000.71,7286222.51
"12202",12202,1978,32,"ko","Kudu",8,-24.53,31.48,346026.99,7286244.98
"12205",12205,1978,32,"ko","Kudu",6,-24.47,31.46,343926.63,7292867.37
"12209",12209,1978,32,"ko","Kudu",2,-24.47,31.48,345953.87,7292889.8
"12214",12214,1978,32,"ko","Kudu",5,-24.49,31.46,343951.31,7290652.42
"12217",12217,1978,32,"ko","Kudu",4,-24.49,31.48,345978.23,7290674.86
"12230",12230,1978,32,"ko","Kudu",3,-24.56,31.53,351128.06,7282977.49
"12243",12243,1978,32,"ko","Kudu",7,-24.53,31.51,349066.39,7286278.13
"12244",12244,1978,32,"ko","Kudu",9,-24.53,31.53,351092.64,7286299.87
"12254",12254,1978,32,"ko","Kudu",2,-24.49,31.53,351045.48,7290729.68
"12266",12266,1978,32,"ko","Kudu",4,-24.43,31.53,350974.88,7297374.37
"12281",12281,1978,32,"ko","Kudu",5,-24.51,31.57,355122.16,7288557.34
"12284",12284,1978,32,"ko","Kudu",4,-24.53,31.55,353118.88,7286321.31
"12287",12287,1978,32,"ko","Kudu",9,-24.47,31.57,355076.32,7292987.09
"12289",12289,1978,32,"ko","Kudu",5,-24.49,31.55,353072.36,7290751.1
"12293",12293,1978,32,"ko","Kudu",4,-24.49,31.57,355099.23,7290772.22
"12314",12314,1978,32,"ko","Kudu",4,-24.51,31.59,357148.69,7288578.18
"12317",12317,1978,32,"ko","Kudu",9,-24.51,31.61,359175.22,7288598.73
"12329",12329,1978,32,"ko","Kudu",15,-24.49,31.59,357126.09,7290793.05
"12332",12332,1978,32,"ko","Kudu",3,-24.49,31.61,359152.93,7290813.58
"12338",12338,1978,32,"ko","Kudu",6,-24.45,31.61,359108.41,7295243.27
"12348",12348,1978,33,"ko","Kudu",4,-24.6,31.55,353200.46,7278569.12
"12351",12351,1978,33,"ko","Kudu",16,-24.6,31.57,355225.56,7278590.31
"12357",12357,1978,33,"ko","Kudu",3,-24.58,31.57,355202.55,7280805.22
"12375",12375,1978,33,"ko","Kudu",1,-24.68,31.61,359365.35,7269772.24
"12382",12382,1978,33,"ko","Kudu",8,-24.64,31.61,359320.5,7274202.04
"12416",12416,1978,33,"ko","Kudu",7,-24.74,31.65,363478.35,7263168
"12423",12423,1978,33,"ko","Kudu",3,-24.68,31.65,363412.89,7269812.66
"12436",12436,1978,33,"ko","Kudu",8,-24.66,31.63,361367.01,7272007.49
"12439",12439,1978,33,"ko","Kudu",3,-24.66,31.65,363391.1,7272027.54
"12442",12442,1978,33,"ko","Kudu",5,-24.76,31.67,365522.66,7260972.91
"12445",12445,1978,33,"ko","Kudu",1,-24.78,31.67,365544.2,7258758.02
"12456",12456,1978,34,"ko","Kudu",10,-24.76,31.69,367545.1,7260992.43
"12459",12459,1978,34,"ko","Kudu",13,-24.72,31.69,367502.71,7265422.17
"12464",12464,1978,34,"ko","Kudu",13,-24.68,31.67,365436.64,7269832.43
"12475",12475,1978,34,"ko","Kudu",2,-24.66,31.67,365415.18,7272047.29
"12480",12480,1978,34,"ko","Kudu",2,-24.66,31.69,367439.24,7272066.75
"12485",12485,1978,34,"ko","Kudu",7,-24.76,31.73,371589.97,7261030.58
"12487",12487,1978,34,"ko","Kudu",9,-24.72,31.71,369525.8,7265441.37
"12500",12500,1978,34,"ko","Kudu",5,-24.68,31.73,371507.83,7269889.95
"12508",12508,1978,34,"ko","Kudu",3,-24.7,31.73,371528.34,7267675.12
"12513",12513,1978,34,"ko","Kudu",5,-24.64,31.73,371466.86,7274319.61
"12518",12518,1978,34,"ko","Kudu",9,-24.76,31.76,374623.59,7261058.41
"12521",12521,1978,34,"ko","Kudu",7,-24.76,31.78,376645.99,7261076.6
"12527",12527,1978,34,"ko","Kudu",7,-24.72,31.76,374583.46,7265488.08
"12540",12540,1978,34,"ko","Kudu",1,-24.74,31.78,376626.24,7263291.42
"12559",12559,1978,34,"ko","Kudu",1,-24.66,31.78,376547.41,7272150.67
"12567",12567,1978,34,"ko","Kudu",3,-24.72,31.8,378629.55,7265524.11
"12570",12570,1978,34,"ko","Kudu",4,-24.74,31.8,378648.96,7263309.3
"12573",12573,1978,34,"ko","Kudu",8,-24.74,31.82,380671.67,7263326.89
"12579",12579,1978,34,"ko","Kudu",3,-24.78,31.84,382731.93,7258914.58
"12593",12593,1978,35,"ko","Kudu",2,-24.89,31.61,359601.92,7246515.44
"12595",12595,1978,35,"ko","Kudu",5,-24.91,31.61,359624.55,7244300.48
"12599",12599,1978,35,"ko","Kudu",2,-24.81,31.61,359511.58,7255375.25
"12606",12606,1978,35,"ko","Kudu",2,-24.97,31.65,363730.65,7237696.31
"12611",12611,1978,35,"ko","Kudu",3,-24.93,31.65,363686.62,7242126.22
"12614",12614,1978,35,"ko","Kudu",2,-24.95,31.63,361689.25,7239891.05
"12618",12618,1978,35,"ko","Kudu",3,-24.95,31.65,363708.63,7239911.27
"12629",12629,1978,35,"ko","Kudu",6,-24.91,31.65,363664.62,7244341.17
"12633",12633,1978,35,"ko","Kudu",2,-24.85,31.65,363598.74,7250985.98
"12639",12639,1978,35,"ko","Kudu",3,-24.81,31.63,361533.24,7255395.68
"12643",12643,1978,35,"ko","Kudu",23,-24.81,31.65,363554.9,7255415.82
"12648",12648,1978,35,"ko","Kudu",10,-24.83,31.65,363576.81,7253200.9
"12658",12658,1978,35,"ko","Kudu",1,-24.95,31.67,365728,7239931.2
"12663",12663,1978,35,"ko","Kudu",1,-24.95,31.69,367747.35,7239950.83
"12671",12671,1978,35,"ko","Kudu",4,-24.89,31.69,367683.33,7246595.6
"12681",12681,1978,35,"ko","Kudu",4,-24.91,31.69,367704.65,7244380.68
"12689",12689,1978,35,"ko","Kudu",3,-24.87,31.67,365641.36,7248790.93
"12690",12690,1978,35,"ko","Kudu",3,-24.87,31.69,367662.02,7248810.51
"12699",12699,1978,35,"ko","Kudu",4,-24.93,31.71,369745.67,7242185.07
"12702",12702,1978,35,"ko","Kudu",4,-24.93,31.73,371765.33,7242204.1
"12709",12709,1978,35,"ko","Kudu",8,-24.95,31.73,371786.04,7239989.19
"12720",12720,1978,35,"ko","Kudu",3,-24.91,31.73,371744.64,7244419
"12723",12723,1978,35,"ko","Kudu",4,-24.85,31.71,369661.7,7251044.69
"12726",12726,1978,35,"ko","Kudu",2,-24.87,31.71,369682.67,7248829.79
"12729",12729,1978,35,"ko","Kudu",9,-24.87,31.73,371703.31,7248848.78
"12740",12740,1978,36,"ko","Kudu",13,-24.81,31.73,371641.43,7255493.42
"12745",12745,1978,36,"ko","Kudu",5,-24.78,31.71,369588.44,7258796.78
"12760",12760,1978,36,"ko","Kudu",8,-24.87,31.78,376754.87,7248894.95
"12769",12769,1978,36,"ko","Kudu",8,-24.78,31.76,374643.68,7258843.57
"12774",12774,1978,36,"ko","Kudu",16,-24.78,31.78,376665.75,7258861.76
"12784",12784,1978,36,"ko","Kudu",40,-24.85,31.8,378755.97,7251127.75
"12797",12797,1978,36,"ko","Kudu",1,-24.83,31.8,378736.48,7253342.59
"12805",12805,1978,36,"ko","Kudu",5,-24.78,31.8,378687.82,7258879.67
"12817",12817,1978,36,"ko","Kudu",5,-24.85,31.86,384818.71,7251179.78
"12822",12822,1978,36,"ko","Kudu",12,-24.87,31.84,382816.66,7248947.91
"12829",12829,1978,36,"ko","Kudu",5,-24.81,31.84,382760.14,7255592.37
"12837",12837,1978,36,"ko","Kudu",5,-24.83,31.86,384800.19,7253394.59
"12840",12840,1978,36,"ko","Kudu",5,-24.89,31.88,386876.02,7246766.92
"12845",12845,1978,36,"ko","Kudu",8,-24.87,31.88,386857.8,7248981.73
"12854",12854,1978,36,"ko","Kudu",19,-24.83,31.88,386821.41,7253411.33
"12863",12863,1978,37,"ko","Kudu",35,-24.89,31.9,388896.25,7246783.39
"12866",12866,1978,37,"ko","Kudu",8,-24.91,31.9,388914.16,7244568.59
"12874",12874,1978,37,"ko","Kudu",3,-24.87,31.9,388878.36,7248998.19
"12877",12877,1978,37,"ko","Kudu",2,-24.83,31.9,388842.62,7253427.78
"12890",12890,1978,37,"ko","Kudu",3,-25.01,31.94,393040.41,7233526.64
"12901",12901,1978,37,"ko","Kudu",20,-24.97,31.94,393005.79,7237956.26
"12908",12908,1978,37,"ko","Kudu",2,-24.99,31.94,393023.09,7235741.45
"12913",12913,1978,37,"ko","Kudu",7,-24.93,31.92,390951.65,7242369.97
"12931",12931,1978,37,"ko","Kudu",24,-24.89,31.94,392936.7,7246815.45
"12934",12934,1978,37,"ko","Kudu",18,-24.91,31.92,390934.06,7244584.77
"12943",12943,1978,37,"ko","Kudu",20,-24.85,31.92,390881.36,7251229.15
"12946",12946,1978,37,"ko","Kudu",22,-24.85,31.94,392902.23,7251245.01
"12949",12949,1978,37,"ko","Kudu",25,-24.87,31.92,390898.91,7249014.36
"12957",12957,1978,37,"ko","Kudu",10,-24.81,31.94,392867.81,7255674.55
"12973",12973,1978,37,"ko","Kudu",7,-25.14,31.96,395169.42,7219145.88
"12991",12991,1978,37,"ko","Kudu",4,-25.1,31.98,397152.05,7223590.95
"12995",12995,1978,37,"ko","Kudu",16,-25.12,31.96,395152.35,7221360.73
"12998",12998,1978,37,"ko","Kudu",29,-25.12,31.98,397168.79,7221376.12
"13014",13014,1978,37,"ko","Kudu",6,-25.08,31.98,397135.33,7225805.77
"13019",13019,1978,37,"ko","Kudu",6,-25.01,31.96,395058.66,7233542.27
"13035",13035,1978,37,"ko","Kudu",14,-25.03,31.98,397093.58,7231342.81
"13040",13040,1978,37,"ko","Kudu",13,-24.97,31.96,395024.69,7237971.88
"13053",13053,1978,37,"ko","Kudu",2,-24.99,31.98,397060.24,7235772.41
"13057",13057,1978,37,"ko","Kudu",21,-24.93,31.96,394990.77,7242401.47
"13065",13065,1978,37,"ko","Kudu",7,-24.95,31.98,397026.95,7240201.99
"13069",13069,1978,37,"ko","Kudu",14,-24.89,31.98,396977.1,7246846.32
"13078",13078,1978,37,"ko","Kudu",9,-24.91,31.98,396993.71,7244631.55
"13082",13082,1978,37,"ko","Kudu",6,-24.85,31.96,394923.09,7251260.58
"13089",13089,1978,37,"ko","Kudu",9,-24.87,31.98,396960.51,7249061.09
"13091",13091,1978,37,"ko","Kudu",18,-24.81,31.98,396910.82,7255705.34
"13095",13095,1978,37,"ko","Kudu",4,-24.83,31.96,394906.2,7253475.34
"13099",13099,1978,37,"ko","Kudu",14,-24.83,31.98,396927.37,7253490.6
"13114",13114,1978,37,"ko","Kudu",3,-25.16,32.01,400225.95,7216968.99
"13117",13117,1978,37,"ko","Kudu",8,-25.1,32.01,400177.19,7223613.46
"13124",13124,1978,37,"ko","Kudu",16,-25.12,32.01,400193.43,7221398.64
"13127",13127,1978,37,"ko","Kudu",6,-25.06,32.01,400144.74,7228043.08
"13130",13130,1978,37,"ko","Kudu",9,-25.08,32.01,400160.96,7225828.27
"13134",13134,1978,37,"ko","Kudu",2,-25.08,32.03,402178.04,7225842.9
"13136",13136,1978,37,"ko","Kudu",5,-25.01,32.01,400104.25,7233580.07
"13142",13142,1978,37,"ko","Kudu",8,-24.99,32.01,400088.08,7235794.85
"13145",13145,1978,37,"ko","Kudu",4,-24.93,32.01,400039.63,7242439.18
"13151",13151,1978,37,"ko","Kudu",7,-24.91,32.01,400023.5,7244653.94
"13177",13177,1978,38,"ko","Kudu",12,-24.91,31.76,374774.61,7244446.95
"13179",13179,1978,38,"ko","Kudu",5,-24.91,31.78,376794.57,7244465.22
"13190",13190,1978,38,"ko","Kudu",4,-24.97,31.8,378873.22,7237838.59
"13193",13193,1978,38,"ko","Kudu",8,-24.97,31.82,380892.18,7237856.29
"13200",13200,1978,38,"ko","Kudu",2,-24.99,31.82,380911.45,7235641.42
"13204",13204,1978,38,"ko","Kudu",6,-24.93,31.8,378834.08,7242268.33
"13206",13206,1978,38,"ko","Kudu",12,-24.93,31.82,380853.69,7242286.01
"13254",13254,1978,38,"ko","Kudu",4,-24.97,31.86,384930.09,7237890.81
"13256",13256,1978,38,"ko","Kudu",7,-24.99,31.84,382930.08,7235658.84
"13261",13261,1978,38,"ko","Kudu",5,-24.93,31.84,382873.3,7242303.4
"13271",13271,1978,38,"ko","Kudu",1,-24.91,31.84,382854.41,7244518.24
"13284",13284,1978,38,"ko","Kudu",1,-25.1,31.9,389084.93,7223527.63
"13290",13290,1978,38,"ko","Kudu",30,-25.06,31.9,389048.88,7227957.35
"13295",13295,1978,38,"ko","Kudu",3,-25.08,31.9,389066.9,7225742.49
"13301",13301,1978,38,"ko","Kudu",6,-25.03,31.88,387003.93,7231263.08
"13313",13313,1978,38,"ko","Kudu",1,-24.97,31.9,388967.96,7237924.13
"13318",13318,1978,38,"ko","Kudu",9,-24.93,31.88,386912.5,7242337.28
"13332",13332,1978,38,"ko","Kudu",6,-25.1,31.92,391101.72,7223543.91
"13335",13335,1978,38,"ko","Kudu",12,-25.1,31.94,393118.51,7223559.89
"13342",13342,1978,38,"ko","Kudu",10,-25.06,31.92,391066.33,7227973.61
"13344",13344,1978,38,"ko","Kudu",2,-25.06,31.94,393083.77,7227989.57
"13347",13347,1978,38,"ko","Kudu",6,-25.08,31.94,393101.13,7225774.73
"13353",13353,1978,39,"ko","Kudu",1,-25.12,31.19,317511.67,7220540.8
"13356",13356,1978,39,"ko","Kudu",7,-25.14,31.21,319557.94,7218352.4
"13360",13360,1978,39,"ko","Kudu",3,-25.14,31.23,321574.47,7218379.02
"13367",13367,1978,39,"ko","Kudu",6,-25.16,31.23,321603.56,7216163.73
"13371",13371,1978,39,"ko","Kudu",5,-25.1,31.21,319499.16,7222783.01
"13382",13382,1978,39,"ko","Kudu",5,-25.12,31.21,319528.54,7220567.71
"13388",13388,1978,39,"ko","Kudu",13,-25.12,31.23,321545.39,7220594.31
"13391",13391,1978,39,"ko","Kudu",3,-25.06,31.23,321458.31,7227240.15
"13394",13394,1978,39,"ko","Kudu",4,-25.08,31.21,319469.8,7224998.3
"13398",13398,1978,39,"ko","Kudu",2,-25.08,31.23,321487.31,7225024.88
"13404",13404,1978,39,"ko","Kudu",2,-25.14,31.28,326615.72,7218444.27
"13409",13409,1978,39,"ko","Kudu",2,-25.16,31.26,324627.83,7216203.12
"13417",13417,1978,39,"ko","Kudu",8,-25.1,31.26,324542.09,7222848.93
"13424",13424,1978,39,"ko","Kudu",9,-25.1,31.28,326559.24,7222874.77
"13434",13434,1978,39,"ko","Kudu",4,-25.12,31.28,326587.47,7220659.52
"13454",13454,1978,39,"ko","Kudu",3,-25.01,31.28,326432.48,7232843.32
"13459",13459,1978,39,"ko","Kudu",6,-25.03,31.28,326460.61,7230628.09
"13466",13466,1978,39,"ko","Kudu",6,-25.14,31.3,328632.2,7218469.85
"13472",13472,1978,39,"ko","Kudu",5,-25.1,31.3,328576.38,7222900.32
"13476",13476,1978,39,"ko","Kudu",2,-25.1,31.32,330593.5,7222925.56
"13478",13478,1978,39,"ko","Kudu",10,-25.12,31.3,328604.28,7220685.08
"13480",13480,1978,39,"ko","Kudu",1,-25.12,31.32,330621.08,7220710.34
"13485",13485,1978,39,"ko","Kudu",1,-25.06,31.3,328520.64,7227330.76
"13493",13493,1978,39,"ko","Kudu",6,-25.08,31.32,330565.95,7225140.77
"13495",13495,1978,39,"ko","Kudu",4,-25.01,31.3,328451.09,7232868.8
"13499",13499,1978,39,"ko","Kudu",7,-25.01,31.32,330469.69,7232893.97
"13507",13507,1978,39,"ko","Kudu",1,-24.97,31.32,330414.79,7237324.35
"13512",13512,1978,39,"ko","Kudu",2,-24.99,31.32,330442.23,7235109.16
"13515",13515,1978,39,"ko","Kudu",6,-25.1,31.36,334627.71,7222975.16
"13517",13517,1978,39,"ko","Kudu",10,-25.12,31.34,332637.86,7220735.31
"13524",13524,1978,39,"ko","Kudu",2,-25.06,31.36,334573.94,7227405.52
"13527",13527,1978,39,"ko","Kudu",5,-25.08,31.34,332583.39,7225165.71
"13532",13532,1978,39,"ko","Kudu",5,-25.08,31.36,334600.82,7225190.34
"13536",13536,1978,39,"ko","Kudu",1,-25.01,31.34,332488.27,7232918.86
"13563",13563,1978,40,"ko","Kudu",4,-25.18,31.21,319616.81,7213921.77
"13568",13568,1978,40,"ko","Kudu",10,-25.18,31.23,321632.67,7213948.43
"13574",13574,1978,40,"ko","Kudu",8,-25.2,31.23,321661.81,7211733.12
"13579",13579,1978,40,"ko","Kudu",5,-25.35,31.28,326913.62,7195183.79
"13585",13585,1978,40,"ko","Kudu",9,-25.31,31.28,326856.7,7199614.4
"13589",13589,1978,40,"ko","Kudu",1,-25.33,31.28,326885.15,7197399.1
"13598",13598,1978,40,"ko","Kudu",10,-25.26,31.28,326785.67,7205152.64
"13604",13604,1978,40,"ko","Kudu",5,-25.22,31.26,324713.76,7209557.27
"13611",13611,1978,40,"ko","Kudu",7,-25.22,31.28,326728.93,7209583.2
"13617",13617,1978,40,"ko","Kudu",5,-25.24,31.28,326757.29,7207367.92
"13620",13620,1978,40,"ko","Kudu",7,-25.18,31.26,324656.45,7213987.84
"13625",13625,1978,40,"ko","Kudu",5,-25.18,31.28,326672.29,7214013.75
"13630",13630,1978,40,"ko","Kudu",10,-25.2,31.26,324685.09,7211772.56
"13640",13640,1978,40,"ko","Kudu",5,-25.35,31.3,328926.63,7195209.52
"13645",13645,1978,40,"ko","Kudu",11,-25.35,31.32,330939.63,7195234.95
"13654",13654,1978,40,"ko","Kudu",14,-25.33,31.3,328898.49,7197424.81
"13659",13659,1978,40,"ko","Kudu",3,-25.33,31.32,330911.82,7197450.23
"13663",13663,1978,40,"ko","Kudu",5,-25.26,31.3,328800.17,7205178.3
"13667",13667,1978,40,"ko","Kudu",5,-25.26,31.32,330814.65,7205203.67
"13672",13672,1978,40,"ko","Kudu",14,-25.28,31.3,328828.23,7202963.03
"13675",13675,1978,40,"ko","Kudu",20,-25.28,31.32,330842.39,7202988.4
"13681",13681,1978,40,"ko","Kudu",9,-25.22,31.3,328744.09,7209608.84
"13686",13686,1978,40,"ko","Kudu",2,-25.22,31.32,330759.24,7209634.17
"13694",13694,1978,40,"ko","Kudu",5,-25.24,31.3,328772.12,7207393.57
"13700",13700,1978,40,"ko","Kudu",20,-25.24,31.32,330786.94,7207418.92
"13704",13704,1978,40,"ko","Kudu",2,-25.18,31.3,328688.11,7214039.35
"13707",13707,1978,40,"ko","Kudu",8,-25.18,31.32,330703.91,7214064.66
"13709",13709,1978,40,"ko","Kudu",3,-25.2,31.3,328716.09,7211824.1
"13713",13713,1978,40,"ko","Kudu",5,-25.2,31.32,330731.57,7211849.42
"13717",13717,1978,40,"ko","Kudu",2,-25.16,31.3,328660.14,7216254.6
"13721",13721,1978,40,"ko","Kudu",17,-25.16,31.32,330676.28,7216279.89
"13731",13731,1978,40,"ko","Kudu",3,-25.18,31.34,332719.71,7214089.66
"13741",13741,1978,40,"ko","Kudu",3,-25.2,31.34,332747.03,7211874.44
"13745",13745,1978,40,"ko","Kudu",7,-25.14,31.36,334681.56,7218544.77
"13748",13748,1978,40,"ko","Kudu",3,-25.16,31.36,334708.51,7216329.57
"13751",13751,1978,40,"ko","Kudu",4,-25.22,31.38,336804.61,7209708.37
"13755",13755,1978,41,"ko","Kudu",4,-25.31,31.34,332897.68,7199690.6
"13759",13759,1978,41,"ko","Kudu",1,-25.26,31.34,332829.13,7205228.73
"13765",13765,1978,41,"ko","Kudu",5,-25.28,31.34,332856.53,7203013.48
"13768",13768,1978,41,"ko","Kudu",4,-25.28,31.36,334870.66,7203038.26
"13771",13771,1978,41,"ko","Kudu",3,-25.24,31.36,334816.53,7207468.72
"13776",13776,1978,41,"ko","Kudu",2,-25.12,31.36,334654.63,7220759.97
"13785",13785,1978,41,"ko","Kudu",2,-25.26,31.38,336858.04,7205277.95
"13791",13791,1978,41,"ko","Kudu",7,-25.28,31.4,338898.89,7203086.91
"13795",13795,1978,41,"ko","Kudu",7,-25.22,31.4,338819.7,7209732.51
"13798",13798,1978,41,"ko","Kudu",18,-25.24,31.38,336831.31,7207493.17
"13803",13803,1978,41,"ko","Kudu",14,-25.24,31.4,338846.08,7207517.31
"13811",13811,1978,41,"ko","Kudu",7,-25.2,31.38,336777.92,7211923.58
"13814",13814,1978,41,"ko","Kudu",5,-25.2,31.4,338793.35,7211947.7
"13820",13820,1978,41,"ko","Kudu",6,-25.14,31.38,336697.99,7218569.15
"13823",13823,1978,41,"ko","Kudu",2,-25.14,31.4,338714.4,7218593.23
"13824",13824,1978,41,"ko","Kudu",5,-25.16,31.38,336724.61,7216353.97
"13828",13828,1978,41,"ko","Kudu",2,-25.16,31.4,338740.7,7216378.06
"13831",13831,1978,41,"ko","Kudu",10,-25.12,31.38,336671.38,7220784.33
"13838",13838,1978,41,"ko","Kudu",3,-25.26,31.42,340886.9,7205325.98
"13841",13841,1978,41,"ko","Kudu",6,-25.26,31.44,342901.31,7205349.54
"13849",13849,1978,41,"ko","Kudu",2,-25.28,31.44,342927.06,7203134.36
"13852",13852,1978,41,"ko","Kudu",11,-25.22,31.42,340834.79,7209756.34
"13855",13855,1978,41,"ko","Kudu",6,-25.22,31.44,342849.86,7209779.88
"13858",13858,1978,41,"ko","Kudu",4,-25.18,31.42,340782.75,7214186.69
"13862",13862,1978,41,"ko","Kudu",15,-25.18,31.44,342798.49,7214210.19
"13869",13869,1978,41,"ko","Kudu",31,-25.2,31.44,342824.16,7211995.04
"13873",13873,1978,41,"ko","Kudu",8,-25.14,31.42,340730.8,7218617.01
"13882",13882,1978,41,"ko","Kudu",12,-25.16,31.44,342772.83,7216425.34
"13893",13893,1978,41,"ko","Kudu",2,-25.26,31.46,344915.7,7205372.8
"13903",13903,1978,41,"ko","Kudu",1,-25.28,31.48,346955.18,7203180.61
"13905",13905,1978,41,"ko","Kudu",7,-25.22,31.46,344864.92,7209803.11
"13908",13908,1978,41,"ko","Kudu",6,-25.22,31.48,346879.96,7209826.04
"13910",13910,1978,41,"ko","Kudu",2,-25.24,31.46,344890.3,7207587.96
"13915",13915,1978,41,"ko","Kudu",12,-25.18,31.46,344814.2,7214233.4
"13919",13919,1978,41,"ko","Kudu",4,-25.18,31.48,346829.91,7214256.3
"13920",13920,1978,41,"ko","Kudu",10,-25.2,31.46,344839.55,7212018.26
"13928",13928,1978,41,"ko","Kudu",13,-25.14,31.48,346779.93,7218686.55
"13931",13931,1978,41,"ko","Kudu",11,-25.16,31.46,344788.87,7216448.53
"13939",13939,1978,41,"ko","Kudu",6,-25.12,31.48,346754.97,7220901.66
"13949",13949,1978,41,"ko","Kudu",7,-25.22,31.51,349902.51,7209859.88
"13956",13956,1978,41,"ko","Kudu",2,-25.2,31.51,349877.97,7212074.99
"13958",13958,1978,41,"ko","Kudu",2,-25.14,31.51,349804.45,7218720.3
"13963",13963,1978,41,"ko","Kudu",7,-25.16,31.51,349828.94,7216505.21
"13965",13965,1978,41,"ko","Kudu",4,-25.16,31.53,351844.94,7216527.35
"13969",13969,1978,41,"ko","Kudu",1,-25.1,31.51,349755.53,7223150.48
"13973",13973,1978,41,"ko","Kudu",6,-25.12,31.51,349779.98,7220935.4
"13977",13977,1978,42,"ko","Kudu",11,-25.26,31.53,351966,7205451.84
"13981",13981,1978,42,"ko","Kudu",10,-25.28,31.53,351990.27,7203236.72
"13985",13985,1978,42,"ko","Kudu",1,-25.22,31.53,351917.53,7209882.06
"13994",13994,1978,42,"ko","Kudu",7,-25.24,31.53,351941.76,7207666.95
"14001",14001,1978,42,"ko","Kudu",10,-25.2,31.53,351893.31,7212097.16
"14004",14004,1978,42,"ko","Kudu",5,-25.1,31.53,351772.52,7223172.59
"14018",14018,1978,42,"ko","Kudu",3,-25.33,31.57,356077.38,7197742.5
"14021",14021,1978,42,"ko","Kudu",5,-25.26,31.55,353980.35,7205473.75
"14029",14029,1978,42,"ko","Kudu",4,-25.28,31.57,356018.29,7203280.26
"14031",14031,1978,42,"ko","Kudu",5,-25.22,31.55,353932.53,7209903.94
"14038",14038,1978,42,"ko","Kudu",2,-25.24,31.55,353956.43,7207688.85
"14041",14041,1978,42,"ko","Kudu",4,-25.24,31.57,355971.1,7207710.45
"14045",14045,1978,42,"ko","Kudu",6,-25.18,31.55,353884.79,7214334.12
"14049",14049,1978,42,"ko","Kudu",3,-25.18,31.57,355900.44,7214355.68
"14067",14067,1978,42,"ko","Kudu",12,-25.16,31.55,353860.94,7216549.2
"14070",14070,1978,42,"ko","Kudu",2,-25.16,31.57,355876.92,7216570.74
"14077",14077,1978,42,"ko","Kudu",6,-25.1,31.57,355806.47,7223215.91
"14088",14088,1978,42,"ko","Kudu",2,-25.06,31.55,353741.97,7227624.5
"14097",14097,1978,42,"ko","Kudu",2,-25.31,31.59,358067.23,7199978.95
"14105",14105,1978,42,"ko","Kudu",11,-25.26,31.61,360023.32,7205537.67
"14109",14109,1978,42,"ko","Kudu",2,-25.28,31.59,358032.28,7203301.58
"14111",14111,1978,42,"ko","Kudu",8,-25.28,31.61,360046.26,7203322.6
"14117",14117,1978,42,"ko","Kudu",12,-25.24,31.59,357985.75,7207731.74
"14120",14120,1978,42,"ko","Kudu",5,-25.18,31.59,357916.08,7214376.93
"14130",14130,1978,42,"ko","Kudu",13,-25.16,31.59,357892.89,7216591.99
"14146",14146,1978,43,"ko","Kudu",2,-25.1,31.4,338661.87,7223023.56
"14149",14149,1978,43,"ko","Kudu",5,-25.08,31.4,338635.63,7225238.71
"14155",14155,1978,43,"ko","Kudu",2,-25.01,31.4,338543.95,7232991.71
"14162",14162,1978,43,"ko","Kudu",1,-24.97,31.4,338491.67,7237421.97
"14165",14165,1978,43,"ko","Kudu",8,-24.99,31.38,336498.93,7235182.87
"14169",14169,1978,43,"ko","Kudu",18,-25.06,31.42,340627.12,7227477.58
"14174",14174,1978,43,"ko","Kudu",10,-25.06,31.44,342644.83,7227501.01
"14179",14179,1978,43,"ko","Kudu",2,-25.08,31.42,340653.01,7225262.45
"14185",14185,1978,43,"ko","Kudu",3,-25.01,31.42,340562.48,7233015.4
"14189",14189,1978,43,"ko","Kudu",1,-25.01,31.44,342581.01,7233038.79
"14193",14193,1978,43,"ko","Kudu",3,-25.03,31.42,340588.33,7230800.28
"14202",14202,1978,43,"ko","Kudu",1,-24.99,31.42,340536.66,7235230.52
"14204",14204,1978,43,"ko","Kudu",2,-24.99,31.44,342555.51,7235253.89
"14208",14208,1978,43,"ko","Kudu",10,-25.06,31.46,344662.52,7227524.13
"14212",14212,1978,43,"ko","Kudu",3,-25.06,31.48,346680.19,7227546.96
"14226",14226,1978,43,"ko","Kudu",6,-25.01,31.46,344599.51,7233061.88
"14239",14239,1978,43,"ko","Kudu",6,-24.99,31.48,346593.17,7235299.75
"14242",14242,1978,43,"ko","Kudu",5,-25.06,31.51,349706.69,7227580.64
"14251",14251,1978,43,"ko","Kudu",2,-25.08,31.51,349731.1,7225365.57
"14259",14259,1978,43,"ko","Kudu",4,-25.01,31.53,351664.2,7233140.35
"14272",14272,1978,43,"ko","Kudu",8,-24.99,31.51,349621.38,7235333.36
"14274",14274,1978,43,"ko","Kudu",2,-24.99,31.53,351640.18,7235355.4
"14277",14277,1978,43,"ko","Kudu",1,-25.01,31.55,353682.65,7233162.1
"14283",14283,1978,43,"ko","Kudu",5,-25.03,31.55,353706.37,7230947.07
"14287",14287,1978,43,"ko","Kudu",1,-24.97,31.55,353635.28,7237592.16
"14292",14292,1978,43,"ko","Kudu",3,-24.99,31.57,355677.73,7235398.57
"14385",14385,1978,47,"ko","Kudu",7,-22.76,31.32,327510.71,7482069.24
"14394",14394,1978,47,"ko","Kudu",1,-22.74,31.34,329539.75,7484306.99
"14399",14399,1978,48,"ko","Kudu",12,-22.89,31.23,318440.76,7467566.07
"14411",14411,1978,48,"ko","Kudu",2,-22.89,31.26,321518.71,7467602.76
"14431",14431,1978,48,"ko","Kudu",10,-22.81,31.26,321414.21,7476461.44
"14434",14434,1978,48,"ko","Kudu",18,-22.81,31.28,323467.35,7476485.48
"14437",14437,1978,48,"ko","Kudu",4,-22.83,31.26,321440.3,7474246.78
"14474",14474,1978,48,"ko","Kudu",6,-22.87,31.36,331753.63,7469935.1
"14481",14481,1978,48,"ko","Kudu",9,-22.83,31.36,331704.38,7474364.28
"14485",14485,1978,48,"ko","Kudu",9,-22.76,31.34,329564.57,7482092.41
"14497",14497,1978,48,"ko","Kudu",5,-22.85,31.4,335833.93,7472194.77
"14508",14508,1978,48,"ko","Kudu",7,-22.81,31.4,335785.92,7476623.88
"14511",14511,1978,48,"ko","Kudu",4,-22.83,31.4,335809.92,7474409.33
"14515",14515,1978,48,"ko","Kudu",4,-22.78,31.4,335749.98,7479945.7
"14520",14520,1978,48,"ko","Kudu",3,-22.74,31.38,333648.01,7484352.45
"14522",14522,1978,48,"ko","Kudu",6,-22.89,31.42,337933.85,7467787.8
"14531",14531,1978,48,"ko","Kudu",7,-22.87,31.44,339962.23,7470024.21
"14540",14540,1978,49,"ko","Kudu",5,-22.97,31.26,321623.56,7458743.99
"14562",14562,1978,49,"ko","Kudu",5,-22.93,31.3,325673.76,7463221.38
"14588",14588,1978,49,"ko","Kudu",2,-22.95,31.34,329801.38,7461053.64
"14607",14607,1978,49,"ko","Kudu",6,-22.95,31.4,335954.28,7461121.91
"14610",14610,1978,49,"ko","Kudu",13,-22.91,31.4,335906.08,7465551.07
"14620",14620,1978,49,"ko","Kudu",3,-22.99,31.44,340103.22,7456736.91
"14623",14623,1978,49,"ko","Kudu",3,-22.93,31.42,337981.41,7463358.68
"14628",14628,1978,49,"ko","Kudu",2,-22.95,31.44,340056.14,7461166.03
"14636",14636,1978,49,"ko","Kudu",9,-22.99,31.46,342153.52,7456758.58
"14637",14637,1978,49,"ko","Kudu",4,-22.99,31.48,344203.81,7456779.96
"14638",14638,1978,49,"ko","Kudu",4,-22.93,31.46,342083.85,7463402.21
"14643",14643,1978,49,"ko","Kudu",7,-22.95,31.46,342107.05,7461187.67
"14655",14655,1978,50,"ko","Kudu",4,-23.06,31.42,338136.52,7448963.89
"14683",14683,1978,50,"ko","Kudu",6,-23.12,31.46,342305.07,7442363.88
"14697",14697,1978,50,"ko","Kudu",6,-23.08,31.46,342258.36,7446793.04
"14708",14708,1978,50,"ko","Kudu",6,-23.03,31.48,344249.75,7452350.88
"14720",14720,1978,50,"ko","Kudu",6,-23.16,31.51,347471.13,7437987.95
"14724",14724,1978,50,"ko","Kudu",9,-23.1,31.51,347403.25,7444631.61
"14731",14731,1978,50,"ko","Kudu",6,-23.12,31.51,347425.86,7442417.06
"14735",14735,1978,50,"ko","Kudu",4,-23.08,31.51,347380.66,7446846.15
"14737",14737,1978,50,"ko","Kudu",3,-23.03,31.51,347324.26,7452382.48
"14744",14744,1978,50,"ko","Kudu",14,-23.2,31.55,351610.61,7433600.21
"14747",14747,1978,50,"ko","Kudu",9,-23.16,31.55,351566.48,7438029.29
"14756",14756,1978,51,"ko","Kudu",3,-22.64,31.3,325304.66,7495333.4
"14770",14770,1978,51,"ko","Kudu",1,-22.72,31.36,331569.38,7486544.42
"14780",14780,1978,51,"ko","Kudu",5,-22.6,31.36,331422.82,7499831.67
"14784",14784,1978,52,"ko","Kudu",3,-23.14,31.19,314678.83,7439831.55
"14787",14787,1978,52,"ko","Kudu",5,-23.1,31.19,314623.86,7444261.15
"14795",14795,1978,52,"ko","Kudu",7,-23.06,31.19,314568.99,7448690.72
"14805",14805,1978,52,"ko","Kudu",3,-23.18,31.21,316781.49,7435427.27
"14821",14821,1978,52,"ko","Kudu",1,-23.1,31.23,318721.49,7444311.39
"14826",14826,1978,52,"ko","Kudu",2,-23.12,31.23,318748.36,7442096.63
"14855",14855,1978,52,"ko","Kudu",6,-23.16,31.32,328017.48,7437776.24
"14892",14892,1978,52,"ko","Kudu",6,-23.08,31.38,334062.5,7446704.42
"14898",14898,1978,53,"ko","Kudu",11,-23.08,30.9,284882.23,7446078.32
"14901",14901,1978,53,"ko","Kudu",7,-23.14,30.94,289074.77,7439491.61
"14904",14904,1978,53,"ko","Kudu",4,-23.16,30.94,289106.1,7437276.58
"14912",14912,1978,53,"ko","Kudu",5,-23.06,30.94,288949.74,7448351.69
"14921",14921,1978,53,"ko","Kudu",10,-23.01,30.92,286821.38,7453860.23
"14924",14924,1978,53,"ko","Kudu",19,-23.01,30.94,288871.8,7453889.2
"14933",14933,1978,53,"ko","Kudu",9,-23.14,30.96,291123.2,7439520.42
"14937",14937,1978,53,"ko","Kudu",7,-23.14,30.98,293171.6,7439548.96
"14947",14947,1978,53,"ko","Kudu",3,-23.12,30.96,291092.2,7441735.43
"14955",14955,1978,53,"ko","Kudu",4,-23.08,30.96,291030.29,7446165.43
"14961",14961,1978,53,"ko","Kudu",15,-23.01,30.96,290922.2,7453917.89
"14980",14980,1978,53,"ko","Kudu",3,-23.16,31.01,296274.43,7437376.26
"14992",14992,1978,53,"ko","Kudu",7,-23.12,31.01,296213.94,7441806.19
"14995",14995,1978,53,"ko","Kudu",3,-23.12,31.03,298262.61,7441834
"14998",14998,1978,53,"ko","Kudu",13,-23.06,31.01,296123.4,7448451.04
"15009",15009,1978,53,"ko","Kudu",7,-23.01,31.01,296048.11,7453988.38
"15012",15012,1978,53,"ko","Kudu",7,-23.01,31.03,298098.45,7454016.09
"15019",15019,1978,53,"ko","Kudu",5,-23.03,31.03,298128.24,7451801.18
"15048",15048,1978,53,"ko","Kudu",4,-23.06,31.07,302272.08,7448533.46
"15054",15054,1978,53,"ko","Kudu",5,-23.01,31.05,300148.76,7454043.52
"15076",15076,1978,53,"ko","Kudu",2,-23.12,31.09,304408.51,7441915.74
"15084",15084,1978,53,"ko","Kudu",3,-23.03,31.11,306328.2,7451909.28
"15102",15102,1978,53,"ko","Kudu",1,-23.1,31.13,308477.3,7444183.68
"15104",15104,1978,53,"ko","Kudu",3,-23.12,31.13,308505.69,7441968.83
"15134",15134,1978,54,"ko","Kudu",11,-22.95,30.94,288778.48,7460534.17
"15138",15138,1978,54,"ko","Kudu",5,-22.91,30.94,288716.4,7464964.13
"15141",15141,1978,54,"ko","Kudu",5,-22.97,30.96,290860.57,7458347.83
"15146",15146,1978,54,"ko","Kudu",3,-22.97,30.98,292911.55,7458376.2
"15148",15148,1978,54,"ko","Kudu",6,-22.93,30.96,290799.04,7462777.76
"15157",15157,1978,54,"ko","Kudu",7,-22.95,30.98,292881.08,7460591.15
"15160",15160,1978,54,"ko","Kudu",7,-22.91,30.96,290768.31,7464992.72
"15164",15164,1978,54,"ko","Kudu",8,-22.91,30.98,292820.2,7465021.03
"15165",15165,1978,54,"ko","Kudu",7,-22.97,31.01,295987.99,7458418.23
"15171",15171,1978,54,"ko","Kudu",5,-22.93,31.01,295927.98,7462848.07
"15175",15175,1978,54,"ko","Kudu",1,-22.95,31.01,295957.97,7460633.15
"15176",15176,1978,54,"ko","Kudu",5,-22.95,31.03,298009.22,7460660.8
"15182",15182,1978,54,"ko","Kudu",7,-22.91,31.01,295898,7465062.98
"15187",15187,1978,54,"ko","Kudu",3,-22.97,31.05,300089.86,7458473.3
"15202",15202,1978,54,"ko","Kudu",9,-22.95,31.05,300060.44,7460688.18
"15211",15211,1978,54,"ko","Kudu",8,-22.91,31.05,300001.68,7465117.92
"15217",15217,1978,54,"ko","Kudu",5,-23.01,31.09,304249.35,7454097.53
"15223",15223,1978,54,"ko","Kudu",3,-22.97,31.11,306242.53,7458553.79
"15253",15253,1978,54,"ko","Kudu",3,-22.93,31.15,310288.43,7463035.63
"15259",15259,1978,54,"ko","Kudu",8,-22.91,31.15,310260.57,7465250.41
"15287",15287,1978,54,"ko","Kudu",3,-23.06,31.23,318667.83,7448740.9
"15301",15301,1978,54,"ko","Kudu",5,-22.97,31.21,316496.65,7458682.34
"15308",15308,1978,54,"ko","Kudu",5,-22.99,31.23,318574.14,7456492.48
"15317",15317,1978,54,"ko","Kudu",3,-23.01,31.28,323726.24,7454338.79
"15326",15326,1978,54,"ko","Kudu",3,-23.01,31.3,325776.36,7454362.71
"15338",15338,1978,55,"ko","Kudu",8,-22.83,30.98,292698.76,7473880.73
"15341",15341,1978,55,"ko","Kudu",5,-22.78,30.98,292623.06,7479418
"15344",15344,1978,55,"ko","Kudu",8,-22.87,31.03,297890.59,7469520.36
"15348",15348,1978,55,"ko","Kudu",2,-22.81,31.01,295748.52,7476137.45
"15354",15354,1978,55,"ko","Kudu",37,-22.83,31.01,295778.37,7473922.56
"15359",15359,1978,55,"ko","Kudu",13,-22.83,31.03,297831.42,7473950.1
"15366",15366,1978,55,"ko","Kudu",3,-22.78,31.01,295703.79,7479459.76
"15372",15372,1978,55,"ko","Kudu",2,-22.74,31.01,295644.25,7483889.5
"15378",15378,1978,55,"ko","Kudu",4,-22.85,31.05,299913.72,7471762.51
"15384",15384,1978,55,"ko","Kudu",1,-22.87,31.07,301995.43,7469574.67
"15390",15390,1978,55,"ko","Kudu",3,-22.81,31.07,301908.52,7476219.17
"15392",15392,1978,55,"ko","Kudu",5,-22.83,31.05,299884.45,7473977.36
"15399",15399,1978,55,"ko","Kudu",9,-22.78,31.05,299811.38,7479514.47
"15407",15407,1978,55,"ko","Kudu",5,-22.74,31.05,299753.03,7483944.13
"15415",15415,1978,55,"ko","Kudu",8,-22.87,31.11,306100.21,7469627.87
"15419",15419,1978,55,"ko","Kudu",22,-22.81,31.11,306015.1,7476272.26
"15420",15420,1978,55,"ko","Kudu",11,-22.83,31.11,306043.45,7474057.47
"15424",15424,1978,55,"ko","Kudu",2,-22.78,31.09,303918.9,7479568.06
"15436",15436,1978,55,"ko","Kudu",7,-22.89,31.15,310232.74,7467465.18
"15440",15440,1978,55,"ko","Kudu",14,-22.85,31.15,310177.13,7471894.72
"15444",15444,1978,55,"ko","Kudu",7,-22.81,31.15,310121.62,7476324.24
"15448",15448,1978,55,"ko","Kudu",7,-22.83,31.13,308096.41,7474083.62
"15453",15453,1978,55,"ko","Kudu",3,-22.78,31.13,308026.35,7479620.54
"15459",15459,1978,55,"ko","Kudu",5,-22.91,31.17,312312.3,7465276.07
"15463",15463,1978,55,"ko","Kudu",4,-22.91,31.19,314364.02,7465301.45
"15467",15467,1978,55,"ko","Kudu",7,-22.85,31.17,312229.76,7471920.33
"15480",15480,1978,55,"ko","Kudu",3,-22.83,31.17,312202.3,7474135.07
