"","ID","Year","Cenb","Sp","Description","No","Lat","Long","X.coord","Y.coord"
"365255",365255,1993,52,"wa","Waterbuck bull",1,-23.12,31.22,317724.11,7442084.16
"365361",365361,1993,52,"wa","Waterbuck bull",1,-23.08,31.31,326890.94,7446623.19
"365397",365397,1993,52,"wa","Waterbuck bull",1,-23.04,31.37,332988.63,7451122.3
"365398",365398,1993,52,"wa","Waterbuck bull",1,-23.04,31.36,331963.83,7451110.85
"365542",365542,1993,52,"wa","Waterbuck bull",1,-23.19,31.23,318842.55,7434344.92
"365633",365633,1993,53,"wa","Waterbuck bull",1,-23.17,31.04,299361.42,7436310.46
"365635",365635,1993,53,"wa","Waterbuck bull",1,-23.19,31.03,298367.46,7434081.68
"365744",365744,1993,53,"wa","Waterbuck bull",3,-23.15,30.96,291138.7,7438412.92
"366596",366596,1993,54,"wa","Waterbuck bull",1,-22.9,31.14,309220.71,7466344.87
"366746",366746,1993,54,"wa","Waterbuck bull",1,-22.89,31.06,300998.4,7467346.34
"367152",367152,1993,47,"wa","Waterbuck bull",1,-22.74,31.15,310024.7,7484075.85
"367298",367298,1993,48,"wa","Waterbuck bull",1,-22.87,31.39,334831.88,7469969.04
"368701",368701,1993,9,"wa","Waterbuck bull",1,-23.49,31.06,301884.7,7400898.46
"368845",368845,1993,9,"wa","Waterbuck bull",1,-23.48,31.21,317192.67,7402204.76
"369566",369566,1993,12,"wa","Waterbuck bull",2,-23.18,31.04,299376.34,7435202.98
"369567",369567,1993,12,"wa","Waterbuck bull",2,-23.19,31.04,299391.26,7434095.51
"369968",369968,1993,13,"wa","Waterbuck bull",1,-23.82,31.6,357397.51,7364998.02
"370060",370060,1993,13,"wa","Waterbuck bull",1,-23.79,31.62,359402.65,7368339.97
"370176",370176,1993,14,"wa","Waterbuck bull",1,-23.5,31.54,350922.65,7400371.13
"370187",370187,1993,14,"wa","Waterbuck bull",1,-23.46,31.35,331467.87,7404590.61
"370442",370442,1993,18,"wa","Waterbuck bull",1,-23.13,31.43,339244.48,7441223.83
"370492",370492,1993,18,"wa","Waterbuck bull",1,-23.17,31.47,343387.36,7436838.2
"370674",370674,1993,19,"wa","Waterbuck bull",1,-23.95,31.86,383999.45,7350840.63
"370780",370780,1993,19,"wa","Waterbuck bull",1,-23.94,31.74,371777.71,7351844.11
"370783",370783,1993,19,"wa","Waterbuck bull",1,-23.94,31.73,370759.96,7351834.99
"370904",370904,1993,19,"wa","Waterbuck bull",1,-23.48,31.55,351921.54,7402596.1
"372971",372971,1993,21,"wa","Waterbuck bull",1,-24.22,31.57,354791.42,7320672.56
"373368",373368,1993,21,"wa","Waterbuck bull",3,-24.4,31.37,334712.62,7300515.3
"373990",373990,1993,21,"wa","Waterbuck bull",3,-24.4,31.37,334712.62,7300515.3
"375722",375722,1993,26,"wa","Waterbuck bull",1,-24.39,31.77,375268.92,7302041.01
"376205",376205,1993,27,"wa","Waterbuck bull",1,-24.33,31.96,394488.11,7308842.53
"376446",376446,1993,28,"wa","Waterbuck bull",1,-24.45,31.96,394587.72,7295554.73
"377100",377100,1993,30,"wa","Waterbuck bull",2,-24.78,32,398907.99,7259042.39
"377106",377106,1993,30,"wa","Waterbuck bull",1,-24.76,31.99,397880.64,7261249.69
"377108",377108,1993,30,"wa","Waterbuck bull",1,-24.74,31.98,396852.98,7263456.91
"377170",377170,1993,30,"wa","Waterbuck bull",1,-24.77,31.96,394855.6,7260119.59
"377226",377226,1993,30,"wa","Waterbuck bull",1,-24.75,31.94,392816.28,7262318.81
"377339",377339,1993,30,"wa","Waterbuck bull",2,-24.74,31.9,388762.4,7263394.26
"378294",378294,1993,31,"wa","Waterbuck bull",1,-24.45,31.65,363163.35,7295283.41
"379467",379467,1993,35,"wa","Waterbuck bull",1,-24.86,31.61,359568.01,7249837.88
"379928",379928,1993,36,"wa","Waterbuck bull",1,-24.84,31.76,374704.03,7252199.01
"379969",379969,1993,36,"wa","Waterbuck bull",1,-24.83,31.73,371662.04,7253278.54
"380305",380305,1993,37,"wa","Waterbuck bull",1,-24.81,31.95,393878.57,7255682.36
"381159",381159,1993,38,"wa","Waterbuck bull",1,-24.96,31.77,375834.71,7238918.92
"381339",381339,1993,38,"wa","Waterbuck bull",1,-25.07,31.87,386031.94,7226824.97
"381361",381361,1993,38,"wa","Waterbuck bull",1,-25.05,31.87,386013.44,7229039.84
"381930",381930,1993,40,"wa","Waterbuck bull",2,-25.25,31.25,323749.45,7206221.23
"382058",382058,1993,40,"wa","Waterbuck bull",1,-25.18,31.32,330703.91,7214064.66
"382469",382469,1993,41,"wa","Waterbuck bull",1,-25.31,31.42,340952.14,7199787.99
"382474",382474,1993,41,"wa","Waterbuck bull",1,-25.31,31.41,339945.34,7199776.08
"382489",382489,1993,41,"wa","Waterbuck bull",3,-25.31,31.38,336924.94,7199739.9
"382496",382496,1993,41,"wa","Waterbuck bull",1,-25.27,31.38,336871.41,7204170.34
"383439",383439,1993,44,"wa","Waterbuck bull",5,-25.39,31.58,357154.52,7191107.88
