"","ID","Year","Cenb","Sp","Description","No","Lat","Long","X.coord","Y.coord"
"387518",387518,1994,22,"e","Eland",3,-23.92,31.19,315768.61,7353450.38
"388334",388334,1994,46,"e","Eland",1,-23.82,31.43,340078.71,7364816.69
"388481",388481,1994,58,"e","Eland",2,-23.66,31.46,342943.26,7382568.18
"388546",388546,1994,58,"e","Eland",1,-23.64,31.33,329656.86,7384633.89
"388690",388690,1994,64,"e","Eland",8,-23.65,31.28,324569.07,7383465.93
"388878",388878,1994,65,"e","Eland",1,-23.47,31.29,325351.36,7403411.64
"388919",388919,1994,65,"e","Eland",5,-23.47,31.32,328415.98,7403447.76
"388948",388948,1994,65,"e","Eland",3,-23.43,31.32,328364.28,7407877.31
"388950",388950,1994,65,"e","Eland",2,-23.43,31.33,329386.12,7407889.19
"389094",389094,1994,66,"e","Eland",1,-23.52,31.16,312141.87,7397710.43
"389113",389113,1994,66,"e","Eland",2,-23.49,31.16,312099.3,7401032.81
"389155",389155,1994,66,"e","Eland",2,-23.48,31.21,317192.67,7402204.76
"389200",389200,1994,66,"e","Eland",1,-23.55,31.25,321373.13,7394503.1
"389206",389206,1994,66,"e","Eland",2,-23.57,31.24,320379.39,7392275.73
"389254",389254,1994,66,"e","Eland",5,-23.6,31.16,312255.64,7388850.7
"389328",389328,1994,2,"e","Eland",3,-23.29,31.18,313862.78,7423207.57
"389377",389377,1994,2,"e","Eland",2,-23.36,31.01,296578.36,7415226.33
"389394",389394,1994,2,"e","Eland",5,-23.38,31.03,298653.58,7413039.37
"389435",389435,1994,2,"e","Eland",13,-23.32,31.04,299585.79,7419698.25
"389436",389436,1994,2,"e","Eland",2,-23.32,31.04,299585.79,7419698.25
"389448",389448,1994,2,"e","Eland",14,-23.32,31.04,299585.79,7419698.25
"389462",389462,1994,2,"e","Eland",2,-23.34,31.06,301661.09,7417510.85
"389470",389470,1994,2,"e","Eland",1,-23.35,31.08,303721.06,7416430.68
"389499",389499,1994,2,"e","Eland",1,-23.32,31.08,303676.94,7419753.11
"389516",389516,1994,4,"e","Eland",2,-23.29,31.1,305678.89,7423102.49
"389565",389565,1994,2,"e","Eland",1,-23.39,31.15,310935.57,7412094.26
"389653",389653,1994,2,"e","Eland",9,-23.47,31.08,303898.07,7403140.89
"389729",389729,1994,2,"e","Eland",4,-23.42,31.04,299736.13,7408623.28
"389841",389841,1994,3,"e","Eland",2,-23.24,31.29,325049.93,7428881.55
"389899",389899,1994,3,"e","Eland",1,-23.3,31.24,320013.99,7422176.01
"389920",389920,1994,4,"e","Eland",1,-23.25,31.19,314830.45,7427650.06
"389977",389977,1994,4,"e","Eland",1,-23.25,31.17,312783.89,7427624.39
"390021",390021,1994,4,"e","Eland",1,-23.25,31.15,310737.33,7427598.44
"390039",390039,1994,4,"e","Eland",3,-23.25,31.15,310737.33,7427598.44
"390041",390041,1994,4,"e","Eland",1,-23.25,31.15,310737.33,7427598.44
"390048",390048,1994,4,"e","Eland",12,-23.25,31.14,309714.04,7427585.36
"390050",390050,1994,4,"e","Eland",1,-23.24,31.14,309699.84,7428692.79
"390072",390072,1994,4,"e","Eland",8,-23.24,31.13,308676.47,7428679.64
"390141",390141,1994,4,"e","Eland",1,-23.28,31.08,303618.2,7424182.98
"390219",390219,1994,4,"e","Eland",3,-23.27,31.04,299510.85,7425235.68
"390220",390220,1994,2,"e","Eland",2,-23.29,31.03,298517.78,7423006.83
"390222",390222,1994,4,"e","Eland",3,-23.28,31.03,298502.72,7424114.32
"390232",390232,1994,4,"e","Eland",2,-23.25,31.04,299480.91,7427450.65
"390253",390253,1994,4,"e","Eland",3,-23.27,31.03,298487.66,7425221.81
"390279",390279,1994,4,"e","Eland",12,-23.28,31.01,296456.49,7424086.37
"390285",390285,1994,4,"e","Eland",3,-23.26,31.01,296426.09,7426301.36
"390303",390303,1994,4,"e","Eland",12,-23.23,31.02,297404.02,7429637.84
"390307",390307,1994,4,"e","Eland",3,-23.25,31.01,296410.89,7427408.86
"390390",390390,1994,5,"e","Eland",5,-23.7,31.61,358286.32,7378295.95
"390610",390610,1994,6,"e","Eland",4,-23.54,31.52,348925.86,7395920.94
"390862",390862,1994,7,"e","Eland",4,-23.36,31.44,340542.32,7415766.55
"390865",390865,1994,7,"e","Eland",1,-23.34,31.42,338473.42,7417959
"390881",390881,1994,7,"e","Eland",10,-23.29,31.39,335344.32,7423461.88
"396390",396390,1994,43,"e","Eland",1,-22.63,31.18,312956.84,7496294.84
"396397",396397,1994,43,"e","Eland",1,-22.64,31.15,309886.72,7495149.47
"396416",396416,1994,43,"e","Eland",1,-22.64,31.23,318109.73,7495249.5
"396418",396418,1994,43,"e","Eland",2,-22.64,31.27,322221.14,7495297.86
"396426",396426,1994,43,"e","Eland",2,-22.66,31.22,317108.37,7493022.59
"396427",396427,1994,43,"e","Eland",1,-22.66,31.22,317108.37,7493022.59
"396453",396453,1994,43,"e","Eland",6,-22.68,31.24,319190.03,7490832.42
"396456",396456,1994,43,"e","Eland",3,-22.69,31.23,318175.66,7489712.88
"396469",396469,1994,43,"e","Eland",3,-22.7,31.29,324353.27,7488677.82
"396479",396479,1994,43,"e","Eland",1,-22.72,31.28,323351.55,7486451.33
"396484",396484,1994,43,"e","Eland",1,-22.72,31.19,314106.2,7486341.29
"396497",396497,1994,43,"e","Eland",8,-22.74,31.22,317214.62,7484163.92
"396530",396530,1994,43,"e","Eland",1,-22.76,31.27,322376.02,7482010.11
"396705",396705,1994,44,"e","Eland",1,-22.84,31.43,338900.8,7473335.12
"396788",396788,1994,45,"e","Eland",7,-22.97,31.29,324699.66,7458780.15
"396798",396798,1994,45,"e","Eland",1,-22.97,31.32,327775.72,7458815.67
"396799",396799,1994,45,"e","Eland",1,-22.97,31.33,328801.07,7458827.37
"396813",396813,1994,45,"e","Eland",4,-22.99,31.37,332927.03,7456658.86
"396864",396864,1994,45,"e","Eland",1,-22.96,31.43,339042.52,7460047.82
"396889",396889,1994,45,"e","Eland",3,-22.92,31.43,338995.2,7464476.94
"396891",396891,1994,45,"e","Eland",2,-22.92,31.44,340020.89,7464487.85
"396907",396907,1994,45,"e","Eland",1,-22.92,31.46,342072.25,7464509.47
"397008",397008,1994,47,"e","Eland",4,-23.06,31.46,342235.03,7449007.61
"397017",397017,1994,47,"e","Eland",3,-23.07,31.46,342246.69,7447900.33
"397191",397191,1994,49,"e","Eland",3,-23.16,31.21,316754.25,7437642.06
"397236",397236,1994,49,"e","Eland",6,-23.16,31.23,318802.15,7437667.09
"397237",397237,1994,49,"e","Eland",3,-23.15,31.23,318788.69,7438774.48
"397249",397249,1994,49,"e","Eland",1,-23.14,31.24,319799.34,7439894.26
"397286",397286,1994,49,"e","Eland",26,-23.17,31.26,321887.19,7436596.73
"397297",397297,1994,49,"e","Eland",3,-23.16,31.27,322897.89,7437716.31
"397306",397306,1994,49,"e","Eland",5,-23.12,31.27,322845.32,7442145.78
"397327",397327,1994,49,"e","Eland",4,-23.16,31.28,323921.82,7437728.43
"397365",397365,1994,49,"e","Eland",1,-23.09,31.31,326903.75,7445515.85
"397369",397369,1994,49,"e","Eland",1,-23.09,31.31,326903.75,7445515.85
"397472",397472,1994,49,"e","Eland",1,-23.11,31.18,313613.26,7443141.01
"397557",397557,1994,49,"e","Eland",1,-23.09,31.22,317683.59,7445406.32
"397559",397559,1994,49,"e","Eland",1,-23.1,31.23,318721.49,7444311.39
"397560",397560,1994,49,"e","Eland",2,-23.1,31.23,318721.49,7444311.39
"397566",397566,1994,49,"e","Eland",7,-23.11,31.24,319759.24,7443216.4
"397571",397571,1994,49,"e","Eland",2,-23.09,31.23,318708.07,7445418.77
"397579",397579,1994,49,"e","Eland",2,-23.08,31.23,318694.65,7446526.14
"397580",397580,1994,49,"e","Eland",45,-23.08,31.23,318694.65,7446526.14
"397586",397586,1994,49,"e","Eland",1,-23.11,31.24,319759.24,7443216.4
"397612",397612,1994,49,"e","Eland",5,-23.09,31.26,321781.48,7445455.7
"397717",397717,1994,45,"e","Eland",1,-23.03,31.35,330926.54,7452206.66
"397720",397720,1994,49,"e","Eland",2,-23.06,31.36,331988.65,7448896.21
"397739",397739,1994,50,"e","Eland",6,-23.02,30.92,286837.11,7452752.72
"397743",397743,1994,50,"e","Eland",8,-23.01,30.92,286821.38,7453860.23
"397751",397751,1994,50,"e","Eland",2,-22.99,30.93,287815.31,7456089.75
"397770",397770,1994,50,"e","Eland",2,-23.02,30.94,288887.37,7452781.7
"397785",397785,1994,50,"e","Eland",2,-23.06,30.95,289974.56,7448366.09
"397980",397980,1994,50,"e","Eland",1,-23.02,31.07,302213.66,7452963.23
"398066",398066,1994,50,"e","Eland",2,-23.06,31.16,311494.82,7448652.35
"398147",398147,1994,50,"e","Eland",3,-23.16,31.14,309586.5,7437552.23
"398155",398155,1994,50,"e","Eland",1,-23.15,31.12,307524.24,7438633.37
"398190",398190,1994,50,"e","Eland",1,-23.11,31.1,305418.38,7443036.56
"398290",398290,1994,50,"e","Eland",1,-23.16,31,295250.4,7437362.23
"398302",398302,1994,50,"e","Eland",2,-23.1,31,295159.24,7444007.14
"398305",398305,1994,50,"e","Eland",1,-23.11,31,295174.42,7442899.66
"398325",398325,1994,50,"e","Eland",2,-23.12,30.97,292116.56,7441749.72
"398379",398379,1994,51,"e","Eland",1,-22.99,31.1,305245.78,7456325.71
"398420",398420,1994,51,"e","Eland",1,-22.91,31.05,300001.68,7465117.92
"398424",398424,1994,51,"e","Eland",1,-22.91,31.05,300001.68,7465117.92
"398438",398438,1994,51,"e","Eland",1,-22.91,31.04,298975.77,7465104.29
"398637",398637,1994,52,"e","Eland",2,-22.95,31.24,319546.26,7460934.26
"398646",398646,1994,52,"e","Eland",1,-23.01,31.29,324751.3,7454350.78
"398658",398658,1994,52,"e","Eland",2,-22.98,31.25,320611.39,7457624.45
"398825",398825,1994,52,"e","Eland",2,-23,31.2,315512.02,7455347.67
"398844",398844,1994,52,"e","Eland",1,-22.89,31.11,306128.63,7467413.06
"398867",398867,1994,52,"e","Eland",2,-23,31.2,315512.02,7455347.67
"398897",398897,1994,52,"e","Eland",1,-22.98,31.18,313434.19,7457537.12
"399032",399032,1994,53,"e","Eland",5,-22.71,31.09,303818.95,7487319.83
"399093",399093,1994,53,"e","Eland",4,-22.87,31.04,298916.8,7469534.04
"399098",399098,1994,53,"e","Eland",3,-22.87,31.04,298916.8,7469534.04
"399244",399244,1994,60,"e","Eland",1,-22.66,31.07,301692.19,7492830.23
"399275",399275,1994,60,"e","Eland",3,-22.64,31.14,308858.83,7495136.66
"399276",399276,1994,60,"e","Eland",1,-22.64,31.14,308858.83,7495136.66
"399393",399393,1994,61,"e","Eland",3,-22.5,31.15,309694.53,7510652.34
"399435",399435,1994,61,"e","Eland",5,-22.61,31.16,310873.56,7498484.27
"399530",399530,1994,62,"e","Eland",7,-22.61,31.18,312929.77,7498509.53
"399575",399575,1994,63,"e","Eland",1,-22.36,31.25,319802.94,7526278.09
"399618",399618,1994,63,"e","Eland",1,-22.34,31.16,310506.39,7528382.21
"399643",399643,1994,63,"e","Eland",9,-22.42,31.08,302378.44,7519420.55
"399645",399645,1994,63,"e","Eland",1,-22.4,31.09,303379.84,7521648.39
"399658",399658,1994,63,"e","Eland",1,-22.42,31.12,306496.63,7519472.65
