"","ID","Year","Cenb","Sp","Description","No","Lat","Long","X.coord","Y.coord"
"234155",234155,1988,6,"n","Nyala",1,-23.57,31.43,339773.77,7392501.16
"234164",234164,1988,6,"n","Nyala",2,-23.53,31.41,337683.19,7396908.11
"234672",234672,1988,7,"n","Nyala",2,-23.65,31.31,327629.53,7383502.48
"236314",236314,1988,11,"n","Nyala",3,-23.17,31.31,327006.43,7436657.04
"238434",238434,1988,19,"n","Nyala",1,-23.95,31.87,385017.09,7350848.82
"238450",238450,1988,19,"n","Nyala",2,-23.96,31.87,385025.95,7349741.54
"238457",238457,1988,19,"n","Nyala",1,-23.92,31.8,377865.34,7354111.89
"238472",238472,1988,19,"n","Nyala",5,-23.97,31.87,385034.83,7348634.26
"238508",238508,1988,19,"n","Nyala",1,-23.97,31.85,382999.86,7348617.81
"238571",238571,1988,19,"n","Nyala",1,-23.98,31.84,381991.49,7347502.19
"238572",238572,1988,19,"n","Nyala",2,-23.97,31.82,379947.4,7348592.59
"238573",238573,1988,19,"n","Nyala",1,-23.97,31.82,379947.4,7348592.59
"238576",238576,1988,19,"n","Nyala",3,-23.96,31.81,378920.56,7349691.34
"238590",238590,1988,19,"n","Nyala",3,-23.94,31.77,374830.95,7351871.03
"238600",238600,1988,19,"n","Nyala",1,-23.92,31.75,372775.86,7354067.77
"238601",238601,1988,19,"n","Nyala",3,-23.92,31.75,372775.86,7354067.77
"238605",238605,1988,19,"n","Nyala",7,-23.92,31.74,371757.96,7354058.73
"238619",238619,1988,19,"n","Nyala",3,-23.94,31.77,374830.95,7351871.03
"238624",238624,1988,19,"n","Nyala",5,-23.96,31.8,377902.99,7349682.72
"238636",238636,1988,19,"n","Nyala",2,-23.95,31.78,375858.26,7350772.56
"238668",238668,1988,19,"n","Nyala",8,-23.87,31.65,362543.85,7359510.77
"238703",238703,1988,19,"n","Nyala",1,-23.88,31.68,365609.13,7358432.26
"248245",248245,1988,35,"n","Nyala",1,-24.96,31.61,359681.2,7238763.04
"255896",255896,1988,48,"n","Nyala",1,-22.88,31.4,335869.98,7468872.93
"256247",256247,1988,49,"n","Nyala",1,-23,31.44,340115,7455629.62
"256282",256282,1988,50,"n","Nyala",8,-23.01,31.45,341151.78,7454533.21
"256368",256368,1988,50,"n","Nyala",3,-23.07,31.42,338148.49,7447856.59
"256372",256372,1988,50,"n","Nyala",1,-23.07,31.45,341222.14,7447889.5
"256511",256511,1988,51,"n","Nyala",3,-22.6,31.31,326282.23,7499774.25
"256515",256515,1988,51,"n","Nyala",4,-22.6,31.32,327310.35,7499785.87
"256522",256522,1988,51,"n","Nyala",2,-22.64,31.29,324276.82,7495321.62
"256525",256525,1988,51,"n","Nyala",1,-22.64,31.33,328388.14,7495368.31
"256529",256529,1988,51,"n","Nyala",1,-22.68,31.32,327410.37,7490927.6
"256530",256530,1988,51,"n","Nyala",1,-22.69,31.38,333587.54,7489888.81
"256668",256668,1988,52,"n","Nyala",1,-23.16,31.32,328017.48,7437776.24
"256937",256937,1988,52,"n","Nyala",2,-23.04,31.37,332988.63,7451122.3
"258179",258179,1988,54,"n","Nyala",1,-22.99,31.27,322675.04,7456541.42
"258241",258241,1988,54,"n","Nyala",1,-23.05,31.24,319679.21,7449860.63
"258247",258247,1988,55,"n","Nyala",5,-22.88,31,294826.94,7468371.43
"258274",258274,1988,55,"n","Nyala",1,-22.86,31.02,296849.49,7470614.05
"258288",258288,1988,55,"n","Nyala",1,-22.86,30.98,292744.25,7470558.35
"258460",258460,1988,55,"n","Nyala",2,-22.76,31.17,312106.34,7481886.64
"258522",258522,1988,55,"n","Nyala",3,-22.87,31.13,308152.57,7469654.05
"259690",259690,1988,61,"n","Nyala",1,-22.51,31.07,301477.22,7509441.01
"259711",259711,1988,61,"n","Nyala",4,-22.5,30.99,293231.06,7510440.03
"259759",259759,1988,61,"n","Nyala",3,-22.6,31.1,304690.69,7499514.21
"259768",259768,1988,61,"n","Nyala",2,-22.59,31.02,296450.16,7500514.54
"259774",259774,1988,61,"n","Nyala",2,-22.58,30.99,293350.25,7501580.69
"259775",259775,1988,61,"n","Nyala",5,-22.58,30.99,293350.25,7501580.69
"259782",259782,1988,61,"n","Nyala",3,-22.61,31.06,300592.23,7498353.83
"259794",259794,1988,61,"n","Nyala",3,-22.61,30.98,292366.86,7498244.51
"259796",259796,1988,61,"n","Nyala",4,-22.62,31.02,296494.31,7497192.31
"259799",259799,1988,61,"n","Nyala",1,-22.64,31.12,306803.03,7495110.82
"259802",259802,1988,61,"n","Nyala",4,-22.62,31.02,296494.31,7497192.31
"259804",259804,1988,61,"n","Nyala",3,-22.61,30.98,292366.86,7498244.51
"259840",259840,1988,61,"n","Nyala",2,-22.64,30.95,289328.03,7494880.03
"259853",259853,1988,61,"n","Nyala",2,-22.67,31.04,298623.45,7491682.48
"259854",259854,1988,61,"n","Nyala",1,-22.67,31.03,297595.73,7491668.89
"259857",259857,1988,61,"n","Nyala",1,-22.66,31.02,296553.25,7492762.65
"259876",259876,1988,61,"n","Nyala",4,-22.67,30.96,290401.59,7491571.82
"259884",259884,1988,61,"n","Nyala",5,-22.67,30.97,291429.33,7491585.89
"259886",259886,1988,61,"n","Nyala",2,-22.68,31,294527.46,7490520.27
"259900",259900,1988,61,"n","Nyala",2,-22.68,31.01,295555.12,7490534.08
"259908",259908,1988,61,"n","Nyala",1,-22.68,30.92,286306.05,7490407.36
"259935",259935,1988,61,"n","Nyala",4,-22.68,30.94,288361.43,7490436
"259936",259936,1988,61,"n","Nyala",3,-22.68,30.94,288361.43,7490436
"259941",259941,1988,61,"n","Nyala",1,-22.7,30.95,289419.7,7488235.31
"259946",259946,1988,61,"n","Nyala",3,-22.7,31.02,296612.3,7488332.97
"259955",259955,1988,61,"n","Nyala",1,-22.68,30.91,285278.36,7490392.93
"259960",259960,1988,61,"n","Nyala",5,-22.71,30.95,289435,7487127.85
"259978",259978,1988,62,"n","Nyala",1,-22.49,31.06,300419.62,7511642.46
"259985",259985,1988,62,"n","Nyala",2,-22.48,31.06,300405.27,7512749.84
"260018",260018,1988,62,"n","Nyala",2,-22.62,31.16,310887.24,7497376.92
"260065",260065,1988,62,"n","Nyala",3,-22.54,31.12,306663.4,7506184.45
"260114",260114,1988,62,"n","Nyala",2,-22.5,31.07,301462.94,7510548.39
"260126",260126,1988,62,"n","Nyala",4,-22.47,31.12,306566.01,7513935.92
"260145",260145,1988,62,"n","Nyala",2,-22.46,31.15,309639.83,7515081.68
"260159",260159,1988,62,"n","Nyala",1,-22.45,31.16,310655.47,7516201.68
"260166",260166,1988,62,"n","Nyala",1,-22.45,31.14,308596.86,7516176.28
"260172",260172,1988,62,"n","Nyala",1,-22.45,31.1,304479.6,7516124.68
"260176",260176,1988,62,"n","Nyala",3,-22.45,31.08,302420.95,7516098.46
"260195",260195,1988,62,"n","Nyala",3,-22.44,31.09,303436.18,7517218.96
"260211",260211,1988,62,"n","Nyala",3,-22.42,31.17,311644.26,7519536.24
"260215",260215,1988,63,"n","Nyala",3,-22.5,31.32,327185.81,7510858.6
"260238",260238,1988,63,"n","Nyala",5,-22.47,31.32,327148.55,7514180.39
"260240",260240,1988,63,"n","Nyala",1,-22.49,31.31,326144.44,7511954.29
"260241",260241,1988,63,"n","Nyala",2,-22.49,31.31,326144.44,7511954.29
"260253",260253,1988,63,"n","Nyala",1,-22.42,31.27,321939.22,7519658.26
"260254",260254,1988,63,"n","Nyala",2,-22.42,31.28,322968.69,7519670.08
"260258",260258,1988,63,"n","Nyala",1,-22.43,31.27,321951.98,7518550.98
"260270",260270,1988,63,"n","Nyala",6,-22.51,31.3,325140.65,7509728.09
"260272",260272,1988,63,"n","Nyala",9,-22.5,31.29,324099.2,7510823.65
"260278",260278,1988,63,"n","Nyala",6,-22.44,31.27,321964.74,7517443.7
"260280",260280,1988,63,"n","Nyala",1,-22.43,31.27,321951.98,7518550.98
"260285",260285,1988,63,"n","Nyala",3,-22.43,31.26,320922.57,7518539.08
"260291",260291,1988,63,"n","Nyala",14,-22.45,31.27,321977.51,7516336.42
"260296",260296,1988,63,"n","Nyala",5,-22.5,31.28,323070.32,7510811.86
"260297",260297,1988,63,"n","Nyala",1,-22.5,31.29,324099.2,7510823.65
"260300",260300,1988,63,"n","Nyala",1,-22.52,31.3,325153.23,7508620.81
"260301",260301,1988,63,"n","Nyala",2,-22.51,31.29,324111.85,7509716.37
"260303",260303,1988,63,"n","Nyala",3,-22.49,31.28,323057.6,7511919.14
"260304",260304,1988,63,"n","Nyala",4,-22.48,31.28,323044.88,7513026.42
"260306",260306,1988,63,"n","Nyala",2,-22.44,31.26,320935.41,7517431.8
"260311",260311,1988,63,"n","Nyala",2,-22.43,31.25,319893.16,7518527.12
"260312",260312,1988,63,"n","Nyala",2,-22.42,31.24,318850.77,7519622.37
"260317",260317,1988,63,"n","Nyala",5,-22.53,31.28,323108.51,7507490
"260345",260345,1988,63,"n","Nyala",1,-22.46,31.22,316844.33,7515168.9
"260363",260363,1988,63,"n","Nyala",2,-22.52,31.22,316923.31,7508525.06
"260379",260379,1988,63,"n","Nyala",2,-22.61,31.18,312929.77,7498509.53
"260427",260427,1988,63,"n","Nyala",1,-22.58,31.25,320087.4,7501917.67
"260432",260432,1988,63,"n","Nyala",3,-22.59,31.3,325241.47,7500869.84
"260441",260441,1988,63,"n","Nyala",3,-22.56,31.31,326232.05,7504203.37
"260444",260444,1988,63,"n","Nyala",1,-22.57,31.33,328301.28,7503119.24
"260446",260446,1988,63,"n","Nyala",1,-22.58,31.34,329341.94,7502023.45
"260447",260447,1988,63,"n","Nyala",1,-22.58,31.34,329341.94,7502023.45
"260452",260452,1988,64,"n","Nyala",4,-22.41,31.3,325015.1,7520800.79
"260459",260459,1988,64,"n","Nyala",4,-22.4,31.29,323972.96,7521896.37
"260461",260461,1988,64,"n","Nyala",6,-22.41,31.29,323985.56,7520789.11
"260468",260468,1988,64,"n","Nyala",1,-22.42,31.28,322968.69,7519670.08
"260469",260469,1988,64,"n","Nyala",3,-22.42,31.28,322968.69,7519670.08
"260470",260470,1988,64,"n","Nyala",5,-22.41,31.28,322956.02,7520777.35
"260471",260471,1988,64,"n","Nyala",3,-22.42,31.28,322968.69,7519670.08
"260472",260472,1988,64,"n","Nyala",4,-22.41,31.28,322956.02,7520777.35
"260474",260474,1988,64,"n","Nyala",1,-22.41,31.28,322956.02,7520777.35
"260483",260483,1988,64,"n","Nyala",3,-22.4,31.27,321913.72,7521872.81
"260484",260484,1988,64,"n","Nyala",4,-22.4,31.27,321913.72,7521872.81
"260485",260485,1988,64,"n","Nyala",2,-22.4,31.27,321913.72,7521872.81
"260490",260490,1988,64,"n","Nyala",1,-22.42,31.27,321939.22,7519658.26
"260504",260504,1988,64,"n","Nyala",1,-22.36,31.27,321862.79,7526301.9
"260514",260514,1988,64,"n","Nyala",1,-22.37,31.28,322905.35,7525206.43
"260517",260517,1988,64,"n","Nyala",2,-22.36,31.27,321862.79,7526301.9
"260544",260544,1988,64,"n","Nyala",1,-22.37,31.26,320845.66,7525182.76
"260546",260546,1988,64,"n","Nyala",1,-22.36,31.25,319802.94,7526278.09
"260547",260547,1988,64,"n","Nyala",2,-22.36,31.25,319802.94,7526278.09
"260553",260553,1988,64,"n","Nyala",2,-22.39,31.25,319841.58,7522956.25
"260560",260560,1988,64,"n","Nyala",1,-22.41,31.25,319867.36,7520741.69
"260607",260607,1988,64,"n","Nyala",2,-22.37,31.22,316726.24,7525134.58
"260623",260623,1988,64,"n","Nyala",4,-22.42,31.22,316791.79,7519598.1
"260624",260624,1988,64,"n","Nyala",3,-22.42,31.2,314732.79,7519573.56
"260633",260633,1988,64,"n","Nyala",3,-22.37,31.2,314666.5,7525110.08
"260653",260653,1988,64,"n","Nyala",1,-22.34,31.19,313596.7,7528419.64
"260655",260655,1988,64,"n","Nyala",3,-22.35,31.19,313610,7527312.34
"260674",260674,1988,64,"n","Nyala",1,-22.36,31.17,311563.4,7526180.13
"260675",260675,1988,64,"n","Nyala",1,-22.35,31.17,311549.94,7527287.45
"260681",260681,1988,64,"n","Nyala",1,-22.33,31.18,312553.23,7529514.54
"260696",260696,1988,64,"n","Nyala",1,-22.41,31.15,309571.58,7520618.34
"260712",260712,1988,64,"n","Nyala",3,-22.34,31.16,310506.39,7528382.21
"260740",260740,1988,64,"n","Nyala",1,-22.37,31.12,306427.39,7525009.35
"260747",260747,1988,64,"n","Nyala",2,-22.4,31.09,303379.84,7521648.39
"260783",260783,1988,64,"n","Nyala",1,-22.42,31.06,300319.33,7519394.08
"260814",260814,1988,64,"n","Nyala",1,-22.42,31.21,315762.29,7519585.87
"260816",260816,1988,64,"n","Nyala",3,-22.43,31.2,314746.06,7518466.26
"260818",260818,1988,64,"n","Nyala",6,-22.43,31.19,313716.63,7518453.88
"260821",260821,1988,64,"n","Nyala",1,-22.43,31.18,312687.2,7518441.43
"260829",260829,1988,64,"n","Nyala",2,-22.43,31.17,311657.75,7518428.91
