"","ID","Year","Cenb","Sp","Description","No","Lat","Long","X.coord","Y.coord"
"234135",234135,1988,6,"ek","Eland calf",4,-23.64,31.46,342919.38,7384782.91
"235027",235027,1988,8,"ek","Eland calf",1,-23.42,31.23,319153.94,7408874.6
"235648",235648,1988,10,"ek","Eland calf",1,-23.34,31.2,315977.58,7417696.04
"235745",235745,1988,10,"ek","Eland calf",11,-23.44,31.06,301810.01,7406435.96
"250916",250916,1988,40,"ek","Eland calf",2,-25.16,31.29,327652.07,7216241.84
"255491",255491,1988,47,"ek","Eland calf",2,-22.66,31.25,320191.5,7493059.19
"255568",255568,1988,47,"ek","Eland calf",6,-22.73,31.26,321310.05,7485320.04
"256897",256897,1988,52,"ek","Eland calf",3,-23.05,31.31,326852.54,7449945.22
"257996",257996,1988,54,"ek","Eland calf",2,-22.93,31.2,315416.97,7463099.29
"258045",258045,1988,54,"ek","Eland calf",8,-22.98,31.18,313434.19,7457537.12
"258149",258149,1988,54,"ek","Eland calf",6,-22.99,31.22,317548.91,7456480.07
"258555",258555,1988,55,"ek","Eland calf",2,-22.86,31.16,311217.27,7470800.18
