"","ID","Year","Cenb","Sp","Description","No","Lat","Long","X.coord","Y.coord"
"147225",147225,1985,11,"wr","White rhino",4,-23.26,31.23,318937.01,7426593.16
"147287",147287,1985,11,"wr","White rhino",4,-23.39,31.25,321157.52,7412221.79
"147292",147292,1985,11,"wr","White rhino",1,-23.37,31.26,322153,7414448.96
"147321",147321,1985,11,"wr","White rhino",3,-23.34,31.27,323135.54,7417783.43
"147333",147333,1985,11,"wr","White rhino",2,-23.35,31.28,324171.27,7416688.24
"147343",147343,1985,11,"wr","White rhino",3,-23.32,31.28,324131.76,7420010.41
"151302",151302,1985,20,"wr","White rhino",1,-24.06,31.53,350543.1,7338348.83
"151488",151488,1985,21,"wr","White rhino",1,-24.22,31.49,346666.64,7320587.02
"151518",151518,1985,21,"wr","White rhino",1,-24.19,31.49,346630.73,7323909.3
"151689",151689,1985,21,"wr","White rhino",4,-24.13,31.59,356722.12,7330659.71
"151745",151745,1985,21,"wr","White rhino",4,-24.19,31.63,360852.3,7324055.79
"152700",152700,1985,22,"wr","White rhino",2,-24.3,31.55,352852.38,7311792.3
"152765",152765,1985,23,"wr","White rhino",4,-24.23,31.63,360895.74,7319626.27
"152931",152931,1985,23,"wr","White rhino",1,-24.15,31.67,364873.4,7328524.48
"153345",153345,1985,24,"wr","White rhino",1,-24.24,31.59,356844.95,7318478.42
"153388",153388,1985,24,"wr","White rhino",2,-24.29,31.63,360961.03,7312981.94
"153501",153501,1985,24,"wr","White rhino",1,-24.33,31.67,365063.39,7308591.77
"154027",154027,1985,25,"wr","White rhino",2,-24.13,31.82,380096.12,7330875.72
"154269",154269,1985,25,"wr","White rhino",3,-24.13,31.84,382128.57,7330892.69
"154270",154270,1985,25,"wr","White rhino",1,-24.13,31.84,382128.57,7330892.69
"154271",154271,1985,25,"wr","White rhino",2,-24.12,31.84,382119.41,7332000
"154273",154273,1985,25,"wr","White rhino",2,-24.13,31.85,383144.8,7330901.07
"154299",154299,1985,25,"wr","White rhino",2,-24.09,31.83,381075.4,7335313.48
"154328",154328,1985,25,"wr","White rhino",3,-24.1,31.83,381084.63,7334206.18
"154337",154337,1985,25,"wr","White rhino",1,-24.1,31.85,383117.55,7334222.98
"154480",154480,1985,25,"wr","White rhino",3,-24.16,31.88,386220.02,7327603.85
"154487",154487,1985,25,"wr","White rhino",1,-24.16,31.9,388251.98,7327619.97
"154735",154735,1985,26,"wr","White rhino",1,-24.23,31.77,375112.32,7319758.67
"154861",154861,1985,26,"wr","White rhino",1,-24.27,31.83,381242.13,7315381.73
"154965",154965,1985,26,"wr","White rhino",1,-24.3,31.85,383299.79,7312076.64
"155199",155199,1985,27,"wr","White rhino",2,-24.2,31.87,385239.83,7323166.45
"155250",155250,1985,27,"wr","White rhino",2,-24.31,31.91,389397.67,7311018.31
"155287",155287,1985,27,"wr","White rhino",2,-24.28,31.9,388356.65,7314332.28
"155291",155291,1985,27,"wr","White rhino",2,-24.27,31.91,389363.01,7315447.57
"155501",155501,1985,27,"wr","White rhino",2,-24.31,31.94,392442.01,7311041.83
"155802",155802,1985,27,"wr","White rhino",3,-24.31,31.96,394471.55,7311057.14
"156967",156967,1985,29,"wr","White rhino",3,-24.63,31.81,379554.64,7275499.48
"157028",157028,1985,29,"wr","White rhino",3,-24.59,31.82,380528.88,7279937.74
"157069",157069,1985,29,"wr","White rhino",1,-24.56,31.82,380500.42,7283259.87
"157206",157206,1985,29,"wr","White rhino",2,-24.63,31.87,385628.04,7275550.73
"157246",157246,1985,29,"wr","White rhino",2,-24.6,31.85,383575.81,7278856.07
"158374",158374,1985,30,"wr","White rhino",2,-24.71,31.95,393793.56,7266756.07
"158510",158510,1985,30,"wr","White rhino",2,-24.78,31.96,394864.03,7259012.22
"158754",158754,1985,30,"wr","White rhino",3,-24.62,31.96,394729.62,7276729.99
"158762",158762,1985,30,"wr","White rhino",2,-24.6,31.98,396737.78,7278959.84
"159113",159113,1985,31,"wr","White rhino",6,-24.59,31.69,367365.38,7279818.69
"159472",159472,1985,31,"wr","White rhino",3,-24.55,31.74,372387.8,7284295.55
"159744",159744,1985,31,"wr","White rhino",3,-24.59,31.75,373440.89,7279875.18
"160399",160399,1985,33,"wr","White rhino",2,-24.75,31.62,360455.32,7262030.28
"160510",160510,1985,33,"wr","White rhino",1,-24.73,31.65,363467.43,7264275.44
"160625",160625,1985,34,"wr","White rhino",4,-24.69,31.7,368482.74,7268754.1
"160666",160666,1985,34,"wr","White rhino",2,-24.65,31.7,368440.79,7273183.79
"160735",160735,1985,34,"wr","White rhino",1,-24.74,31.73,371569.41,7263245.43
"160837",160837,1985,34,"wr","White rhino",1,-24.62,31.71,369421.71,7276515.58
"160942",160942,1985,34,"wr","White rhino",1,-24.63,31.76,374493.4,7275454.75
"160950",160950,1985,34,"wr","White rhino",2,-24.63,31.76,374493.4,7275454.75
"160976",160976,1985,34,"wr","White rhino",2,-24.65,31.76,374513.39,7273239.94
"160985",160985,1985,34,"wr","White rhino",5,-24.65,31.77,375525.48,7273249.04
"160989",160989,1985,34,"wr","White rhino",3,-24.66,31.78,376547.41,7272150.67
"160993",160993,1985,34,"wr","White rhino",2,-24.62,31.76,374483.41,7276562.15
"160996",160996,1985,34,"wr","White rhino",2,-24.61,31.75,373461.01,7277660.38
"161040",161040,1985,34,"wr","White rhino",1,-24.73,31.83,381673.55,7264442.96
"161369",161369,1985,35,"wr","White rhino",4,-24.86,31.65,363609.71,7249878.51
"161446",161446,1985,35,"wr","White rhino",4,-24.92,31.69,367715.32,7243273.22
"161619",161619,1985,36,"wr","White rhino",1,-24.77,31.73,371600.25,7259923.15
"162349",162349,1985,37,"wr","White rhino",1,-25.05,31.98,397110.27,7229128
"162508",162508,1985,37,"wr","White rhino",2,-24.92,31.96,394982.3,7243508.86
"162539",162539,1985,37,"wr","White rhino",2,-24.92,31.98,397002.01,7243524.16
"163245",163245,1985,39,"wr","White rhino",2,-25.13,31.21,319543.23,7219460.05
"163260",163260,1985,39,"wr","White rhino",4,-25.13,31.22,320551.58,7219473.4
"163264",163264,1985,39,"wr","White rhino",3,-25.13,31.23,321559.93,7219486.67
"163322",163322,1985,39,"wr","White rhino",3,-25.07,31.22,320463.97,7226119.27
"163325",163325,1985,39,"wr","White rhino",1,-25.07,31.23,321472.81,7226132.52
"163331",163331,1985,39,"wr","White rhino",1,-25.07,31.24,322481.64,7226145.69
"163347",163347,1985,39,"wr","White rhino",2,-25.1,31.27,325550.67,7222861.89
"163351",163351,1985,39,"wr","White rhino",3,-25.09,31.28,326545.14,7223982.39
"163359",163359,1985,39,"wr","White rhino",2,-25.06,31.28,326502.85,7227305.25
"163367",163367,1985,39,"wr","White rhino",3,-25.06,31.28,326502.85,7227305.25
"163376",163376,1985,39,"wr","White rhino",1,-25.01,31.27,325423.16,7232830.47
"163425",163425,1985,39,"wr","White rhino",4,-25.09,31.3,328562.44,7224007.93
"163428",163428,1985,39,"wr","White rhino",2,-25.08,31.3,328548.5,7225115.54
"163431",163431,1985,39,"wr","White rhino",1,-25.08,31.33,331574.67,7225153.28
"163439",163439,1985,39,"wr","White rhino",2,-25.1,31.32,330593.5,7222925.56
"163441",163441,1985,39,"wr","White rhino",2,-25.11,31.32,330607.29,7221817.95
"163446",163446,1985,39,"wr","White rhino",2,-25.05,31.29,327497.75,7228425.66
"163449",163449,1985,39,"wr","White rhino",1,-25.05,31.3,328506.72,7228438.37
"163453",163453,1985,39,"wr","White rhino",2,-25.05,31.3,328506.72,7228438.37
"163456",163456,1985,39,"wr","White rhino",2,-25.05,31.31,329515.7,7228451.02
"163458",163458,1985,39,"wr","White rhino",2,-25.05,31.31,329515.7,7228451.02
"163460",163460,1985,39,"wr","White rhino",2,-25.05,31.32,330524.67,7228463.58
"163463",163463,1985,39,"wr","White rhino",2,-25.05,31.33,331533.63,7228476.08
"163467",163467,1985,39,"wr","White rhino",3,-25.07,31.3,328534.57,7226223.15
"163471",163471,1985,39,"wr","White rhino",2,-25.06,31.3,328520.64,7227330.76
"163474",163474,1985,39,"wr","White rhino",2,-25.07,31.31,329543.38,7226235.8
"163504",163504,1985,39,"wr","White rhino",2,-25.02,31.3,328464.99,7231761.19
"163512",163512,1985,39,"wr","White rhino",4,-25.03,31.31,329488.03,7230666.22
"163549",163549,1985,39,"wr","White rhino",2,-25.1,31.34,332610.61,7222950.51
"163556",163556,1985,39,"wr","White rhino",2,-25.08,31.37,335609.52,7225202.55
"163569",163569,1985,39,"wr","White rhino",2,-25.05,31.34,332542.6,7228488.49
"163570",163570,1985,39,"wr","White rhino",2,-25.05,31.34,332542.6,7228488.49
"163571",163571,1985,39,"wr","White rhino",2,-25.06,31.34,332556.19,7227380.9
"163575",163575,1985,39,"wr","White rhino",2,-25.05,31.36,334560.51,7228513.11
"163583",163583,1985,39,"wr","White rhino",3,-25.05,31.36,334560.51,7228513.11
"163590",163590,1985,39,"wr","White rhino",1,-25.07,31.34,332569.79,7226273.3
"163591",163591,1985,39,"wr","White rhino",2,-25.06,31.33,331547.31,7227368.48
"163594",163594,1985,39,"wr","White rhino",3,-25.07,31.35,333578.58,7226285.65
"163602",163602,1985,39,"wr","White rhino",2,-25.08,31.37,335609.52,7225202.55
"163609",163609,1985,39,"wr","White rhino",2,-25.01,31.34,332488.27,7232918.86
"163639",163639,1985,39,"wr","White rhino",1,-25.08,31.37,335609.52,7225202.55
"163644",163644,1985,39,"wr","White rhino",2,-25.04,31.37,335556.12,7229632.88
"163648",163648,1985,39,"wr","White rhino",2,-25.07,31.37,335596.17,7226310.13
"164602",164602,1985,40,"wr","White rhino",2,-25.28,31.28,326814.06,7202937.35
"164625",164625,1985,40,"wr","White rhino",2,-25.24,31.27,325749.87,7207354.99
"164650",164650,1985,40,"wr","White rhino",1,-25.18,31.27,325664.37,7214000.83
"164710",164710,1985,40,"wr","White rhino",1,-25.33,31.32,330911.82,7197450.23
"164725",164725,1985,40,"wr","White rhino",2,-25.3,31.3,328856.32,7200747.75
"164761",164761,1985,40,"wr","White rhino",2,-25.26,31.31,329807.41,7205191.02
"164764",164764,1985,40,"wr","White rhino",1,-25.26,31.32,330814.65,7205203.67
"164800",164800,1985,40,"wr","White rhino",1,-25.24,31.29,327764.71,7207380.79
"164816",164816,1985,40,"wr","White rhino",2,-25.23,31.31,329765.6,7208513.92
"164839",164839,1985,40,"wr","White rhino",1,-25.17,31.3,328674.12,7215146.98
"164893",164893,1985,40,"wr","White rhino",2,-25.22,31.37,335797.05,7209696.2
"164899",164899,1985,40,"wr","White rhino",1,-25.24,31.33,331794.34,7207431.48
"164948",164948,1985,41,"wr","White rhino",1,-25.37,31.34,332980.11,7193044.8
"164963",164963,1985,41,"wr","White rhino",2,-25.34,31.36,334952.01,7196392.53
"164971",164971,1985,41,"wr","White rhino",2,-25.37,31.34,332980.11,7193044.8
"164987",164987,1985,41,"wr","White rhino",1,-25.3,31.36,334897.76,7200823.02
"164992",164992,1985,41,"wr","White rhino",3,-25.32,31.34,332911.41,7198582.97
"165003",165003,1985,41,"wr","White rhino",2,-25.26,31.34,332829.13,7205228.73
"165007",165007,1985,41,"wr","White rhino",1,-25.25,31.35,333822.75,7206348.77
"165013",165013,1985,41,"wr","White rhino",2,-25.25,31.36,334830.06,7206361.11
"165015",165015,1985,41,"wr","White rhino",2,-25.25,31.37,335837.37,7206373.37
"165016",165016,1985,41,"wr","White rhino",2,-25.25,31.37,335837.37,7206373.37
"165034",165034,1985,41,"wr","White rhino",2,-25.24,31.36,334816.53,7207468.72
"165037",165037,1985,41,"wr","White rhino",1,-25.17,31.36,334722,7215221.97
"165064",165064,1985,41,"wr","White rhino",2,-25.33,31.37,335945.09,7197512.45
"165065",165065,1985,41,"wr","White rhino",1,-25.35,31.37,335972.07,7195297.2
"165066",165066,1985,41,"wr","White rhino",1,-25.35,31.38,336978.54,7195309.43
"165086",165086,1985,41,"wr","White rhino",2,-25.35,31.38,336978.54,7195309.43
"165095",165095,1985,41,"wr","White rhino",2,-25.37,31.41,340024.3,7193130.42
"165102",165102,1985,41,"wr","White rhino",2,-25.3,31.41,339932.2,7200883.68
"165115",165115,1985,41,"wr","White rhino",1,-25.31,31.41,339945.34,7199776.08
"165130",165130,1985,41,"wr","White rhino",1,-25.25,31.4,338859.27,7206409.72
"165147",165147,1985,41,"wr","White rhino",1,-25.28,31.4,338898.89,7203086.91
"165157",165157,1985,41,"wr","White rhino",1,-25.28,31.4,338898.89,7203086.91
"165159",165159,1985,41,"wr","White rhino",2,-25.27,31.41,339892.81,7204206.48
"165164",165164,1985,41,"wr","White rhino",3,-25.21,31.38,336791.26,7210815.98
"165167",165167,1985,41,"wr","White rhino",4,-25.21,31.38,336791.26,7210815.98
"165171",165171,1985,41,"wr","White rhino",2,-25.23,31.37,335810.49,7208588.59
"165173",165173,1985,41,"wr","White rhino",2,-25.24,31.38,336831.31,7207493.17
"165177",165177,1985,41,"wr","White rhino",2,-25.24,31.4,338846.08,7207517.31
"165178",165178,1985,41,"wr","White rhino",2,-25.24,31.4,338846.08,7207517.31
"165182",165182,1985,41,"wr","White rhino",2,-25.24,31.41,339853.46,7207529.28
"165184",165184,1985,41,"wr","White rhino",2,-25.17,31.37,335729.97,7215234.21
"165187",165187,1985,41,"wr","White rhino",2,-25.18,31.38,336751.26,7214138.77
"165193",165193,1985,41,"wr","White rhino",2,-25.17,31.39,337745.89,7215258.46
"165208",165208,1985,41,"wr","White rhino",2,-25.19,31.38,336764.59,7213031.18
"165224",165224,1985,41,"wr","White rhino",2,-25.13,31.4,338701.26,7219700.81
"165225",165225,1985,41,"wr","White rhino",2,-25.14,31.4,338714.4,7218593.23
"165229",165229,1985,41,"wr","White rhino",2,-25.12,31.41,339696.49,7220820.31
"165231",165231,1985,41,"wr","White rhino",4,-25.15,31.38,336711.3,7217461.56
"165234",165234,1985,41,"wr","White rhino",2,-25.15,31.37,335703.17,7217449.4
"165238",165238,1985,41,"wr","White rhino",1,-25.15,31.38,336711.3,7217461.56
"165243",165243,1985,41,"wr","White rhino",2,-25.15,31.38,336711.3,7217461.56
"165244",165244,1985,41,"wr","White rhino",2,-25.15,31.38,336711.3,7217461.56
"165250",165250,1985,41,"wr","White rhino",2,-25.16,31.4,338740.7,7216378.06
"165251",165251,1985,41,"wr","White rhino",2,-25.15,31.39,337719.42,7217473.64
"165253",165253,1985,41,"wr","White rhino",2,-25.15,31.4,338727.55,7217485.64
"165257",165257,1985,41,"wr","White rhino",2,-25.15,31.4,338727.55,7217485.64
"165258",165258,1985,41,"wr","White rhino",1,-25.15,31.4,338727.55,7217485.64
"165267",165267,1985,41,"wr","White rhino",2,-25.3,31.42,340939.08,7200895.59
"165268",165268,1985,41,"wr","White rhino",2,-25.29,31.42,340926.03,7202003.19
"165275",165275,1985,41,"wr","White rhino",2,-25.29,31.42,340926.03,7202003.19
"165293",165293,1985,41,"wr","White rhino",1,-25.31,31.42,340952.14,7199787.99
"165307",165307,1985,41,"wr","White rhino",2,-25.25,31.45,343895.72,7206468.79
"165312",165312,1985,41,"wr","White rhino",5,-25.28,31.44,342927.06,7203134.36
"165317",165317,1985,41,"wr","White rhino",2,-25.22,31.42,340834.79,7209756.34
"165328",165328,1985,41,"wr","White rhino",4,-25.22,31.43,341842.32,7209768.15
"165334",165334,1985,41,"wr","White rhino",5,-25.21,31.44,342837.01,7210887.46
"165336",165336,1985,41,"wr","White rhino",2,-25.21,31.44,342837.01,7210887.46
"165337",165337,1985,41,"wr","White rhino",1,-25.21,31.44,342837.01,7210887.46
"165347",165347,1985,41,"wr","White rhino",2,-25.23,31.44,342862.71,7208672.29
"165348",165348,1985,41,"wr","White rhino",2,-25.24,31.45,343882.94,7207576.37
"165350",165350,1985,41,"wr","White rhino",5,-25.18,31.42,340782.75,7214186.69
"165373",165373,1985,41,"wr","White rhino",3,-25.19,31.41,339787.97,7213067.23
"165374",165374,1985,41,"wr","White rhino",4,-25.2,31.42,340808.76,7211971.52
"165376",165376,1985,41,"wr","White rhino",2,-25.2,31.42,340808.76,7211971.52
"165377",165377,1985,41,"wr","White rhino",2,-25.19,31.42,340795.76,7213079.1
"165378",165378,1985,41,"wr","White rhino",2,-25.19,31.42,340795.76,7213079.1
"165382",165382,1985,41,"wr","White rhino",2,-25.2,31.44,342824.16,7211995.04
"165384",165384,1985,41,"wr","White rhino",2,-25.19,31.43,341803.54,7213090.9
"165385",165385,1985,41,"wr","White rhino",6,-25.18,31.44,342798.49,7214210.19
"165388",165388,1985,41,"wr","White rhino",1,-25.19,31.45,343819.1,7213114.26
"165395",165395,1985,41,"wr","White rhino",4,-25.14,31.44,342747.19,7218640.49
"165401",165401,1985,41,"wr","White rhino",2,-25.13,31.45,343742.65,7219759.68
"165403",165403,1985,41,"wr","White rhino",2,-25.12,31.45,343729.92,7220867.25
"165404",165404,1985,41,"wr","White rhino",2,-25.15,31.42,340743.78,7217509.43
"165405",165405,1985,41,"wr","White rhino",2,-25.15,31.42,340743.78,7217509.43
"165410",165410,1985,41,"wr","White rhino",3,-25.16,31.42,340756.77,7216401.85
"165412",165412,1985,41,"wr","White rhino",2,-25.14,31.43,341739,7218628.78
"165414",165414,1985,41,"wr","White rhino",3,-25.15,31.43,341751.9,7217521.21
"165420",165420,1985,41,"wr","White rhino",1,-25.15,31.44,342760.01,7217532.91
"165423",165423,1985,41,"wr","White rhino",1,-25.15,31.44,342760.01,7217532.91
"165424",165424,1985,41,"wr","White rhino",3,-25.15,31.44,342760.01,7217532.91
"165439",165439,1985,41,"wr","White rhino",2,-25.1,31.43,341687.45,7223059.07
"165444",165444,1985,41,"wr","White rhino",2,-25.11,31.44,342708.77,7221963.19
"165452",165452,1985,41,"wr","White rhino",1,-25.26,31.46,344915.7,7205372.8
"165453",165453,1985,41,"wr","White rhino",1,-25.25,31.46,344903,7206480.38
"165462",165462,1985,41,"wr","White rhino",3,-25.28,31.46,344941.13,7203157.63
"165467",165467,1985,41,"wr","White rhino",1,-25.27,31.48,346942.63,7204288.18
"165477",165477,1985,41,"wr","White rhino",2,-25.22,31.48,346879.96,7209826.04
"165487",165487,1985,41,"wr","White rhino",1,-25.22,31.49,347887.48,7209837.4
"165488",165488,1985,41,"wr","White rhino",3,-25.24,31.46,344890.3,7207587.96
"165492",165492,1985,41,"wr","White rhino",2,-25.24,31.47,345897.66,7207599.47
"165495",165495,1985,41,"wr","White rhino",2,-25.24,31.47,345897.66,7207599.47
"165498",165498,1985,41,"wr","White rhino",2,-25.23,31.48,346892.49,7208718.47
"165505",165505,1985,41,"wr","White rhino",2,-25.24,31.49,347912.37,7207622.26
"165523",165523,1985,41,"wr","White rhino",2,-25.17,31.47,345809.47,7215352.45
"165525",165525,1985,41,"wr","White rhino",2,-25.17,31.48,346817.41,7215363.87
"165535",165535,1985,41,"wr","White rhino",2,-25.17,31.48,346817.41,7215363.87
"165549",165549,1985,41,"wr","White rhino",2,-25.2,31.47,345847.24,7212029.75
"165572",165572,1985,41,"wr","White rhino",3,-25.13,31.49,347775.71,7219805.43
"165582",165582,1985,41,"wr","White rhino",4,-25.15,31.46,344776.22,7217556.1
"165583",165583,1985,41,"wr","White rhino",2,-25.15,31.46,344776.22,7217556.1
"165589",165589,1985,41,"wr","White rhino",2,-25.15,31.47,345784.32,7217567.58
"165607",165607,1985,41,"wr","White rhino",4,-25.12,31.46,344738.27,7220878.79
"165609",165609,1985,41,"wr","White rhino",1,-25.11,31.47,345734.07,7221997.82
"165631",165631,1985,41,"wr","White rhino",2,-25.18,31.5,348845.6,7214278.91
"165644",165644,1985,41,"wr","White rhino",3,-25.19,31.51,349865.7,7213182.55
"165645",165645,1985,41,"wr","White rhino",2,-25.2,31.5,348870.29,7212063.8
"165657",165657,1985,41,"wr","White rhino",1,-25.14,31.51,349804.45,7218720.3
"165719",165719,1985,42,"wr","White rhino",1,-25.22,31.53,351917.53,7209882.06
"165720",165720,1985,42,"wr","White rhino",2,-25.22,31.53,351917.53,7209882.06
"165730",165730,1985,42,"wr","White rhino",2,-25.24,31.51,349927.07,7207644.76
"165757",165757,1985,42,"wr","White rhino",2,-25.17,31.52,350849.11,7215408.77
"165763",165763,1985,42,"wr","White rhino",4,-25.17,31.53,351857.03,7215419.81
"165779",165779,1985,42,"wr","White rhino",1,-25.2,31.52,350885.64,7212086.12
"165783",165783,1985,42,"wr","White rhino",2,-25.19,31.52,350873.46,7213193.67
"165793",165793,1985,42,"wr","White rhino",3,-25.19,31.53,351881.22,7213204.71
"165875",165875,1985,42,"wr","White rhino",2,-25.3,31.55,354028.24,7201043.53
"165899",165899,1985,42,"wr","White rhino",2,-25.26,31.56,354987.52,7205484.59
"165904",165904,1985,42,"wr","White rhino",2,-25.26,31.57,355994.68,7205495.36
"165922",165922,1985,42,"wr","White rhino",2,-25.28,31.55,354004.29,7203258.64
"165926",165926,1985,42,"wr","White rhino",3,-25.28,31.55,354004.29,7203258.64
"165929",165929,1985,42,"wr","White rhino",3,-25.28,31.56,355011.29,7203269.49
"165936",165936,1985,42,"wr","White rhino",6,-25.27,31.56,354999.4,7204377.04
"165947",165947,1985,42,"wr","White rhino",2,-25.22,31.55,353932.53,7209903.94
"165948",165948,1985,42,"wr","White rhino",2,-25.22,31.55,353932.53,7209903.94
"165954",165954,1985,42,"wr","White rhino",6,-25.21,31.54,352913,7211000.59
"166047",166047,1985,42,"wr","White rhino",1,-25.18,31.57,355900.44,7214355.68
"166056",166056,1985,42,"wr","White rhino",2,-25.19,31.54,352888.97,7213215.68
"166111",166111,1985,42,"wr","White rhino",1,-25.13,31.56,354833.44,7219882.6
"166123",166123,1985,42,"wr","White rhino",2,-25.13,31.57,355841.68,7219893.33
"166143",166143,1985,42,"wr","White rhino",2,-25.15,31.56,354857.1,7217667.54
"166144",166144,1985,42,"wr","White rhino",2,-25.15,31.57,355865.17,7217678.27
"166149",166149,1985,42,"wr","White rhino",2,-25.15,31.57,355865.17,7217678.27
"166253",166253,1985,42,"wr","White rhino",2,-25.11,31.58,356826.6,7222119.03
"166281",166281,1985,42,"wr","White rhino",2,-25.07,31.55,353753.85,7226516.98
"166285",166285,1985,42,"wr","White rhino",1,-25.07,31.55,353753.85,7226516.98
"166322",166322,1985,42,"wr","White rhino",3,-25.29,31.59,358043.92,7202194.04
"166323",166323,1985,42,"wr","White rhino",1,-25.3,31.59,358055.57,7201086.5
"166374",166374,1985,42,"wr","White rhino",2,-25.28,31.58,357025.29,7203290.96
"166376",166376,1985,42,"wr","White rhino",2,-25.28,31.58,357025.29,7203290.96
"166389",166389,1985,42,"wr","White rhino",2,-25.27,31.59,358020.64,7204409.12
"166405",166405,1985,42,"wr","White rhino",2,-25.28,31.61,360046.26,7203322.6
"166439",166439,1985,42,"wr","White rhino",3,-25.24,31.58,356978.42,7207721.13
"166493",166493,1985,42,"wr","White rhino",1,-25.16,31.6,358900.87,7216602.5
"166545",166545,1985,42,"wr","White rhino",2,-25.09,31.58,356803.31,7224334.07
"166582",166582,1985,42,"wr","White rhino",2,-25.05,31.58,356756.78,7228764.13
"166633",166633,1985,43,"wr","White rhino",1,-25.06,31.38,336591.68,7227429.84
"166635",166635,1985,43,"wr","White rhino",2,-25.05,31.4,338596.31,7228561.43
"166637",166637,1985,43,"wr","White rhino",2,-25.06,31.4,338609.41,7227453.86
"166642",166642,1985,43,"wr","White rhino",2,-25.05,31.41,339605.25,7228573.33
"166645",166645,1985,43,"wr","White rhino",2,-25.06,31.37,335582.81,7227417.72
"166647",166647,1985,43,"wr","White rhino",2,-25.06,31.37,335582.81,7227417.72
"166650",166650,1985,43,"wr","White rhino",2,-25.08,31.39,337626.93,7225226.73
"166651",166651,1985,43,"wr","White rhino",5,-25.07,31.39,337613.74,7226334.31
"166656",166656,1985,43,"wr","White rhino",2,-25.07,31.41,339631.29,7226358.19
"166658",166658,1985,43,"wr","White rhino",1,-25.01,31.37,335516.13,7232955.62
"166702",166702,1985,43,"wr","White rhino",2,-25.09,31.41,339657.36,7224143.04
"166730",166730,1985,43,"wr","White rhino",2,-25.05,31.44,342632.05,7228608.57
"166733",166733,1985,43,"wr","White rhino",3,-25.05,31.44,342632.05,7228608.57
"166750",166750,1985,43,"wr","White rhino",2,-25.06,31.44,342644.83,7227501.01
"166754",166754,1985,43,"wr","White rhino",4,-25.06,31.45,343653.67,7227512.61
"166756",166756,1985,43,"wr","White rhino",2,-25.07,31.45,343666.37,7226405.05
"166758",166758,1985,43,"wr","White rhino",1,-25.01,31.41,339553.22,7233003.59
"166791",166791,1985,43,"wr","White rhino",2,-25.03,31.45,343615.61,7230835.27
"166856",166856,1985,43,"wr","White rhino",1,-25.05,31.48,346667.75,7228654.51
"166858",166858,1985,43,"wr","White rhino",2,-25.05,31.48,346667.75,7228654.51
"166875",166875,1985,43,"wr","White rhino",3,-25.07,31.48,346692.64,7226439.41
"167088",167088,1985,43,"wr","White rhino",1,-25.05,31.55,353730.1,7228732.03
"167146",167146,1985,43,"wr","White rhino",2,-25.02,31.55,353694.51,7232054.59
"167251",167251,1985,44,"wr","White rhino",2,-25.37,31.6,359143.48,7193344.22
"167274",167274,1985,44,"wr","White rhino",1,-25.33,31.6,359097.12,7197774.42
"167292",167292,1985,44,"wr","White rhino",2,-25.36,31.6,359131.88,7194451.77
"167295",167295,1985,44,"wr","White rhino",3,-25.36,31.6,359131.88,7194451.77
"167312",167312,1985,44,"wr","White rhino",2,-25.32,31.6,359085.54,7198881.96
"167317",167317,1985,44,"wr","White rhino",1,-25.31,31.62,361087.45,7200010.39
"167357",167357,1985,44,"wr","White rhino",1,-25.34,31.63,362128.17,7196698.12
"167374",167374,1985,44,"wr","White rhino",3,-25.34,31.63,362128.17,7196698.12
"167391",167391,1985,44,"wr","White rhino",2,-25.36,31.63,362150.86,7194483.04
"167445",167445,1985,44,"wr","White rhino",2,-25.32,31.62,361098.86,7198902.86
"167522",167522,1985,44,"wr","White rhino",2,-25.21,31.65,363996.27,7211116.38
"167548",167548,1985,44,"wr","White rhino",2,-25.2,31.63,361969.88,7212203.52
"167559",167559,1985,44,"wr","White rhino",2,-25.18,31.65,363962.94,7214438.91
"167675",167675,1985,44,"wr","White rhino",1,-25.32,31.67,366132.1,7198953.77
"167806",167806,1985,44,"wr","White rhino",3,-25.17,31.7,368991.22,7215596
"167810",167810,1985,44,"wr","White rhino",2,-25.19,31.67,365989.48,7213351.47
"167885",167885,1985,44,"wr","White rhino",3,-25.32,31.72,371165.27,7199002.81
"167909",167909,1985,44,"wr","White rhino",6,-25.26,31.71,370094.71,7205638.2
"167940",167940,1985,44,"wr","White rhino",2,-25.22,31.74,373074.53,7210096.87
"168066",168066,1985,44,"wr","White rhino",1,-25.22,31.75,374081.98,7210106.28
"168198",168198,1985,44,"wr","White rhino",2,-25.3,31.84,383225.46,7201327.78
"168212",168212,1985,44,"wr","White rhino",4,-25.32,31.85,384251.23,7199121.51
"168281",168281,1985,45,"wr","White rhino",3,-25.17,31.78,377054.11,7215671.42
"168282",168282,1985,45,"wr","White rhino",2,-25.17,31.78,377054.11,7215671.42
"168320",168320,1985,45,"wr","White rhino",3,-25.26,31.82,381172.96,7205740.12
"168329",168329,1985,45,"wr","White rhino",4,-25.26,31.82,381172.96,7205740.12
"168341",168341,1985,45,"wr","White rhino",1,-25.22,31.8,379119.19,7210152.17
"168345",168345,1985,45,"wr","White rhino",3,-25.21,31.79,378101.78,7211250.62
"168347",168347,1985,45,"wr","White rhino",2,-25.22,31.8,379119.19,7210152.17
"168352",168352,1985,45,"wr","White rhino",3,-25.22,31.81,380126.62,7210161.13
"168356",168356,1985,45,"wr","White rhino",2,-25.21,31.82,381124.33,7211277.47
"168405",168405,1985,45,"wr","White rhino",1,-25.18,31.8,379079.68,7214582.06
"168410",168410,1985,45,"wr","White rhino",1,-25.17,31.8,379069.81,7215689.53
"168425",168425,1985,45,"wr","White rhino",2,-25.17,31.81,380077.65,7215698.47
"168427",168427,1985,45,"wr","White rhino",1,-25.18,31.82,381095.2,7214599.87
"168428",168428,1985,45,"wr","White rhino",3,-25.17,31.82,381085.5,7215707.33
"168434",168434,1985,45,"wr","White rhino",1,-25.17,31.82,381085.5,7215707.33
"168437",168437,1985,45,"wr","White rhino",1,-25.19,31.79,378081.86,7213465.57
"168438",168438,1985,45,"wr","White rhino",1,-25.2,31.8,379099.42,7212367.12
"168445",168445,1985,45,"wr","White rhino",2,-25.19,31.81,380097.23,7213483.54
"168447",168447,1985,45,"wr","White rhino",2,-25.19,31.82,381104.91,7213492.41
"168448",168448,1985,45,"wr","White rhino",1,-25.18,31.82,381095.2,7214599.87
"168479",168479,1985,45,"wr","White rhino",3,-25.15,31.82,381066.1,7217922.26
"168505",168505,1985,45,"wr","White rhino",2,-25.26,31.85,384194.25,7205766.34
"168529",168529,1985,45,"wr","White rhino",3,-25.21,31.83,382131.84,7211286.28
"168537",168537,1985,45,"wr","White rhino",1,-25.21,31.84,383139.35,7211295
"168541",168541,1985,45,"wr","White rhino",1,-25.21,31.85,384146.86,7211303.66
"168543",168543,1985,45,"wr","White rhino",4,-25.21,31.85,384146.86,7211303.66
"168547",168547,1985,45,"wr","White rhino",4,-25.21,31.86,385154.36,7211312.23
"168550",168550,1985,45,"wr","White rhino",3,-25.22,31.86,385163.75,7210204.77
"168553",168553,1985,45,"wr","White rhino",3,-25.21,31.87,386161.86,7211320.73
"168560",168560,1985,45,"wr","White rhino",1,-25.23,31.84,383158.46,7209080.07
"168575",168575,1985,45,"wr","White rhino",2,-25.23,31.86,385173.14,7209097.31
"168577",168577,1985,45,"wr","White rhino",1,-25.24,31.87,386189.79,7207998.36
"168578",168578,1985,45,"wr","White rhino",1,-25.23,31.87,386180.48,7209105.82
"168601",168601,1985,45,"wr","White rhino",1,-25.17,31.85,384109.01,7215733.48
"168624",168624,1985,45,"wr","White rhino",2,-25.19,31.87,386143.26,7213535.64
"168627",168627,1985,45,"wr","White rhino",1,-25.13,31.83,382054.89,7220145.95
"168633",168633,1985,45,"wr","White rhino",2,-25.13,31.84,383063.05,7220154.66
"168643",168643,1985,45,"wr","White rhino",2,-25.13,31.85,384071.22,7220163.29
"168654",168654,1985,45,"wr","White rhino",1,-25.13,31.86,385079.38,7220171.85
"168764",168764,1985,45,"wr","White rhino",2,-25.18,31.87,386133.97,7214643.09
"168810",168810,1985,45,"wr","White rhino",1,-25.13,31.88,387095.7,7220188.74
"168844",168844,1985,45,"wr","White rhino",1,-25.16,31.88,387123.3,7216866.41
"168849",168849,1985,45,"wr","White rhino",1,-25.16,31.9,389139.11,7216883.01
"169074",169074,1985,46,"wr","White rhino",1,-25.36,31.98,397370.57,7194797.7
"169104",169104,1985,46,"wr","White rhino",3,-25.32,31.98,397336.81,7199227.5
"169129",169129,1985,46,"wr","White rhino",2,-25.28,31.96,395289.3,7203641.81
"169172",169172,1985,46,"wr","White rhino",2,-25.23,31.95,394239.1,7209171.18
"169182",169182,1985,46,"wr","White rhino",2,-25.24,31.97,396262.22,7208079.33
"169188",169188,1985,46,"wr","White rhino",4,-25.23,31.98,397261.05,7209194.45
"169228",169228,1985,46,"wr","White rhino",4,-25.18,31.99,398226.79,7214739.19
"169257",169257,1985,46,"wr","White rhino",1,-25.19,31.98,397227.45,7213624.17
"170328",170328,1985,5,"wr","White rhino",1,-23.86,31.39,336053.88,7360341.36
"172308",172308,1985,53,"wr","White rhino",4,-23.02,31.1,305288.85,7453003.43
"172333",172333,1985,53,"wr","White rhino",3,-23.15,31.15,310596.41,7438672.7
"172606",172606,1985,54,"wr","White rhino",2,-22.97,31.07,302140.76,7458500.41
"172614",172614,1985,54,"wr","White rhino",4,-22.99,31.07,302169.9,7456285.54
"172639",172639,1985,54,"wr","White rhino",2,-23.01,31.08,303224.21,7454084.13
"172664",172664,1985,54,"wr","White rhino",2,-22.99,31.1,305245.78,7456325.71
"172668",172668,1985,54,"wr","White rhino",1,-22.93,31.08,303108.31,7462943.56
"173005",173005,1985,55,"wr","White rhino",1,-22.86,31.14,309164.78,7470774.43
"173065",173065,1985,55,"wr","White rhino",1,-22.9,31.19,314350.4,7466408.82
"173209",173209,1985,56,"wr","White rhino",7,-25.38,31.41,340037.47,7192022.81
"173217",173217,1985,56,"wr","White rhino",3,-25.4,31.42,341069.89,7189819.52
"173231",173231,1985,56,"wr","White rhino",5,-25.37,31.46,345055.76,7193189.32
"173236",173236,1985,56,"wr","White rhino",3,-25.37,31.47,346062.05,7193200.88
"173238",173238,1985,56,"wr","White rhino",1,-25.38,31.48,347080.92,7192104.77
"173243",173243,1985,56,"wr","White rhino",2,-25.38,31.49,348087.12,7192116.17
"173246",173246,1985,56,"wr","White rhino",2,-25.4,31.49,348112.16,7189900.99
"173248",173248,1985,56,"wr","White rhino",2,-25.35,31.46,345030.26,7195404.51
"173250",173250,1985,56,"wr","White rhino",2,-25.34,31.47,346024.04,7196523.65
"173254",173254,1985,56,"wr","White rhino",2,-25.33,31.48,347017.99,7197642.7
"173255",173255,1985,56,"wr","White rhino",2,-25.36,31.46,345043.01,7194296.92
"173258",173258,1985,56,"wr","White rhino",2,-25.37,31.47,346062.05,7193200.88
"173260",173260,1985,56,"wr","White rhino",2,-25.35,31.47,346036.71,7195416.06
"173261",173261,1985,56,"wr","White rhino",2,-25.37,31.48,347068.33,7193212.36
"173317",173317,1985,56,"wr","White rhino",1,-25.38,31.5,349093.31,7192127.5
"173318",173318,1985,56,"wr","White rhino",2,-25.37,31.5,349080.88,7193235.09
"173319",173319,1985,56,"wr","White rhino",1,-25.38,31.5,349093.31,7192127.5
"173320",173320,1985,56,"wr","White rhino",2,-25.39,31.5,349105.74,7191019.92
"173321",173321,1985,56,"wr","White rhino",2,-25.37,31.5,349080.88,7193235.09
"173322",173322,1985,56,"wr","White rhino",2,-25.39,31.51,350111.85,7191031.18
"173324",173324,1985,56,"wr","White rhino",2,-25.38,31.51,350099.5,7192138.76
"173329",173329,1985,56,"wr","White rhino",2,-25.38,31.51,350099.5,7192138.76
"173371",173371,1985,56,"wr","White rhino",1,-25.34,31.52,351056.66,7196580.24
"173386",173386,1985,56,"wr","White rhino",2,-25.35,31.51,350062.48,7195461.5
"173390",173390,1985,56,"wr","White rhino",1,-25.36,31.53,352087.51,7194376.19
"173476",173476,1985,56,"wr","White rhino",4,-25.41,31.55,354160.3,7188860.32
"173530",173530,1985,57,"wr","White rhino",2,-25.14,31.67,365934.81,7218888.98
"173537",173537,1985,57,"wr","White rhino",3,-25.15,31.69,367961.82,7217801.22
"173564",173564,1985,57,"wr","White rhino",2,-25.09,31.74,372939.93,7224494.13
"173629",173629,1985,57,"wr","White rhino",3,-25.1,31.76,374967.13,7223405.32
"173642",173642,1985,57,"wr","White rhino",2,-25.12,31.79,378012.26,7221217.84
"173645",173645,1985,57,"wr","White rhino",2,-25.13,31.8,379030.37,7220119.38
"173649",173649,1985,57,"wr","White rhino",2,-25.14,31.81,380048.32,7219020.86
"173650",173650,1985,57,"wr","White rhino",2,-25.13,31.81,380038.55,7220128.32
"173655",173655,1985,57,"wr","White rhino",2,-25.14,31.8,379040.23,7219011.92
"173686",173686,1985,57,"wr","White rhino",2,-25.06,31.82,380978.99,7227889.33
"173700",173700,1985,57,"wr","White rhino",2,-25.1,31.84,383034.5,7223477.01
"173735",173735,1985,58,"wr","White rhino",3,-25.14,31.62,360894.15,7218838.33
"173804",173804,1985,58,"wr","White rhino",2,-25.16,31.65,363940.74,7216653.93
"173879",173879,1985,58,"wr","White rhino",5,-25.13,31.67,365923.89,7219996.48
"173904",173904,1985,58,"wr","White rhino",4,-25.05,31.68,366845.52,7228866.29
"173927",173927,1985,58,"wr","White rhino",2,-25.05,31.73,371889.8,7228914.57
"173947",173947,1985,58,"wr","White rhino",1,-25.05,31.78,376934.01,7228960.99
"174200",174200,1985,6,"wr","White rhino",2,-23.69,31.45,341959.34,7379235.04
"174225",174225,1985,6,"wr","White rhino",1,-23.65,31.44,340891.12,7383653.4
"174226",174226,1985,6,"wr","White rhino",2,-23.66,31.45,341923.25,7382557.14
"174314",174314,1985,6,"wr","White rhino",3,-23.69,31.47,343998.91,7379257.07
"174323",174323,1985,6,"wr","White rhino",2,-23.66,31.46,342943.26,7382568.18
"174661",174661,1985,62,"wr","White rhino",1,-22.46,31.15,309639.83,7515081.68
"175036",175036,1985,63,"wr","White rhino",2,-25.39,31.32,330995.31,7190804.37
"175053",175053,1985,63,"wr","White rhino",1,-25.4,31.32,331009.24,7189696.72
"175055",175055,1985,63,"wr","White rhino",3,-25.36,31.32,330953.54,7194127.3
"175064",175064,1985,63,"wr","White rhino",2,-25.38,31.33,331987.62,7191924.63
"175068",175068,1985,63,"wr","White rhino",1,-25.38,31.34,332993.87,7191937.16
"175069",175069,1985,63,"wr","White rhino",1,-25.4,31.34,333021.39,7189721.88
"175103",175103,1985,63,"wr","White rhino",2,-25.44,31.44,343133.77,7185412.74
"175105",175105,1985,63,"wr","White rhino",3,-25.39,31.44,343069.04,7190950.78
"175117",175117,1985,63,"wr","White rhino",1,-25.36,31.47,346049.37,7194308.47
