"","ID","Year","Cenb","Sp","Description","No","Lat","Long","X.coord","Y.coord"
"231310",231310,1988,1,"o","Elephant",11,-23.95,31.61,358557.67,7350612.57
"231409",231409,1988,1,"o","Elephant",52,-24.01,31.65,362692.1,7344008.03
"231519",231519,1988,1,"o","Elephant",10,-23.86,31.61,358459.67,7360578.69
"231662",231662,1988,1,"o","Elephant",14,-23.95,31.72,369752.25,7350718.48
"231776",231776,1988,1,"o","Elephant",20,-24.01,31.7,367778.18,7344055.9
"231790",231790,1988,1,"o","Elephant",7,-24.02,31.73,370839.78,7342976.43
"231792",231792,1988,1,"o","Elephant",13,-24.02,31.72,369822.66,7342967.21
"231939",231939,1988,2,"o","Elephant",50,-24.01,31.44,341329.78,7343787.25
"231940",231940,1988,2,"o","Elephant",14,-24.01,31.44,341329.78,7343787.25
"231944",231944,1988,2,"o","Elephant",3,-23.99,31.43,340287.8,7345990.78
"231945",231945,1988,2,"o","Elephant",3,-24,31.43,340300.14,7344883.36
"231948",231948,1988,2,"o","Elephant",9,-24.01,31.43,340312.49,7343775.94
"231949",231949,1988,2,"o","Elephant",6,-24.01,31.43,340312.49,7343775.94
"231950",231950,1988,2,"o","Elephant",14,-24.01,31.43,340312.49,7343775.94
"231951",231951,1988,2,"o","Elephant",2,-24.02,31.44,341342.05,7342679.83
"231956",231956,1988,2,"o","Elephant",3,-24.04,31.43,340349.56,7340453.67
"231959",231959,1988,2,"o","Elephant",6,-24.03,31.43,340337.2,7341561.1
"231962",231962,1988,2,"o","Elephant",3,-24.01,31.43,340312.49,7343775.94
"231969",231969,1988,2,"o","Elephant",6,-24.01,31.42,339295.2,7343764.56
"231970",231970,1988,2,"o","Elephant",5,-24,31.42,339282.77,7344871.98
"231971",231971,1988,2,"o","Elephant",14,-23.98,31.41,338240.4,7347075.38
"231980",231980,1988,2,"o","Elephant",45,-24,31.4,337248.02,7344849.01
"231984",231984,1988,2,"o","Elephant",5,-23.99,31.4,337235.44,7345956.44
"232020",232020,1988,2,"o","Elephant",2,-23.88,31.56,353390.11,7358313.09
"232040",232040,1988,2,"o","Elephant",9,-23.95,31.55,352451.38,7350551.13
"232043",232043,1988,2,"o","Elephant",25,-23.94,31.55,352440,7351658.5
"232080",232080,1988,2,"o","Elephant",18,-23.93,31.53,350392.86,7352744.82
"232082",232082,1988,2,"o","Elephant",5,-23.92,31.52,349363.37,7353841.57
"232101",232101,1988,2,"o","Elephant",12,-23.91,31.51,348333.73,7354938.25
"232148",232148,1988,2,"o","Elephant",58,-23.9,31.49,346285.79,7356024.02
"232179",232179,1988,2,"o","Elephant",40,-23.95,31.46,343291.74,7350454.09
"232180",232180,1988,2,"o","Elephant",10,-23.93,31.46,343267.58,7352668.89
"232185",232185,1988,2,"o","Elephant",2,-23.95,31.45,342273.99,7350442.94
"232193",232193,1988,2,"o","Elephant",28,-23.91,31.43,340189.23,7354850.08
"232199",232199,1988,2,"o","Elephant",12,-23.87,31.44,341158.45,7359290.96
"232210",232210,1988,2,"o","Elephant",8,-23.9,31.41,338140.62,7355934.73
"232219",232219,1988,2,"o","Elephant",1,-23.91,31.4,337134.99,7354815.83
"232237",232237,1988,2,"o","Elephant",70,-23.91,31.37,334080.72,7354780.92
"232261",232261,1988,3,"o","Elephant",2,-24.07,31.25,322083.44,7336915.05
"232288",232288,1988,3,"o","Elephant",12,-24.06,31.27,324103.55,7338047.74
"232294",232294,1988,3,"o","Elephant",8,-24.01,31.27,324035.43,7343585.16
"232302",232302,1988,3,"o","Elephant",40,-24.02,31.28,325066.3,7342490.15
"232321",232321,1988,3,"o","Elephant",3,-23.99,31.3,327060.71,7345837.27
"232332",232332,1988,3,"o","Elephant",50,-24,31.31,328091.48,7344742.05
"232334",232334,1988,3,"o","Elephant",12,-24,31.3,327074.07,7344729.81
"232335",232335,1988,3,"o","Elephant",15,-24,31.31,328091.48,7344742.05
"232340",232340,1988,3,"o","Elephant",17,-24.06,31.32,329188.25,7338109.44
"232351",232351,1988,3,"o","Elephant",15,-24.01,31.32,329122.1,7343646.77
"232397",232397,1988,3,"o","Elephant",15,-23.98,31.34,331117.6,7346993.26
"232399",232399,1988,3,"o","Elephant",19,-23.98,31.35,332135.15,7347005.21
"232421",232421,1988,3,"o","Elephant",6,-24.04,31.38,335264.26,7340395.99
"232423",232423,1988,3,"o","Elephant",12,-24.05,31.37,334260.03,7339276.79
"232441",232441,1988,3,"o","Elephant",1,-23.93,31.18,314764.8,7352329.79
"232485",232485,1988,3,"o","Elephant",16,-23.98,31.22,318906.67,7346844.23
"232486",232486,1988,3,"o","Elephant",10,-23.98,31.23,319924.27,7346857.05
"232580",232580,1988,3,"o","Elephant",25,-23.95,31.3,327007.29,7350267.13
"232581",232581,1988,3,"o","Elephant",30,-23.96,31.3,327020.64,7349159.67
"232839",232839,1988,4,"o","Elephant",20,-23.66,31.15,311321.08,7382192.65
"232841",232841,1988,4,"o","Elephant",50,-23.67,31.15,311335.43,7381085.17
"233800",233800,1988,5,"o","Elephant",15,-23.74,31.48,345077.78,7373731.16
"233819",233819,1988,5,"o","Elephant",18,-23.8,31.49,346167.76,7367097.81
"233848",233848,1988,5,"o","Elephant",12,-23.83,31.5,347221.8,7363786.5
"233851",233851,1988,5,"o","Elephant",6,-23.84,31.5,347233.52,7362679.13
"233853",233853,1988,5,"o","Elephant",5,-23.85,31.49,346226.72,7361560.93
"233860",233860,1988,5,"o","Elephant",2,-23.86,31.49,346238.52,7360453.55
"233862",233862,1988,5,"o","Elephant",5,-23.86,31.49,346238.52,7360453.55
"234074",234074,1988,6,"o","Elephant",2,-23.57,31.39,335690.85,7392455.84
"234212",234212,1988,6,"o","Elephant",4,-23.74,31.39,335903.15,7373630.24
"234266",234266,1988,6,"o","Elephant",12,-23.72,31.45,341995.48,7375912.92
"234273",234273,1988,6,"o","Elephant",60,-23.73,31.46,343027.01,7374816.61
"234347",234347,1988,7,"o","Elephant",35,-23.68,31.17,313389.74,7380004
"234594",234594,1988,7,"o","Elephant",20,-23.62,31.27,323508.69,7386775.9
"234612",234612,1988,7,"o","Elephant",20,-23.6,31.28,324502.44,7389003.07
"234614",234614,1988,7,"o","Elephant",21,-23.6,31.28,324502.44,7389003.07
"234628",234628,1988,7,"o","Elephant",12,-23.61,31.28,324515.76,7387895.64
"234629",234629,1988,7,"o","Elephant",30,-23.61,31.28,324515.76,7387895.64
"234642",234642,1988,7,"o","Elephant",1,-23.59,31.28,324489.13,7390110.49
"234724",234724,1988,7,"o","Elephant",4,-23.73,31.36,332832.12,7374702.72
"235047",235047,1988,8,"o","Elephant",6,-23.39,31.31,327290.51,7412294.9
"235109",235109,1988,9,"o","Elephant",5,-23.48,31.12,307999.02,7402087.4
"235112",235112,1988,9,"o","Elephant",11,-23.5,31.13,309049.38,7399885.78
"235113",235113,1988,9,"o","Elephant",2,-23.51,31.13,309063.8,7398778.31
"235114",235114,1988,9,"o","Elephant",3,-23.51,31.14,310085.1,7398791.58
"235149",235149,1988,9,"o","Elephant",40,-23.48,31.15,311063.61,7402127.16
"235153",235153,1988,9,"o","Elephant",4,-23.5,31.16,312113.49,7399925.36
"235165",235165,1988,9,"o","Elephant",25,-23.48,31.16,312085.13,7402140.27
"235166",235166,1988,9,"o","Elephant",25,-23.48,31.16,312085.13,7402140.27
"235176",235176,1988,9,"o","Elephant",30,-23.47,31.16,312070.95,7403247.73
"235177",235177,1988,9,"o","Elephant",25,-23.47,31.16,312070.95,7403247.73
"235178",235178,1988,9,"o","Elephant",14,-23.47,31.16,312070.95,7403247.73
"235179",235179,1988,9,"o","Elephant",35,-23.48,31.16,312085.13,7402140.27
"235180",235180,1988,9,"o","Elephant",25,-23.48,31.16,312085.13,7402140.27
"235181",235181,1988,9,"o","Elephant",4,-23.48,31.17,313106.64,7402153.31
"235182",235182,1988,9,"o","Elephant",4,-23.48,31.17,313106.64,7402153.31
"235183",235183,1988,9,"o","Elephant",5,-23.49,31.17,313120.74,7401045.86
"235280",235280,1988,9,"o","Elephant",25,-23.57,31.14,310171.28,7392146.74
"235281",235281,1988,9,"o","Elephant",13,-23.57,31.14,310171.28,7392146.74
"235282",235282,1988,9,"o","Elephant",60,-23.57,31.14,310171.28,7392146.74
"235283",235283,1988,9,"o","Elephant",40,-23.56,31.13,309135.99,7393240.93
"235420",235420,1988,10,"o","Elephant",13,-23.33,31.03,298578.07,7418576.86
"235440",235440,1988,10,"o","Elephant",8,-23.31,31.02,297525.03,7420777.89
"235611",235611,1988,10,"o","Elephant",3,-23.33,31.15,310850.47,7418738.94
"235881",235881,1988,10,"o","Elephant",7,-23.44,31.13,308962.98,7406530.6
"236067",236067,1988,11,"o","Elephant",16,-23.37,31.27,323175.32,7414461.24
"236151",236151,1988,11,"o","Elephant",5,-23.32,31.26,322086.34,7419985.95
"236156",236156,1988,11,"o","Elephant",50,-23.31,31.25,321050.24,7421081.01
"236158",236158,1988,11,"o","Elephant",8,-23.3,31.28,324105.44,7422225.18
"236163",236163,1988,11,"o","Elephant",35,-23.3,31.29,325128.29,7422237.29
"236166",236166,1988,11,"o","Elephant",70,-23.29,31.28,324092.29,7423332.56
"236190",236190,1988,11,"o","Elephant",14,-23.26,31.28,324052.87,7426654.7
"236191",236191,1988,11,"o","Elephant",8,-23.26,31.29,325076.03,7426666.8
"236277",236277,1988,11,"o","Elephant",2,-23.22,31.23,318883,7431022.74
"236321",236321,1988,12,"o","Elephant",4,-23.21,31.06,301468.39,7431908.03
"236326",236326,1988,12,"o","Elephant",2,-23.22,31.06,301483.17,7430800.56
"236327",236327,1988,12,"o","Elephant",12,-23.22,31.06,301483.17,7430800.56
"236335",236335,1988,12,"o","Elephant",12,-23.23,31.06,301497.97,7429693.09
"236336",236336,1988,12,"o","Elephant",8,-23.23,31.06,301497.97,7429693.09
"236440",236440,1988,12,"o","Elephant",1,-23.27,31.04,299510.85,7425235.68
"236561",236561,1988,12,"o","Elephant",3,-23.2,31.03,298382.47,7432974.2
"236616",236616,1988,12,"o","Elephant",6,-23.21,31.02,297373.83,7431852.81
"236617",236617,1988,12,"o","Elephant",15,-23.2,31.02,297358.75,7432960.29
"236643",236643,1988,12,"o","Elephant",20,-23.2,31.01,296335.02,7432946.32
"236734",236734,1988,12,"o","Elephant",2,-23.17,30.99,294241.65,7436240.64
"236771",236771,1988,12,"o","Elephant",3,-23.27,30.99,294394.89,7425165.63
"236985",236985,1988,13,"o","Elephant",52,-23.74,31.51,348135.93,7373763.5
"237775",237775,1988,15,"o","Elephant",2,-23.31,31.52,348664.27,7421389.1
"237826",237826,1988,15,"o","Elephant",13,-23.33,31.5,346641.82,7419153.44
"238625",238625,1988,19,"o","Elephant",7,-23.96,31.8,377902.99,7349682.72
"238655",238655,1988,19,"o","Elephant",10,-23.94,31.73,370759.96,7351834.99
"238669",238669,1988,19,"o","Elephant",13,-23.88,31.65,362554.41,7358403.44
"238713",238713,1988,19,"o","Elephant",14,-23.93,31.72,369732.18,7352933.11
"238900",238900,1988,20,"o","Elephant",40,-24.1,31.37,334324.31,7333739.53
"238939",238939,1988,20,"o","Elephant",2,-24.09,31.39,336344.79,7334870.46
"238975",238975,1988,20,"o","Elephant",10,-24.08,31.4,337348.84,7335989.53
"239043",239043,1988,20,"o","Elephant",7,-24.1,31.43,340423.84,7333809.1
"239228",239228,1988,20,"o","Elephant",3,-24.06,31.53,350543.1,7338348.83
"239230",239230,1988,20,"o","Elephant",4,-24.07,31.54,351571.47,7337252.04
"239234",239234,1988,20,"o","Elephant",10,-24.06,31.54,351559.96,7338359.43
"239235",239235,1988,20,"o","Elephant",1,-24.06,31.54,351559.96,7338359.43
"239236",239236,1988,20,"o","Elephant",1,-24.07,31.55,352588.25,7337262.57
"239248",239248,1988,20,"o","Elephant",25,-24.05,31.56,353582.33,7339487.8
"239253",239253,1988,20,"o","Elephant",20,-24.05,31.56,353582.33,7339487.8
"239273",239273,1988,20,"o","Elephant",14,-24.08,31.59,356666.46,7336196.61
"240145",240145,1988,22,"o","Elephant",14,-24.42,31.41,338794.86,7298347.44
"240264",240264,1988,22,"o","Elephant",5,-24.47,31.44,341899.37,7292844.64
"240394",240394,1988,22,"o","Elephant",26,-24.45,31.48,345929.54,7295104.72
"241424",241424,1988,23,"o","Elephant",52,-24.24,31.64,361922.02,7318528.82
"241481",241481,1988,24,"o","Elephant",10,-24.38,31.7,368159.25,7303083.65
"242011",242011,1988,25,"o","Elephant",23,-24.09,31.88,386158.09,7335354.95
"242971",242971,1988,26,"o","Elephant",18,-24.19,31.75,373041.78,7324170.01
"242973",242973,1988,26,"o","Elephant",14,-24.19,31.77,375073.32,7324188.03
"242974",242974,1988,26,"o","Elephant",8,-24.19,31.79,377104.85,7324205.76
"242988",242988,1988,26,"o","Elephant",2,-24.2,31.75,373051.68,7323062.67
"243012",243012,1988,26,"o","Elephant",15,-24.21,31.78,376108.42,7321982.26
"243020",243020,1988,26,"o","Elephant",5,-24.21,31.75,373061.58,7321955.32
"243036",243036,1988,26,"o","Elephant",8,-24.23,31.78,376127.77,7319767.58
"243039",243039,1988,26,"o","Elephant",15,-24.24,31.76,374106.7,7318642.34
"243241",243241,1988,26,"o","Elephant",5,-24.31,31.86,384323.74,7310977.66
"243423",243423,1988,26,"o","Elephant",6,-24.37,31.91,389449.77,7304374.38
"243980",243980,1988,27,"o","Elephant",17,-24.27,31.93,391393.2,7315463.3
"243981",243981,1988,27,"o","Elephant",2,-24.26,31.93,391384.7,7316570.61
"244448",244448,1988,28,"o","Elephant",18,-24.4,31.91,389475.87,7301052.4
"244525",244525,1988,28,"o","Elephant",7,-24.49,31.96,394621.03,7291125.41
"244791",244791,1988,28,"o","Elephant",3,-24.53,31.96,394654.38,7286696.08
"245944",245944,1988,31,"o","Elephant",8,-24.45,31.7,368231.96,7295331.94
"246141",246141,1988,31,"o","Elephant",3,-24.52,31.71,369318.02,7287589.65
"246178",246178,1988,31,"o","Elephant",12,-24.51,31.73,371334.13,7288715.84
"246185",246185,1988,31,"o","Elephant",2,-24.51,31.73,371334.13,7288715.84
"246394",246394,1988,31,"o","Elephant",1,-24.61,31.7,368398.89,7277613.47
"246523",246523,1988,31,"o","Elephant",1,-24.51,31.63,361201.73,7288618.98
"246646",246646,1988,32,"o","Elephant",1,-24.46,31.48,345941.7,7293997.26
"246662",246662,1988,32,"o","Elephant",9,-24.49,31.51,349018.59,7290707.98
"246668",246668,1988,32,"o","Elephant",7,-24.48,31.5,347993.12,7291804.47
"246669",246669,1988,32,"o","Elephant",17,-24.49,31.52,350032.04,7290718.87
"246670",246670,1988,32,"o","Elephant",4,-24.48,31.51,349006.65,7291815.43
"246671",246671,1988,32,"o","Elephant",5,-24.48,31.51,349006.65,7291815.43
"246751",246751,1988,32,"o","Elephant",2,-24.45,31.55,353025.92,7295180.87
"246933",246933,1988,32,"o","Elephant",1,-24.56,31.52,350115.18,7282966.65
"246935",246935,1988,32,"o","Elephant",4,-24.52,31.51,349054.43,7287385.6
"246942",246942,1988,32,"o","Elephant",8,-24.49,31.53,351045.48,7290729.68
"246947",246947,1988,32,"o","Elephant",8,-24.5,31.54,352070.63,7289632.98
"247231",247231,1988,33,"o","Elephant",10,-24.65,31.6,358319.57,7273084.31
"247261",247261,1988,33,"o","Elephant",4,-24.67,31.59,357330.18,7270859.05
"247269",247269,1988,33,"o","Elephant",2,-24.68,31.62,360377.24,7269782.46
"247423",247423,1988,34,"o","Elephant",15,-24.68,31.78,376567.09,7269935.86
"247842",247842,1988,34,"o","Elephant",7,-24.7,31.73,371528.34,7267675.12
"247843",247843,1988,34,"o","Elephant",2,-24.7,31.72,370516.65,7267665.71
"247844",247844,1988,34,"o","Elephant",2,-24.7,31.72,370516.65,7267665.71
"247875",247875,1988,34,"o","Elephant",7,-24.67,31.75,373521.46,7271015.95
"247898",247898,1988,34,"o","Elephant",8,-24.66,31.74,372499.36,7272114.11
"247901",247901,1988,34,"o","Elephant",4,-24.66,31.75,373511.37,7272123.36
"247954",247954,1988,34,"o","Elephant",5,-24.6,31.68,366363.4,7278701.6
"247973",247973,1988,35,"o","Elephant",10,-24.8,31.67,365565.76,7256543.12
"248456",248456,1988,35,"o","Elephant",7,-24.79,31.61,359489.03,7257590.18
"248585",248585,1988,36,"o","Elephant",1,-24.87,31.83,381806.36,7248939.27
"248680",248680,1988,36,"o","Elephant",4,-24.8,31.7,368598.46,7256572.32
"248684",248684,1988,36,"o","Elephant",9,-24.8,31.71,369609.35,7256581.9
"248685",248685,1988,36,"o","Elephant",3,-24.8,31.71,369609.35,7256581.9
"248786",248786,1988,36,"o","Elephant",7,-24.78,31.8,378687.82,7258879.67
"248788",248788,1988,36,"o","Elephant",5,-24.79,31.8,378697.55,7257772.25
"248790",248790,1988,36,"o","Elephant",7,-24.8,31.8,378707.27,7256664.84
"248802",248802,1988,36,"o","Elephant",1,-24.85,31.78,376735.04,7251109.81
"248820",248820,1988,36,"o","Elephant",8,-24.79,31.81,379708.49,7257781.09
"248828",248828,1988,36,"o","Elephant",8,-24.79,31.82,380719.44,7257789.86
"248947",248947,1988,37,"o","Elephant",16,-24.83,31.97,395916.78,7253483
"248993",248993,1988,37,"o","Elephant",14,-24.88,31.97,395958.63,7247946.1
"248995",248995,1988,37,"o","Elephant",28,-24.88,31.97,395958.63,7247946.1
"248997",248997,1988,37,"o","Elephant",26,-24.88,31.97,395958.63,7247946.1
"249115",249115,1988,37,"o","Elephant",13,-24.87,31.93,391909.18,7249022.33
"249256",249256,1988,37,"o","Elephant",7,-24.96,32.01,400063.84,7239117.02
"249284",249284,1988,37,"o","Elephant",16,-25.06,32.02,401153.45,7228050.42
"249304",249304,1988,37,"o","Elephant",10,-24.93,32.01,400039.63,7242439.18
"249321",249321,1988,37,"o","Elephant",2,-25.02,32,399103.31,7232465.26
"249334",249334,1988,37,"o","Elephant",6,-25.04,32,399119.67,7230250.46
"249485",249485,1988,37,"o","Elephant",1,-25.11,32,399177.01,7222498.62
"249675",249675,1988,37,"o","Elephant",18,-24.96,31.95,394006.67,7239071.51
"249717",249717,1988,37,"o","Elephant",8,-24.99,31.95,394032.38,7235749.3
"249730",249730,1988,37,"o","Elephant",9,-25.01,31.98,397076.91,7233557.62
"249756",249756,1988,37,"o","Elephant",12,-25.02,32,399103.31,7232465.26
"249834",249834,1988,38,"o","Elephant",19,-25.01,31.91,390013.02,7233502.62
"249900",249900,1988,38,"o","Elephant",9,-24.92,31.86,384883.62,7243427.9
"249940",249940,1988,38,"o","Elephant",7,-24.96,31.84,382901.68,7238981.12
"250281",250281,1988,39,"o","Elephant",7,-24.97,31.35,333443.65,7237361.51
"250437",250437,1988,39,"o","Elephant",2,-25.03,31.28,326460.61,7230628.09
"250441",250441,1988,39,"o","Elephant",1,-25.04,31.32,330510.91,7229571.18
"250460",250460,1988,39,"o","Elephant",9,-25.04,31.3,328492.81,7229545.98
"250526",250526,1988,39,"o","Elephant",5,-25.08,31.37,335609.52,7225202.55
"250527",250527,1988,39,"o","Elephant",3,-25.08,31.36,334600.82,7225190.34
"250529",250529,1988,39,"o","Elephant",15,-25.09,31.32,330579.73,7224033.17
"250530",250530,1988,39,"o","Elephant",3,-25.09,31.31,329571.08,7224020.59
"250539",250539,1988,39,"o","Elephant",6,-25.1,31.37,335636.25,7222987.37
"250693",250693,1988,39,"o","Elephant",1,-25.08,31.2,318461.04,7224984.9
"250957",250957,1988,40,"o","Elephant",18,-25.17,31.33,331698.08,7215184.81
"251125",251125,1988,40,"o","Elephant",14,-25.31,31.32,330884.03,7199665.5
"251153",251153,1988,40,"o","Elephant",17,-25.34,31.27,325892.79,7196278.47
"251223",251223,1988,40,"o","Elephant",5,-25.38,31.32,330981.38,7191912.01
"251341",251341,1988,41,"o","Elephant",5,-25.3,31.43,341945.96,7200907.42
"251382",251382,1988,41,"o","Elephant",10,-25.28,31.37,335877.72,7203050.53
"251387",251387,1988,41,"o","Elephant",35,-25.28,31.37,335877.72,7203050.53
"251533",251533,1988,41,"o","Elephant",60,-25.2,31.43,341816.46,7211983.31
"251683",251683,1988,41,"o","Elephant",41,-25.19,31.48,346842.42,7213148.74
"252002",252002,1988,42,"o","Elephant",3,-25.06,31.57,355759.6,7227645.99
"252285",252285,1988,42,"o","Elephant",5,-25.2,31.57,355923.97,7212140.6
"252572",252572,1988,42,"o","Elephant",10,-25.31,31.58,357060.48,7199968.32
"252593",252593,1988,43,"o","Elephant",2,-25.02,31.58,356721.92,7232086.66
"252690",252690,1988,43,"o","Elephant",10,-25.03,31.52,350679.17,7230914.31
"252833",252833,1988,43,"o","Elephant",2,-25.05,31.43,341623.12,7228596.9
"252909",252909,1988,43,"o","Elephant",2,-24.97,31.51,349597.05,7237548.41
"252921",252921,1988,43,"o","Elephant",1,-25.02,31.54,352685.36,7232043.75
"252927",252927,1988,43,"o","Elephant",7,-25.01,31.55,353682.65,7233162.1
"252935",252935,1988,43,"o","Elephant",1,-24.99,31.56,354668.35,7235387.89
"252958",252958,1988,43,"o","Elephant",2,-25.02,31.48,346630.44,7231977.13
"253121",253121,1988,43,"o","Elephant",12,-24.98,31.38,336485.7,7236290.44
"253210",253210,1988,44,"o","Elephant",1,-25.39,31.57,356148.43,7191097.15
"253226",253226,1988,44,"o","Elephant",18,-25.38,31.59,358148.91,7192226.09
"253270",253270,1988,44,"o","Elephant",19,-25.42,31.64,363224.82,7187848.05
"253289",253289,1988,44,"o","Elephant",4,-25.36,31.58,357119.22,7194430.55
"253408",253408,1988,44,"o","Elephant",8,-25.37,31.61,360149.72,7193354.72
"253697",253697,1988,44,"o","Elephant",3,-25.34,31.73,372192.9,7196797.37
"253756",253756,1988,44,"o","Elephant",3,-25.36,31.87,386301.82,7194708.74
"253773",253773,1988,44,"o","Elephant",8,-25.36,31.86,385295.56,7194700.2
"253775",253775,1988,44,"o","Elephant",5,-25.37,31.86,385305,7193592.72
"254044",254044,1988,44,"o","Elephant",10,-25.23,31.71,370062.8,7208960.71
"254045",254045,1988,44,"o","Elephant",15,-25.24,31.71,370073.44,7207853.21
"254069",254069,1988,44,"o","Elephant",11,-25.22,31.71,370052.18,7210068.21
"254338",254338,1988,44,"o","Elephant",45,-25.29,31.73,372140.41,7202334.91
"254362",254362,1988,45,"o","Elephant",1,-25.1,31.89,388076.53,7223519.38
"254380",254380,1988,45,"o","Elephant",12,-25.13,31.86,385079.38,7220171.85
"254412",254412,1988,45,"o","Elephant",21,-25.15,31.83,382074.1,7217931.04
"254413",254413,1988,45,"o","Elephant",7,-25.16,31.83,382083.72,7216823.58
"254481",254481,1988,45,"o","Elephant",35,-25.17,31.8,379069.81,7215689.53
"254516",254516,1988,45,"o","Elephant",41,-25.19,31.81,380097.23,7213483.54
"254519",254519,1988,45,"o","Elephant",5,-25.18,31.8,379079.68,7214582.06
"254845",254845,1988,45,"o","Elephant",11,-25.3,31.9,389266.01,7201378.7
"254927",254927,1988,46,"o","Elephant",9,-25.18,32.02,401249.95,7214761.53
"254976",254976,1988,46,"o","Elephant",15,-25.16,31.99,398210.18,7216954.03
"254977",254977,1988,46,"o","Elephant",44,-25.16,31.99,398210.18,7216954.03
"255052",255052,1988,46,"o","Elephant",5,-25.25,31.98,397277.86,7206979.58
"255090",255090,1988,46,"o","Elephant",6,-25.16,31.97,396194.4,7216938.77
"255091",255091,1988,46,"o","Elephant",3,-25.16,31.96,395186.51,7216931.03
"255197",255197,1988,46,"o","Elephant",11,-25.3,32.01,400340.15,7201465.03
"255235",255235,1988,46,"o","Elephant",2,-25.38,31.97,396381.39,7192575.08
"255240",255240,1988,46,"o","Elephant",6,-25.37,31.97,396372.86,7193682.54
"255276",255276,1988,46,"o","Elephant",3,-25.37,31.95,394360.54,7193666.88
"255362",255362,1988,46,"o","Elephant",2,-25.4,31.97,396398.47,7190360.16
"255800",255800,1988,48,"o","Elephant",11,-22.81,31.37,332706.33,7476590.22
"256532",256532,1988,51,"o","Elephant",9,-22.74,31.34,329539.75,7484306.99
"256688",256688,1988,52,"o","Elephant",6,-23.14,31.31,326967.88,7439979.1
"256964",256964,1988,53,"o","Elephant",12,-23.12,30.94,289043.48,7441706.64
"257157",257157,1988,53,"o","Elephant",34,-23.13,31.05,300326.07,7440754.07
"257598",257598,1988,54,"o","Elephant",9,-22.96,30.95,289819.6,7459441.03
"257607",257607,1988,54,"o","Elephant",45,-22.94,30.97,291840.13,7461684.49
"257698",257698,1988,54,"o","Elephant",2,-22.88,31.03,297905.39,7468412.92
"257753",257753,1988,54,"o","Elephant",35,-22.96,31.04,299049.61,7459567.08
"257754",257754,1988,54,"o","Elephant",10,-22.96,31.04,299049.61,7459567.08
"257763",257763,1988,54,"o","Elephant",14,-22.96,31.05,300075.15,7459580.74
"257765",257765,1988,54,"o","Elephant",10,-22.97,31.04,299064.4,7458459.63
"257771",257771,1988,54,"o","Elephant",25,-22.98,31.05,300104.58,7457365.85
"257780",257780,1988,54,"o","Elephant",25,-23,31.06,301159.26,7455164.57
"257781",257781,1988,54,"o","Elephant",12,-22.98,31.07,302155.33,7457392.97
"257861",257861,1988,54,"o","Elephant",30,-22.88,31.09,304062.19,7468494
"258326",258326,1988,55,"o","Elephant",4,-22.84,31,294766.84,7472801.24
"258471",258471,1988,55,"o","Elephant",19,-22.71,31.11,305873.73,7487346.15
"258474",258474,1988,55,"o","Elephant",30,-22.87,31.06,300969.23,7469561.2
"258482",258482,1988,55,"o","Elephant",11,-22.87,31.07,301995.43,7469574.67
"258510",258510,1988,55,"o","Elephant",90,-22.87,31.12,307126.39,7469641
"258530",258530,1988,55,"o","Elephant",5,-22.87,31.13,308152.57,7469654.05
"258541",258541,1988,55,"o","Elephant",20,-22.86,31.14,309164.78,7470774.43
"258613",258613,1988,55,"o","Elephant",15,-22.92,31.19,314377.64,7464194.07
"258638",258638,1988,55,"o","Elephant",35,-22.91,31.2,315389.87,7465314.03
"258778",258778,1988,56,"o","Elephant",20,-25.34,31.49,348037.1,7196546.51
"258897",258897,1988,56,"o","Elephant",9,-25.38,31.51,350099.5,7192138.76
"258950",258950,1988,56,"o","Elephant",3,-25.42,31.46,345119.61,7187651.33
"258983",258983,1988,56,"o","Elephant",2,-25.46,31.51,350198.43,7183278.06
"259036",259036,1988,56,"o","Elephant",5,-25.49,31.39,338172.11,7179814.8
"259048",259048,1988,56,"o","Elephant",16,-25.51,31.38,337193.77,7177587.32
"259486",259486,1988,58,"o","Elephant",12,-25.07,31.74,372919.28,7226709.07
"259499",259499,1988,58,"o","Elephant",5,-25.06,31.74,372908.96,7227816.54
"259516",259516,1988,58,"o","Elephant",23,-25.03,31.77,375905.04,7231166.77
"259519",259519,1988,58,"o","Elephant",8,-25.03,31.78,376914.04,7231175.89
"259520",259520,1988,58,"o","Elephant",5,-25.02,31.78,376904.07,7232283.35
"259524",259524,1988,58,"o","Elephant",30,-25.02,31.78,376904.07,7232283.35
"259533",259533,1988,60,"o","Elephant",4,-25,31.6,358717.3,7234322.67
"259579",259579,1988,60,"o","Elephant",13,-25.03,31.64,362787.8,7231041.31
"259588",259588,1988,60,"o","Elephant",5,-24.98,31.65,363741.67,7236588.83
"259597",259597,1988,60,"o","Elephant",5,-24.98,31.66,364751.12,7236598.84
"259621",259621,1988,60,"o","Elephant",5,-24.99,31.68,366780.77,7235511.16
"259712",259712,1988,61,"o","Elephant",8,-22.5,31,294260.06,7510453.82
"259732",259732,1988,61,"o","Elephant",6,-22.55,31.06,300505.82,7504998.17
"259777",259777,1988,61,"o","Elephant",10,-22.59,31,294393.51,7500487.09
"259972",259972,1988,61,"o","Elephant",9,-22.72,30.97,291505.06,7486048.66
"260010",260010,1988,62,"o","Elephant",3,-22.53,31.09,303563.28,7507252.68
"260094",260094,1988,62,"o","Elephant",18,-22.51,31.14,308679.36,7509532.24
"260104",260104,1988,62,"o","Elephant",17,-22.51,31.14,308679.36,7509532.24
"260107",260107,1988,62,"o","Elephant",10,-22.5,31.15,309694.53,7510652.34
"260110",260110,1988,62,"o","Elephant",15,-22.51,31.14,308679.36,7509532.24
"260128",260128,1988,62,"o","Elephant",5,-22.48,31.11,305550.81,7512815.62
"260136",260136,1988,62,"o","Elephant",2,-22.49,31.08,302477.7,7511668.99
"260137",260137,1988,62,"o","Elephant",1,-22.49,31.08,302477.7,7511668.99
"260143",260143,1988,62,"o","Elephant",6,-22.46,31.13,307581.36,7515056.14
"260147",260147,1988,62,"o","Elephant",25,-22.46,31.16,310669.06,7515094.35
"260148",260148,1988,62,"o","Elephant",4,-22.45,31.17,311684.76,7516214.27
"260149",260149,1988,62,"o","Elephant",5,-22.45,31.17,311684.76,7516214.27
