"","ID","Year","Cenb","Sp","Description","No","Lat","Long","X.coord","Y.coord"
"386858",386858,1994,1,"v","Warthog",1,-23.99,31.64,361653.49,7346212.94
"386892",386892,1994,1,"v","Warthog",1,-23.98,31.59,356555.46,7347270.3
"387158",387158,1994,10,"v","Warthog",1,-23.99,31.5,347409.85,7346068.37
"387159",387159,1994,10,"v","Warthog",1,-23.98,31.49,346380.56,7347164.9
"387222",387222,1994,10,"v","Warthog",2,-23.92,31.42,339183.53,7353731.32
"387409",387409,1994,22,"v","Warthog",2,-24.03,31.3,327114.2,7341407.4
"387468",387468,1994,22,"v","Warthog",2,-24.04,31.22,318990.7,7340199.23
"387500",387500,1994,22,"v","Warthog",1,-23.94,31.18,314779.08,7351222.29
"387701",387701,1994,22,"v","Warthog",1,-23.97,31.35,332122.19,7348112.65
"387746",387746,1994,22,"v","Warthog",2,-23.91,31.29,325935.84,7354684.68
"387900",387900,1994,22,"v","Warthog",2,-23.89,31.16,312671.1,7356733.46
"388376",388376,1994,46,"v","Warthog",2,-23.81,31.4,337009.86,7365889.94
"388434",388434,1994,64,"v","Warthog",1,-23.7,31.35,331774.13,7378013.17
"388672",388672,1994,64,"v","Warthog",2,-23.71,31.28,324649.21,7376821.33
"388714",388714,1994,64,"v","Warthog",1,-23.7,31.22,318517.17,7377853.63
"388893",388893,1994,65,"v","Warthog",4,-23.45,31.24,320216.5,7405564.86
"388988",388988,1994,3,"v","Warthog",2,-23.37,31.31,327264.58,7414509.67
"389069",389069,1994,66,"v","Warthog",2,-23.48,31.11,306977.49,7402074.01
"389130",389130,1994,2,"v","Warthog",1,-23.45,31.14,309999.12,7405436.37
"389139",389139,1994,66,"v","Warthog",3,-23.5,31.18,314156.21,7399951.38
"389160",389160,1994,66,"v","Warthog",3,-23.45,31.19,315107.86,7405501.5
"389323",389323,1994,2,"v","Warthog",1,-23.3,31.19,314899.59,7422112.97
"389333",389333,1994,2,"v","Warthog",2,-23.29,31.17,312839.81,7423194.69
"389386",389386,1994,2,"v","Warthog",1,-23.33,31.01,296532.61,7418548.86
"389410",389410,1994,2,"v","Warthog",2,-23.37,31.04,299660.88,7414160.78
"389480",389480,1994,2,"v","Warthog",1,-23.29,31.07,302609.87,7423061.92
"389589",389589,1994,2,"v","Warthog",2,-23.37,31.13,308862.44,7414282.82
"389594",389594,1994,2,"v","Warthog",1,-23.43,31.13,308948.6,7407638.06
"389668",389668,1994,2,"v","Warthog",2,-23.38,31.07,302742.91,7413094.62
"389961",389961,1994,4,"v","Warthog",2,-23.27,31.18,313834.96,7425422.42
"390004",390004,1994,4,"v","Warthog",1,-23.24,31.16,311746.57,7428718.88
"390138",390138,1994,4,"v","Warthog",1,-23.26,31.1,305635.34,7426424.86
"390280",390280,1994,4,"v","Warthog",2,-23.29,31.01,296471.7,7422978.87
"390510",390510,1994,5,"v","Warthog",1,-23.62,31.52,349017.42,7387062.28
"390525",390525,1994,5,"v","Warthog",3,-23.64,31.54,351080.65,7384868.6
"390551",390551,1994,5,"v","Warthog",1,-23.69,31.49,346038.46,7379278.81
"390699",390699,1994,6,"v","Warthog",1,-23.52,31.46,342776.47,7398071.14
"390790",390790,1994,7,"v","Warthog",2,-23.34,31.32,328248.26,7417843.72
"390961",390961,1994,8,"v","Warthog",1,-23.16,31.43,339280.27,7437901.91
"390962",390962,1994,8,"v","Warthog",1,-23.16,31.47,343375.73,7437945.49
"390985",390985,1994,47,"v","Warthog",1,-23.18,31.51,347493.8,7435773.39
"390989",390989,1994,8,"v","Warthog",1,-23.17,31.45,341339.79,7436816.54
"391021",391021,1994,8,"v","Warthog",1,-23.25,31.5,346550.11,7428011.84
"391043",391043,1994,8,"v","Warthog",1,-23.26,31.45,341446.09,7426850.76
"391114",391114,1994,49,"v","Warthog",3,-23.09,31.4,336123.61,7445619.69
"391123",391123,1994,8,"v","Warthog",5,-23.1,31.4,336135.75,7444512.38
"391627",391627,1994,11,"v","Warthog",3,-24.07,31.62,359705.62,7337334.28
"391645",391645,1994,11,"v","Warthog",2,-24.06,31.6,357661.07,7338421.53
"391979",391979,1994,12,"v","Warthog",2,-24.17,31.61,358798.67,7326250.5
"392054",392054,1994,12,"v","Warthog",3,-24.23,31.61,358864.76,7319606.19
"392159",392159,1994,12,"v","Warthog",4,-24.25,31.45,342641.07,7317220.18
"392161",392161,1994,12,"v","Warthog",6,-24.2,31.44,341563.81,7322746.08
"392192",392192,1994,13,"v","Warthog",2,-24.29,31.53,350810.77,7312878.44
"392283",392283,1994,15,"v","Warthog",3,-24.23,31.72,370035.03,7319713.02
"392319",392319,1994,15,"v","Warthog",1,-24.22,31.74,372055.96,7320838.85
"392323",392323,1994,15,"v","Warthog",2,-24.22,31.7,367993.78,7320801.61
"392351",392351,1994,15,"v","Warthog",1,-24.21,31.67,364936.58,7321880.29
"392418",392418,1994,15,"v","Warthog",1,-24.17,31.67,364894.44,7326309.76
"392450",392450,1994,15,"v","Warthog",2,-24.15,31.72,369953.92,7328571.83
"392887",392887,1994,16,"v","Warthog",4,-24.35,31.69,367113.63,7306396.27
"392915",392915,1994,16,"v","Warthog",2,-24.31,31.71,369101.56,7310844.75
"392951",392951,1994,16,"v","Warthog",4,-24.29,31.72,370096.03,7313068.85
"392973",392973,1994,16,"v","Warthog",1,-24.37,31.74,372206.27,7304228.45
"393001",393001,1994,16,"v","Warthog",6,-24.32,31.75,373170.81,7309774.44
"393013",393013,1994,16,"v","Warthog",3,-24.32,31.75,373170.81,7309774.44
"393022",393022,1994,16,"v","Warthog",8,-24.39,31.77,375268.92,7302041.01
"393361",393361,1994,1,"v","Warthog",2,-23.99,31.81,378948.6,7346369.45
"393362",393362,1994,1,"v","Warthog",2,-23.99,31.81,378948.6,7346369.45
"393369",393369,1994,17,"v","Warthog",2,-24.08,31.81,379032.91,7336403.7
"393605",393605,1994,15,"v","Warthog",2,-24.06,31.72,369862.97,7338537.89
"393692",393692,1994,18,"v","Warthog",7,-24.22,31.82,380180.18,7320909.83
"393703",393703,1994,18,"v","Warthog",1,-24.21,31.75,373061.58,7321955.32
"393778",393778,1994,18,"v","Warthog",2,-24.27,31.8,378196.77,7315355.84
"393865",393865,1994,18,"v","Warthog",7,-24.39,31.9,388453.02,7302151.72
"393956",393956,1994,18,"v","Warthog",3,-24.39,31.82,380339.78,7302085.05
"393980",393980,1994,20,"v","Warthog",1,-24.4,31.8,378321.02,7300960.3
"394045",394045,1994,18,"v","Warthog",6,-24.3,31.79,377210.5,7312025.02
"394390",394390,1994,19,"v","Warthog",3,-24.37,31.97,395535.55,7304420.84
"394660",394660,1994,19,"v","Warthog",2,-24.3,31.91,389389,7312125.63
"395022",395022,1994,21,"v","Warthog",2,-24.55,31.78,376439.39,7284331.99
"395111",395111,1994,21,"v","Warthog",6,-24.69,31.83,381635.73,7268872.54
"395122",395122,1994,21,"v","Warthog",2,-24.6,31.8,378513.41,7278812.85
"395361",395361,1994,23,"v","Warthog",2,-24.67,31.94,392747.76,7271177.74
"395458",395458,1994,21,"v","Warthog",1,-24.75,31.85,383715.01,7262245.31
"395644",395644,1994,23,"v","Warthog",2,-24.67,31.94,392747.76,7271177.74
"395819",395819,1994,16,"v","Warthog",1,-24.39,31.64,362084.4,7301917.93
"396247",396247,1994,25,"v","Warthog",4,-24.56,31.63,361256.72,7283081.85
"396369",396369,1994,26,"v","Warthog",3,-24.71,31.65,363445.6,7266490.33
"396572",396572,1994,44,"v","Warthog",5,-22.81,31.28,323467.35,7476485.48
"396654",396654,1994,44,"v","Warthog",1,-22.81,31.35,330653.25,7476567.43
"396820",396820,1994,45,"v","Warthog",1,-23,31.34,329864.01,7455517.04
"396911",396911,1994,47,"v","Warthog",1,-23.08,31.52,348405.11,7446856.56
"396965",396965,1994,47,"v","Warthog",4,-23.02,31.5,346288.09,7453479.28
"397240",397240,1994,49,"v","Warthog",2,-23.14,31.23,318775.24,7439881.86
"397422",397422,1994,49,"v","Warthog",4,-23.1,31.35,331014.02,7444455.37
"397433",397433,1994,49,"v","Warthog",2,-23.13,31.35,331051.58,7441133.37
"397505",397505,1994,49,"v","Warthog",1,-23.1,31.2,315648.28,7444273.81
"397727",397727,1994,50,"v","Warthog",2,-23,30.92,286805.66,7454967.74
"397754",397754,1994,50,"v","Warthog",1,-22.99,30.94,288840.67,7456104.19
"397803",397803,1994,50,"v","Warthog",1,-23.01,30.98,292972.58,7453946.3
"397832",397832,1994,50,"v","Warthog",5,-23.04,31,295068.32,7450652.01
"397890",397890,1994,50,"v","Warthog",1,-23.04,31.03,298143.14,7450693.72
"398018",398018,1994,50,"v","Warthog",2,-23.1,31.1,305403.97,7444143.99
"398159",398159,1994,50,"v","Warthog",1,-23.16,31.11,306514.55,7437512.68
"398171",398171,1994,50,"v","Warthog",2,-23.11,31.11,306442.76,7443049.86
"398175",398175,1994,50,"v","Warthog",3,-23.12,31.11,306457.1,7441942.43
"398186",398186,1994,50,"v","Warthog",3,-23.17,31.1,305505.01,7436391.91
"398191",398191,1994,50,"v","Warthog",2,-23.11,31.1,305418.38,7443036.56
"398194",398194,1994,50,"v","Warthog",1,-23.11,31.09,304394.01,7443023.18
"398231",398231,1994,50,"v","Warthog",1,-23.15,31.05,300355.7,7438539.14
"398279",398279,1994,4,"v","Warthog",1,-23.17,31.02,297313.52,7436282.74
"398280",398280,1994,4,"v","Warthog",5,-23.17,31.02,297313.52,7436282.74
"398383",398383,1994,51,"v","Warthog",2,-22.94,31.1,305174.11,7461862.8
"398577",398577,1994,51,"v","Warthog",2,-22.88,30.96,290722.27,7468315.14
"398794",398794,1994,52,"v","Warthog",2,-22.97,31.19,314445.85,7458657.19
"398797",398797,1994,52,"v","Warthog",1,-22.98,31.2,315484.84,7457562.42
"398864",398864,1994,52,"v","Warthog",4,-22.99,31.19,314473.18,7456442.43
"398931",398931,1994,52,"v","Warthog",1,-22.96,31.15,310330.27,7459713.44
"398976",398976,1994,52,"v","Warthog",1,-23.01,31.18,313475.43,7454214.96
"399330",399330,1994,60,"v","Warthog",2,-22.51,31.05,299419.43,7509414.33
"399432",399432,1994,61,"v","Warthog",3,-22.61,31.17,311901.67,7498496.93
"399557",399557,1994,63,"v","Warthog",7,-22.39,31.27,321900.98,7522980.08
"399614",399614,1994,63,"v","Warthog",2,-22.42,31.17,311644.26,7519536.24
