"","ID","Year","Cenb","Sp","Description","No","Lat","Long","X.coord","Y.coord"
"231205",231205,1988,1,"v","Warthog",4,-23.87,31.57,354397.19,7359430.77
"231246",231246,1988,1,"v","Warthog",3,-23.9,31.59,356466.98,7356129.16
"231272",231272,1988,1,"v","Warthog",6,-23.94,31.59,356511.19,7351699.74
"231281",231281,1988,1,"v","Warthog",1,-23.93,31.63,360571.58,7352847.17
"231307",231307,1988,1,"v","Warthog",1,-23.95,31.63,360593.07,7350632.48
"231329",231329,1988,1,"v","Warthog",3,-23.96,31.63,360603.82,7349525.13
"231330",231330,1988,1,"v","Warthog",1,-23.97,31.62,359597.04,7348407.86
"231385",231385,1988,1,"v","Warthog",1,-24,31.66,363698.78,7345125.1
"231418",231418,1988,1,"v","Warthog",3,-24.02,31.59,356599.81,7342840.84
"231466",231466,1988,1,"v","Warthog",1,-23.98,31.76,373852.14,7347432.89
"231467",231467,1988,1,"v","Warthog",1,-23.97,31.76,373842.4,7348540.21
"231591",231591,1988,1,"v","Warthog",1,-23.92,31.64,361578.77,7353964.34
"231767",231767,1988,1,"v","Warthog",2,-24.01,31.73,370829.79,7344083.75
"231769",231769,1988,1,"v","Warthog",3,-24.01,31.72,369812.59,7344074.54
"231955",231955,1988,2,"v","Warthog",2,-24.04,31.43,340349.56,7340453.67
"231992",231992,1988,2,"v","Warthog",7,-24.06,31.4,337323.6,7338204.41
"232004",232004,1988,2,"v","Warthog",1,-23.94,31.56,353457.8,7351668.92
"232022",232022,1988,2,"v","Warthog",2,-23.87,31.56,353378.84,7359420.45
"232111",232111,1988,2,"v","Warthog",1,-23.96,31.51,348392.16,7349401.33
"232161",232161,1988,2,"v","Warthog",3,-23.95,31.49,346344.98,7350487.08
"232184",232184,1988,2,"v","Warthog",2,-23.96,31.45,342286.16,7349335.54
"232222",232222,1988,2,"v","Warthog",5,-23.89,31.39,336091.68,7357019.11
"232228",232228,1988,2,"v","Warthog",1,-23.95,31.38,335149.63,7350362.92
"232236",232236,1988,2,"v","Warthog",2,-23.96,31.37,334144.64,7349243.76
"232440",232440,1988,3,"v","Warthog",4,-23.96,31.17,313789.88,7348994.1
"232464",232464,1988,3,"v","Warthog",5,-23.95,31.19,315811.21,7350127.87
"232481",232481,1988,3,"v","Warthog",1,-23.94,31.21,317832.85,7351261.34
"232487",232487,1988,3,"v","Warthog",1,-23.99,31.22,318920.66,7345736.74
"232492",232492,1988,3,"v","Warthog",2,-23.93,31.21,317818.81,7352368.83
"232526",232526,1988,3,"v","Warthog",2,-23.94,31.23,319868.67,7351287.01
"232527",232527,1988,3,"v","Warthog",2,-23.94,31.23,319868.67,7351287.01
"232536",232536,1988,3,"v","Warthog",6,-23.91,31.24,320845.18,7354622.18
"232547",232547,1988,3,"v","Warthog",3,-23.94,31.25,321904.49,7351312.39
"232550",232550,1988,3,"v","Warthog",2,-23.92,31.25,321877.04,7353527.35
"232554",232554,1988,3,"v","Warthog",3,-23.92,31.26,322895.09,7353539.92
"232555",232555,1988,3,"v","Warthog",5,-23.92,31.25,321877.04,7353527.35
"232559",232559,1988,3,"v","Warthog",6,-23.94,31.27,323940.28,7351337.49
"232578",232578,1988,3,"v","Warthog",2,-23.94,31.29,325976.07,7351362.29
"232592",232592,1988,3,"v","Warthog",5,-23.94,31.32,329029.71,7351398.96
"232631",232631,1988,3,"v","Warthog",2,-23.92,31.16,312714.35,7353410.92
"232640",232640,1988,3,"v","Warthog",1,-23.91,31.16,312699.93,7354518.43
"232642",232642,1988,3,"v","Warthog",3,-23.92,31.16,312714.35,7353410.92
"232648",232648,1988,3,"v","Warthog",4,-23.89,31.17,313689.43,7356746.67
"232659",232659,1988,3,"v","Warthog",2,-23.93,31.16,312728.78,7352303.41
"232676",232676,1988,3,"v","Warthog",2,-23.91,31.2,316772.58,7354570.88
"232689",232689,1988,3,"v","Warthog",4,-23.9,31.21,317776.71,7355691.31
"232696",232696,1988,3,"v","Warthog",3,-23.87,31.21,317734.67,7359013.77
"232698",232698,1988,3,"v","Warthog",2,-23.88,31.21,317748.68,7357906.29
"232706",232706,1988,3,"v","Warthog",2,-23.9,31.21,317776.71,7355691.31
"232707",232707,1988,3,"v","Warthog",6,-23.9,31.22,318794.94,7355704.16
"232715",232715,1988,3,"v","Warthog",2,-23.86,31.22,318739.21,7360134.1
"232721",232721,1988,3,"v","Warthog",4,-23.87,31.23,319771.6,7359039.39
"232732",232732,1988,3,"v","Warthog",5,-23.9,31.22,318794.94,7355704.16
"232734",232734,1988,3,"v","Warthog",8,-23.91,31.23,319827.04,7354609.46
"232739",232739,1988,3,"v","Warthog",3,-23.9,31.24,320831.39,7355729.66
"232760",232760,1988,3,"v","Warthog",3,-23.9,31.27,323886.03,7355767.36
"232764",232764,1988,3,"v","Warthog",5,-23.87,31.27,323845.4,7359089.76
"232773",232773,1988,3,"v","Warthog",4,-23.88,31.29,325895.67,7358007.05
"232802",232802,1988,3,"v","Warthog",5,-23.87,31.32,328937.58,7359151.09
"232815",232815,1988,3,"v","Warthog",2,-23.87,31.33,329956,7359163.14
"232906",232906,1988,4,"v","Warthog",7,-23.69,31.21,317483.47,7378948.32
"232937",232937,1988,4,"v","Warthog",6,-23.71,31.28,324649.21,7376821.33
"232955",232955,1988,4,"v","Warthog",2,-23.76,31.32,328793.31,7371332.88
"233144",233144,1988,4,"v","Warthog",5,-23.81,31.2,316631.8,7365645.78
"233155",233155,1988,4,"v","Warthog",1,-23.76,31.2,316561.62,7371183.17
"233212",233212,1988,4,"v","Warthog",2,-23.75,31.21,317567,7372303.52
"233232",233232,1988,4,"v","Warthog",2,-23.79,31.22,318641.89,7367886.43
"233432",233432,1988,4,"v","Warthog",1,-23.81,31.28,324783.2,7365746.89
"233531",233531,1988,4,"v","Warthog",1,-23.75,31.3,326741.49,7372416.09
"233551",233551,1988,4,"v","Warthog",2,-23.85,31.32,328911.3,7361365.98
"233554",233554,1988,4,"v","Warthog",1,-23.77,31.31,327787.19,7370213.37
"233573",233573,1988,4,"v","Warthog",3,-23.81,31.33,329877.7,7365807.75
"233600",233600,1988,4,"v","Warthog",2,-23.82,31.35,331928.36,7364724.17
"233711",233711,1988,5,"v","Warthog",1,-23.84,31.42,339084.61,7362590.58
"233781",233781,1988,5,"v","Warthog",1,-23.85,31.46,343171.13,7361528.04
"233909",233909,1988,5,"v","Warthog",1,-23.79,31.52,349212.95,7368237.36
"233925",233925,1988,5,"v","Warthog",4,-23.78,31.53,350220.48,7369355.3
"233926",233926,1988,5,"v","Warthog",1,-23.8,31.53,350243.4,7367140.59
"233966",233966,1988,5,"v","Warthog",4,-23.8,31.56,353300.1,7367171.92
"233984",233984,1988,6,"v","Warthog",7,-23.66,31.32,328662.7,7382407.1
"233993",233993,1988,6,"v","Warthog",1,-23.63,31.32,328623.62,7385729.34
"233998",233998,1988,6,"v","Warthog",2,-23.62,31.33,329630.98,7386848.71
"234000",234000,1988,6,"v","Warthog",2,-23.6,31.32,328584.59,7389051.57
"234001",234001,1988,6,"v","Warthog",2,-23.57,31.3,326504.07,7392349.7
"234003",234003,1988,6,"v","Warthog",4,-23.59,31.32,328571.59,7390158.98
"234010",234010,1988,6,"v","Warthog",1,-23.61,31.34,330638.49,7387967.99
"234012",234012,1988,6,"v","Warthog",3,-23.58,31.32,328558.59,7391266.38
"234018",234018,1988,6,"v","Warthog",3,-23.63,31.36,332704.78,7385776.75
"234041",234041,1988,6,"v","Warthog",1,-23.57,31.36,332628.62,7392421.1
"234120",234120,1988,6,"v","Warthog",1,-23.55,31.4,336686.86,7394682.02
"234137",234137,1988,6,"v","Warthog",4,-23.63,31.46,342907.44,7385890.27
"234255",234255,1988,6,"v","Warthog",1,-23.75,31.42,338973.69,7372557.14
"234274",234274,1988,6,"v","Warthog",1,-23.72,31.46,343015.03,7375923.98
"234371",234371,1988,7,"v","Warthog",2,-23.69,31.18,314423.84,7378909.58
"234423",234423,1988,7,"v","Warthog",2,-23.62,31.2,316365.84,7386687.71
"234474",234474,1988,7,"v","Warthog",8,-23.66,31.22,318461.88,7382283.46
"234477",234477,1988,7,"v","Warthog",3,-23.67,31.22,318475.69,7381176
"234520",234520,1988,7,"v","Warthog",1,-23.61,31.24,320433.86,7387845.98
"234549",234549,1988,7,"v","Warthog",1,-23.63,31.24,320461.13,7385631.09
"234718",234718,1988,7,"v","Warthog",1,-23.73,31.37,333851.63,7374714.43
"234723",234723,1988,7,"v","Warthog",2,-23.74,31.36,332844.89,7373595.31
"234737",234737,1988,8,"v","Warthog",1,-23.55,31.31,327498.72,7394576.59
"234777",234777,1988,8,"v","Warthog",1,-23.53,31.31,327472.62,7396791.4
"234778",234778,1988,8,"v","Warthog",1,-23.53,31.31,327472.62,7396791.4
"234784",234784,1988,8,"v","Warthog",3,-23.52,31.33,329501.87,7397922.7
"234785",234785,1988,8,"v","Warthog",2,-23.52,31.33,329501.87,7397922.7
"234802",234802,1988,8,"v","Warthog",1,-23.51,31.37,333573.85,7399077.04
"234829",234829,1988,8,"v","Warthog",1,-23.52,31.32,328480.73,7397910.79
"234837",234837,1988,8,"v","Warthog",2,-23.52,31.29,325417.26,7397874.61
"234849",234849,1988,8,"v","Warthog",2,-23.5,31.36,332540,7400172.79
"234859",234859,1988,8,"v","Warthog",2,-23.5,31.37,333561.29,7400184.41
"234877",234877,1988,8,"v","Warthog",1,-23.5,31.32,328454.81,7400125.58
"234885",234885,1988,8,"v","Warthog",1,-23.5,31.33,329476.12,7400137.49
"234894",234894,1988,8,"v","Warthog",2,-23.49,31.36,332527.36,7401280.17
"234901",234901,1988,8,"v","Warthog",5,-23.49,31.33,329463.24,7401244.88
"234929",234929,1988,8,"v","Warthog",1,-23.5,31.27,323348.25,7400064.97
"234942",234942,1988,8,"v","Warthog",1,-23.48,31.32,328428.92,7402340.37
"234948",234948,1988,8,"v","Warthog",6,-23.48,31.3,326386,7402316.35
"234964",234964,1988,8,"v","Warthog",2,-23.47,31.32,328415.98,7403447.76
"234965",234965,1988,8,"v","Warthog",3,-23.47,31.33,329437.52,7403459.65
"234970",234970,1988,8,"v","Warthog",2,-23.47,31.29,325351.36,7403411.64
"234973",234973,1988,8,"v","Warthog",3,-23.47,31.26,322286.71,7403374.88
"234981",234981,1988,8,"v","Warthog",3,-23.46,31.29,325338.2,7404519.04
"234984",234984,1988,8,"v","Warthog",2,-23.45,31.34,330433.49,7405686.24
"234990",234990,1988,8,"v","Warthog",4,-23.46,31.26,322273.31,7404482.29
"235014",235014,1988,8,"v","Warthog",2,-23.43,31.27,323255.02,7407816.83
"235022",235022,1988,8,"v","Warthog",2,-23.43,31.23,319167.55,7407767.18
"235049",235049,1988,8,"v","Warthog",2,-23.4,31.27,323215.15,7411139.04
"235059",235059,1988,8,"v","Warthog",2,-23.37,31.31,327264.58,7414509.67
"235068",235068,1988,9,"v","Warthog",4,-23.55,31.11,307079.56,7394321.63
"235090",235090,1988,9,"v","Warthog",1,-23.5,31.1,305985.24,7399845.57
"235096",235096,1988,9,"v","Warthog",2,-23.5,31.11,307006.62,7399859.05
"235132",235132,1988,9,"v","Warthog",1,-23.5,31.15,311092.12,7399912.24
"235141",235141,1988,9,"v","Warthog",2,-23.51,31.16,312127.68,7398817.9
"235185",235185,1988,9,"v","Warthog",3,-23.5,31.17,313134.85,7399938.4
"235196",235196,1988,9,"v","Warthog",4,-23.54,31.21,317275.5,7395560.12
"235197",235197,1988,9,"v","Warthog",6,-23.53,31.21,317261.68,7396667.56
"235199",235199,1988,9,"v","Warthog",3,-23.52,31.21,317247.87,7397775
"235201",235201,1988,9,"v","Warthog",1,-23.46,31.18,314100.12,7404381.17
"235204",235204,1988,9,"v","Warthog",4,-23.45,31.18,314086.12,7405488.62
"235208",235208,1988,9,"v","Warthog",4,-23.52,31.21,317247.87,7397775
"235212",235212,1988,9,"v","Warthog",3,-23.49,31.21,317206.46,7401097.32
"235228",235228,1988,9,"v","Warthog",1,-23.51,31.22,318255.32,7398895.14
"235230",235230,1988,9,"v","Warthog",3,-23.5,31.23,319262.94,7400015.2
"235287",235287,1988,9,"v","Warthog",5,-23.56,31.13,309135.99,7393240.93
"235300",235300,1988,9,"v","Warthog",5,-23.56,31.15,311177.81,7393267.43
"235309",235309,1988,9,"v","Warthog",3,-23.58,31.18,314268.64,7391091.73
"235313",235313,1988,9,"v","Warthog",3,-23.56,31.17,313219.61,7393293.65
"235322",235322,1988,9,"v","Warthog",5,-23.55,31.19,315247.41,7394427.03
"235330",235330,1988,9,"v","Warthog",2,-23.54,31.21,317275.5,7395560.12
"235332",235332,1988,9,"v","Warthog",2,-23.57,31.23,319358.59,7392263.15
"235333",235333,1988,9,"v","Warthog",4,-23.53,31.22,318282.79,7396680.27
"235336",235336,1988,9,"v","Warthog",4,-23.55,31.23,319331.24,7394478.03
"235409",235409,1988,10,"v","Warthog",4,-23.3,31.01,296486.92,7421871.36
"235423",235423,1988,10,"v","Warthog",4,-23.34,31.03,298593.16,7417469.36
"235451",235451,1988,10,"v","Warthog",1,-23.32,31.04,299585.79,7419698.25
"235479",235479,1988,10,"v","Warthog",1,-23.37,31.07,302728.1,7414202.1
"235499",235499,1988,10,"v","Warthog",3,-23.36,31.09,304758.25,7415336.76
"235506",235506,1988,10,"v","Warthog",3,-23.33,31.08,303691.64,7418645.63
"235512",235512,1988,10,"v","Warthog",3,-23.29,31.07,302609.87,7423061.92
"235518",235518,1988,10,"v","Warthog",3,-23.28,31.07,302595.11,7424169.39
"235524",235524,1988,10,"v","Warthog",4,-23.35,31.09,304743.61,7416444.23
"235536",235536,1988,10,"v","Warthog",3,-23.3,31.08,303647.56,7421968.05
"235544",235544,1988,10,"v","Warthog",2,-23.3,31.09,304670.49,7421981.58
"235549",235549,1988,10,"v","Warthog",1,-23.35,31.11,306788.69,7416471.12
"235582",235582,1988,10,"v","Warthog",2,-23.31,31.12,307753.65,7420914.28
"235586",235586,1988,10,"v","Warthog",4,-23.34,31.12,307796.82,7417591.92
"235598",235598,1988,10,"v","Warthog",1,-23.3,31.13,308762.18,7422034.98
"235604",235604,1988,10,"v","Warthog",2,-23.33,31.14,309827.79,7418725.82
"235615",235615,1988,10,"v","Warthog",3,-23.31,31.16,311844.98,7420966.86
"235617",235617,1988,10,"v","Warthog",3,-23.3,31.15,310808,7422061.26
"235620",235620,1988,10,"v","Warthog",4,-23.35,31.17,312923.85,7416550.09
"235645",235645,1988,10,"v","Warthog",2,-23.33,31.2,315963.8,7418803.46
"235694",235694,1988,10,"v","Warthog",2,-23.45,31.06,301824.94,7405328.46
"235713",235713,1988,10,"v","Warthog",4,-23.43,31.05,300773.15,7407529.65
"235728",235728,1988,10,"v","Warthog",1,-23.39,31.04,299690.96,7411945.79
"235729",235729,1988,10,"v","Warthog",2,-23.4,31.03,298683.83,7410824.36
"235747",235747,1988,10,"v","Warthog",1,-23.44,31.07,302831.87,7406449.69
"235749",235749,1988,10,"v","Warthog",2,-23.46,31.08,303883.28,7404248.38
"235759",235759,1988,10,"v","Warthog",4,-23.45,31.08,303868.51,7405355.86
"235762",235762,1988,10,"v","Warthog",5,-23.43,31.07,302817.03,7407557.18
"235810",235810,1988,10,"v","Warthog",1,-23.42,31.08,303824.21,7408678.32
"235823",235823,1988,10,"v","Warthog",2,-23.44,31.11,306919.29,7406503.91
"235828",235828,1988,10,"v","Warthog",3,-23.42,31.1,305868.23,7408705.42
"235838",235838,1988,10,"v","Warthog",1,-23.39,31.08,303779.97,7412000.77
"235856",235856,1988,10,"v","Warthog",5,-23.41,31.11,306875.71,7409826.33
"235869",235869,1988,10,"v","Warthog",1,-23.38,31.11,306832.17,7413148.73
"235872",235872,1988,10,"v","Warthog",2,-23.39,31.11,306846.68,7412041.26
"235884",235884,1988,10,"v","Warthog",4,-23.43,31.14,309970.51,7407651.29
"235896",235896,1988,10,"v","Warthog",2,-23.36,31.11,306803.18,7415363.66
"235897",235897,1988,10,"v","Warthog",3,-23.37,31.11,306817.67,7414256.2
"235954",235954,1988,10,"v","Warthog",1,-23.42,31.19,315066.1,7408823.82
"235976",235976,1988,10,"v","Warthog",1,-23.41,31.2,316074.24,7409944.05
"236005",236005,1988,10,"v","Warthog",1,-23.36,31.2,316005.17,7415481.19
"236051",236051,1988,11,"v","Warthog",1,-23.38,31.27,323188.59,7413353.84
"236116",236116,1988,11,"v","Warthog",2,-23.36,31.22,318050.01,7415506.53
"236126",236126,1988,11,"v","Warthog",2,-23.35,31.27,323148.8,7416676.03
"236179",236179,1988,11,"v","Warthog",1,-23.27,31.3,326112.17,7425571.46
"236193",236193,1988,11,"v","Warthog",2,-23.26,31.3,326099.18,7426678.83
"236194",236194,1988,11,"v","Warthog",2,-23.26,31.31,327122.34,7426690.79
"236200",236200,1988,11,"v","Warthog",2,-23.26,31.26,322006.54,7426630.3
"236202",236202,1988,11,"v","Warthog",3,-23.26,31.24,319960.19,7426605.61
"236203",236203,1988,11,"v","Warthog",4,-23.26,31.24,319960.19,7426605.61
"236208",236208,1988,11,"v","Warthog",2,-23.26,31.21,316890.65,7426568.04
"236210",236210,1988,11,"v","Warthog",4,-23.26,31.21,316890.65,7426568.04
"236232",236232,1988,11,"v","Warthog",2,-23.25,31.28,324039.74,7427762.08
"236296",236296,1988,11,"v","Warthog",2,-23.19,31.31,327032.15,7434442.33
"236319",236319,1988,12,"v","Warthog",1,-23.22,31.06,301483.17,7430800.56
"236325",236325,1988,12,"v","Warthog",6,-23.22,31.06,301483.17,7430800.56
"236355",236355,1988,12,"v","Warthog",1,-23.27,31.05,300534.02,7425249.48
"236357",236357,1988,12,"v","Warthog",4,-23.26,31.06,301542.38,7426370.68
"236408",236408,1988,12,"v","Warthog",2,-23.24,31.05,300489.36,7428571.91
"236410",236410,1988,12,"v","Warthog",2,-23.23,31.05,300474.49,7429679.39
"236450",236450,1988,12,"v","Warthog",1,-23.28,31.04,299525.82,7424128.2
"236463",236463,1988,12,"v","Warthog",5,-23.18,31.04,299376.34,7435202.98
"236503",236503,1988,12,"v","Warthog",1,-23.2,31.04,299406.18,7432988.04
"236510",236510,1988,12,"v","Warthog",2,-23.18,31.03,298352.47,7435189.16
"236566",236566,1988,12,"v","Warthog",2,-23.22,31.03,298412.49,7430759.24
"236607",236607,1988,12,"v","Warthog",2,-23.28,31.02,297479.61,7424100.38
"236615",236615,1988,12,"v","Warthog",6,-23.23,31.02,297404.02,7429637.84
"236658",236658,1988,12,"v","Warthog",1,-23.26,31.02,297449.35,7426315.37
"236722",236722,1988,12,"v","Warthog",1,-23.28,31,295433.37,7424072.28
"236781",236781,1988,12,"v","Warthog",2,-23.24,30.99,294348.85,7428488.15
"236851",236851,1988,12,"v","Warthog",3,-23.16,30.97,292178.27,7437319.72
"236854",236854,1988,12,"v","Warthog",4,-23.17,30.97,292193.71,7436212.22
"236857",236857,1988,12,"v","Warthog",2,-23.17,30.97,292193.71,7436212.22
"236918",236918,1988,13,"v","Warthog",6,-23.65,31.47,343951.41,7383686.51
"236919",236919,1988,13,"v","Warthog",3,-23.65,31.49,345991.59,7383708.23
"236944",236944,1988,13,"v","Warthog",1,-23.71,31.5,347081.55,7377074.87
"236966",236966,1988,13,"v","Warthog",2,-23.72,31.53,350151.81,7375999.41
"236980",236980,1988,13,"v","Warthog",6,-23.72,31.52,349132.28,7375988.85
"237133",237133,1988,13,"v","Warthog",1,-23.68,31.63,360304.35,7380530.32
"237160",237160,1988,13,"v","Warthog",2,-23.7,31.61,358286.32,7378295.95
"237182",237182,1988,13,"v","Warthog",6,-23.72,31.61,358307.93,7376081.31
"237276",237276,1988,13,"v","Warthog",5,-23.78,31.6,357353.82,7369427.35
"237305",237305,1988,13,"v","Warthog",6,-23.8,31.58,355337.88,7367192.45
"237342",237342,1988,13,"v","Warthog",3,-23.82,31.6,357397.51,7364998.02
"237361",237361,1988,13,"v","Warthog",6,-23.83,31.6,357408.44,7363890.68
"237382",237382,1988,13,"v","Warthog",4,-23.85,31.59,356411.82,7361665.9
"237389",237389,1988,14,"v","Warthog",4,-23.44,31.52,348811.82,7406994.14
"237414",237414,1988,14,"v","Warthog",1,-23.52,31.5,346860.85,7398114.39
"237433",237433,1988,14,"v","Warthog",1,-23.56,31.57,354052.54,7393758.1
"237446",237446,1988,14,"v","Warthog",3,-23.43,31.37,333473.45,7407936.01
"237486",237486,1988,14,"v","Warthog",1,-23.46,31.38,334532.66,7404625.44
"237487",237487,1988,14,"v","Warthog",1,-23.46,31.37,333511.06,7404613.9
"237498",237498,1988,14,"v","Warthog",2,-23.47,31.44,340674.15,7403585.83
"237544",237544,1988,14,"v","Warthog",1,-23.54,31.45,341779.29,7395845.45
"237603",237603,1988,15,"v","Warthog",1,-23.28,31.35,331240.11,7424523.2
"237619",237619,1988,15,"v","Warthog",3,-23.31,31.32,328209.68,7421165.84
"237645",237645,1988,15,"v","Warthog",1,-23.37,31.36,332376.07,7414568.61
"237751",237751,1988,15,"v","Warthog",5,-23.41,31.36,332426.42,7410139.15
"237763",237763,1988,15,"v","Warthog",1,-23.3,31.5,346607.4,7422475.35
"237803",237803,1988,15,"v","Warthog",2,-23.32,31.5,346630.34,7420260.74
"237986",237986,1988,15,"v","Warthog",5,-23.15,31.38,334148.56,7438953.17
"238065",238065,1988,15,"v","Warthog",4,-23.15,31.45,341316.23,7439031.14
"238203",238203,1988,15,"v","Warthog",3,-23.22,31.45,341398.8,7431280.01
"238274",238274,1988,15,"v","Warthog",1,-23.23,31.46,342433.94,7430183.59
"238284",238284,1988,15,"v","Warthog",1,-23.22,31.46,342422.21,7431290.89
"238329",238329,1988,15,"v","Warthog",4,-23.27,31.49,345550,7425786.63
"238419",238419,1988,19,"v","Warthog",4,-23.77,31.7,367533.94,7370631.49
"238426",238426,1988,19,"v","Warthog",4,-23.73,31.68,365454.65,7375041.91
"238429",238429,1988,19,"v","Warthog",4,-23.75,31.71,368532.93,7372855.37
"238489",238489,1988,19,"v","Warthog",3,-23.91,31.75,372766.07,7355175.07
"238651",238651,1988,19,"v","Warthog",4,-23.94,31.75,372795.46,7351853.15
"238663",238663,1988,19,"v","Warthog",1,-23.86,31.64,361514.89,7360608.35
"238690",238690,1988,19,"v","Warthog",3,-23.85,31.65,362522.74,7361725.42
"238737",238737,1988,19,"v","Warthog",2,-23.85,31.69,366596.63,7361763.67
"238756",238756,1988,20,"v","Warthog",2,-24.12,31.26,323168.99,7331390.21
"238825",238825,1988,20,"v","Warthog",1,-24.11,31.32,329254.53,7332572.09
"238876",238876,1988,20,"v","Warthog",6,-24.09,31.37,334311.44,7334846.98
"238966",238966,1988,20,"v","Warthog",1,-24.11,31.39,336370.21,7332655.56
"239267",239267,1988,20,"v","Warthog",1,-24.03,31.57,354576.73,7341712.94
"239318",239318,1988,20,"v","Warthog",2,-24.02,31.62,359651.28,7342871.09
"239356",239356,1988,20,"v","Warthog",2,-24.08,31.65,362766.53,7336256.57
"239366",239366,1988,20,"v","Warthog",1,-24.06,31.64,361728.41,7338461.47
"239417",239417,1988,21,"v","Warthog",1,-24.13,31.48,345542.72,7330542.83
"239427",239427,1988,21,"v","Warthog",2,-24.14,31.49,346570.98,7329446.4
"239640",239640,1988,21,"v","Warthog",2,-24.23,31.62,359880.25,7319616.26
"239654",239654,1988,21,"v","Warthog",2,-24.22,31.6,357838.16,7320703.43
"239657",239657,1988,21,"v","Warthog",1,-24.23,31.63,360895.74,7319626.27
"239733",239733,1988,22,"v","Warthog",1,-24.34,31.43,340722.7,7307230.33
"239743",239743,1988,22,"v","Warthog",1,-24.34,31.46,343766.7,7307264.39
"239754",239754,1988,22,"v","Warthog",1,-24.34,31.41,338693.34,7307207.26
"239771",239771,1988,22,"v","Warthog",1,-24.32,31.44,341712.52,7309456.68
"239778",239778,1988,22,"v","Warthog",5,-24.32,31.42,339682.85,7309433.77
"239805",239805,1988,22,"v","Warthog",2,-24.31,31.51,348804.39,7310642
"239819",239819,1988,22,"v","Warthog",1,-24.31,31.48,345759.71,7310609.07
"239866",239866,1988,22,"v","Warthog",2,-24.25,31.5,347717.95,7317275.69
"239916",239916,1988,22,"v","Warthog",4,-24.28,31.56,353844.43,7314017.67
"239933",239933,1988,22,"v","Warthog",3,-24.26,31.58,355852.08,7316253.32
"239946",239946,1988,22,"v","Warthog",6,-24.35,31.39,336676.81,7306076.42
"239947",239947,1988,22,"v","Warthog",6,-24.35,31.39,336676.81,7306076.42
"239948",239948,1988,22,"v","Warthog",2,-24.35,31.4,337691.41,7306088.14
"239962",239962,1988,22,"v","Warthog",2,-24.36,31.44,341762.24,7305026.83
"239964",239964,1988,22,"v","Warthog",10,-24.36,31.41,338718.69,7304992.31
"239965",239965,1988,22,"v","Warthog",2,-24.36,31.41,338718.69,7304992.31
"239994",239994,1988,22,"v","Warthog",5,-24.36,31.39,336689.64,7304968.94
"239995",239995,1988,22,"v","Warthog",3,-24.36,31.39,336689.64,7304968.94
"240007",240007,1988,22,"v","Warthog",1,-24.37,31.41,338731.37,7303884.84
"240009",240009,1988,22,"v","Warthog",1,-24.37,31.42,339745.81,7303896.42
"240018",240018,1988,22,"v","Warthog",4,-24.37,31.46,343803.54,7303942.02
"240025",240025,1988,22,"v","Warthog",2,-24.37,31.41,338731.37,7303884.84
"240027",240027,1988,22,"v","Warthog",1,-24.37,31.42,339745.81,7303896.42
"240043",240043,1988,22,"v","Warthog",3,-24.38,31.44,341787.13,7302811.9
"240063",240063,1988,22,"v","Warthog",1,-24.39,31.45,342813.85,7301715.8
"240069",240069,1988,22,"v","Warthog",1,-24.39,31.44,341799.58,7301704.43
"240070",240070,1988,22,"v","Warthog",4,-24.39,31.43,340785.31,7301692.99
"240084",240084,1988,22,"v","Warthog",3,-24.4,31.45,342826.23,7300608.34
"240086",240086,1988,22,"v","Warthog",4,-24.4,31.45,342826.23,7300608.34
"240087",240087,1988,22,"v","Warthog",16,-24.4,31.46,343840.42,7300619.64
"240096",240096,1988,22,"v","Warthog",5,-24.4,31.39,336741.04,7300539
"240115",240115,1988,22,"v","Warthog",5,-24.41,31.43,340810.39,7299478.04
"240137",240137,1988,22,"v","Warthog",3,-24.42,31.37,334738.67,7298300.31
"240155",240155,1988,22,"v","Warthog",6,-24.42,31.45,342851,7298393.4
"240174",240174,1988,22,"v","Warthog",1,-24.43,31.44,341849.44,7297274.55
"240177",240177,1988,22,"v","Warthog",2,-24.43,31.43,340835.49,7297263.09
"240178",240178,1988,22,"v","Warthog",4,-24.43,31.43,340835.49,7297263.09
"240184",240184,1988,22,"v","Warthog",1,-24.45,31.4,337819.21,7295013.3
"240185",240185,1988,22,"v","Warthog",3,-24.45,31.41,338833.01,7295024.99
"240187",240187,1988,22,"v","Warthog",2,-24.45,31.41,338833.01,7295024.99
"240189",240189,1988,22,"v","Warthog",2,-24.45,31.41,338833.01,7295024.99
"240193",240193,1988,22,"v","Warthog",2,-24.44,31.42,339834.17,7296144.08
"240197",240197,1988,22,"v","Warthog",2,-24.44,31.44,341861.92,7296167.07
"240200",240200,1988,22,"v","Warthog",5,-24.44,31.44,341861.92,7296167.07
"240214",240214,1988,22,"v","Warthog",8,-24.45,31.43,340860.6,7295048.13
"240216",240216,1988,22,"v","Warthog",1,-24.45,31.43,340860.6,7295048.13
"240230",240230,1988,22,"v","Warthog",3,-24.46,31.39,336818.29,7293894.05
"240231",240231,1988,22,"v","Warthog",5,-24.47,31.39,336831.18,7292786.55
"240232",240232,1988,22,"v","Warthog",3,-24.47,31.39,336831.18,7292786.55
"240242",240242,1988,22,"v","Warthog",10,-24.46,31.41,338845.74,7293917.5
"240246",240246,1988,22,"v","Warthog",2,-24.45,31.43,340860.6,7295048.13
"240250",240250,1988,22,"v","Warthog",3,-24.45,31.45,342888.19,7295070.99
"240276",240276,1988,22,"v","Warthog",2,-24.48,31.41,338871.2,7291702.52
"240308",240308,1988,22,"v","Warthog",1,-24.46,31.46,343914.3,7293974.84
"240309",240309,1988,22,"v","Warthog",2,-24.46,31.46,343914.3,7293974.84
"240310",240310,1988,22,"v","Warthog",1,-24.45,31.46,343901.97,7295082.31
"240336",240336,1988,22,"v","Warthog",2,-24.38,31.46,343815.83,7302834.56
"240360",240360,1988,22,"v","Warthog",2,-24.42,31.47,344879.05,7298415.94
"240382",240382,1988,22,"v","Warthog",3,-24.45,31.49,346943.32,7295115.82
"240390",240390,1988,22,"v","Warthog",3,-24.45,31.49,346943.32,7295115.82
"240402",240402,1988,22,"v","Warthog",1,-24.44,31.48,345917.38,7296212.18
"240538",240538,1988,22,"v","Warthog",1,-24.37,31.5,347861.21,7303986.45
"240551",240551,1988,22,"v","Warthog",3,-24.41,31.52,349937.29,7299578.46
"240552",240552,1988,22,"v","Warthog",9,-24.41,31.52,349937.29,7299578.46
"240556",240556,1988,22,"v","Warthog",5,-24.43,31.52,349960.95,7297363.57
"240557",240557,1988,22,"v","Warthog",2,-24.43,31.52,349960.95,7297363.57
"240559",240559,1988,22,"v","Warthog",11,-24.43,31.53,350974.88,7297374.37
"240587",240587,1988,22,"v","Warthog",8,-24.36,31.51,348863.74,7305104.81
"240593",240593,1988,22,"v","Warthog",2,-24.35,31.5,347837.29,7306201.33
"240596",240596,1988,22,"v","Warthog",2,-24.35,31.5,347837.29,7306201.33
"240599",240599,1988,22,"v","Warthog",2,-24.35,31.51,348851.86,7306212.25
"240633",240633,1988,22,"v","Warthog",1,-24.42,31.54,351977.13,7298492.53
"240684",240684,1988,22,"v","Warthog",3,-24.36,31.52,349878.23,7305115.66
"240737",240737,1988,22,"v","Warthog",3,-24.36,31.55,352921.67,7305147.76
"240785",240785,1988,22,"v","Warthog",1,-24.35,31.57,354939.22,7306276.22
"240912",240912,1988,23,"v","Warthog",1,-24.1,31.65,362787.83,7334041.85
"240963",240963,1988,23,"v","Warthog",1,-24.1,31.66,363804.35,7334051.6
"240993",240993,1988,23,"v","Warthog",1,-24.11,31.71,368897.04,7332991.89
"241032",241032,1988,23,"v","Warthog",3,-24.12,31.67,364841.86,7331846.56
"241083",241083,1988,23,"v","Warthog",2,-24.13,31.7,367901.16,7330767.81
"241290",241290,1988,23,"v","Warthog",4,-24.2,31.7,367973.17,7323016.33
"241291",241291,1988,23,"v","Warthog",2,-24.2,31.69,366957.47,7323006.85
"241430",241430,1988,23,"v","Warthog",2,-24.25,31.67,364978.79,7317450.81
"241433",241433,1988,23,"v","Warthog",3,-24.25,31.72,370055.35,7317498.3
"241448",241448,1988,23,"v","Warthog",3,-24.25,31.68,365994.1,7317460.45
"241496",241496,1988,24,"v","Warthog",3,-24.38,31.58,355987.75,7302964.37
"241608",241608,1988,24,"v","Warthog",3,-24.33,31.68,366078.08,7308601.44
"241634",241634,1988,24,"v","Warthog",3,-24.32,31.58,355919.83,7309608.87
"241672",241672,1988,24,"v","Warthog",3,-24.31,31.61,358953.12,7310747.02
"241747",241747,1988,24,"v","Warthog",2,-24.27,31.63,360939.25,7315196.72
"241757",241757,1988,24,"v","Warthog",3,-24.27,31.64,361954.42,7315206.66
"241782",241782,1988,24,"v","Warthog",4,-24.26,31.62,359913.12,7316294.1
"241788",241788,1988,24,"v","Warthog",3,-24.26,31.64,361943.62,7316314.05
"241848",241848,1988,24,"v","Warthog",8,-24.28,31.66,363995.4,7314118.95
"241889",241889,1988,24,"v","Warthog",1,-24.32,31.74,372156.07,7309765.28
"241894",241894,1988,24,"v","Warthog",2,-24.32,31.71,369111.83,7309737.38
"241896",241896,1988,24,"v","Warthog",4,-24.32,31.7,368097.08,7309727.93
"241918",241918,1988,24,"v","Warthog",1,-24.34,31.7,368117.78,7307513.18
"241937",241937,1988,24,"v","Warthog",1,-24.37,31.75,373220.62,7304237.61
"242285",242285,1988,25,"v","Warthog",2,-23.98,31.83,380974.08,7347493.78
"242289",242289,1988,25,"v","Warthog",2,-24,31.82,379975.21,7345270.71
"242339",242339,1988,25,"v","Warthog",1,-24.11,31.82,380077.48,7333090.35
"242344",242344,1988,25,"v","Warthog",4,-24.1,31.82,380068.16,7334197.66
"242367",242367,1988,25,"v","Warthog",1,-24.09,31.82,380058.85,7335304.97
"242369",242369,1988,25,"v","Warthog",5,-24.1,31.82,380068.16,7334197.66
"242375",242375,1988,25,"v","Warthog",2,-24.13,31.83,381112.35,7330884.24
"242400",242400,1988,25,"v","Warthog",5,-24.06,31.81,379014.15,7338618.32
"242409",242409,1988,25,"v","Warthog",2,-24.08,31.81,379032.91,7336403.7
"242539",242539,1988,25,"v","Warthog",1,-24.08,31.78,375983.02,7336377.53
"242570",242570,1988,25,"v","Warthog",2,-24.06,31.76,373930.19,7338574.36
"242790",242790,1988,25,"v","Warthog",1,-24.16,31.75,373012.09,7327492.03
"242937",242937,1988,25,"v","Warthog",2,-24.13,31.81,379079.89,7330867.13
"242953",242953,1988,25,"v","Warthog",5,-24.11,31.81,379061.09,7333081.76
"242960",242960,1988,26,"v","Warthog",2,-24.17,31.81,379117.53,7326437.85
"242982",242982,1988,26,"v","Warthog",5,-24.2,31.77,375083.06,7323080.69
"242985",242985,1988,26,"v","Warthog",1,-24.2,31.76,374067.37,7323071.72
"242986",242986,1988,26,"v","Warthog",2,-24.2,31.76,374067.37,7323071.72
"243005",243005,1988,26,"v","Warthog",5,-24.21,31.83,381186.42,7322025.7
"243017",243017,1988,26,"v","Warthog",2,-24.22,31.77,375102.56,7320866.01
"243027",243027,1988,26,"v","Warthog",3,-24.22,31.83,381195.7,7320918.37
"243031",243031,1988,26,"v","Warthog",1,-24.23,31.82,380189.54,7319802.5
"243033",243033,1988,26,"v","Warthog",4,-24.23,31.79,377143.21,7319776.42
"243044",243044,1988,26,"v","Warthog",4,-24.24,31.76,374106.7,7318642.34
"243048",243048,1988,26,"v","Warthog",2,-24.25,31.75,373101.25,7317525.93
"243056",243056,1988,26,"v","Warthog",2,-24.27,31.75,373121.11,7315311.22
"243122",243122,1988,26,"v","Warthog",4,-24.32,31.77,375200.29,7309792.53
"243139",243139,1988,26,"v","Warthog",5,-24.26,31.84,382248.04,7316497.54
"243284",243284,1988,26,"v","Warthog",5,-24.32,31.87,385347.52,7309878.61
"243324",243324,1988,26,"v","Warthog",1,-24.34,31.88,386380.07,7307672.16
"243326",243326,1988,26,"v","Warthog",1,-24.33,31.88,386371.15,7308779.48
"243370",243370,1988,26,"v","Warthog",2,-24.36,31.87,385383.53,7305449.28
"243407",243407,1988,26,"v","Warthog",4,-24.38,31.86,384387.32,7303226.31
"243413",243413,1988,26,"v","Warthog",1,-24.38,31.87,385401.55,7303234.61
"243414",243414,1988,26,"v","Warthog",2,-24.38,31.87,385401.55,7303234.61
"243450",243450,1988,26,"v","Warthog",6,-24.4,31.94,392518.05,7301075.98
"243710",243710,1988,27,"v","Warthog",1,-24.38,31.95,393515.34,7303298.33
"243785",243785,1988,27,"v","Warthog",2,-24.37,31.94,392492.67,7304397.94
"243817",243817,1988,27,"v","Warthog",4,-24.33,31.92,390429.65,7308811.59
"243827",243827,1988,27,"v","Warthog",1,-24.36,31.93,391469.84,7305497.48
"243872",243872,1988,27,"v","Warthog",5,-24.31,31.9,388382.89,7311010.33
"243964",243964,1988,27,"v","Warthog",1,-24.24,31.92,390352.38,7318777.39
"243967",243967,1988,27,"v","Warthog",7,-24.26,31.93,391384.7,7316570.61
"243972",243972,1988,27,"v","Warthog",1,-24.29,31.95,393440.08,7313264.13
"244018",244018,1988,27,"v","Warthog",3,-24.29,31.93,391410.21,7313248.68
"244022",244022,1988,27,"v","Warthog",3,-24.28,31.92,390386.69,7314348.16
"244024",244024,1988,27,"v","Warthog",1,-24.27,31.91,389363.01,7315447.57
"244083",244083,1988,27,"v","Warthog",2,-24.27,31.89,387332.8,7315431.55
"244093",244093,1988,27,"v","Warthog",1,-24.24,31.87,385275.67,7318737.19
"244099",244099,1988,27,"v","Warthog",2,-24.22,31.85,383226.73,7320935.24
"244114",244114,1988,27,"v","Warthog",5,-24.26,31.88,386308.8,7316530.74
"244149",244149,1988,27,"v","Warthog",3,-24.28,31.88,386326.6,7314316.11
"244183",244183,1988,28,"v","Warthog",2,-24.44,31.78,376331.84,7296513.13
"244226",244226,1988,28,"v","Warthog",1,-24.46,31.8,378378.58,7294316.12
"244272",244272,1988,28,"v","Warthog",1,-24.47,31.83,381428.77,7293234.81
"244324",244324,1988,28,"v","Warthog",1,-24.39,31.85,383382.26,7302110.6
"244342",244342,1988,28,"v","Warthog",1,-24.46,31.87,385473.79,7294375.86
"244344",244344,1988,28,"v","Warthog",2,-24.49,31.87,385500.94,7291053.81
"244377",244377,1988,28,"v","Warthog",2,-24.42,31.89,387465.47,7298821.64
"244414",244414,1988,28,"v","Warthog",2,-24.39,31.89,387438.87,7302143.64
"244419",244419,1988,28,"v","Warthog",3,-24.41,31.91,389484.57,7299945.07
"244426",244426,1988,28,"v","Warthog",4,-24.45,31.92,390533.09,7295523.67
"244510",244510,1988,28,"v","Warthog",1,-24.43,31.94,392543.46,7297754
"244519",244519,1988,28,"v","Warthog",6,-24.49,31.96,394621.03,7291125.41
"244533",244533,1988,28,"v","Warthog",2,-24.44,31.95,393565.67,7296654.4
"244549",244549,1988,28,"v","Warthog",5,-24.44,31.96,394579.4,7296662.05
"244576",244576,1988,28,"v","Warthog",2,-24.57,31.87,385573.49,7282194.94
"244585",244585,1988,28,"v","Warthog",2,-24.55,31.88,386568.2,7284417.93
"244594",244594,1988,28,"v","Warthog",3,-24.52,31.87,385528.12,7287731.75
"244600",244600,1988,28,"v","Warthog",2,-24.55,31.89,387581.07,7284426.12
"244603",244603,1988,28,"v","Warthog",1,-24.57,31.89,387598.9,7282211.41
"244606",244606,1988,28,"v","Warthog",1,-24.59,31.91,389641.84,7280012.87
"244648",244648,1988,28,"v","Warthog",2,-24.62,31.94,392705.04,7276714.53
"244651",244651,1988,28,"v","Warthog",7,-24.61,31.94,392696.51,7277821.88
"244653",244653,1988,28,"v","Warthog",2,-24.6,31.93,391675.52,7278921.4
"244657",244657,1988,28,"v","Warthog",1,-24.58,31.93,391658.31,7281136.11
"244695",244695,1988,28,"v","Warthog",3,-24.57,31.93,391649.71,7282243.46
"244717",244717,1988,28,"v","Warthog",2,-24.57,31.94,392662.41,7282251.28
"244745",244745,1988,28,"v","Warthog",2,-24.51,31.93,391598.17,7288887.53
"244746",244746,1988,28,"v","Warthog",1,-24.52,31.93,391606.75,7287780.19
"244770",244770,1988,28,"v","Warthog",1,-24.53,31.95,393641.37,7286688.41
"244865",244865,1988,29,"v","Warthog",1,-24.49,31.76,374353.92,7290958.23
"244867",244867,1988,29,"v","Warthog",1,-24.5,31.76,374363.86,7289850.85
"244943",244943,1988,29,"v","Warthog",2,-24.53,31.78,376419.81,7286546.75
"244947",244947,1988,29,"v","Warthog",1,-24.53,31.77,375406.75,7286537.76
"244949",244949,1988,29,"v","Warthog",1,-24.53,31.76,374393.69,7286528.69
"244950",244950,1988,29,"v","Warthog",1,-24.53,31.76,374393.69,7286528.69
"244959",244959,1988,29,"v","Warthog",1,-24.55,31.8,378465.18,7284349.76
"244972",244972,1988,29,"v","Warthog",3,-24.56,31.8,378474.81,7283242.38
"244978",244978,1988,29,"v","Warthog",4,-24.55,31.78,376439.39,7284331.99
"244979",244979,1988,29,"v","Warthog",5,-24.56,31.78,376449.19,7283224.6
"244984",244984,1988,29,"v","Warthog",1,-24.57,31.78,376459,7282117.21
"244990",244990,1988,29,"v","Warthog",4,-24.57,31.81,379497.18,7282143.79
"244994",244994,1988,29,"v","Warthog",1,-24.57,31.84,382535.35,7282169.7
"245001",245001,1988,29,"v","Warthog",2,-24.58,31.85,383557.31,7281070.82
"245004",245004,1988,29,"v","Warthog",3,-24.58,31.84,382544.67,7281062.32
"245012",245012,1988,29,"v","Warthog",1,-24.58,31.81,379506.75,7281036.41
"245022",245022,1988,29,"v","Warthog",2,-24.58,31.78,376468.81,7281009.82
"245025",245025,1988,29,"v","Warthog",5,-24.58,31.78,376468.81,7281009.82
"245030",245030,1988,29,"v","Warthog",4,-24.59,31.8,378503.76,7279920.23
"245031",245031,1988,29,"v","Warthog",2,-24.59,31.8,378503.76,7279920.23
"245036",245036,1988,29,"v","Warthog",4,-24.59,31.84,382554,7279954.95
"245041",245041,1988,29,"v","Warthog",2,-24.6,31.82,380538.38,7278830.36
"245086",245086,1988,29,"v","Warthog",1,-24.63,31.79,377530.15,7275481.81
"245101",245101,1988,29,"v","Warthog",24,-24.64,31.82,380576.39,7274400.82
"245102",245102,1988,29,"v","Warthog",15,-24.64,31.82,380576.39,7274400.82
"245106",245106,1988,29,"v","Warthog",2,-24.63,31.85,383603.59,7275533.95
"245107",245107,1988,29,"v","Warthog",2,-24.63,31.86,384615.82,7275542.38
"245119",245119,1988,29,"v","Warthog",1,-24.65,31.81,379573.82,7273284.7
"245125",245125,1988,29,"v","Warthog",2,-24.66,31.79,377559.41,7272159.62
"245128",245128,1988,29,"v","Warthog",4,-24.66,31.81,379583.41,7272177.31
"245137",245137,1988,29,"v","Warthog",3,-24.66,31.85,383631.39,7272211.81
"245138",245138,1988,29,"v","Warthog",1,-24.66,31.86,384643.38,7272220.25
"245147",245147,1988,29,"v","Warthog",2,-24.67,31.8,378581.09,7271061.11
"245153",245153,1988,29,"v","Warthog",3,-24.67,31.83,381616.85,7271087.32
"245154",245154,1988,29,"v","Warthog",4,-24.67,31.84,382628.76,7271095.91
"245165",245165,1988,29,"v","Warthog",4,-24.65,31.91,389694.5,7273368.7
"245181",245181,1988,29,"v","Warthog",2,-24.69,31.83,381635.73,7268872.54
"245182",245182,1988,29,"v","Warthog",1,-24.68,31.86,384661.78,7270005.48
"245184",245184,1988,29,"v","Warthog",2,-24.68,31.88,386685.43,7270022.15
"245186",245186,1988,29,"v","Warthog",1,-24.69,31.88,386694.47,7268914.77
"245195",245195,1988,29,"v","Warthog",1,-24.7,31.82,380633.51,7267756.48
"245215",245215,1988,29,"v","Warthog",2,-24.7,31.9,388726.83,7267823.78
"245216",245216,1988,29,"v","Warthog",3,-24.7,31.89,387715.17,7267815.62
"245218",245218,1988,29,"v","Warthog",2,-24.72,31.87,385710.11,7265584.32
"245224",245224,1988,29,"v","Warthog",2,-24.73,31.88,386730.67,7264485.25
"245229",245229,1988,29,"v","Warthog",4,-24.73,31.89,387742.08,7264493.48
"245232",245232,1988,29,"v","Warthog",4,-24.74,31.88,386739.73,7263377.86
"245241",245241,1988,29,"v","Warthog",1,-24.77,31.87,385755.83,7260047.38
"245244",245244,1988,29,"v","Warthog",1,-24.78,31.87,385764.98,7258939.99
"245247",245247,1988,29,"v","Warthog",1,-24.78,31.87,385764.98,7258939.99
"245283",245283,1988,30,"v","Warthog",1,-24.72,31.98,396836.49,7265671.63
"245284",245284,1988,30,"v","Warthog",1,-24.72,31.98,396836.49,7265671.63
"245285",245285,1988,30,"v","Warthog",1,-24.73,31.98,396844.73,7264564.27
"245313",245313,1988,30,"v","Warthog",1,-24.7,31.96,394796.72,7267871.15
"245365",245365,1988,30,"v","Warthog",1,-24.7,31.96,394796.72,7267871.15
"245451",245451,1988,30,"v","Warthog",3,-24.72,31.91,389756.1,7265617.11
"245633",245633,1988,30,"v","Warthog",3,-24.61,31.98,396745.99,7277852.5
"245638",245638,1988,30,"v","Warthog",3,-24.66,31.98,396787.08,7272315.76
"245642",245642,1988,30,"v","Warthog",3,-24.63,31.97,395750.21,7275630.26
"245710",245710,1988,30,"v","Warthog",4,-24.64,31.94,392722.12,7274499.82
"245717",245717,1988,31,"v","Warthog",1,-24.4,31.61,359052.85,7300780.36
"245812",245812,1988,31,"v","Warthog",1,-24.43,31.65,363141.75,7297498.23
"245823",245823,1988,31,"v","Warthog",1,-24.47,31.66,364198.53,7293078.45
"245827",245827,1988,31,"v","Warthog",4,-24.47,31.67,365212.09,7293088.23
"245828",245828,1988,31,"v","Warthog",3,-24.46,31.67,365201.44,7294195.64
"245864",245864,1988,31,"v","Warthog",1,-24.48,31.68,366236.22,7291990.54
"245868",245868,1988,31,"v","Warthog",1,-24.47,31.67,365212.09,7293088.23
"245891",245891,1988,31,"v","Warthog",2,-24.45,31.68,366204.52,7295312.75
"245979",245979,1988,31,"v","Warthog",4,-24.48,31.72,370290.12,7292028.66
"246048",246048,1988,31,"v","Warthog",1,-24.44,31.73,371262.93,7296467.55
"246050",246050,1988,31,"v","Warthog",4,-24.43,31.73,371252.78,7297574.94
"246070",246070,1988,31,"v","Warthog",2,-24.45,31.74,372286.8,7295369.44
"246086",246086,1988,31,"v","Warthog",2,-24.44,31.76,374304.28,7296495.12
"246109",246109,1988,31,"v","Warthog",2,-24.41,31.77,375288.57,7299826.27
"246113",246113,1988,31,"v","Warthog",4,-24.43,31.78,376322.08,7297620.5
"246174",246174,1988,31,"v","Warthog",2,-24.6,31.74,372438.45,7278758.55
"246201",246201,1988,31,"v","Warthog",1,-24.61,31.76,374473.43,7277669.55
"246207",246207,1988,31,"v","Warthog",3,-24.55,31.75,373400.71,7284304.77
"246222",246222,1988,31,"v","Warthog",6,-24.53,31.75,373380.63,7286519.55
"246227",246227,1988,31,"v","Warthog",4,-24.55,31.76,374413.6,7284313.91
"246254",246254,1988,31,"v","Warthog",8,-24.52,31.76,374383.74,7287636.08
"246258",246258,1988,31,"v","Warthog",3,-24.57,31.77,375446.27,7282108.21
"246266",246266,1988,31,"v","Warthog",4,-24.49,31.76,374353.92,7290958.23
"246267",246267,1988,31,"v","Warthog",1,-24.48,31.76,374343.98,7292065.61
"246291",246291,1988,31,"v","Warthog",3,-24.5,31.7,368284.01,7289794.95
"246314",246314,1988,31,"v","Warthog",2,-24.58,31.7,368367.51,7280935.71
"246327",246327,1988,31,"v","Warthog",5,-24.53,31.69,367302.22,7286463.16
"246358",246358,1988,31,"v","Warthog",1,-24.59,31.7,368377.97,7279828.29
"246359",246359,1988,31,"v","Warthog",2,-24.59,31.7,368377.97,7279828.29
"246390",246390,1988,31,"v","Warthog",1,-24.6,31.69,367375.92,7278711.28
"246412",246412,1988,31,"v","Warthog",4,-24.55,31.67,365297.42,7284228.95
"246467",246467,1988,31,"v","Warthog",3,-24.6,31.67,365350.88,7278691.85
"246471",246471,1988,31,"v","Warthog",2,-24.6,31.66,364338.36,7278682.03
"246491",246491,1988,31,"v","Warthog",1,-24.49,31.63,361179.76,7290833.82
"246492",246492,1988,31,"v","Warthog",2,-24.48,31.63,361168.79,7291941.24
"246495",246495,1988,31,"v","Warthog",4,-24.47,31.63,361157.81,7293048.66
"246526",246526,1988,31,"v","Warthog",1,-24.49,31.63,361179.76,7290833.82
"246530",246530,1988,31,"v","Warthog",5,-24.55,31.64,362258.64,7284199.31
"246532",246532,1988,31,"v","Warthog",3,-24.6,31.63,361300.79,7278652.12
"246538",246538,1988,31,"v","Warthog",4,-24.57,31.64,362280.5,7281984.45
"246543",246543,1988,32,"v","Warthog",4,-24.53,31.45,342987.57,7286211.16
"246545",246545,1988,32,"v","Warthog",4,-24.55,31.47,345038.43,7284018.82
"246549",246549,1988,32,"v","Warthog",1,-24.51,31.44,341949.39,7288414.72
"246551",246551,1988,32,"v","Warthog",1,-24.52,31.45,342975.13,7287318.65
"246595",246595,1988,32,"v","Warthog",1,-24.53,31.5,348053.26,7286267.15
"246604",246604,1988,32,"v","Warthog",1,-24.49,31.48,345978.23,7290674.86
"246610",246610,1988,32,"v","Warthog",3,-24.49,31.49,346991.68,7290685.97
"246615",246615,1988,32,"v","Warthog",1,-24.47,31.47,344940.25,7292878.62
"246632",246632,1988,32,"v","Warthog",3,-24.47,31.48,345953.87,7292889.8
"246633",246633,1988,32,"v","Warthog",3,-24.46,31.48,345941.7,7293997.26
"246678",246678,1988,32,"v","Warthog",1,-24.47,31.5,347981.1,7292911.93
"246686",246686,1988,32,"v","Warthog",1,-24.47,31.51,348994.72,7292922.89
"246704",246704,1988,32,"v","Warthog",4,-24.47,31.52,350008.32,7292933.77
"246705",246705,1988,32,"v","Warthog",1,-24.47,31.52,350008.32,7292933.77
"246724",246724,1988,32,"v","Warthog",7,-24.47,31.54,352035.53,7292955.32
"246726",246726,1988,32,"v","Warthog",2,-24.46,31.53,351010.16,7294052.03
"246727",246727,1988,32,"v","Warthog",1,-24.45,31.52,349984.63,7295148.67
"246730",246730,1988,32,"v","Warthog",5,-24.46,31.53,351010.16,7294052.03
"246752",246752,1988,32,"v","Warthog",1,-24.46,31.55,353037.52,7294073.43
"246754",246754,1988,32,"v","Warthog",3,-24.46,31.56,354051.2,7294084.01
"246808",246808,1988,32,"v","Warthog",1,-24.46,31.58,356078.54,7294104.97
"246830",246830,1988,32,"v","Warthog",4,-24.44,31.58,356055.81,7296319.83
"246932",246932,1988,32,"v","Warthog",2,-24.52,31.5,348041.22,7287374.62
"246937",246937,1988,32,"v","Warthog",2,-24.55,31.53,351116.25,7284084.95
"246941",246941,1988,32,"v","Warthog",3,-24.55,31.54,352129.21,7284095.71
"246952",246952,1988,32,"v","Warthog",4,-24.53,31.55,353118.88,7286321.31
"246958",246958,1988,32,"v","Warthog",4,-24.51,31.57,355122.16,7288557.34
"246961",246961,1988,32,"v","Warthog",2,-24.53,31.58,356158.21,7286352.92
"246963",246963,1988,32,"v","Warthog",1,-24.53,31.58,356158.21,7286352.92
"246964",246964,1988,32,"v","Warthog",3,-24.55,31.58,356181.02,7284138.03
"246965",246965,1988,32,"v","Warthog",15,-24.55,31.58,356181.02,7284138.03
"246966",246966,1988,32,"v","Warthog",1,-24.48,31.58,356101.28,7291890.1
"246976",246976,1988,32,"v","Warthog",2,-24.52,31.59,357160,7287470.74
"246985",246985,1988,32,"v","Warthog",2,-24.48,31.59,357114.79,7291900.48
"246990",246990,1988,32,"v","Warthog",1,-24.54,31.61,359208.68,7285276.43
"246991",246991,1988,32,"v","Warthog",9,-24.55,31.61,359219.84,7284169
"247005",247005,1988,32,"v","Warthog",3,-24.52,31.62,360199.54,7287501.46
"247008",247008,1988,32,"v","Warthog",2,-24.48,31.61,359141.79,7291921.01
"247010",247010,1988,32,"v","Warthog",1,-24.47,31.61,359130.66,7293028.43
"247014",247014,1988,32,"v","Warthog",3,-24.48,31.61,359141.79,7291921.01
"247048",247048,1988,32,"v","Warthog",3,-24.49,31.63,361179.76,7290833.82
"247179",247179,1988,33,"v","Warthog",2,-24.61,31.59,357261.99,7277503.76
"247183",247183,1988,33,"v","Warthog",3,-24.61,31.64,362324.26,7277554.73
"247186",247186,1988,33,"v","Warthog",5,-24.62,31.65,363347.58,7276457.27
"247224",247224,1988,33,"v","Warthog",5,-24.64,31.66,364381.53,7274252.32
"247225",247225,1988,33,"v","Warthog",1,-24.64,31.66,364381.53,7274252.32
"247228",247228,1988,33,"v","Warthog",5,-24.65,31.61,359331.71,7273094.59
"247239",247239,1988,33,"v","Warthog",1,-24.66,31.62,360354.97,7271997.35
"247257",247257,1988,33,"v","Warthog",3,-24.67,31.6,358342.16,7270869.41
"247275",247275,1988,33,"v","Warthog",2,-24.69,31.63,361400.18,7268685.15
"247285",247285,1988,33,"v","Warthog",1,-24.7,31.65,363434.69,7267597.78
"247307",247307,1988,33,"v","Warthog",5,-24.72,31.64,362444.95,7265372.88
"247318",247318,1988,33,"v","Warthog",2,-24.73,31.64,362455.95,7264265.43
"247320",247320,1988,33,"v","Warthog",12,-24.73,31.65,363467.43,7264275.44
"247323",247323,1988,33,"v","Warthog",2,-24.73,31.67,365490.37,7264295.24
"247327",247327,1988,33,"v","Warthog",1,-24.74,31.67,365501.13,7263187.8
"247329",247329,1988,33,"v","Warthog",2,-24.74,31.66,364489.74,7263177.93
"247331",247331,1988,33,"v","Warthog",1,-24.75,31.61,359444,7262020.04
"247339",247339,1988,33,"v","Warthog",1,-24.76,31.66,364511.43,7260963.04
"247341",247341,1988,33,"v","Warthog",2,-24.76,31.64,362488.96,7260943.08
"247352",247352,1988,33,"v","Warthog",1,-24.76,31.67,365522.66,7260972.91
"247353",247353,1988,33,"v","Warthog",5,-24.76,31.67,365522.66,7260972.91
"247378",247378,1988,34,"v","Warthog",4,-24.62,31.77,375495.75,7276571.24
"247426",247426,1988,34,"v","Warthog",2,-24.69,31.75,373541.64,7268801.13
"247473",247473,1988,34,"v","Warthog",1,-24.74,31.82,380671.67,7263326.89
"247492",247492,1988,34,"v","Warthog",3,-24.77,31.81,379689.21,7259995.91
"247498",247498,1988,34,"v","Warthog",3,-24.75,31.81,379669.94,7262210.73
"247523",247523,1988,34,"v","Warthog",1,-24.76,31.78,376645.99,7261076.6
"247554",247554,1988,34,"v","Warthog",1,-24.76,31.77,375634.79,7261067.54
"247681",247681,1988,34,"v","Warthog",2,-24.73,31.73,371559.14,7264352.85
"247693",247693,1988,34,"v","Warthog",3,-24.78,31.73,371610.54,7258815.72
"247701",247701,1988,34,"v","Warthog",4,-24.78,31.73,371610.54,7258815.72
"247705",247705,1988,34,"v","Warthog",5,-24.77,31.73,371600.25,7259923.15
"247757",247757,1988,34,"v","Warthog",2,-24.77,31.72,370589.12,7259913.72
"247788",247788,1988,34,"v","Warthog",1,-24.72,31.7,368514.25,7265431.81
"247801",247801,1988,34,"v","Warthog",1,-24.75,31.7,368545.8,7262109.51
"247802",247802,1988,34,"v","Warthog",2,-24.75,31.7,368545.8,7262109.51
"247822",247822,1988,34,"v","Warthog",1,-24.76,31.7,368556.32,7261002.08
"247883",247883,1988,34,"v","Warthog",4,-24.67,31.71,369473.7,7270978.5
"247886",247886,1988,34,"v","Warthog",1,-24.67,31.7,368461.76,7270968.95
"247900",247900,1988,34,"v","Warthog",3,-24.66,31.75,373511.37,7272123.36
"247905",247905,1988,34,"v","Warthog",1,-24.65,31.73,371477.1,7273212.2
"247926",247926,1988,34,"v","Warthog",7,-24.64,31.71,369442.49,7274300.75
"247959",247959,1988,34,"v","Warthog",4,-24.59,31.69,367365.38,7279818.69
"248068",248068,1988,35,"v","Warthog",2,-24.89,31.71,369703.65,7246614.89
"248080",248080,1988,35,"v","Warthog",1,-24.89,31.67,365662.99,7246576
"248086",248086,1988,35,"v","Warthog",1,-24.9,31.7,368704.07,7245497.83
"248096",248096,1988,35,"v","Warthog",4,-24.89,31.74,372734.12,7246643.28
"248101",248101,1988,35,"v","Warthog",2,-24.9,31.7,368704.07,7245497.83
"248132",248132,1988,35,"v","Warthog",4,-24.91,31.69,367704.65,7244380.68
"248136",248136,1988,35,"v","Warthog",1,-24.91,31.72,370734.65,7244409.53
"248202",248202,1988,35,"v","Warthog",5,-24.98,31.61,359703.89,7236548.05
"248232",248232,1988,35,"v","Warthog",1,-24.97,31.62,360702.07,7237665.85
"248241",248241,1988,35,"v","Warthog",14,-24.97,31.6,358683,7237645.17
"248242",248242,1988,35,"v","Warthog",4,-24.97,31.6,358683,7237645.17
"248261",248261,1988,35,"v","Warthog",1,-24.92,31.68,366705.4,7243263.45
"248269",248269,1988,35,"v","Warthog",1,-24.96,31.62,360690.81,7238773.34
"248272",248272,1988,35,"v","Warthog",3,-24.96,31.61,359681.2,7238763.04
"248278",248278,1988,35,"v","Warthog",2,-24.96,31.59,357661.96,7238742.21
"248284",248284,1988,35,"v","Warthog",1,-24.96,31.59,357661.96,7238742.21
"248294",248294,1988,35,"v","Warthog",1,-24.95,31.59,357650.46,7239849.71
"248303",248303,1988,35,"v","Warthog",4,-24.93,31.68,366716.16,7242155.98
"248309",248309,1988,35,"v","Warthog",1,-24.94,31.65,363697.62,7241018.75
"248323",248323,1988,35,"v","Warthog",4,-24.93,31.66,364696.47,7242136.22
"248335",248335,1988,35,"v","Warthog",1,-24.92,31.66,364685.55,7243243.69
"248349",248349,1988,35,"v","Warthog",4,-24.92,31.64,362665.69,7243223.63
"248353",248353,1988,35,"v","Warthog",6,-24.92,31.64,362665.69,7243223.63
"248378",248378,1988,35,"v","Warthog",2,-24.89,31.65,363642.65,7246556.11
"248396",248396,1988,35,"v","Warthog",1,-24.87,31.65,363620.69,7248771.05
"248435",248435,1988,35,"v","Warthog",3,-24.83,31.63,361555.48,7253180.75
"248444",248444,1988,35,"v","Warthog",3,-24.81,31.64,362544.08,7255405.79
"248452",248452,1988,35,"v","Warthog",7,-24.79,31.62,360500.03,7257600.43
"248459",248459,1988,35,"v","Warthog",1,-24.78,31.62,360488.85,7258707.9
"248461",248461,1988,35,"v","Warthog",2,-24.78,31.62,360488.85,7258707.9
"248462",248462,1988,35,"v","Warthog",2,-24.78,31.61,359477.77,7258697.65
"248484",248484,1988,36,"v","Warthog",1,-24.81,31.88,386803.23,7255626.13
"248575",248575,1988,36,"v","Warthog",1,-24.82,31.85,383780.25,7254493.52
"248591",248591,1988,36,"v","Warthog",1,-24.88,31.83,381815.88,7247831.85
"248596",248596,1988,36,"v","Warthog",3,-24.87,31.82,380796.07,7248930.55
"248612",248612,1988,36,"v","Warthog",4,-24.87,31.82,380796.07,7248930.55
"248624",248624,1988,36,"v","Warthog",1,-24.83,31.81,379747.1,7253351.44
"248627",248627,1988,36,"v","Warthog",1,-24.88,31.81,379795.45,7247814.34
"248644",248644,1988,36,"v","Warthog",1,-24.84,31.8,378746.22,7252235.17
"248646",248646,1988,36,"v","Warthog",2,-24.85,31.8,378755.97,7251127.75
"248654",248654,1988,36,"v","Warthog",1,-24.85,31.79,377745.51,7251118.82
"248693",248693,1988,36,"v","Warthog",3,-24.78,31.73,371610.54,7258815.72
"248701",248701,1988,36,"v","Warthog",1,-24.78,31.73,371610.54,7258815.72
"248706",248706,1988,36,"v","Warthog",1,-24.81,31.73,371641.43,7255493.42
"248708",248708,1988,36,"v","Warthog",2,-24.81,31.73,371641.43,7255493.42
"248717",248717,1988,36,"v","Warthog",2,-24.8,31.75,373652.9,7256619.5
"248718",248718,1988,36,"v","Warthog",1,-24.78,31.75,373632.63,7258834.36
"248719",248719,1988,36,"v","Warthog",1,-24.78,31.75,373632.63,7258834.36
"248748",248748,1988,36,"v","Warthog",2,-24.78,31.78,376665.75,7258861.76
"248750",248750,1988,36,"v","Warthog",2,-24.77,31.78,376655.87,7259969.18
"248780",248780,1988,36,"v","Warthog",1,-24.77,31.8,378678.1,7259987.08
"248795",248795,1988,36,"v","Warthog",2,-24.83,31.79,377725.85,7253333.66
"248812",248812,1988,36,"v","Warthog",1,-24.81,31.81,379727.79,7255566.27
"248815",248815,1988,36,"v","Warthog",2,-24.8,31.81,379718.14,7256673.68
"248816",248816,1988,36,"v","Warthog",3,-24.8,31.81,379718.14,7256673.68
"248825",248825,1988,36,"v","Warthog",1,-24.78,31.82,380709.88,7258897.27
"248826",248826,1988,36,"v","Warthog",1,-24.78,31.82,380709.88,7258897.27
"248827",248827,1988,36,"v","Warthog",4,-24.79,31.82,380719.44,7257789.86
"248838",248838,1988,36,"v","Warthog",3,-24.82,31.81,379737.45,7254458.86
"248844",248844,1988,36,"v","Warthog",3,-24.8,31.82,380729.01,7256682.45
"248855",248855,1988,36,"v","Warthog",1,-24.79,31.84,382741.33,7257807.18
"248861",248861,1988,36,"v","Warthog",7,-24.77,31.85,383733.63,7260030.52
"249117",249117,1988,37,"v","Warthog",3,-24.87,31.94,392919.45,7249030.23
"249132",249132,1988,37,"v","Warthog",4,-24.82,31.93,391865.73,7254559.28
"249149",249149,1988,37,"v","Warthog",2,-24.83,31.92,390863.82,7253443.93
"249164",249164,1988,37,"v","Warthog",3,-24.88,31.92,390907.69,7247906.97
"249197",249197,1988,37,"v","Warthog",2,-24.87,31.9,388878.36,7248998.19
"249561",249561,1988,37,"v","Warthog",7,-25.15,31.97,396185.94,7218046.2
"249573",249573,1988,37,"v","Warthog",4,-25.07,31.96,395109.72,7226897.82
"249593",249593,1988,37,"v","Warthog",1,-25.15,31.94,393162.01,7218022.76
"249600",249600,1988,37,"v","Warthog",4,-25.12,31.93,392127.67,7221337.08
"249604",249604,1988,37,"v","Warthog",4,-24.89,31.95,393946.8,7246823.28
"249606",249606,1988,37,"v","Warthog",2,-24.9,31.94,392945.32,7245708.06
"249614",249614,1988,37,"v","Warthog",2,-24.9,31.95,393955.34,7245715.89
"249617",249617,1988,37,"v","Warthog",3,-24.91,31.97,395983.77,7244623.94
"249626",249626,1988,37,"v","Warthog",2,-24.91,31.92,390934.06,7244584.77
"249627",249627,1988,37,"v","Warthog",2,-24.91,31.91,389924.11,7244576.72
"249628",249628,1988,37,"v","Warthog",4,-24.91,31.9,388914.16,7244568.59
"249640",249640,1988,37,"v","Warthog",2,-24.92,31.9,388923.12,7243461.18
"249642",249642,1988,37,"v","Warthog",2,-24.91,31.9,388914.16,7244568.59
"249651",249651,1988,37,"v","Warthog",3,-24.93,31.93,391961.43,7242377.96
"249652",249652,1988,37,"v","Warthog",2,-24.93,31.92,390951.65,7242369.97
"249657",249657,1988,37,"v","Warthog",5,-24.94,31.94,392979.85,7241278.47
"249668",249668,1988,37,"v","Warthog",2,-24.95,31.94,392988.5,7240171.07
"249672",249672,1988,37,"v","Warthog",2,-24.95,31.92,390969.26,7240155.16
"249673",249673,1988,37,"v","Warthog",4,-24.95,31.92,390969.26,7240155.16
"249679",249679,1988,37,"v","Warthog",2,-24.96,31.97,396025.74,7239086.98
"249690",249690,1988,37,"v","Warthog",2,-24.96,31.93,391987.6,7239055.75
"249692",249692,1988,37,"v","Warthog",3,-24.97,31.93,391996.33,7237948.34
"249720",249720,1988,37,"v","Warthog",6,-24.99,31.97,396050.96,7235764.79
"249725",249725,1988,37,"v","Warthog",4,-24.99,31.95,394032.38,7235749.3
"249726",249726,1988,37,"v","Warthog",1,-24.99,31.93,392013.8,7235733.53
"249742",249742,1988,37,"v","Warthog",3,-25.02,31.96,395067.16,7232434.87
"249762",249762,1988,37,"v","Warthog",3,-25.03,31.97,396084.63,7231335.17
"249811",249811,1988,37,"v","Warthog",1,-25.06,31.97,396109.91,7228012.95
"249863",249863,1988,38,"v","Warthog",1,-24.93,31.88,386912.5,7242337.28
"249864",249864,1988,38,"v","Warthog",3,-24.95,31.88,386930.75,7240122.45
"249865",249865,1988,38,"v","Warthog",2,-24.98,31.88,386958.17,7236800.2
"249874",249874,1988,38,"v","Warthog",2,-24.92,31.87,385893.5,7243436.33
"249876",249876,1988,38,"v","Warthog",2,-24.89,31.86,384855.78,7246750.15
"249887",249887,1988,38,"v","Warthog",1,-24.99,31.86,384948.7,7235675.96
"249893",249893,1988,38,"v","Warthog",1,-24.95,31.86,384911.49,7240105.65
"249897",249897,1988,38,"v","Warthog",2,-24.93,31.86,384892.9,7242320.49
"249926",249926,1988,38,"v","Warthog",1,-24.92,31.85,383873.74,7243419.4
"249931",249931,1988,38,"v","Warthog",1,-24.89,31.84,382835.53,7246733.08
"249939",249939,1988,38,"v","Warthog",1,-24.95,31.84,382892.22,7240088.55
"249941",249941,1988,38,"v","Warthog",3,-24.96,31.84,382901.68,7238981.12
"249942",249942,1988,38,"v","Warthog",1,-24.97,31.84,382911.14,7237873.7
"249949",249949,1988,38,"v","Warthog",1,-24.99,31.84,382930.08,7235658.84
"249952",249952,1988,38,"v","Warthog",1,-24.98,31.83,381911.21,7236757.6
"249965",249965,1988,38,"v","Warthog",1,-24.89,31.83,381825.4,7246724.43
"249976",249976,1988,38,"v","Warthog",2,-24.98,31.82,380901.81,7236748.86
"249981",249981,1988,38,"v","Warthog",3,-24.98,31.81,379892.41,7236740.04
"249982",249982,1988,38,"v","Warthog",2,-24.97,31.81,379882.7,7237847.48
"249988",249988,1988,38,"v","Warthog",4,-24.95,31.81,379863.29,7240062.34
"250018",250018,1988,38,"v","Warthog",4,-24.91,31.8,378814.53,7244483.19
"250019",250019,1988,38,"v","Warthog",2,-24.9,31.8,378804.76,7245590.62
"250027",250027,1988,38,"v","Warthog",2,-24.88,31.8,378785.23,7247805.48
"250035",250035,1988,38,"v","Warthog",2,-24.95,31.79,377843.99,7240044.5
"250105",250105,1988,38,"v","Warthog",4,-24.98,31.77,375854.79,7236704.02
"250133",250133,1988,38,"v","Warthog",5,-25.01,31.81,379921.57,7233417.72
"250142",250142,1988,38,"v","Warthog",2,-25.02,31.83,381949.45,7232327.86
"250166",250166,1988,38,"v","Warthog",4,-25.03,31.79,377923.04,7231184.95
"250170",250170,1988,38,"v","Warthog",2,-25.03,31.81,379941.03,7231202.83
"250177",250177,1988,38,"v","Warthog",3,-25.03,31.85,383976.99,7231237.71
"250179",250179,1988,38,"v","Warthog",4,-25.03,31.84,382968,7231229.1
"250215",250215,1988,38,"v","Warthog",1,-25.06,31.85,384005.22,7227915.4
"250219",250219,1988,38,"v","Warthog",3,-25.06,31.86,385013.95,7227923.94
"250236",250236,1988,38,"v","Warthog",2,-25.1,31.9,389084.93,7223527.63
"250243",250243,1988,38,"v","Warthog",1,-25.06,31.96,395101.2,7228005.23
"250261",250261,1988,38,"v","Warthog",3,-25.1,31.93,392110.12,7223551.94
"250296",250296,1988,39,"v","Warthog",5,-24.98,31.35,333457.12,7236253.93
"250301",250301,1988,39,"v","Warthog",2,-24.98,31.35,333457.12,7236253.93
"250337",250337,1988,39,"v","Warthog",2,-25,31.34,332474.71,7234026.44
"250409",250409,1988,39,"v","Warthog",6,-25.02,31.33,331492.64,7231798.86
"250478",250478,1988,39,"v","Warthog",1,-25.06,31.36,334573.94,7227405.52
"250493",250493,1988,39,"v","Warthog",1,-25.06,31.31,329529.54,7227343.41
"250524",250524,1988,39,"v","Warthog",1,-25.08,31.36,334600.82,7225190.34
"250596",250596,1988,39,"v","Warthog",2,-25.03,31.23,321414.84,7230563.06
"250646",250646,1988,39,"v","Warthog",1,-25.05,31.23,321443.81,7228347.79
"250831",250831,1988,40,"v","Warthog",4,-25.18,31.26,324656.45,7213987.84
"250846",250846,1988,40,"v","Warthog",3,-25.2,31.27,325692.85,7211785.56
"250852",250852,1988,40,"v","Warthog",1,-25.21,31.27,325707.1,7210677.92
"250896",250896,1988,40,"v","Warthog",2,-25.16,31.28,326643.99,7216229.01
"250934",250934,1988,40,"v","Warthog",2,-25.17,31.3,328674.12,7215146.98
"250939",250939,1988,40,"v","Warthog",2,-25.17,31.29,327666.13,7215134.22
"251004",251004,1988,40,"v","Warthog",1,-25.19,31.34,332733.37,7212982.05
"251028",251028,1988,40,"v","Warthog",2,-25.2,31.36,334762.48,7211899.16
"251052",251052,1988,40,"v","Warthog",2,-25.21,31.36,334775.99,7210791.55
"251054",251054,1988,40,"v","Warthog",2,-25.21,31.37,335783.63,7210803.8
"251055",251055,1988,40,"v","Warthog",3,-25.22,31.36,334789.5,7209683.94
"251072",251072,1988,40,"v","Warthog",2,-25.22,31.38,336804.61,7209708.37
"251105",251105,1988,40,"v","Warthog",4,-25.3,31.28,326842.48,7200722.05
"251108",251108,1988,40,"v","Warthog",1,-25.3,31.29,327849.4,7200734.94
"251117",251117,1988,40,"v","Warthog",1,-25.31,31.29,327863.54,7199627.29
"251196",251196,1988,40,"v","Warthog",3,-25.36,31.31,329947.13,7194114.62
"251249",251249,1988,41,"v","Warthog",1,-25.34,31.33,331932.3,7196355.18
"251267",251267,1988,41,"v","Warthog",2,-25.35,31.33,331946.12,7195247.55
"251269",251269,1988,41,"v","Warthog",1,-25.35,31.33,331946.12,7195247.55
"251313",251313,1988,41,"v","Warthog",5,-25.38,31.37,336012.57,7191974.32
"251358",251358,1988,41,"v","Warthog",1,-25.3,31.42,340939.08,7200895.59
"251446",251446,1988,41,"v","Warthog",2,-25.28,31.43,341920.02,7203122.61
"251471",251471,1988,41,"v","Warthog",2,-25.25,31.42,340873.86,7206433.57
"251477",251477,1988,41,"v","Warthog",2,-25.24,31.43,341868.2,7207552.97
"251737",251737,1988,41,"v","Warthog",2,-25.12,31.53,351796.65,7220957.52
"251739",251739,1988,41,"v","Warthog",3,-25.14,31.52,350812.62,7218731.41
"251743",251743,1988,41,"v","Warthog",2,-25.15,31.53,351832.86,7217634.89
"251807",251807,1988,41,"v","Warthog",2,-25.14,31.49,347788.11,7218697.87
"251808",251808,1988,41,"v","Warthog",5,-25.15,31.49,347800.51,7217590.32
"251809",251809,1988,41,"v","Warthog",1,-25.15,31.48,346792.42,7217578.99
"251833",251833,1988,41,"v","Warthog",1,-25.12,31.46,344738.27,7220878.79
"251879",251879,1988,41,"v","Warthog",1,-25.16,31.41,339748.73,7216389.99
"251892",251892,1988,41,"v","Warthog",1,-25.15,31.4,338727.55,7217485.64
"251958",251958,1988,41,"v","Warthog",3,-25.19,31.41,339787.97,7213067.23
"251998",251998,1988,42,"v","Warthog",4,-25.05,31.57,355747.89,7228753.5
"252037",252037,1988,42,"v","Warthog",1,-25.11,31.51,349767.76,7222042.94
"252039",252039,1988,42,"v","Warthog",1,-25.11,31.52,350776.17,7222054.03
"252047",252047,1988,42,"v","Warthog",3,-25.07,31.58,356780.03,7226549.1
"252048",252048,1988,42,"v","Warthog",3,-25.07,31.58,356780.03,7226549.1
"252069",252069,1988,42,"v","Warthog",1,-25.08,31.58,356791.67,7225441.58
"252080",252080,1988,42,"v","Warthog",4,-25.11,31.58,356826.6,7222119.03
"252087",252087,1988,42,"v","Warthog",4,-25.11,31.55,353801.4,7222086.87
"252145",252145,1988,42,"v","Warthog",5,-25.15,31.6,358889.37,7217710.02
"252182",252182,1988,42,"v","Warthog",5,-25.16,31.59,357892.89,7216591.99
"252184",252184,1988,42,"v","Warthog",4,-25.16,31.6,358900.87,7216602.5
"252205",252205,1988,42,"v","Warthog",1,-25.16,31.53,351844.94,7216527.35
"252237",252237,1988,42,"v","Warthog",3,-25.18,31.57,355900.44,7214355.68
"252238",252238,1988,42,"v","Warthog",7,-25.18,31.57,355900.44,7214355.68
"252286",252286,1988,42,"v","Warthog",4,-25.19,31.57,355912.2,7213248.14
"252301",252301,1988,42,"v","Warthog",3,-25.19,31.51,349865.7,7213182.55
"252356",252356,1988,42,"v","Warthog",2,-25.22,31.55,353932.53,7209903.94
"252367",252367,1988,42,"v","Warthog",2,-25.21,31.52,350897.83,7210978.56
"252393",252393,1988,42,"v","Warthog",2,-25.23,31.58,356966.72,7208828.67
"252395",252395,1988,42,"v","Warthog",2,-25.23,31.57,355959.31,7208817.99
"252520",252520,1988,42,"v","Warthog",4,-25.28,31.61,360046.26,7203322.6
"252524",252524,1988,42,"v","Warthog",1,-25.28,31.59,358032.28,7203301.58
"252532",252532,1988,42,"v","Warthog",2,-25.28,31.56,355011.29,7203269.49
"252546",252546,1988,42,"v","Warthog",4,-25.29,31.59,358043.92,7202194.04
"252580",252580,1988,43,"v","Warthog",1,-25.04,31.58,356745.16,7229871.64
"252587",252587,1988,43,"v","Warthog",1,-25,31.58,356698.71,7234301.68
"252638",252638,1988,43,"v","Warthog",4,-25.05,31.55,353730.1,7228732.03
"252666",252666,1988,43,"v","Warthog",1,-25.03,31.54,352697.31,7230936.22
"252686",252686,1988,43,"v","Warthog",2,-25.05,31.52,350703.39,7228699.25
"252714",252714,1988,43,"v","Warthog",3,-25.09,31.52,350751.89,7224269.11
"252731",252731,1988,43,"v","Warthog",1,-25.04,31.51,349682.29,7229795.71
"252755",252755,1988,43,"v","Warthog",2,-25.04,31.49,347664.3,7229773.35
"252765",252765,1988,43,"v","Warthog",3,-25.09,31.48,346717.56,7224224.32
"252772",252772,1988,43,"v","Warthog",10,-25.05,31.47,345658.83,7228643.13
"252784",252784,1988,43,"v","Warthog",1,-25.05,31.46,344649.91,7228631.69
"252807",252807,1988,43,"v","Warthog",4,-25.05,31.45,343640.98,7228620.16
"252808",252808,1988,43,"v","Warthog",3,-25.06,31.45,343653.67,7227512.61
"252918",252918,1988,43,"v","Warthog",1,-25.02,31.54,352685.36,7232043.75
"253155",253155,1988,43,"v","Warthog",3,-25,31.37,335502.8,7234063.2
"253208",253208,1988,44,"v","Warthog",2,-25.38,31.57,356136.58,7192204.71
"253294",253294,1988,44,"v","Warthog",4,-25.35,31.59,358113.88,7195548.75
"253302",253302,1988,44,"v","Warthog",2,-25.33,31.61,360103.7,7197784.9
"253342",253342,1988,44,"v","Warthog",4,-25.34,31.59,358102.21,7196656.31
"253456",253456,1988,44,"v","Warthog",6,-25.35,31.62,361133.11,7195580.23
"253480",253480,1988,44,"v","Warthog",1,-25.35,31.64,363145.91,7195600.84
"253481",253481,1988,44,"v","Warthog",3,-25.35,31.64,363145.91,7195600.84
"253522",253522,1988,44,"v","Warthog",1,-25.33,31.65,364129.97,7197826.1
"253526",253526,1988,44,"v","Warthog",2,-25.34,31.65,364141.14,7196718.57
"253547",253547,1988,44,"v","Warthog",1,-25.37,31.63,362162.2,7193375.49
"253702",253702,1988,44,"v","Warthog",5,-25.37,31.72,371218.23,7193465.24
"253707",253707,1988,44,"v","Warthog",4,-25.36,31.72,371207.63,7194572.76
"253722",253722,1988,44,"v","Warthog",4,-25.35,31.74,373209.79,7195699.38
"253738",253738,1988,44,"v","Warthog",3,-25.37,31.74,373230.66,7193484.36
"253741",253741,1988,44,"v","Warthog",1,-25.38,31.88,387326.63,7192502.25
"253749",253749,1988,44,"v","Warthog",1,-25.35,31.88,387298.81,7195824.68
"253754",253754,1988,44,"v","Warthog",1,-25.37,31.87,386311.18,7193601.26
"253758",253758,1988,44,"v","Warthog",3,-25.33,31.87,386273.77,7198031.17
"253793",253793,1988,44,"v","Warthog",6,-25.35,31.83,382267.07,7195781.62
"253794",253794,1988,44,"v","Warthog",2,-25.35,31.83,382267.07,7195781.62
"253819",253819,1988,44,"v","Warthog",2,-25.27,31.83,382189.71,7204641.46
"253850",253850,1988,44,"v","Warthog",3,-25.31,31.83,382228.36,7200211.55
"253916",253916,1988,44,"v","Warthog",1,-25.32,31.79,378211.61,7199068.3
"253945",253945,1988,44,"v","Warthog",3,-25.32,31.78,377204.99,7199059.17
"253997",253997,1988,44,"v","Warthog",1,-25.18,31.73,372025.27,7214517.35
"254024",254024,1988,44,"v","Warthog",1,-25.19,31.72,371028.02,7213400.32
"254085",254085,1988,44,"v","Warthog",1,-25.18,31.69,367994.12,7214478.73
"254092",254092,1988,44,"v","Warthog",2,-25.17,31.68,366975.48,7215576.39
"254098",254098,1988,44,"v","Warthog",1,-25.19,31.68,366997.19,7213361.39
"254106",254106,1988,44,"v","Warthog",1,-25.21,31.68,367018.92,7211146.38
"254108",254108,1988,44,"v","Warthog",1,-25.22,31.69,368037.26,7210048.73
"254154",254154,1988,44,"v","Warthog",1,-25.19,31.63,361958.6,7213311.04
"254212",254212,1988,44,"v","Warthog",4,-25.26,31.64,363044.76,7205568.62
"254240",254240,1988,44,"v","Warthog",2,-25.24,31.66,365036.95,7207803.91
"254368",254368,1988,45,"v","Warthog",2,-25.12,31.88,387086.51,7221296.18
"254389",254389,1988,45,"v","Warthog",6,-25.15,31.81,380058.09,7217913.39
"254396",254396,1988,45,"v","Warthog",2,-25.11,31.87,386068.99,7222395.22
"254409",254409,1988,45,"v","Warthog",3,-25.14,31.86,385088.74,7219064.4
"254411",254411,1988,45,"v","Warthog",3,-25.15,31.83,382074.1,7217931.04
"254415",254415,1988,45,"v","Warthog",2,-25.17,31.82,381085.5,7215707.33
"254422",254422,1988,45,"v","Warthog",2,-25.13,31.92,391128.31,7220221.62
"254427",254427,1988,45,"v","Warthog",4,-25.13,31.93,392136.45,7220229.65
"254431",254431,1988,45,"v","Warthog",2,-25.14,31.92,391137.18,7219114.19
"254437",254437,1988,45,"v","Warthog",2,-25.18,31.85,384118.47,7214626.03
"254444",254444,1988,45,"v","Warthog",3,-25.15,31.92,391146.05,7218006.75
"254446",254446,1988,45,"v","Warthog",2,-25.14,31.92,391137.18,7219114.19
"254458",254458,1988,45,"v","Warthog",6,-25.2,31.86,385144.98,7212419.69
"254479",254479,1988,45,"v","Warthog",1,-25.17,31.8,379069.81,7215689.53
"254480",254480,1988,45,"v","Warthog",1,-25.17,31.8,379069.81,7215689.53
"254491",254491,1988,45,"v","Warthog",1,-25.18,31.82,381095.2,7214599.87
"254529",254529,1988,45,"v","Warthog",3,-25.21,31.83,382131.84,7211286.28
"254530",254530,1988,45,"v","Warthog",1,-25.22,31.83,382141.48,7210178.81
"254554",254554,1988,45,"v","Warthog",1,-25.19,31.78,377074.18,7213456.47
"254576",254576,1988,45,"v","Warthog",1,-25.24,31.83,382160.76,7207963.87
"254609",254609,1988,45,"v","Warthog",4,-25.26,31.83,382180.06,7205748.93
"254614",254614,1988,45,"v","Warthog",6,-25.25,31.82,381163.23,7206847.59
"254636",254636,1988,45,"v","Warthog",5,-25.16,31.92,391154.92,7216899.32
"254639",254639,1988,45,"v","Warthog",1,-25.18,31.9,389157.2,7214668.13
"254641",254641,1988,45,"v","Warthog",4,-25.18,31.94,393188.15,7214700.46
"254642",254642,1988,45,"v","Warthog",1,-25.19,31.93,392189.22,7213585.05
"254644",254644,1988,45,"v","Warthog",2,-25.19,31.91,390173.91,7213568.88
"254648",254648,1988,45,"v","Warthog",3,-25.2,31.9,389175.3,7212453.24
"254649",254649,1988,45,"v","Warthog",1,-25.19,31.93,392189.22,7213585.05
"254657",254657,1988,45,"v","Warthog",3,-25.2,31.89,388167.72,7212444.96
"254667",254667,1988,45,"v","Warthog",4,-25.21,31.88,387169.36,7211329.16
"254671",254671,1988,45,"v","Warthog",1,-25.21,31.91,390191.85,7211353.99
"254673",254673,1988,45,"v","Warthog",7,-25.21,31.91,390191.85,7211353.99
"254677",254677,1988,45,"v","Warthog",1,-25.21,31.94,393214.32,7211378.15
"254684",254684,1988,45,"v","Warthog",2,-25.22,31.92,391208.24,7210254.68
"254685",254685,1988,45,"v","Warthog",4,-25.22,31.91,390200.83,7210246.55
"254689",254689,1988,45,"v","Warthog",2,-25.22,31.88,387178.59,7210221.71
"254698",254698,1988,45,"v","Warthog",3,-25.22,31.85,384156.33,7210196.19
"254707",254707,1988,45,"v","Warthog",2,-25.23,31.88,387187.81,7209114.25
"254713",254713,1988,45,"v","Warthog",4,-25.22,31.91,390200.83,7210246.55
"254715",254715,1988,45,"v","Warthog",2,-25.22,31.92,391208.24,7210254.68
"254721",254721,1988,45,"v","Warthog",6,-25.22,31.94,393223.05,7210270.71
"254722",254722,1988,45,"v","Warthog",6,-25.22,31.95,394230.45,7210278.62
"254736",254736,1988,45,"v","Warthog",3,-25.24,31.85,384175.28,7207981.27
"254745",254745,1988,45,"v","Warthog",4,-25.24,31.93,392233.28,7208047.84
"254751",254751,1988,45,"v","Warthog",3,-25.24,31.94,393240.51,7208055.83
"254756",254756,1988,45,"v","Warthog",3,-25.25,31.91,390227.78,7206924.2
"254767",254767,1988,45,"v","Warthog",1,-25.25,31.86,385191.94,7206882.39
"254770",254770,1988,45,"v","Warthog",1,-25.25,31.84,383177.59,7206865.14
"254771",254771,1988,45,"v","Warthog",3,-25.25,31.84,383177.59,7206865.14
"254804",254804,1988,45,"v","Warthog",2,-25.26,31.92,391243.84,7205824.89
"254821",254821,1988,45,"v","Warthog",3,-25.28,31.9,389247.84,7203593.62
"254828",254828,1988,45,"v","Warthog",5,-25.29,31.88,387243.25,7202469.49
"254829",254829,1988,45,"v","Warthog",5,-25.29,31.87,386236.41,7202461.05
"254869",254869,1988,45,"v","Warthog",5,-25.33,31.9,389293.29,7198056.31
"255013",255013,1988,46,"v","Warthog",5,-25.21,31.98,397244.24,7211409.31
"255045",255045,1988,46,"v","Warthog",2,-25.23,31.98,397261.05,7209194.45
"255075",255075,1988,46,"v","Warthog",2,-25.2,31.97,396228.29,7212509.06
"255078",255078,1988,46,"v","Warthog",1,-25.19,31.97,396219.81,7213616.49
"255111",255111,1988,46,"v","Warthog",2,-25.27,31.95,394273.73,7204741.41
"255113",255113,1988,46,"v","Warthog",3,-25.26,31.95,394265.07,7205848.85
"255116",255116,1988,46,"v","Warthog",3,-25.24,31.96,395254.99,7208071.57
"255133",255133,1988,46,"v","Warthog",2,-25.17,31.95,394187.25,7215815.79
"255144",255144,1988,46,"v","Warthog",3,-25.28,31.94,393275.49,7203626.04
"255147",255147,1988,46,"v","Warthog",2,-25.17,31.94,393179.43,7215807.89
"255246",255246,1988,46,"v","Warthog",2,-25.31,31.97,396321.73,7200327.24
"255250",255250,1988,46,"v","Warthog",1,-25.3,31.97,396313.22,7201434.69
"255257",255257,1988,46,"v","Warthog",7,-25.32,31.97,396330.24,7199219.79
"255260",255260,1988,46,"v","Warthog",5,-25.37,31.96,395366.7,7193674.75
"255272",255272,1988,46,"v","Warthog",4,-25.37,31.95,394360.54,7193666.88
"255274",255274,1988,46,"v","Warthog",3,-25.37,31.95,394360.54,7193666.88
"255278",255278,1988,46,"v","Warthog",2,-25.35,31.96,395349.48,7195889.66
"255285",255285,1988,46,"v","Warthog",5,-25.36,31.95,394351.84,7194774.34
"255292",255292,1988,46,"v","Warthog",2,-25.31,31.94,393301.76,7200303.69
"255293",255293,1988,46,"v","Warthog",6,-25.31,31.94,393301.76,7200303.69
"255296",255296,1988,46,"v","Warthog",3,-25.29,31.95,394291.07,7202526.51
"255322",255322,1988,46,"v","Warthog",3,-25.32,31.91,390290.77,7199172
"255368",255368,1988,46,"v","Warthog",1,-25.42,31.98,397421.29,7188152.97
"255488",255488,1988,47,"v","Warthog",1,-22.67,31.22,317121.64,7491915.26
"255493",255493,1988,47,"v","Warthog",1,-22.66,31.26,321219.2,7493071.25
"255539",255539,1988,47,"v","Warthog",1,-22.7,31.26,321271.09,7488642
"255569",255569,1988,47,"v","Warthog",2,-22.73,31.26,321310.05,7485320.04
"255577",255577,1988,47,"v","Warthog",1,-22.75,31.2,315173.83,7483031.76
"255651",255651,1988,48,"v","Warthog",4,-22.81,31.25,320387.63,7476449.31
"255868",255868,1988,48,"v","Warthog",3,-22.87,31.35,330727.54,7469923.64
"256022",256022,1988,49,"v","Warthog",3,-22.98,31.25,320611.39,7457624.45
"256027",256027,1988,49,"v","Warthog",2,-22.96,31.29,324686.76,7459887.48
"256370",256370,1988,50,"v","Warthog",3,-23.07,31.43,339173.04,7447867.63
"256434",256434,1988,50,"v","Warthog",4,-23.11,31.47,343317.63,7443481.95
"256664",256664,1988,52,"v","Warthog",1,-23.15,31.29,324932.74,7438847.85
"256721",256721,1988,52,"v","Warthog",3,-23.12,31.36,332063.26,7442252.25
"256783",256783,1988,52,"v","Warthog",1,-23.08,31.19,314596.42,7446475.94
"256788",256788,1988,52,"v","Warthog",2,-23.11,31.2,315661.93,7443166.42
"256827",256827,1988,52,"v","Warthog",1,-23.08,31.23,318694.65,7446526.14
"256834",256834,1988,52,"v","Warthog",2,-23.08,31.24,319719.2,7446538.52
"256850",256850,1988,52,"v","Warthog",1,-23.07,31.25,320730.49,7447658.19
"256942",256942,1988,53,"v","Warthog",2,-23.11,30.92,286978.94,7442785.08
"256947",256947,1988,53,"v","Warthog",5,-23.12,30.93,288019.1,7441692.13
"256950",256950,1988,53,"v","Warthog",6,-23.13,30.93,288034.83,7440584.62
"257003",257003,1988,53,"v","Warthog",5,-23.09,30.94,288996.58,7445029.17
"257021",257021,1988,53,"v","Warthog",5,-23.15,30.97,292162.83,7438427.22
"257085",257085,1988,53,"v","Warthog",4,-23.09,30.99,294119.5,7445100.56
"257095",257095,1988,53,"v","Warthog",1,-23.17,31.03,298337.47,7436296.63
"257144",257144,1988,53,"v","Warthog",2,-23.17,31.06,301409.3,7436337.89
"257155",257155,1988,53,"v","Warthog",1,-23.14,31.06,301365.05,7439660.27
"257161",257161,1988,53,"v","Warthog",3,-23.13,31.06,301350.31,7440767.73
"257162",257162,1988,53,"v","Warthog",1,-23.14,31.06,301365.05,7439660.27
"257163",257163,1988,53,"v","Warthog",3,-23.14,31.07,302389.21,7439673.87
"257165",257165,1988,53,"v","Warthog",2,-23.15,31.07,302403.88,7438566.41
"257168",257168,1988,53,"v","Warthog",1,-23.18,31.08,303471.77,7435257.59
"257181",257181,1988,53,"v","Warthog",2,-23.14,31.07,302389.21,7439673.87
"257197",257197,1988,53,"v","Warthog",3,-23.16,31.1,305490.56,7437499.36
"257199",257199,1988,53,"v","Warthog",3,-23.15,31.1,305476.11,7438606.8
"257221",257221,1988,53,"v","Warthog",1,-23.16,31.12,307538.54,7437525.94
"257274",257274,1988,53,"v","Warthog",1,-23.16,31.17,312658.42,7437591.15
"257284",257284,1988,53,"v","Warthog",4,-23.17,31.18,313696.23,7436496.58
"257327",257327,1988,53,"v","Warthog",1,-23,30.95,289881.51,7455011.07
"257331",257331,1988,53,"v","Warthog",1,-23.07,30.93,287940.59,7447229.7
"257335",257335,1988,53,"v","Warthog",2,-23.06,30.94,288949.74,7448351.69
"257348",257348,1988,53,"v","Warthog",4,-22.99,30.96,290891.37,7456132.86
"257420",257420,1988,53,"v","Warthog",2,-23.07,31.02,297163.19,7447357.48
"257433",257433,1988,53,"v","Warthog",2,-23,31,295007.82,7455081.89
"257440",257440,1988,53,"v","Warthog",1,-23.01,31.01,296048.11,7453988.38
"257454",257454,1988,53,"v","Warthog",1,-23.02,31.02,297088.25,7452894.81
"257473",257473,1988,53,"v","Warthog",2,-23,31.04,299108.8,7455137.29
"257483",257483,1988,53,"v","Warthog",3,-23.01,31.06,301173.92,7454057.13
"257484",257484,1988,53,"v","Warthog",3,-23.02,31.07,302213.66,7452963.23
"257497",257497,1988,53,"v","Warthog",3,-23.06,31.11,306371.11,7448587
"257505",257505,1988,53,"v","Warthog",2,-23.03,31.11,306328.2,7451909.28
"257564",257564,1988,54,"v","Warthog",2,-22.97,30.93,287784.06,7458304.75
"257584",257584,1988,54,"v","Warthog",1,-22.9,30.97,291778.98,7466114.38
"257650",257650,1988,54,"v","Warthog",3,-22.95,30.98,292881.08,7460591.15
"257666",257666,1988,54,"v","Warthog",6,-22.89,31.02,296894.13,7467291.71
"257702",257702,1988,54,"v","Warthog",4,-22.9,31.03,297935.03,7466198.03
"257714",257714,1988,54,"v","Warthog",1,-22.9,31.04,298961.02,7466211.73
"257722",257722,1988,54,"v","Warthog",2,-22.9,31.05,299987.01,7466225.36
"257749",257749,1988,54,"v","Warthog",2,-22.99,31.02,297043.36,7456217.19
"257776",257776,1988,54,"v","Warthog",1,-22.97,31.06,301115.31,7458486.89
"257792",257792,1988,54,"v","Warthog",1,-22.97,31.08,303166.21,7458513.86
"257794",257794,1988,54,"v","Warthog",1,-22.98,31.08,303180.7,7457406.43
"257801",257801,1988,54,"v","Warthog",3,-23,31.07,302184.48,7455178.1
"257807",257807,1988,54,"v","Warthog",1,-22.96,31.11,306228.27,7459661.2
"257820",257820,1988,54,"v","Warthog",1,-23,31.08,303209.7,7455191.57
"257868",257868,1988,54,"v","Warthog",4,-22.9,31.1,305116.88,7466292.45
"257899",257899,1988,54,"v","Warthog",4,-22.9,31.14,309220.71,7466344.87
"257907",257907,1988,54,"v","Warthog",3,-22.92,31.11,306171.29,7464090.84
"257908",257908,1988,54,"v","Warthog",3,-22.93,31.11,306185.53,7462983.44
"257912",257912,1988,54,"v","Warthog",7,-22.92,31.13,308222.91,7464117.07
"257920",257920,1988,54,"v","Warthog",1,-22.91,31.15,310260.57,7465250.41
"257923",257923,1988,54,"v","Warthog",3,-22.92,31.14,309248.71,7464130.08
"257953",257953,1988,54,"v","Warthog",4,-22.95,31.14,309290.75,7460807.89
"257967",257967,1988,54,"v","Warthog",2,-22.93,31.18,313365.57,7463074.04
"257981",257981,1988,54,"v","Warthog",3,-22.98,31.14,309332.84,7457485.69
"258003",258003,1988,54,"v","Warthog",1,-22.97,31.16,311369.64,7458618.94
"258018",258018,1988,54,"v","Warthog",4,-22.98,31.16,311383.52,7457511.54
"258029",258029,1988,54,"v","Warthog",3,-22.95,31.2,315444.1,7460884.55
"258063",258063,1988,54,"v","Warthog",2,-22.99,31.18,313447.93,7456429.74
"258094",258094,1988,54,"v","Warthog",1,-23.03,31.15,310428.08,7451961.64
"258095",258095,1988,54,"v","Warthog",2,-23.02,31.16,311439.12,7453081.96
"258096",258096,1988,54,"v","Warthog",2,-23.02,31.16,311439.12,7453081.96
"258116",258116,1988,54,"v","Warthog",2,-22.97,31.23,318547.42,7458707.21
"258131",258131,1988,54,"v","Warthog",3,-23.02,31.17,312464.16,7453094.8
"258145",258145,1988,54,"v","Warthog",5,-23,31.21,316537.19,7455360.22
"258146",258146,1988,54,"v","Warthog",4,-22.99,31.21,316523.67,7456467.6
"258154",258154,1988,54,"v","Warthog",5,-22.99,31.24,319599.37,7456504.82
"258161",258161,1988,54,"v","Warthog",1,-23.02,31.21,316564.24,7453145.47
"258164",258164,1988,54,"v","Warthog",1,-23.03,31.19,314527.89,7452012.89
"258166",258166,1988,54,"v","Warthog",2,-23.03,31.18,313502.95,7452000.18
"258173",258173,1988,54,"v","Warthog",5,-23.01,31.23,318600.88,7454277.75
"258181",258181,1988,54,"v","Warthog",2,-23,31.27,322688.11,7455434.07
"258222",258222,1988,54,"v","Warthog",2,-23.05,31.22,317629.65,7449835.83
"258224",258224,1988,54,"v","Warthog",2,-23.05,31.23,318654.43,7449848.27
"258304",258304,1988,55,"v","Warthog",3,-22.85,31.05,299913.72,7471762.51
"258319",258319,1988,55,"v","Warthog",4,-22.85,30.98,292729.08,7471665.81
"258322",258322,1988,55,"v","Warthog",4,-22.85,30.97,291702.69,7471651.72
"258335",258335,1988,55,"v","Warthog",3,-22.83,30.98,292698.76,7473880.73
"258339",258339,1988,55,"v","Warthog",3,-22.83,30.99,293725.3,7473894.74
"258376",258376,1988,55,"v","Warthog",8,-22.78,31.05,299811.38,7479514.47
"258377",258377,1988,55,"v","Warthog",5,-22.78,31.02,296730.7,7479473.54
"258378",258378,1988,55,"v","Warthog",5,-22.78,31.01,295703.79,7479459.76
"258381",258381,1988,55,"v","Warthog",2,-22.78,31,294676.89,7479445.91
"258395",258395,1988,55,"v","Warthog",5,-22.76,31.02,296701.06,7481688.41
"258448",258448,1988,55,"v","Warthog",7,-22.77,31.08,302877.65,7480662.17
"258483",258483,1988,55,"v","Warthog",2,-22.82,31.08,302949.57,7475125.14
"258486",258486,1988,55,"v","Warthog",4,-22.88,31.09,304062.19,7468494
"258491",258491,1988,55,"v","Warthog",3,-22.81,31.1,304988.46,7476259.09
"258493",258493,1988,55,"v","Warthog",3,-22.83,31.1,305016.96,7474044.29
"258590",258590,1988,55,"v","Warthog",7,-22.9,31.18,313324.47,7466396.17
"258629",258629,1988,55,"v","Warthog",5,-22.86,31.2,315322.2,7470850.85
"258788",258788,1988,56,"v","Warthog",2,-25.34,31.51,350050.14,7196569.07
"258924",258924,1988,56,"v","Warthog",3,-25.41,31.52,351142.5,7188827.2
"258932",258932,1988,56,"v","Warthog",2,-25.43,31.53,352172.84,7186623.15
"258990",258990,1988,56,"v","Warthog",3,-25.47,31.5,349205.38,7182159.19
"258993",258993,1988,56,"v","Warthog",4,-25.48,31.49,348212.49,7181040.23
"258997",258997,1988,56,"v","Warthog",3,-25.48,31.5,349217.85,7181051.59
"258999",258999,1988,56,"v","Warthog",4,-25.47,31.51,350210.82,7182170.47
"259000",259000,1988,56,"v","Warthog",2,-25.46,31.51,350198.43,7183278.06
"259006",259006,1988,56,"v","Warthog",4,-25.47,31.52,351216.26,7182181.68
"259091",259091,1988,56,"v","Warthog",2,-25.48,31.32,331120.88,7180835.49
"259255",259255,1988,57,"v","Warthog",2,-25.13,31.79,378022.2,7220110.38
"259328",259328,1988,57,"v","Warthog",4,-25.06,31.81,379970.25,7227880.49
"259353",259353,1988,58,"v","Warthog",5,-25.13,31.61,359874.59,7219935.49
"259380",259380,1988,58,"v","Warthog",2,-25.12,31.62,360871.49,7221053.35
"259393",259393,1988,58,"v","Warthog",2,-25.11,31.62,360860.16,7222160.86
"259410",259410,1988,58,"v","Warthog",2,-25.11,31.63,361868.55,7222171.13
"259436",259436,1988,58,"v","Warthog",4,-25.17,31.64,362943.95,7215536.28
"259505",259505,1988,58,"v","Warthog",6,-25.02,31.75,373876.81,7232255.74
"259506",259506,1988,58,"v","Warthog",3,-25.03,31.76,374896.04,7231157.56
"259552",259552,1988,60,"v","Warthog",1,-25.06,31.61,359794.81,7227688.06
"259701",259701,1988,61,"v","Warthog",10,-22.53,31.08,302534.55,7507239.5
"259731",259731,1988,61,"v","Warthog",3,-22.55,31.06,300505.82,7504998.17
"259765",259765,1988,61,"v","Warthog",3,-22.59,31.05,299535.1,7500555.2
"259835",259835,1988,61,"v","Warthog",3,-22.65,31.04,298594.25,7493897.3
"259949",259949,1988,61,"v","Warthog",1,-22.71,31.03,297654.5,7487239.22
"260028",260028,1988,62,"v","Warthog",2,-22.61,31.17,311901.67,7498496.93
"260122",260122,1988,62,"v","Warthog",1,-22.47,31.18,312740.94,7514012.15
"260134",260134,1988,62,"v","Warthog",3,-22.48,31.07,301434.39,7512763.13
"260256",260256,1988,63,"v","Warthog",2,-22.43,31.28,322981.38,7518562.81
"260266",260266,1988,63,"v","Warthog",1,-22.52,31.3,325153.23,7508620.81
"260336",260336,1988,63,"v","Warthog",4,-22.53,31.25,320022.52,7507454.19
"260349",260349,1988,63,"v","Warthog",1,-22.43,31.22,316804.92,7518490.81
"260378",260378,1988,63,"v","Warthog",6,-22.61,31.18,312929.77,7498509.53
"260387",260387,1988,63,"v","Warthog",1,-22.57,31.19,313904.11,7502951.38
"260476",260476,1988,64,"v","Warthog",3,-22.4,31.28,322943.34,7521884.63
"260498",260498,1988,64,"v","Warthog",3,-22.39,31.27,321900.98,7522980.08
"260501",260501,1988,64,"v","Warthog",3,-22.37,31.27,321875.51,7525194.63
"260510",260510,1988,64,"v","Warthog",8,-22.37,31.27,321875.51,7525194.63
"260512",260512,1988,64,"v","Warthog",2,-22.38,31.28,322918.01,7524099.16
"260516",260516,1988,64,"v","Warthog",3,-22.36,31.27,321862.79,7526301.9
"260518",260518,1988,64,"v","Warthog",8,-22.37,31.27,321875.51,7525194.63
"260519",260519,1988,64,"v","Warthog",1,-22.37,31.27,321875.51,7525194.63
"260521",260521,1988,64,"v","Warthog",1,-22.37,31.26,320845.66,7525182.76
"260528",260528,1988,64,"v","Warthog",4,-22.4,31.26,320884.09,7521860.92
"260556",260556,1988,64,"v","Warthog",10,-22.4,31.25,319854.46,7521848.97
"260568",260568,1988,64,"v","Warthog",2,-22.4,31.24,318824.83,7521836.95
"260569",260569,1988,64,"v","Warthog",2,-22.4,31.24,318824.83,7521836.95
"260570",260570,1988,64,"v","Warthog",1,-22.39,31.24,318811.87,7522944.24
"260575",260575,1988,64,"v","Warthog",2,-22.36,31.25,319802.94,7526278.09
"260579",260579,1988,64,"v","Warthog",8,-22.38,31.23,317769.13,7524039.44
"260591",260591,1988,64,"v","Warthog",1,-22.42,31.23,317821.28,7519610.27
"260600",260600,1988,64,"v","Warthog",6,-22.39,31.22,316752.44,7522919.99
"260642",260642,1988,64,"v","Warthog",2,-22.41,31.2,314719.52,7520680.87
"260652",260652,1988,64,"v","Warthog",1,-22.35,31.19,313610,7527312.34
"260654",260654,1988,64,"v","Warthog",1,-22.35,31.19,313610,7527312.34
"260656",260656,1988,64,"v","Warthog",1,-22.35,31.19,313610,7527312.34
"260670",260670,1988,64,"v","Warthog",1,-22.37,31.17,311576.86,7525072.82
"260671",260671,1988,64,"v","Warthog",3,-22.37,31.17,311576.86,7525072.82
"260684",260684,1988,64,"v","Warthog",2,-22.32,31.17,311509.61,7530609.37
"260700",260700,1988,64,"v","Warthog",4,-22.38,31.16,310560.52,7523952.94
"260707",260707,1988,64,"v","Warthog",3,-22.36,31.16,310533.44,7526167.58
"260717",260717,1988,64,"v","Warthog",3,-22.32,31.16,310479.35,7530596.84
"260741",260741,1988,64,"v","Warthog",4,-22.34,31.12,306385.91,7528331.35
"260749",260749,1988,64,"v","Warthog",6,-22.39,31.1,304395.54,7522768.78
"260752",260752,1988,64,"v","Warthog",2,-22.36,31.1,304353.59,7526090.82
"260754",260754,1988,64,"v","Warthog",8,-22.34,31.11,305355.78,7528318.46
"260810",260810,1988,64,"v","Warthog",1,-22.42,31.17,311644.26,7519536.24
"260812",260812,1988,64,"v","Warthog",3,-22.42,31.18,312673.77,7519548.75
