"","ID","Year","Cenb","Sp","Description","No","Lat","Long","X.coord","Y.coord"
"264224",264224,1989,6,"wa","Waterbuck bull",1,-23.71,31.49,346061.93,7377064.1
"264241",264241,1989,6,"wa","Waterbuck bull",1,-23.66,31.47,343963.28,7382579.15
"264256",264256,1989,6,"wa","Waterbuck bull",1,-23.72,31.49,346073.67,7375956.73
"264271",264271,1989,6,"wa","Waterbuck bull",1,-23.72,31.48,345054.13,7375945.89
"264376",264376,1989,6,"wa","Waterbuck bull",1,-23.73,31.43,339968.58,7374783.19
"264379",264379,1989,6,"wa","Waterbuck bull",1,-23.74,31.43,339980.8,7373675.81
"264473",264473,1989,6,"wa","Waterbuck bull",3,-23.62,31.47,343915.84,7387008.58
"264493",264493,1989,6,"wa","Waterbuck bull",1,-23.61,31.44,340842.77,7388082.87
"264521",264521,1989,6,"wa","Waterbuck bull",1,-23.59,31.38,334695.17,7390229.57
"264912",264912,1989,8,"wa","Waterbuck bull",1,-23.5,31.39,335603.85,7400207.45
"264940",264940,1989,8,"wa","Waterbuck bull",1,-23.5,31.37,333561.29,7400184.41
"265029",265029,1989,8,"wa","Waterbuck bull",1,-23.46,31.32,328403.05,7404555.15
"265051",265051,1989,8,"wa","Waterbuck bull",1,-23.45,31.33,329411.81,7405674.42
"265160",265160,1989,9,"wa","Waterbuck bull",1,-23.62,31.17,313304.57,7386648.85
"265286",265286,1989,9,"wa","Waterbuck bull",1,-23.52,31.12,308057,7397657.5
"265304",265304,1989,9,"wa","Waterbuck bull",1,-23.47,31.1,305941.31,7403168.02
"265316",265316,1989,9,"wa","Waterbuck bull",2,-23.53,31.15,311134.94,7396589.84
"265343",265343,1989,9,"wa","Waterbuck bull",1,-23.52,31.16,312141.87,7397710.43
"265500",265500,1989,9,"wa","Waterbuck bull",2,-23.49,31.23,319249.29,7401122.63
"266009",266009,1989,11,"wa","Waterbuck bull",4,-23.17,31.32,328030.26,7436668.89
"266306",266306,1989,12,"wa","Waterbuck bull",1,-23.22,31.08,303530.27,7430827.76
"266566",266566,1989,13,"wa","Waterbuck bull",1,-23.76,31.6,357332.01,7371642.02
"266732",266732,1989,13,"wa","Waterbuck bull",1,-23.79,31.57,354307.84,7368289.56
"266771",266771,1989,13,"wa","Waterbuck bull",1,-23.71,31.51,348101.16,7377085.57
"266795",266795,1989,13,"wa","Waterbuck bull",1,-23.7,31.51,348089.58,7378192.92
"266897",266897,1989,14,"wa","Waterbuck bull",1,-23.5,31.5,346837.71,7400329.05
"266899",266899,1989,14,"wa","Waterbuck bull",2,-23.49,31.53,349890.1,7401468.04
"267072",267072,1989,14,"wa","Waterbuck bull",7,-23.45,31.35,331455.17,7405697.99
"267797",267797,1989,19,"wa","Waterbuck bull",1,-23.89,31.76,373764.62,7357398.64
"267837",267837,1989,19,"wa","Waterbuck bull",1,-23.92,31.79,376847.45,7354103.21
"267847",267847,1989,19,"wa","Waterbuck bull",1,-23.9,31.76,373774.33,7356291.34
"267864",267864,1989,19,"wa","Waterbuck bull",1,-23.96,31.84,381973.27,7349716.76
"267868",267868,1989,19,"wa","Waterbuck bull",1,-23.97,31.86,384017.34,7348626.07
"267875",267875,1989,19,"wa","Waterbuck bull",1,-23.96,31.83,380955.7,7349708.36
"267905",267905,1989,19,"wa","Waterbuck bull",1,-23.97,31.82,379947.4,7348592.59
"268012",268012,1989,19,"wa","Waterbuck bull",1,-23.88,31.68,365609.13,7358432.26
"268032",268032,1989,19,"wa","Waterbuck bull",1,-23.88,31.65,362554.41,7358403.44
"270620",270620,1989,20,"wa","Waterbuck bull",1,-24.12,31.29,326218.41,7331427.74
"270638",270638,1989,20,"wa","Waterbuck bull",1,-24.12,31.31,328251.34,7331452.39
"270644",270644,1989,20,"wa","Waterbuck bull",1,-24.11,31.31,328237.99,7332559.87
"270750",270750,1989,20,"wa","Waterbuck bull",1,-24.1,31.37,334324.31,7333739.53
"270757",270757,1989,20,"wa","Waterbuck bull",1,-24.08,31.38,335315.33,7335966.21
"270784",270784,1989,20,"wa","Waterbuck bull",1,-24.12,31.38,335366.49,7331536.4
"270879",270879,1989,20,"wa","Waterbuck bull",1,-24.07,31.44,341403.5,7337142.72
"271001",271001,1989,20,"wa","Waterbuck bull",1,-24.06,31.51,348509.36,7338327.41
"271043",271043,1989,20,"wa","Waterbuck bull",1,-24.07,31.55,352588.25,7337262.57
"271044",271044,1989,20,"wa","Waterbuck bull",1,-24.08,31.55,352599.68,7336155.19
"271112",271112,1989,20,"wa","Waterbuck bull",1,-24.05,31.61,358666.96,7339538.99
"271114",271114,1989,20,"wa","Waterbuck bull",5,-24.06,31.61,358677.91,7338431.62
"271142",271142,1989,20,"wa","Waterbuck bull",1,-24.1,31.63,360754.8,7334022.14
"271194",271194,1989,21,"wa","Waterbuck bull",1,-24.11,31.62,359749.18,7332904.81
"271197",271197,1989,21,"wa","Waterbuck bull",1,-24.12,31.62,359760.08,7331797.44
"271203",271203,1989,21,"wa","Waterbuck bull",1,-24.13,31.61,358754.7,7330680.02
"272278",272278,1989,23,"wa","Waterbuck bull",1,-24.08,31.71,368866.5,7336313.92
"272638",272638,1989,24,"wa","Waterbuck bull",1,-24.37,31.68,366120.16,7304171.89
"273108",273108,1989,25,"wa","Waterbuck bull",12,-24,31.86,384044.22,7345304.22
"273301",273301,1989,25,"wa","Waterbuck bull",1,-24.02,31.82,379993.77,7343056.11
"273356",273356,1989,25,"wa","Waterbuck bull",1,-24.01,31.74,371846.99,7344092.89
"274118",274118,1989,27,"wa","Waterbuck bull",1,-24.24,31.93,391367.71,7318785.22
"274196",274196,1989,27,"wa","Waterbuck bull",1,-24.3,31.94,392433.57,7312149.14
"275084",275084,1989,28,"wa","Waterbuck bull",1,-24.5,31.94,392602.85,7290002.68
"275295",275295,1989,28,"wa","Waterbuck bull",3,-24.65,31.92,390706.56,7273376.7
"275609",275609,1989,30,"wa","Waterbuck bull",1,-24.46,32,398650.32,7294477.29
"277286",277286,1989,32,"wa","Waterbuck bull",3,-24.41,31.58,356021.76,7299642.11
"277497",277497,1989,33,"wa","Waterbuck bull",2,-24.61,31.66,364349.15,7277574.6
"278582",278582,1989,35,"wa","Waterbuck bull",1,-24.87,31.74,372713.63,7248858.16
"278909",278909,1989,36,"wa","Waterbuck bull",1,-24.82,31.83,381758.85,7254476.33
"278912",278912,1989,36,"wa","Waterbuck bull",1,-24.83,31.83,381768.35,7253368.92
"279114",279114,1989,37,"wa","Waterbuck bull",1,-24.81,31.96,394889.32,7255690.09
"279115",279115,1989,37,"wa","Waterbuck bull",2,-24.81,31.96,394889.32,7255690.09
"279246",279246,1989,37,"wa","Waterbuck bull",1,-24.78,31.93,391831.03,7258988.81
"279491",279491,1989,37,"wa","Waterbuck bull",1,-24.95,32,399046.16,7240217.01
"279502",279502,1989,37,"wa","Waterbuck bull",2,-24.97,31.98,397043.59,7237987.21
"279569",279569,1989,37,"wa","Waterbuck bull",1,-24.99,32.01,400088.08,7235794.85
"279573",279573,1989,37,"wa","Waterbuck bull",1,-24.96,32.01,400063.84,7239117.02
"279710",279710,1989,37,"wa","Waterbuck bull",1,-25.08,31.97,396126.78,7225798.13
"280018",280018,1989,38,"wa","Waterbuck bull",1,-25.03,31.93,392048.78,7231303.88
"280021",280021,1989,38,"wa","Waterbuck bull",1,-25.01,31.93,392031.29,7233518.7
"280135",280135,1989,38,"wa","Waterbuck bull",3,-25.04,31.88,387013.09,7230155.65
"280376",280376,1989,39,"wa","Waterbuck bull",1,-25.02,31.33,331492.64,7231798.86
"281137",281137,1989,41,"wa","Waterbuck bull",2,-25.19,31.49,347850.18,7213160.09
"281604",281604,1989,42,"wa","Waterbuck bull",1,-25.14,31.55,353837.11,7218764.27
"281767",281767,1989,42,"wa","Waterbuck bull",1,-25.22,31.56,354940.03,7209914.77
"282508",282508,1989,43,"wa","Waterbuck bull",1,-25.1,31.41,339670.4,7223035.47
"285045",285045,1989,56,"wa","Waterbuck bull",2,-25.28,31.52,350983.26,7203225.65
"285184",285184,1989,56,"wa","Waterbuck bull",1,-25.41,31.33,332029.17,7188601.69
"285568",285568,1989,57,"wa","Waterbuck bull",1,-25.09,31.84,383024.99,7224584.45
"285812",285812,1989,58,"wa","Waterbuck bull",1,-25.02,31.78,376904.07,7232283.35
"286998",286998,1989,64,"wa","Waterbuck bull",1,-22.42,31.2,314732.79,7519573.56
