"","ID","Year","Cenb","Sp","Description","No","Lat","Long","X.coord","Y.coord"
"176405",176405,1986,48,"rk","Roan antelope calf",2,-22.78,31.29,324455.5,7479819.34
"176444",176444,1986,48,"rk","Roan antelope calf",2,-22.83,31.24,319387.44,7474222.44
"176523",176523,1986,48,"rk","Roan antelope calf",3,-22.84,31.27,322479.7,7473151.51
"176529",176529,1986,48,"rk","Roan antelope calf",2,-22.81,31.31,326547.05,7476521.02
"176608",176608,1986,48,"rk","Roan antelope calf",1,-22.88,31.28,323557.72,7468734.2
"176640",176640,1986,48,"rk","Roan antelope calf",2,-22.86,31.33,328662.8,7471007.84
"180125",180125,1986,37,"rk","Roan antelope calf",2,-24.92,31.98,397002.01,7243524.16
"187657",187657,1986,12,"rk","Roan antelope calf",3,-23.28,31,295433.37,7424072.28
"188726",188726,1986,8,"rk","Roan antelope calf",1,-23.44,31.3,326333.66,7406745.94
"188915",188915,1986,8,"rk","Roan antelope calf",2,-23.53,31.31,327472.62,7396791.4
"191643",191643,1986,53,"rk","Roan antelope calf",1,-23.07,31.12,307410.1,7447492.79
"196134",196134,1986,2,"rk","Roan antelope calf",2,-23.91,31.44,341207.3,7354861.35
"196407",196407,1986,47,"rk","Roan antelope calf",4,-22.67,31.17,311983.38,7491852.85
"196449",196449,1986,47,"rk","Roan antelope calf",1,-22.67,31.26,321232.17,7491963.94
"196647",196647,1986,13,"rk","Roan antelope calf",2,-23.69,31.6,357255.79,7379393.29
"199040",199040,1986,49,"rk","Roan antelope calf",4,-22.98,31.33,328813.67,7457720.05
"200105",200105,1986,52,"rk","Roan antelope calf",2,-23.06,31.28,323791.3,7448802.03
"200138",200138,1986,52,"rk","Roan antelope calf",1,-23.04,31.31,326839.75,7451052.56
"200781",200781,1986,18,"rk","Roan antelope calf",1,-23.19,31.31,327032.15,7434442.33
"201193",201193,1986,15,"rk","Roan antelope calf",3,-23.38,31.32,328299.77,7413414.22
"201282",201282,1986,15,"rk","Roan antelope calf",5,-23.33,31.37,333348.4,7419009.6
"202826",202826,1986,14,"rk","Roan antelope calf",1,-23.44,31.37,333485.98,7406828.64
"203110",203110,1986,14,"rk","Roan antelope calf",3,-23.52,31.49,345839.76,7398103.69
