"","ID","Year","Cenb","Sp","Description","No","Lat","Long","X.coord","Y.coord"
"365234",365234,1993,52,"b","Buffalo",3,-23.07,31.19,314582.7,7447583.33
"365251",365251,1993,52,"b","Buffalo",60,-23.07,31.2,315607.34,7447595.98
"365385",365385,1993,52,"b","Buffalo",33,-23.04,31.32,327864.57,7451064.36
"365386",365386,1993,52,"b","Buffalo",300,-23.04,31.32,327864.57,7451064.36
"365413",365413,1993,52,"b","Buffalo",2,-23.07,31.39,335074.8,7447823.06
"365508",365508,1993,52,"b","Buffalo",14,-23.12,31.27,322845.32,7442145.78
"365511",365511,1993,52,"b","Buffalo",1,-23.11,31.27,322832.19,7443253.14
"365733",365733,1993,53,"b","Buffalo",120,-23.11,30.96,291076.72,7442842.93
"365757",365757,1993,53,"b","Buffalo",40,-23.01,30.92,286821.38,7453860.23
"365942",365942,1993,53,"b","Buffalo",120,-23.03,31.03,298128.24,7451801.18
"366013",366013,1993,53,"b","Buffalo",2,-23.09,31.03,298217.76,7445156.4
"366486",366486,1993,54,"b","Buffalo",60,-23.05,31.24,319679.21,7449860.63
"366788",366788,1993,55,"b","Buffalo",60,-22.74,31.02,296671.45,7483903.27
"366825",366825,1993,55,"b","Buffalo",60,-22.87,30.97,291733.19,7469436.79
"366845",366845,1993,55,"b","Buffalo",15,-22.86,31,294796.88,7470586.34
"367104",367104,1993,47,"b","Buffalo",3,-22.69,31.13,307900.59,7489586.93
"367128",367128,1993,47,"b","Buffalo",3,-22.68,31.29,324327.77,7490892.42
"367138",367138,1993,47,"b","Buffalo",15,-22.72,31.14,308969.76,7486277.73
"367354",367354,1993,48,"b","Buffalo",60,-22.81,31.26,321414.21,7476461.44
"367545",367545,1993,49,"b","Buffalo",40,-22.96,31.38,333915.54,7459992.13
"367627",367627,1993,49,"b","Buffalo",200,-23.01,31.36,331926.63,7454432.8
"367658",367658,1993,49,"b","Buffalo",2,-23.01,31.42,338076.76,7454500.37
"367702",367702,1993,49,"b","Buffalo",70,-22.92,31.38,333866.72,7464421.33
"367778",367778,1993,50,"b","Buffalo",37,-23.19,31.54,350575.97,7434697.25
"367802",367802,1993,50,"b","Buffalo",300,-23.13,31.47,343340.85,7441267.37
"367866",367866,1993,50,"b","Buffalo",250,-23.07,31.45,341222.14,7447889.5
"367972",367972,1993,6,"b","Buffalo",4,-23.62,31.39,335753.14,7386918.94
"368090",368090,1993,6,"b","Buffalo",200,-23.72,31.43,339956.37,7375890.58
"368281",368281,1993,7,"b","Buffalo",5,-23.65,31.28,324569.07,7383465.93
"368472",368472,1993,8,"b","Buffalo",4,-23.47,31.3,326372.91,7403423.75
"368490",368490,1993,8,"b","Buffalo",13,-23.47,31.28,324329.82,7403399.46
"368505",368505,1993,8,"b","Buffalo",100,-23.47,31.27,323308.26,7403387.2
"368582",368582,1993,8,"b","Buffalo",180,-23.41,31.27,323228.43,7410031.64
"368595",368595,1993,8,"b","Buffalo",150,-23.38,31.31,327277.54,7413402.29
"368835",368835,1993,9,"b","Buffalo",4,-23.5,31.21,317220.26,7399989.88
"369056",369056,1993,10,"b","Buffalo",2,-23.42,31.16,312000.18,7408784.99
"369248",369248,1993,11,"b","Buffalo",2,-23.21,31.25,320916.63,7432154.93
"369253",369253,1993,11,"b","Buffalo",9,-23.22,31.24,319906.49,7431035.18
"369488",369488,1993,12,"b","Buffalo",25,-23.21,30.99,294302.87,7431810.65
"369798",369798,1993,13,"b","Buffalo",250,-23.67,31.5,347034.94,7381504.28
"369849",369849,1993,13,"b","Buffalo",60,-23.63,31.6,357190.62,7386037.18
"369850",369850,1993,13,"b","Buffalo",200,-23.65,31.6,357212.33,7383822.56
"369941",369941,1993,13,"b","Buffalo",200,-23.79,31.59,356345.77,7368309.94
"370055",370055,1993,13,"b","Buffalo",5,-23.76,31.62,359370.39,7371661.94
"370109",370109,1993,13,"b","Buffalo",11,-23.7,31.64,361345.29,7378325.46
"370284",370284,1993,15,"b","Buffalo",70,-23.39,31.5,346710.81,7412509.58
"370300",370300,1993,15,"b","Buffalo",5,-23.34,31.48,344608.36,7418024.77
"370386",370386,1993,15,"b","Buffalo",150,-23.38,31.34,330344.22,7413437.87
"370399",370399,1993,15,"b","Buffalo",50,-23.29,31.32,328183.99,7423380.58
"370558",370558,1993,18,"b","Buffalo",70,-23.23,31.52,348573.85,7430247.43
"370827",370827,1993,19,"b","Buffalo",9,-23.82,31.68,365547.23,7365076.16
"370962",370962,1993,1,"b","Buffalo",60,-23.95,31.74,371787.6,7350736.79
"371152",371152,1993,1,"b","Buffalo",80,-23.91,31.66,363604.13,7355091.13
"371461",371461,1993,2,"b","Buffalo",220,-23.92,31.54,351399.3,7353862.75
"371513",371513,1993,2,"b","Buffalo",100,-23.95,31.51,348380.46,7350508.72
"371530",371530,1993,2,"b","Buffalo",9,-23.87,31.5,347268.7,7359357
"371598",371598,1993,2,"b","Buffalo",2,-23.95,31.46,343291.74,7350454.09
"371629",371629,1993,2,"b","Buffalo",2,-23.91,31.43,340189.23,7354850.08
"371641",371641,1993,2,"b","Buffalo",2,-23.91,31.42,339171.15,7354838.73
"371974",371974,1993,3,"b","Buffalo",40,-23.91,31.32,328990.2,7354721.31
"371982",371982,1993,3,"b","Buffalo",150,-23.88,31.32,328950.73,7358043.65
"371991",371991,1993,3,"b","Buffalo",150,-23.88,31.32,328950.73,7358043.65
"371996",371996,1993,3,"b","Buffalo",4,-23.88,31.33,329969.07,7358055.71
"372006",372006,1993,3,"b","Buffalo",2,-23.88,31.35,332005.75,7358079.6
"372248",372248,1993,4,"b","Buffalo",2,-23.73,31.24,320597.8,7374556.6
"372301",372301,1993,4,"b","Buffalo",70,-23.85,31.3,326874.13,7361341.67
"372311",372311,1993,4,"b","Buffalo",200,-23.78,31.31,327800.36,7369105.94
"372563",372563,1993,5,"b","Buffalo",20,-23.81,31.43,340066.45,7365924.09
"372650",372650,1993,5,"b","Buffalo",52,-23.75,31.39,335915.69,7372522.84
"372722",372722,1993,20,"b","Buffalo",15,-24.08,31.39,336332.09,7335977.9
"373156",373156,1993,21,"b","Buffalo",150,-24.14,31.49,346570.98,7329446.4
"373468",373468,1993,21,"b","Buffalo",3,-24.41,31.5,347909.11,7299556.66
"373469",373469,1993,21,"b","Buffalo",4,-24.41,31.49,346895.02,7299545.65
"373568",373568,1993,21,"b","Buffalo",1,-24.39,31.58,355999.08,7301856.95
"373578",373578,1993,21,"b","Buffalo",200,-24.45,31.48,345929.54,7295104.72
"373673",373673,1993,21,"b","Buffalo",200,-24.45,31.48,345929.54,7295104.72
"373728",373728,1993,21,"b","Buffalo",3,-24.41,31.5,347909.11,7299556.66
"373729",373729,1993,21,"b","Buffalo",4,-24.41,31.49,346895.02,7299545.65
"374195",374195,1993,22,"b","Buffalo",1,-24.31,31.54,351849.04,7310674.27
"374676",374676,1993,24,"b","Buffalo",200,-24.36,31.62,360022.94,7305220.12
"375052",375052,1993,24,"b","Buffalo",2,-24.36,31.68,366109.63,7305279.28
"375131",375131,1993,24,"b","Buffalo",2,-24.28,31.67,365010.48,7314128.68
"375367",375367,1993,25,"b","Buffalo",30,-24,31.81,378957.95,7345262.15
"375747",375747,1993,26,"b","Buffalo",7,-24.32,31.86,384332.81,7309870.33
"376922",376922,1993,29,"b","Buffalo",70,-24.65,31.8,378561.74,7273275.9
"377256",377256,1993,30,"b","Buffalo",10,-24.75,31.93,391805.04,7262310.94
"377346",377346,1993,30,"b","Buffalo",200,-24.73,31.88,386730.67,7264485.25
"377495",377495,1993,30,"b","Buffalo",25,-24.45,31.99,397628.67,7295577.24
"378392",378392,1993,32,"b","Buffalo",100,-24.5,31.47,344977.03,7289556.21
"378604",378604,1993,32,"b","Buffalo",11,-24.5,31.6,358150.73,7289695.92
"378886",378886,1993,33,"b","Buffalo",150,-24.73,31.65,363467.43,7264275.44
"378981",378981,1993,34,"b","Buffalo",60,-24.66,31.78,376547.41,7272150.67
"379127",379127,1993,34,"b","Buffalo",50,-24.73,31.79,377627.82,7264407.81
"379160",379160,1993,34,"b","Buffalo",2,-24.73,31.74,372570.59,7264362.2
"379988",379988,1993,36,"b","Buffalo",150,-24.79,31.72,370609.86,7257698.85
"380040",380040,1993,36,"b","Buffalo",200,-24.81,31.87,385792.46,7255617.8
"380130",380130,1993,36,"b","Buffalo",35,-24.83,31.82,380757.73,7253360.22
"380184",380184,1993,36,"b","Buffalo",1,-24.87,31.77,375744.56,7248885.87
"381746",381746,1993,39,"b","Buffalo",150,-25.12,31.3,328604.28,7220685.08
"381801",381801,1993,40,"b","Buffalo",350,-25.35,31.28,326913.62,7195183.79
"382278",382278,1993,41,"b","Buffalo",100,-25.15,31.48,346792.42,7217578.99
"383132",383132,1993,43,"b","Buffalo",18,-24.97,31.41,339501.27,7237433.83
"383460",383460,1993,44,"b","Buffalo",6,-25.4,31.59,358172.29,7190010.98
"383465",383465,1993,44,"b","Buffalo",25,-25.39,31.6,359166.68,7191129.12
"383594",383594,1993,44,"b","Buffalo",150,-25.38,31.66,365192.01,7192298.55
"383595",383595,1993,44,"b","Buffalo",45,-25.37,31.66,365180.9,7193406.09
"383603",383603,1993,44,"b","Buffalo",5,-25.3,31.67,366110.11,7201168.82
"384113",384113,1993,44,"b","Buffalo",115,-25.36,31.83,382276.75,7194674.14
"384121",384121,1993,44,"b","Buffalo",3,-25.37,31.87,386311.18,7193601.26
"384900",384900,1993,45,"b","Buffalo",130,-25.21,31.93,392206.83,7211370.17
"385205",385205,1993,56,"b","Buffalo",55,-25.42,31.52,351154.79,7187719.62
"385219",385219,1993,56,"b","Buffalo",45,-25.42,31.54,353166.49,7187741.78
"385352",385352,1993,56,"b","Buffalo",30,-25.47,31.46,345183.58,7182113.29
"385389",385389,1993,56,"b","Buffalo",120,-25.5,31.42,341201.18,7178743.31
"385441",385441,1993,56,"b","Buffalo",300,-25.45,31.32,331078.98,7184158.46
"385853",385853,1993,60,"b","Buffalo",19,-25,31.62,360735.88,7234343.37
"386319",386319,1993,46,"b","Buffalo",175,-25.27,31.96,395280.72,7204749.25
"386424",386424,1993,61,"b","Buffalo",40,-22.69,31.04,298652.67,7489467.66
"386462",386462,1993,61,"b","Buffalo",50,-22.63,30.98,292396.91,7496029.64
"386478",386478,1993,61,"b","Buffalo",30,-22.55,30.97,291248.24,7504875.12
"386584",386584,1993,62,"b","Buffalo",2,-22.63,31.16,310900.92,7496269.57
"386695",386695,1993,64,"b","Buffalo",45,-22.38,31.26,320858.47,7524075.48
"386751",386751,1993,64,"b","Buffalo",18,-22.39,31.21,315722.72,7522907.77
"386774",386774,1993,64,"b","Buffalo",1,-22.37,31.18,312606.75,7525085.31
