"","ID","Year","Cenb","Sp","Description","No","Lat","Long","X.coord","Y.coord"
"401668",401668,1995,9,"sr","Black rhino",1,-23.61,31.68,365331.73,7388329.42
"402375",402375,1995,12,"sr","Black rhino",2,-24.19,31.55,352725.76,7323973.83
"405129",405129,1995,20,"sr","Black rhino",1,-24.61,31.9,388647,7277790.09
"405140",405140,1995,20,"sr","Black rhino",3,-24.58,31.91,389633.07,7281120.23
"405353",405353,1995,23,"sr","Black rhino",1,-24.63,31.95,393725.79,7275614.95
"405368",405368,1995,23,"sr","Black rhino",2,-24.67,31.94,392747.76,7271177.74
"405739",405739,1995,25,"sr","Black rhino",1,-24.44,31.6,358083.47,7296340.48
