"","ID","Year","Cenb","Sp","Description","No","Lat","Long","X.coord","Y.coord"
"338818",338818,1992,52,"o","Elephant",9,-23.11,31.36,332050.81,7443359.58
"338916",338916,1992,52,"o","Elephant",18,-23.15,31.25,320836.72,7438799.22
"339027",339027,1992,52,"o","Elephant",15,-23.04,31.32,327864.57,7451064.36
"339293",339293,1992,53,"o","Elephant",3,-23.06,31.05,300222.53,7448506.27
"339302",339302,1992,53,"o","Elephant",21,-23.1,31.03,298232.71,7444048.93
"339413",339413,1992,53,"o","Elephant",25,-22.99,30.96,290891.37,7456132.86
"339614",339614,1992,53,"o","Elephant",23,-23.18,31.06,301424.06,7435230.43
"339616",339616,1992,53,"o","Elephant",31,-23.19,31.06,301438.83,7434122.96
"339621",339621,1992,53,"o","Elephant",6,-23.17,31.06,301409.3,7436337.89
"339634",339634,1992,53,"o","Elephant",11,-23.11,31.04,299272.06,7442955.26
"339638",339638,1992,53,"o","Elephant",14,-23.14,31.04,299316.71,7439632.86
"339639",339639,1992,53,"o","Elephant",4,-23.15,31.05,300355.7,7438539.14
"339645",339645,1992,53,"o","Elephant",6,-23.17,31.05,300385.36,7436324.21
"339650",339650,1992,53,"o","Elephant",7,-23.15,31.04,299331.61,7438525.4
"339822",339822,1992,54,"o","Elephant",30,-22.97,31.08,303166.21,7458513.86
"339852",339852,1992,54,"o","Elephant",20,-22.95,31.05,300060.44,7460688.18
"339864",339864,1992,54,"o","Elephant",11,-22.95,31.04,299034.83,7460674.53
"339871",339871,1992,54,"o","Elephant",60,-22.94,31.02,296968.67,7461754.47
"339885",339885,1992,54,"o","Elephant",58,-22.93,31.01,295927.98,7462848.07
"339895",339895,1992,54,"o","Elephant",12,-22.96,30.98,292896.31,7459483.68
"339898",339898,1992,54,"o","Elephant",38,-22.95,30.98,292881.08,7460591.15
"339899",339899,1992,54,"o","Elephant",45,-22.93,30.99,293876.41,7462820.15
"339907",339907,1992,54,"o","Elephant",30,-22.94,30.97,291840.13,7461684.49
"339912",339912,1992,54,"o","Elephant",6,-22.95,30.96,290829.79,7460562.8
"339995",339995,1992,54,"o","Elephant",70,-23.02,31.26,321689.26,7453207.23
"340019",340019,1992,54,"o","Elephant",40,-23.04,31.22,317616.18,7450943.21
"340020",340020,1992,54,"o","Elephant",48,-23.03,31.22,317602.71,7452050.59
"340021",340021,1992,54,"o","Elephant",19,-23.03,31.22,317602.71,7452050.59
"340083",340083,1992,54,"o","Elephant",7,-23.01,31.21,316550.71,7454252.85
"340085",340085,1992,54,"o","Elephant",30,-23.01,31.2,315525.62,7454240.29
"340086",340086,1992,54,"o","Elephant",30,-23.02,31.2,315539.23,7453132.91
"340237",340237,1992,54,"o","Elephant",3,-22.98,31.14,309332.84,7457485.69
"340300",340300,1992,54,"o","Elephant",2,-22.93,31.15,310288.43,7463035.63
"340568",340568,1992,55,"o","Elephant",50,-22.75,31.08,302848.93,7482876.98
"340598",340598,1992,55,"o","Elephant",1,-22.87,31.06,300969.23,7469561.2
"341029",341029,1992,48,"o","Elephant",4,-22.84,31.43,338900.8,7473335.12
"341030",341030,1992,48,"o","Elephant",9,-22.84,31.44,339927.09,7473346
"341233",341233,1992,49,"o","Elephant",3,-22.93,31.38,333878.92,7463314.03
"341234",341234,1992,49,"o","Elephant",3,-22.94,31.37,332865.56,7462195.39
"341235",341235,1992,49,"o","Elephant",1,-22.94,31.38,333891.12,7462206.73
"341563",341563,1992,51,"o","Elephant",3,-22.62,31.26,321167.41,7497500.49
"341564",341564,1992,51,"o","Elephant",2,-22.61,31.27,322182.54,7498619.76
"341595",341595,1992,51,"o","Elephant",36,-22.65,31.33,328400.57,7494261.03
"341716",341716,1992,6,"o","Elephant",5,-23.62,31.47,343915.84,7387008.58
"341736",341736,1992,6,"o","Elephant",23,-23.65,31.46,342931.32,7383675.55
"341819",341819,1992,6,"o","Elephant",8,-23.71,31.49,346061.93,7377064.1
"341821",341821,1992,6,"o","Elephant",29,-23.71,31.47,344022.69,7377042.34
"341827",341827,1992,6,"o","Elephant",25,-23.73,31.37,333851.63,7374714.43
"341857",341857,1992,6,"o","Elephant",7,-23.74,31.4,336922.57,7373641.74
"341860",341860,1992,6,"o","Elephant",8,-23.74,31.41,337941.98,7373653.17
"341862",341862,1992,6,"o","Elephant",16,-23.74,31.41,337941.98,7373653.17
"341865",341865,1992,6,"o","Elephant",31,-23.74,31.43,339980.8,7373675.81
"341900",341900,1992,7,"o","Elephant",45,-23.66,31.17,313361.32,7382218.95
"341925",341925,1992,7,"o","Elephant",8,-23.66,31.21,317441.77,7382270.7
"341927",341927,1992,7,"o","Elephant",20,-23.66,31.22,318461.88,7382283.46
"341999",341999,1992,7,"o","Elephant",16,-23.74,31.35,331825.46,7373583.53
"342031",342031,1992,7,"o","Elephant",15,-23.64,31.3,326596.2,7384597.79
"342211",342211,1992,8,"o","Elephant",21,-23.46,31.33,329424.66,7404567.04
"342248",342248,1992,8,"o","Elephant",51,-23.52,31.39,335628.68,7397992.71
"342275",342275,1992,8,"o","Elephant",6,-23.53,31.29,325430.46,7396767.2
"342281",342281,1992,8,"o","Elephant",7,-23.52,31.29,325417.26,7397874.61
"342282",342282,1992,8,"o","Elephant",1,-23.52,31.29,325417.26,7397874.61
"342284",342284,1992,8,"o","Elephant",12,-23.5,31.31,327433.51,7400113.6
"342330",342330,1992,9,"o","Elephant",25,-23.61,31.12,308187.8,7387690.13
"342440",342440,1992,9,"o","Elephant",8,-23.5,31.07,302921.06,7399804.72
"342446",342446,1992,9,"o","Elephant",1,-23.52,31.08,303972.07,7397603.42
"342539",342539,1992,9,"o","Elephant",8,-23.49,31.15,311077.86,7401019.7
"342576",342576,1992,9,"o","Elephant",8,-23.45,31.16,312042.63,7405462.64
"342640",342640,1992,9,"o","Elephant",15,-23.47,31.2,316157.3,7403299.44
"342893",342893,1992,10,"o","Elephant",11,-23.44,31.15,311006.64,7406557
"342897",342897,1992,10,"o","Elephant",12,-23.42,31.13,308934.22,7408745.52
"342898",342898,1992,10,"o","Elephant",7,-23.42,31.13,308934.22,7408745.52
"343240",343240,1992,11,"o","Elephant",20,-23.34,31.3,326203.18,7417819.82
"343437",343437,1992,11,"o","Elephant",9,-23.24,31.22,317886.66,7428795.44
"343438",343438,1992,11,"o","Elephant",2,-23.23,31.22,317873.09,7429902.84
"343440",343440,1992,11,"o","Elephant",3,-23.23,31.22,317873.09,7429902.84
"343446",343446,1992,11,"o","Elephant",9,-23.23,31.21,316849.67,7429890.26
"343448",343448,1992,11,"o","Elephant",7,-23.24,31.21,316863.32,7428782.86
"343680",343680,1992,12,"o","Elephant",20,-23.26,31.03,298472.62,7426329.3
"343686",343686,1992,12,"o","Elephant",15,-23.26,31.02,297449.35,7426315.37
"344000",344000,1992,13,"o","Elephant",16,-23.8,31.58,355337.88,7367192.45
"344021",344021,1992,13,"o","Elephant",6,-23.8,31.58,355337.88,7367192.45
"344029",344029,1992,13,"o","Elephant",1,-23.82,31.62,359434.95,7365017.98
"344067",344067,1992,13,"o","Elephant",3,-23.83,31.58,355371.13,7363870.42
"344123",344123,1992,13,"o","Elephant",5,-23.65,31.48,344971.5,7383697.41
"344170",344170,1992,13,"o","Elephant",30,-23.73,31.5,347104.88,7374860.15
"344201",344201,1992,13,"o","Elephant",6,-23.78,31.57,354296.69,7369396.9
"344274",344274,1992,14,"o","Elephant",7,-23.5,31.54,350922.65,7400371.13
"344285",344285,1992,14,"o","Elephant",7,-23.48,31.5,346814.6,7402543.7
"344293",344293,1992,14,"o","Elephant",13,-23.46,31.53,349856.14,7404789.98
"344294",344294,1992,14,"o","Elephant",2,-23.46,31.53,349856.14,7404789.98
"344295",344295,1992,14,"o","Elephant",12,-23.46,31.51,347813.05,7404768.97
"345157",345157,1992,18,"o","Elephant",12,-23.17,31.33,329054.09,7436680.67
"345172",345172,1992,18,"o","Elephant",5,-23.15,31.35,331076.65,7438918.7
"345185",345185,1992,18,"o","Elephant",52,-23.14,31.37,333112.21,7440049.08
"345278",345278,1992,19,"o","Elephant",22,-23.48,31.55,351921.54,7402596.1
"345351",345351,1992,19,"o","Elephant",8,-23.76,31.67,364466.3,7371710.51
"345355",345355,1992,19,"o","Elephant",15,-23.77,31.66,363457.56,7370593.63
"345896",345896,1992,1,"o","Elephant",1,-23.91,31.57,354441.97,7355001.35
"345970",345970,1992,1,"o","Elephant",24,-23.94,31.64,361600.1,7351749.66
"346001",346001,1992,1,"o","Elephant",60,-23.88,31.65,362554.41,7358403.44
"346039",346039,1992,1,"o","Elephant",65,-23.93,31.7,367696.51,7352914.52
"346041",346041,1992,1,"o","Elephant",9,-23.94,31.71,368724.46,7351816.53
"346042",346042,1992,1,"o","Elephant",40,-23.94,31.71,368724.46,7351816.53
"346057",346057,1992,1,"o","Elephant",34,-23.95,31.72,369752.25,7350718.48
"346058",346058,1992,1,"o","Elephant",3,-23.94,31.72,369742.21,7351825.79
"346060",346060,1992,1,"o","Elephant",12,-23.94,31.74,371777.71,7351844.11
"346073",346073,1992,1,"o","Elephant",5,-24.03,31.73,370849.78,7341869.1
"346139",346139,1992,1,"o","Elephant",8,-23.96,31.77,374850.25,7349656.42
"346203",346203,1992,1,"o","Elephant",10,-23.99,31.66,363688.25,7346232.44
"346212",346212,1992,1,"o","Elephant",20,-24.03,31.67,364747.47,7341812.71
"346213",346213,1992,1,"o","Elephant",30,-24.04,31.67,364757.94,7340705.37
"346217",346217,1992,1,"o","Elephant",6,-24.05,31.68,365785.32,7339607.61
"346275",346275,1992,1,"o","Elephant",12,-24.02,31.71,368805.53,7342957.93
"346365",346365,1992,2,"o","Elephant",3,-23.9,31.51,348322.05,7356045.63
"346366",346366,1992,2,"o","Elephant",7,-23.9,31.51,348322.05,7356045.63
"346390",346390,1992,2,"o","Elephant",39,-23.89,31.5,347292.18,7357142.24
"346422",346422,1992,2,"o","Elephant",17,-23.91,31.5,347315.68,7354927.48
"346449",346449,1992,2,"o","Elephant",11,-23.92,31.49,346309.46,7353809.25
"346500",346500,1992,2,"o","Elephant",12,-23.95,31.48,345327.24,7350476.16
"346505",346505,1992,2,"o","Elephant",8,-23.94,31.47,344297.49,7351572.56
"346590",346590,1992,2,"o","Elephant",11,-23.97,31.42,339245.52,7348194.24
"346682",346682,1992,2,"o","Elephant",8,-23.98,31.45,342310.51,7347120.72
"346689",346689,1992,2,"o","Elephant",3,-23.98,31.42,339257.93,7347086.83
"346690",346690,1992,2,"o","Elephant",13,-23.98,31.42,339257.93,7347086.83
"346942",346942,1992,3,"o","Elephant",3,-23.94,31.35,332083.33,7351434.98
"346944",346944,1992,3,"o","Elephant",1,-23.95,31.35,332096.28,7350327.54
"346948",346948,1992,3,"o","Elephant",6,-23.94,31.35,332083.33,7351434.98
"346950",346950,1992,3,"o","Elephant",15,-23.94,31.34,331065.46,7351423.05
"346951",346951,1992,3,"o","Elephant",8,-23.94,31.34,331065.46,7351423.05
"346952",346952,1992,3,"o","Elephant",33,-23.94,31.34,331065.46,7351423.05
"346953",346953,1992,3,"o","Elephant",10,-23.95,31.33,330060.69,7350303.59
"346970",346970,1992,3,"o","Elephant",9,-23.95,31.31,328025.1,7350279.35
"346997",346997,1992,3,"o","Elephant",1,-23.92,31.3,326967.29,7353589.51
"347116",347116,1992,3,"o","Elephant",8,-23.94,31.17,313761.15,7351209.12
"347127",347127,1992,3,"o","Elephant",7,-24.05,31.21,317987.67,7339078.81
"347131",347131,1992,3,"o","Elephant",1,-24.04,31.22,318990.7,7340199.23
"347133",347133,1992,3,"o","Elephant",52,-24.05,31.22,319004.72,7339091.72
"347134",347134,1992,3,"o","Elephant",13,-24.04,31.22,318990.7,7340199.23
"347318",347318,1992,4,"o","Elephant",20,-23.68,31.16,312369.77,7379990.87
"347348",347348,1992,4,"o","Elephant",20,-23.7,31.2,316477.58,7377828.01
"347361",347361,1992,4,"o","Elephant",10,-23.71,31.21,317511.29,7376733.39
"347555",347555,1992,4,"o","Elephant",6,-23.82,31.31,327853.11,7364676.19
"347577",347577,1992,4,"o","Elephant",20,-23.84,31.3,326860.84,7362449.12
"347578",347578,1992,4,"o","Elephant",1,-23.83,31.3,326847.56,7363556.57
"347585",347585,1992,4,"o","Elephant",25,-23.78,31.3,326781.23,7369093.78
"347586",347586,1992,4,"o","Elephant",1,-23.78,31.3,326781.23,7369093.78
"347595",347595,1992,4,"o","Elephant",1,-23.86,31.3,326887.42,7360234.22
"347607",347607,1992,4,"o","Elephant",1,-23.85,31.29,325855.54,7361329.41
"347652",347652,1992,4,"o","Elephant",8,-23.83,31.25,321753.78,7363494.59
"347686",347686,1992,4,"o","Elephant",15,-23.8,31.24,320693.79,7366804.38
"347688",347688,1992,4,"o","Elephant",7,-23.82,31.24,320721.27,7364589.44
"347704",347704,1992,4,"o","Elephant",20,-23.78,31.23,319647.18,7369006.64
"347724",347724,1992,4,"o","Elephant",10,-23.78,31.22,318628.01,7368993.9
"347732",347732,1992,4,"o","Elephant",11,-23.81,31.21,317650.74,7365658.67
"347796",347796,1992,5,"o","Elephant",2,-23.81,31.58,355348.96,7366085.1
"347872",347872,1992,5,"o","Elephant",10,-23.82,31.52,349247.6,7364915.27
"347893",347893,1992,5,"o","Elephant",5,-23.81,31.5,347198.38,7366001.24
"347896",347896,1992,5,"o","Elephant",17,-23.77,31.5,347151.59,7370430.71
"347911",347911,1992,5,"o","Elephant",23,-23.79,31.48,345136.99,7368194.31
"348143",348143,1992,5,"o","Elephant",18,-23.77,31.48,345113.29,7370409.05
"348144",348144,1992,5,"o","Elephant",21,-23.77,31.48,345113.29,7370409.05
"348217",348217,1992,61,"o","Elephant",2,-22.7,30.91,285309.54,7488177.98
"348265",348265,1992,61,"o","Elephant",7,-22.58,31.08,302605.74,7501702.62
"348283",348283,1992,61,"o","Elephant",3,-22.51,30.99,293245.94,7509332.62
"348291",348291,1992,62,"o","Elephant",25,-22.58,31.11,305690.83,7501742.02
"348304",348304,1992,62,"o","Elephant",7,-22.52,31.14,308693.13,7508424.89
"348367",348367,1992,62,"o","Elephant",15,-22.44,31.17,311671.26,7517321.59
"348387",348387,1992,63,"o","Elephant",14,-22.57,31.34,329329.62,7503130.72
"348389",348389,1992,63,"o","Elephant",19,-22.57,31.32,327272.94,7503107.7
"348390",348390,1992,63,"o","Elephant",52,-22.58,31.33,328313.67,7502011.97
"348503",348503,1992,63,"o","Elephant",7,-22.42,31.23,317821.28,7519610.27
"348550",348550,1992,63,"o","Elephant",3,-22.43,31.28,322981.38,7518562.81
"348604",348604,1992,64,"o","Elephant",1,-22.4,31.27,321913.72,7521872.81
"348725",348725,1992,64,"o","Elephant",1,-22.36,31.18,312593.36,7526192.62
"348730",348730,1992,64,"o","Elephant",20,-22.38,31.18,312620.14,7523978
"348739",348739,1992,64,"o","Elephant",20,-22.4,31.18,312646.94,7521763.38
"348780",348780,1992,64,"o","Elephant",2,-22.33,31.16,310492.87,7529489.53
"348903",348903,1992,20,"o","Elephant",5,-24.03,31.45,342371.46,7341583.66
"348904",348904,1992,20,"o","Elephant",4,-24.04,31.46,343400.71,7340487.41
"348978",348978,1992,20,"o","Elephant",8,-24.05,31.52,349514.57,7339445.55
"348981",348981,1992,20,"o","Elephant",32,-24.06,31.52,349526.23,7338338.15
"349049",349049,1992,20,"o","Elephant",6,-24.02,31.62,359651.28,7342871.09
"349080",349080,1992,20,"o","Elephant",16,-24.02,31.63,360668.43,7342881.03
"349082",349082,1992,20,"o","Elephant",24,-24.03,31.64,361696.28,7341783.54
"349098",349098,1992,20,"o","Elephant",6,-24.03,31.65,362713.35,7341793.34
"349117",349117,1992,20,"o","Elephant",52,-24.03,31.66,363730.41,7341803.06
"349131",349131,1992,20,"o","Elephant",19,-24.09,31.28,325161.19,7334737.77
"349163",349163,1992,20,"o","Elephant",6,-24.09,31.31,328211.31,7334774.83
"349412",349412,1992,21,"o","Elephant",1,-24.25,31.45,342641.07,7317220.18
"349460",349460,1992,21,"o","Elephant",12,-24.22,31.51,348697.85,7320608.84
"349616",349616,1992,21,"o","Elephant",2,-24.19,31.57,354757.41,7323994.75
"349625",349625,1992,21,"o","Elephant",11,-24.18,31.55,352714.28,7325081.23
"349626",349626,1992,21,"o","Elephant",17,-24.18,31.56,353730.18,7325091.73
"349654",349654,1992,21,"o","Elephant",8,-24.17,31.56,353718.78,7326199.13
"349668",349668,1992,21,"o","Elephant",5,-24.14,31.58,355717.05,7329542.06
"349744",349744,1992,22,"o","Elephant",22,-24.34,31.49,346810.68,7307297.79
"349752",349752,1992,22,"o","Elephant",10,-24.33,31.5,347813.39,7308416.22
"349753",349753,1992,22,"o","Elephant",5,-24.34,31.49,346810.68,7307297.79
"349754",349754,1992,22,"o","Elephant",9,-24.34,31.48,345796.03,7307286.73
"349759",349759,1992,22,"o","Elephant",9,-24.33,31.49,346798.65,7308405.23
"349760",349760,1992,22,"o","Elephant",26,-24.33,31.49,346798.65,7308405.23
"349764",349764,1992,22,"o","Elephant",14,-24.32,31.49,346786.63,7309512.67
"349782",349782,1992,22,"o","Elephant",7,-24.3,31.45,342702.67,7311682.93
"349798",349798,1992,22,"o","Elephant",6,-24.27,31.47,344696.14,7315027.72
"349822",349822,1992,22,"o","Elephant",8,-24.24,31.55,352783.25,7318436.79
"349826",349826,1992,22,"o","Elephant",3,-24.26,31.54,351791,7316211.37
"349857",349857,1992,22,"o","Elephant",9,-24.3,31.55,352852.38,7311792.3
"349859",349859,1992,22,"o","Elephant",16,-24.3,31.54,351837.42,7311781.69
"349860",349860,1992,22,"o","Elephant",2,-24.31,31.52,349819.28,7310652.83
"350204",350204,1992,22,"o","Elephant",10,-24.37,31.41,338731.37,7303884.84
"350211",350211,1992,22,"o","Elephant",21,-24.37,31.39,336702.49,7303861.45
"350221",350221,1992,22,"o","Elephant",4,-24.36,31.4,337704.17,7304980.66
"351013",351013,1992,24,"o","Elephant",4,-24.35,31.61,358997.4,7306317.41
"351025",351025,1992,24,"o","Elephant",5,-24.32,31.61,358964.18,7309639.62
"351040",351040,1992,24,"o","Elephant",14,-24.31,31.6,357938.26,7310736.85
"351105",351105,1992,24,"o","Elephant",15,-24.26,31.66,363974.11,7316333.71
"351114",351114,1992,24,"o","Elephant",5,-24.26,31.65,362958.86,7316323.92
"351635",351635,1992,25,"o","Elephant",25,-24.05,31.88,386122.77,7339784.11
"351713",351713,1992,25,"o","Elephant",21,-24.05,31.87,385105.92,7339775.98
"352153",352153,1992,26,"o","Elephant",1,-24.32,31.81,379259.21,7309827.84
"352327",352327,1992,26,"o","Elephant",26,-24.29,31.86,384305.6,7313192.31
"352499",352499,1992,27,"o","Elephant",40,-24.3,31.93,391418.72,7312141.37
"352510",352510,1992,27,"o","Elephant",10,-24.28,31.91,389371.67,7314340.26
"352552",352552,1992,27,"o","Elephant",7,-24.26,31.88,386308.8,7316530.74
"352774",352774,1992,27,"o","Elephant",4,-24.33,31.98,396517.33,7308857.56
"352987",352987,1992,28,"o","Elephant",34,-24.45,31.94,392560.41,7295539.35
"353216",353216,1992,28,"o","Elephant",38,-24.46,31.87,385473.79,7294375.86
"353555",353555,1992,29,"o","Elephant",16,-24.63,31.81,379554.64,7275499.48
"353564",353564,1992,29,"o","Elephant",15,-24.63,31.83,381579.12,7275516.86
"353566",353566,1992,29,"o","Elephant",13,-24.63,31.84,382591.35,7275525.44
"353830",353830,1992,30,"o","Elephant",3,-24.75,31.89,387760.04,7262278.72
"353904",353904,1992,30,"o","Elephant",2,-24.7,31.95,393785.08,7267863.44
"353988",353988,1992,30,"o","Elephant",7,-24.73,31.97,395833.34,7264556.7
"354030",354030,1992,30,"o","Elephant",6,-24.72,31.98,396836.49,7265671.63
"354132",354132,1992,30,"o","Elephant",16,-24.59,31.97,395717.04,7280059.64
"354153",354153,1992,30,"o","Elephant",35,-24.68,31.97,395791.73,7270093.5
"354511",354511,1992,31,"o","Elephant",4,-24.57,31.76,374433.53,7282099.13
"354530",354530,1992,31,"o","Elephant",11,-24.55,31.74,372387.8,7284295.55
"354536",354536,1992,31,"o","Elephant",1,-24.54,31.73,371364.7,7285393.65
"354537",354537,1992,31,"o","Elephant",28,-24.54,31.73,371364.7,7285393.65
"354538",354538,1992,31,"o","Elephant",5,-24.54,31.74,372377.69,7285402.94
"354540",354540,1992,31,"o","Elephant",16,-24.54,31.75,373390.67,7285412.16
"354547",354547,1992,31,"o","Elephant",3,-24.53,31.73,371354.51,7286501.05
"354548",354548,1992,31,"o","Elephant",8,-24.53,31.73,371354.51,7286501.05
"354663",354663,1992,31,"o","Elephant",1,-24.46,31.65,363174.15,7294176
"354784",354784,1992,31,"o","Elephant",20,-24.46,31.72,370269.63,7294243.44
"354789",354789,1992,31,"o","Elephant",44,-24.45,31.71,369245.67,7295341.42
"354952",354952,1992,32,"o","Elephant",8,-24.53,31.51,349066.39,7286278.13
"354993",354993,1992,32,"o","Elephant",5,-24.46,31.54,352023.84,7294062.77
"355104",355104,1992,32,"o","Elephant",5,-24.48,31.54,352047.22,7291847.87
"355105",355105,1992,32,"o","Elephant",16,-24.48,31.54,352047.22,7291847.87
"355145",355145,1992,32,"o","Elephant",11,-24.51,31.62,360188.48,7288608.89
"355235",355235,1992,33,"o","Elephant",3,-24.58,31.54,352164.41,7280773.34
"355594",355594,1992,34,"o","Elephant",20,-24.72,31.83,381664.09,7265550.36
"355612",355612,1992,34,"o","Elephant",14,-24.72,31.81,379641.07,7265532.93
"355616",355616,1992,34,"o","Elephant",12,-24.71,31.81,379631.45,7266640.33
"355617",355617,1992,34,"o","Elephant",11,-24.71,31.81,379631.45,7266640.33
"355623",355623,1992,34,"o","Elephant",15,-24.74,31.8,378648.96,7263309.3
"355656",355656,1992,34,"o","Elephant",3,-24.73,31.77,375604.93,7264389.78
"355663",355663,1992,34,"o","Elephant",4,-24.72,31.77,375594.99,7265497.2
"355845",355845,1992,34,"o","Elephant",1,-24.62,31.73,371446.4,7276534.43
"355847",355847,1992,34,"o","Elephant",13,-24.61,31.73,371436.17,7277641.84
"355848",355848,1992,34,"o","Elephant",7,-24.62,31.74,372458.74,7276543.74
"355873",355873,1992,34,"o","Elephant",2,-24.66,31.76,374523.39,7272132.54
"355882",355882,1992,34,"o","Elephant",9,-24.63,31.76,374493.4,7275454.75
"355902",355902,1992,34,"o","Elephant",5,-24.66,31.78,376547.41,7272150.67
"355932",355932,1992,35,"o","Elephant",1,-24.8,31.66,364554.86,7256533.24
"355991",355991,1992,35,"o","Elephant",2,-24.87,31.66,364631.02,7248781.03
"356005",356005,1992,35,"o","Elephant",27,-24.87,31.74,372713.63,7248858.16
"356060",356060,1992,35,"o","Elephant",2,-24.92,31.73,371754.99,7243311.55
"356064",356064,1992,35,"o","Elephant",4,-24.93,31.7,368735.83,7242175.45
"356074",356074,1992,35,"o","Elephant",30,-24.94,31.72,370765.93,7241087.17
"356090",356090,1992,35,"o","Elephant",1,-24.95,31.67,365728,7239931.2
"356124",356124,1992,35,"o","Elephant",3,-24.97,31.58,356663.92,7237624.19
"356226",356226,1992,35,"o","Elephant",2,-24.88,31.62,360600.88,7247633.2
"356280",356280,1992,35,"o","Elephant",1,-24.84,31.65,363587.78,7252093.44
"356450",356450,1992,36,"o","Elephant",7,-24.88,31.83,381815.88,7247831.85
"356554",356554,1992,36,"o","Elephant",17,-24.84,31.78,376725.13,7252217.24
"356555",356555,1992,36,"o","Elephant",15,-24.82,31.78,376705.32,7254432.08
"356566",356566,1992,36,"o","Elephant",37,-24.85,31.78,376735.04,7251109.81
"356567",356567,1992,36,"o","Elephant",10,-24.84,31.77,375714.58,7252208.16
"356589",356589,1992,36,"o","Elephant",2,-24.84,31.75,373693.47,7252189.78
"356610",356610,1992,36,"o","Elephant",2,-24.82,31.73,371651.73,7254385.98
"356628",356628,1992,36,"o","Elephant",20,-24.81,31.71,369619.81,7255474.46
"356631",356631,1992,36,"o","Elephant",6,-24.82,31.7,368619.55,7254357.43
"356645",356645,1992,36,"o","Elephant",2,-24.76,31.69,367545.1,7260992.43
"356713",356713,1992,37,"o","Elephant",13,-24.87,31.95,393929.72,7249038.06
"356817",356817,1992,37,"o","Elephant",3,-24.87,31.91,389888.64,7249006.32
"356822",356822,1992,37,"o","Elephant",1,-24.89,31.9,388896.25,7246783.39
"356863",356863,1992,37,"o","Elephant",25,-24.89,31.89,387886.14,7246775.19
"356878",356878,1992,37,"o","Elephant",10,-24.82,31.88,386812.32,7254518.73
"356925",356925,1992,37,"o","Elephant",13,-25.05,32.01,400136.64,7229150.48
"356934",356934,1992,37,"o","Elephant",5,-24.99,32.01,400088.08,7235794.85
"356935",356935,1992,37,"o","Elephant",1,-24.98,32.01,400080,7236902.24
"357115",357115,1992,37,"o","Elephant",2,-25,31.95,394040.96,7234641.9
"357248",357248,1992,37,"o","Elephant",2,-25.15,31.94,393162.01,7218022.76
"357251",357251,1992,37,"o","Elephant",14,-25.15,31.94,393162.01,7218022.76
"357252",357252,1992,37,"o","Elephant",7,-25.15,31.94,393162.01,7218022.76
"357291",357291,1992,37,"o","Elephant",7,-25.13,31.97,396169.02,7220261.04
"357314",357314,1992,37,"o","Elephant",14,-25.09,31.98,397143.69,7224698.36
"357362",357362,1992,37,"o","Elephant",21,-25.11,32,399177.01,7222498.62
"357474",357474,1992,38,"o","Elephant",19,-24.97,31.9,388967.96,7237924.13
"357478",357478,1992,38,"o","Elephant",15,-25.03,31.92,391039.81,7231295.87
"357488",357488,1992,38,"o","Elephant",17,-25.02,31.91,390021.93,7232395.2
"357489",357489,1992,38,"o","Elephant",40,-25.01,31.91,390013.02,7233502.62
"357536",357536,1992,38,"o","Elephant",1,-25.01,31.89,387994.75,7233486.23
"357538",357538,1992,38,"o","Elephant",3,-25,31.88,386976.46,7234585.35
"357567",357567,1992,38,"o","Elephant",3,-24.94,31.86,384902.19,7241213.07
"357610",357610,1992,38,"o","Elephant",3,-24.98,31.85,383930,7236774.86
"357687",357687,1992,38,"o","Elephant",13,-24.9,31.76,374764.51,7245554.4
"357830",357830,1992,38,"o","Elephant",50,-25.04,31.8,378941.86,7230086.48
"357832",357832,1992,38,"o","Elephant",2,-25.08,31.88,387049.77,7225725.93
"357833",357833,1992,38,"o","Elephant",3,-25.08,31.88,387049.77,7225725.93
"357834",357834,1992,38,"o","Elephant",2,-25.08,31.88,387049.77,7225725.93
"357836",357836,1992,38,"o","Elephant",6,-25.08,31.87,386041.2,7225717.53
"357838",357838,1992,38,"o","Elephant",9,-25.07,31.87,386031.94,7226824.97
"357867",357867,1992,38,"o","Elephant",2,-25.1,31.9,389084.93,7223527.63
"357914",357914,1992,39,"o","Elephant",25,-25.07,31.36,334587.38,7226297.93
"357918",357918,1992,39,"o","Elephant",8,-25.09,31.37,335622.89,7224094.96
"357922",357922,1992,39,"o","Elephant",10,-25.1,31.36,334627.71,7222975.16
"357942",357942,1992,39,"o","Elephant",15,-24.98,31.35,333457.12,7236253.93
"357945",357945,1992,39,"o","Elephant",4,-24.98,31.35,333457.12,7236253.93
"357947",357947,1992,39,"o","Elephant",3,-24.98,31.35,333457.12,7236253.93
"357950",357950,1992,39,"o","Elephant",8,-24.98,31.34,332447.58,7236241.61
"357975",357975,1992,39,"o","Elephant",3,-24.97,31.33,331424.41,7237336.81
"357993",357993,1992,39,"o","Elephant",10,-25.01,31.33,331478.98,7232906.45
"357995",357995,1992,39,"o","Elephant",2,-25.02,31.33,331492.64,7231798.86
"358391",358391,1992,39,"o","Elephant",4,-25.09,31.2,318475.8,7223877.25
"358419",358419,1992,39,"o","Elephant",9,-25.12,31.19,317511.67,7220540.8
"358430",358430,1992,40,"o","Elephant",7,-25.39,31.32,330995.31,7190804.37
"358440",358440,1992,40,"o","Elephant",14,-25.38,31.29,327962.62,7191873.73
"358464",358464,1992,40,"o","Elephant",20,-25.35,31.27,325907.11,7195170.81
"358470",358470,1992,40,"o","Elephant",4,-25.34,31.27,325892.79,7196278.47
"358584",358584,1992,40,"o","Elephant",6,-25.17,31.23,321618.11,7215056.08
"358624",358624,1992,40,"o","Elephant",1,-25.23,31.27,325735.61,7208462.63
"358661",358661,1992,40,"o","Elephant",50,-25.24,31.28,326757.29,7207367.92
"358672",358672,1992,40,"o","Elephant",3,-25.16,31.28,326643.99,7216229.01
"358691",358691,1992,40,"o","Elephant",24,-25.23,31.31,329765.6,7208513.92
"358717",358717,1992,40,"o","Elephant",1,-25.22,31.32,330759.24,7209634.17
"358747",358747,1992,40,"o","Elephant",11,-25.23,31.33,331780.57,7208539.11
"358750",358750,1992,40,"o","Elephant",25,-25.24,31.34,332801.74,7207443.97
"358751",358751,1992,40,"o","Elephant",30,-25.24,31.33,331794.34,7207431.48
"358997",358997,1992,41,"o","Elephant",45,-25.25,31.33,331808.11,7206323.86
"359000",359000,1992,41,"o","Elephant",11,-25.25,31.36,334830.06,7206361.11
"359001",359001,1992,41,"o","Elephant",2,-25.25,31.36,334830.06,7206361.11
"359002",359002,1992,41,"o","Elephant",12,-25.25,31.37,335837.37,7206373.37
"359003",359003,1992,41,"o","Elephant",2,-25.25,31.37,335837.37,7206373.37
"359018",359018,1992,41,"o","Elephant",12,-25.23,31.34,332788.06,7208551.59
"359019",359019,1992,41,"o","Elephant",6,-25.23,31.35,333795.54,7208564
"359020",359020,1992,41,"o","Elephant",1,-25.23,31.35,333795.54,7208564
"359093",359093,1992,41,"o","Elephant",2,-25.27,31.46,344928.41,7204265.22
"359422",359422,1992,41,"o","Elephant",14,-25.2,31.38,336777.92,7211923.58
"359465",359465,1992,41,"o","Elephant",19,-25.1,31.47,345721.52,7223105.37
"359551",359551,1992,41,"o","Elephant",2,-25.15,31.4,338727.55,7217485.64
"359554",359554,1992,41,"o","Elephant",31,-25.15,31.4,338727.55,7217485.64
"359718",359718,1992,41,"o","Elephant",10,-25.34,31.34,332938.87,7196367.71
"359774",359774,1992,42,"o","Elephant",11,-25.3,31.58,357048.74,7201075.87
"359779",359779,1992,42,"o","Elephant",4,-25.3,31.56,355035.08,7201054.39
"359949",359949,1992,42,"o","Elephant",1,-25.24,31.55,353956.43,7207688.85
"359956",359956,1992,42,"o","Elephant",5,-25.23,31.59,357974.13,7208839.28
"360005",360005,1992,42,"o","Elephant",1,-25.2,31.59,357939.29,7212161.88
"360219",360219,1992,42,"o","Elephant",3,-25.2,31.55,353908.65,7212119.03
"360364",360364,1992,43,"o","Elephant",6,-24.97,31.55,353635.28,7237592.16
"360414",360414,1992,43,"o","Elephant",10,-25.01,31.5,348636.5,7233107.17
"360416",360416,1992,43,"o","Elephant",5,-25.02,31.5,348648.76,7231999.64
"360424",360424,1992,43,"o","Elephant",13,-25.06,31.5,348697.86,7227569.49
"360431",360431,1992,43,"o","Elephant",12,-24.97,31.49,347577.92,7237526.09
"360445",360445,1992,43,"o","Elephant",7,-25.08,31.49,347713.77,7225343.17
"360532",360532,1992,43,"o","Elephant",3,-25.02,31.43,341584.58,7231919.57
"360533",360533,1992,43,"o","Elephant",2,-25.02,31.43,341584.58,7231919.57
"360538",360538,1992,43,"o","Elephant",1,-24.99,31.42,340536.66,7235230.52
"360592",360592,1992,43,"o","Elephant",25,-25.05,31.39,337587.36,7228549.46
"360616",360616,1992,43,"o","Elephant",2,-24.97,31.35,333443.65,7237361.51
"360617",360617,1992,43,"o","Elephant",8,-24.97,31.35,333443.65,7237361.51
"360926",360926,1992,44,"o","Elephant",25,-25.41,31.65,364219.44,7188965.8
"360934",360934,1992,44,"o","Elephant",25,-25.39,31.65,364197.05,7191180.89
"361070",361070,1992,44,"o","Elephant",10,-25.3,31.61,360069.22,7201107.53
"361110",361110,1992,44,"o","Elephant",5,-25.38,31.6,359155.08,7192236.67
"361270",361270,1992,44,"o","Elephant",3,-25.35,31.88,387298.81,7195824.68
"361329",361329,1992,44,"o","Elephant",35,-25.35,31.86,385286.12,7195807.68
"361377",361377,1992,44,"o","Elephant",2,-25.36,31.82,381270.48,7194665.3
"361390",361390,1992,44,"o","Elephant",5,-25.31,31.83,382228.36,7200211.55
"361431",361431,1992,44,"o","Elephant",20,-25.3,31.79,378191.6,7201283.28
"361443",361443,1992,44,"o","Elephant",50,-25.28,31.79,378171.62,7203498.26
"361468",361468,1992,44,"o","Elephant",30,-25.28,31.77,376157.73,7203479.94
"361511",361511,1992,44,"o","Elephant",22,-25.28,31.75,374143.83,7203461.32
"361513",361513,1992,44,"o","Elephant",8,-25.28,31.75,374143.83,7203461.32
"361527",361527,1992,44,"o","Elephant",20,-25.27,31.74,373126.48,7204559.4
"361579",361579,1992,44,"o","Elephant",7,-25.3,31.71,370137.31,7201208.18
"362135",362135,1992,44,"o","Elephant",23,-25.26,31.75,374123.2,7205676.31
"362152",362152,1992,45,"o","Elephant",7,-25.35,31.88,387298.81,7195824.68
"362164",362164,1992,45,"o","Elephant",12,-25.34,31.89,388295.96,7196940.54
"362173",362173,1992,45,"o","Elephant",20,-25.33,31.89,388286.78,7198048
"362201",362201,1992,45,"o","Elephant",19,-25.32,31.9,389284.19,7199163.77
"362464",362464,1992,45,"o","Elephant",17,-25.25,31.85,384184.76,7206873.8
"362472",362472,1992,45,"o","Elephant",13,-25.24,31.87,386189.79,7207998.36
"362500",362500,1992,45,"o","Elephant",2,-25.23,31.86,385173.14,7209097.31
"362736",362736,1992,45,"o","Elephant",2,-25.14,31.9,389121.04,7219097.89
"362748",362748,1992,45,"o","Elephant",25,-25.13,31.94,393144.6,7220237.61
"362753",362753,1992,45,"o","Elephant",12,-25.13,31.92,391128.31,7220221.62
"362861",362861,1992,45,"o","Elephant",6,-25.15,31.86,385098.1,7217956.95
"362870",362870,1992,45,"o","Elephant",2,-25.18,31.87,386133.97,7214643.09
"362975",362975,1992,45,"o","Elephant",1,-25.26,31.78,377144.54,7205704.11
"363248",363248,1992,57,"o","Elephant",25,-25.11,31.78,376993.99,7222316.23
"363539",363539,1992,58,"o","Elephant",35,-25.06,31.76,374926.48,7227835.18
"363545",363545,1992,58,"o","Elephant",8,-25.04,31.75,373897.26,7230040.82
"363561",363561,1992,58,"o","Elephant",25,-25.05,31.75,373907.49,7228933.36
"363569",363569,1992,58,"o","Elephant",3,-25.07,31.75,373927.96,7226718.43
"363584",363584,1992,58,"o","Elephant",1,-25.08,31.74,372929.6,7225601.6
"363585",363585,1992,58,"o","Elephant",13,-25.07,31.74,372919.28,7226709.07
"363607",363607,1992,58,"o","Elephant",5,-25.07,31.72,370901.91,7226690.12
"363608",363608,1992,58,"o","Elephant",30,-25.07,31.72,370901.91,7226690.12
"363609",363609,1992,58,"o","Elephant",3,-25.07,31.72,370901.91,7226690.12
"363833",363833,1992,60,"o","Elephant",3,-25.03,31.65,363796.84,7231051.41
"363839",363839,1992,60,"o","Elephant",30,-24.97,31.65,363730.65,7237696.31
"363840",363840,1992,60,"o","Elephant",10,-24.98,31.65,363741.67,7236588.83
"363841",363841,1992,60,"o","Elephant",10,-24.98,31.65,363741.67,7236588.83
"363842",363842,1992,60,"o","Elephant",12,-24.98,31.65,363741.67,7236588.83
"363843",363843,1992,60,"o","Elephant",5,-24.99,31.65,363752.7,7235481.35
"363844",363844,1992,60,"o","Elephant",5,-24.99,31.65,363752.7,7235481.35
"363846",363846,1992,60,"o","Elephant",5,-25.02,31.66,364794.91,7232168.91
"363847",363847,1992,60,"o","Elephant",4,-25.03,31.66,364805.87,7231061.43
"363883",363883,1992,60,"o","Elephant",10,-24.98,31.7,368788.85,7236638.13
"363884",363884,1992,60,"o","Elephant",15,-24.99,31.71,369808.81,7235540.3
"363905",363905,1992,60,"o","Elephant",15,-24.98,31.72,370807.7,7236657.33
"363909",363909,1992,60,"o","Elephant",20,-24.96,31.72,370786.81,7238872.25
"363917",363917,1992,60,"o","Elephant",40,-24.97,31.74,372816.26,7237783.69
"363967",363967,1992,56,"o","Elephant",30,-25.52,31.36,335197.13,7176455.03
"363972",363972,1992,56,"o","Elephant",12,-25.5,31.36,335169.82,7178670.33
"364091",364091,1992,56,"o","Elephant",1,-25.44,31.48,347156.59,7185459.2
"364129",364129,1992,56,"o","Elephant",7,-25.43,31.34,333062.72,7186398.95
"364170",364170,1992,56,"o","Elephant",12,-25.43,31.51,350161.3,7186600.84
"364260",364260,1992,56,"o","Elephant",20,-25.35,31.45,344023.8,7195392.89
"364325",364325,1992,56,"o","Elephant",15,-25.4,31.52,351130.23,7189934.78
"364346",364346,1992,56,"o","Elephant",3,-25.37,31.56,355118.47,7193301.47
"364375",364375,1992,56,"o","Elephant",5,-25.36,31.54,353093.86,7194387.21
"364473",364473,1992,56,"o","Elephant",14,-25.3,31.53,352014.55,7201021.6
"364703",364703,1992,46,"o","Elephant",7,-25.17,31.96,395195.06,7215823.61
"364779",364779,1992,46,"o","Elephant",21,-25.22,31.98,397252.64,7210301.88
"364797",364797,1992,46,"o","Elephant",6,-25.16,31.98,397202.29,7216946.44
"364824",364824,1992,46,"o","Elephant",27,-25.26,31.99,398293.34,7205879.76
"364827",364827,1992,46,"o","Elephant",17,-25.25,31.99,398285.01,7206987.19
"364828",364828,1992,46,"o","Elephant",37,-25.24,31.99,398276.68,7208094.62
"364846",364846,1992,46,"o","Elephant",2,-25.17,32,399226.29,7215854.13
"364927",364927,1992,46,"o","Elephant",50,-25.33,31.92,391306.29,7198072.7
"364960",364960,1992,46,"o","Elephant",23,-25.37,31.95,394360.54,7193666.88
"364984",364984,1992,46,"o","Elephant",7,-25.37,31.96,395366.7,7193674.75
"365012",365012,1992,46,"o","Elephant",3,-25.35,31.98,397362.12,7195905.15
"365021",365021,1992,46,"o","Elephant",10,-25.37,31.98,397379.01,7193690.25
"365196",365196,1992,46,"o","Elephant",25,-25.29,32.01,400331.97,7202572.46
