"","ID","Year","Cenb","Sp","Description","No","Lat","Long","X.coord","Y.coord"
"405964",405964,1995,25,"kb","Kudu bull",0,-24.49,31.59,357126.09,7290793.05
"406236",406236,1995,44,"kb","Kudu bull",2,-22.87,31.32,327649.24,7469888.87
