"","ID","Year","Cenb","Sp","Description","No","Lat","Long","X.coord","Y.coord"
"209752",209752,1987,15,"tb","Tsessebe bull",1,-23.33,31.49,345619.27,7419142.8
"226085",226085,1987,47,"tb","Tsessebe bull",1,-22.66,31.22,317108.37,7493022.59
"226626",226626,1987,49,"tb","Tsessebe bull",1,-22.93,31.38,333878.92,7463314.03
"226695",226695,1987,49,"tb","Tsessebe bull",1,-22.95,31.36,331852.36,7461076.67
