"","ID","Year","Cenb","Sp","Description","No","Lat","Long","X.coord","Y.coord"
"365252",365252,1993,52,"ko","Kudu",6,-23.07,31.2,315607.34,7447595.98
"365271",365271,1993,52,"ko","Kudu",3,-23.1,31.25,320770.28,7444336.09
"365548",365548,1993,52,"ko","Kudu",4,-23.17,31.22,317791.74,7436547.22
"365579",365579,1993,53,"ko","Kudu",1,-23.2,31.08,303501.01,7433042.68
"365657",365657,1993,53,"ko","Kudu",7,-23.16,31.01,296274.43,7437376.26
"365771",365771,1993,53,"ko","Kudu",2,-23.07,30.91,285891.08,7447200.54
"365805",365805,1993,53,"ko","Kudu",2,-23.06,30.93,287924.91,7448337.21
"366366",366366,1993,54,"ko","Kudu",1,-22.96,31.23,318534.07,7459814.57
"366373",366373,1993,54,"ko","Kudu",8,-23.01,31.25,320651.04,7454302.38
"366388",366388,1993,54,"ko","Kudu",1,-23.01,31.25,320651.04,7454302.38
"366441",366441,1993,54,"ko","Kudu",4,-22.98,31.23,318560.78,7457599.85
"366522",366522,1993,54,"ko","Kudu",2,-23,31.16,311411.31,7455296.75
"366633",366633,1993,54,"ko","Kudu",2,-23.03,31.18,313502.95,7452000.18
"366650",366650,1993,54,"ko","Kudu",1,-22.89,31.1,305102.59,7467399.86
"366661",366661,1993,54,"ko","Kudu",1,-22.98,31.15,310358.18,7457498.65
"366682",366682,1993,54,"ko","Kudu",2,-22.96,31.13,308279.28,7459687.46
"366698",366698,1993,54,"ko","Kudu",2,-22.97,31.12,307267.96,7458566.96
"366757",366757,1993,55,"ko","Kudu",3,-22.77,31.18,313146.94,7480791.94
"367057",367057,1993,47,"ko","Kudu",3,-22.63,31.24,319124.5,7496369.01
"367164",367164,1993,47,"ko","Kudu",7,-22.71,31.28,323338.71,7487558.64
"367179",367179,1993,47,"ko","Kudu",2,-22.75,31.18,313119.72,7483006.66
"367220",367220,1993,47,"ko","Kudu",5,-22.74,31.31,326458.52,7484272.16
"367333",367333,1993,48,"ko","Kudu",4,-22.88,31.3,325609.8,7468758.01
"367392",367392,1993,48,"ko","Kudu",4,-22.83,31.26,321440.3,7474246.78
"367423",367423,1993,48,"ko","Kudu",7,-22.85,31.27,322492.69,7472044.18
"367454",367454,1993,48,"ko","Kudu",6,-22.89,31.25,320492.73,7467590.6
"367508",367508,1993,49,"ko","Kudu",8,-22.93,31.28,323622.43,7463197.53
"367546",367546,1993,49,"ko","Kudu",7,-22.96,31.38,333915.54,7459992.13
"367698",367698,1993,49,"ko","Kudu",4,-22.92,31.39,334892.42,7464432.59
"367742",367742,1993,50,"ko","Kudu",2,-23.07,31.5,346344.84,7447942.94
"367743",367743,1993,50,"ko","Kudu",4,-23.07,31.5,346344.84,7447942.94
"367821",367821,1993,50,"ko","Kudu",5,-23.03,31.42,338100.65,7452285.79
"367824",367824,1993,50,"ko","Kudu",3,-23.05,31.4,336075.13,7450048.92
"367898",367898,1993,51,"ko","Kudu",1,-22.6,31.33,328338.48,7499797.42
"367904",367904,1993,51,"ko","Kudu",3,-22.61,31.32,327322.84,7498678.59
"367948",367948,1993,6,"ko","Kudu",1,-23.58,31.31,327537.9,7391254.37
"367979",367979,1993,6,"ko","Kudu",1,-23.56,31.37,333636.77,7393540.14
"368098",368098,1993,6,"ko","Kudu",6,-23.71,31.39,335865.58,7376952.43
"368105",368105,1993,6,"ko","Kudu",1,-23.71,31.37,333826.28,7376929.24
"368147",368147,1993,6,"ko","Kudu",4,-23.69,31.39,335840.56,7379167.22
"368161",368161,1993,6,"ko","Kudu",2,-23.68,31.43,339907.57,7380320.09
"368189",368189,1993,6,"ko","Kudu",1,-23.66,31.37,333762.98,7382466.24
"368204",368204,1993,6,"ko","Kudu",1,-23.65,31.39,335790.58,7383596.78
"368285",368285,1993,7,"ko","Kudu",1,-23.68,31.27,323589.19,7380131.3
"368302",368302,1993,7,"ko","Kudu",3,-23.62,31.26,322488.29,7386763.52
"368356",368356,1993,7,"ko","Kudu",2,-23.68,31.17,313389.74,7380004
"368365",368365,1993,7,"ko","Kudu",8,-23.66,31.17,313361.32,7382218.95
"368419",368419,1993,8,"ko","Kudu",1,-23.55,31.3,326477.79,7394564.52
"368434",368434,1993,8,"ko","Kudu",4,-23.51,31.32,328467.77,7399018.18
"368452",368452,1993,8,"ko","Kudu",4,-23.46,31.34,330446.27,7404578.86
"368453",368453,1993,8,"ko","Kudu",2,-23.46,31.34,330446.27,7404578.86
"368508",368508,1993,8,"ko","Kudu",3,-23.46,31.3,326359.82,7404531.15
"368523",368523,1993,8,"ko","Kudu",1,-23.46,31.26,322273.31,7404482.29
"368545",368545,1993,8,"ko","Kudu",5,-23.44,31.27,323268.33,7406709.43
"368559",368559,1993,8,"ko","Kudu",4,-23.42,31.3,326307.52,7408960.72
"368575",368575,1993,8,"ko","Kudu",2,-23.4,31.31,327303.49,7411187.52
"368605",368605,1993,8,"ko","Kudu",1,-23.42,31.22,318131.99,7408862.01
"368610",368610,1993,9,"ko","Kudu",4,-23.6,31.12,308173.25,7388797.62
"368644",368644,1993,9,"ko","Kudu",6,-23.63,31.15,311278.04,7385515.1
"368682",368682,1993,9,"ko","Kudu",5,-23.56,31.18,314240.5,7393306.65
"368772",368772,1993,9,"ko","Kudu",2,-23.53,31.15,311134.94,7396589.84
"368774",368774,1993,9,"ko","Kudu",6,-23.54,31.12,308086.03,7395442.53
"368906",368906,1993,10,"ko","Kudu",5,-23.32,31.16,311859.06,7419859.42
"368927",368927,1993,10,"ko","Kudu",4,-23.33,31.14,309827.79,7418725.82
"369041",369041,1993,10,"ko","Kudu",2,-23.39,31.16,311957.78,7412107.33
"369049",369049,1993,10,"ko","Kudu",2,-23.37,31.15,310907.18,7414309.16
"369073",369073,1993,10,"ko","Kudu",5,-23.41,31.16,311986.04,7409892.44
"369190",369190,1993,10,"ko","Kudu",5,-23.44,31.06,301810.01,7406435.96
"369249",369249,1993,11,"ko","Kudu",1,-23.21,31.28,323987.28,7432191.59
"369351",369351,1993,11,"ko","Kudu",2,-23.35,31.27,323148.8,7416676.03
"369380",369380,1993,11,"ko","Kudu",1,-23.33,31.24,320054.39,7418853.81
"369529",369529,1993,12,"ko","Kudu",2,-23.26,31.03,298472.62,7426329.3
"369569",369569,1993,12,"ko","Kudu",6,-23.2,31.04,299406.18,7432988.04
"369846",369846,1993,13,"ko","Kudu",4,-23.65,31.57,354152.16,7383792.24
"369851",369851,1993,13,"ko","Kudu",5,-23.67,31.61,358253.94,7381617.9
"369857",369857,1993,13,"ko","Kudu",3,-23.66,31.61,358243.16,7382725.21
"369916",369916,1993,13,"ko","Kudu",5,-23.74,31.55,352213.42,7373805.63
"369964",369964,1993,13,"ko","Kudu",2,-23.79,31.6,357364.74,7368320.02
"370054",370054,1993,13,"ko","Kudu",4,-23.73,31.62,359338.17,7374983.91
"370100",370100,1993,13,"ko","Kudu",3,-23.79,31.64,361440.56,7368359.63
"370164",370164,1993,14,"ko","Kudu",5,-23.49,31.5,346826.15,7401436.38
"370209",370209,1993,14,"ko","Kudu",2,-23.51,31.44,340722.23,7399156.44
"370451",370451,1993,18,"ko","Kudu",6,-23.15,31.45,341316.23,7439031.14
"370471",370471,1993,18,"ko","Kudu",7,-23.16,31.49,345423.44,7437966.86
"370547",370547,1993,18,"ko","Kudu",6,-23.21,31.51,347527.83,7432451.54
"370561",370561,1993,18,"ko","Kudu",1,-23.24,31.47,343468.94,7429087.1
"370589",370589,1993,18,"ko","Kudu",4,-23.26,31.42,338376.77,7426817.65
"370677",370677,1993,19,"ko","Kudu",1,-23.94,31.85,382972.79,7351939.66
"370679",370679,1993,19,"ko","Kudu",4,-23.91,31.8,377855.94,7355219.19
"370681",370681,1993,19,"ko","Kudu",6,-23.92,31.79,376847.45,7354103.21
"370682",370682,1993,19,"ko","Kudu",4,-23.92,31.8,377865.34,7354111.89
"370683",370683,1993,19,"ko","Kudu",3,-23.92,31.8,377865.34,7354111.89
"370689",370689,1993,19,"ko","Kudu",6,-23.95,31.83,380946.52,7350815.65
"370695",370695,1993,19,"ko","Kudu",5,-23.96,31.86,384008.39,7349733.35
"370701",370701,1993,19,"ko","Kudu",2,-23.96,31.85,382990.83,7349725.09
"370708",370708,1993,19,"ko","Kudu",6,-23.93,31.81,378892.55,7353013.21
"370711",370711,1993,19,"ko","Kudu",3,-23.91,31.77,374802.02,7355192.93
"370713",370713,1993,19,"ko","Kudu",1,-23.91,31.76,373784.04,7355184.04
"370717",370717,1993,19,"ko","Kudu",10,-23.94,31.81,378901.89,7351905.92
"370723",370723,1993,19,"ko","Kudu",3,-23.96,31.83,380955.7,7349708.36
"370724",370724,1993,19,"ko","Kudu",6,-23.96,31.83,380955.7,7349708.36
"370726",370726,1993,19,"ko","Kudu",1,-23.97,31.85,382999.86,7348617.81
"370743",370743,1993,19,"ko","Kudu",5,-23.92,31.75,372775.86,7354067.77
"370744",370744,1993,19,"ko","Kudu",9,-23.93,31.76,373803.48,7352969.43
"370751",370751,1993,19,"ko","Kudu",9,-23.97,31.81,378929.9,7348584.04
"370761",370761,1993,19,"ko","Kudu",4,-23.96,31.79,376885.41,7349674.02
"370778",370778,1993,19,"ko","Kudu",1,-23.96,31.78,375867.83,7349665.26
"370782",370782,1993,19,"ko","Kudu",4,-23.94,31.73,370759.96,7351834.99
"370791",370791,1993,19,"ko","Kudu",5,-23.92,31.73,370740.05,7354049.61
"370792",370792,1993,19,"ko","Kudu",2,-23.93,31.73,370750.01,7352942.3
"370807",370807,1993,19,"ko","Kudu",2,-23.88,31.75,372736.7,7358496.98
"370834",370834,1993,19,"ko","Kudu",2,-23.91,31.72,369712.11,7355147.74
"370836",370836,1993,19,"ko","Kudu",3,-23.92,31.72,369722.14,7354040.43
"370837",370837,1993,19,"ko","Kudu",4,-23.92,31.71,368704.23,7354031.17
"370839",370839,1993,19,"ko","Kudu",2,-23.85,31.68,365578.16,7361754.21
"370845",370845,1993,19,"ko","Kudu",3,-23.8,31.66,363488.9,7367271.69
"370861",370861,1993,19,"ko","Kudu",4,-23.83,31.66,363520.28,7363949.73
"370864",370864,1993,19,"ko","Kudu",5,-23.82,31.65,362491.1,7365047.39
"370865",370865,1993,19,"ko","Kudu",1,-23.81,31.65,362480.57,7366154.71
"370892",370892,1993,19,"ko","Kudu",1,-23.69,31.68,365413.61,7379471.11
"370899",370899,1993,19,"ko","Kudu",1,-23.71,31.66,363394.99,7377237.48
"370917",370917,1993,19,"ko","Kudu",4,-23.56,31.59,356094.05,7393778.33
"370931",370931,1993,19,"ko","Kudu",4,-23.83,31.74,371669.24,7364024.45
"370934",370934,1993,19,"ko","Kudu",3,-23.77,31.71,368553.02,7370640.77
"370935",370935,1993,19,"ko","Kudu",1,-23.77,31.7,367533.94,7370631.49
"370936",370936,1993,19,"ko","Kudu",3,-23.78,31.7,367544.07,7369524.19
"370949",370949,1993,19,"ko","Kudu",2,-23.76,31.66,363447.12,7371700.94
"370964",370964,1993,1,"ko","Kudu",2,-23.96,31.76,373832.66,7349647.51
"370974",370974,1993,1,"ko","Kudu",1,-23.97,31.76,373842.4,7348540.21
"370975",370975,1993,1,"ko","Kudu",8,-23.96,31.76,373832.66,7349647.51
"370982",370982,1993,1,"ko","Kudu",6,-23.96,31.75,372815.08,7349638.53
"370983",370983,1993,1,"ko","Kudu",1,-23.96,31.75,372815.08,7349638.53
"371000",371000,1993,1,"ko","Kudu",4,-23.98,31.75,372834.71,7347423.91
"371044",371044,1993,1,"ko","Kudu",7,-23.94,31.71,368724.46,7351816.53
"371060",371060,1993,1,"ko","Kudu",4,-24.03,31.73,370849.78,7341869.1
"371082",371082,1993,1,"ko","Kudu",4,-23.97,31.7,367737.31,7348485.22
"371102",371102,1993,1,"ko","Kudu",3,-23.97,31.69,366719.78,7348475.8
"371106",371106,1993,1,"ko","Kudu",4,-23.97,31.68,365702.26,7348466.31
"371143",371143,1993,1,"ko","Kudu",3,-23.97,31.67,364684.73,7348456.75
"371144",371144,1993,1,"ko","Kudu",6,-23.97,31.66,363667.2,7348447.12
"371154",371154,1993,1,"ko","Kudu",3,-23.92,31.66,363614.63,7353983.8
"371173",371173,1993,1,"ko","Kudu",2,-23.91,31.66,363604.13,7355091.13
"371174",371174,1993,1,"ko","Kudu",2,-23.91,31.66,363604.13,7355091.13
"371190",371190,1993,1,"ko","Kudu",2,-23.95,31.64,361610.77,7350642.32
"371201",371201,1993,1,"ko","Kudu",1,-23.86,31.64,361514.89,7360608.35
"371263",371263,1993,1,"ko","Kudu",2,-23.92,31.61,358524.96,7353934.62
"371275",371275,1993,1,"ko","Kudu",2,-23.86,31.6,357441.26,7360568.65
"371284",371284,1993,1,"ko","Kudu",5,-23.96,31.6,357550.95,7349495.16
"371333",371333,1993,1,"ko","Kudu",1,-24,31.69,366750.67,7345153.81
"371406",371406,1993,1,"ko","Kudu",8,-24.01,31.64,361674.88,7343998.24
"371417",371417,1993,1,"ko","Kudu",3,-24,31.62,359629.57,7345085.8
"371419",371419,1993,1,"ko","Kudu",3,-23.99,31.62,359618.72,7346193.16
"371429",371429,1993,1,"ko","Kudu",4,-23.99,31.59,356566.54,7346162.94
"371475",371475,1993,2,"ko","Kudu",1,-23.92,31.53,350381.34,7353852.2
"371512",371512,1993,2,"ko","Kudu",4,-23.95,31.51,348380.46,7350508.72
"371568",371568,1993,2,"ko","Kudu",6,-23.94,31.48,345315.31,7351583.55
"371627",371627,1993,2,"ko","Kudu",1,-23.92,31.43,340201.53,7353742.67
"371651",371651,1993,2,"ko","Kudu",1,-23.93,31.41,338178,7352612.48
"371670",371670,1993,2,"ko","Kudu",4,-23.88,31.39,336079.08,7358126.52
"371673",371673,1993,2,"ko","Kudu",1,-23.93,31.39,336142.14,7352589.42
"371716",371716,1993,2,"ko","Kudu",3,-23.99,31.51,348427.27,7346079.17
"371741",371741,1993,2,"ko","Kudu",1,-24.03,31.49,346439.93,7341627.91
"371764",371764,1993,2,"ko","Kudu",6,-24,31.46,343352.23,7344917.06
"371829",371829,1993,2,"ko","Kudu",1,-23.99,31.4,337235.44,7345956.44
"371960",371960,1993,3,"ko","Kudu",1,-23.91,31.28,324917.72,7354672.32
"371997",371997,1993,3,"ko","Kudu",2,-23.88,31.33,329969.07,7358055.71
"372019",372019,1993,3,"ko","Kudu",1,-24.02,31.22,318962.67,7342414.24
"372024",372024,1993,3,"ko","Kudu",1,-24.03,31.23,319993.88,7341319.57
"372031",372031,1993,3,"ko","Kudu",5,-24.09,31.25,322111.05,7334700.06
"372038",372038,1993,3,"ko","Kudu",4,-24.06,31.26,323086.6,7338035.18
"372076",372076,1993,3,"ko","Kudu",1,-23.93,31.18,314764.8,7352329.79
"372102",372102,1993,3,"ko","Kudu",2,-24.01,31.22,318948.66,7343521.74
"372136",372136,1993,3,"ko","Kudu",3,-23.98,31.27,323994.62,7346907.59
"372137",372137,1993,3,"ko","Kudu",2,-23.97,31.27,323981.03,7348015.07
"372143",372143,1993,3,"ko","Kudu",3,-23.94,31.29,325976.07,7351362.29
"372149",372149,1993,3,"ko","Kudu",1,-23.94,31.32,329029.71,7351398.96
"372178",372178,1993,4,"ko","Kudu",5,-23.72,31.18,314466.28,7375587.14
"372182",372182,1993,4,"ko","Kudu",1,-23.7,31.17,313418.17,7377789.04
"372207",372207,1993,4,"ko","Kudu",3,-23.72,31.22,318544.85,7375638.7
"372276",372276,1993,4,"ko","Kudu",5,-23.72,31.27,323642.97,7375701.54
"372306",372306,1993,4,"ko","Kudu",1,-23.8,31.3,326807.74,7366878.9
"372392",372392,1993,5,"ko","Kudu",1,-23.84,31.54,351307.9,7362721.67
"372399",372399,1993,5,"ko","Kudu",6,-23.85,31.53,350300.8,7361603.78
"372423",372423,1993,5,"ko","Kudu",1,-23.81,31.51,348217.21,7366011.97
"372473",372473,1993,5,"ko","Kudu",6,-23.86,31.47,344201.62,7360431.69
"372590",372590,1993,5,"ko","Kudu",1,-23.76,31.43,340005.25,7371461.04
"372599",372599,1993,5,"ko","Kudu",3,-23.79,31.42,339022.94,7368127.57
"372738",372738,1993,20,"ko","Kudu",6,-24.1,31.43,340423.84,7333809.1
"372781",372781,1993,20,"ko","Kudu",12,-24.05,31.63,360700.79,7339558.95
"372804",372804,1993,20,"ko","Kudu",5,-24.09,31.6,357694.19,7335099.41
"372812",372812,1993,20,"ko","Kudu",4,-24.09,31.58,355660.97,7335078.98
"372821",372821,1993,20,"ko","Kudu",6,-24.06,31.57,354610.53,7338390.8
"372832",372832,1993,20,"ko","Kudu",1,-24.08,31.54,351582.98,7336144.65
"372863",372863,1993,20,"ko","Kudu",2,-24.05,31.48,345446.76,7339402.14
"372868",372868,1993,20,"ko","Kudu",1,-24.09,31.48,345494.7,7334972.5
"372877",372877,1993,21,"ko","Kudu",1,-24.22,31.46,343619.79,7320553.74
"372882",372882,1993,21,"ko","Kudu",3,-24.19,31.46,343583.17,7323876.05
"372884",372884,1993,21,"ko","Kudu",7,-24.21,31.48,345638.97,7321683.43
"372892",372892,1993,21,"ko","Kudu",2,-24.19,31.5,347646.57,7323920.24
"372926",372926,1993,21,"ko","Kudu",4,-24.24,31.53,350752.38,7318415.54
"372978",372978,1993,21,"ko","Kudu",6,-24.22,31.57,354791.42,7320672.56
"373004",373004,1993,21,"ko","Kudu",2,-24.2,31.58,355784.49,7322897.71
"373027",373027,1993,21,"ko","Kudu",3,-24.19,31.61,358820.68,7324035.74
"373034",373034,1993,21,"ko","Kudu",3,-24.18,31.6,357793.78,7325132.99
"373055",373055,1993,21,"ko","Kudu",3,-24.17,31.62,359814.64,7326260.56
"373075",373075,1993,21,"ko","Kudu",3,-24.15,31.58,355728.28,7328434.67
"373094",373094,1993,21,"ko","Kudu",6,-24.14,31.62,359781.89,7329582.69
"373098",373098,1993,21,"ko","Kudu",2,-24.13,31.62,359770.98,7330690.06
"373121",373121,1993,21,"ko","Kudu",3,-24.15,31.53,350647.55,7328382.24
"373152",373152,1993,21,"ko","Kudu",2,-24.15,31.49,346582.92,7328338.98
"373193",373193,1993,21,"ko","Kudu",3,-24.47,31.42,339872.11,7292821.63
"373223",373223,1993,21,"ko","Kudu",2,-24.46,31.44,341886.88,7293952.12
"373230",373230,1993,21,"ko","Kudu",3,-24.46,31.42,339859.45,7293929.11
"373261",373261,1993,21,"ko","Kudu",2,-24.45,31.4,337819.21,7295013.3
"373325",373325,1993,21,"ko","Kudu",4,-24.41,31.41,338782.15,7299454.92
"373364",373364,1993,21,"ko","Kudu",4,-24.4,31.4,337755.25,7300550.74
"373367",373367,1993,21,"ko","Kudu",7,-24.4,31.38,335726.83,7300527.18
"373392",373392,1993,21,"ko","Kudu",3,-24.38,31.41,338744.06,7302777.36
"373406",373406,1993,21,"ko","Kudu",4,-24.37,31.4,337716.93,7303873.18
"373417",373417,1993,21,"ko","Kudu",1,-24.37,31.41,338731.37,7303884.84
"373493",373493,1993,21,"ko","Kudu",4,-24.39,31.48,345856.64,7301749.47
"373522",373522,1993,21,"ko","Kudu",2,-24.36,31.47,344805.76,7305060.69
"373561",373561,1993,21,"ko","Kudu",3,-24.38,31.57,354973.44,7302953.96
"373565",373565,1993,21,"ko","Kudu",3,-24.39,31.57,354984.85,7301846.53
"373566",373566,1993,21,"ko","Kudu",5,-24.4,31.57,354996.27,7300739.11
"373656",373656,1993,21,"ko","Kudu",3,-24.39,31.57,354984.85,7301846.53
"373660",373660,1993,21,"ko","Kudu",3,-24.38,31.57,354973.44,7302953.96
"373661",373661,1993,21,"ko","Kudu",5,-24.39,31.57,354984.85,7301846.53
"373751",373751,1993,21,"ko","Kudu",4,-24.39,31.48,345856.64,7301749.47
"373754",373754,1993,21,"ko","Kudu",1,-24.39,31.46,343828.12,7301727.1
"373779",373779,1993,21,"ko","Kudu",2,-24.36,31.47,344805.76,7305060.69
"373809",373809,1993,21,"ko","Kudu",3,-24.47,31.42,339872.11,7292821.63
"373841",373841,1993,21,"ko","Kudu",2,-24.46,31.44,341886.88,7293952.12
"373845",373845,1993,21,"ko","Kudu",3,-24.46,31.42,339859.45,7293929.11
"373882",373882,1993,21,"ko","Kudu",2,-24.45,31.4,337819.21,7295013.3
"373948",373948,1993,21,"ko","Kudu",4,-24.42,31.41,338794.86,7298347.44
"373986",373986,1993,21,"ko","Kudu",4,-24.4,31.39,336741.04,7300539
"373989",373989,1993,21,"ko","Kudu",7,-24.4,31.38,335726.83,7300527.18
"374014",374014,1993,21,"ko","Kudu",3,-24.38,31.41,338744.06,7302777.36
"374028",374028,1993,21,"ko","Kudu",4,-24.37,31.4,337716.93,7303873.18
"374039",374039,1993,21,"ko","Kudu",1,-24.37,31.41,338731.37,7303884.84
"374072",374072,1993,22,"ko","Kudu",3,-24.33,31.52,349842.84,7308437.96
"374084",374084,1993,22,"ko","Kudu",2,-24.29,31.51,348780.68,7312856.86
"374094",374094,1993,22,"ko","Kudu",4,-24.25,31.51,348733.32,7317286.57
"374107",374107,1993,22,"ko","Kudu",5,-24.29,31.48,345735.53,7312823.95
"374186",374186,1993,22,"ko","Kudu",2,-24.33,31.57,354916.43,7308491.06
"374240",374240,1993,22,"ko","Kudu",3,-24.23,31.57,354802.76,7319565.15
"374262",374262,1993,23,"ko","Kudu",2,-24.07,31.67,364789.38,7337383.32
"374315",374315,1993,23,"ko","Kudu",4,-24.09,31.67,364810.36,7335168.62
"374402",374402,1993,23,"ko","Kudu",4,-24.12,31.63,360776.44,7331807.41
"374443",374443,1993,23,"ko","Kudu",5,-24.14,31.7,367911.44,7329660.46
"374457",374457,1993,23,"ko","Kudu",4,-24.14,31.63,360798.09,7329592.67
"374468",374468,1993,23,"ko","Kudu",4,-24.15,31.7,367921.72,7328553.11
"374481",374481,1993,23,"ko","Kudu",2,-24.15,31.67,364873.4,7328524.48
"374507",374507,1993,23,"ko","Kudu",1,-24.16,31.66,363867.88,7327407.43
"374520",374520,1993,23,"ko","Kudu",2,-24.17,31.72,369974.17,7326357.14
"374522",374522,1993,23,"ko","Kudu",4,-24.17,31.71,368958.23,7326347.81
"374524",374524,1993,23,"ko","Kudu",7,-24.17,31.7,367942.29,7326338.4
"374553",374553,1993,23,"ko","Kudu",5,-24.19,31.66,363899.71,7324085.33
"374584",374584,1993,23,"ko","Kudu",10,-24.2,31.64,361878.88,7322958.33
"374613",374613,1993,23,"ko","Kudu",2,-24.22,31.69,366978.23,7320792.12
"374617",374617,1993,23,"ko","Kudu",1,-24.22,31.72,370024.88,7320820.38
"374647",374647,1993,23,"ko","Kudu",3,-24.26,31.73,371080.73,7316400.23
"374669",374669,1993,24,"ko","Kudu",3,-24.37,31.59,356990.8,7304082.13
"374670",374670,1993,24,"ko","Kudu",4,-24.37,31.59,356990.8,7304082.13
"374684",374684,1993,24,"ko","Kudu",4,-24.36,31.65,363066.3,7305250.03
"374693",374693,1993,24,"ko","Kudu",4,-24.35,31.61,358997.4,7306317.41
"374717",374717,1993,24,"ko","Kudu",2,-24.36,31.67,365095.19,7305269.6
"374738",374738,1993,24,"ko","Kudu",3,-24.33,31.6,357960.55,7308522.04
"374829",374829,1993,24,"ko","Kudu",2,-24.31,31.59,356923.4,7310726.6
"374851",374851,1993,24,"ko","Kudu",2,-24.31,31.65,363012.53,7310786.99
"374861",374861,1993,24,"ko","Kudu",4,-24.3,31.62,359957,7311864.52
"374883",374883,1993,24,"ko","Kudu",1,-24.29,31.63,360961.03,7312981.94
"374915",374915,1993,24,"ko","Kudu",7,-24.27,31.61,358908.91,7315176.62
"374922",374922,1993,24,"ko","Kudu",5,-24.28,31.64,361965.23,7314099.28
"374939",374939,1993,24,"ko","Kudu",6,-24.26,31.6,357882.6,7316273.85
"374941",374941,1993,24,"ko","Kudu",3,-24.26,31.59,356867.34,7316263.62
"374945",374945,1993,24,"ko","Kudu",4,-24.26,31.61,358897.86,7316284.01
"374965",374965,1993,24,"ko","Kudu",7,-24.25,31.6,357871.49,7317381.25
"374969",374969,1993,24,"ko","Kudu",3,-24.25,31.59,356856.15,7317371.02
"375042",375042,1993,24,"ko","Kudu",5,-24.36,31.73,371181.8,7305326.58
"375044",375044,1993,24,"ko","Kudu",3,-24.35,31.72,370157.17,7306424.64
"375110",375110,1993,24,"ko","Kudu",3,-24.3,31.73,371121.11,7311970.78
"375113",375113,1993,24,"ko","Kudu",7,-24.3,31.74,372136.02,7311980.01
"375122",375122,1993,24,"ko","Kudu",4,-24.3,31.7,368076.39,7311942.68
"375142",375142,1993,24,"ko","Kudu",4,-24.27,31.68,366015.07,7315245.71
"375161",375161,1993,25,"ko","Kudu",1,-24.13,31.89,387209.67,7330933.85
"375172",375172,1993,25,"ko","Kudu",5,-24.17,31.9,388260.68,7326512.67
"375174",375174,1993,25,"ko","Kudu",6,-24.17,31.9,388260.68,7326512.67
"375184",375184,1993,25,"ko","Kudu",3,-24.15,31.89,387227.22,7328719.25
"375191",375191,1993,25,"ko","Kudu",5,-24.06,31.88,386131.59,7338676.82
"375193",375193,1993,25,"ko","Kudu",6,-24.05,31.88,386122.77,7339784.11
"375205",375205,1993,25,"ko","Kudu",5,-24,31.87,385061.46,7345312.41
"375216",375216,1993,25,"ko","Kudu",5,-24.1,31.87,385150.47,7334239.5
"375217",375217,1993,25,"ko","Kudu",3,-24.1,31.87,385150.47,7334239.5
"375222",375222,1993,25,"ko","Kudu",2,-24.14,31.87,385186.17,7329810.3
"375240",375240,1993,25,"ko","Kudu",1,-24,31.85,383026.97,7345295.95
"375244",375244,1993,25,"ko","Kudu",2,-23.98,31.86,384026.3,7347518.79
"375260",375260,1993,25,"ko","Kudu",4,-24.15,31.86,384179.04,7328694.76
"375264",375264,1993,25,"ko","Kudu",3,-24.16,31.85,383172.08,7327579.14
"375268",375268,1993,25,"ko","Kudu",6,-24.12,31.85,383135.71,7332008.37
"375294",375294,1993,25,"ko","Kudu",2,-24.05,31.82,380021.64,7339734.2
"375310",375310,1993,25,"ko","Kudu",5,-24.13,31.84,382128.57,7330892.69
"375323",375323,1993,25,"ko","Kudu",6,-24.15,31.83,381130.84,7328669.62
"375400",375400,1993,25,"ko","Kudu",11,-24.14,31.81,379089.29,7329759.81
"375403",375403,1993,25,"ko","Kudu",2,-24.16,31.81,379108.11,7327545.17
"375405",375405,1993,25,"ko","Kudu",4,-24.14,31.8,378073.13,7329751.14
"375439",375439,1993,25,"ko","Kudu",3,-24.06,31.78,375963.78,7338592.16
"375453",375453,1993,25,"ko","Kudu",7,-24.16,31.8,378092.11,7327536.49
"375480",375480,1993,25,"ko","Kudu",1,-24.05,31.75,372903.54,7339672.68
"375602",375602,1993,26,"ko","Kudu",3,-24.36,31.87,385383.53,7305449.28
"375608",375608,1993,26,"ko","Kudu",3,-24.37,31.87,385392.54,7304341.94
"375636",375636,1993,26,"ko","Kudu",5,-24.35,31.82,380302.13,7306514.45
"375637",375637,1993,26,"ko","Kudu",3,-24.34,31.82,380292.73,7307621.79
"375650",375650,1993,26,"ko","Kudu",3,-24.35,31.82,380302.13,7306514.45
"375652",375652,1993,26,"ko","Kudu",2,-24.35,31.82,380302.13,7306514.45
"375669",375669,1993,26,"ko","Kudu",2,-24.33,31.8,378254.04,7308711.77
"375670",375670,1993,26,"ko","Kudu",2,-24.33,31.8,378254.04,7308711.77
"375677",375677,1993,26,"ko","Kudu",1,-24.32,31.79,377229.75,7309810.33
"375685",375685,1993,26,"ko","Kudu",4,-24.36,31.8,378282.72,7305389.72
"375686",375686,1993,26,"ko","Kudu",2,-24.36,31.8,378282.72,7305389.72
"375766",375766,1993,26,"ko","Kudu",3,-24.3,31.83,381270.04,7312059.73
"375767",375767,1993,26,"ko","Kudu",2,-24.3,31.84,382284.92,7312068.22
"375771",375771,1993,26,"ko","Kudu",2,-24.29,31.86,384305.6,7313192.31
"375774",375774,1993,26,"ko","Kudu",1,-24.29,31.83,381260.73,7313167.06
"375779",375779,1993,26,"ko","Kudu",3,-24.28,31.82,380236.39,7314265.84
"375782",375782,1993,26,"ko","Kudu",5,-24.28,31.86,384296.54,7314299.64
"375790",375790,1993,26,"ko","Kudu",3,-24.26,31.84,382248.04,7316497.54
"375813",375813,1993,26,"ko","Kudu",2,-24.28,31.8,378206.3,7314248.5
"375825",375825,1993,26,"ko","Kudu",4,-24.26,31.8,378187.23,7316463.18
"375895",375895,1993,26,"ko","Kudu",2,-24.22,31.75,373071.5,7320847.98
"375930",375930,1993,26,"ko","Kudu",4,-24.18,31.78,376079.42,7325304.26
"375938",375938,1993,26,"ko","Kudu",2,-24.18,31.74,372016.02,7325268.24
"375941",375941,1993,27,"ko","Kudu",1,-24.29,31.88,386335.5,7313208.78
"375978",375978,1993,27,"ko","Kudu",5,-24.26,31.89,387323.98,7316538.86
"376015",376015,1993,27,"ko","Kudu",4,-24.25,31.91,389345.69,7317662.19
"376017",376017,1993,27,"ko","Kudu",3,-24.2,31.88,386255.49,7323174.63
"376025",376025,1993,27,"ko","Kudu",4,-24.23,31.91,389328.39,7319876.81
"376028",376028,1993,27,"ko","Kudu",3,-24.18,31.89,387253.57,7325397.34
"376036",376036,1993,27,"ko","Kudu",5,-24.19,31.9,388278.1,7324298.07
"376038",376038,1993,27,"ko","Kudu",6,-24.18,31.9,388269.39,7325405.37
"376168",376168,1993,27,"ko","Kudu",6,-24.35,31.95,393490.23,7306620.28
"376172",376172,1993,27,"ko","Kudu",7,-24.36,31.95,393498.6,7305512.96
"376220",376220,1993,27,"ko","Kudu",5,-24.28,31.96,394446.74,7314379.05
"376250",376250,1993,27,"ko","Kudu",5,-24.42,31.99,397604.44,7298899.19
"376270",376270,1993,27,"ko","Kudu",4,-24.31,31.97,395486.32,7311064.69
"376271",376271,1993,27,"ko","Kudu",2,-24.31,31.97,395486.32,7311064.69
"376288",376288,1993,27,"ko","Kudu",2,-24.39,31.98,396566.12,7302213.71
"376319",376319,1993,27,"ko","Kudu",3,-24.31,31.98,396501.09,7311072.16
"376323",376323,1993,28,"ko","Kudu",8,-24.41,31.79,377316.6,7299844.12
"376326",376326,1993,28,"ko","Kudu",7,-24.41,31.8,378330.61,7299852.94
"376329",376329,1993,28,"ko","Kudu",3,-24.41,31.81,379344.62,7299861.68
"376342",376342,1993,28,"ko","Kudu",6,-24.4,31.85,383391.44,7301003.26
"376352",376352,1993,28,"ko","Kudu",4,-24.41,31.86,384414.62,7299904.29
"376405",376405,1993,28,"ko","Kudu",5,-24.41,31.91,389484.57,7299945.07
"376461",376461,1993,28,"ko","Kudu",5,-24.47,31.96,394604.37,7293340.07
"376482",376482,1993,28,"ko","Kudu",2,-24.48,31.94,392585.86,7292217.35
"376499",376499,1993,28,"ko","Kudu",15,-24.45,31.91,389519.43,7295515.73
"376516",376516,1993,28,"ko","Kudu",1,-24.45,31.86,384451.08,7295474.9
"376532",376532,1993,28,"ko","Kudu",5,-24.45,31.82,380396.36,7295440.92
"376533",376533,1993,28,"ko","Kudu",4,-24.43,31.82,380377.48,7297655.63
"376539",376539,1993,28,"ko","Kudu",5,-24.43,31.81,379363.64,7297646.96
"376555",376555,1993,28,"ko","Kudu",1,-24.52,31.96,394646.04,7287803.41
"376649",376649,1993,28,"ko","Kudu",1,-24.59,31.92,390654.38,7280020.85
"376671",376671,1993,28,"ko","Kudu",15,-24.5,31.92,390576.33,7289986.98
"376698",376698,1993,28,"ko","Kudu",7,-24.51,31.91,389571.81,7288871.68
"376699",376699,1993,28,"ko","Kudu",7,-24.51,31.91,389571.81,7288871.68
"376708",376708,1993,28,"ko","Kudu",3,-24.52,31.9,388567.45,7287756.3
"376755",376755,1993,29,"ko","Kudu",2,-24.52,31.86,384515.01,7287723.42
"376775",376775,1993,29,"ko","Kudu",6,-24.55,31.82,380490.95,7284367.25
"376793",376793,1993,29,"ko","Kudu",1,-24.49,31.78,376380.67,7290976.27
"376808",376808,1993,29,"ko","Kudu",4,-24.54,31.77,375416.62,7285430.37
"376872",376872,1993,29,"ko","Kudu",5,-24.62,31.81,379545.05,7276606.87
"376878",376878,1993,29,"ko","Kudu",2,-24.66,31.83,381607.41,7272194.71
"376881",376881,1993,29,"ko","Kudu",4,-24.67,31.84,382628.76,7271095.91
"376885",376885,1993,29,"ko","Kudu",3,-24.66,31.82,380595.41,7272186.05
"376910",376910,1993,29,"ko","Kudu",4,-24.62,31.8,378532.73,7276598.07
"376925",376925,1993,29,"ko","Kudu",3,-24.64,31.8,378552.06,7274383.29
"376933",376933,1993,29,"ko","Kudu",6,-24.62,31.79,377520.4,7276589.2
"376938",376938,1993,29,"ko","Kudu",4,-24.66,31.8,378571.41,7272168.5
"376940",376940,1993,29,"ko","Kudu",3,-24.63,31.78,376517.9,7275472.86
"377000",377000,1993,29,"ko","Kudu",2,-24.7,31.89,387715.17,7267815.62
"377022",377022,1993,29,"ko","Kudu",4,-24.76,31.88,386757.85,7261163.09
"377083",377083,1993,29,"ko","Kudu",11,-24.75,31.84,382703.75,7262236.78
"377090",377090,1993,30,"ko","Kudu",2,-24.7,31.99,397831.64,7267893.84
"377092",377092,1993,30,"ko","Kudu",5,-24.72,31.99,397847.96,7265679.13
"377105",377105,1993,30,"ko","Kudu",3,-24.76,31.98,396869.49,7261242.19
"377110",377110,1993,30,"ko","Kudu",6,-24.72,31.98,396836.49,7265671.63
"377118",377118,1993,30,"ko","Kudu",5,-24.74,31.98,396852.98,7263456.91
"377131",377131,1993,30,"ko","Kudu",2,-24.75,31.97,395850,7262341.98
"377142",377142,1993,30,"ko","Kudu",4,-24.7,31.97,395808.37,7267878.79
"377145",377145,1993,30,"ko","Kudu",12,-24.7,31.96,394796.72,7267871.15
"377162",377162,1993,30,"ko","Kudu",3,-24.76,31.96,394847.18,7261226.96
"377198",377198,1993,30,"ko","Kudu",7,-24.7,31.95,393785.08,7267863.44
"377217",377217,1993,30,"ko","Kudu",2,-24.78,31.94,392842.03,7258996.68
"377219",377219,1993,30,"ko","Kudu",6,-24.78,31.94,392842.03,7258996.68
"377231",377231,1993,30,"ko","Kudu",3,-24.74,31.94,392807.71,7263426.18
"377248",377248,1993,30,"ko","Kudu",4,-24.76,31.93,391813.7,7261203.56
"377250",377250,1993,30,"ko","Kudu",1,-24.77,31.93,391822.36,7260096.18
"377337",377337,1993,30,"ko","Kudu",1,-24.75,31.9,388771.3,7262286.88
"377347",377347,1993,30,"ko","Kudu",3,-24.59,32,398754.62,7280082.04
"377350",377350,1993,30,"ko","Kudu",6,-24.6,31.99,397750.22,7278967.31
"377360",377360,1993,30,"ko","Kudu",3,-24.66,31.98,396787.08,7272315.76
"377436",377436,1993,30,"ko","Kudu",4,-24.46,31.99,397636.75,7294469.93
"377456",377456,1993,30,"ko","Kudu",3,-24.58,31.98,396721.37,7281174.52
"377494",377494,1993,30,"ko","Kudu",5,-24.46,31.99,397636.75,7294469.93
"377498",377498,1993,30,"ko","Kudu",2,-24.45,31.98,396615.02,7295569.81
"377529",377529,1993,30,"ko","Kudu",1,-24.55,31.98,396696.78,7284496.53
"377531",377531,1993,30,"ko","Kudu",2,-24.55,31.98,396696.78,7284496.53
"377550",377550,1993,30,"ko","Kudu",4,-24.52,31.97,395659.13,7287811.01
"377704",377704,1993,31,"ko","Kudu",5,-24.54,31.66,364273.74,7285326.56
"377730",377730,1993,31,"ko","Kudu",6,-24.58,31.71,369380.18,7280945.23
"377746",377746,1993,31,"ko","Kudu",7,-24.54,31.69,367312.74,7285355.76
"377751",377751,1993,31,"ko","Kudu",9,-24.5,31.68,366257.38,7289775.73
"377766",377766,1993,31,"ko","Kudu",3,-24.55,31.68,366310.34,7284238.69
"377769",377769,1993,31,"ko","Kudu",1,-24.56,31.68,366320.94,7283131.27
"377790",377790,1993,31,"ko","Kudu",10,-24.48,31.65,363195.77,7291961.18
"377831",377831,1993,31,"ko","Kudu",2,-24.54,31.65,363260.73,7285316.68
"377868",377868,1993,31,"ko","Kudu",3,-24.5,31.63,361190.75,7289726.4
"377873",377873,1993,31,"ko","Kudu",4,-24.55,31.64,362258.64,7284199.31
"377884",377884,1993,31,"ko","Kudu",13,-24.44,31.78,376331.84,7296513.13
"377890",377890,1993,31,"ko","Kudu",3,-24.41,31.77,375288.57,7299826.27
"377914",377914,1993,31,"ko","Kudu",3,-24.41,31.77,375288.57,7299826.27
"377996",377996,1993,31,"ko","Kudu",3,-24.47,31.75,373320.51,7293163.87
"378013",378013,1993,31,"ko","Kudu",1,-24.41,31.74,372246.5,7299798.95
"378112",378112,1993,31,"ko","Kudu",2,-24.41,31.72,370218.45,7299780.37
"378143",378143,1993,31,"ko","Kudu",7,-24.47,31.72,370279.87,7293136.05
"378144",378144,1993,31,"ko","Kudu",3,-24.48,31.72,370290.12,7292028.66
"378159",378159,1993,31,"ko","Kudu",2,-24.47,31.71,369266.32,7293126.64
"378213",378213,1993,31,"ko","Kudu",3,-24.5,31.7,368284.01,7289794.95
"378256",378256,1993,31,"ko","Kudu",1,-24.47,31.68,366225.65,7293097.94
"378271",378271,1993,31,"ko","Kudu",4,-24.41,31.67,365148.27,7299732.64
"378281",378281,1993,31,"ko","Kudu",1,-24.47,31.67,365212.09,7293088.23
"378330",378330,1993,31,"ko","Kudu",7,-24.48,31.64,362182.28,7291951.25
"378331",378331,1993,31,"ko","Kudu",2,-24.48,31.64,362182.28,7291951.25
"378345",378345,1993,31,"ko","Kudu",7,-24.4,31.62,360066.99,7300790.49
"378384",378384,1993,32,"ko","Kudu",5,-24.52,31.47,345001.58,7287341.26
"378425",378425,1993,32,"ko","Kudu",4,-24.44,31.59,357069.64,7296330.19
"378497",378497,1993,32,"ko","Kudu",6,-24.56,31.51,349102.29,7282955.74
"378504",378504,1993,32,"ko","Kudu",3,-24.52,31.51,349054.43,7287385.6
"378507",378507,1993,32,"ko","Kudu",3,-24.56,31.52,350115.18,7282966.65
"378535",378535,1993,32,"ko","Kudu",4,-24.55,31.55,353142.16,7284106.4
"378540",378540,1993,32,"ko","Kudu",5,-24.56,31.56,354166.69,7283009.57
"378548",378548,1993,32,"ko","Kudu",2,-24.49,31.55,353072.36,7290751.1
"378559",378559,1993,32,"ko","Kudu",3,-24.55,31.57,355168.07,7284127.56
"378565",378565,1993,32,"ko","Kudu",4,-24.49,31.55,353072.36,7290751.1
"378573",378573,1993,32,"ko","Kudu",8,-24.49,31.57,355099.23,7290772.22
"378596",378596,1993,32,"ko","Kudu",3,-24.51,31.59,357148.69,7288578.18
"378599",378599,1993,32,"ko","Kudu",1,-24.54,31.6,358195.66,7285266.19
"378616",378616,1993,32,"ko","Kudu",4,-24.49,31.61,359152.93,7290813.58
"378624",378624,1993,32,"ko","Kudu",4,-24.54,31.61,359208.68,7285276.43
"378626",378626,1993,32,"ko","Kudu",6,-24.55,31.62,360232.78,7284179.18
"378678",378678,1993,33,"ko","Kudu",4,-24.58,31.57,355202.55,7280805.22
"378687",378687,1993,33,"ko","Kudu",3,-24.55,31.58,356181.02,7284138.03
"378751",378751,1993,33,"ko","Kudu",4,-24.56,31.62,360243.87,7283071.75
"378800",378800,1993,33,"ko","Kudu",1,-24.63,31.66,364370.73,7275359.75
"378840",378840,1993,33,"ko","Kudu",3,-24.69,31.63,361400.18,7268685.15
"378853",378853,1993,33,"ko","Kudu",3,-24.7,31.6,358376.07,7267547.04
"378874",378874,1993,33,"ko","Kudu",1,-24.72,31.61,359410.26,7265342.42
"378936",378936,1993,33,"ko","Kudu",3,-24.76,31.64,362488.96,7260943.08
"378998",378998,1993,34,"ko","Kudu",6,-24.65,31.77,375525.48,7273249.04
"379035",379035,1993,34,"ko","Kudu",1,-24.61,31.76,374473.43,7277669.55
"379140",379140,1993,34,"ko","Kudu",3,-24.75,31.78,376636.12,7262184.01
"379176",379176,1993,34,"ko","Kudu",1,-24.75,31.7,368545.8,7262109.51
"379194",379194,1993,34,"ko","Kudu",6,-24.61,31.7,368398.89,7277613.47
"379197",379197,1993,34,"ko","Kudu",1,-24.62,31.68,366384.65,7276486.76
"379226",379226,1993,34,"ko","Kudu",6,-24.67,31.67,365425.91,7270939.86
"379230",379230,1993,34,"ko","Kudu",3,-24.66,31.71,369463.3,7272085.92
"379235",379235,1993,34,"ko","Kudu",2,-24.66,31.71,369463.3,7272085.92
"379339",379339,1993,34,"ko","Kudu",5,-24.72,31.68,366491.16,7265412.46
"379391",379391,1993,35,"ko","Kudu",4,-24.79,31.61,359489.03,7257590.18
"379398",379398,1993,35,"ko","Kudu",6,-24.8,31.61,359500.3,7256482.72
"379410",379410,1993,35,"ko","Kudu",4,-24.81,31.61,359511.58,7255375.25
"379419",379419,1993,35,"ko","Kudu",4,-24.82,31.65,363565.86,7254308.36
"379421",379421,1993,35,"ko","Kudu",2,-24.82,31.64,362555.11,7254298.33
"379429",379429,1993,35,"ko","Kudu",3,-24.82,31.61,359522.85,7254267.78
"379438",379438,1993,35,"ko","Kudu",2,-24.83,31.61,359534.14,7253160.3
"379439",379439,1993,35,"ko","Kudu",2,-24.83,31.61,359534.14,7253160.3
"379444",379444,1993,35,"ko","Kudu",4,-24.84,31.62,360556.02,7252063.09
"379446",379446,1993,35,"ko","Kudu",4,-24.84,31.63,361566.6,7252073.28
"379457",379457,1993,35,"ko","Kudu",6,-24.85,31.61,359556.71,7250945.35
"379479",379479,1993,35,"ko","Kudu",3,-24.88,31.63,361611.14,7247643.4
"379516",379516,1993,35,"ko","Kudu",2,-24.9,31.65,363653.63,7245448.64
"379527",379527,1993,35,"ko","Kudu",2,-24.91,31.64,362654.61,7244331.11
"379528",379528,1993,35,"ko","Kudu",4,-24.91,31.63,361644.59,7244320.97
"379543",379543,1993,35,"ko","Kudu",1,-24.91,31.65,363664.62,7244341.17
"379566",379566,1993,35,"ko","Kudu",4,-24.93,31.66,364696.47,7242136.22
"379570",379570,1993,35,"ko","Kudu",1,-24.93,31.66,364696.47,7242136.22
"379627",379627,1993,35,"ko","Kudu",2,-24.97,31.58,356663.92,7237624.19
"379646",379646,1993,35,"ko","Kudu",5,-24.96,31.65,363719.64,7238803.79
"379658",379658,1993,35,"ko","Kudu",1,-24.8,31.66,364554.86,7256533.24
"379668",379668,1993,35,"ko","Kudu",5,-24.81,31.67,365576.55,7255435.67
"379669",379669,1993,35,"ko","Kudu",5,-24.81,31.66,364565.73,7255425.78
"379683",379683,1993,35,"ko","Kudu",1,-24.83,31.68,366608.79,7253230.57
"379700",379700,1993,35,"ko","Kudu",2,-24.84,31.72,370661.79,7252161.66
"379710",379710,1993,35,"ko","Kudu",2,-24.85,31.68,366630.23,7251015.67
"379721",379721,1993,35,"ko","Kudu",6,-24.86,31.74,372703.39,7249965.6
"379741",379741,1993,35,"ko","Kudu",6,-24.87,31.67,365641.36,7248790.93
"379743",379743,1993,35,"ko","Kudu",5,-24.88,31.68,366662.42,7247693.3
"379776",379776,1993,35,"ko","Kudu",3,-24.9,31.67,365673.82,7245468.54
"379822",379822,1993,36,"ko","Kudu",1,-24.79,31.82,380719.44,7257789.86
"379836",379836,1993,36,"ko","Kudu",2,-24.77,31.81,379689.21,7259995.91
"379888",379888,1993,36,"ko","Kudu",5,-24.84,31.78,376725.13,7252217.24
"379923",379923,1993,36,"ko","Kudu",5,-24.85,31.77,375724.57,7251100.73
"379926",379926,1993,36,"ko","Kudu",2,-24.86,31.77,375734.56,7249993.3
"379933",379933,1993,36,"ko","Kudu",2,-24.79,31.76,374653.72,7257736.14
"379985",379985,1993,36,"ko","Kudu",1,-24.79,31.73,371620.83,7257708.28
"379986",379986,1993,36,"ko","Kudu",4,-24.82,31.72,370641.01,7254376.54
"379995",379995,1993,36,"ko","Kudu",6,-24.79,31.71,369598.89,7257689.34
"380041",380041,1993,36,"ko","Kudu",5,-24.82,31.87,385801.63,7254510.4
"380043",380043,1993,36,"ko","Kudu",2,-24.82,31.87,385801.63,7254510.4
"380045",380045,1993,36,"ko","Kudu",6,-24.83,31.87,385810.8,7253403
"380088",380088,1993,36,"ko","Kudu",6,-24.86,31.85,383817.6,7250063.89
"380143",380143,1993,36,"ko","Kudu",6,-24.87,31.82,380796.07,7248930.55
"380145",380145,1993,36,"ko","Kudu",5,-24.88,31.82,380805.67,7247823.13
"380172",380172,1993,36,"ko","Kudu",4,-24.87,31.8,378775.47,7248912.9
"380178",380178,1993,36,"ko","Kudu",1,-24.87,31.78,376754.87,7248894.95
"380179",380179,1993,36,"ko","Kudu",1,-24.87,31.78,376754.87,7248894.95
"380186",380186,1993,36,"ko","Kudu",2,-24.86,31.78,376744.95,7250002.38
"380190",380190,1993,36,"ko","Kudu",2,-24.88,31.77,375754.56,7247778.43
"380213",380213,1993,37,"ko","Kudu",2,-24.82,32,398940.42,7254612.93
"380255",380255,1993,37,"ko","Kudu",3,-24.84,31.98,396935.65,7252383.22
"380259",380259,1993,37,"ko","Kudu",2,-24.83,31.98,396927.37,7253490.6
"380267",380267,1993,37,"ko","Kudu",6,-24.8,31.98,396902.55,7256812.71
"380269",380269,1993,37,"ko","Kudu",2,-24.79,31.97,395883.37,7257912.5
"380274",380274,1993,37,"ko","Kudu",6,-24.82,31.96,394897.76,7254582.72
"380299",380299,1993,37,"ko","Kudu",3,-24.8,31.95,393870.05,7256789.73
"380339",380339,1993,37,"ko","Kudu",3,-24.8,31.94,392859.21,7256781.93
"380358",380358,1993,37,"ko","Kudu",9,-24.8,31.93,391848.38,7256774.04
"380365",380365,1993,37,"ko","Kudu",5,-24.83,31.93,391874.42,7253451.89
"380410",380410,1993,37,"ko","Kudu",2,-24.84,31.92,390872.59,7252336.54
"380478",380478,1993,37,"ko","Kudu",5,-24.83,31.9,388842.62,7253427.78
"380494",380494,1993,37,"ko","Kudu",2,-24.79,31.89,387796,7257849.17
"380515",380515,1993,37,"ko","Kudu",6,-24.85,31.88,386839.6,7251196.53
"380520",380520,1993,37,"ko","Kudu",6,-24.83,31.88,386821.41,7253411.33
"380554",380554,1993,37,"ko","Kudu",9,-24.93,31.91,389941.87,7242361.91
"380639",380639,1993,37,"ko","Kudu",2,-24.95,32,399046.16,7240217.01
"380642",380642,1993,37,"ko","Kudu",2,-24.92,32,399021.71,7243539.17
"380645",380645,1993,37,"ko","Kudu",4,-24.94,32.01,400047.69,7241331.79
"380656",380656,1993,37,"ko","Kudu",1,-24.97,32.01,400071.92,7238009.63
"380675",380675,1993,37,"ko","Kudu",3,-24.98,32.01,400080,7236902.24
"380709",380709,1993,37,"ko","Kudu",1,-25.02,31.96,395067.16,7232434.87
"380713",380713,1993,37,"ko","Kudu",2,-25.03,32.02,401129.39,7231372.62
"380716",380716,1993,37,"ko","Kudu",9,-25.03,32,399111.49,7231357.86
"380781",380781,1993,37,"ko","Kudu",4,-25.08,31.97,396126.78,7225798.13
"380793",380793,1993,37,"ko","Kudu",3,-25.1,32.01,400177.19,7223613.46
"380846",380846,1993,37,"ko","Kudu",5,-25.12,31.99,398177,7221383.7
"380849",380849,1993,37,"ko","Kudu",2,-25.12,32.01,400193.43,7221398.64
"380878",380878,1993,37,"ko","Kudu",3,-25.12,31.93,392127.67,7221337.08
"380934",380934,1993,37,"ko","Kudu",2,-25.17,32,399226.29,7215854.13
"380953",380953,1993,38,"ko","Kudu",4,-24.98,31.91,389986.31,7236824.86
"380992",380992,1993,38,"ko","Kudu",2,-24.92,31.88,386903.37,7243444.69
"381064",381064,1993,38,"ko","Kudu",3,-24.93,31.84,382873.3,7242303.4
"381069",381069,1993,38,"ko","Kudu",4,-24.96,31.84,382901.68,7238981.12
"381109",381109,1993,38,"ko","Kudu",4,-24.95,31.8,378853.64,7240053.46
"381144",381144,1993,38,"ko","Kudu",4,-24.91,31.8,378814.53,7244483.19
"381182",381182,1993,38,"ko","Kudu",7,-24.95,31.75,373805.37,7240007.92
"381184",381184,1993,38,"ko","Kudu",7,-24.93,31.76,374794.81,7242232.07
"381191",381191,1993,38,"ko","Kudu",2,-24.89,31.76,374754.42,7246661.83
"381270",381270,1993,38,"ko","Kudu",1,-25,31.83,381930.32,7234542.73
"381363",381363,1993,38,"ko","Kudu",3,-25.04,31.87,386004.19,7230147.27
"381373",381373,1993,38,"ko","Kudu",4,-25.09,31.89,388067.43,7224626.82
"381403",381403,1993,39,"ko","Kudu",3,-24.99,31.31,329432.77,7235096.62
"381404",381404,1993,39,"ko","Kudu",2,-24.99,31.3,328423.3,7235084
"381408",381408,1993,39,"ko","Kudu",1,-24.99,31.29,327413.84,7235071.3
"381409",381409,1993,39,"ko","Kudu",4,-24.99,31.32,330442.23,7235109.16
"381423",381423,1993,39,"ko","Kudu",4,-25,31.31,329446.58,7233989.02
"381450",381450,1993,39,"ko","Kudu",5,-25.01,31.25,323404.53,7232804.54
"381460",381460,1993,39,"ko","Kudu",4,-25.04,31.27,325465.62,7229507.62
"381471",381471,1993,39,"ko","Kudu",8,-25.06,31.28,326502.85,7227305.25
"381479",381479,1993,39,"ko","Kudu",4,-25.08,31.26,324513.56,7225064.18
"381495",381495,1993,39,"ko","Kudu",5,-25.09,31.26,324527.82,7223956.56
"381512",381512,1993,39,"ko","Kudu",4,-25.1,31.25,323533.51,7222835.89
"381513",381513,1993,39,"ko","Kudu",2,-25.1,31.26,324542.09,7222848.93
"381526",381526,1993,39,"ko","Kudu",6,-25.12,31.25,323562.24,7220620.62
"381539",381539,1993,39,"ko","Kudu",3,-25.14,31.25,323590.98,7218405.35
"381541",381541,1993,39,"ko","Kudu",4,-25.13,31.21,319543.23,7219460.05
"381544",381544,1993,39,"ko","Kudu",4,-25.14,31.19,317541.4,7218325.48
"381555",381555,1993,39,"ko","Kudu",2,-25.15,31.19,317556.27,7217217.81
"381578",381578,1993,39,"ko","Kudu",2,-25.03,31.35,333524.55,7230716.01
"381628",381628,1993,39,"ko","Kudu",5,-25.05,31.3,328506.72,7228438.37
"381652",381652,1993,39,"ko","Kudu",4,-25.07,31.3,328534.57,7226223.15
"381653",381653,1993,39,"ko","Kudu",3,-25.08,31.3,328548.5,7225115.54
"381677",381677,1993,39,"ko","Kudu",1,-25.08,31.28,326531.04,7225090.01
"381678",381678,1993,39,"ko","Kudu",2,-25.08,31.27,325522.3,7225077.14
"381711",381711,1993,39,"ko","Kudu",4,-25.12,31.34,332637.86,7220735.31
"381717",381717,1993,39,"ko","Kudu",3,-25.11,31.32,330607.29,7221817.95
"381722",381722,1993,39,"ko","Kudu",6,-25.11,31.3,328590.33,7221792.7
"381726",381726,1993,39,"ko","Kudu",2,-25.11,31.28,326573.36,7221767.15
"381756",381756,1993,39,"ko","Kudu",5,-25.13,31.27,325593.27,7219539
"381764",381764,1993,40,"ko","Kudu",2,-25.39,31.33,332001.47,7190816.98
"381766",381766,1993,40,"ko","Kudu",3,-25.39,31.33,332001.47,7190816.98
"381778",381778,1993,40,"ko","Kudu",3,-25.38,31.33,331987.62,7191924.63
"381786",381786,1993,40,"ko","Kudu",3,-25.36,31.28,326927.86,7194076.13
"381839",381839,1993,40,"ko","Kudu",3,-25.33,31.32,330911.82,7197450.23
"381847",381847,1993,40,"ko","Kudu",4,-25.33,31.31,329905.16,7197437.56
"381851",381851,1993,40,"ko","Kudu",7,-25.33,31.29,327891.82,7197411.99
"381852",381852,1993,40,"ko","Kudu",3,-25.33,31.29,327891.82,7197411.99
"381853",381853,1993,40,"ko","Kudu",2,-25.33,31.29,327891.82,7197411.99
"381867",381867,1993,40,"ko","Kudu",4,-25.32,31.28,326870.92,7198506.75
"381870",381870,1993,40,"ko","Kudu",6,-25.32,31.29,327877.68,7198519.64
"381877",381877,1993,40,"ko","Kudu",1,-25.32,31.32,330897.92,7198557.87
"381881",381881,1993,40,"ko","Kudu",5,-25.32,31.31,329891.18,7198545.2
"381902",381902,1993,40,"ko","Kudu",10,-25.3,31.3,328856.32,7200747.75
"381915",381915,1993,40,"ko","Kudu",3,-25.27,31.26,324785.51,7204019.02
"381928",381928,1993,40,"ko","Kudu",4,-25.26,31.27,325778.41,7205139.69
"381975",381975,1993,40,"ko","Kudu",4,-25.22,31.37,335797.05,7209696.2
"381982",381982,1993,40,"ko","Kudu",5,-25.22,31.33,331766.81,7209646.73
"382016",382016,1993,40,"ko","Kudu",7,-25.17,31.36,334722,7215221.97
"382036",382036,1993,40,"ko","Kudu",7,-25.16,31.34,332692.4,7216304.88
"382063",382063,1993,40,"ko","Kudu",3,-25.18,31.31,329696.01,7214052.04
"382064",382064,1993,40,"ko","Kudu",5,-25.17,31.3,328674.12,7215146.98
"382065",382065,1993,40,"ko","Kudu",3,-25.17,31.3,328674.12,7215146.98
"382067",382067,1993,40,"ko","Kudu",1,-25.16,31.3,328660.14,7216254.6
"382075",382075,1993,40,"ko","Kudu",5,-25.16,31.27,325635.91,7216216.11
"382079",382079,1993,40,"ko","Kudu",7,-25.16,31.26,324627.83,7216203.12
"382081",382081,1993,40,"ko","Kudu",3,-25.17,31.26,324642.14,7215095.48
"382086",382086,1993,40,"ko","Kudu",3,-25.2,31.27,325692.85,7211785.56
"382099",382099,1993,40,"ko","Kudu",5,-25.19,31.24,322655.09,7212853.99
"382110",382110,1993,40,"ko","Kudu",4,-25.21,31.23,321676.39,7210625.46
"382118",382118,1993,40,"ko","Kudu",3,-25.2,31.22,320654.04,7211719.82
"382141",382141,1993,41,"ko","Kudu",2,-25.16,31.4,338740.7,7216378.06
"382149",382149,1993,41,"ko","Kudu",3,-25.12,31.37,335663,7220772.19
"382154",382154,1993,41,"ko","Kudu",2,-25.11,31.37,335649.63,7221879.78
"382174",382174,1993,41,"ko","Kudu",1,-25.1,31.43,341687.45,7223059.07
"382176",382176,1993,41,"ko","Kudu",2,-25.11,31.43,341700.33,7221951.5
"382179",382179,1993,41,"ko","Kudu",4,-25.13,31.44,342734.38,7219748.06
"382186",382186,1993,41,"ko","Kudu",5,-25.11,31.45,343717.2,7221974.81
"382193",382193,1993,41,"ko","Kudu",4,-25.13,31.45,343742.65,7219759.68
"382214",382214,1993,41,"ko","Kudu",1,-25.1,31.47,345721.52,7223105.37
"382225",382225,1993,41,"ko","Kudu",4,-25.14,31.49,347788.11,7218697.87
"382228",382228,1993,41,"ko","Kudu",1,-25.14,31.5,348796.28,7218709.13
"382250",382250,1993,41,"ko","Kudu",3,-25.13,31.5,348783.96,7219816.68
"382252",382252,1993,41,"ko","Kudu",2,-25.15,31.5,348808.6,7217601.57
"382300",382300,1993,41,"ko","Kudu",2,-25.15,31.46,344776.22,7217556.1
"382302",382302,1993,41,"ko","Kudu",6,-25.16,31.46,344788.87,7216448.53
"382347",382347,1993,41,"ko","Kudu",2,-25.2,31.43,341816.46,7211983.31
"382348",382348,1993,41,"ko","Kudu",7,-25.21,31.43,341829.39,7210875.73
"382388",382388,1993,41,"ko","Kudu",5,-25.22,31.38,336804.61,7209708.37
"382394",382394,1993,41,"ko","Kudu",4,-25.24,31.39,337838.7,7207505.28
"382430",382430,1993,41,"ko","Kudu",2,-25.25,31.45,343895.72,7206468.79
"382439",382439,1993,41,"ko","Kudu",3,-25.26,31.46,344915.7,7205372.8
"382485",382485,1993,41,"ko","Kudu",2,-25.28,31.41,339905.93,7203098.88
"382503",382503,1993,41,"ko","Kudu",1,-25.28,31.36,334870.66,7203038.26
"382505",382505,1993,41,"ko","Kudu",4,-25.26,31.38,336858.04,7205277.95
"382516",382516,1993,41,"ko","Kudu",5,-25.26,31.36,334843.59,7205253.49
"382522",382522,1993,41,"ko","Kudu",1,-25.28,31.33,331849.46,7203000.98
"382527",382527,1993,41,"ko","Kudu",2,-25.26,31.35,333836.36,7205241.15
"382533",382533,1993,41,"ko","Kudu",4,-25.27,31.33,331835.68,7204108.61
"382534",382534,1993,41,"ko","Kudu",2,-25.28,31.33,331849.46,7203000.98
"382537",382537,1993,41,"ko","Kudu",2,-25.29,31.32,330856.27,7201880.77
"382542",382542,1993,41,"ko","Kudu",4,-25.28,31.32,330842.39,7202988.4
"382572",382572,1993,41,"ko","Kudu",2,-25.33,31.41,339971.64,7197560.87
"382576",382576,1993,41,"ko","Kudu",5,-25.34,31.4,338978.25,7196441.26
"382577",382577,1993,41,"ko","Kudu",1,-25.34,31.4,338978.25,7196441.26
"382583",382583,1993,41,"ko","Kudu",2,-25.35,31.4,338991.49,7195333.65
"382590",382590,1993,41,"ko","Kudu",1,-25.35,31.38,336978.54,7195309.43
"382592",382592,1993,41,"ko","Kudu",1,-25.35,31.39,337985.02,7195321.57
"382626",382626,1993,41,"ko","Kudu",5,-25.37,31.37,335999.07,7193081.95
"382629",382629,1993,41,"ko","Kudu",1,-25.39,31.37,336026.09,7190866.69
"382640",382640,1993,41,"ko","Kudu",3,-25.34,31.37,335958.57,7196404.82
"382649",382649,1993,41,"ko","Kudu",2,-25.35,31.36,334965.59,7195284.9
"382654",382654,1993,41,"ko","Kudu",9,-25.37,31.36,334992.75,7193069.64
"382658",382658,1993,41,"ko","Kudu",1,-25.36,31.35,333972.76,7194164.89
"382682",382682,1993,41,"ko","Kudu",1,-25.34,31.33,331932.3,7196355.18
"382694",382694,1993,41,"ko","Kudu",3,-25.33,31.33,331918.48,7197462.82
"382699",382699,1993,41,"ko","Kudu",4,-25.36,31.33,331959.95,7194139.91
"382719",382719,1993,42,"ko","Kudu",3,-25.06,31.58,356768.4,7227656.62
"382755",382755,1993,42,"ko","Kudu",1,-25.14,31.59,357869.72,7218807.04
"382784",382784,1993,42,"ko","Kudu",2,-25.17,31.57,355888.68,7215463.21
"382795",382795,1993,42,"ko","Kudu",3,-25.15,31.55,353849.02,7217656.73
"382797",382797,1993,42,"ko","Kudu",1,-25.16,31.55,353860.94,7216549.2
"382884",382884,1993,42,"ko","Kudu",3,-25.25,31.55,353968.39,7206581.3
"382888",382888,1993,42,"ko","Kudu",1,-25.28,31.54,352997.28,7203247.72
"382921",382921,1993,42,"ko","Kudu",2,-25.28,31.56,355011.29,7203269.49
"383010",383010,1993,42,"ko","Kudu",5,-25.17,31.52,350849.11,7215408.77
"383041",383041,1993,43,"ko","Kudu",1,-24.98,31.36,334466.65,7236266.18
"383048",383048,1993,43,"ko","Kudu",8,-25,31.36,334493.44,7234051.02
"383049",383049,1993,43,"ko","Kudu",2,-25.01,31.36,334506.85,7232943.44
"383071",383071,1993,43,"ko","Kudu",3,-25.03,31.38,336551.9,7230752.57
"383086",383086,1993,43,"ko","Kudu",1,-25.03,31.38,336551.9,7230752.57
"383087",383087,1993,43,"ko","Kudu",2,-25.05,31.39,337587.36,7228549.46
"383088",383088,1993,43,"ko","Kudu",2,-25.05,31.39,337587.36,7228549.46
"383089",383089,1993,43,"ko","Kudu",2,-25.05,31.4,338596.31,7228561.43
"383101",383101,1993,43,"ko","Kudu",1,-24.98,31.4,338504.73,7236314.4
"383108",383108,1993,43,"ko","Kudu",1,-25.01,31.4,338543.95,7232991.71
"383134",383134,1993,43,"ko","Kudu",3,-24.99,31.42,340536.66,7235230.52
"383137",383137,1993,43,"ko","Kudu",1,-25.01,31.42,340562.48,7233015.4
"383148",383148,1993,43,"ko","Kudu",4,-25.05,31.42,340614.19,7228585.15
"383152",383152,1993,43,"ko","Kudu",3,-25.03,31.43,341597.42,7230812.02
"383164",383164,1993,43,"ko","Kudu",4,-25,31.43,341558.92,7234134.69
"383165",383165,1993,43,"ko","Kudu",4,-25.01,31.44,342581.01,7233038.79
"383184",383184,1993,43,"ko","Kudu",3,-25,31.46,344586.93,7234169.43
"383186",383186,1993,43,"ko","Kudu",2,-24.99,31.46,344574.35,7235276.97
"383195",383195,1993,43,"ko","Kudu",3,-24.99,31.47,345583.76,7235288.4
"383233",383233,1993,43,"ko","Kudu",3,-24.97,31.51,349597.05,7237548.41
"383244",383244,1993,43,"ko","Kudu",6,-25.01,31.52,350654.97,7233129.37
"383255",383255,1993,43,"ko","Kudu",3,-25,31.53,351652.19,7234247.88
"383260",383260,1993,43,"ko","Kudu",2,-25.01,31.54,352673.43,7233151.27
"383313",383313,1993,43,"ko","Kudu",5,-25.06,31.43,341635.98,7227489.33
"383321",383321,1993,43,"ko","Kudu",2,-25.07,31.45,343666.37,7226405.05
"383349",383349,1993,43,"ko","Kudu",5,-25.04,31.51,349682.29,7229795.71
"383383",383383,1993,43,"ko","Kudu",3,-25.03,31.54,352697.31,7230936.22
"383392",383392,1993,43,"ko","Kudu",3,-25.01,31.56,354691.88,7233172.87
"383393",383393,1993,43,"ko","Kudu",1,-25.01,31.56,354691.88,7233172.87
"383410",383410,1993,43,"ko","Kudu",4,-25.01,31.57,355701.1,7233183.56
"383419",383419,1993,43,"ko","Kudu",3,-25.03,31.57,355724.48,7230968.53
"383420",383420,1993,43,"ko","Kudu",2,-25.04,31.58,356745.16,7229871.64
"383469",383469,1993,44,"ko","Kudu",5,-25.4,31.62,361190.28,7190042.5
"383509",383509,1993,44,"ko","Kudu",4,-25.4,31.66,365214.22,7190083.48
"383583",383583,1993,44,"ko","Kudu",3,-25.31,31.69,368134.54,7200081.13
"383599",383599,1993,44,"ko","Kudu",5,-25.3,31.68,367116.91,7201178.77
"383640",383640,1993,44,"ko","Kudu",1,-25.28,31.68,367095.11,7203393.8
"383686",383686,1993,44,"ko","Kudu",2,-25.29,31.65,364085.34,7202256.22
"383692",383692,1993,44,"ko","Kudu",6,-25.27,31.66,365070.11,7204481.36
"383705",383705,1993,44,"ko","Kudu",2,-25.34,31.61,360115.2,7196677.36
"383724",383724,1993,44,"ko","Kudu",6,-25.3,31.62,361076.04,7201117.93
"383736",383736,1993,44,"ko","Kudu",1,-25.36,31.59,358125.55,7194441.2
"383754",383754,1993,44,"ko","Kudu",1,-25.18,31.62,360939.52,7214408.26
"383765",383765,1993,44,"ko","Kudu",5,-25.18,31.68,366986.33,7214468.89
"383767",383767,1993,44,"ko","Kudu",8,-25.18,31.68,366986.33,7214468.89
"383808",383808,1993,44,"ko","Kudu",4,-25.21,31.66,365003.82,7211126.45
"383809",383809,1993,44,"ko","Kudu",4,-25.21,31.66,365003.82,7211126.45
"383926",383926,1993,44,"ko","Kudu",1,-25.25,31.73,372098.49,7206764.91
"383929",383929,1993,44,"ko","Kudu",1,-25.25,31.75,374112.89,7206783.81
"383931",383931,1993,44,"ko","Kudu",1,-25.25,31.75,374112.89,7206783.81
"383942",383942,1993,44,"ko","Kudu",1,-25.27,31.77,376147.58,7204587.43
"383969",383969,1993,44,"ko","Kudu",2,-25.27,31.84,383196.72,7204650.2
"384033",384033,1993,44,"ko","Kudu",2,-25.33,31.81,380234.66,7197978.85
"384052",384052,1993,44,"ko","Kudu",2,-25.32,31.86,385257.83,7199130.11
"384130",384130,1993,44,"ko","Kudu",1,-25.2,31.64,362977.52,7212213.74
"384131",384131,1993,44,"ko","Kudu",2,-25.2,31.64,362977.52,7212213.74
"384138",384138,1993,44,"ko","Kudu",1,-25.21,31.62,360973.59,7211085.7
"384160",384160,1993,44,"ko","Kudu",2,-25.23,31.62,360996.33,7208870.65
"384186",384186,1993,44,"ko","Kudu",2,-25.22,31.66,365014.86,7210018.94
"384187",384187,1993,44,"ko","Kudu",3,-25.22,31.66,365014.86,7210018.94
"384237",384237,1993,44,"ko","Kudu",1,-25.26,31.65,364051.91,7205578.79
"384253",384253,1993,44,"ko","Kudu",5,-25.25,31.67,366055.22,7206706.41
"384258",384258,1993,44,"ko","Kudu",4,-25.26,31.67,366066.19,7205598.89
"384263",384263,1993,44,"ko","Kudu",3,-25.27,31.66,365070.11,7204481.36
"384270",384270,1993,44,"ko","Kudu",1,-25.28,31.63,362060.23,7203343.32
"384277",384277,1993,44,"ko","Kudu",4,-25.27,31.67,366077.16,7204491.38
"384282",384282,1993,44,"ko","Kudu",3,-25.26,31.71,370094.71,7205638.2
"384291",384291,1993,44,"ko","Kudu",5,-25.26,31.71,370094.71,7205638.2
"384308",384308,1993,44,"ko","Kudu",4,-25.3,31.71,370137.31,7201208.18
"384416",384416,1993,45,"ko","Kudu",3,-25.14,31.87,386096.82,7219072.89
"384439",384439,1993,45,"ko","Kudu",4,-25.14,31.84,383072.58,7219047.21
"384441",384441,1993,45,"ko","Kudu",10,-25.15,31.85,384090.11,7217948.39
"384463",384463,1993,45,"ko","Kudu",1,-25.14,31.82,381056.41,7219029.71
"384474",384474,1993,45,"ko","Kudu",4,-25.16,31.84,383091.64,7216832.3
"384486",384486,1993,45,"ko","Kudu",9,-25.17,31.85,384109.01,7215733.48
"384498",384498,1993,45,"ko","Kudu",1,-25.15,31.82,381066.1,7217922.26
"384504",384504,1993,45,"ko","Kudu",1,-25.15,31.81,380058.09,7217913.39
"384605",384605,1993,45,"ko","Kudu",5,-25.18,31.83,382102.96,7214608.67
"384621",384621,1993,45,"ko","Kudu",4,-25.21,31.84,383139.35,7211295
"384629",384629,1993,45,"ko","Kudu",4,-25.19,31.82,381104.91,7213492.41
"384687",384687,1993,45,"ko","Kudu",1,-25.24,31.84,383168.02,7207972.61
"384714",384714,1993,45,"ko","Kudu",1,-25.23,31.8,379129.07,7209044.7
"384726",384726,1993,45,"ko","Kudu",2,-25.25,31.82,381163.23,7206847.59
"384763",384763,1993,45,"ko","Kudu",2,-25.33,31.9,389293.29,7198056.31
"384774",384774,1993,45,"ko","Kudu",4,-25.31,31.9,389275.1,7200271.24
"384866",384866,1993,45,"ko","Kudu",1,-25.22,31.92,391208.24,7210254.68
"384902",384902,1993,45,"ko","Kudu",4,-25.21,31.91,390191.85,7211353.99
"385016",385016,1993,56,"ko","Kudu",1,-25.35,31.53,352075.34,7195483.76
"385042",385042,1993,56,"ko","Kudu",3,-25.3,31.51,350000.86,7200999.36
"385051",385051,1993,56,"ko","Kudu",1,-25.34,31.49,348037.1,7196546.51
"385056",385056,1993,56,"ko","Kudu",7,-25.32,31.49,348012.12,7198761.67
"385063",385063,1993,56,"ko","Kudu",4,-25.28,31.5,348969.23,7203203.28
"385081",385081,1993,56,"ko","Kudu",4,-25.35,31.48,347043.15,7195427.53
"385094",385094,1993,56,"ko","Kudu",3,-25.29,31.47,345960.79,7202061.58
"385181",385181,1993,56,"ko","Kudu",5,-25.37,31.47,346062.05,7193200.88
"385189",385189,1993,56,"ko","Kudu",4,-25.36,31.52,351081.17,7194365.09
"385200",385200,1993,56,"ko","Kudu",5,-25.37,31.53,352099.69,7193268.62
"385207",385207,1993,56,"ko","Kudu",7,-25.43,31.52,351167.07,7186612.03
"385230",385230,1993,56,"ko","Kudu",1,-25.4,31.55,354148.27,7189967.89
"385240",385240,1993,56,"ko","Kudu",2,-25.4,31.48,347106.13,7189889.58
"385241",385241,1993,56,"ko","Kudu",2,-25.39,31.48,347093.52,7190997.17
"385242",385242,1993,56,"ko","Kudu",1,-25.39,31.48,347093.52,7190997.17
"385251",385251,1993,56,"ko","Kudu",2,-25.4,31.43,342075.93,7189831.39
"385276",385276,1993,56,"ko","Kudu",1,-25.43,31.43,342115.02,7186508.55
"385284",385284,1993,56,"ko","Kudu",3,-25.43,31.48,347143.97,7186566.79
"385290",385290,1993,56,"ko","Kudu",1,-25.44,31.48,347156.59,7185459.2
"385295",385295,1993,56,"ko","Kudu",1,-25.43,31.46,345132.4,7186543.72
"385298",385298,1993,56,"ko","Kudu",3,-25.44,31.45,344139.48,7185424.46
"385304",385304,1993,56,"ko","Kudu",2,-25.43,31.43,342115.02,7186508.55
"385327",385327,1993,56,"ko","Kudu",1,-25.46,31.51,350198.43,7183278.06
"385328",385328,1993,56,"ko","Kudu",5,-25.45,31.51,350186.05,7184385.66
"385344",385344,1993,56,"ko","Kudu",4,-25.46,31.47,346176.32,7183232.49
"385354",385354,1993,56,"ko","Kudu",1,-25.47,31.47,346189.04,7182124.88
"385359",385359,1993,56,"ko","Kudu",5,-25.49,31.47,346214.49,7179909.66
"385374",385374,1993,56,"ko","Kudu",7,-25.49,31.45,344203.91,7179886.4
"385378",385378,1993,56,"ko","Kudu",12,-25.49,31.44,343198.62,7179874.66
"385384",385384,1993,56,"ko","Kudu",4,-25.49,31.43,342193.32,7179862.84
"385386",385386,1993,56,"ko","Kudu",3,-25.49,31.42,341188.03,7179850.94
"385391",385391,1993,56,"ko","Kudu",8,-25.51,31.41,340209.2,7177623.71
"385392",385392,1993,56,"ko","Kudu",12,-25.5,31.4,339190.73,7178719.29
"385405",385405,1993,56,"ko","Kudu",2,-25.49,31.37,336161.48,7179790.33
"385510",385510,1993,57,"ko","Kudu",3,-25.09,31.75,373948.45,7224503.5
"385524",385524,1993,57,"ko","Kudu",7,-25.15,31.79,378042.07,7217895.45
"385553",385553,1993,57,"ko","Kudu",1,-25.15,31.74,373001.97,7217849.27
"385558",385558,1993,57,"ko","Kudu",6,-25.18,31.76,375048.6,7214545.53
"385564",385564,1993,57,"ko","Kudu",2,-25.15,31.72,370985.92,7217830.27
"385573",385573,1993,57,"ko","Kudu",1,-25.12,31.68,366921.26,7221113.87
"385575",385575,1993,57,"ko","Kudu",4,-25.12,31.68,366921.26,7221113.87
"385585",385585,1993,57,"ko","Kudu",1,-25.16,31.72,370996.44,7216722.79
"385590",385590,1993,57,"ko","Kudu",5,-25.18,31.75,374040.83,7214536.22
"385598",385598,1993,57,"ko","Kudu",5,-25.15,31.7,368969.85,7217810.98
"385613",385613,1993,57,"ko","Kudu",1,-25.17,31.66,364959.72,7215556.49
"385636",385636,1993,58,"ko","Kudu",2,-25.03,31.77,375905.04,7231166.77
"385640",385640,1993,58,"ko","Kudu",3,-25.04,31.78,376924.03,7230068.44
"385650",385650,1993,58,"ko","Kudu",3,-25.05,31.77,375925.17,7228951.85
"385659",385659,1993,58,"ko","Kudu",2,-25.06,31.77,375935.24,7227844.39
"385663",385663,1993,58,"ko","Kudu",1,-25.04,31.74,372888.33,7230031.47
"385684",385684,1993,58,"ko","Kudu",2,-25.02,31.71,369840.44,7232217.9
"385701",385701,1993,58,"ko","Kudu",2,-25.06,31.72,370891.43,7227797.59
"385714",385714,1993,58,"ko","Kudu",1,-25.05,31.7,368863.24,7228885.83
"385752",385752,1993,58,"ko","Kudu",1,-25.11,31.69,367918.8,7222231.19
"385779",385779,1993,58,"ko","Kudu",1,-25.07,31.61,359806.2,7226580.55
"385789",385789,1993,58,"ko","Kudu",2,-25.15,31.66,364937.69,7217771.49
"385810",385810,1993,58,"ko","Kudu",2,-25.14,31.61,359886.01,7218827.97
"385821",385821,1993,60,"ko","Kudu",4,-25.01,31.59,357719.53,7233204.71
"385958",385958,1993,60,"ko","Kudu",2,-25.01,31.73,371848.25,7233344.43
"385972",385972,1993,60,"ko","Kudu",4,-25,31.74,372847.13,7234461.32
"385989",385989,1993,60,"ko","Kudu",3,-25.01,31.76,374875.76,7233372.48
"386006",386006,1993,46,"ko","Kudu",1,-25.28,32.01,400323.8,7203679.9
"386043",386043,1993,46,"ko","Kudu",2,-25.3,32.01,400340.15,7201465.03
"386047",386047,1993,46,"ko","Kudu",2,-25.31,32,399341.68,7200350.11
"386054",386054,1993,46,"ko","Kudu",3,-25.33,32,399358.22,7198135.23
"386114",386114,1993,46,"ko","Kudu",3,-25.17,32,399226.29,7215854.13
"386164",386164,1993,46,"ko","Kudu",1,-25.32,31.98,397336.81,7199227.5
"386168",386168,1993,46,"ko","Kudu",5,-25.34,31.98,397353.68,7197012.6
"386183",386183,1993,46,"ko","Kudu",4,-25.38,31.96,395375.31,7192567.29
"386196",386196,1993,46,"ko","Kudu",2,-25.38,31.95,394369.24,7192559.42
"386198",386198,1993,46,"ko","Kudu",2,-25.38,31.97,396381.39,7192575.08
"386209",386209,1993,46,"ko","Kudu",2,-25.31,31.97,396321.73,7200327.24
"386222",386222,1993,46,"ko","Kudu",3,-25.27,31.97,396287.71,7204757.01
"386239",386239,1993,46,"ko","Kudu",5,-25.36,31.96,395358.09,7194782.2
"386246",386246,1993,46,"ko","Kudu",2,-25.36,31.95,394351.84,7194774.34
"386248",386248,1993,46,"ko","Kudu",3,-25.31,31.96,395315.07,7200319.47
"386261",386261,1993,46,"ko","Kudu",4,-25.3,31.93,392286.25,7201403.14
"386270",386270,1993,46,"ko","Kudu",4,-25.32,31.92,391297.36,7199180.16
"386273",386273,1993,46,"ko","Kudu",2,-25.31,31.91,390281.77,7200279.46
"386278",386278,1993,46,"ko","Kudu",4,-25.32,31.9,389284.19,7199163.77
"386307",386307,1993,46,"ko","Kudu",3,-25.24,31.97,396262.22,7208079.33
"386317",386317,1993,46,"ko","Kudu",3,-25.28,31.96,395289.3,7203641.81
"386381",386381,1993,61,"ko","Kudu",1,-22.71,30.98,292517.35,7487170.14
"386391",386391,1993,61,"ko","Kudu",2,-22.7,30.99,293529.78,7488291.53
"386399",386399,1993,61,"ko","Kudu",4,-22.7,31.01,295584.8,7488319.22
"386414",386414,1993,61,"ko","Kudu",9,-22.67,30.98,292457.08,7491599.9
"386415",386415,1993,61,"ko","Kudu",1,-22.68,31,294527.46,7490520.27
"386426",386426,1993,61,"ko","Kudu",1,-22.68,31.05,299665.69,7490588.59
"386432",386432,1993,61,"ko","Kudu",1,-22.66,31.02,296553.25,7492762.65
"386469",386469,1993,61,"ko","Kudu",2,-22.57,31.03,297449.22,7502742.97
"386473",386473,1993,61,"ko","Kudu",5,-22.56,31.01,295377.52,7503823.09
"386485",386485,1993,61,"ko","Kudu",5,-22.54,31.03,297405.39,7506065.17
"386490",386490,1993,61,"ko","Kudu",4,-22.53,31.04,298419.55,7507186.1
"386493",386493,1993,61,"ko","Kudu",2,-22.51,31.03,297361.62,7509387.36
"386516",386516,1993,62,"ko","Kudu",1,-22.51,31.18,312794.78,7509582.86
"386522",386522,1993,62,"ko","Kudu",1,-22.51,31.13,307650.5,7509519.41
"386523",386523,1993,62,"ko","Kudu",3,-22.52,31.12,306635.55,7508399.16
"386529",386529,1993,62,"ko","Kudu",3,-22.48,31.17,311725.32,7512892.29
"386533",386533,1993,62,"ko","Kudu",3,-22.49,31.1,304535.76,7511695.25
"386537",386537,1993,62,"ko","Kudu",1,-22.47,31.2,314799.22,7514037.01
"386543",386543,1993,62,"ko","Kudu",2,-22.47,31.11,305536.84,7513922.98
"386549",386549,1993,62,"ko","Kudu",1,-22.45,31.17,311684.76,7516214.27
"386566",386566,1993,62,"ko","Kudu",6,-22.52,31.08,302520.33,7508346.88
"386589",386589,1993,63,"ko","Kudu",3,-22.5,31.32,327185.81,7510858.6
"386597",386597,1993,63,"ko","Kudu",5,-22.59,31.32,327297.88,7500893.15
"386606",386606,1993,63,"ko","Kudu",1,-22.43,31.22,316804.92,7518490.81
"386608",386608,1993,63,"ko","Kudu",1,-22.43,31.22,316804.92,7518490.81
"386610",386610,1993,63,"ko","Kudu",1,-22.42,31.23,317821.28,7519610.27
"386617",386617,1993,63,"ko","Kudu",1,-22.43,31.25,319893.16,7518527.12
"386624",386624,1993,63,"ko","Kudu",4,-22.43,31.28,322981.38,7518562.81
"386630",386630,1993,63,"ko","Kudu",1,-22.45,31.28,323006.76,7516348.26
"386632",386632,1993,63,"ko","Kudu",2,-22.45,31.28,323006.76,7516348.26
"386639",386639,1993,63,"ko","Kudu",3,-22.53,31.22,316936.49,7507417.75
"386640",386640,1993,63,"ko","Kudu",2,-22.52,31.29,324124.51,7508609.09
"386646",386646,1993,63,"ko","Kudu",2,-22.45,31.3,325065.26,7516371.72
"386650",386650,1993,63,"ko","Kudu",2,-22.53,31.2,314879.12,7507393.11
"386652",386652,1993,63,"ko","Kudu",1,-22.54,31.21,315921.07,7506298.15
"386684",386684,1993,64,"ko","Kudu",2,-22.41,31.27,321926.47,7520765.53
"386694",386694,1993,64,"ko","Kudu",5,-22.37,31.26,320845.66,7525182.76
"386735",386735,1993,64,"ko","Kudu",6,-22.4,31.22,316765.55,7521812.7
"386760",386760,1993,64,"ko","Kudu",5,-22.41,31.2,314719.52,7520680.87
"386769",386769,1993,64,"ko","Kudu",1,-22.39,31.19,313663.27,7522883.12
"386779",386779,1993,64,"ko","Kudu",1,-22.34,31.18,312566.6,7528407.23
"386780",386780,1993,64,"ko","Kudu",4,-22.34,31.18,312566.6,7528407.23
"386784",386784,1993,64,"ko","Kudu",1,-22.35,31.18,312579.97,7527299.93
"386792",386792,1993,64,"ko","Kudu",2,-22.34,31.17,311536.49,7528394.76
"386802",386802,1993,64,"ko","Kudu",1,-22.4,31.16,310587.62,7521738.3
"386803",386803,1993,64,"ko","Kudu",1,-22.37,31.16,310546.98,7525060.26
"386824",386824,1993,64,"ko","Kudu",1,-22.41,31.09,303393.91,7520541.03
"386835",386835,1993,64,"ko","Kudu",1,-22.42,31.12,306496.63,7519472.65
