"","ID","Year","Cenb","Sp","Description","No","Lat","Long","X.coord","Y.coord"
"146103",146103,1985,1,"wa","Waterbuck bull",1,-24.04,31.61,358656.01,7340646.35
"146639",146639,1985,1,"wa","Waterbuck bull",1,-23.97,31.73,370789.87,7348513.04
"147250",147250,1985,11,"wa","Waterbuck bull",3,-23.22,31.22,317859.51,7431010.24
"147359",147359,1985,11,"wa","Waterbuck bull",1,-23.25,31.28,324039.74,7427762.08
"147374",147374,1985,11,"wa","Waterbuck bull",2,-23.21,31.25,320916.63,7432154.93
"147385",147385,1985,11,"wa","Waterbuck bull",1,-23.22,31.26,321953.44,7431059.84
"147520",147520,1985,11,"wa","Waterbuck bull",1,-23.18,31.31,327019.28,7435549.68
"147583",147583,1985,12,"wa","Waterbuck bull",3,-23.17,30.98,293217.68,7436226.46
"147916",147916,1985,12,"wa","Waterbuck bull",1,-23.17,31.13,308576.75,7436431.69
"147977",147977,1985,12,"wa","Waterbuck bull",1,-23.24,31.19,314816.63,7428757.48
"147987",147987,1985,13,"wa","Waterbuck bull",4,-23.67,31.49,346015.02,7381493.52
"148010",148010,1985,13,"wa","Waterbuck bull",2,-23.62,31.47,343915.84,7387008.58
"148013",148013,1985,13,"wa","Waterbuck bull",1,-23.62,31.48,344936.16,7387019.46
"148016",148016,1985,13,"wa","Waterbuck bull",1,-23.61,31.48,344924.39,7388126.81
"148022",148022,1985,13,"wa","Waterbuck bull",6,-23.75,31.51,348147.53,7372656.15
"148025",148025,1985,13,"wa","Waterbuck bull",1,-23.76,31.51,348159.13,7371548.79
"148161",148161,1985,13,"wa","Waterbuck bull",1,-23.78,31.57,354296.69,7369396.9
"148311",148311,1985,13,"wa","Waterbuck bull",1,-23.81,31.62,359424.18,7366125.31
"148548",148548,1985,13,"wa","Waterbuck bull",1,-23.82,31.64,361472.39,7365037.66
"148566",148566,1985,13,"wa","Waterbuck bull",1,-23.76,31.63,360389.58,7371671.8
"148627",148627,1985,13,"wa","Waterbuck bull",1,-23.78,31.65,362448.98,7369476.67
"148644",148644,1985,13,"wa","Waterbuck bull",1,-23.72,31.63,360346.93,7376101.07
"148697",148697,1985,13,"wa","Waterbuck bull",1,-23.68,31.62,359284.54,7380520.49
"148762",148762,1985,14,"wa","Waterbuck bull",1,-23.46,31.35,331467.87,7404590.61
"148764",148764,1985,14,"wa","Waterbuck bull",1,-23.42,31.33,329373.29,7408996.57
"148893",148893,1985,14,"wa","Waterbuck bull",3,-23.53,31.44,340746.3,7396941.73
"149020",149020,1985,14,"wa","Waterbuck bull",1,-23.5,31.48,344795.22,7400307.58
"149021",149021,1985,14,"wa","Waterbuck bull",3,-23.51,31.49,345828.11,7399211.02
"149222",149222,1985,15,"wa","Waterbuck bull",1,-23.4,31.34,330369.7,7411223.13
"149404",149404,1985,15,"wa","Waterbuck bull",1,-23.31,31.44,340482.59,7421303.19
"149483",149483,1985,15,"wa","Waterbuck bull",2,-23.33,31.52,348686.92,7419174.5
"149836",149836,1985,18,"wa","Waterbuck bull",1,-23.13,31.44,340268.58,7441234.82
"149897",149897,1985,18,"wa","Waterbuck bull",1,-23.11,31.44,340244.9,7443449.42
"149918",149918,1985,18,"wa","Waterbuck bull",1,-23.25,31.48,344503.78,7427990.55
"149954",149954,1985,18,"wa","Waterbuck bull",1,-23.17,31.48,344411.14,7436848.92
"150043",150043,1985,18,"wa","Waterbuck bull",3,-23.28,31.53,349653.25,7424721.39
"150048",150048,1985,18,"wa","Waterbuck bull",2,-23.27,31.53,349642.02,7425828.68
"150092",150092,1985,18,"wa","Waterbuck bull",1,-23.2,31.5,346492.94,7433548.3
"150100",150100,1985,18,"wa","Waterbuck bull",2,-23.2,31.53,349563.55,7433579.66
"150161",150161,1985,19,"wa","Waterbuck bull",2,-23.86,31.65,362533.29,7360618.09
"150203",150203,1985,19,"wa","Waterbuck bull",1,-23.91,31.69,366658.13,7355119.76
"150207",150207,1985,19,"wa","Waterbuck bull",1,-23.9,31.7,367665.95,7356236.48
"150238",150238,1985,19,"wa","Waterbuck bull",4,-23.92,31.71,368704.23,7354031.17
"150325",150325,1985,19,"wa","Waterbuck bull",1,-23.86,31.74,371698.78,7360702.55
"150327",150327,1985,19,"wa","Waterbuck bull",1,-23.86,31.74,371698.78,7360702.55
"150328",150328,1985,19,"wa","Waterbuck bull",1,-23.86,31.74,371698.78,7360702.55
"150384",150384,1985,19,"wa","Waterbuck bull",3,-23.94,31.78,375848.68,7351879.86
"150401",150401,1985,19,"wa","Waterbuck bull",3,-23.91,31.76,373784.04,7355184.04
"150426",150426,1985,19,"wa","Waterbuck bull",1,-23.96,31.81,378920.56,7349691.34
"150457",150457,1985,19,"wa","Waterbuck bull",1,-23.95,31.79,376875.91,7350781.32
"150461",150461,1985,19,"wa","Waterbuck bull",1,-23.95,31.8,377893.57,7350790.01
"150496",150496,1985,19,"wa","Waterbuck bull",1,-23.95,31.83,380946.52,7350815.65
"150536",150536,1985,2,"wa","Waterbuck bull",1,-24.05,31.4,337310.99,7339311.84
"150741",150741,1985,2,"wa","Waterbuck bull",1,-24.04,31.52,349502.91,7340552.94
"150744",150744,1985,2,"wa","Waterbuck bull",1,-24.05,31.53,350531.51,7339456.22
"150780",150780,1985,2,"wa","Waterbuck bull",1,-23.93,31.51,348357.09,7352723.49
"150794",150794,1985,2,"wa","Waterbuck bull",1,-23.94,31.52,349386.58,7351626.81
"150887",150887,1985,2,"wa","Waterbuck bull",1,-24.01,31.57,354554.23,7343927.69
"150983",150983,1985,20,"wa","Waterbuck bull",1,-24.04,31.21,317973.57,7340186.32
"151114",151114,1985,20,"wa","Waterbuck bull",2,-24.1,31.42,339407.26,7333797.69
"151164",151164,1985,20,"wa","Waterbuck bull",1,-24.03,31.45,342371.46,7341583.66
"151281",151281,1985,20,"wa","Waterbuck bull",1,-24.07,31.51,348521.11,7337220.01
"151395",151395,1985,20,"wa","Waterbuck bull",1,-24.03,31.61,358645.06,7341753.72
"151431",151431,1985,20,"wa","Waterbuck bull",1,-24.01,31.65,362692.1,7344008.03
"151446",151446,1985,20,"wa","Waterbuck bull",1,-24.03,31.66,363730.41,7341803.06
"152601",152601,1985,22,"wa","Waterbuck bull",1,-24.38,31.56,353959.12,7302943.47
"152767",152767,1985,23,"wa","Waterbuck bull",1,-24.23,31.64,361911.23,7319636.2
"152778",152778,1985,23,"wa","Waterbuck bull",1,-24.17,31.63,360830.61,7326270.55
"152832",152832,1985,23,"wa","Waterbuck bull",1,-24.16,31.64,361835.81,7327387.83
"153103",153103,1985,23,"wa","Waterbuck bull",5,-24.17,31.72,369974.17,7326357.14
"153119",153119,1985,23,"wa","Waterbuck bull",3,-24.13,31.72,369933.68,7330786.52
"153490",153490,1985,24,"wa","Waterbuck bull",1,-24.38,31.7,368159.25,7303083.65
"153574",153574,1985,24,"wa","Waterbuck bull",1,-24.26,31.67,364989.35,7316343.43
"153576",153576,1985,24,"wa","Waterbuck bull",1,-24.26,31.68,366004.59,7316353.08
"153662",153662,1985,25,"wa","Waterbuck bull",1,-24.16,31.74,371996.08,7327482.92
"153961",153961,1985,25,"wa","Waterbuck bull",1,-24.03,31.77,374917.93,7341905.25
"154170",154170,1985,25,"wa","Waterbuck bull",5,-24,31.81,378957.95,7345262.15
"154437",154437,1985,25,"wa","Waterbuck bull",1,-24.02,31.84,382027.96,7343073.02
"154556",154556,1985,25,"wa","Waterbuck bull",6,-24.08,31.9,388182.47,7336478.32
"154714",154714,1985,26,"wa","Waterbuck bull",1,-24.28,31.75,373131.04,7314203.87
"154781",154781,1985,26,"wa","Waterbuck bull",1,-24.38,31.82,380330.36,7303192.4
"154813",154813,1985,26,"wa","Waterbuck bull",2,-24.37,31.81,379306.62,7304291.1
"154833",154833,1985,26,"wa","Waterbuck bull",1,-24.32,31.81,379259.21,7309827.84
"154969",154969,1985,26,"wa","Waterbuck bull",3,-24.29,31.85,383290.65,7313183.97
"154971",154971,1985,26,"wa","Waterbuck bull",1,-24.29,31.86,384305.6,7313192.31
"154975",154975,1985,26,"wa","Waterbuck bull",1,-24.31,31.87,385338.53,7310985.93
"154985",154985,1985,26,"wa","Waterbuck bull",1,-24.32,31.85,383318.09,7309861.97
"154989",154989,1985,26,"wa","Waterbuck bull",1,-24.32,31.85,383318.09,7309861.97
"154997",154997,1985,26,"wa","Waterbuck bull",1,-24.32,31.86,384332.81,7309870.33
"155220",155220,1985,27,"wa","Waterbuck bull",1,-24.3,31.88,386344.41,7312101.46
"155418",155418,1985,27,"wa","Waterbuck bull",1,-24.35,31.93,391461.31,7306604.8
"155440",155440,1985,27,"wa","Waterbuck bull",1,-24.3,31.91,389389,7312125.63
"155527",155527,1985,27,"wa","Waterbuck bull",1,-24.25,31.94,392391.46,7317685.66
"155626",155626,1985,27,"wa","Waterbuck bull",1,-24.43,31.98,396598.71,7297784.45
"155707",155707,1985,27,"wa","Waterbuck bull",1,-24.4,31.97,395560.21,7301098.9
"155760",155760,1985,27,"wa","Waterbuck bull",1,-24.36,31.96,394512.97,7305520.6
"155826",155826,1985,27,"wa","Waterbuck bull",1,-24.3,31.98,396492.98,7312179.46
"155829",155829,1985,27,"wa","Waterbuck bull",1,-24.31,31.96,394471.55,7311057.14
"155831",155831,1985,27,"wa","Waterbuck bull",1,-24.31,31.96,394471.55,7311057.14
"155885",155885,1985,27,"wa","Waterbuck bull",9,-24.4,32,398602.36,7301121.17
"155895",155895,1985,28,"wa","Waterbuck bull",2,-24.48,31.78,376370.9,7292083.64
"155898",155898,1985,28,"wa","Waterbuck bull",1,-24.42,31.78,376312.33,7298727.87
"155986",155986,1985,28,"wa","Waterbuck bull",2,-24.41,31.81,379344.62,7299861.68
"156115",156115,1985,28,"wa","Waterbuck bull",1,-24.46,31.86,384460.2,7294367.55
"156122",156122,1985,28,"wa","Waterbuck bull",1,-24.48,31.83,381438.14,7292127.44
"156338",156338,1985,28,"wa","Waterbuck bull",2,-24.55,31.9,388593.93,7284434.24
"156343",156343,1985,28,"wa","Waterbuck bull",1,-24.57,31.88,386586.2,7282203.21
"156456",156456,1985,28,"wa","Waterbuck bull",1,-24.43,31.9,388488.17,7297722.39
"156475",156475,1985,28,"wa","Waterbuck bull",1,-24.44,31.89,387483.22,7296606.96
"156560",156560,1985,28,"wa","Waterbuck bull",1,-24.61,31.93,391684.14,7277814.05
"156649",156649,1985,28,"wa","Waterbuck bull",1,-24.51,31.95,393624.52,7288903.08
"156729",156729,1985,28,"wa","Waterbuck bull",2,-24.48,31.93,391572.45,7292209.54
"156731",156731,1985,28,"wa","Waterbuck bull",3,-24.49,31.93,391581.02,7291102.21
"156753",156753,1985,28,"wa","Waterbuck bull",1,-24.48,31.95,393599.28,7292225.08
"156822",156822,1985,28,"wa","Waterbuck bull",2,-24.4,31.92,390489.93,7301060.33
"157052",157052,1985,29,"wa","Waterbuck bull",1,-24.55,31.8,378465.18,7284349.76
"157584",157584,1985,3,"wa","Waterbuck bull",1,-24.05,31.24,321038.81,7339117.34
"157604",157604,1985,3,"wa","Waterbuck bull",1,-24.03,31.21,317959.47,7341293.82
"157777",157777,1985,3,"wa","Waterbuck bull",1,-24.07,31.28,325134.06,7336952.74
"157835",157835,1985,3,"wa","Waterbuck bull",1,-23.98,31.28,325012.2,7346920.05
"158056",158056,1985,3,"wa","Waterbuck bull",1,-24.06,31.33,330205.18,7338121.57
"158072",158072,1985,3,"wa","Waterbuck bull",2,-24.06,31.35,332239.04,7338145.6
"158083",158083,1985,3,"wa","Waterbuck bull",1,-24.06,31.34,331222.11,7338133.62
"158233",158233,1985,30,"wa","Waterbuck bull",1,-24.8,31.92,390837.54,7256766.09
"158259",158259,1985,30,"wa","Waterbuck bull",2,-24.76,31.93,391813.7,7261203.56
"158313",158313,1985,30,"wa","Waterbuck bull",1,-24.78,31.92,390820.03,7258980.85
"158324",158324,1985,30,"wa","Waterbuck bull",1,-24.78,31.93,391831.03,7258988.81
"158350",158350,1985,30,"wa","Waterbuck bull",1,-24.78,31.95,393853.03,7259004.49
"158355",158355,1985,30,"wa","Waterbuck bull",1,-24.71,31.92,390758.86,7266732.49
"158491",158491,1985,30,"wa","Waterbuck bull",1,-24.76,31.98,396869.49,7261242.19
"158503",158503,1985,30,"wa","Waterbuck bull",1,-24.78,31.96,394864.03,7259012.22
"158506",158506,1985,30,"wa","Waterbuck bull",1,-24.77,31.96,394855.6,7260119.59
"158524",158524,1985,30,"wa","Waterbuck bull",2,-24.78,31.99,397897,7259034.96
"158616",158616,1985,30,"wa","Waterbuck bull",1,-24.69,31.96,394788.32,7268978.51
"158619",158619,1985,30,"wa","Waterbuck bull",1,-24.69,31.97,395800.05,7268986.14
"158920",158920,1985,30,"wa","Waterbuck bull",2,-24.48,31.98,396639.52,7292247.84
"158962",158962,1985,30,"wa","Waterbuck bull",1,-24.78,32,398907.99,7259042.39
"159386",159386,1985,31,"wa","Waterbuck bull",1,-24.4,31.67,365137.64,7300840.03
"159727",159727,1985,31,"wa","Waterbuck bull",1,-24.41,31.73,371232.48,7299789.7
"160347",160347,1985,32,"wa","Waterbuck bull",4,-24.46,31.62,360133.19,7294146
"161905",161905,1985,37,"wa","Waterbuck bull",1,-24.83,31.88,386821.41,7253411.33
"161969",161969,1985,37,"wa","Waterbuck bull",1,-24.82,31.88,386812.32,7254518.73
"161970",161970,1985,37,"wa","Waterbuck bull",1,-24.82,31.88,386812.32,7254518.73
"162103",162103,1985,37,"wa","Waterbuck bull",3,-24.95,31.93,391978.88,7240163.15
"162313",162313,1985,37,"wa","Waterbuck bull",1,-25.08,31.98,397135.33,7225805.77
"162347",162347,1985,37,"wa","Waterbuck bull",3,-25.04,31.98,397101.93,7230235.41
"162422",162422,1985,37,"wa","Waterbuck bull",3,-25.03,31.96,395075.67,7231327.46
"162706",162706,1985,37,"wa","Waterbuck bull",2,-25.13,32.01,400201.56,7220291.23
"162714",162714,1985,37,"wa","Waterbuck bull",1,-25.14,32.01,400209.68,7219183.82
"162718",162718,1985,37,"wa","Waterbuck bull",1,-25.13,32.02,401209.68,7220298.59
"162771",162771,1985,37,"wa","Waterbuck bull",1,-25.11,32,399177.01,7222498.62
"162785",162785,1985,37,"wa","Waterbuck bull",1,-25.11,32.01,400185.31,7222506.05
"162835",162835,1985,37,"wa","Waterbuck bull",1,-25.08,32.02,401169.5,7225835.62
"162857",162857,1985,37,"wa","Waterbuck bull",3,-25.03,32.01,400120.44,7231365.28
"162900",162900,1985,37,"wa","Waterbuck bull",1,-24.79,32,398916.09,7257935.03
"163387",163387,1985,39,"wa","Waterbuck bull",1,-25.03,31.26,324442.31,7230602.3
"163402",163402,1985,39,"wa","Waterbuck bull",1,-24.98,31.26,324371.2,7236140.39
"163704",163704,1985,4,"wa","Waterbuck bull",1,-23.67,31.14,310315.38,7381071.9
"163866",163866,1985,4,"wa","Waterbuck bull",1,-23.71,31.16,312412.66,7376668.42
"163931",163931,1985,4,"wa","Waterbuck bull",1,-23.7,31.2,316477.58,7377828.01
"164262",164262,1985,4,"wa","Waterbuck bull",2,-23.72,31.27,323642.97,7375701.54
"164478",164478,1985,4,"wa","Waterbuck bull",1,-23.75,31.35,331838.3,7372476.11
"164501",164501,1985,40,"wa","Waterbuck bull",4,-25.26,31.24,322756.62,7205100.41
"164559",164559,1985,40,"wa","Waterbuck bull",3,-25.3,31.26,324828.63,7200696.06
"164590",164590,1985,40,"wa","Waterbuck bull",2,-25.27,31.26,324785.51,7204019.02
"165098",165098,1985,41,"wa","Waterbuck bull",1,-25.3,31.4,338925.32,7200871.7
"165108",165108,1985,41,"wa","Waterbuck bull",1,-25.33,31.4,338965.01,7197548.87
"165109",165109,1985,41,"wa","Waterbuck bull",1,-25.31,31.4,338938.54,7199764.09
"165281",165281,1985,41,"wa","Waterbuck bull",1,-25.3,31.44,342952.83,7200919.18
"165566",165566,1985,41,"wa","Waterbuck bull",3,-25.12,31.47,345746.62,7220890.26
"165618",165618,1985,41,"wa","Waterbuck bull",1,-25.11,31.48,346742.49,7222009.21
"166033",166033,1985,42,"wa","Waterbuck bull",2,-25.16,31.55,353860.94,7216549.2
"166068",166068,1985,42,"wa","Waterbuck bull",1,-25.18,31.56,354892.61,7214344.93
"167814",167814,1985,44,"wa","Waterbuck bull",1,-25.19,31.67,365989.48,7213351.47
"168977",168977,1985,46,"wa","Waterbuck bull",1,-25.3,31.92,391279.51,7201395.07
"169261",169261,1985,46,"wa","Waterbuck bull",1,-25.2,31.99,398243.41,7212524.34
"169822",169822,1985,48,"wa","Waterbuck bull",1,-22.88,31.36,331765.95,7468827.8
"169833",169833,1985,48,"wa","Waterbuck bull",1,-22.83,31.37,332730.77,7474375.65
"169896",169896,1985,48,"wa","Waterbuck bull",1,-22.88,31.39,334843.98,7468861.75
"169914",169914,1985,48,"wa","Waterbuck bull",1,-22.85,31.38,333781.47,7472172.37
"169971",169971,1985,48,"wa","Waterbuck bull",1,-22.86,31.42,337898.23,7471109.62
"169987",169987,1985,49,"wa","Waterbuck bull",1,-22.93,31.24,319519.73,7463148.97
"169998",169998,1985,49,"wa","Waterbuck bull",1,-22.91,31.24,319493.23,7465363.67
"170080",170080,1985,49,"wa","Waterbuck bull",1,-22.98,31.3,325737.85,7457684.72
"170209",170209,1985,49,"wa","Waterbuck bull",1,-22.97,31.37,332902.43,7458873.48
"170404",170404,1985,5,"wa","Waterbuck bull",1,-23.78,31.39,335953.32,7369200.64
"170478",170478,1985,5,"wa","Waterbuck bull",1,-23.79,31.44,341060.97,7368150.1
"170530",170530,1985,5,"wa","Waterbuck bull",1,-23.76,31.45,342043.74,7371483.41
"170577",170577,1985,5,"wa","Waterbuck bull",1,-23.85,31.46,343171.13,7361528.04
"170599",170599,1985,5,"wa","Waterbuck bull",2,-23.86,31.46,343183.17,7360420.65
"170610",170610,1985,5,"wa","Waterbuck bull",1,-23.86,31.48,345220.07,7360442.66
"170635",170635,1985,5,"wa","Waterbuck bull",1,-23.8,31.49,346167.76,7367097.81
"170641",170641,1985,5,"wa","Waterbuck bull",1,-23.82,31.46,343135.03,7364850.2
"170735",170735,1985,5,"wa","Waterbuck bull",1,-23.74,31.46,343039,7373709.23
"170812",170812,1985,5,"wa","Waterbuck bull",1,-23.78,31.51,348182.35,7369334.07
"170824",170824,1985,5,"wa","Waterbuck bull",1,-23.84,31.55,352326.48,7362732.13
"170853",170853,1985,5,"wa","Waterbuck bull",5,-23.81,31.57,354330.15,7366074.87
"170925",170925,1985,50,"wa","Waterbuck bull",2,-23.09,31.44,340221.24,7445664.01
"170978",170978,1985,50,"wa","Waterbuck bull",4,-23.13,31.46,342316.77,7441256.59
"170994",170994,1985,50,"wa","Waterbuck bull",1,-23.15,31.48,344388.03,7439063.5
"171014",171014,1985,50,"wa","Waterbuck bull",1,-23.12,31.46,342305.07,7442363.88
"171034",171034,1985,50,"wa","Waterbuck bull",2,-23.04,31.48,344261.25,7451243.61
"171099",171099,1985,50,"wa","Waterbuck bull",1,-23.17,31.53,349529.99,7436901.49
"171125",171125,1985,50,"wa","Waterbuck bull",1,-23.15,31.5,346435.88,7439084.73
"171194",171194,1985,50,"wa","Waterbuck bull",3,-23.2,31.55,351610.61,7433600.21
"171408",171408,1985,52,"wa","Waterbuck bull",1,-23.19,31.21,316795.11,7434319.87
"171628",171628,1985,52,"wa","Waterbuck bull",1,-23.16,31.31,326993.57,7437764.4
"171755",171755,1985,52,"wa","Waterbuck bull",2,-23.08,31.38,334062.5,7446704.42
"171791",171791,1985,52,"wa","Waterbuck bull",1,-23.06,31.38,334037.96,7448919.05
"171934",171934,1985,53,"wa","Waterbuck bull",1,-23.13,30.96,291107.7,7440627.93
"172035",172035,1985,53,"wa","Waterbuck bull",3,-23.17,31.01,296289.57,7436268.78
"172040",172040,1985,53,"wa","Waterbuck bull",1,-23.17,31.03,298337.47,7436296.63
"172041",172041,1985,53,"wa","Waterbuck bull",1,-23.18,31.03,298352.47,7435189.16
"172053",172053,1985,53,"wa","Waterbuck bull",1,-23.15,31.01,296259.3,7438483.75
"172246",172246,1985,53,"wa","Waterbuck bull",1,-23.2,31.08,303501.01,7433042.68
"172262",172262,1985,53,"wa","Waterbuck bull",1,-23.15,31.11,306500.18,7438620.12
"172328",172328,1985,53,"wa","Waterbuck bull",2,-23.15,31.13,308548.3,7438646.55
"172634",172634,1985,54,"wa","Waterbuck bull",1,-22.9,31.06,301012.99,7466238.92
"172636",172636,1985,54,"wa","Waterbuck bull",1,-22.91,31.07,302053.49,7465144.98
"172690",172690,1985,55,"wa","Waterbuck bull",2,-22.87,30.98,292759.43,7469450.89
"172729",172729,1985,55,"wa","Waterbuck bull",1,-22.84,31.03,297846.2,7472842.67
"172742",172742,1985,55,"wa","Waterbuck bull",1,-22.86,31.01,295823.18,7470600.23
"172748",172748,1985,55,"wa","Waterbuck bull",3,-22.86,31.03,297875.78,7470627.79
"172823",172823,1985,55,"wa","Waterbuck bull",1,-22.85,31.05,299913.72,7471762.51
"172926",172926,1985,55,"wa","Waterbuck bull",1,-22.87,31.11,306100.21,7469627.87
"172967",172967,1985,55,"wa","Waterbuck bull",1,-22.88,31.12,307140.52,7468533.6
"173183",173183,1985,55,"wa","Waterbuck bull",4,-22.84,31.23,318374.28,7473102.82
"173200",173200,1985,55,"wa","Waterbuck bull",3,-22.86,31.23,318400.86,7470888.13
"174235",174235,1985,6,"wa","Waterbuck bull",1,-23.61,31.44,340842.77,7388082.87
"174249",174249,1985,6,"wa","Waterbuck bull",1,-23.55,31.44,340770.39,7394727.03
"174261",174261,1985,6,"wa","Waterbuck bull",1,-23.56,31.44,340782.44,7393619.67
"174487",174487,1985,60,"wa","Waterbuck bull",1,-25.01,31.76,374875.76,7233372.48
"174793",174793,1985,62,"wa","Waterbuck bull",2,-22.38,31.19,313649.94,7523990.42
"175127",175127,1985,7,"wa","Waterbuck bull",1,-23.63,31.15,311278.04,7385515.1
"175137",175137,1985,7,"wa","Waterbuck bull",3,-23.67,31.16,312355.48,7381098.36
"175138",175138,1985,7,"wa","Waterbuck bull",1,-23.68,31.16,312369.77,7379990.87
"175139",175139,1985,7,"wa","Waterbuck bull",1,-23.67,31.16,312355.48,7381098.36
"175153",175153,1985,7,"wa","Waterbuck bull",1,-23.67,31.18,314395.57,7381124.53
"175276",175276,1985,7,"wa","Waterbuck bull",1,-23.71,31.25,321590.12,7376784.07
"175283",175283,1985,7,"wa","Waterbuck bull",1,-23.71,31.27,323629.52,7376808.98
"175295",175295,1985,7,"wa","Waterbuck bull",3,-23.7,31.25,321576.52,7377891.52
"175298",175298,1985,7,"wa","Waterbuck bull",2,-23.69,31.25,321562.92,7378998.97
"175309",175309,1985,7,"wa","Waterbuck bull",2,-23.7,31.26,322596.3,7377904.01
"175314",175314,1985,7,"wa","Waterbuck bull",1,-23.69,31.27,323602.63,7379023.86
"175348",175348,1985,7,"wa","Waterbuck bull",1,-23.65,31.28,324569.07,7383465.93
"175446",175446,1985,7,"wa","Waterbuck bull",1,-23.73,31.35,331812.62,7374690.94
"175449",175449,1985,7,"wa","Waterbuck bull",1,-23.73,31.36,332832.12,7374702.72
"175615",175615,1985,8,"wa","Waterbuck bull",1,-23.46,31.31,327381.44,7404543.18
"175637",175637,1985,8,"wa","Waterbuck bull",3,-23.42,31.32,328351.37,7408984.69
"175681",175681,1985,8,"wa","Waterbuck bull",2,-23.54,31.36,332590.61,7395743.26
"175705",175705,1985,8,"wa","Waterbuck bull",1,-23.5,31.37,333561.29,7400184.41
"175772",175772,1985,8,"wa","Waterbuck bull",1,-23.5,31.38,334582.57,7400195.97
"175780",175780,1985,8,"wa","Waterbuck bull",1,-23.5,31.39,335603.85,7400207.45
"175796",175796,1985,8,"wa","Waterbuck bull",1,-23.52,31.38,334607.56,7397981.22
"175818",175818,1985,8,"wa","Waterbuck bull",2,-23.48,31.39,335579.04,7402422.18
"175830",175830,1985,9,"wa","Waterbuck bull",1,-23.59,31.11,307138.01,7389891.66
"175871",175871,1985,9,"wa","Waterbuck bull",1,-23.5,31.12,308028,7399872.45
"175954",175954,1985,9,"wa","Waterbuck bull",1,-23.62,31.13,309222.81,7386596.02
"175958",175958,1985,9,"wa","Waterbuck bull",1,-23.61,31.15,311249.37,7387730.06
"176034",176034,1985,9,"wa","Waterbuck bull",1,-23.52,31.13,309078.23,7397670.84
"176062",176062,1985,9,"wa","Waterbuck bull",1,-23.47,31.14,310027.76,7403221.44
"176277",176277,1985,9,"wa","Waterbuck bull",1,-23.58,31.23,319372.28,7391155.71
