"","ID","Year","Cenb","Sp","Description","No","Lat","Long","X.coord","Y.coord"
"208448",208448,1987,12,"eb","Eland bull",2,-23.19,31.13,308605.21,7434216.83
"208569",208569,1987,12,"eb","Eland bull",1,-23.21,31.18,313751.65,7432066.93
"208614",208614,1987,12,"eb","Eland bull",2,-23.23,31.02,297404.02,7429637.84
"208622",208622,1987,12,"eb","Eland bull",3,-23.23,31.05,300474.49,7429679.39
"209150",209150,1987,13,"eb","Eland bull",1,-23.67,31.56,353154.44,7381567.33
"209892",209892,1987,15,"eb","Eland bull",1,-23.35,31.32,328261.13,7416736.35
"210237",210237,1987,18,"eb","Eland bull",1,-23.15,31.41,337220.44,7438987.01
"227105",227105,1987,52,"eb","Eland bull",1,-23.12,31.19,314651.34,7442046.35
"227116",227116,1987,52,"eb","Eland bull",8,-23.15,31.2,315716.62,7438736.84
"229048",229048,1987,55,"eb","Eland bull",3,-22.78,31.07,301865.15,7479541.41
"229049",229049,1987,55,"eb","Eland bull",1,-22.77,31.02,296715.88,7480580.98
"229079",229079,1987,55,"eb","Eland bull",1,-22.82,31.06,300896.41,7475098.31
"229193",229193,1987,55,"eb","Eland bull",1,-22.81,31.1,304988.46,7476259.09
"229235",229235,1987,55,"eb","Eland bull",1,-22.89,31.13,308180.69,7467439.26
"229238",229238,1987,55,"eb","Eland bull",1,-22.81,31.15,310121.62,7476324.24
