"","ID","Year","Cenb","Sp","Description","No","Lat","Long","X.coord","Y.coord"
"146096",146096,1985,1,"ob","Elephant bull",1,-23.85,31.57,354374.82,7361645.48
"146098",146098,1985,1,"ob","Elephant bull",2,-23.86,31.58,355404.43,7360548.37
"146142",146142,1985,1,"ob","Elephant bull",1,-23.98,31.6,357572.94,7347280.44
"146143",146143,1985,1,"ob","Elephant bull",1,-23.92,31.59,356489.07,7353914.45
"146156",146156,1985,1,"ob","Elephant bull",1,-23.95,31.58,355504.54,7350582.18
"146220",146220,1985,1,"ob","Elephant bull",1,-23.86,31.58,355404.43,7360548.37
"146295",146295,1985,1,"ob","Elephant bull",2,-23.92,31.63,360560.84,7353954.51
"146355",146355,1985,1,"ob","Elephant bull",5,-23.88,31.64,361536.17,7358393.69
"146356",146356,1985,1,"ob","Elephant bull",2,-23.88,31.64,361536.17,7358393.69
"146357",146357,1985,1,"ob","Elephant bull",3,-23.88,31.64,361536.17,7358393.69
"146358",146358,1985,1,"ob","Elephant bull",2,-23.88,31.65,362554.41,7358403.44
"146363",146363,1985,1,"ob","Elephant bull",1,-23.91,31.63,360550.1,7355061.85
"146368",146368,1985,1,"ob","Elephant bull",1,-23.9,31.63,360539.37,7356169.19
"146391",146391,1985,1,"ob","Elephant bull",1,-24.05,31.69,366802.21,7339617.12
"146439",146439,1985,1,"ob","Elephant bull",2,-24.02,31.69,366771.27,7342939.14
"146442",146442,1985,1,"ob","Elephant bull",1,-24.02,31.69,366771.27,7342939.14
"146574",146574,1985,1,"ob","Elephant bull",1,-24.05,31.71,368836,7339635.93
"146588",146588,1985,1,"ob","Elephant bull",2,-24.01,31.72,369812.59,7344074.54
"146644",146644,1985,1,"ob","Elephant bull",1,-23.96,31.74,371797.49,7349629.48
"146671",146671,1985,1,"ob","Elephant bull",1,-23.98,31.74,371817.28,7347414.85
"146686",146686,1985,1,"ob","Elephant bull",2,-23.95,31.74,371787.6,7350736.79
"146689",146689,1985,1,"ob","Elephant bull",1,-23.97,31.75,372824.89,7348531.22
"146737",146737,1985,10,"ob","Elephant bull",1,-23.35,31.01,296563.11,7416333.84
"146741",146741,1985,10,"ob","Elephant bull",1,-23.36,31.02,297600.86,7415240.39
"146742",146742,1985,10,"ob","Elephant bull",1,-23.36,31.03,298623.36,7415254.37
"146746",146746,1985,10,"ob","Elephant bull",1,-23.37,31.03,298638.47,7414146.87
"146756",146756,1985,10,"ob","Elephant bull",1,-23.29,31.02,297494.74,7422992.88
"146858",146858,1985,10,"ob","Elephant bull",2,-23.37,31.04,299660.88,7414160.78
"146884",146884,1985,10,"ob","Elephant bull",2,-23.29,31.05,300563.83,7423034.52
"146888",146888,1985,10,"ob","Elephant bull",4,-23.3,31.07,302624.63,7421954.45
"146890",146890,1985,10,"ob","Elephant bull",3,-23.3,31.07,302624.63,7421954.45
"146904",146904,1985,10,"ob","Elephant bull",1,-23.28,31.05,300548.92,7424142
"147202",147202,1985,11,"ob","Elephant bull",1,-23.37,31.22,318063.66,7414399.12
"147249",147249,1985,11,"ob","Elephant bull",2,-23.21,31.22,317845.95,7432117.64
"147251",147251,1985,11,"ob","Elephant bull",1,-23.22,31.22,317859.51,7431010.24
"147547",147547,1985,12,"ob","Elephant bull",1,-23.26,30.99,294379.54,7426273.14
"147561",147561,1985,12,"ob","Elephant bull",2,-23.22,30.97,292271.02,7430674.68
"147577",147577,1985,12,"ob","Elephant bull",1,-23.17,30.96,291169.73,7436197.9
"147604",147604,1985,12,"ob","Elephant bull",2,-23.2,30.99,294287.56,7432918.15
"147614",147614,1985,12,"ob","Elephant bull",3,-23.26,31.01,296426.09,7426301.36
"147626",147626,1985,12,"ob","Elephant bull",4,-23.28,31,295433.37,7424072.28
"147628",147628,1985,12,"ob","Elephant bull",1,-23.27,31.01,296441.29,7425193.86
"147663",147663,1985,12,"ob","Elephant bull",3,-23.2,31.01,296335.02,7432946.32
"147672",147672,1985,12,"ob","Elephant bull",2,-23.2,31.03,298382.47,7432974.2
"147942",147942,1985,12,"ob","Elephant bull",1,-23.25,31.17,312783.89,7427624.39
"148098",148098,1985,13,"ob","Elephant bull",1,-23.63,31.52,349028.88,7385954.95
"148121",148121,1985,13,"ob","Elephant bull",3,-23.8,31.57,354318.99,7367182.22
"148125",148125,1985,13,"ob","Elephant bull",2,-23.8,31.57,354318.99,7367182.22
"148128",148128,1985,13,"ob","Elephant bull",1,-23.8,31.57,354318.99,7367182.22
"148163",148163,1985,13,"ob","Elephant bull",1,-23.78,31.57,354296.69,7369396.9
"148241",148241,1985,13,"ob","Elephant bull",2,-23.84,31.58,355382.23,7362763.07
"148243",148243,1985,13,"ob","Elephant bull",2,-23.83,31.58,355371.13,7363870.42
"148512",148512,1985,13,"ob","Elephant bull",3,-23.8,31.62,359413.42,7367232.64
"148523",148523,1985,13,"ob","Elephant bull",1,-23.81,31.63,360442.98,7366135.18
"148567",148567,1985,13,"ob","Elephant bull",1,-23.75,31.63,360378.91,7372779.12
"148772",148772,1985,14,"ob","Elephant bull",1,-23.42,31.34,330395.2,7409008.38
"148775",148775,1985,14,"ob","Elephant bull",2,-23.42,31.35,331417.11,7409020.11
"148792",148792,1985,14,"ob","Elephant bull",1,-23.44,31.36,332464.23,7406817.04
"148794",148794,1985,14,"ob","Elephant bull",2,-23.44,31.36,332464.23,7406817.04
"148799",148799,1985,14,"ob","Elephant bull",2,-23.41,31.34,330382.45,7410115.75
"148819",148819,1985,14,"ob","Elephant bull",2,-23.48,31.39,335579.04,7402422.18
"149207",149207,1985,15,"ob","Elephant bull",2,-23.38,31.33,329322,7413426.08
"149458",149458,1985,15,"ob","Elephant bull",1,-23.32,31.49,345607.72,7420250.11
"149491",149491,1985,15,"ob","Elephant bull",1,-23.36,31.5,346676.3,7415831.51
"149492",149492,1985,15,"ob","Elephant bull",1,-23.36,31.51,347698.61,7415842.09
"149712",149712,1985,18,"ob","Elephant bull",2,-23.09,31.4,336123.61,7445619.69
"149718",149718,1985,18,"ob","Elephant bull",3,-23.11,31.37,333075.08,7443371.06
"149729",149729,1985,18,"ob","Elephant bull",2,-23.11,31.4,336147.88,7443405.06
"149791",149791,1985,18,"ob","Elephant bull",3,-23.17,31.42,338268.42,7436783.52
"149867",149867,1985,18,"ob","Elephant bull",3,-23.1,31.42,338184.41,7444534.69
"150152",150152,1985,19,"ob","Elephant bull",1,-23.86,31.64,361514.89,7360608.35
"150622",150622,1985,2,"ob","Elephant bull",4,-23.88,31.43,340152.34,7358172.3
"150626",150626,1985,2,"ob","Elephant bull",1,-23.88,31.44,341170.65,7358183.56
"150681",150681,1985,2,"ob","Elephant bull",1,-23.93,31.47,344285.49,7352679.95
"150837",150837,1985,2,"ob","Elephant bull",3,-23.91,31.5,347315.68,7354927.48
"150870",150870,1985,2,"ob","Elephant bull",1,-23.87,31.53,350323.79,7359389.05
"150926",150926,1985,2,"ob","Elephant bull",1,-23.91,31.55,352405.9,7354980.6
"150975",150975,1985,2,"ob","Elephant bull",5,-23.86,31.55,352349.15,7360517.42
"150979",150979,1985,2,"ob","Elephant bull",1,-23.87,31.57,354397.19,7359430.77
"151034",151034,1985,20,"ob","Elephant bull",1,-24.09,31.36,333294.76,7334835.14
"151247",151247,1985,20,"ob","Elephant bull",1,-24.08,31.52,349549.57,7336123.36
"151284",151284,1985,20,"ob","Elephant bull",1,-24.07,31.51,348521.11,7337220.01
"151296",151296,1985,20,"ob","Elephant bull",1,-24.07,31.52,349537.9,7337230.76
"151306",151306,1985,20,"ob","Elephant bull",1,-24.1,31.54,351606.02,7333929.86
"151448",151448,1985,20,"ob","Elephant bull",1,-24.02,31.66,363719.86,7342910.41
"151468",151468,1985,21,"ob","Elephant bull",1,-24.21,31.45,342591.88,7321649.95
"151469",151469,1985,21,"ob","Elephant bull",1,-24.23,31.43,340585.37,7319412.36
"151487",151487,1985,21,"ob","Elephant bull",2,-24.21,31.49,346654.66,7321694.45
"151497",151497,1985,21,"ob","Elephant bull",1,-24.18,31.48,345602.84,7325005.72
"151508",151508,1985,21,"ob","Elephant bull",1,-24.19,31.47,344599.03,7323887.21
"151510",151510,1985,21,"ob","Elephant bull",1,-24.18,31.48,345602.84,7325005.72
"151537",151537,1985,21,"ob","Elephant bull",2,-24.21,31.5,347670.35,7321705.39
"151547",151547,1985,21,"ob","Elephant bull",1,-24.22,31.52,349713.45,7320619.64
"151566",151566,1985,21,"ob","Elephant bull",1,-24.18,31.53,350682.45,7325060.02
"151568",151568,1985,21,"ob","Elephant bull",1,-24.19,31.5,347646.57,7323920.24
"151573",151573,1985,21,"ob","Elephant bull",1,-24.19,31.53,350694.09,7323952.61
"151646",151646,1985,21,"ob","Elephant bull",1,-24.11,31.55,352634.01,7332833.01
"151670",151670,1985,21,"ob","Elephant bull",7,-24.17,31.6,357782.7,7326240.37
"151716",151716,1985,21,"ob","Elephant bull",1,-24.12,31.59,356710.98,7331767.09
"151723",151723,1985,21,"ob","Elephant bull",1,-24.25,31.63,360917.49,7317411.5
"151747",151747,1985,21,"ob","Elephant bull",2,-24.13,31.62,359770.98,7330690.06
"151749",151749,1985,21,"ob","Elephant bull",1,-24.13,31.62,359770.98,7330690.06
"151753",151753,1985,21,"ob","Elephant bull",1,-24.14,31.62,359781.89,7329582.69
"151855",151855,1985,22,"ob","Elephant bull",1,-24.36,31.4,337704.17,7304980.66
"151969",151969,1985,22,"ob","Elephant bull",1,-24.44,31.41,338820.29,7296132.47
"151974",151974,1985,22,"ob","Elephant bull",1,-24.44,31.43,340848.04,7296155.61
"152373",152373,1985,22,"ob","Elephant bull",2,-24.32,31.47,344756.99,7309490.49
"152376",152376,1985,22,"ob","Elephant bull",1,-24.31,31.48,345759.71,7310609.07
"152377",152377,1985,22,"ob","Elephant bull",2,-24.32,31.48,345771.81,7309501.62
"152628",152628,1985,22,"ob","Elephant bull",1,-24.41,31.56,353993.62,7299621.18
"152792",152792,1985,23,"ob","Elephant bull",7,-24.18,31.66,363889.09,7325192.7
"152813",152813,1985,23,"ob","Elephant bull",1,-24.13,31.65,362819.82,7330719.76
"152861",152861,1985,23,"ob","Elephant bull",1,-24.07,31.66,363772.63,7337373.66
"152924",152924,1985,23,"ob","Elephant bull",1,-24.13,31.69,366884.9,7330758.35
"152994",152994,1985,23,"ob","Elephant bull",1,-24.11,31.69,366864.2,7332973.05
"153112",153112,1985,23,"ob","Elephant bull",1,-24.14,31.71,368927.62,7329669.86
"153120",153120,1985,23,"ob","Elephant bull",1,-24.15,31.71,368937.82,7328562.51
"153156",153156,1985,23,"ob","Elephant bull",1,-24.07,31.71,368856.33,7337421.25
"153178",153178,1985,24,"ob","Elephant bull",1,-24.3,31.56,353867.33,7311802.84
"153187",153187,1985,24,"ob","Elephant bull",1,-24.3,31.57,354882.28,7311813.3
"153194",153194,1985,24,"ob","Elephant bull",1,-24.31,31.58,355908.53,7310716.28
"153313",153313,1985,24,"ob","Elephant bull",7,-24.25,31.59,356856.15,7317371.02
"153348",153348,1985,24,"ob","Elephant bull",1,-24.34,31.63,361015.56,7307444.96
"153378",153378,1985,24,"ob","Elephant bull",1,-24.29,31.62,359946.02,7312971.92
"153387",153387,1985,24,"ob","Elephant bull",2,-24.3,31.63,360971.93,7311874.55
"153400",153400,1985,24,"ob","Elephant bull",2,-24.31,31.65,363012.53,7310786.99
"153444",153444,1985,24,"ob","Elephant bull",1,-24.26,31.64,361943.62,7316314.05
"153478",153478,1985,24,"ob","Elephant bull",3,-24.28,31.66,363995.4,7314118.95
"153618",153618,1985,24,"ob","Elephant bull",2,-24.26,31.71,369050.28,7316381.59
"153623",153623,1985,24,"ob","Elephant bull",4,-24.28,31.71,369070.78,7314166.86
"153764",153764,1985,25,"ob","Elephant bull",1,-24.13,31.77,375014.93,7330832.03
"153935",153935,1985,25,"ob","Elephant bull",1,-24.02,31.76,373891.13,7343003.64
"153948",153948,1985,25,"ob","Elephant bull",2,-24.03,31.77,374917.93,7341905.25
"153952",153952,1985,25,"ob","Elephant bull",1,-24.03,31.77,374917.93,7341905.25
"154008",154008,1985,25,"ob","Elephant bull",1,-23.99,31.75,372844.53,7346316.59
"154010",154010,1985,25,"ob","Elephant bull",1,-23.98,31.75,372834.71,7347423.91
"154017",154017,1985,25,"ob","Elephant bull",2,-24.13,31.79,377047.41,7330849.72
"154020",154020,1985,25,"ob","Elephant bull",1,-24.12,31.8,378054.17,7331965.78
"154023",154023,1985,25,"ob","Elephant bull",7,-24.13,31.81,379079.89,7330867.13
"154096",154096,1985,25,"ob","Elephant bull",3,-24.05,31.79,376971.04,7339708.27
"154112",154112,1985,25,"ob","Elephant bull",1,-24.05,31.82,380021.64,7339734.2
"154118",154118,1985,25,"ob","Elephant bull",1,-24.05,31.83,381038.5,7339742.7
"154120",154120,1985,25,"ob","Elephant bull",1,-24.06,31.8,377997.36,7338609.67
"154121",154121,1985,25,"ob","Elephant bull",1,-24.07,31.8,378006.82,7337502.36
"154140",154140,1985,25,"ob","Elephant bull",1,-24.07,31.83,381056.94,7337528.1
"154149",154149,1985,25,"ob","Elephant bull",1,-24.01,31.8,377950.13,7344146.21
"154239",154239,1985,25,"ob","Elephant bull",1,-24.02,31.82,379993.77,7343056.11
"154330",154330,1985,25,"ob","Elephant bull",2,-24.12,31.84,382119.41,7332000
"154341",154341,1985,25,"ob","Elephant bull",1,-24.1,31.85,383117.55,7334222.98
"154343",154343,1985,25,"ob","Elephant bull",3,-24.11,31.86,384143.01,7333123.98
"154363",154363,1985,25,"ob","Elephant bull",1,-24.04,31.84,382046.22,7340858.43
"154377",154377,1985,25,"ob","Elephant bull",1,-24.06,31.86,384098.05,7338660.47
"154400",154400,1985,25,"ob","Elephant bull",1,-24.07,31.86,384107.04,7337553.18
"154499",154499,1985,25,"ob","Elephant bull",1,-24.15,31.91,389259.33,7328735.21
"154560",154560,1985,25,"ob","Elephant bull",1,-24.07,31.91,389190.48,7337593.53
"154585",154585,1985,26,"ob","Elephant bull",1,-24.25,31.74,372085.95,7317516.79
"155008",155008,1985,26,"ob","Elephant bull",1,-24.28,31.85,383281.5,7314291.3
"155093",155093,1985,26,"ob","Elephant bull",1,-24.31,31.88,386353.32,7310994.14
"156073",156073,1985,28,"ob","Elephant bull",1,-24.54,31.87,385546.26,7285517.03
"156074",156074,1985,28,"ob","Elephant bull",1,-24.51,31.87,385519.06,7288839.1
"156354",156354,1985,28,"ob","Elephant bull",4,-24.56,31.91,389615.55,7283334.93
"156359",156359,1985,28,"ob","Elephant bull",1,-24.51,31.89,387545.44,7288855.54
"156417",156417,1985,28,"ob","Elephant bull",2,-24.49,31.88,386514.29,7291062.06
"156549",156549,1985,28,"ob","Elephant bull",1,-24.59,31.94,392679.45,7280036.59
"156561",156561,1985,28,"ob","Elephant bull",1,-24.62,31.94,392705.04,7276714.53
"156604",156604,1985,28,"ob","Elephant bull",1,-24.56,31.91,389615.55,7283334.93
"156638",156638,1985,28,"ob","Elephant bull",6,-24.5,31.92,390576.33,7289986.98
"156721",156721,1985,28,"ob","Elephant bull",2,-24.49,31.91,389554.33,7291086.37
"156728",156728,1985,28,"ob","Elephant bull",1,-24.48,31.93,391572.45,7292209.54
"156734",156734,1985,28,"ob","Elephant bull",1,-24.48,31.93,391572.45,7292209.54
"156812",156812,1985,28,"ob","Elephant bull",4,-24.44,31.95,393565.67,7296654.4
"156824",156824,1985,28,"ob","Elephant bull",1,-24.41,31.92,390498.56,7299953
"156898",156898,1985,28,"ob","Elephant bull",1,-24.48,31.96,394612.69,7292232.74
"156913",156913,1985,29,"ob","Elephant bull",1,-24.58,31.78,376468.81,7281009.82
"156977",156977,1985,29,"ob","Elephant bull",1,-24.65,31.79,377549.65,7273267.02
"157021",157021,1985,29,"ob","Elephant bull",1,-24.6,31.82,380538.38,7278830.36
"157116",157116,1985,29,"ob","Elephant bull",1,-24.79,31.87,385774.14,7257832.59
"157120",157120,1985,29,"ob","Elephant bull",1,-24.78,31.86,384753.97,7258931.59
"157140",157140,1985,29,"ob","Elephant bull",1,-24.73,31.85,383696.41,7264460.1
"157253",157253,1985,29,"ob","Elephant bull",2,-24.55,31.85,383529.58,7284392.92
"157283",157283,1985,29,"ob","Elephant bull",2,-24.53,31.84,382498.08,7286599.17
"157327",157327,1985,29,"ob","Elephant bull",1,-24.78,31.88,386776,7258948.31
"157336",157336,1985,29,"ob","Elephant bull",1,-24.71,31.88,386712.56,7266700.01
"157378",157378,1985,29,"ob","Elephant bull",1,-24.7,31.88,386703.51,7267807.39
"157386",157386,1985,29,"ob","Elephant bull",1,-24.69,31.91,389729.68,7268939.23
"157488",157488,1985,3,"ob","Elephant bull",1,-23.92,31.19,315768.61,7353450.38
"157555",157555,1985,3,"ob","Elephant bull",3,-23.91,31.18,314736.26,7354544.8
"157602",157602,1985,3,"ob","Elephant bull",1,-24,31.24,320969.53,7344654.81
"157651",157651,1985,3,"ob","Elephant bull",1,-23.98,31.21,317889.07,7346831.34
"157691",157691,1985,3,"ob","Elephant bull",1,-23.94,31.21,317832.85,7351261.34
"157711",157711,1985,3,"ob","Elephant bull",3,-23.88,31.21,317748.68,7357906.29
"157808",157808,1985,3,"ob","Elephant bull",1,-24.03,31.26,323045.47,7341357.64
"157894",157894,1985,3,"ob","Elephant bull",4,-23.91,31.26,322881.46,7354647.4
"157904",157904,1985,3,"ob","Elephant bull",6,-23.91,31.28,324917.72,7354672.32
"157983",157983,1985,3,"ob","Elephant bull",1,-23.97,31.29,326016.34,7348039.9
"157997",157997,1985,3,"ob","Elephant bull",1,-23.99,31.32,329095.68,7345861.69
"158034",158034,1985,3,"ob","Elephant bull",1,-23.87,31.31,327919.15,7359138.97
"158163",158163,1985,3,"ob","Elephant bull",1,-23.92,31.35,332057.45,7353649.86
"158172",158172,1985,3,"ob","Elephant bull",6,-23.88,31.35,332005.75,7358079.6
"158192",158192,1985,30,"ob","Elephant bull",1,-24.75,31.9,388771.3,7262286.88
"158196",158196,1985,30,"ob","Elephant bull",1,-24.76,31.9,388780.2,7261179.5
"158306",158306,1985,30,"ob","Elephant bull",1,-24.78,31.92,390820.03,7258980.85
"158315",158315,1985,30,"ob","Elephant bull",1,-24.78,31.92,390820.03,7258980.85
"158383",158383,1985,30,"ob","Elephant bull",2,-24.74,31.92,390785.06,7263410.37
"158423",158423,1985,30,"ob","Elephant bull",1,-24.69,31.94,392764.87,7268963.02
"158682",158682,1985,30,"ob","Elephant bull",1,-24.66,31.96,394763.15,7272300.58
"158713",158713,1985,30,"ob","Elephant bull",2,-24.58,31.96,394696.15,7281159.38
"158716",158716,1985,30,"ob","Elephant bull",2,-24.58,31.96,394696.15,7281159.38
"158718",158718,1985,30,"ob","Elephant bull",1,-24.6,31.96,394712.88,7278944.69
"158725",158725,1985,30,"ob","Elephant bull",1,-24.59,31.97,395717.04,7280059.64
"158731",158731,1985,30,"ob","Elephant bull",1,-24.59,31.98,396729.57,7280067.18
"158885",158885,1985,30,"ob","Elephant bull",1,-24.52,31.98,396672.22,7287818.53
"158926",158926,1985,30,"ob","Elephant bull",1,-24.48,31.98,396639.52,7292247.84
"158927",158927,1985,30,"ob","Elephant bull",2,-24.49,31.98,396647.69,7291140.52
"159040",159040,1985,31,"ob","Elephant bull",1,-24.6,31.63,361300.79,7278652.12
"159083",159083,1985,31,"ob","Elephant bull",1,-24.42,31.62,360089.04,7298575.66
"159149",159149,1985,31,"ob","Elephant bull",1,-24.57,31.68,366331.55,7282023.86
"159728",159728,1985,31,"ob","Elephant bull",1,-24.41,31.73,371232.48,7299789.7
"159874",159874,1985,32,"ob","Elephant bull",1,-24.52,31.43,340948.67,7287295.74
"159880",159880,1985,32,"ob","Elephant bull",2,-24.52,31.44,341961.9,7287307.23
"159885",159885,1985,32,"ob","Elephant bull",1,-24.54,31.46,344013.08,7285115.03
"159896",159896,1985,32,"ob","Elephant bull",1,-24.56,31.49,347076.51,7282933.69
"159907",159907,1985,32,"ob","Elephant bull",1,-24.5,31.48,345990.41,7289567.39
"159912",159912,1985,32,"ob","Elephant bull",1,-24.52,31.46,343988.35,7287329.99
"159916",159916,1985,32,"ob","Elephant bull",2,-24.53,31.48,346026.99,7286244.98
"159974",159974,1985,32,"ob","Elephant bull",1,-24.5,31.5,348017.16,7289589.55
"159976",159976,1985,32,"ob","Elephant bull",1,-24.51,31.51,349042.48,7288493.06
"159981",159981,1985,32,"ob","Elephant bull",1,-24.51,31.53,351069.05,7288514.78
"160035",160035,1985,32,"ob","Elephant bull",1,-24.49,31.53,351045.48,7290729.68
"160169",160169,1985,32,"ob","Elephant bull",1,-24.54,31.58,356169.61,7285245.48
"160180",160180,1985,32,"ob","Elephant bull",1,-24.51,31.61,359175.22,7288598.73
"160187",160187,1985,32,"ob","Elephant bull",1,-24.53,31.61,359197.52,7286383.87
"160189",160189,1985,32,"ob","Elephant bull",4,-24.52,31.61,359186.37,7287491.3
"160190",160190,1985,32,"ob","Elephant bull",1,-24.52,31.61,359186.37,7287491.3
"160191",160191,1985,32,"ob","Elephant bull",1,-24.53,31.62,360210.62,7286394.04
"160224",160224,1985,32,"ob","Elephant bull",1,-24.48,31.6,358128.29,7291910.78
"160266",160266,1985,32,"ob","Elephant bull",1,-24.44,31.58,356055.81,7296319.83
"160278",160278,1985,32,"ob","Elephant bull",2,-24.44,31.6,358083.47,7296340.48
"160419",160419,1985,33,"ob","Elephant bull",1,-24.64,31.6,358308.29,7274191.76
"160420",160420,1985,33,"ob","Elephant bull",2,-24.63,31.61,359309.3,7275309.48
"160431",160431,1985,33,"ob","Elephant bull",7,-24.65,31.61,359331.71,7273094.59
"160436",160436,1985,33,"ob","Elephant bull",2,-24.65,31.62,360343.84,7273104.8
"160444",160444,1985,33,"ob","Elephant bull",1,-24.6,31.59,357250.64,7278611.21
"160456",160456,1985,33,"ob","Elephant bull",2,-24.6,31.6,358263.18,7278621.55
"160469",160469,1985,33,"ob","Elephant bull",1,-24.57,31.6,358229.4,7281943.88
"160473",160473,1985,33,"ob","Elephant bull",2,-24.57,31.61,359242.18,7281954.13
"160475",160475,1985,33,"ob","Elephant bull",1,-24.57,31.62,360254.96,7281964.31
"160484",160484,1985,33,"ob","Elephant bull",1,-24.77,31.63,361488.82,7259825.53
"160494",160494,1985,33,"ob","Elephant bull",1,-24.72,31.62,360421.83,7265352.65
"160551",160551,1985,33,"ob","Elephant bull",1,-24.65,31.64,362368.09,7273124.99
"160554",160554,1985,33,"ob","Elephant bull",3,-24.65,31.66,364392.33,7273144.88
"160555",160555,1985,33,"ob","Elephant bull",1,-24.66,31.66,364403.14,7272037.45
"160576",160576,1985,33,"ob","Elephant bull",2,-24.62,31.65,363347.58,7276457.27
"160582",160582,1985,33,"ob","Elephant bull",2,-24.58,31.62,360266.05,7280856.88
"160594",160594,1985,33,"ob","Elephant bull",1,-24.64,31.67,365393.73,7274262.15
"160595",160595,1985,33,"ob","Elephant bull",1,-24.64,31.67,365393.73,7274262.15
"160626",160626,1985,34,"ob","Elephant bull",4,-24.63,31.66,364370.73,7275359.75
"160931",160931,1985,34,"ob","Elephant bull",3,-24.7,31.78,376586.79,7267721.06
"160991",160991,1985,34,"ob","Elephant bull",1,-24.65,31.78,376537.57,7273258.07
"161382",161382,1985,35,"ob","Elephant bull",1,-24.82,31.62,360533.61,7254278.03
"161716",161716,1985,36,"ob","Elephant bull",2,-24.84,31.81,379756.77,7252244.02
"161720",161720,1985,36,"ob","Elephant bull",1,-24.85,31.82,380776.89,7251145.39
"161745",161745,1985,36,"ob","Elephant bull",2,-24.8,31.82,380729.01,7256682.45
"161771",161771,1985,36,"ob","Elephant bull",1,-24.82,31.82,380748.15,7254467.63
"161793",161793,1985,36,"ob","Elephant bull",2,-24.84,31.84,382788.38,7252270.15
"161811",161811,1985,36,"ob","Elephant bull",1,-24.79,31.84,382741.33,7257807.18
"161849",161849,1985,36,"ob","Elephant bull",2,-24.82,31.86,384790.94,7254502
"161850",161850,1985,36,"ob","Elephant bull",1,-24.81,31.86,384781.69,7255609.4
"161851",161851,1985,36,"ob","Elephant bull",1,-24.82,31.86,384790.94,7254502
"161870",161870,1985,36,"ob","Elephant bull",1,-24.8,31.88,386794.15,7256733.52
"161885",161885,1985,37,"ob","Elephant bull",2,-24.88,31.9,388887.31,7247890.79
"161888",161888,1985,37,"ob","Elephant bull",2,-24.87,31.91,389888.64,7249006.32
"161999",161999,1985,37,"ob","Elephant bull",1,-25.13,31.95,394152.74,7220245.5
"162003",162003,1985,37,"ob","Elephant bull",2,-25.15,31.94,393162.01,7218022.76
"162007",162007,1985,37,"ob","Elephant bull",1,-25.11,31.93,392118.89,7222444.51
"162010",162010,1985,37,"ob","Elephant bull",4,-25.12,31.94,393135.9,7221345.04
"162130",162130,1985,37,"ob","Elephant bull",1,-24.88,31.93,391917.88,7247914.94
"162167",162167,1985,37,"ob","Elephant bull",4,-24.83,31.91,389853.22,7253435.89
"162254",162254,1985,37,"ob","Elephant bull",2,-24.83,31.93,391874.42,7253451.89
"162291",162291,1985,37,"ob","Elephant bull",3,-25.15,31.97,396185.94,7218046.2
"162300",162300,1985,37,"ob","Elephant bull",1,-25.16,31.98,397202.29,7216946.44
"162314",162314,1985,37,"ob","Elephant bull",1,-25.09,31.99,398152.15,7224705.94
"162364",162364,1985,37,"ob","Elephant bull",1,-25.06,31.96,395101.2,7228005.23
"162455",162455,1985,37,"ob","Elephant bull",2,-24.97,31.96,395024.69,7237971.88
"162639",162639,1985,37,"ob","Elephant bull",3,-24.86,31.99,397962.56,7250175.99
"162690",162690,1985,37,"ob","Elephant bull",1,-25.17,32,399226.29,7215854.13
"162700",162700,1985,37,"ob","Elephant bull",1,-25.14,32,399201.64,7219176.38
"162805",162805,1985,37,"ob","Elephant bull",1,-25.06,32.02,401153.45,7228050.42
"162886",162886,1985,37,"ob","Elephant bull",1,-24.95,32,399046.16,7240217.01
"162895",162895,1985,37,"ob","Elephant bull",7,-24.86,32,398972.9,7250183.44
"163123",163123,1985,38,"ob","Elephant bull",1,-24.97,31.83,381901.66,7237865.03
"163124",163124,1985,38,"ob","Elephant bull",1,-24.96,31.83,381892.12,7238972.46
"163153",163153,1985,38,"ob","Elephant bull",2,-25.09,31.87,386050.46,7224610.09
"163163",163163,1985,38,"ob","Elephant bull",1,-25.09,31.9,389075.91,7224635.06
"163187",163187,1985,38,"ob","Elephant bull",4,-24.97,31.9,388967.96,7237924.13
"163193",163193,1985,38,"ob","Elephant bull",5,-24.99,31.91,389995.21,7235717.45
"163216",163216,1985,38,"ob","Elephant bull",2,-25.05,31.92,391057.49,7229081.03
"163225",163225,1985,38,"ob","Elephant bull",2,-25.01,31.94,393040.41,7233526.64
"163232",163232,1985,38,"ob","Elephant bull",3,-25.07,31.96,395109.72,7226897.82
"163308",163308,1985,39,"ob","Elephant bull",2,-25.05,31.23,321443.81,7228347.79
"163478",163478,1985,39,"ob","Elephant bull",1,-25,31.29,327427.81,7233963.7
"163501",163501,1985,39,"ob","Elephant bull",4,-25.03,31.3,328478.89,7230653.59
"163632",163632,1985,39,"ob","Elephant bull",3,-24.98,31.34,332447.58,7236241.61
"164127",164127,1985,4,"ob","Elephant bull",1,-23.84,31.25,321767.46,7362387.12
"164156",164156,1985,4,"ob","Elephant bull",6,-23.8,31.25,321712.79,7366816.98
"164298",164298,1985,4,"ob","Elephant bull",6,-23.85,31.31,327892.72,7361353.86
"164299",164299,1985,4,"ob","Elephant bull",8,-23.84,31.31,327879.51,7362461.3
"164759",164759,1985,40,"ob","Elephant bull",1,-25.26,31.32,330814.65,7205203.67
"164916",164916,1985,40,"ob","Elephant bull",1,-25.2,31.35,333754.76,7211886.84
"165018",165018,1985,41,"ob","Elephant bull",1,-25.28,31.33,331849.46,7203000.98
"165019",165019,1985,41,"ob","Elephant bull",2,-25.28,31.33,331849.46,7203000.98
"165188",165188,1985,41,"ob","Elephant bull",2,-25.17,31.38,336737.93,7215246.37
"165330",165330,1985,41,"ob","Elephant bull",1,-25.21,31.44,342837.01,7210887.46
"165532",165532,1985,41,"ob","Elephant bull",1,-25.18,31.48,346829.91,7214256.3
"165766",165766,1985,42,"ob","Elephant bull",1,-25.18,31.53,351869.12,7214312.26
"165797",165797,1985,42,"ob","Elephant bull",2,-25.13,31.52,350800.47,7219838.95
"165873",165873,1985,42,"ob","Elephant bull",4,-25.3,31.54,353021.4,7201032.6
"166019",166019,1985,42,"ob","Elephant bull",2,-25.24,31.58,356978.42,7207721.13
"166587",166587,1985,42,"ob","Elephant bull",1,-25.05,31.58,356756.78,7228764.13
"166667",166667,1985,43,"ob","Elephant bull",3,-25.02,31.4,338557.03,7231884.14
"166723",166723,1985,43,"ob","Elephant bull",4,-25.04,31.43,341610.27,7229704.46
"166785",166785,1985,43,"ob","Elephant bull",5,-25.02,31.44,342593.76,7231931.24
"166954",166954,1985,43,"ob","Elephant bull",1,-24.99,31.49,347602.58,7235311.03
"166986",166986,1985,43,"ob","Elephant bull",2,-25.04,31.53,351700.27,7229817.78
"167000",167000,1985,43,"ob","Elephant bull",1,-25.06,31.53,351724.34,7227602.72
"167115",167115,1985,43,"ob","Elephant bull",1,-25.01,31.55,353682.65,7233162.1
"167160",167160,1985,43,"ob","Elephant bull",1,-25.02,31.56,354703.65,7232065.35
"167349",167349,1985,44,"ob","Elephant bull",1,-25.37,31.66,365180.9,7193406.09
"167402",167402,1985,44,"ob","Elephant bull",1,-25.36,31.65,364163.49,7194503.5
"167610",167610,1985,44,"ob","Elephant bull",3,-25.34,31.68,367160.57,7196748.68
"168035",168035,1985,44,"ob","Elephant bull",1,-25.25,31.76,375120.09,7206793.14
"168758",168758,1985,45,"ob","Elephant bull",1,-25.24,31.9,389211.54,7208023.44
"168773",168773,1985,45,"ob","Elephant bull",3,-25.17,31.9,389148.16,7215775.57
"168927",168927,1985,45,"ob","Elephant bull",3,-25.12,31.92,391119.44,7221329.05
"168947",168947,1985,45,"ob","Elephant bull",1,-25.16,31.91,390147.02,7216891.2
"169713",169713,1985,48,"ob","Elephant bull",4,-22.86,31.28,323531.88,7470948.85
"169721",169721,1985,48,"ob","Elephant bull",7,-22.8,31.28,323454.47,7477592.8
"169739",169739,1985,48,"ob","Elephant bull",4,-22.78,31.27,322401.91,7479795.47
"169815",169815,1985,48,"ob","Elephant bull",1,-22.88,31.35,330739.94,7468816.34
"169821",169821,1985,48,"ob","Elephant bull",3,-22.88,31.36,331765.95,7468827.8
"169872",169872,1985,48,"ob","Elephant bull",1,-22.78,31.34,329589.41,7479877.82
"169903",169903,1985,48,"ob","Elephant bull",3,-22.84,31.38,333769.31,7473279.66
"169996",169996,1985,49,"ob","Elephant bull",4,-22.91,31.23,318467.39,7465351.37
"170000",170000,1985,49,"ob","Elephant bull",1,-22.9,31.24,319479.99,7466471.02
"170139",170139,1985,49,"ob","Elephant bull",2,-22.91,31.32,327699.77,7465459.6
"170164",170164,1985,49,"ob","Elephant bull",1,-22.96,31.36,331864.73,7459969.37
"170214",170214,1985,49,"ob","Elephant bull",1,-22.93,31.38,333878.92,7463314.03
"170215",170215,1985,49,"ob","Elephant bull",2,-22.93,31.38,333878.92,7463314.03
"170218",170218,1985,49,"ob","Elephant bull",1,-22.92,31.39,334892.42,7464432.59
"170225",170225,1985,49,"ob","Elephant bull",1,-22.94,31.38,333891.12,7462206.73
"170323",170323,1985,5,"ob","Elephant bull",2,-23.83,31.4,337034.85,7363675.13
"170329",170329,1985,5,"ob","Elephant bull",1,-23.86,31.39,336053.88,7360341.36
"170331",170331,1985,5,"ob","Elephant bull",1,-23.86,31.41,338090.84,7360364.37
"170368",170368,1985,5,"ob","Elephant bull",2,-23.82,31.41,338041.14,7364793.99
"170436",170436,1985,5,"ob","Elephant bull",1,-23.86,31.42,339109.31,7360375.77
"170491",170491,1985,5,"ob","Elephant bull",3,-23.79,31.45,342079.98,7368161.26
"170503",170503,1985,5,"ob","Elephant bull",1,-23.82,31.42,339059.93,7364805.38
"170715",170715,1985,5,"ob","Elephant bull",2,-23.77,31.46,343074.97,7370387.11
"170717",170717,1985,5,"ob","Elephant bull",1,-23.78,31.47,344106.06,7369290.74
"170749",170749,1985,5,"ob","Elephant bull",1,-23.85,31.53,350300.8,7361603.78
"170767",170767,1985,5,"ob","Elephant bull",1,-23.8,31.5,347186.67,7367108.61
"170806",170806,1985,5,"ob","Elephant bull",2,-23.78,31.5,347163.28,7369323.34
"170813",170813,1985,5,"ob","Elephant bull",2,-23.85,31.55,352337.82,7361624.77
"170820",170820,1985,5,"ob","Elephant bull",1,-23.85,31.55,352337.82,7361624.77
"170833",170833,1985,5,"ob","Elephant bull",1,-23.84,31.57,354363.65,7362752.83
"170855",170855,1985,5,"ob","Elephant bull",5,-23.82,31.54,351285.09,7364936.39
"170856",170856,1985,5,"ob","Elephant bull",3,-23.82,31.54,351285.09,7364936.39
"170867",170867,1985,5,"ob","Elephant bull",1,-23.82,31.56,353322.58,7364957.22
"170870",170870,1985,5,"ob","Elephant bull",1,-23.81,31.56,353311.34,7366064.57
"170881",170881,1985,5,"ob","Elephant bull",1,-23.78,31.55,352258.59,7369376.25
"170882",170882,1985,5,"ob","Elephant bull",1,-23.78,31.55,352258.59,7369376.25
"170896",170896,1985,50,"ob","Elephant bull",1,-23.06,31.41,337111.88,7448952.79
"170900",170900,1985,50,"ob","Elephant bull",1,-23.07,31.4,336099.36,7447834.31
"170943",170943,1985,50,"ob","Elephant bull",3,-23.06,31.43,339161.15,7448974.93
"170949",170949,1985,50,"ob","Elephant bull",1,-23.06,31.41,337111.88,7448952.79
"170954",170954,1985,50,"ob","Elephant bull",1,-23.07,31.43,339173.04,7447867.63
"170958",170958,1985,50,"ob","Elephant bull",2,-23.06,31.43,339161.15,7448974.93
"170995",170995,1985,50,"ob","Elephant bull",4,-23.09,31.46,342270.03,7445685.75
"171007",171007,1985,50,"ob","Elephant bull",6,-23.09,31.48,344318.81,7445707.22
"171107",171107,1985,50,"ob","Elephant bull",9,-23.13,31.5,346413.09,7441299.29
"171319",171319,1985,52,"ob","Elephant bull",2,-23.08,31.19,314596.42,7446475.94
"171374",171374,1985,52,"ob","Elephant bull",1,-23.21,31.21,316822.38,7432105.07
"171416",171416,1985,52,"ob","Elephant bull",2,-23.19,31.22,317818.83,7434332.43
"171539",171539,1985,52,"ob","Elephant bull",1,-23.18,31.25,320876.65,7435477.08
"171550",171550,1985,52,"ob","Elephant bull",1,-23.17,31.28,323934.9,7436621.07
"171605",171605,1985,52,"ob","Elephant bull",3,-23.05,31.28,323778.28,7449909.39
"171693",171693,1985,52,"ob","Elephant bull",8,-23.12,31.36,332063.26,7442252.25
"171722",171722,1985,52,"ob","Elephant bull",1,-23.11,31.36,332050.81,7443359.58
"171731",171731,1985,52,"ob","Elephant bull",3,-23.05,31.36,331976.24,7450003.53
"171739",171739,1985,52,"ob","Elephant bull",1,-23.07,31.35,330976.49,7447777.36
"171740",171740,1985,52,"ob","Elephant bull",2,-23.07,31.36,332001.08,7447788.89
"171743",171743,1985,52,"ob","Elephant bull",1,-23.07,31.36,332001.08,7447788.89
"171746",171746,1985,52,"ob","Elephant bull",5,-23.07,31.37,333025.65,7447800.35
"171753",171753,1985,52,"ob","Elephant bull",1,-23.1,31.37,333062.72,7444478.38
"171762",171762,1985,52,"ob","Elephant bull",4,-23.09,31.39,335099.2,7445608.43
"171765",171765,1985,52,"ob","Elephant bull",2,-23.1,31.4,336135.75,7444512.38
"171779",171779,1985,52,"ob","Elephant bull",1,-23.06,31.37,333013.31,7448907.67
"171787",171787,1985,52,"ob","Elephant bull",7,-23.06,31.38,334037.96,7448919.05
"171792",171792,1985,52,"ob","Elephant bull",1,-23.07,31.39,335074.8,7447823.06
"171831",171831,1985,53,"ob","Elephant bull",10,-23.08,30.92,286931.6,7446107.64
"171832",171832,1985,53,"ob","Elephant bull",1,-23.09,30.92,286947.38,7445000.12
"171835",171835,1985,53,"ob","Elephant bull",3,-23.09,30.93,287971.98,7445014.68
"171865",171865,1985,53,"ob","Elephant bull",4,-23.04,30.95,289943.52,7450581.09
"171900",171900,1985,53,"ob","Elephant bull",1,-23.03,30.92,286852.84,7451645.21
"171905",171905,1985,53,"ob","Elephant bull",4,-23.03,30.93,287877.9,7451659.74
"171923",171923,1985,53,"ob","Elephant bull",1,-22.99,30.94,288840.67,7456104.19
"171937",171937,1985,53,"ob","Elephant bull",4,-23.14,30.96,291123.2,7439520.42
"171948",171948,1985,53,"ob","Elephant bull",5,-23.16,30.96,291154.21,7437305.41
"171982",171982,1985,53,"ob","Elephant bull",1,-23.04,30.99,294043.37,7450637.96
"171994",171994,1985,53,"ob","Elephant bull",9,-23.01,30.97,291947.39,7453932.13
"171999",171999,1985,53,"ob","Elephant bull",1,-23,30.98,292957.31,7455053.77
"172011",172011,1985,53,"ob","Elephant bull",1,-23.03,30.97,291978.09,7451717.15
"172016",172016,1985,53,"ob","Elephant bull",4,-23.03,30.98,293003.13,7451731.33
"172019",172019,1985,53,"ob","Elephant bull",1,-23.03,30.98,293003.13,7451731.33
"172060",172060,1985,53,"ob","Elephant bull",1,-23.15,31.03,298307.51,7438511.58
"172063",172063,1985,53,"ob","Elephant bull",4,-23.09,31.02,297193.21,7445142.55
"172079",172079,1985,53,"ob","Elephant bull",1,-23.04,31.01,296093.26,7450665.98
"172080",172080,1985,53,"ob","Elephant bull",1,-23.04,31.01,296093.26,7450665.98
"172097",172097,1985,53,"ob","Elephant bull",2,-23.01,31,295022.94,7453974.42
"172100",172100,1985,53,"ob","Elephant bull",1,-23,31.01,296033.07,7455095.85
"172117",172117,1985,53,"ob","Elephant bull",1,-23.01,31.03,298098.45,7454016.09
"172144",172144,1985,53,"ob","Elephant bull",1,-23.03,31.03,298128.24,7451801.18
"172152",172152,1985,53,"ob","Elephant bull",5,-22.99,31.01,296018.04,7456203.31
"172189",172189,1985,53,"ob","Elephant bull",5,-23.1,31.06,301306.13,7444090.09
"172439",172439,1985,54,"ob","Elephant bull",3,-22.95,30.94,288778.48,7460534.17
"172442",172442,1985,54,"ob","Elephant bull",5,-22.93,30.95,289773.24,7462763.49
"172446",172446,1985,54,"ob","Elephant bull",1,-22.94,30.95,289788.68,7461656.01
"172454",172454,1985,54,"ob","Elephant bull",6,-22.97,30.98,292911.55,7458376.2
"172457",172457,1985,54,"ob","Elephant bull",10,-22.96,30.99,293921.87,7459497.75
"172467",172467,1985,54,"ob","Elephant bull",4,-22.91,30.96,290768.31,7464992.72
"172468",172468,1985,54,"ob","Elephant bull",3,-22.92,30.96,290783.67,7463885.24
"172469",172469,1985,54,"ob","Elephant bull",3,-22.92,30.96,290783.67,7463885.24
"172479",172479,1985,54,"ob","Elephant bull",1,-22.92,30.99,293861.27,7463927.62
"172482",172482,1985,54,"ob","Elephant bull",2,-22.93,30.99,293876.41,7462820.15
"172495",172495,1985,54,"ob","Elephant bull",2,-22.94,30.99,293891.56,7461712.69
"172514",172514,1985,54,"ob","Elephant bull",3,-22.91,30.96,290768.31,7464992.72
"172533",172533,1985,54,"ob","Elephant bull",10,-22.96,31,294947.43,7459511.76
"172542",172542,1985,54,"ob","Elephant bull",1,-22.96,31.02,296998.53,7459539.56
"172563",172563,1985,54,"ob","Elephant bull",4,-22.94,31,294917.27,7461726.68
"172577",172577,1985,54,"ob","Elephant bull",1,-22.9,31,294857.02,7466156.52
"172608",172608,1985,54,"ob","Elephant bull",1,-22.98,31.04,299079.19,7457352.19
"172680",172680,1985,55,"ob","Elephant bull",6,-22.83,30.98,292698.76,7473880.73
"172681",172681,1985,55,"ob","Elephant bull",2,-22.84,30.98,292713.92,7472773.27
"172682",172682,1985,55,"ob","Elephant bull",2,-22.84,30.98,292713.92,7472773.27
"172683",172683,1985,55,"ob","Elephant bull",3,-22.84,30.99,293740.38,7472787.29
"172692",172692,1985,55,"ob","Elephant bull",2,-22.85,30.98,292729.08,7471665.81
"172702",172702,1985,55,"ob","Elephant bull",4,-22.86,30.99,293770.57,7470572.38
"172736",172736,1985,55,"ob","Elephant bull",3,-22.86,31,294796.88,7470586.34
"172872",172872,1985,55,"ob","Elephant bull",3,-22.75,31.05,299767.61,7482836.72
"172888",172888,1985,55,"ob","Elephant bull",3,-22.72,31.05,299723.9,7486158.96
"172896",172896,1985,55,"ob","Elephant bull",18,-22.74,31.05,299753.03,7483944.13
"172900",172900,1985,55,"ob","Elephant bull",1,-22.73,31.07,301792.98,7485078.44
"172927",172927,1985,55,"ob","Elephant bull",1,-22.86,31.11,306086.01,7470735.27
"172949",172949,1985,55,"ob","Elephant bull",2,-22.75,31.08,302848.93,7482876.98
"172953",172953,1985,55,"ob","Elephant bull",3,-22.76,31.1,304917.33,7481796.08
"173167",173167,1985,55,"ob","Elephant bull",4,-22.9,31.21,316402.24,7466433.91
"173172",173172,1985,55,"ob","Elephant bull",2,-22.9,31.21,316402.24,7466433.91
"173208",173208,1985,56,"ob","Elephant bull",1,-25.39,31.41,340050.65,7190915.2
"173211",173211,1985,56,"ob","Elephant bull",1,-25.38,31.42,341043.69,7192034.75
"173212",173212,1985,56,"ob","Elephant bull",1,-25.38,31.42,341043.69,7192034.75
"173213",173213,1985,56,"ob","Elephant bull",1,-25.38,31.42,341043.69,7192034.75
"173218",173218,1985,56,"ob","Elephant bull",1,-25.4,31.42,341069.89,7189819.52
"173283",173283,1985,56,"ob","Elephant bull",1,-25.48,31.5,349217.85,7181051.59
"173356",173356,1985,56,"ob","Elephant bull",1,-25.39,31.51,350111.85,7191031.18
"173359",173359,1985,56,"ob","Elephant bull",1,-25.4,31.53,352136.24,7189945.89
"173395",173395,1985,56,"ob","Elephant bull",2,-25.35,31.52,351068.91,7195472.67
"173422",173422,1985,56,"ob","Elephant bull",2,-25.42,31.55,354172.33,7187752.74
"173534",173534,1985,57,"ob","Elephant bull",1,-25.15,31.69,367961.82,7217801.22
"173706",173706,1985,57,"ob","Elephant bull",3,-25.08,31.86,385032.63,7225709.06
"173724",173724,1985,57,"ob","Elephant bull",1,-25.1,31.85,384042.91,7223485.63
"173768",173768,1985,58,"ob","Elephant bull",1,-25.07,31.6,358797.48,7226570.14
"173903",173903,1985,58,"ob","Elephant bull",6,-25.05,31.68,366845.52,7228866.29
"173908",173908,1985,58,"ob","Elephant bull",1,-25.05,31.7,368863.24,7228885.83
"173921",173921,1985,58,"ob","Elephant bull",2,-25.05,31.71,369872.1,7228895.48
"173922",173922,1985,58,"ob","Elephant bull",1,-25.05,31.71,369872.1,7228895.48
"173942",173942,1985,58,"ob","Elephant bull",1,-25.06,31.74,372908.96,7227816.54
"173946",173946,1985,58,"ob","Elephant bull",1,-25.05,31.76,374916.33,7228942.64
"173951",173951,1985,58,"ob","Elephant bull",3,-25.04,31.77,375915.11,7230059.31
"173996",173996,1985,6,"ob","Elephant bull",1,-23.59,31.3,326530.37,7390134.88
"174002",174002,1985,6,"ob","Elephant bull",8,-23.58,31.32,328558.59,7391266.38
"174011",174011,1985,6,"ob","Elephant bull",1,-23.57,31.29,325483.3,7392337.55
"174013",174013,1985,6,"ob","Elephant bull",1,-23.58,31.31,327537.9,7391254.37
"174129",174129,1985,6,"ob","Elephant bull",1,-23.55,31.38,334645.07,7394659.09
"174130",174130,1985,6,"ob","Elephant bull",1,-23.55,31.38,334645.07,7394659.09
"174131",174131,1985,6,"ob","Elephant bull",1,-23.55,31.38,334645.07,7394659.09
"174137",174137,1985,6,"ob","Elephant bull",1,-23.56,31.38,334657.59,7393551.71
"174138",174138,1985,6,"ob","Elephant bull",1,-23.56,31.4,336699.22,7393574.65
"174156",174156,1985,6,"ob","Elephant bull",1,-23.71,31.45,341983.43,7377020.29
"174180",174180,1985,6,"ob","Elephant bull",4,-23.67,31.44,340915.33,7381438.66
"174182",174182,1985,6,"ob","Elephant bull",1,-23.68,31.44,340927.44,7380331.29
"174184",174184,1985,6,"ob","Elephant bull",1,-23.68,31.45,341947.31,7380342.41
"174246",174246,1985,6,"ob","Elephant bull",1,-23.55,31.43,339749.51,7394715.88
"174267",174267,1985,6,"ob","Elephant bull",1,-23.72,31.46,343015.03,7375923.98
"174288",174288,1985,6,"ob","Elephant bull",1,-23.74,31.47,344058.39,7373720.23
"174302",174302,1985,6,"ob","Elephant bull",1,-23.68,31.46,342967.17,7380353.45
"174479",174479,1985,60,"ob","Elephant bull",1,-25.01,31.73,371848.25,7233344.43
"175266",175266,1985,7,"ob","Elephant bull",3,-23.62,31.23,319427.08,7386725.94
"175271",175271,1985,7,"ob","Elephant bull",1,-23.61,31.23,319413.38,7387833.38
"175324",175324,1985,7,"ob","Elephant bull",1,-23.63,31.25,321481.45,7385643.63
"175351",175351,1985,7,"ob","Elephant bull",1,-23.6,31.26,322461.34,7388978.38
"175360",175360,1985,7,"ob","Elephant bull",1,-23.61,31.26,322474.81,7387870.95
"175363",175363,1985,7,"ob","Elephant bull",1,-23.61,31.26,322474.81,7387870.95
"175535",175535,1985,8,"ob","Elephant bull",1,-23.44,31.27,323268.33,7406709.43
"175538",175538,1985,8,"ob","Elephant bull",1,-23.44,31.28,324290.11,7406721.67
"175574",175574,1985,8,"ob","Elephant bull",1,-23.51,31.31,327446.54,7399006.2
"175591",175591,1985,8,"ob","Elephant bull",1,-23.53,31.3,326451.54,7396779.34
"175608",175608,1985,8,"ob","Elephant bull",2,-23.53,31.33,329514.76,7396815.31
"175628",175628,1985,8,"ob","Elephant bull",1,-23.43,31.3,326320.59,7407853.33
"175629",175629,1985,8,"ob","Elephant bull",1,-23.43,31.3,326320.59,7407853.33
"175645",175645,1985,8,"ob","Elephant bull",6,-23.45,31.32,328390.12,7405662.54
"175671",175671,1985,8,"ob","Elephant bull",1,-23.41,31.32,328338.46,7410092.08
"175691",175691,1985,8,"ob","Elephant bull",4,-23.51,31.35,331531.43,7399053.71
"175692",175692,1985,8,"ob","Elephant bull",6,-23.51,31.35,331531.43,7399053.71
"175697",175697,1985,8,"ob","Elephant bull",7,-23.51,31.36,332552.64,7399065.41
"175703",175703,1985,8,"ob","Elephant bull",2,-23.51,31.37,333573.85,7399077.04
"175725",175725,1985,8,"ob","Elephant bull",1,-23.53,31.36,332577.95,7396850.64
"175773",175773,1985,8,"ob","Elephant bull",7,-23.51,31.38,334595.06,7399088.59
"175789",175789,1985,8,"ob","Elephant bull",2,-23.52,31.37,333586.43,7397969.66
"175806",175806,1985,8,"ob","Elephant bull",2,-23.53,31.39,335641.11,7396885.34
"175824",175824,1985,9,"ob","Elephant bull",3,-23.48,31.07,302891.3,7402019.71
"175919",175919,1985,9,"ob","Elephant bull",1,-23.48,31.11,306977.49,7402074.01
"175941",175941,1985,9,"ob","Elephant bull",1,-23.58,31.15,311206.42,7391052.48
"176027",176027,1985,9,"ob","Elephant bull",1,-23.53,31.13,309092.66,7396563.36
"176090",176090,1985,9,"ob","Elephant bull",2,-23.48,31.15,311063.61,7402127.16
"176091",176091,1985,9,"ob","Elephant bull",1,-23.49,31.14,310056.42,7401006.51
"176219",176219,1985,9,"ob","Elephant bull",2,-23.47,31.18,314114.14,7403273.73
"176296",176296,1985,9,"ob","Elephant bull",1,-23.58,31.23,319372.28,7391155.71
"176303",176303,1985,9,"ob","Elephant bull",1,-23.57,31.24,320379.39,7392275.73
"176378",176378,1985,9,"ob","Elephant bull",1,-23.55,31.26,322394.07,7394515.52
