"","ID","Year","Cenb","Sp","Description","No","Lat","Long","X.coord","Y.coord"
"388960",388960,1994,65,"t","Tsessebe",9,-23.4,31.32,328325.56,7411199.46
"389407",389407,1994,2,"t","Tsessebe",2,-23.35,31.03,298608.26,7416361.87
"389593",389593,1994,2,"t","Tsessebe",4,-23.42,31.13,308934.22,7408745.52
"389762",389762,1994,8,"t","Tsessebe",1,-23.19,31.31,327032.15,7434442.33
"390175",390175,1994,4,"t","Tsessebe",7,-23.22,31.08,303530.27,7430827.76
"390181",390181,1994,4,"t","Tsessebe",2,-23.24,31.06,301512.77,7428585.62
"390196",390196,1994,4,"t","Tsessebe",1,-23.28,31.05,300548.92,7424142
"390342",390342,1994,5,"t","Tsessebe",1,-23.62,31.61,358200.06,7387154.45
"390352",390352,1994,5,"t","Tsessebe",1,-23.62,31.59,356159.49,7387134.47
"390368",390368,1994,5,"t","Tsessebe",1,-23.61,31.56,353087.47,7388211.28
"390371",390371,1994,5,"t","Tsessebe",2,-23.61,31.56,353087.47,7388211.28
"390373",390373,1994,5,"t","Tsessebe",2,-23.62,31.57,354118.92,7387114.2
"390375",390375,1994,5,"t","Tsessebe",7,-23.64,31.58,355161.21,7384909.73
"390514",390514,1994,5,"t","Tsessebe",5,-23.64,31.51,348020.2,7384837
"390520",390520,1994,5,"t","Tsessebe",3,-23.64,31.48,344959.72,7384804.76
"390535",390535,1994,5,"t","Tsessebe",1,-23.67,31.54,351114.62,7381546.6
"390545",390545,1994,5,"t","Tsessebe",8,-23.68,31.54,351125.96,7380439.26
"390550",390550,1994,5,"t","Tsessebe",8,-23.69,31.52,349097.77,7379310.89
"390609",390609,1994,6,"t","Tsessebe",1,-23.54,31.53,349946.78,7395931.44
"390620",390620,1994,6,"t","Tsessebe",3,-23.47,31.49,345781.57,7403640.34
"390632",390632,1994,6,"t","Tsessebe",6,-23.55,31.52,348937.29,7394813.61
"390651",390651,1994,6,"t","Tsessebe",3,-23.49,31.49,345804.83,7401425.68
"390652",390652,1994,6,"t","Tsessebe",4,-23.48,31.48,344771.8,7402522.25
"390655",390655,1994,6,"t","Tsessebe",1,-23.48,31.48,344771.8,7402522.25
"390661",390661,1994,6,"t","Tsessebe",8,-23.51,31.49,345828.11,7399211.02
"390663",390663,1994,6,"t","Tsessebe",2,-23.51,31.49,345828.11,7399211.02
"390673",390673,1994,6,"t","Tsessebe",3,-23.49,31.47,343762.18,7401404.08
"390677",390677,1994,6,"t","Tsessebe",5,-23.52,31.47,343797.57,7398082.06
"390686",390686,1994,6,"t","Tsessebe",5,-23.5,31.46,342752.72,7400285.83
"390690",390690,1994,6,"t","Tsessebe",4,-23.44,31.44,340638.14,7406907.86
"390691",390691,1994,7,"t","Tsessebe",2,-23.43,31.44,340626.14,7408015.2
"390693",390693,1994,6,"t","Tsessebe",8,-23.44,31.43,339616.41,7406896.76
"390695",390695,1994,6,"t","Tsessebe",1,-23.44,31.43,339616.41,7406896.76
"390697",390697,1994,6,"t","Tsessebe",5,-23.46,31.44,340662.14,7404693.18
"390711",390711,1994,6,"t","Tsessebe",1,-23.47,31.43,339652.65,7403574.72
"390712",390712,1994,6,"t","Tsessebe",1,-23.45,31.43,339628.49,7405789.41
"390714",390714,1994,6,"t","Tsessebe",3,-23.52,31.44,340734.26,7398049.09
"390717",390717,1994,6,"t","Tsessebe",2,-23.53,31.44,340746.3,7396941.73
"390719",390719,1994,6,"t","Tsessebe",3,-23.55,31.44,340770.39,7394727.03
"390729",390729,1994,6,"t","Tsessebe",3,-23.51,31.43,339701.04,7399145.31
"390732",390732,1994,6,"t","Tsessebe",5,-23.5,31.42,338667.67,7400241.47
"390733",390733,1994,6,"t","Tsessebe",3,-23.51,31.42,338679.85,7399134.11
"390781",390781,1994,7,"t","Tsessebe",8,-23.3,31.35,331265.34,7422308.49
"390819",390819,1994,7,"t","Tsessebe",7,-23.36,31.5,346676.3,7415831.51
"390822",390822,1994,7,"t","Tsessebe",3,-23.33,31.5,346641.82,7419153.44
"390824",390824,1994,7,"t","Tsessebe",1,-23.32,31.49,345607.72,7420250.11
"390841",390841,1994,7,"t","Tsessebe",2,-23.31,31.48,344573.46,7421346.71
"390853",390853,1994,7,"t","Tsessebe",1,-23.31,31.45,341505.32,7421314.18
"390854",390854,1994,7,"t","Tsessebe",6,-23.34,31.45,341540.91,7417992.21
"390856",390856,1994,7,"t","Tsessebe",7,-23.39,31.45,341600.32,7412455.57
"390860",390860,1994,7,"t","Tsessebe",6,-23.33,31.45,341529.04,7419099.53
"390990",390990,1994,8,"t","Tsessebe",4,-23.17,31.43,339292.21,7436794.6
"391026",391026,1994,8,"t","Tsessebe",4,-23.24,31.41,337329.39,7429021.12
"391031",391031,1994,8,"t","Tsessebe",1,-23.25,31.51,347573.27,7428022.38
"391048",391048,1994,8,"t","Tsessebe",2,-23.25,31.42,338364.71,7427924.97
"391082",391082,1994,8,"t","Tsessebe",2,-23.29,31.47,343527.35,7423550.56
"391086",391086,1994,7,"t","Tsessebe",2,-23.28,31.39,335332.02,7424569.22
"391093",391093,1994,8,"t","Tsessebe",1,-23.3,31.45,341493.46,7422421.5
"391170",391170,1994,8,"t","Tsessebe",4,-23.19,31.35,331126.86,7434489.34
"391176",391176,1994,8,"t","Tsessebe",3,-23.19,31.35,331126.86,7434489.34
"391196",391196,1994,8,"t","Tsessebe",1,-23.21,31.34,330128.47,7432262.99
"391223",391223,1994,8,"t","Tsessebe",6,-23.23,31.34,330153.77,7430048.29
"391232",391232,1994,8,"t","Tsessebe",4,-23.24,31.36,332213.01,7428964.2
"391245",391245,1994,8,"t","Tsessebe",2,-23.26,31.35,331214.91,7426737.91
"396268",396268,1994,26,"t","Tsessebe",1,-24.7,31.6,358376.07,7267547.04
"396446",396446,1994,43,"t","Tsessebe",51,-22.67,31.22,317121.64,7491915.26
"396448",396448,1994,43,"t","Tsessebe",4,-22.67,31.23,318149.27,7491927.53
"396487",396487,1994,43,"t","Tsessebe",1,-22.73,31.22,317201.32,7485271.26
"396546",396546,1994,43,"t","Tsessebe",1,-22.8,31.22,317294.53,7477519.87
"396549",396549,1994,44,"t","Tsessebe",1,-22.8,31.24,319347.86,7477544.46
"396550",396550,1994,44,"t","Tsessebe",2,-22.8,31.23,318321.19,7477532.2
"396552",396552,1994,44,"t","Tsessebe",7,-22.81,31.23,318334.46,7476424.86
"396602",396602,1994,44,"t","Tsessebe",4,-22.9,31.25,320505.89,7466483.25
"396665",396665,1994,44,"t","Tsessebe",5,-22.8,31.29,324481.11,7477604.71
"396725",396725,1994,44,"t","Tsessebe",8,-22.9,31.25,320505.89,7466483.25
"396750",396750,1994,45,"t","Tsessebe",2,-22.92,31.3,325660.96,7464328.71
"396999",396999,1994,47,"t","Tsessebe",1,-23.02,31.46,342188.42,7453436.74
"397020",397020,1994,47,"t","Tsessebe",1,-23.06,31.45,341210.4,7448996.79
"397366",397366,1994,49,"t","Tsessebe",3,-23.09,31.31,326903.75,7445515.85
"397455",397455,1994,49,"t","Tsessebe",3,-23.14,31.36,332088.16,7440037.59
"397469",397469,1994,49,"t","Tsessebe",4,-23.09,31.4,336123.61,7445619.69
"397714",397714,1994,49,"t","Tsessebe",3,-23.06,31.33,328914.67,7448861.42
"397767",397767,1994,50,"t","Tsessebe",2,-23.03,30.94,288902.96,7451674.2
