"","ID","Year","Cenb","Sp","Description","No","Lat","Long","X.coord","Y.coord"
"15497",15497,1979,1,"kp","Giraffe",3,-23.89,31.57,354419.57,7357216.06
"15579",15579,1979,1,"kp","Giraffe",1,-23.89,31.65,362564.98,7357296.11
"15585",15585,1979,1,"kp","Giraffe",1,-23.91,31.65,362586.12,7355081.44
"15594",15594,1979,1,"kp","Giraffe",4,-24.06,31.67,364778.9,7338490.67
"15608",15608,1979,1,"kp","Giraffe",1,-24.01,31.69,366760.97,7344046.47
"15613",15613,1979,1,"kp","Giraffe",1,-24.03,31.67,364747.47,7341812.71
"15626",15626,1979,1,"kp","Giraffe",2,-23.99,31.67,364705.63,7346242.08
"15637",15637,1979,1,"kp","Giraffe",1,-23.95,31.67,364663.85,7350671.42
"15640",15640,1979,1,"kp","Giraffe",1,-23.91,31.67,364622.13,7355100.74
"15643",15643,1979,1,"kp","Giraffe",1,-23.91,31.69,366658.13,7355119.76
"15646",15646,1979,1,"kp","Giraffe",4,-24.06,31.71,368846.16,7338528.59
"15654",15654,1979,1,"kp","Giraffe",8,-24.06,31.73,370879.78,7338547.12
"15661",15661,1979,1,"kp","Giraffe",10,-24.01,31.71,368795.38,7344065.26
"15665",15665,1979,1,"kp","Giraffe",4,-24.01,31.73,370829.79,7344083.75
"15672",15672,1979,1,"kp","Giraffe",7,-24.03,31.71,368815.68,7341850.6
"15678",15678,1979,1,"kp","Giraffe",13,-24.03,31.73,370849.78,7341869.1
"15687",15687,1979,1,"kp","Giraffe",25,-23.97,31.73,370789.87,7348513.04
"15692",15692,1979,1,"kp","Giraffe",6,-23.99,31.71,368775.1,7346279.91
"15697",15697,1979,1,"kp","Giraffe",12,-23.99,31.73,370809.82,7346298.4
"15708",15708,1979,1,"kp","Giraffe",33,-23.97,31.76,373842.4,7348540.21
"15712",15712,1979,1,"kp","Giraffe",21,-23.97,31.78,375877.41,7348557.96
"15717",15717,1979,1,"kp","Giraffe",19,-23.99,31.76,373861.88,7346325.58
"15721",15721,1979,1,"kp","Giraffe",6,-23.99,31.78,375896.58,7346343.35
"15724",15724,1979,1,"kp","Giraffe",1,-23.99,31.8,377931.26,7346360.82
"15736",15736,1979,2,"kp","Giraffe",3,-24.06,31.4,337323.6,7338204.41
"15746",15746,1979,2,"kp","Giraffe",1,-24.01,31.38,335226,7343718.31
"15750",15750,1979,2,"kp","Giraffe",3,-24.01,31.4,337260.61,7343741.58
"15754",15754,1979,2,"kp","Giraffe",1,-24.03,31.38,335251.5,7341503.43
"15757",15757,1979,2,"kp","Giraffe",3,-24.03,31.4,337285.79,7341526.71
"15761",15761,1979,2,"kp","Giraffe",1,-23.97,31.4,337210.3,7348171.29
"15766",15766,1979,2,"kp","Giraffe",2,-23.99,31.4,337235.44,7345956.44
"15771",15771,1979,2,"kp","Giraffe",3,-23.93,31.4,337160.07,7352600.99
"15777",15777,1979,2,"kp","Giraffe",8,-23.89,31.4,337109.92,7357030.66
"15794",15794,1979,2,"kp","Giraffe",5,-24.01,31.44,341329.78,7343787.25
"15801",15801,1979,2,"kp","Giraffe",1,-24.03,31.44,341354.33,7341572.41
"15823",15823,1979,2,"kp","Giraffe",8,-23.89,31.42,339146.4,7357053.55
"15845",15845,1979,2,"kp","Giraffe",2,-23.99,31.46,343340.12,7346024.47
"15854",15854,1979,2,"kp","Giraffe",5,-23.93,31.48,345303.39,7352690.94
"15862",15862,1979,2,"kp","Giraffe",1,-23.89,31.46,343219.32,7357098.47
"15882",15882,1979,2,"kp","Giraffe",5,-24.06,31.51,348509.36,7338327.41
"15885",15885,1979,2,"kp","Giraffe",1,-24.06,31.53,350543.1,7338348.83
"15889",15889,1979,2,"kp","Giraffe",2,-24.03,31.51,348474.15,7341649.6
"15894",15894,1979,2,"kp","Giraffe",2,-24.03,31.53,350508.36,7341671
"15908",15908,1979,2,"kp","Giraffe",1,-23.93,31.51,348357.09,7352723.49
"15911",15911,1979,2,"kp","Giraffe",4,-23.93,31.53,350392.86,7352744.82
"15922",15922,1979,2,"kp","Giraffe",2,-23.89,31.53,350346.79,7357174.31
"15931",15931,1979,2,"kp","Giraffe",3,-23.91,31.53,350369.82,7354959.57
"15935",15935,1979,2,"kp","Giraffe",3,-23.87,31.51,348287.07,7359367.76
"15956",15956,1979,2,"kp","Giraffe",3,-24.03,31.55,352542.55,7341692.11
"15994",15994,1979,3,"kp","Giraffe",3,-23.93,31.19,315782.81,7352342.88
"15998",15998,1979,3,"kp","Giraffe",1,-23.95,31.17,313775.51,7350101.61
"16010",16010,1979,3,"kp","Giraffe",8,-23.89,31.19,315726.07,7356772.88
"16016",16016,1979,3,"kp","Giraffe",4,-23.91,31.19,315754.43,7354557.88
"16022",16022,1979,3,"kp","Giraffe",2,-23.87,31.17,313660.78,7358961.68
"16030",16030,1979,3,"kp","Giraffe",1,-24.01,31.21,317931.29,7343508.84
"16034",16034,1979,3,"kp","Giraffe",2,-24.01,31.23,319966.02,7343534.57
"16039",16039,1979,3,"kp","Giraffe",10,-24.03,31.21,317959.47,7341293.82
"16053",16053,1979,3,"kp","Giraffe",3,-23.99,31.23,319938.18,7345749.56
"16054",16054,1979,3,"kp","Giraffe",2,-23.93,31.21,317818.81,7352368.83
"16070",16070,1979,3,"kp","Giraffe",1,-23.89,31.23,319799.31,7356824.43
"16087",16087,1979,3,"kp","Giraffe",4,-24.1,31.26,323141.5,7333605.2
"16115",16115,1979,3,"kp","Giraffe",3,-24.03,31.26,323045.47,7341357.64
"16120",16120,1979,3,"kp","Giraffe",2,-24.03,31.28,325079.84,7341382.67
"16131",16131,1979,3,"kp","Giraffe",2,-23.93,31.28,324944.69,7352457.39
"16133",16133,1979,3,"kp","Giraffe",1,-23.95,31.26,322936.04,7350217.5
"16138",16138,1979,3,"kp","Giraffe",1,-23.95,31.28,324971.67,7350242.46
"16142",16142,1979,3,"kp","Giraffe",1,-23.89,31.26,322854.2,7356862.34
"16149",16149,1979,3,"kp","Giraffe",1,-23.91,31.28,324917.72,7354672.32
"16159",16159,1979,3,"kp","Giraffe",2,-24.06,31.3,327154.38,7338084.98
"16164",16164,1979,3,"kp","Giraffe",2,-24.08,31.3,327181.19,7335870.02
"16168",16168,1979,3,"kp","Giraffe",3,-24.01,31.3,327087.44,7343622.34
"16193",16193,1979,3,"kp","Giraffe",3,-23.99,31.3,327060.71,7345837.27
"16197",16197,1979,3,"kp","Giraffe",1,-23.99,31.32,329095.68,7345861.69
"16210",16210,1979,3,"kp","Giraffe",4,-23.89,31.3,326927.33,7356911.87
"16216",16216,1979,3,"kp","Giraffe",3,-23.91,31.32,328990.2,7354721.31
"16230",16230,1979,3,"kp","Giraffe",2,-24.06,31.34,331222.11,7338133.62
"16234",16234,1979,3,"kp","Giraffe",1,-24.08,31.34,331248.29,7335918.7
"16238",16238,1979,3,"kp","Giraffe",2,-24.08,31.36,333281.82,7335942.6
"16242",16242,1979,3,"kp","Giraffe",2,-24.01,31.34,331156.75,7343670.9
"16256",16256,1979,3,"kp","Giraffe",3,-23.97,31.36,333139.82,7348124.52
"16267",16267,1979,3,"kp","Giraffe",4,-23.89,31.34,331000.41,7356960.25
"16286",16286,1979,4,"kp","Giraffe",2,-23.68,31.15,311349.8,7379977.68
"16295",16295,1979,4,"kp","Giraffe",3,-23.66,31.15,311321.08,7382192.65
"16324",16324,1979,4,"kp","Giraffe",5,-23.76,31.17,313503.61,7371144.13
"16350",16350,1979,4,"kp","Giraffe",1,-23.7,31.19,315457.78,7377815.09
"16361",16361,1979,4,"kp","Giraffe",6,-23.85,31.23,319743.91,7361254.34
"16371",16371,1979,4,"kp","Giraffe",2,-23.81,31.23,319688.6,7365684.23
"16385",16385,1979,4,"kp","Giraffe",5,-23.76,31.23,319619.59,7371221.57
"16393",16393,1979,4,"kp","Giraffe",1,-23.78,31.23,319647.18,7369006.64
"16433",16433,1979,4,"kp","Giraffe",3,-23.83,31.28,324810.06,7363531.99
"16502",16502,1979,4,"kp","Giraffe",2,-23.72,31.32,328741,7375762.59
"16507",16507,1979,4,"kp","Giraffe",2,-23.74,31.3,326728.26,7373523.52
"16526",16526,1979,4,"kp","Giraffe",8,-23.76,31.36,332870.43,7371380.49
"16533",16533,1979,4,"kp","Giraffe",2,-23.74,31.34,330806.02,7373571.67
"16540",16540,1979,5,"kp","Giraffe",1,-23.85,31.4,337059.85,7361460.31
"16551",16551,1979,5,"kp","Giraffe",2,-23.83,31.4,337034.85,7363675.13
"16554",16554,1979,5,"kp","Giraffe",3,-23.76,31.38,334908.96,7371403.86
"16561",16561,1979,5,"kp","Giraffe",3,-23.78,31.38,334934.21,7369189.05
"16565",16565,1979,5,"kp","Giraffe",11,-23.78,31.4,336972.42,7369212.15
"16586",16586,1979,5,"kp","Giraffe",1,-23.76,31.44,341024.49,7371472.26
"16616",16616,1979,5,"kp","Giraffe",4,-23.76,31.46,343062.98,7371494.48
"16619",16619,1979,5,"kp","Giraffe",1,-23.76,31.48,345101.45,7371516.42
"16624",16624,1979,5,"kp","Giraffe",1,-23.78,31.48,345125.13,7369301.68
"16643",16643,1979,5,"kp","Giraffe",3,-23.85,31.55,352337.82,7361624.77
"16653",16653,1979,5,"kp","Giraffe",2,-23.81,31.55,352292.52,7366054.19
"16657",16657,1979,5,"kp","Giraffe",3,-23.81,31.57,354330.15,7366074.87
"16662",16662,1979,5,"kp","Giraffe",1,-23.83,31.57,354352.48,7363860.18
"16665",16665,1979,5,"kp","Giraffe",2,-23.78,31.55,352258.59,7369376.25
"16670",16670,1979,5,"kp","Giraffe",13,-23.83,31.59,356389.79,7363880.58
"16702",16702,1979,6,"kp","Giraffe",1,-23.56,31.34,330574.29,7393504.98
"16711",16711,1979,6,"kp","Giraffe",1,-23.58,31.36,332641.3,7391313.71
"16746",16746,1979,6,"kp","Giraffe",10,-23.56,31.38,334657.59,7393551.71
"16754",16754,1979,6,"kp","Giraffe",1,-23.58,31.4,336723.96,7391359.9
"16820",16820,1979,6,"kp","Giraffe",1,-23.66,31.46,342943.26,7382568.18
"16823",16823,1979,7,"kp","Giraffe",4,-23.64,31.15,311292.38,7384407.62
"16835",16835,1979,7,"kp","Giraffe",1,-23.68,31.21,317469.56,7380055.78
"16848",16848,1979,7,"kp","Giraffe",4,-23.66,31.21,317441.77,7382270.7
"16863",16863,1979,7,"kp","Giraffe",2,-23.66,31.28,324582.42,7382358.5
"16906",16906,1979,8,"kp","Giraffe",12,-23.45,31.26,322259.92,7405589.71
"16911",16911,1979,8,"kp","Giraffe",5,-23.45,31.28,324303.34,7405614.27
"16936",16936,1979,8,"kp","Giraffe",1,-23.47,31.32,328415.98,7403447.76
"16947",16947,1979,8,"kp","Giraffe",1,-23.45,31.3,326346.74,7405638.54
"16969",16969,1979,8,"kp","Giraffe",1,-23.53,31.34,330535.83,7396827.16
"16992",16992,1979,8,"kp","Giraffe",1,-23.51,31.38,334595.06,7399088.59
"17003",17003,1979,8,"kp","Giraffe",3,-23.53,31.38,334620.06,7396873.84
"17016",17016,1979,9,"kp","Giraffe",1,-23.56,31.11,307094.16,7393214.14
"17031",17031,1979,9,"kp","Giraffe",3,-23.6,31.13,309193.85,7388811
"17036",17036,1979,9,"kp","Giraffe",3,-23.62,31.15,311263.7,7386622.58
"17042",17042,1979,9,"kp","Giraffe",2,-23.58,31.13,309164.91,7391025.96
"17083",17083,1979,9,"kp","Giraffe",6,-23.51,31.17,313148.96,7398830.95
"17294",17294,1979,11,"kp","Giraffe",14,-23.39,31.26,322179.7,7412234.15
"17301",17301,1979,11,"kp","Giraffe",7,-23.39,31.28,324224.03,7412258.67
"17324",17324,1979,11,"kp","Giraffe",1,-23.2,31.28,323974.17,7433298.96
"17465",17465,1979,13,"kp","Giraffe",7,-23.76,31.53,350197.57,7371570.01
"17533",17533,1979,13,"kp","Giraffe",11,-23.81,31.61,358405.38,7366115.37
"17541",17541,1979,13,"kp","Giraffe",3,-23.83,31.61,358427.09,7363900.7
"17624",17624,1979,13,"kp","Giraffe",6,-23.76,31.65,362427.94,7371691.3
"17629",17629,1979,13,"kp","Giraffe",1,-23.78,31.63,360410.93,7369457.16
"17661",17661,1979,13,"kp","Giraffe",1,-23.66,31.63,360283.09,7382744.93
"18074",18074,1979,19,"kp","Giraffe",3,-23.56,31.61,358135.55,7393798.27
"18105",18105,1979,19,"kp","Giraffe",7,-23.87,31.67,364580.49,7359530.04
"18117",18117,1979,19,"kp","Giraffe",4,-23.68,31.67,364383.57,7380568.93
"18130",18130,1979,19,"kp","Giraffe",1,-23.89,31.71,368673.92,7357353.11
"18133",18133,1979,19,"kp","Giraffe",7,-23.89,31.73,370710.21,7357371.54
"18135",18135,1979,19,"kp","Giraffe",6,-23.91,31.71,368694.12,7355138.48
"18136",18136,1979,19,"kp","Giraffe",1,-23.91,31.73,370730.1,7355156.92
"18141",18141,1979,19,"kp","Giraffe",4,-23.85,31.71,368633.56,7361782.36
"18142",18142,1979,19,"kp","Giraffe",1,-23.85,31.73,370670.47,7361800.76
"18146",18146,1979,19,"kp","Giraffe",4,-23.87,31.73,370690.33,7359586.15
"18158",18158,1979,19,"kp","Giraffe",9,-23.93,31.76,373803.48,7352969.43
"18161",18161,1979,19,"kp","Giraffe",2,-23.93,31.78,375839.12,7352987.16
"18168",18168,1979,19,"kp","Giraffe",3,-23.95,31.76,373822.93,7350754.82
"18174",18174,1979,19,"kp","Giraffe",15,-23.95,31.78,375858.26,7350772.56
"18191",18191,1979,19,"kp","Giraffe",4,-23.97,31.82,379947.4,7348592.59
"18195",18195,1979,19,"kp","Giraffe",1,-23.93,31.8,377874.74,7353004.6
"18205",18205,1979,19,"kp","Giraffe",8,-23.95,31.8,377893.57,7350790.01
"18218",18218,1979,19,"kp","Giraffe",1,-23.97,31.84,381982.38,7348609.48
"18224",18224,1979,19,"kp","Giraffe",2,-23.93,31.84,381945.97,7353038.62
"18234",18234,1979,19,"kp","Giraffe",1,-23.95,31.86,383999.45,7350840.63
"18240",18240,1979,20,"kp","Giraffe",20,-24.1,31.32,329241.27,7333679.56
"18244",18244,1979,20,"kp","Giraffe",2,-24.1,31.34,331274.49,7333703.77
"18249",18249,1979,20,"kp","Giraffe",5,-24.1,31.36,333307.7,7333727.68
"18257",18257,1979,20,"kp","Giraffe",3,-24.1,31.4,337374.09,7333774.64
"18263",18263,1979,20,"kp","Giraffe",1,-24.08,31.38,335315.33,7335966.21
"18266",18266,1979,20,"kp","Giraffe",1,-24.1,31.42,339407.26,7333797.69
"18279",18279,1979,20,"kp","Giraffe",6,-24.1,31.46,343473.56,7333842.91
"18285",18285,1979,20,"kp","Giraffe",2,-24.06,31.48,345458.74,7338294.73
"18288",18288,1979,20,"kp","Giraffe",1,-24.08,31.46,343449.26,7336057.75
"18292",18292,1979,20,"kp","Giraffe",1,-24.08,31.48,345482.71,7336079.91
"18298",18298,1979,20,"kp","Giraffe",4,-24.1,31.53,350589.48,7333919.25
"18317",18317,1979,20,"kp","Giraffe",3,-24.06,31.61,358677.91,7338431.62
"18337",18337,1979,20,"kp","Giraffe",12,-24.06,31.63,360711.58,7338451.59
"18341",18341,1979,20,"kp","Giraffe",2,-24.06,31.65,362745.24,7338471.28
"18355",18355,1979,20,"kp","Giraffe",5,-24.03,31.63,360679.21,7341773.67
"18359",18359,1979,20,"kp","Giraffe",6,-24.03,31.65,362713.35,7341793.34
"18362",18362,1979,21,"kp","Giraffe",6,-24.22,31.44,341588.55,7320531.2
"18363",18363,1979,21,"kp","Giraffe",2,-24.24,31.44,341613.3,7318316.3
"18366",18366,1979,21,"kp","Giraffe",2,-24.2,31.44,341563.81,7322746.08
"18372",18372,1979,21,"kp","Giraffe",1,-24.18,31.48,345602.84,7325005.72
"18374",18374,1979,21,"kp","Giraffe",2,-24.2,31.46,343595.37,7322768.62
"18387",18387,1979,21,"kp","Giraffe",5,-24.24,31.51,348721.49,7318394
"18393",18393,1979,21,"kp","Giraffe",4,-24.24,31.53,350752.38,7318415.54
"18409",18409,1979,21,"kp","Giraffe",2,-24.26,31.57,354836.81,7316242.94
"18414",18414,1979,21,"kp","Giraffe",4,-24.24,31.57,354814.11,7318457.75
"18425",18425,1979,21,"kp","Giraffe",3,-24.22,31.61,358853.73,7320713.58
"18429",18429,1979,21,"kp","Giraffe",2,-24.24,31.61,358875.79,7318498.8
"18434",18434,1979,21,"kp","Giraffe",4,-24.18,31.61,358809.67,7325143.12
"18440",18440,1979,21,"kp","Giraffe",9,-24.14,31.61,358765.68,7329572.64
"18448",18448,1979,21,"kp","Giraffe",2,-24.26,31.63,360928.37,7316304.11
"18451",18451,1979,21,"kp","Giraffe",2,-24.22,31.63,360884.88,7320733.65
"18455",18455,1979,21,"kp","Giraffe",3,-24.24,31.63,360906.61,7318518.88
"18457",18457,1979,21,"kp","Giraffe",1,-24.18,31.63,360841.45,7325163.17
"18464",18464,1979,21,"kp","Giraffe",6,-24.2,31.63,360863.16,7322948.41
"18468",18468,1979,21,"kp","Giraffe",14,-24.16,31.63,360819.76,7327377.92
"18474",18474,1979,22,"kp","Giraffe",1,-24.43,31.38,335765.67,7297204.71
"18478",18478,1979,22,"kp","Giraffe",4,-24.43,31.4,337793.61,7297228.28
"18481",18481,1979,22,"kp","Giraffe",2,-24.45,31.4,337819.21,7295013.3
"18489",18489,1979,22,"kp","Giraffe",11,-24.41,31.4,337768.03,7299443.25
"18495",18495,1979,22,"kp","Giraffe",1,-24.37,31.4,337716.93,7303873.18
"18500",18500,1979,22,"kp","Giraffe",1,-24.43,31.42,339821.53,7297251.56
"18505",18505,1979,22,"kp","Giraffe",8,-24.43,31.44,341849.44,7297274.55
"18511",18511,1979,22,"kp","Giraffe",3,-24.45,31.42,339846.81,7295036.6
"18515",18515,1979,22,"kp","Giraffe",7,-24.45,31.44,341874.4,7295059.6
"18524",18524,1979,22,"kp","Giraffe",1,-24.39,31.44,341799.58,7301704.43
"18531",18531,1979,22,"kp","Giraffe",5,-24.41,31.42,339796.27,7299466.52
"18537",18537,1979,22,"kp","Giraffe",10,-24.41,31.44,341824.5,7299489.49
"18542",18542,1979,22,"kp","Giraffe",2,-24.35,31.42,339720.61,7306111.36
"18546",18546,1979,22,"kp","Giraffe",5,-24.35,31.44,341749.8,7306134.29
"18550",18550,1979,22,"kp","Giraffe",5,-24.37,31.42,339745.81,7303896.42
"18556",18556,1979,22,"kp","Giraffe",4,-24.37,31.44,341774.68,7303919.37
"18560",18560,1979,22,"kp","Giraffe",2,-24.33,31.44,341724.94,7308349.22
"18565",18565,1979,22,"kp","Giraffe",1,-24.43,31.46,343877.34,7297297.24
"18570",18570,1979,22,"kp","Giraffe",7,-24.39,31.46,343828.12,7301727.1
"18579",18579,1979,22,"kp","Giraffe",3,-24.41,31.46,343852.72,7299512.17
"18587",18587,1979,22,"kp","Giraffe",1,-24.35,31.46,343778.98,7306156.93
"18596",18596,1979,22,"kp","Giraffe",2,-24.37,31.46,343803.54,7303942.02
"18598",18598,1979,22,"kp","Giraffe",4,-24.37,31.48,345832.38,7303964.38
"18606",18606,1979,22,"kp","Giraffe",1,-24.33,31.46,343754.44,7308371.84
"18613",18613,1979,22,"kp","Giraffe",7,-24.39,31.53,350927.9,7301804.13
"18617",18617,1979,22,"kp","Giraffe",4,-24.41,31.51,348923.21,7299567.59
"18624",18624,1979,22,"kp","Giraffe",1,-24.37,31.53,350904.44,7304019
"18629",18629,1979,22,"kp","Giraffe",2,-24.31,31.53,350834.16,7310663.59
"18635",18635,1979,22,"kp","Giraffe",4,-24.33,31.53,350857.57,7308448.73
"18648",18648,1979,22,"kp","Giraffe",2,-24.37,31.55,352933.24,7304040.34
"18650",18650,1979,22,"kp","Giraffe",2,-24.37,31.57,354962.03,7304061.38
"18652",18652,1979,22,"kp","Giraffe",8,-24.31,31.55,352863.92,7310684.88
"18656",18656,1979,22,"kp","Giraffe",4,-24.31,31.57,354893.66,7310705.89
"18664",18664,1979,22,"kp","Giraffe",3,-24.37,31.59,356990.8,7304082.13
"18673",18673,1979,23,"kp","Giraffe",3,-24.22,31.65,362916.01,7320753.43
"18681",18681,1979,23,"kp","Giraffe",8,-24.14,31.63,360798.09,7329592.67
"18687",18687,1979,23,"kp","Giraffe",13,-24.14,31.65,362830.49,7329612.4
"18692",18692,1979,23,"kp","Giraffe",43,-24.16,31.65,362851.85,7327397.67
"18696",18696,1979,23,"kp","Giraffe",1,-24.12,31.65,362809.15,7331827.13
"18707",18707,1979,23,"kp","Giraffe",1,-24.18,31.67,364904.97,7325202.39
"18714",18714,1979,23,"kp","Giraffe",1,-24.2,31.67,364926.04,7322987.66
"18719",18719,1979,23,"kp","Giraffe",5,-24.14,31.67,364862.88,7329631.84
"18724",18724,1979,23,"kp","Giraffe",5,-24.14,31.69,366895.26,7329650.99
"18730",18730,1979,23,"kp","Giraffe",15,-24.16,31.67,364883.92,7327417.12
"18735",18735,1979,23,"kp","Giraffe",12,-24.1,31.67,364820.85,7334061.27
"18742",18742,1979,23,"kp","Giraffe",10,-24.1,31.69,366853.86,7334080.4
"18747",18747,1979,23,"kp","Giraffe",3,-24.12,31.67,364841.86,7331846.56
"18752",18752,1979,23,"kp","Giraffe",20,-24.12,31.69,366874.55,7331865.7
"18756",18756,1979,23,"kp","Giraffe",4,-24.08,31.67,364799.87,7336275.97
"18763",18763,1979,23,"kp","Giraffe",20,-24.08,31.69,366833.19,7336295.09
"18768",18768,1979,23,"kp","Giraffe",2,-24.26,31.71,369050.28,7316381.59
"18786",18786,1979,23,"kp","Giraffe",1,-24.2,31.73,371020.28,7323044.35
"18794",18794,1979,23,"kp","Giraffe",1,-24.16,31.71,368948.02,7327455.16
"18808",18808,1979,23,"kp","Giraffe",9,-24.12,31.71,368907.23,7331884.55
"18812",18812,1979,23,"kp","Giraffe",13,-24.08,31.71,368866.5,7336313.92
"18817",18817,1979,24,"kp","Giraffe",5,-24.28,31.57,354859.54,7314028.12
"18826",18826,1979,24,"kp","Giraffe",1,-24.37,31.61,359019.57,7304102.59
"18827",18827,1979,24,"kp","Giraffe",1,-24.31,31.61,358953.12,7310747.02
"18834",18834,1979,24,"kp","Giraffe",2,-24.26,31.61,358897.86,7316284.01
"18836",18836,1979,24,"kp","Giraffe",15,-24.28,31.59,356889.75,7314048.82
"18839",18839,1979,24,"kp","Giraffe",10,-24.28,31.61,358919.95,7314069.22
"18843",18843,1979,24,"kp","Giraffe",5,-24.35,31.63,361026.47,7306337.56
"18850",18850,1979,24,"kp","Giraffe",8,-24.31,31.63,360982.83,7310767.15
"18855",18855,1979,24,"kp","Giraffe",4,-24.33,31.63,361004.64,7308552.36
"18859",18859,1979,24,"kp","Giraffe",10,-24.33,31.65,363034.02,7308572.21
"18863",18863,1979,24,"kp","Giraffe",4,-24.28,31.63,360950.14,7314089.33
"18867",18867,1979,24,"kp","Giraffe",7,-24.28,31.65,362980.32,7314109.15
"18874",18874,1979,24,"kp","Giraffe",3,-24.35,31.67,365084.59,7306376.99
"18888",18888,1979,24,"kp","Giraffe",4,-24.33,31.67,365063.39,7308591.77
"18912",18912,1979,24,"kp","Giraffe",4,-24.39,31.76,374254.75,7302031.98
"18917",18917,1979,24,"kp","Giraffe",6,-24.39,31.78,376283.1,7302049.96
"18929",18929,1979,24,"kp","Giraffe",2,-24.28,31.76,374146.1,7314212.94
"18933",18933,1979,25,"kp","Giraffe",4,-24.1,31.73,370919.85,7334117.78
"18936",18936,1979,25,"kp","Giraffe",2,-24.12,31.73,370939.9,7331903.11
"18940",18940,1979,25,"kp","Giraffe",5,-24.08,31.73,370899.81,7336332.45
"18945",18945,1979,25,"kp","Giraffe",6,-24.14,31.78,376040.82,7329733.59
"18950",18950,1979,25,"kp","Giraffe",2,-24.1,31.76,373969.31,7334145.06
"18955",18955,1979,25,"kp","Giraffe",14,-24.1,31.78,376002.27,7334162.89
"18959",18959,1979,25,"kp","Giraffe",10,-24.12,31.76,373988.89,7331930.4
"18964",18964,1979,25,"kp","Giraffe",2,-24.12,31.78,376021.54,7331948.24
"18972",18972,1979,25,"kp","Giraffe",16,-24.06,31.76,373930.19,7338574.36
"18986",18986,1979,25,"kp","Giraffe",8,-24.08,31.78,375983.02,7336377.53
"18989",18989,1979,25,"kp","Giraffe",4,-24.01,31.76,373881.38,7344110.96
"18993",18993,1979,25,"kp","Giraffe",9,-24.01,31.78,375915.76,7344128.73
"18997",18997,1979,25,"kp","Giraffe",14,-24.03,31.76,373900.89,7341896.32
"19001",19001,1979,25,"kp","Giraffe",12,-24.03,31.78,375934.96,7341914.11
"19017",19017,1979,25,"kp","Giraffe",2,-24.1,31.82,380068.16,7334197.66
"19023",19023,1979,25,"kp","Giraffe",14,-24.12,31.8,378054.17,7331965.78
"19040",19040,1979,25,"kp","Giraffe",8,-24.08,31.8,378016.29,7336395.05
"19044",19044,1979,25,"kp","Giraffe",1,-24.08,31.82,380049.54,7336412.28
"19050",19050,1979,25,"kp","Giraffe",2,-24.01,31.8,377950.13,7344146.21
"19055",19055,1979,25,"kp","Giraffe",8,-24.01,31.82,379984.49,7344163.41
"19058",19058,1979,25,"kp","Giraffe",8,-24.03,31.8,377969.01,7341931.6
"19063",19063,1979,25,"kp","Giraffe",10,-24.18,31.84,382174.45,7325356.12
"19067",19067,1979,25,"kp","Giraffe",9,-24.18,31.86,384206.11,7325372.83
"19071",19071,1979,25,"kp","Giraffe",7,-24.14,31.84,382137.74,7329785.38
"19087",19087,1979,25,"kp","Giraffe",2,-24.1,31.86,384134.01,7334231.28
"19094",19094,1979,25,"kp","Giraffe",9,-24.12,31.84,382119.41,7332000
"19107",19107,1979,25,"kp","Giraffe",2,-24.06,31.86,384098.05,7338660.47
"19110",19110,1979,25,"kp","Giraffe",1,-24.08,31.84,382082.79,7336429.23
"19116",19116,1979,25,"kp","Giraffe",4,-24.08,31.86,384116.03,7336445.88
"19125",19125,1979,25,"kp","Giraffe",1,-24.01,31.86,384053.18,7344196.93
"19139",19139,1979,25,"kp","Giraffe",5,-24.16,31.88,386220.02,7327603.85
"19140",19140,1979,25,"kp","Giraffe",5,-24.16,31.9,388251.98,7327619.97
"19144",19144,1979,25,"kp","Giraffe",1,-24.1,31.88,386166.93,7334247.65
"19148",19148,1979,25,"kp","Giraffe",1,-24.12,31.88,386184.61,7332033.06
"19151",19151,1979,25,"kp","Giraffe",6,-24.06,31.88,386131.59,7338676.82
"19155",19155,1979,25,"kp","Giraffe",1,-24.08,31.88,386149.25,7336462.24
"19159",19159,1979,25,"kp","Giraffe",1,-23.99,31.88,386069.9,7346427.82
"19167",19167,1979,26,"kp","Giraffe",7,-24.41,31.78,376302.58,7299835.23
"19172",19172,1979,26,"kp","Giraffe",10,-24.31,31.78,376205.31,7310908.82
"19177",19177,1979,26,"kp","Giraffe",2,-24.33,31.78,376224.74,7308694.11
"19190",19190,1979,26,"kp","Giraffe",5,-24.24,31.76,374106.7,7318642.34
"19209",19209,1979,26,"kp","Giraffe",2,-24.39,31.82,380339.78,7302085.05
"19215",19215,1979,26,"kp","Giraffe",5,-24.41,31.8,378330.61,7299852.94
"19231",19231,1979,26,"kp","Giraffe",2,-24.31,31.82,380264.54,7310943.82
"19236",19236,1979,26,"kp","Giraffe",13,-24.33,31.8,378254.04,7308711.77
"19264",19264,1979,26,"kp","Giraffe",4,-24.39,31.84,382368.1,7302102.16
"19278",19278,1979,26,"kp","Giraffe",6,-24.35,31.86,384360.05,7306548.33
"19285",19285,1979,26,"kp","Giraffe",3,-24.31,31.86,384323.74,7310977.66
"19299",19299,1979,26,"kp","Giraffe",1,-24.26,31.86,384278.42,7316514.29
"19310",19310,1979,26,"kp","Giraffe",6,-24.22,31.84,382211.21,7320926.84
"19320",19320,1979,26,"kp","Giraffe",4,-24.39,31.9,388453.02,7302151.72
"19326",19326,1979,26,"kp","Giraffe",2,-24.35,31.88,386388.99,7306564.83
"19332",19332,1979,26,"kp","Giraffe",1,-24.35,31.9,388417.93,7306581.04
"19337",19337,1979,26,"kp","Giraffe",3,-24.37,31.9,388435.47,7304366.38
"19347",19347,1979,26,"kp","Giraffe",6,-24.39,31.92,390481.31,7302167.66
"19354",19354,1979,26,"kp","Giraffe",10,-24.39,31.94,392509.59,7302183.3
"19360",19360,1979,26,"kp","Giraffe",8,-24.41,31.92,390498.56,7299953
"19364",19364,1979,26,"kp","Giraffe",4,-24.41,31.94,392526.51,7299968.66
"19371",19371,1979,26,"kp","Giraffe",1,-24.37,31.92,390464.07,7304382.31
"19382",19382,1979,27,"kp","Giraffe",1,-24.24,31.86,384260.32,7318728.93
"19393",19393,1979,27,"kp","Giraffe",5,-24.26,31.88,386308.8,7316530.74
"19399",19399,1979,27,"kp","Giraffe",6,-24.28,31.88,386326.6,7314316.11
"19402",19402,1979,27,"kp","Giraffe",9,-24.28,31.9,388356.65,7314332.28
"19406",19406,1979,27,"kp","Giraffe",1,-24.22,31.88,386273.25,7320960.01
"19413",19413,1979,27,"kp","Giraffe",20,-24.24,31.9,388321.7,7318761.53
"19420",19420,1979,27,"kp","Giraffe",9,-24.2,31.9,388286.81,7323190.76
"19430",19430,1979,27,"kp","Giraffe",8,-24.37,31.94,392492.67,7304397.94
"19434",19434,1979,27,"kp","Giraffe",3,-24.31,31.92,390412.45,7311026.22
"19438",19438,1979,27,"kp","Giraffe",13,-24.31,31.94,392442.01,7311041.83
"19443",19443,1979,27,"kp","Giraffe",3,-24.33,31.92,390429.65,7308811.59
"19448",19448,1979,27,"kp","Giraffe",6,-24.33,31.94,392458.88,7308827.21
"19454",19454,1979,27,"kp","Giraffe",2,-24.26,31.92,390369.53,7316562.78
"19458",19458,1979,27,"kp","Giraffe",5,-24.28,31.92,390386.69,7314348.16
"19464",19464,1979,27,"kp","Giraffe",8,-24.28,31.94,392416.72,7314363.75
"19468",19468,1979,27,"kp","Giraffe",14,-24.22,31.92,390335.24,7320992
"19472",19472,1979,27,"kp","Giraffe",1,-24.24,31.92,390352.38,7318777.39
"19476",19476,1979,27,"kp","Giraffe",12,-24.24,31.94,392383.05,7318792.97
"19482",19482,1979,27,"kp","Giraffe",3,-24.43,31.98,396598.71,7297784.45
"19486",19486,1979,27,"kp","Giraffe",3,-24.45,31.96,394587.72,7295554.73
"19496",19496,1979,27,"kp","Giraffe",12,-24.39,31.96,394537.86,7302198.65
"19508",19508,1979,27,"kp","Giraffe",13,-24.41,31.98,396582.41,7299999.08
"19512",19512,1979,27,"kp","Giraffe",1,-24.35,31.96,394504.68,7306627.91
"19515",19515,1979,27,"kp","Giraffe",6,-24.37,31.96,394521.26,7304413.28
"19518",19518,1979,27,"kp","Giraffe",1,-24.37,31.98,396549.84,7304428.33
"19521",19521,1979,27,"kp","Giraffe",14,-24.31,31.96,394471.55,7311057.14
"19526",19526,1979,27,"kp","Giraffe",5,-24.33,31.96,394488.11,7308842.53
"19533",19533,1979,27,"kp","Giraffe",3,-24.28,31.96,394446.74,7314379.05
"19535",19535,1979,27,"kp","Giraffe",4,-24.43,32.01,399640.13,7297806.52
"19541",19541,1979,28,"kp","Giraffe",19,-24.47,31.8,378388.19,7293208.75
"19545",19545,1979,28,"kp","Giraffe",9,-24.47,31.82,380415.25,7293226.19
"19550",19550,1979,28,"kp","Giraffe",6,-24.49,31.82,380434.15,7291011.47
"19555",19555,1979,28,"kp","Giraffe",5,-24.43,31.8,378349.79,7297638.21
"19562",19562,1979,28,"kp","Giraffe",2,-24.43,31.82,380377.48,7297655.63
"19568",19568,1979,28,"kp","Giraffe",4,-24.45,31.82,380396.36,7295440.92
"19572",19572,1979,28,"kp","Giraffe",7,-24.41,31.82,380358.62,7299870.35
"19581",19581,1979,28,"kp","Giraffe",19,-24.47,31.84,382442.29,7293243.34
"19586",19586,1979,28,"kp","Giraffe",12,-24.47,31.86,384469.33,7293260.2
"19605",19605,1979,28,"kp","Giraffe",3,-24.66,31.9,388691.32,7272253.26
"19610",19610,1979,28,"kp","Giraffe",1,-24.6,31.88,386613.22,7278881.12
"19620",19620,1979,28,"kp","Giraffe",16,-24.56,31.88,386577.2,7283310.57
"19622",19622,1979,28,"kp","Giraffe",2,-24.56,31.9,388602.77,7283326.89
"19632",19632,1979,28,"kp","Giraffe",7,-24.51,31.9,388558.62,7288863.65
"19642",19642,1979,28,"kp","Giraffe",25,-24.47,31.9,388523.37,7293293.03
"19645",19645,1979,28,"kp","Giraffe",3,-24.49,31.88,386514.29,7291062.06
"19649",19649,1979,28,"kp","Giraffe",2,-24.49,31.9,388540.99,7291078.34
"19653",19653,1979,28,"kp","Giraffe",23,-24.43,31.88,386460.51,7297706.14
"19655",19655,1979,28,"kp","Giraffe",14,-24.43,31.9,388488.17,7297722.39
"19662",19662,1979,28,"kp","Giraffe",15,-24.41,31.88,386442.61,7299920.82
"19664",19664,1979,28,"kp","Giraffe",7,-24.41,31.9,388470.59,7299937.06
"19668",19668,1979,28,"kp","Giraffe",1,-24.64,31.92,390697.86,7274484.06
"19671",19671,1979,28,"kp","Giraffe",2,-24.64,31.94,392722.12,7274499.82
"19697",19697,1979,28,"kp","Giraffe",6,-24.51,31.92,390584.99,7288879.64
"19703",19703,1979,28,"kp","Giraffe",2,-24.51,31.94,392611.35,7288895.34
"19712",19712,1979,28,"kp","Giraffe",3,-24.53,31.94,392628.36,7286680.66
"19717",19717,1979,28,"kp","Giraffe",5,-24.47,31.94,392577.38,7293324.68
"19724",19724,1979,28,"kp","Giraffe",28,-24.49,31.94,392594.36,7291110.02
"19729",19729,1979,28,"kp","Giraffe",6,-24.43,31.92,390515.82,7297738.34
"19733",19733,1979,28,"kp","Giraffe",15,-24.43,31.94,392543.46,7297754
"19736",19736,1979,28,"kp","Giraffe",9,-24.45,31.92,390533.09,7295523.67
"19738",19738,1979,28,"kp","Giraffe",9,-24.45,31.94,392560.41,7295539.35
"19746",19746,1979,28,"kp","Giraffe",1,-24.56,31.96,394679.44,7283374.06
"19751",19751,1979,28,"kp","Giraffe",6,-24.58,31.96,394696.15,7281159.38
"19756",19756,1979,28,"kp","Giraffe",12,-24.51,31.96,394637.7,7288910.75
"19761",19761,1979,28,"kp","Giraffe",9,-24.53,31.96,394654.38,7286696.08
"19766",19766,1979,28,"kp","Giraffe",2,-24.47,31.96,394604.37,7293340.07
"19771",19771,1979,28,"kp","Giraffe",9,-24.49,31.96,394621.03,7291125.41
"19775",19775,1979,29,"kp","Giraffe",1,-24.64,31.78,376527.73,7274365.47
"19781",19781,1979,29,"kp","Giraffe",8,-24.6,31.78,376488.43,7278795.04
"19790",19790,1979,29,"kp","Giraffe",1,-24.51,31.76,374373.8,7288743.46
"19798",19798,1979,29,"kp","Giraffe",16,-24.72,31.82,380652.58,7265541.68
"19801",19801,1979,29,"kp","Giraffe",2,-24.68,31.8,378590.78,7269953.71
"19804",19804,1979,29,"kp","Giraffe",8,-24.68,31.82,380614.45,7269971.26
"19808",19808,1979,29,"kp","Giraffe",3,-24.7,31.82,380633.51,7267756.48
"19824",19824,1979,29,"kp","Giraffe",10,-24.6,31.8,378513.41,7278812.85
"19830",19830,1979,29,"kp","Giraffe",6,-24.62,31.8,378532.73,7276598.07
"19847",19847,1979,29,"kp","Giraffe",9,-24.51,31.82,380453.07,7288796.73
"19851",19851,1979,29,"kp","Giraffe",1,-24.53,31.8,378445.91,7286564.52
"19866",19866,1979,29,"kp","Giraffe",10,-24.76,31.84,382713.14,7261129.38
"19869",19869,1979,29,"kp","Giraffe",14,-24.76,31.86,384735.5,7261146.38
"19875",19875,1979,29,"kp","Giraffe",3,-24.78,31.86,384753.97,7258931.59
"19885",19885,1979,29,"kp","Giraffe",18,-24.74,31.84,382694.36,7263344.17
"19890",19890,1979,29,"kp","Giraffe",1,-24.74,31.86,384717.05,7263361.17
"19898",19898,1979,29,"kp","Giraffe",2,-24.64,31.84,382600.7,7274418.06
"19921",19921,1979,29,"kp","Giraffe",2,-24.56,31.84,382526.03,7283277.07
"19927",19927,1979,29,"kp","Giraffe",2,-24.58,31.86,384569.94,7281079.23
"19934",19934,1979,29,"kp","Giraffe",2,-24.76,31.88,386757.85,7261163.09
"19938",19938,1979,29,"kp","Giraffe",4,-24.78,31.88,386776,7258948.31
"19947",19947,1979,29,"kp","Giraffe",11,-24.68,31.88,386685.43,7270022.15
"19950",19950,1979,29,"kp","Giraffe",2,-24.68,31.9,388709.07,7270038.52
"19951",19951,1979,29,"kp","Giraffe",5,-24.7,31.9,388726.83,7267823.78
"19956",19956,1979,29,"kp","Giraffe",7,-24.66,31.88,386667.35,7272236.9
"19959",19959,1979,29,"kp","Giraffe",3,-24.68,31.92,390732.7,7270054.6
"19962",19962,1979,29,"kp","Giraffe",15,-24.7,31.92,390750.14,7267839.86
"19964",19964,1979,29,"kp","Giraffe",8,-24.7,31.94,392773.43,7267855.65
"19984",19984,1979,30,"kp","Giraffe",1,-24.76,31.92,390802.54,7261195.61
"19999",19999,1979,30,"kp","Giraffe",5,-24.72,31.94,392790.56,7265640.92
"20006",20006,1979,30,"kp","Giraffe",1,-24.74,31.92,390785.06,7263410.37
"20009",20009,1979,30,"kp","Giraffe",10,-24.74,31.94,392807.71,7263426.18
"20013",20013,1979,30,"kp","Giraffe",2,-24.68,31.94,392756.32,7270070.38
"20015",20015,1979,30,"kp","Giraffe",12,-24.66,31.94,392739.21,7272285.1
"20026",20026,1979,30,"kp","Giraffe",1,-24.78,31.96,394864.03,7259012.22
"20040",20040,1979,30,"kp","Giraffe",4,-24.68,31.98,396803.53,7270101.06
"20052",20052,1979,30,"kp","Giraffe",1,-24.66,31.98,396787.08,7272315.76
"20072",20072,1979,30,"kp","Giraffe",3,-24.51,31.98,396664.04,7288925.86
"20078",20078,1979,30,"kp","Giraffe",1,-24.53,31.98,396680.4,7286711.2
"20086",20086,1979,30,"kp","Giraffe",1,-24.49,31.98,396647.69,7291140.52
"20092",20092,1979,31,"kp","Giraffe",6,-24.6,31.63,361300.79,7278652.12
"20094",20094,1979,31,"kp","Giraffe",12,-24.6,31.65,363325.84,7278672.14
"20099",20099,1979,31,"kp","Giraffe",4,-24.62,31.63,361322.84,7276437.25
"20102",20102,1979,31,"kp","Giraffe",4,-24.62,31.65,363347.58,7276457.27
"20116",20116,1979,31,"kp","Giraffe",2,-24.53,31.63,361223.71,7286404.13
"20129",20129,1979,31,"kp","Giraffe",3,-24.43,31.65,363141.75,7297498.23
"20133",20133,1979,31,"kp","Giraffe",5,-24.45,31.65,363163.35,7295283.41
"20137",20137,1979,31,"kp","Giraffe",1,-24.41,31.63,361092.07,7299693.13
"20143",20143,1979,31,"kp","Giraffe",8,-24.6,31.67,365350.88,7278691.85
"20148",20148,1979,31,"kp","Giraffe",1,-24.6,31.69,367375.92,7278711.28
"20153",20153,1979,31,"kp","Giraffe",1,-24.62,31.67,365372.3,7276477.01
"20155",20155,1979,31,"kp","Giraffe",3,-24.62,31.69,367397.01,7276496.44
"20160",20160,1979,31,"kp","Giraffe",1,-24.56,31.67,365308.1,7283121.53
"20161",20161,1979,31,"kp","Giraffe",2,-24.56,31.69,367333.78,7283140.94
"20164",20164,1979,31,"kp","Giraffe",4,-24.58,31.69,367354.84,7280926.11
"20179",20179,1979,31,"kp","Giraffe",2,-24.49,31.67,365233.4,7290873.42
"20189",20189,1979,31,"kp","Giraffe",3,-24.43,31.67,365169.52,7297517.84
"20192",20192,1979,31,"kp","Giraffe",9,-24.43,31.69,367197.29,7297537.17
"20199",20199,1979,31,"kp","Giraffe",6,-24.41,31.67,365148.27,7299732.64
"20206",20206,1979,31,"kp","Giraffe",1,-24.41,31.69,367176.35,7299751.95
"20229",20229,1979,31,"kp","Giraffe",12,-24.56,31.71,369359.45,7283160.04
"20232",20232,1979,31,"kp","Giraffe",10,-24.56,31.73,371385.1,7283178.85
"20242",20242,1979,31,"kp","Giraffe",1,-24.51,31.73,371334.13,7288715.84
"20244",20244,1979,31,"kp","Giraffe",2,-24.53,31.73,371354.51,7286501.05
"20247",20247,1979,31,"kp","Giraffe",14,-24.47,31.71,369266.32,7293126.64
"20254",20254,1979,31,"kp","Giraffe",10,-24.47,31.73,371293.42,7293145.4
"20258",20258,1979,31,"kp","Giraffe",1,-24.49,31.71,369286.99,7290911.85
"20266",20266,1979,31,"kp","Giraffe",3,-24.43,31.71,369225.04,7297556.2
"20285",20285,1979,31,"kp","Giraffe",2,-24.41,31.73,371232.48,7299789.7
"20291",20291,1979,31,"kp","Giraffe",9,-24.62,31.78,376508.08,7276580.26
"20295",20295,1979,31,"kp","Giraffe",22,-24.56,31.76,374423.57,7283206.52
"20303",20303,1979,31,"kp","Giraffe",2,-24.47,31.76,374334.05,7293172.99
"20308",20308,1979,31,"kp","Giraffe",3,-24.49,31.76,374353.92,7290958.23
"20313",20313,1979,31,"kp","Giraffe",2,-24.43,31.76,374294.37,7297602.5
"20320",20320,1979,31,"kp","Giraffe",10,-24.43,31.78,376322.08,7297620.5
"20324",20324,1979,31,"kp","Giraffe",10,-24.45,31.76,374314.2,7295387.75
"20331",20331,1979,32,"kp","Giraffe",6,-24.51,31.44,341949.39,7288414.72
"20333",20333,1979,32,"kp","Giraffe",3,-24.53,31.42,339948.11,7286176.69
"20337",20337,1979,32,"kp","Giraffe",3,-24.53,31.44,341974.42,7286199.75
"20341",20341,1979,32,"kp","Giraffe",11,-24.47,31.42,339872.11,7292821.63
"20345",20345,1979,32,"kp","Giraffe",6,-24.47,31.44,341899.37,7292844.64
"20352",20352,1979,32,"kp","Giraffe",2,-24.58,31.48,346088.06,7280707.59
"20357",20357,1979,32,"kp","Giraffe",3,-24.51,31.48,346002.6,7288459.92
"20360",20360,1979,32,"kp","Giraffe",1,-24.53,31.46,344000.71,7286222.51
"20367",20367,1979,32,"kp","Giraffe",3,-24.47,31.46,343926.63,7292867.37
"20370",20370,1979,32,"kp","Giraffe",3,-24.47,31.48,345953.87,7292889.8
"20382",20382,1979,32,"kp","Giraffe",7,-24.49,31.48,345978.23,7290674.86
"20394",20394,1979,32,"kp","Giraffe",1,-24.56,31.53,351128.06,7282977.49
"20398",20398,1979,32,"kp","Giraffe",1,-24.58,31.51,349126.25,7280740.8
"20402",20402,1979,32,"kp","Giraffe",5,-24.58,31.53,351151.69,7280762.57
"20405",20405,1979,32,"kp","Giraffe",2,-24.53,31.51,349066.39,7286278.13
"20409",20409,1979,32,"kp","Giraffe",1,-24.53,31.53,351092.64,7286299.87
"20412",20412,1979,32,"kp","Giraffe",7,-24.47,31.51,348994.72,7292922.89
"20419",20419,1979,32,"kp","Giraffe",5,-24.47,31.53,351021.93,7292944.58
"20424",20424,1979,32,"kp","Giraffe",5,-24.49,31.53,351045.48,7290729.68
"20431",20431,1979,32,"kp","Giraffe",9,-24.43,31.53,350974.88,7297374.37
"20435",20435,1979,32,"kp","Giraffe",4,-24.45,31.51,348970.86,7295137.8
"20448",20448,1979,32,"kp","Giraffe",2,-24.51,31.57,355122.16,7288557.34
"20453",20453,1979,32,"kp","Giraffe",2,-24.47,31.55,353049.13,7292965.99
"20461",20461,1979,32,"kp","Giraffe",2,-24.43,31.55,353002.72,7297395.74
"20465",20465,1979,32,"kp","Giraffe",9,-24.45,31.55,353025.92,7295180.87
"20470",20470,1979,32,"kp","Giraffe",1,-24.45,31.57,355053.42,7295201.96
"20480",20480,1979,32,"kp","Giraffe",3,-24.56,31.61,359231.01,7283061.57
"20487",20487,1979,32,"kp","Giraffe",1,-24.51,31.61,359175.22,7288598.73
"20489",20489,1979,32,"kp","Giraffe",1,-24.53,31.59,357171.32,7286363.31
"20496",20496,1979,32,"kp","Giraffe",2,-24.47,31.59,357103.5,7293007.91
"20498",20498,1979,32,"kp","Giraffe",1,-24.49,31.59,357126.09,7290793.05
"20499",20499,1979,32,"kp","Giraffe",1,-24.49,31.61,359152.93,7290813.58
"20501",20501,1979,32,"kp","Giraffe",3,-24.43,31.59,357058.37,7297437.61
"20503",20503,1979,32,"kp","Giraffe",1,-24.45,31.59,357080.92,7295222.76
"20508",20508,1979,32,"kp","Giraffe",3,-24.41,31.59,357035.83,7299652.46
"20519",20519,1979,33,"kp","Giraffe",7,-24.6,31.57,355225.56,7278590.31
"20534",20534,1979,33,"kp","Giraffe",8,-24.72,31.61,359410.26,7265342.42
"20538",20538,1979,33,"kp","Giraffe",1,-24.74,31.61,359432.75,7263127.5
"20544",20544,1979,33,"kp","Giraffe",3,-24.68,31.61,359365.35,7269772.24
"20561",20561,1979,33,"kp","Giraffe",8,-24.6,31.59,357250.64,7278611.21
"20563",20563,1979,33,"kp","Giraffe",13,-24.6,31.61,359275.72,7278631.81
"20566",20566,1979,33,"kp","Giraffe",2,-24.62,31.61,359298.1,7276416.93
"20568",20568,1979,33,"kp","Giraffe",1,-24.58,31.59,357227.96,7280826.1
"20573",20573,1979,33,"kp","Giraffe",6,-24.58,31.61,359253.36,7280846.69
"20590",20590,1979,33,"kp","Giraffe",1,-24.72,31.63,361433.39,7265362.8
"20611",20611,1979,33,"kp","Giraffe",5,-24.7,31.63,361411.25,7267577.7
"20615",20615,1979,33,"kp","Giraffe",1,-24.7,31.65,363434.69,7267597.78
"20622",20622,1979,33,"kp","Giraffe",4,-24.66,31.63,361367.01,7272007.49
"20630",20630,1979,33,"kp","Giraffe",1,-24.76,31.67,365522.66,7260972.91
"20632",20632,1979,33,"kp","Giraffe",5,-24.78,31.67,365544.2,7258758.02
"20642",20642,1979,33,"kp","Giraffe",2,-24.64,31.67,365393.73,7274262.15
"20645",20645,1979,34,"kp","Giraffe",1,-24.74,31.69,367523.9,7263207.3
"20648",20648,1979,34,"kp","Giraffe",5,-24.68,31.67,365436.64,7269832.43
"20652",20652,1979,34,"kp","Giraffe",12,-24.68,31.69,367460.38,7269851.9
"20656",20656,1979,34,"kp","Giraffe",1,-24.7,31.67,365458.12,7267617.56
"20661",20661,1979,34,"kp","Giraffe",1,-24.7,31.69,367481.54,7267637.04
"20665",20665,1979,34,"kp","Giraffe",2,-24.64,31.69,367418.12,7274281.6
"20668",20668,1979,34,"kp","Giraffe",5,-24.66,31.67,365415.18,7272047.29
"20669",20669,1979,34,"kp","Giraffe",11,-24.66,31.69,367439.24,7272066.75
"20672",20672,1979,34,"kp","Giraffe",3,-24.76,31.71,369567.54,7261011.65
"20676",20676,1979,34,"kp","Giraffe",1,-24.76,31.73,371589.97,7261030.58
"20683",20683,1979,34,"kp","Giraffe",2,-24.72,31.73,371548.87,7265460.28
"20687",20687,1979,34,"kp","Giraffe",15,-24.74,31.71,369546.66,7263226.51
"20693",20693,1979,34,"kp","Giraffe",7,-24.74,31.73,371569.41,7263245.43
"20699",20699,1979,34,"kp","Giraffe",4,-24.68,31.71,369484.11,7269871.07
"20705",20705,1979,34,"kp","Giraffe",1,-24.68,31.73,371507.83,7269889.95
"20710",20710,1979,34,"kp","Giraffe",6,-24.7,31.71,369504.95,7267656.23
"20721",20721,1979,34,"kp","Giraffe",12,-24.64,31.71,369442.49,7274300.75
"20724",20724,1979,34,"kp","Giraffe",5,-24.64,31.73,371466.86,7274319.61
"20727",20727,1979,34,"kp","Giraffe",3,-24.66,31.71,369463.3,7272085.92
"20733",20733,1979,34,"kp","Giraffe",12,-24.72,31.78,376606.51,7265506.24
"20739",20739,1979,34,"kp","Giraffe",3,-24.74,31.76,374603.52,7263273.25
"20742",20742,1979,34,"kp","Giraffe",5,-24.74,31.78,376626.24,7263291.42
"20748",20748,1979,34,"kp","Giraffe",13,-24.68,31.78,376567.09,7269935.86
"20753",20753,1979,34,"kp","Giraffe",2,-24.64,31.76,374503.39,7274347.34
"20757",20757,1979,34,"kp","Giraffe",1,-24.66,31.76,374523.39,7272132.54
"20759",20759,1979,34,"kp","Giraffe",2,-24.66,31.78,376547.41,7272150.67
"20761",20761,1979,34,"kp","Giraffe",1,-24.62,31.76,374483.41,7276562.15
"20763",20763,1979,34,"kp","Giraffe",5,-24.76,31.8,378668.38,7261094.49
"20766",20766,1979,34,"kp","Giraffe",1,-24.72,31.8,378629.55,7265524.11
"20768",20768,1979,34,"kp","Giraffe",6,-24.74,31.8,378648.96,7263309.3
"20774",20774,1979,34,"kp","Giraffe",6,-24.74,31.82,380671.67,7263326.89
"20776",20776,1979,34,"kp","Giraffe",12,-24.7,31.8,378610.16,7267738.91
"20785",20785,1979,35,"kp","Giraffe",4,-24.97,31.57,355654.38,7237613.59
"20787",20787,1979,35,"kp","Giraffe",1,-24.97,31.59,357673.46,7237634.71
"20793",20793,1979,35,"kp","Giraffe",1,-24.97,31.61,359692.54,7237655.55
"20796",20796,1979,35,"kp","Giraffe",1,-24.99,31.59,357696.49,7235419.71
"20806",20806,1979,35,"kp","Giraffe",1,-24.83,31.61,359534.14,7253160.3
"20810",20810,1979,35,"kp","Giraffe",5,-24.97,31.63,361711.6,7237676.08
"20812",20812,1979,35,"kp","Giraffe",7,-24.97,31.65,363730.65,7237696.31
"20818",20818,1979,35,"kp","Giraffe",1,-24.95,31.63,361689.25,7239891.05
"20823",20823,1979,35,"kp","Giraffe",4,-24.89,31.63,361622.29,7246535.93
"20826",20826,1979,35,"kp","Giraffe",1,-24.89,31.65,363642.65,7246556.11
"20834",20834,1979,35,"kp","Giraffe",2,-24.91,31.65,363664.62,7244341.17
"20843",20843,1979,35,"kp","Giraffe",1,-24.87,31.63,361600,7248750.87
"20855",20855,1979,35,"kp","Giraffe",1,-24.83,31.65,363576.81,7253200.9
"20860",20860,1979,35,"kp","Giraffe",4,-24.93,31.67,365706.31,7242146.14
"20864",20864,1979,35,"kp","Giraffe",9,-24.95,31.67,365728,7239931.2
"20870",20870,1979,35,"kp","Giraffe",3,-24.95,31.69,367747.35,7239950.83
"20873",20873,1979,35,"kp","Giraffe",5,-24.89,31.67,365662.99,7246576
"20880",20880,1979,35,"kp","Giraffe",8,-24.91,31.67,365684.64,7244361.07
"20885",20885,1979,35,"kp","Giraffe",3,-24.91,31.69,367704.65,7244380.68
"20891",20891,1979,35,"kp","Giraffe",1,-24.85,31.69,367640.73,7251025.42
"20904",20904,1979,35,"kp","Giraffe",2,-24.93,31.71,369745.67,7242185.07
"20906",20906,1979,35,"kp","Giraffe",9,-24.93,31.73,371765.33,7242204.1
"20913",20913,1979,35,"kp","Giraffe",5,-24.95,31.73,371786.04,7239989.19
"20928",20928,1979,35,"kp","Giraffe",6,-24.87,31.71,369682.67,7248829.79
"20931",20931,1979,35,"kp","Giraffe",1,-24.87,31.73,371703.31,7248848.78
"20938",20938,1979,36,"kp","Giraffe",7,-24.81,31.71,369619.81,7255474.46
"20942",20942,1979,36,"kp","Giraffe",22,-24.81,31.73,371641.43,7255493.42
"20949",20949,1979,36,"kp","Giraffe",8,-24.78,31.71,369588.44,7258796.78
"20952",20952,1979,36,"kp","Giraffe",15,-24.78,31.73,371610.54,7258815.72
"20958",20958,1979,36,"kp","Giraffe",2,-24.89,31.78,376774.71,7246680.09
"20962",20962,1979,36,"kp","Giraffe",9,-24.85,31.76,374714.1,7251091.57
"20965",20965,1979,36,"kp","Giraffe",2,-24.85,31.78,376735.04,7251109.81
"20972",20972,1979,36,"kp","Giraffe",7,-24.81,31.78,376695.42,7255539.51
"20974",20974,1979,36,"kp","Giraffe",2,-24.83,31.78,376715.22,7253324.66
"20978",20978,1979,36,"kp","Giraffe",10,-24.78,31.76,374643.68,7258843.57
"20986",20986,1979,36,"kp","Giraffe",18,-24.89,31.8,378794.99,7246698.05
"20993",20993,1979,36,"kp","Giraffe",16,-24.89,31.82,380815.26,7246715.71
"21003",21003,1979,36,"kp","Giraffe",7,-24.85,31.82,380776.89,7251145.39
"21009",21009,1979,36,"kp","Giraffe",6,-24.87,31.8,378775.47,7248912.9
"21013",21013,1979,36,"kp","Giraffe",1,-24.81,31.8,378717.01,7255557.42
"21017",21017,1979,36,"kp","Giraffe",1,-24.81,31.82,380738.58,7255575.04
"21021",21021,1979,36,"kp","Giraffe",8,-24.83,31.8,378736.48,7253342.59
"21026",21026,1979,36,"kp","Giraffe",11,-24.83,31.82,380757.73,7253360.22
"21038",21038,1979,36,"kp","Giraffe",10,-24.89,31.84,382835.53,7246733.08
"21045",21045,1979,36,"kp","Giraffe",1,-24.85,31.84,382797.8,7251162.73
"21052",21052,1979,36,"kp","Giraffe",2,-24.87,31.84,382816.66,7248947.91
"21061",21061,1979,36,"kp","Giraffe",4,-24.81,31.84,382760.14,7255592.37
"21075",21075,1979,36,"kp","Giraffe",16,-24.89,31.88,386876.02,7246766.92
"21080",21080,1979,36,"kp","Giraffe",3,-24.85,31.88,386839.6,7251196.53
"21086",21086,1979,36,"kp","Giraffe",2,-24.87,31.88,386857.8,7248981.73
"21112",21112,1979,37,"kp","Giraffe",13,-24.85,31.9,388860.48,7251212.99
"21117",21117,1979,37,"kp","Giraffe",19,-24.87,31.9,388878.36,7248998.19
"21121",21121,1979,37,"kp","Giraffe",3,-24.83,31.9,388842.62,7253427.78
"21128",21128,1979,37,"kp","Giraffe",10,-25.16,31.94,393170.72,7216915.33
"21139",21139,1979,37,"kp","Giraffe",1,-24.97,31.92,390986.88,7237940.35
"21146",21146,1979,37,"kp","Giraffe",2,-24.97,31.94,393005.79,7237956.26
"21155",21155,1979,37,"kp","Giraffe",5,-24.93,31.92,390951.65,7242369.97
"21164",21164,1979,37,"kp","Giraffe",9,-24.95,31.92,390969.26,7240155.16
"21176",21176,1979,37,"kp","Giraffe",1,-24.89,31.94,392936.7,7246815.45
"21188",21188,1979,37,"kp","Giraffe",13,-24.85,31.92,390881.36,7251229.15
"21193",21193,1979,37,"kp","Giraffe",2,-24.85,31.94,392902.23,7251245.01
"21197",21197,1979,37,"kp","Giraffe",25,-24.87,31.92,390898.91,7249014.36
"21204",21204,1979,37,"kp","Giraffe",2,-24.87,31.94,392919.45,7249030.23
"21216",21216,1979,37,"kp","Giraffe",2,-25.14,31.98,397185.53,7219161.28
"21230",21230,1979,37,"kp","Giraffe",1,-25.12,31.96,395152.35,7221360.73
"21233",21233,1979,37,"kp","Giraffe",10,-25.12,31.98,397168.79,7221376.12
"21237",21237,1979,37,"kp","Giraffe",2,-25.06,31.96,395101.2,7228005.23
"21243",21243,1979,37,"kp","Giraffe",13,-25.06,31.98,397118.62,7228020.59
"21248",21248,1979,37,"kp","Giraffe",4,-25.08,31.98,397135.33,7225805.77
"21252",21252,1979,37,"kp","Giraffe",9,-25.01,31.96,395058.66,7233542.27
"21259",21259,1979,37,"kp","Giraffe",1,-25.03,31.96,395075.67,7231327.46
"21282",21282,1979,37,"kp","Giraffe",1,-24.93,31.96,394990.77,7242401.47
"21291",21291,1979,37,"kp","Giraffe",5,-24.89,31.98,396977.1,7246846.32
"21302",21302,1979,37,"kp","Giraffe",1,-24.85,31.98,396943.94,7251275.84
"21305",21305,1979,37,"kp","Giraffe",2,-24.87,31.96,394939.99,7249045.81
"21309",21309,1979,37,"kp","Giraffe",11,-24.87,31.98,396960.51,7249061.09
"21314",21314,1979,37,"kp","Giraffe",1,-24.81,31.98,396910.82,7255705.34
"21323",21323,1979,37,"kp","Giraffe",3,-24.83,31.98,396927.37,7253490.6
"21332",21332,1979,37,"kp","Giraffe",10,-25.14,32.01,400209.68,7219183.82
"21334",21334,1979,37,"kp","Giraffe",7,-25.14,32.03,402225.78,7219198.47
"21342",21342,1979,37,"kp","Giraffe",1,-25.1,32.01,400177.19,7223613.46
"21347",21347,1979,37,"kp","Giraffe",1,-25.1,32.03,402193.94,7223628.1
"21350",21350,1979,37,"kp","Giraffe",1,-25.12,32.01,400193.43,7221398.64
"21356",21356,1979,37,"kp","Giraffe",2,-25.06,32.01,400144.74,7228043.08
"21364",21364,1979,37,"kp","Giraffe",7,-25.08,32.03,402178.04,7225842.9
"21371",21371,1979,37,"kp","Giraffe",2,-25.03,32.01,400120.44,7231365.28
"21379",21379,1979,37,"kp","Giraffe",9,-24.93,32.01,400039.63,7242439.18
"21390",21390,1979,38,"kp","Giraffe",5,-24.97,31.78,376854.24,7237820.58
"21393",21393,1979,38,"kp","Giraffe",6,-24.99,31.78,376874.16,7235605.69
"21402",21402,1979,38,"kp","Giraffe",5,-25.01,31.8,378912.42,7233408.82
"21405",21405,1979,38,"kp","Giraffe",2,-25.01,31.82,380930.73,7233426.54
"21412",21412,1979,38,"kp","Giraffe",5,-25.03,31.82,380950.02,7231211.66
"21414",21414,1979,38,"kp","Giraffe",5,-24.97,31.8,378873.22,7237838.59
"21431",21431,1979,38,"kp","Giraffe",2,-25.06,31.84,382996.48,7227906.78
"21446",21446,1979,38,"kp","Giraffe",19,-25.01,31.84,382949.03,7233443.97
"21453",21453,1979,38,"kp","Giraffe",7,-25.03,31.84,382968,7231229.1
"21457",21457,1979,38,"kp","Giraffe",5,-25.03,31.86,384985.97,7231246.24
"21466",21466,1979,38,"kp","Giraffe",3,-24.99,31.86,384948.7,7235675.96
"21469",21469,1979,38,"kp","Giraffe",1,-24.93,31.84,382873.3,7242303.4
"21482",21482,1979,38,"kp","Giraffe",5,-25.1,31.9,389084.93,7223527.63
"21490",21490,1979,38,"kp","Giraffe",4,-25.06,31.88,387031.42,7227940.79
"21501",21501,1979,38,"kp","Giraffe",1,-25.01,31.88,386985.61,7233477.93
"21512",21512,1979,38,"kp","Giraffe",10,-24.99,31.88,386967.31,7235692.78
"21520",21520,1979,38,"kp","Giraffe",2,-24.95,31.88,386930.75,7240122.45
"21525",21525,1979,38,"kp","Giraffe",4,-24.95,31.9,388950.01,7240138.95
"21535",21535,1979,38,"kp","Giraffe",2,-25.1,31.94,393118.51,7223559.89
"21571",21571,1979,39,"kp","Giraffe",2,-25.14,31.23,321574.47,7218379.02
"21577",21577,1979,39,"kp","Giraffe",3,-25.16,31.21,319587.36,7216137.09
"21610",21610,1979,39,"kp","Giraffe",1,-25.08,31.23,321487.31,7225024.88
"21616",21616,1979,39,"kp","Giraffe",3,-25.14,31.28,326615.72,7218444.27
"21620",21620,1979,39,"kp","Giraffe",10,-25.16,31.26,324627.83,7216203.12
"21626",21626,1979,39,"kp","Giraffe",3,-25.16,31.28,326643.99,7216229.01
"21641",21641,1979,39,"kp","Giraffe",2,-25.06,31.26,324485.04,7227279.44
"21646",21646,1979,39,"kp","Giraffe",3,-25.08,31.26,324513.56,7225064.18
"21661",21661,1979,39,"kp","Giraffe",3,-25.03,31.28,326460.61,7230628.09
"21680",21680,1979,39,"kp","Giraffe",1,-25.1,31.32,330593.5,7222925.56
"21694",21694,1979,39,"kp","Giraffe",2,-25.01,31.3,328451.09,7232868.8
"21701",21701,1979,39,"kp","Giraffe",2,-25.03,31.3,328478.89,7230653.59
"21704",21704,1979,39,"kp","Giraffe",2,-25.03,31.32,330497.17,7230678.78
"21720",21720,1979,39,"kp","Giraffe",7,-25.06,31.34,332556.19,7227380.9
"21739",21739,1979,39,"kp","Giraffe",6,-25.03,31.34,332515.42,7230703.68
"21756",21756,1979,39,"kp","Giraffe",14,-25.03,31.38,336551.9,7230752.57
"21778",21778,1979,40,"kp","Giraffe",2,-25.35,31.28,326913.62,7195183.79
"21794",21794,1979,40,"kp","Giraffe",3,-25.33,31.28,326885.15,7197399.1
"21803",21803,1979,40,"kp","Giraffe",3,-25.26,31.28,326785.67,7205152.64
"21831",21831,1979,40,"kp","Giraffe",4,-25.18,31.26,324656.45,7213987.84
"21879",21879,1979,40,"kp","Giraffe",1,-25.22,31.3,328744.09,7209608.84
"21884",21884,1979,40,"kp","Giraffe",17,-25.22,31.32,330759.24,7209634.17
"21889",21889,1979,40,"kp","Giraffe",2,-25.24,31.3,328772.12,7207393.57
"21904",21904,1979,40,"kp","Giraffe",4,-25.18,31.32,330703.91,7214064.66
"21913",21913,1979,40,"kp","Giraffe",1,-25.2,31.32,330731.57,7211849.42
"21921",21921,1979,40,"kp","Giraffe",5,-25.16,31.32,330676.28,7216279.89
"21960",21960,1979,40,"kp","Giraffe",1,-25.22,31.38,336804.61,7209708.37
"21964",21964,1979,41,"kp","Giraffe",3,-25.35,31.34,332952.61,7195260.07
"21980",21980,1979,41,"kp","Giraffe",2,-25.33,31.34,332925.14,7197475.34
"22001",22001,1979,41,"kp","Giraffe",1,-25.35,31.38,336978.54,7195309.43
"22015",22015,1979,41,"kp","Giraffe",3,-25.37,31.38,337005.38,7193094.18
"22052",22052,1979,41,"kp","Giraffe",3,-25.24,31.38,336831.31,7207493.17
"22079",22079,1979,41,"kp","Giraffe",3,-25.14,31.4,338714.4,7218593.23
"22097",22097,1979,41,"kp","Giraffe",1,-25.12,31.4,338688.12,7220808.39
"22100",22100,1979,41,"kp","Giraffe",3,-25.31,31.42,340952.14,7199787.99
"22115",22115,1979,41,"kp","Giraffe",2,-25.26,31.44,342901.31,7205349.54
"22134",22134,1979,41,"kp","Giraffe",2,-25.24,31.42,340860.83,7207541.16
"22186",22186,1979,41,"kp","Giraffe",3,-25.26,31.48,346930.09,7205395.76
"22212",22212,1979,41,"kp","Giraffe",8,-25.18,31.46,344814.2,7214233.4
"22234",22234,1979,41,"kp","Giraffe",1,-25.16,31.48,346804.91,7216471.43
"22268",22268,1979,41,"kp","Giraffe",8,-25.2,31.51,349877.97,7212074.99
"22278",22278,1979,41,"kp","Giraffe",7,-25.14,31.53,351820.79,7218742.44
"22281",22281,1979,41,"kp","Giraffe",8,-25.16,31.51,349828.94,7216505.21
"22288",22288,1979,41,"kp","Giraffe",17,-25.16,31.53,351844.94,7216527.35
"22302",22302,1979,42,"kp","Giraffe",6,-25.31,31.53,352026.7,7199914.03
"22324",22324,1979,42,"kp","Giraffe",5,-25.18,31.53,351869.12,7214312.26
"22355",22355,1979,42,"kp","Giraffe",2,-25.28,31.55,354004.29,7203258.64
"22374",22374,1979,42,"kp","Giraffe",2,-25.18,31.55,353884.79,7214334.12
"22386",22386,1979,42,"kp","Giraffe",4,-25.2,31.55,353908.65,7212119.03
"22393",22393,1979,42,"kp","Giraffe",1,-25.2,31.57,355923.97,7212140.6
"22398",22398,1979,42,"kp","Giraffe",10,-25.14,31.55,353837.11,7218764.27
"22402",22402,1979,42,"kp","Giraffe",1,-25.14,31.57,355853.42,7218785.8
"22414",22414,1979,42,"kp","Giraffe",16,-25.1,31.55,353789.5,7223194.4
"22425",22425,1979,42,"kp","Giraffe",3,-25.06,31.55,353741.97,7227624.5
"22433",22433,1979,42,"kp","Giraffe",2,-25.08,31.55,353765.73,7225409.45
"22450",22450,1979,42,"kp","Giraffe",19,-25.22,31.59,357962.51,7209946.81
"22454",22454,1979,42,"kp","Giraffe",6,-25.22,31.61,359977.48,7209967.79
"22473",22473,1979,42,"kp","Giraffe",2,-25.2,31.61,359954.59,7212182.85
"22507",22507,1979,43,"kp","Giraffe",2,-25.06,31.4,338609.41,7227453.86
"22518",22518,1979,43,"kp","Giraffe",4,-25.03,31.4,338570.12,7230776.58
"22528",22528,1979,43,"kp","Giraffe",1,-25.06,31.42,340627.12,7227477.58
"22537",22537,1979,43,"kp","Giraffe",1,-25.08,31.44,342670.39,7225285.89
"22556",22556,1979,43,"kp","Giraffe",3,-25.06,31.48,346680.19,7227546.96
"22569",22569,1979,43,"kp","Giraffe",2,-25.01,31.48,346618.01,7233084.67
"22572",22572,1979,43,"kp","Giraffe",4,-25.03,31.46,344624.7,7230846.79
"22590",22590,1979,43,"kp","Giraffe",1,-25.06,31.53,351724.34,7227602.72
"22593",22593,1979,43,"kp","Giraffe",2,-25.08,31.51,349731.1,7225365.57
"22600",22600,1979,43,"kp","Giraffe",2,-25.01,31.51,349645.73,7233118.31
"22605",22605,1979,43,"kp","Giraffe",9,-25.01,31.53,351664.2,7233140.35
"22619",22619,1979,43,"kp","Giraffe",1,-25.01,31.55,353682.65,7233162.1
"22624",22624,1979,43,"kp","Giraffe",2,-25.03,31.55,353706.37,7230947.07
"22630",22630,1979,43,"kp","Giraffe",2,-24.99,31.57,355677.73,7235398.57
"22658",22658,1979,44,"kp","Giraffe",7,-25.26,31.67,366066.19,7205598.89
"22680",22680,1979,44,"kp","Giraffe",1,-25.31,31.73,372161.4,7200119.9
"22691",22691,1979,44,"kp","Giraffe",1,-25.22,31.71,370052.18,7210068.21
"22703",22703,1979,44,"kp","Giraffe",1,-25.18,31.71,370009.7,7214498.19
"22709",22709,1979,44,"kp","Giraffe",1,-25.2,31.71,370030.93,7212283.2
"22725",22725,1979,44,"kp","Giraffe",6,-25.26,31.76,375130.32,7205685.65
"22729",22729,1979,44,"kp","Giraffe",1,-25.26,31.78,377144.54,7205704.11
"22734",22734,1979,44,"kp","Giraffe",1,-25.28,31.78,377164.68,7203489.14
"22748",22748,1979,44,"kp","Giraffe",3,-25.35,31.82,381260.71,7195772.78
"22763",22763,1979,44,"kp","Giraffe",3,-25.26,31.8,379158.75,7205722.26
"22765",22765,1979,44,"kp","Giraffe",7,-25.28,31.8,379178.56,7203507.3
"22785",22785,1979,44,"kp","Giraffe",2,-25.37,31.86,385305,7193592.72
"22797",22797,1979,44,"kp","Giraffe",3,-25.33,31.84,383254.22,7198005.35
"22801",22801,1979,44,"kp","Giraffe",5,-25.33,31.86,385267.25,7198022.64
"22806",22806,1979,44,"kp","Giraffe",3,-25.26,31.84,383187.15,7205757.67
"22819",22819,1979,44,"kp","Giraffe",2,-25.35,31.88,387298.81,7195824.68
"22836",22836,1979,45,"kp","Giraffe",13,-25.26,31.82,381172.96,7205740.12
"22854",22854,1979,45,"kp","Giraffe",2,-25.24,31.82,381153.5,7207955.06
"22860",22860,1979,45,"kp","Giraffe",2,-25.18,31.8,379079.68,7214582.06
"22879",22879,1979,45,"kp","Giraffe",2,-25.16,31.82,381075.8,7216814.8
"22887",22887,1979,45,"kp","Giraffe",5,-25.22,31.84,383148.9,7210187.54
"22895",22895,1979,45,"kp","Giraffe",2,-25.24,31.84,383168.02,7207972.61
"22899",22899,1979,45,"kp","Giraffe",3,-25.24,31.86,385182.54,7207989.85
"22905",22905,1979,45,"kp","Giraffe",1,-25.18,31.84,383110.71,7214617.39
"22910",22910,1979,45,"kp","Giraffe",5,-25.18,31.86,385126.22,7214634.6
"22915",22915,1979,45,"kp","Giraffe",14,-25.2,31.84,383129.8,7212402.47
"22921",22921,1979,45,"kp","Giraffe",1,-25.2,31.86,385144.98,7212419.69
"22928",22928,1979,45,"kp","Giraffe",1,-25.14,31.84,383072.58,7219047.21
"22935",22935,1979,45,"kp","Giraffe",2,-25.16,31.84,383091.64,7216832.3
"22955",22955,1979,45,"kp","Giraffe",1,-25.33,31.9,389293.29,7198056.31
"22959",22959,1979,45,"kp","Giraffe",11,-25.26,31.88,387215.52,7205791.88
"22972",22972,1979,45,"kp","Giraffe",8,-25.22,31.88,387178.59,7210221.71
"22976",22976,1979,45,"kp","Giraffe",7,-25.22,31.9,389193.42,7210238.34
"23008",23008,1979,45,"kp","Giraffe",7,-25.14,31.9,389121.04,7219097.89
"23015",23015,1979,45,"kp","Giraffe",2,-25.16,31.88,387123.3,7216866.41
"23019",23019,1979,45,"kp","Giraffe",2,-25.16,31.9,389139.11,7216883.01
"23030",23030,1979,45,"kp","Giraffe",3,-25.26,31.92,391243.84,7205824.89
"23043",23043,1979,45,"kp","Giraffe",1,-25.24,31.92,391226.03,7208039.78
"23077",23077,1979,45,"kp","Giraffe",10,-25.16,31.92,391154.92,7216899.32
"23082",23082,1979,46,"kp","Giraffe",8,-25.39,31.94,393371.94,7191444.02
"23088",23088,1979,46,"kp","Giraffe",4,-25.35,31.94,393336.82,7195873.87
"23091",23091,1979,46,"kp","Giraffe",2,-25.37,31.94,393354.38,7193658.94
"23096",23096,1979,46,"kp","Giraffe",6,-25.33,31.92,391306.29,7198072.7
"23108",23108,1979,46,"kp","Giraffe",1,-25.26,31.94,393258,7205840.94
"23113",23113,1979,46,"kp","Giraffe",10,-25.28,31.94,393275.49,7203626.04
"23119",23119,1979,46,"kp","Giraffe",3,-25.43,31.96,395418.44,7187029.98
"23127",23127,1979,46,"kp","Giraffe",19,-25.39,31.96,395383.93,7191459.83
"23134",23134,1979,46,"kp","Giraffe",3,-25.39,31.98,397395.92,7191475.34
"23139",23139,1979,46,"kp","Giraffe",10,-25.41,31.96,395401.18,7189244.91
"23149",23149,1979,46,"kp","Giraffe",6,-25.35,31.96,395349.48,7195889.66
"23157",23157,1979,46,"kp","Giraffe",10,-25.37,31.96,395366.7,7193674.75
"23162",23162,1979,46,"kp","Giraffe",3,-25.37,31.98,397379.01,7193690.25
"23170",23170,1979,46,"kp","Giraffe",3,-25.31,31.96,395315.07,7200319.47
"23176",23176,1979,46,"kp","Giraffe",2,-25.31,31.98,397328.38,7200334.94
"23183",23183,1979,46,"kp","Giraffe",1,-25.33,31.96,395332.27,7198104.57
"23198",23198,1979,46,"kp","Giraffe",6,-25.28,31.96,395289.3,7203641.81
"23211",23211,1979,46,"kp","Giraffe",6,-25.22,31.96,395237.85,7210286.45
"23229",23229,1979,46,"kp","Giraffe",5,-25.18,31.98,397219.06,7214731.59
"23240",23240,1979,46,"kp","Giraffe",1,-25.39,32.01,400413.88,7191498.04
"23244",23244,1979,46,"kp","Giraffe",1,-25.35,32.01,400381.08,7195927.83
"23251",23251,1979,46,"kp","Giraffe",2,-25.31,32.01,400348.33,7200357.59
"23253",23253,1979,46,"kp","Giraffe",1,-25.33,32.01,400364.7,7198142.71
"23263",23263,1979,46,"kp","Giraffe",8,-25.28,32.01,400323.8,7203679.9
"23268",23268,1979,46,"kp","Giraffe",2,-25.22,32.01,400274.82,7210324.47
"23274",23274,1979,46,"kp","Giraffe",4,-25.24,32.01,400291.13,7208109.62
"23282",23282,1979,46,"kp","Giraffe",6,-25.2,32.01,400258.52,7212539.32
"23353",23353,1979,47,"kp","Giraffe",1,-22.64,31.28,323248.99,7495309.77
"23428",23428,1979,48,"kp","Giraffe",2,-22.87,31.36,331753.63,7469935.1
"23469",23469,1979,48,"kp","Giraffe",4,-22.74,31.38,333648.01,7484352.45
"23481",23481,1979,48,"kp","Giraffe",5,-22.87,31.42,337910.1,7470002.35
"23486",23486,1979,48,"kp","Giraffe",3,-22.83,31.42,337862.66,7474431.44
"23574",23574,1979,49,"kp","Giraffe",7,-22.95,31.42,338005.22,7461144.11
"23611",23611,1979,50,"kp","Giraffe",3,-23.08,31.44,340209.41,7446771.31
"23618",23618,1979,50,"kp","Giraffe",1,-23.14,31.48,344376.48,7440170.79
"23696",23696,1979,51,"kp","Giraffe",3,-22.66,31.3,325329.97,7493118.81
"23698",23698,1979,51,"kp","Giraffe",3,-22.66,31.32,327385.33,7493142.17
"23701",23701,1979,51,"kp","Giraffe",3,-22.72,31.36,331569.38,7486544.42
"23708",23708,1979,51,"kp","Giraffe",1,-22.7,31.36,331544.91,7488758.97
"23710",23710,1979,51,"kp","Giraffe",3,-22.66,31.36,331496.01,7493188.07
"23718",23718,1979,52,"kp","Giraffe",1,-23.14,31.19,314678.83,7439831.55
"23737",23737,1979,52,"kp","Giraffe",1,-23.18,31.21,316781.49,7435427.27
"23752",23752,1979,52,"kp","Giraffe",1,-23.14,31.23,318775.24,7439881.86
"23772",23772,1979,52,"kp","Giraffe",2,-23.14,31.28,323895.67,7439943.16
"23789",23789,1979,52,"kp","Giraffe",5,-23.03,31.28,323752.25,7452124.09
"23794",23794,1979,52,"kp","Giraffe",4,-23.16,31.3,325969.66,7437752.48
"23899",23899,1979,53,"kp","Giraffe",3,-23.1,30.98,293110.25,7443978.93
"23970",23970,1979,53,"kp","Giraffe",2,-23.01,31.03,298098.45,7454016.09
"24019",24019,1979,53,"kp","Giraffe",1,-23.14,31.11,306485.81,7439727.56
"24030",24030,1979,53,"kp","Giraffe",1,-23.12,31.11,306457.1,7441942.43
"24192",24192,1979,54,"kp","Giraffe",6,-22.89,31.11,306128.63,7467413.06
"24219",24219,1979,54,"kp","Giraffe",1,-22.95,31.15,310316.32,7460820.84
"24221",24221,1979,54,"kp","Giraffe",5,-22.91,31.13,308208.83,7465224.47
"24257",24257,1979,54,"kp","Giraffe",7,-23.06,31.23,318667.83,7448740.9
"24268",24268,1979,54,"kp","Giraffe",2,-23.03,31.23,318627.65,7452063.01
"24282",24282,1979,54,"kp","Giraffe",1,-23.03,31.26,321702.42,7452099.87
"24440",24440,1979,56,"kp","Giraffe",2,-25.35,31.44,343017.35,7195381.19
"24452",24452,1979,56,"kp","Giraffe",1,-25.35,31.46,345030.26,7195404.51
"24487",24487,1979,56,"kp","Giraffe",3,-25.43,31.53,352172.84,7186623.15
"24491",24491,1979,56,"kp","Giraffe",1,-25.39,31.51,350111.85,7191031.18
"24499",24499,1979,56,"kp","Giraffe",1,-25.41,31.53,352148.44,7188838.31
"24519",24519,1979,56,"kp","Giraffe",1,-25.31,31.51,350013.17,7199891.79
"24538",24538,1979,56,"kp","Giraffe",12,-25.39,31.55,354136.25,7191075.46
"24543",24543,1979,56,"kp","Giraffe",5,-25.41,31.55,354160.3,7188860.32
"24547",24547,1979,56,"kp","Giraffe",4,-25.35,31.55,354088.2,7195505.73
"24553",24553,1979,56,"kp","Giraffe",1,-25.35,31.57,356101.04,7195527.39
"24561",24561,1979,56,"kp","Giraffe",14,-25.37,31.57,356124.73,7193312.27
"24565",24565,1979,56,"kp","Giraffe",1,-25.33,31.55,354064.2,7197720.85
