"","ID","Year","Cenb","Sp","Description","No","Lat","Long","X.coord","Y.coord"
"400982",400982,1995,5,"d","Duiker",3,-23.66,31.48,344983.29,7382590.05
"403970",403970,1995,17,"d","Duiker",3,-24.12,31.79,377037.85,7331957.05
