"","ID","Year","Cenb","Sp","Description","No","Lat","Long","X.coord","Y.coord"
"71580",71580,1982,1,"sb","Sable antelope bull",1,-23.97,31.57,354509.27,7348357.17
"71620",71620,1982,1,"sb","Sable antelope bull",1,-24.01,31.59,356588.71,7343948.21
"72136",72136,1982,1,"sb","Sable antelope bull",1,-23.95,31.67,364663.85,7350671.42
"72348",72348,1982,2,"sb","Sable antelope bull",1,-23.97,31.38,335175.07,7348148.05
"72350",72350,1982,2,"sb","Sable antelope bull",1,-23.99,31.38,335200.52,7345933.18
"72365",72365,1982,2,"sb","Sable antelope bull",1,-23.95,31.38,335149.63,7350362.92
"72524",72524,1982,2,"sb","Sable antelope bull",1,-24.01,31.51,348450.7,7343864.39
"72812",72812,1982,3,"sb","Sable antelope bull",1,-23.89,31.19,315726.07,7356772.88
"72824",72824,1982,3,"sb","Sable antelope bull",1,-23.91,31.17,313718.1,7354531.65
"72837",72837,1982,3,"sb","Sable antelope bull",1,-23.87,31.17,313660.78,7358961.68
"72838",72838,1982,3,"sb","Sable antelope bull",1,-23.87,31.17,313660.78,7358961.68
"72877",72877,1982,3,"sb","Sable antelope bull",1,-24.01,31.23,319966.02,7343534.57
"72985",72985,1982,3,"sb","Sable antelope bull",1,-23.91,31.23,319827.04,7354609.46
"72987",72987,1982,3,"sb","Sable antelope bull",1,-23.87,31.21,317734.67,7359013.77
"73142",73142,1982,3,"sb","Sable antelope bull",1,-23.95,31.28,324971.67,7350242.46
"73143",73143,1982,3,"sb","Sable antelope bull",1,-23.95,31.28,324971.67,7350242.46
"73154",73154,1982,3,"sb","Sable antelope bull",1,-23.89,31.28,324890.77,7356887.25
"73155",73155,1982,3,"sb","Sable antelope bull",1,-23.89,31.28,324890.77,7356887.25
"73156",73156,1982,3,"sb","Sable antelope bull",1,-23.89,31.28,324890.77,7356887.25
"73172",73172,1982,3,"sb","Sable antelope bull",1,-23.91,31.28,324917.72,7354672.32
"73270",73270,1982,3,"sb","Sable antelope bull",1,-23.97,31.3,327033.99,7348052.2
"73271",73271,1982,3,"sb","Sable antelope bull",2,-23.97,31.3,327033.99,7348052.2
"73320",73320,1982,3,"sb","Sable antelope bull",1,-23.89,31.3,326927.33,7356911.87
"73469",73469,1982,3,"sb","Sable antelope bull",1,-23.89,31.34,331000.41,7356960.25
"73945",73945,1982,4,"sb","Sable antelope bull",1,-23.87,31.28,324863.85,7359102.17
"73946",73946,1982,4,"sb","Sable antelope bull",1,-23.87,31.28,324863.85,7359102.17
"73950",73950,1982,4,"sb","Sable antelope bull",1,-23.81,31.26,322745.37,7365722.05
"74182",74182,1982,4,"sb","Sable antelope bull",2,-23.85,31.36,332985.61,7361413.72
"74195",74195,1982,4,"sb","Sable antelope bull",1,-23.81,31.34,330896.59,7365819.71
"74604",74604,1982,6,"sb","Sable antelope bull",1,-23.6,31.36,332666.68,7389098.93
"74691",74691,1982,6,"sb","Sable antelope bull",1,-23.7,31.38,334833.34,7378048.27
"74797",74797,1982,6,"sb","Sable antelope bull",1,-23.68,31.44,340927.44,7380331.29
"74825",74825,1982,6,"sb","Sable antelope bull",1,-23.6,31.44,340830.7,7389190.23
"74850",74850,1982,6,"sb","Sable antelope bull",1,-23.58,31.44,340806.56,7391404.95
"75013",75013,1982,7,"sb","Sable antelope bull",3,-23.62,31.21,317386.26,7386700.53
"75047",75047,1982,7,"sb","Sable antelope bull",2,-23.66,31.28,324582.42,7382358.5
"75089",75089,1982,7,"sb","Sable antelope bull",1,-23.62,31.3,326569.85,7386812.63
"75123",75123,1982,8,"sb","Sable antelope bull",3,-23.45,31.23,319194.78,7405552.33
"75149",75149,1982,8,"sb","Sable antelope bull",1,-23.47,31.28,324329.82,7403399.46
"75167",75167,1982,8,"sb","Sable antelope bull",1,-23.41,31.26,322206.42,7410019.34
"75178",75178,1982,8,"sb","Sable antelope bull",1,-23.56,31.3,326490.93,7393457.11
"75206",75206,1982,8,"sb","Sable antelope bull",1,-23.53,31.3,326451.54,7396779.34
"75225",75225,1982,8,"sb","Sable antelope bull",1,-23.47,31.32,328415.98,7403447.76
"75226",75226,1982,8,"sb","Sable antelope bull",3,-23.47,31.32,328415.98,7403447.76
"75246",75246,1982,8,"sb","Sable antelope bull",1,-23.43,31.32,328364.28,7407877.31
"75294",75294,1982,8,"sb","Sable antelope bull",1,-23.51,31.34,330510.21,7399041.94
"75511",75511,1982,9,"sb","Sable antelope bull",1,-23.58,31.13,309164.91,7391025.96
"75571",75571,1982,9,"sb","Sable antelope bull",1,-23.6,31.17,313276.23,7388863.79
"75583",75583,1982,9,"sb","Sable antelope bull",1,-23.62,31.19,315345.42,7386674.83
"75584",75584,1982,9,"sb","Sable antelope bull",5,-23.62,31.19,315345.42,7386674.83
"75609",75609,1982,9,"sb","Sable antelope bull",1,-23.58,31.19,315289.38,7391104.67
"75610",75610,1982,9,"sb","Sable antelope bull",1,-23.58,31.19,315289.38,7391104.67
"75630",75630,1982,9,"sb","Sable antelope bull",1,-23.47,31.19,315135.72,7403286.62
"75632",75632,1982,9,"sb","Sable antelope bull",1,-23.49,31.17,313120.74,7401045.86
"75634",75634,1982,9,"sb","Sable antelope bull",1,-23.49,31.19,315163.61,7401071.73
"75661",75661,1982,9,"sb","Sable antelope bull",1,-23.51,31.21,317234.06,7398882.44
"75666",75666,1982,9,"sb","Sable antelope bull",1,-23.53,31.21,317261.68,7396667.56
"75694",75694,1982,9,"sb","Sable antelope bull",1,-23.45,31.21,317151.32,7405527.06
"75695",75695,1982,9,"sb","Sable antelope bull",1,-23.45,31.21,317151.32,7405527.06
"75713",75713,1982,9,"sb","Sable antelope bull",1,-23.53,31.26,322367.2,7396730.37
"75766",75766,1982,10,"sb","Sable antelope bull",1,-23.47,31.07,302876.44,7403127.21
"75981",75981,1982,10,"sb","Sable antelope bull",1,-23.41,31.09,304831.54,7409799.39
"75992",75992,1982,10,"sb","Sable antelope bull",1,-23.35,31.11,306788.69,7416471.12
"75993",75993,1982,10,"sb","Sable antelope bull",1,-23.35,31.11,306788.69,7416471.12
"75998",75998,1982,10,"sb","Sable antelope bull",1,-23.37,31.11,306817.67,7414256.2
"75999",75999,1982,10,"sb","Sable antelope bull",1,-23.37,31.11,306817.67,7414256.2
"76019",76019,1982,10,"sb","Sable antelope bull",1,-23.43,31.13,308948.6,7407638.06
"76037",76037,1982,10,"sb","Sable antelope bull",3,-23.41,31.13,308919.85,7409852.99
"76038",76038,1982,10,"sb","Sable antelope bull",3,-23.41,31.15,310963.98,7409879.36
"76045",76045,1982,10,"sb","Sable antelope bull",1,-23.37,31.15,310907.18,7414309.16
"76051",76051,1982,10,"sb","Sable antelope bull",1,-23.31,31.15,310822.15,7420953.82
"76061",76061,1982,10,"sb","Sable antelope bull",8,-23.33,31.15,310850.47,7418738.94
"76068",76068,1982,10,"sb","Sable antelope bull",1,-23.39,31.19,315024.4,7412146.13
"76080",76080,1982,10,"sb","Sable antelope bull",1,-23.35,31.19,314968.87,7416575.85
"76082",76082,1982,10,"sb","Sable antelope bull",1,-23.37,31.17,312951.91,7414335.22
"76304",76304,1982,11,"sb","Sable antelope bull",1,-23.37,31.3,326242.27,7414497.67
"76483",76483,1982,12,"sb","Sable antelope bull",1,-23.28,31.07,302595.11,7424169.39
"76495",76495,1982,12,"sb","Sable antelope bull",1,-23.22,31.05,300459.62,7430786.86
"76524",76524,1982,12,"sb","Sable antelope bull",1,-23.26,31.11,306658.57,7426438.23
"76644",76644,1982,12,"sb","Sable antelope bull",1,-23.28,31.19,314871.91,7424327.81
"77350",77350,1982,15,"sb","Sable antelope bull",1,-23.37,31.38,334420.65,7414591.68
"77380",77380,1982,15,"sb","Sable antelope bull",1,-23.33,31.4,336416.17,7419043.86
"77496",77496,1982,15,"sb","Sable antelope bull",1,-23.39,31.53,349777.06,7412541.14
"77740",77740,1982,18,"sb","Sable antelope bull",1,-23.18,31.44,340327.87,7435698.3
"77741",77741,1982,18,"sb","Sable antelope bull",1,-23.18,31.44,340327.87,7435698.3
"77862",77862,1982,18,"sb","Sable antelope bull",1,-23.18,31.46,342375.3,7435720.11
"77927",77927,1982,18,"sb","Sable antelope bull",1,-23.28,31.53,349653.25,7424721.39
"77990",77990,1982,19,"sb","Sable antelope bull",1,-23.51,31.57,353997.35,7399294.65
"77999",77999,1982,19,"sb","Sable antelope bull",1,-23.49,31.57,353975.31,7401509.25
"78011",78011,1982,19,"sb","Sable antelope bull",1,-23.56,31.59,356094.05,7393778.33
"78954",78954,1982,21,"sb","Sable antelope bull",1,-24.26,31.48,345699.28,7316146.27
"79034",79034,1982,21,"sb","Sable antelope bull",1,-24.18,31.55,352714.28,7325081.23
"82018",82018,1982,27,"sb","Sable antelope bull",1,-24.31,31.9,388382.89,7311010.33
"82019",82019,1982,27,"sb","Sable antelope bull",1,-24.31,31.9,388382.89,7311010.33
"82109",82109,1982,27,"sb","Sable antelope bull",1,-24.28,31.9,388356.65,7314332.28
"84561",84561,1982,30,"sb","Sable antelope bull",1,-24.64,31.96,394746.38,7274515.29
"85078",85078,1982,31,"sb","Sable antelope bull",1,-24.43,31.67,365169.52,7297517.84
"85538",85538,1982,32,"sb","Sable antelope bull",1,-24.53,31.53,351092.64,7286299.87
"85651",85651,1982,32,"sb","Sable antelope bull",2,-24.51,31.61,359175.22,7288598.73
"85672",85672,1982,32,"sb","Sable antelope bull",1,-24.49,31.61,359152.93,7290813.58
"86829",86829,1982,35,"sb","Sable antelope bull",1,-24.89,31.73,371723.97,7246633.89
"86864",86864,1982,35,"sb","Sable antelope bull",1,-24.85,31.71,369661.7,7251044.69
"86899",86899,1982,36,"sb","Sable antelope bull",1,-24.81,31.73,371641.43,7255493.42
"86915",86915,1982,36,"sb","Sable antelope bull",1,-24.83,31.73,371662.04,7253278.54
"86962",86962,1982,36,"sb","Sable antelope bull",2,-24.87,31.76,374734.25,7248876.71
"86975",86975,1982,36,"sb","Sable antelope bull",1,-24.81,31.76,374673.83,7255521.29
"87202",87202,1982,36,"sb","Sable antelope bull",1,-24.89,31.88,386876.02,7246766.92
"87203",87203,1982,36,"sb","Sable antelope bull",2,-24.89,31.88,386876.02,7246766.92
"88393",88393,1982,38,"sb","Sable antelope bull",6,-24.89,31.82,380815.26,7246715.71
"88529",88529,1982,38,"sb","Sable antelope bull",1,-24.93,31.84,382873.3,7242303.4
"88533",88533,1982,38,"sb","Sable antelope bull",1,-24.93,31.86,384892.9,7242320.49
"88590",88590,1982,38,"sb","Sable antelope bull",2,-25.06,31.9,389048.88,7227957.35
"88658",88658,1982,38,"sb","Sable antelope bull",1,-25.03,31.92,391039.81,7231295.87
"88685",88685,1982,39,"sb","Sable antelope bull",2,-25.14,31.21,319557.94,7218352.4
"88686",88686,1982,39,"sb","Sable antelope bull",3,-25.14,31.21,319557.94,7218352.4
"88693",88693,1982,39,"sb","Sable antelope bull",1,-25.14,31.23,321574.47,7218379.02
"88698",88698,1982,39,"sb","Sable antelope bull",2,-25.16,31.21,319587.36,7216137.09
"88720",88720,1982,39,"sb","Sable antelope bull",1,-25.12,31.21,319528.54,7220567.71
"88751",88751,1982,39,"sb","Sable antelope bull",1,-25.08,31.21,319469.8,7224998.3
"88781",88781,1982,39,"sb","Sable antelope bull",1,-25.14,31.26,324599.23,7218418.4
"88782",88782,1982,39,"sb","Sable antelope bull",1,-25.14,31.26,324599.23,7218418.4
"88786",88786,1982,39,"sb","Sable antelope bull",1,-25.14,31.28,326615.72,7218444.27
"88818",88818,1982,39,"sb","Sable antelope bull",1,-25.06,31.28,326502.85,7227305.25
"88933",88933,1982,39,"sb","Sable antelope bull",1,-25.14,31.3,328632.2,7218469.85
"88939",88939,1982,39,"sb","Sable antelope bull",1,-25.1,31.32,330593.5,7222925.56
"89048",89048,1982,39,"sb","Sable antelope bull",1,-25.14,31.34,332665.12,7218520.1
"89049",89049,1982,39,"sb","Sable antelope bull",4,-25.14,31.34,332665.12,7218520.1
"89060",89060,1982,39,"sb","Sable antelope bull",1,-25.12,31.34,332637.86,7220735.31
"89073",89073,1982,39,"sb","Sable antelope bull",1,-25.08,31.34,332583.39,7225165.71
"89197",89197,1982,40,"sb","Sable antelope bull",2,-25.16,31.23,321603.56,7216163.73
"89228",89228,1982,40,"sb","Sable antelope bull",1,-25.31,31.28,326856.7,7199614.4
"89273",89273,1982,40,"sb","Sable antelope bull",1,-25.28,31.28,326814.06,7202937.35
"89390",89390,1982,40,"sb","Sable antelope bull",1,-25.31,31.3,328870.37,7199640.1
"89426",89426,1982,40,"sb","Sable antelope bull",1,-25.28,31.3,328828.23,7202963.03
"89430",89430,1982,40,"sb","Sable antelope bull",1,-25.28,31.32,330842.39,7202988.4
"89473",89473,1982,40,"sb","Sable antelope bull",1,-25.18,31.32,330703.91,7214064.66
"89511",89511,1982,40,"sb","Sable antelope bull",1,-25.14,31.34,332665.12,7218520.1
"89524",89524,1982,41,"sb","Sable antelope bull",1,-25.26,31.32,330814.65,7205203.67
"89645",89645,1982,41,"sb","Sable antelope bull",1,-25.24,31.34,332801.74,7207443.97
"89712",89712,1982,41,"sb","Sable antelope bull",3,-25.37,31.38,337005.38,7193094.18
"89740",89740,1982,41,"sb","Sable antelope bull",2,-25.26,31.4,338872.47,7205302.11
"89741",89741,1982,41,"sb","Sable antelope bull",8,-25.26,31.4,338872.47,7205302.11
"89777",89777,1982,41,"sb","Sable antelope bull",1,-25.24,31.4,338846.08,7207517.31
"89792",89792,1982,41,"sb","Sable antelope bull",1,-25.18,31.38,336751.26,7214138.77
"89798",89798,1982,41,"sb","Sable antelope bull",1,-25.18,31.4,338767.01,7214162.88
"89828",89828,1982,41,"sb","Sable antelope bull",1,-25.16,31.38,336724.61,7216353.97
"89874",89874,1982,41,"sb","Sable antelope bull",7,-25.26,31.42,340886.9,7205325.98
"89895",89895,1982,41,"sb","Sable antelope bull",1,-25.28,31.44,342927.06,7203134.36
"90027",90027,1982,41,"sb","Sable antelope bull",1,-25.22,31.46,344864.92,7209803.11
"90113",90113,1982,41,"sb","Sable antelope bull",1,-25.16,31.46,344788.87,7216448.53
"90175",90175,1982,41,"sb","Sable antelope bull",1,-25.18,31.51,349853.44,7214290.1
"90467",90467,1982,42,"sb","Sable antelope bull",2,-25.14,31.57,355853.42,7218785.8
"90487",90487,1982,42,"sb","Sable antelope bull",1,-25.16,31.55,353860.94,7216549.2
"94202",94202,1982,47,"sb","Sable antelope bull",1,-22.83,31.19,314255.21,7474160.38
"94205",94205,1982,47,"sb","Sable antelope bull",1,-22.76,31.19,314160.31,7481911.89
"94245",94245,1982,47,"sb","Sable antelope bull",1,-22.81,31.21,316281.27,7476400.12
"94357",94357,1982,48,"sb","Sable antelope bull",1,-22.91,31.21,316415.71,7465326.55
"94380",94380,1982,48,"sb","Sable antelope bull",1,-22.85,31.23,318387.57,7471995.48
"94402",94402,1982,48,"sb","Sable antelope bull",1,-22.83,31.23,318361,7474210.17
"94437",94437,1982,48,"sb","Sable antelope bull",1,-22.87,31.28,323544.8,7469841.53
"94441",94441,1982,48,"sb","Sable antelope bull",1,-22.81,31.28,323467.35,7476485.48
"94492",94492,1982,48,"sb","Sable antelope bull",3,-22.81,31.32,327573.6,7476532.73
"94505",94505,1982,48,"sb","Sable antelope bull",1,-22.78,31.3,325482.29,7479831.18
"94675",94675,1982,49,"sb","Sable antelope bull",1,-22.93,31.23,318494.05,7463136.65
"94755",94755,1982,49,"sb","Sable antelope bull",1,-22.93,31.3,325673.76,7463221.38
"94912",94912,1982,50,"sb","Sable antelope bull",1,-23.06,31.4,336087.24,7448941.61
"94926",94926,1982,50,"sb","Sable antelope bull",1,-23.03,31.4,336050.92,7452263.53
"94943",94943,1982,50,"sb","Sable antelope bull",1,-23.06,31.42,338136.52,7448963.89
"95180",95180,1982,51,"sb","Sable antelope bull",3,-22.62,31.36,331447.2,7497617.14
"95224",95224,1982,52,"sb","Sable antelope bull",1,-23.08,31.19,314596.42,7446475.94
"95357",95357,1982,52,"sb","Sable antelope bull",2,-23.06,31.26,321741.93,7448777.79
"95518",95518,1982,52,"sb","Sable antelope bull",1,-23.06,31.36,331988.65,7448896.21
"95566",95566,1982,52,"sb","Sable antelope bull",1,-23.06,31.38,334037.96,7448919.05
"95634",95634,1982,53,"sb","Sable antelope bull",1,-22.99,30.94,288840.67,7456104.19
"95681",95681,1982,53,"sb","Sable antelope bull",1,-23.08,30.98,293079.61,7446193.91
"95843",95843,1982,53,"sb","Sable antelope bull",1,-23.03,31.05,300178.25,7451828.62
"95865",95865,1982,53,"sb","Sable antelope bull",1,-23.14,31.09,304437.52,7439700.85
"95884",95884,1982,53,"sb","Sable antelope bull",1,-23.1,31.11,306428.42,7444157.29
"95940",95940,1982,53,"sb","Sable antelope bull",1,-23.14,31.13,308534.09,7439753.98
"95946",95946,1982,53,"sb","Sable antelope bull",1,-23.14,31.15,310582.35,7439780.12
"95968",95968,1982,53,"sb","Sable antelope bull",2,-23.1,31.15,310526.17,7444209.78
"95978",95978,1982,53,"sb","Sable antelope bull",1,-23.06,31.15,310470.08,7448639.42
"96253",96253,1982,54,"sb","Sable antelope bull",1,-22.97,31.15,310344.22,7458606.05
"96452",96452,1982,55,"sb","Sable antelope bull",6,-22.87,31.01,295838.14,7469492.78
"96474",96474,1982,55,"sb","Sable antelope bull",1,-22.83,31.03,297831.42,7473950.1
"96489",96489,1982,55,"sb","Sable antelope bull",1,-22.76,31.03,297728.11,7481702.11
"96546",96546,1982,55,"sb","Sable antelope bull",1,-22.87,31.07,301995.43,7469574.67
"96562",96562,1982,55,"sb","Sable antelope bull",1,-22.83,31.05,299884.45,7473977.36
"96578",96578,1982,55,"sb","Sable antelope bull",1,-22.76,31.07,301836.26,7481756.22
"96610",96610,1982,55,"sb","Sable antelope bull",1,-22.87,31.09,304047.83,7469601.41
"96615",96615,1982,55,"sb","Sable antelope bull",1,-22.87,31.11,306100.21,7469627.87
"96644",96644,1982,55,"sb","Sable antelope bull",1,-22.78,31.11,305972.63,7479594.44
"96670",96670,1982,55,"sb","Sable antelope bull",1,-22.87,31.15,310204.92,7469679.96
"96677",96677,1982,55,"sb","Sable antelope bull",1,-22.83,31.13,308096.41,7474083.62
"96682",96682,1982,55,"sb","Sable antelope bull",1,-22.76,31.13,307998.36,7481835.31
"96722",96722,1982,55,"sb","Sable antelope bull",1,-22.81,31.17,312174.85,7476349.81
"96766",96766,1982,55,"sb","Sable antelope bull",1,-22.85,31.23,318387.57,7471995.48
"96769",96769,1982,55,"sb","Sable antelope bull",1,-22.87,31.21,316361.87,7469755.99
"96965",96965,1982,56,"sb","Sable antelope bull",1,-25.31,31.51,350013.17,7199891.79
"96966",96966,1982,56,"sb","Sable antelope bull",1,-25.31,31.51,350013.17,7199891.79
