"","ID","Year","Cenb","Sp","Description","No","Lat","Long","X.coord","Y.coord"
"101141",101141,1983,7,"rk","Roan antelope calf",2,-23.62,31.21,317386.26,7386700.53
"102399",102399,1983,11,"rk","Roan antelope calf",3,-23.26,31.28,324052.87,7426654.7
"102533",102533,1983,12,"rk","Roan antelope calf",2,-23.24,31.01,296395.71,7428516.35
"102793",102793,1983,13,"rk","Roan antelope calf",2,-23.64,31.51,348020.2,7384837
"103024",103024,1983,13,"rk","Roan antelope calf",1,-23.68,31.59,356225.1,7380490.56
"103186",103186,1983,14,"rk","Roan antelope calf",1,-23.51,31.4,336637.46,7399111.49
"103360",103360,1983,14,"rk","Roan antelope calf",6,-23.51,31.48,344806.94,7399200.25
"103566",103566,1983,15,"rk","Roan antelope calf",1,-23.39,31.38,334445.5,7412376.97
"103729",103729,1983,18,"rk","Roan antelope calf",6,-23.24,31.32,328119.84,7428917.4
"104099",104099,1983,18,"rk","Roan antelope calf",2,-23.22,31.46,342422.21,7431290.89
"117044",117044,1983,48,"rk","Roan antelope calf",1,-22.78,31.32,327535.85,7479854.64
"117398",117398,1983,49,"rk","Roan antelope calf",2,-22.95,31.38,333903.33,7461099.43
"117620",117620,1983,50,"rk","Roan antelope calf",2,-23.18,31.53,349541.17,7435794.21
"117645",117645,1983,50,"rk","Roan antelope calf",1,-23.1,31.51,347403.25,7444631.61
"118014",118014,1983,52,"rk","Roan antelope calf",6,-23.06,31.36,331988.65,7448896.21
"118342",118342,1983,53,"rk","Roan antelope calf",2,-23.03,31.07,302228.25,7451855.79
