"","ID","Year","Cenb","Sp","Description","No","Lat","Long","X.coord","Y.coord"
"71638",71638,1982,1,"b","Buffalo",150,-23.99,31.61,358601.33,7346183.16
"71829",71829,1982,1,"b","Buffalo",100,-23.93,31.63,360571.58,7352847.17
"71869",71869,1982,1,"b","Buffalo",300,-23.95,31.63,360593.07,7350632.48
"72596",72596,1982,2,"b","Buffalo",30,-23.89,31.53,350346.79,7357174.31
"72679",72679,1982,2,"b","Buffalo",500,-23.95,31.55,352451.38,7350551.13
"72899",72899,1982,3,"b","Buffalo",500,-23.97,31.23,319910.36,7347964.54
"72957",72957,1982,3,"b","Buffalo",100,-23.95,31.21,317846.9,7350153.84
"73349",73349,1982,3,"b","Buffalo",30,-24.06,31.34,331222.11,7338133.62
"73580",73580,1982,4,"b","Buffalo",150,-23.85,31.19,315669.42,7361202.86
"73775",73775,1982,4,"b","Buffalo",100,-23.87,31.23,319771.6,7359039.39
"74202",74202,1982,4,"b","Buffalo",180,-23.76,31.34,330831.88,7371356.83
"74214",74214,1982,4,"b","Buffalo",120,-23.78,31.34,330857.75,7369141.99
"74230",74230,1982,5,"b","Buffalo",70,-23.83,31.36,332959.97,7363628.57
"74423",74423,1982,5,"b","Buffalo",200,-23.78,31.46,343086.98,7369279.73
"74474",74474,1982,5,"b","Buffalo",60,-23.83,31.53,350277.82,7363818.51
"74597",74597,1982,6,"b","Buffalo",200,-23.66,31.36,332742.93,7382454.56
"74729",74729,1982,6,"b","Buffalo",130,-23.56,31.4,336699.22,7393574.65
"74753",74753,1982,6,"b","Buffalo",17,-23.72,31.42,338936.81,7375879.3
"75010",75010,1982,7,"b","Buffalo",80,-23.6,31.23,319399.67,7388940.83
"75048",75048,1982,7,"b","Buffalo",15,-23.6,31.26,322461.34,7388978.38
"75049",75049,1982,7,"b","Buffalo",40,-23.6,31.26,322461.34,7388978.38
"75052",75052,1982,7,"b","Buffalo",80,-23.6,31.28,324502.44,7389003.07
"75182",75182,1982,8,"b","Buffalo",200,-23.56,31.32,328532.62,7393481.19
"75229",75229,1982,8,"b","Buffalo",100,-23.49,31.3,326399.1,7401208.95
"75251",75251,1982,8,"b","Buffalo",200,-23.45,31.3,326346.74,7405638.54
"75276",75276,1982,8,"b","Buffalo",250,-23.41,31.32,328338.46,7410092.08
"75426",75426,1982,9,"b","Buffalo",100,-23.51,31.11,307021.2,7398751.57
"75434",75434,1982,9,"b","Buffalo",125,-23.53,31.09,305008.05,7396509.55
"75458",75458,1982,9,"b","Buffalo",40,-23.49,31.11,306992.05,7400966.53
"75500",75500,1982,9,"b","Buffalo",150,-23.56,31.13,309135.99,7393240.93
"75505",75505,1982,9,"b","Buffalo",50,-23.56,31.15,311177.81,7393267.43
"75541",75541,1982,9,"b","Buffalo",15,-23.47,31.13,309006.15,7403208.2
"75707",75707,1982,9,"b","Buffalo",120,-23.58,31.26,322434.42,7391193.24
"75796",75796,1982,10,"b","Buffalo",50,-23.43,31.07,302817.03,7407557.18
"75797",75797,1982,10,"b","Buffalo",130,-23.43,31.07,302817.03,7407557.18
"75915",75915,1982,10,"b","Buffalo",200,-23.43,31.09,304860.9,7407584.43
"76010",76010,1982,10,"b","Buffalo",50,-23.43,31.13,308948.6,7407638.06
"76177",76177,1982,11,"b","Buffalo",250,-23.22,31.23,318883,7431022.74
"76241",76241,1982,11,"b","Buffalo",400,-23.22,31.26,321953.44,7431059.84
"76248",76248,1982,11,"b","Buffalo",50,-23.22,31.28,324000.38,7431084.21
"76259",76259,1982,11,"b","Buffalo",230,-23.24,31.26,321979.98,7428845.07
"76332",76332,1982,11,"b","Buffalo",180,-23.28,31.3,326125.15,7424464.08
"76337",76337,1982,11,"b","Buffalo",400,-23.22,31.3,326047.31,7431108.3
"76402",76402,1982,12,"b","Buffalo",150,-23.18,30.98,293233.05,7435118.96
"76694",76694,1982,13,"b","Buffalo",200,-23.76,31.53,350197.57,7371570.01
"76747",76747,1982,13,"b","Buffalo",100,-23.66,31.53,350083.3,7382643.47
"76823",76823,1982,13,"b","Buffalo",150,-23.66,31.55,352123.28,7382664.33
"77088",77088,1982,13,"b","Buffalo",400,-23.7,31.63,360325.63,7378315.7
"77359",77359,1982,15,"b","Buffalo",25,-23.31,31.38,334346.2,7421235.79
"77515",77515,1982,15,"b","Buffalo",40,-23.35,31.53,349731.97,7416970.34
"77534",77534,1982,15,"b","Buffalo",100,-23.31,31.51,347641.57,7421378.61
"77537",77537,1982,15,"b","Buffalo",150,-23.33,31.51,347664.37,7419164.01
"77649",77649,1982,18,"b","Buffalo",150,-23.16,31.38,334160.88,7437845.84
"77692",77692,1982,18,"b","Buffalo",40,-23.26,31.42,338376.77,7426817.65
"77847",77847,1982,18,"b","Buffalo",100,-23.24,31.48,344492.18,7429097.85
"77928",77928,1982,18,"b","Buffalo",500,-23.22,31.51,347539.18,7431344.25
"77944",77944,1982,18,"b","Buffalo",40,-23.24,31.51,347561.9,7429129.67
"78053",78053,1982,19,"b","Buffalo",45,-23.72,31.65,362385.92,7376120.54
"78091",78091,1982,19,"b","Buffalo",60,-23.6,31.63,360219.4,7389388.75
"78173",78173,1982,19,"b","Buffalo",230,-23.76,31.69,366504.64,7371729.43
"78209",78209,1982,19,"b","Buffalo",300,-23.74,31.69,366484.25,7373944.03
"78970",78970,1982,21,"b","Buffalo",50,-24.2,31.48,345626.92,7322790.86
"79013",79013,1982,21,"b","Buffalo",3,-24.12,31.51,348579.91,7331682.99
"79014",79014,1982,21,"b","Buffalo",100,-24.12,31.51,348579.91,7331682.99
"79028",79028,1982,21,"b","Buffalo",600,-24.18,31.55,352714.28,7325081.23
"79097",79097,1982,21,"b","Buffalo",300,-24.2,31.59,356800.22,7322908
"79165",79165,1982,21,"b","Buffalo",550,-24.14,31.63,360798.09,7329592.67
"79181",79181,1982,22,"b","Buffalo",100,-24.47,31.4,337844.82,7292798.32
"79362",79362,1982,22,"b","Buffalo",300,-24.39,31.42,339771.03,7301681.47
"79562",79562,1982,22,"b","Buffalo",100,-24.41,31.46,343852.72,7299512.17
"79649",79649,1982,22,"b","Buffalo",250,-24.28,31.48,345723.44,7313931.39
"79706",79706,1982,22,"b","Buffalo",7,-24.41,31.51,348923.21,7299567.59
"79709",79709,1982,22,"b","Buffalo",1,-24.41,31.53,350951.38,7299589.25
"80120",80120,1982,23,"b","Buffalo",550,-24.28,31.73,371100.92,7314185.51
"80890",80890,1982,25,"b","Buffalo",100,-24.14,31.8,378073.13,7329751.14
"81178",81178,1982,25,"b","Buffalo",150,-24.12,31.86,384152.02,7332016.68
"81335",81335,1982,25,"b","Buffalo",350,-24.14,31.9,388234.58,7329834.56
"81807",81807,1982,26,"b","Buffalo",500,-24.35,31.9,388417.93,7306581.04
"82493",82493,1982,27,"b","Buffalo",18,-24.43,31.96,394571.09,7297769.37
"82494",82494,1982,27,"b","Buffalo",20,-24.43,31.96,394571.09,7297769.37
"82617",82617,1982,27,"b","Buffalo",10,-24.39,31.98,396566.12,7302213.71
"83197",83197,1982,28,"b","Buffalo",250,-24.43,31.88,386460.51,7297706.14
"83700",83700,1982,29,"b","Buffalo",100,-24.51,31.78,376400.23,7288761.51
"83712",83712,1982,29,"b","Buffalo",3,-24.49,31.78,376380.67,7290976.27
"83867",83867,1982,29,"b","Buffalo",400,-24.53,31.82,380472,7286581.99
"84918",84918,1982,31,"b","Buffalo",150,-24.43,31.63,361113.97,7297478.31
"85207",85207,1982,31,"b","Buffalo",200,-24.53,31.73,371354.51,7286501.05
"85674",85674,1982,32,"b","Buffalo",550,-24.43,31.59,357058.37,7297437.61
"85703",85703,1982,32,"b","Buffalo",3,-24.41,31.59,357035.83,7299652.46
"85704",85704,1982,32,"b","Buffalo",100,-24.41,31.59,357035.83,7299652.46
"85939",85939,1982,34,"b","Buffalo",250,-24.72,31.67,365479.62,7265402.68
"86744",86744,1982,35,"b","Buffalo",250,-24.89,31.69,367683.33,7246595.6
"86760",86760,1982,35,"b","Buffalo",150,-24.91,31.69,367704.65,7244380.68
"86934",86934,1982,36,"b","Buffalo",500,-24.85,31.76,374714.1,7251091.57
"87179",87179,1982,36,"b","Buffalo",25,-24.83,31.86,384800.19,7253394.59
"87699",87699,1982,37,"b","Buffalo",150,-25.1,31.96,395135.29,7223575.57
"87773",87773,1982,37,"b","Buffalo",400,-25.08,31.98,397135.33,7225805.77
"88119",88119,1982,37,"b","Buffalo",200,-25.06,32.01,400144.74,7228043.08
"88238",88238,1982,38,"b","Buffalo",250,-24.97,31.78,376854.24,7237820.58
"88564",88564,1982,38,"b","Buffalo",800,-25.1,31.9,389084.93,7223527.63
"88688",88688,1982,39,"b","Buffalo",160,-25.14,31.23,321574.47,7218379.02
"88892",88892,1982,39,"b","Buffalo",12,-24.97,31.26,324356.99,7237248
"89682",89682,1982,41,"b","Buffalo",1,-25.35,31.38,336978.54,7195309.43
"89804",89804,1982,41,"b","Buffalo",60,-25.2,31.38,336777.92,7211923.58
"89964",89964,1982,41,"b","Buffalo",400,-25.16,31.42,340756.77,7216401.85
"90169",90169,1982,41,"b","Buffalo",4,-25.22,31.51,349902.51,7209859.88
"92314",92314,1982,44,"b","Buffalo",100,-25.37,31.82,381280.25,7193557.81
"92601",92601,1982,44,"b","Buffalo",300,-25.31,31.84,383235.04,7200220.3
"92710",92710,1982,45,"b","Buffalo",30,-25.2,31.78,377084.22,7212349
"93131",93131,1982,45,"b","Buffalo",600,-25.28,31.9,389247.84,7203593.62
"93607",93607,1982,46,"b","Buffalo",50,-25.43,31.96,395418.44,7187029.98
"93939",93939,1982,46,"b","Buffalo",200,-25.18,31.96,395203.61,7214716.18
"94194",94194,1982,47,"b","Buffalo",250,-22.64,31.15,309886.72,7495149.47
"94214",94214,1982,47,"b","Buffalo",400,-22.74,31.17,312078.98,7484101.36
"94342",94342,1982,47,"b","Buffalo",60,-22.76,31.34,329564.57,7482092.41
"94344",94344,1982,48,"b","Buffalo",4,-22.89,31.21,316388.78,7467541.27
"94372",94372,1982,48,"b","Buffalo",50,-22.85,31.23,318387.57,7471995.48
"94532",94532,1982,48,"b","Buffalo",150,-22.85,31.36,331729,7472149.69
"94661",94661,1982,49,"b","Buffalo",4,-22.93,31.23,318494.05,7463136.65
"95019",95019,1982,50,"b","Buffalo",80,-23.14,31.53,349496.47,7440223.3
"95022",95022,1982,50,"b","Buffalo",400,-23.16,31.51,347471.13,7437987.95
"95077",95077,1982,50,"b","Buffalo",30,-23.16,31.55,351566.48,7438029.29
"95252",95252,1982,52,"b","Buffalo",21,-23.14,31.21,316727.04,7439856.85
"95448",95448,1982,52,"b","Buffalo",2,-23.03,31.3,325802.07,7452148.03
"95453",95453,1982,52,"b","Buffalo",300,-23.03,31.32,327851.87,7452171.69
"95668",95668,1982,53,"b","Buffalo",600,-23.12,30.98,293140.91,7441763.94
"95719",95719,1982,53,"b","Buffalo",16,-23.18,31.03,298352.47,7435189.16
"95785",95785,1982,53,"b","Buffalo",30,-22.99,31.01,296018.04,7456203.31
"95850",95850,1982,53,"b","Buffalo",350,-23.18,31.09,304495.62,7435271.06
"96078",96078,1982,54,"b","Buffalo",250,-22.91,30.98,292820.2,7465021.03
"96114",96114,1982,54,"b","Buffalo",100,-22.89,31.01,295868.06,7467277.88
"96164",96164,1982,54,"b","Buffalo",100,-22.91,31.07,302053.49,7465144.98
"96315",96315,1982,54,"b","Buffalo",150,-22.93,31.17,312339.86,7463061.3
"96410",96410,1982,55,"b","Buffalo",5,-22.85,30.96,290676.29,7471637.56
"96490",96490,1982,55,"b","Buffalo",60,-22.78,31.01,295703.79,7479459.76
"96634",96634,1982,55,"b","Buffalo",4,-22.78,31.11,305972.63,7479594.44
"96679",96679,1982,55,"b","Buffalo",12,-22.76,31.13,307998.36,7481835.31
"96680",96680,1982,55,"b","Buffalo",200,-22.76,31.13,307998.36,7481835.31
"96727",96727,1982,55,"b","Buffalo",60,-22.76,31.17,312106.34,7481886.64
"96728",96728,1982,55,"b","Buffalo",100,-22.76,31.17,312106.34,7481886.64
"96759",96759,1982,55,"b","Buffalo",400,-22.91,31.21,316415.71,7465326.55
"97126",97126,1982,56,"b","Buffalo",60,-25.41,31.61,360195.81,7188924.51
"97310",97310,1982,56,"b","Buffalo",25,-25.41,31.67,366231.23,7188986
"98265",98265,1982,60,"b","Buffalo",80,-25.06,31.63,361812.4,7227708.64
