"","ID","Year","Cenb","Sp","Description","No","Lat","Long","X.coord","Y.coord"
"100787",100787,1983,5,"n","Nyala",1,-23.81,31.57,354330.15,7366074.87
"100947",100947,1983,6,"n","Nyala",3,-23.74,31.44,341000.2,7373687.02
"101039",101039,1983,6,"n","Nyala",4,-23.74,31.48,345077.78,7373731.16
"101253",101253,1983,7,"n","Nyala",4,-23.66,31.3,326622.57,7382382.95
"101506",101506,1983,8,"n","Nyala",2,-23.51,31.38,334595.06,7399088.59
"101507",101507,1983,8,"n","Nyala",3,-23.51,31.38,334595.06,7399088.59
"103786",103786,1983,18,"n","Nyala",1,-23.18,31.34,330090.55,7435585.04
"104383",104383,1983,19,"n","Nyala",1,-23.89,31.67,364601.3,7357315.4
"104400",104400,1983,19,"n","Nyala",1,-23.91,31.69,366658.13,7355119.76
"104662",104662,1983,19,"n","Nyala",2,-23.93,31.78,375839.12,7352987.16
"104692",104692,1983,19,"n","Nyala",1,-23.91,31.78,375820,7355201.76
"104705",104705,1983,19,"n","Nyala",2,-23.97,31.8,377912.41,7348575.42
"104709",104709,1983,19,"n","Nyala",1,-23.97,31.82,379947.4,7348592.59
"104742",104742,1983,19,"n","Nyala",4,-23.95,31.8,377893.57,7350790.01
"104777",104777,1983,19,"n","Nyala",1,-23.97,31.84,381982.38,7348609.48
"104778",104778,1983,19,"n","Nyala",2,-23.97,31.84,381982.38,7348609.48
"104797",104797,1983,19,"n","Nyala",5,-23.97,31.86,384017.34,7348626.07
"104829",104829,1983,19,"n","Nyala",1,-23.95,31.86,383999.45,7350840.63
"117103",117103,1983,48,"n","Nyala",7,-22.76,31.36,331618.4,7482115.29
"117282",117282,1983,49,"n","Nyala",4,-22.91,31.26,321544.89,7465388.07
"117522",117522,1983,50,"n","Nyala",2,-23.08,31.4,336111.49,7446727
"117525",117525,1983,50,"n","Nyala",1,-23.14,31.44,340280.43,7440127.52
"117557",117557,1983,50,"n","Nyala",3,-23.03,31.42,338100.65,7452285.79
"117570",117570,1983,50,"n","Nyala",2,-23.1,31.46,342281.71,7444578.47
"117718",117718,1983,51,"n","Nyala",4,-22.6,31.32,327310.35,7499785.87
"117722",117722,1983,51,"n","Nyala",2,-22.62,31.32,327335.33,7497571.31
"117730",117730,1983,51,"n","Nyala",4,-22.68,31.34,329465.41,7490950.7
"117739",117739,1983,51,"n","Nyala",1,-22.66,31.34,329440.68,7493165.26
"117967",117967,1983,52,"n","Nyala",1,-23.06,31.3,325840.66,7448826
"118893",118893,1983,54,"n","Nyala",2,-23.01,31.28,323726.24,7454338.79
"118923",118923,1983,55,"n","Nyala",4,-22.87,30.98,292759.43,7469450.89
"119187",119187,1983,55,"n","Nyala",1,-22.76,31.15,310052.36,7481861.11
"119188",119188,1983,55,"n","Nyala",1,-22.76,31.15,310052.36,7481861.11
"119196",119196,1983,55,"n","Nyala",1,-22.78,31.15,310080.05,7479646.37
"119267",119267,1983,55,"n","Nyala",3,-22.83,31.19,314255.21,7474160.38
"119268",119268,1983,55,"n","Nyala",4,-22.83,31.19,314255.21,7474160.38
"119280",119280,1983,55,"n","Nyala",2,-22.78,31.17,312133.73,7479671.91
"119284",119284,1983,55,"n","Nyala",1,-22.78,31.19,314187.4,7479697.18
