"","ID","Year","Cenb","Sp","Description","No","Lat","Long","X.coord","Y.coord"
"338949",338949,1992,52,"b","Buffalo",60,-23.16,31.23,318802.15,7437667.09
"339017",339017,1992,52,"b","Buffalo",40,-23.05,31.35,330951.51,7449992.01
"339064",339064,1992,52,"b","Buffalo",4,-23.06,31.26,321741.93,7448777.79
"339088",339088,1992,52,"b","Buffalo",300,-23.08,31.22,317670.1,7446513.7
"339270",339270,1992,53,"b","Buffalo",70,-23.1,31.05,300281.66,7444076.45
"339395",339395,1992,53,"b","Buffalo",40,-23.07,30.96,291014.83,7447272.93
"339405",339405,1992,53,"b","Buffalo",40,-23.01,30.97,291947.39,7453932.13
"339418",339418,1992,53,"b","Buffalo",50,-23.05,30.95,289959.03,7449473.59
"339429",339429,1992,53,"b","Buffalo",12,-23.05,30.93,287909.23,7449444.72
"339433",339433,1992,53,"b","Buffalo",120,-23,30.92,286805.66,7454967.74
"339607",339607,1992,53,"b","Buffalo",50,-23.14,31.06,301365.05,7439660.27
"339609",339609,1992,53,"b","Buffalo",2,-23.15,31.06,301379.79,7438552.81
"339664",339664,1992,53,"b","Buffalo",12,-23.18,31.03,298352.47,7435189.16
"339684",339684,1992,53,"b","Buffalo",20,-23.13,31.01,296229.06,7440698.71
"339694",339694,1992,53,"b","Buffalo",9,-23.12,31,295189.6,7441792.18
"339726",339726,1992,53,"b","Buffalo",40,-23.1,30.97,292085.74,7443964.72
"339728",339728,1992,53,"b","Buffalo",10,-23.09,30.97,292070.35,7445072.21
"339730",339730,1992,53,"b","Buffalo",22,-23.09,30.96,291045.76,7445057.93
"339736",339736,1992,53,"b","Buffalo",12,-23.13,30.96,291107.7,7440627.93
"339738",339738,1992,53,"b","Buffalo",5,-23.15,30.96,291138.7,7438412.92
"339745",339745,1992,53,"b","Buffalo",18,-23.14,30.95,290098.99,7439506.05
"339752",339752,1992,53,"b","Buffalo",40,-23.1,30.95,290036.72,7443936.08
"339755",339755,1992,53,"b","Buffalo",22,-23.1,30.94,289012.2,7443921.66
"339808",339808,1992,54,"b","Buffalo",8,-22.95,31.09,304162.84,7460742.08
"339833",339833,1992,54,"b","Buffalo",30,-22.93,31.07,302082.56,7462930.13
"339879",339879,1992,54,"b","Buffalo",15,-22.94,31.01,295942.97,7461740.61
"339883",339883,1992,54,"b","Buffalo",22,-22.94,31.01,295942.97,7461740.61
"339884",339884,1992,54,"b","Buffalo",34,-22.93,31.01,295927.98,7462848.07
"339913",339913,1992,54,"b","Buffalo",31,-22.94,30.96,290814.41,7461670.28
"339934",339934,1992,54,"b","Buffalo",17,-22.92,30.96,290783.67,7463885.24
"339950",339950,1992,54,"b","Buffalo",20,-22.91,30.95,289742.36,7464978.46
"339957",339957,1992,54,"b","Buffalo",50,-22.9,30.95,289726.93,7466085.94
"340173",340173,1992,54,"b","Buffalo",15,-22.99,31.18,313447.93,7456429.74
"340520",340520,1992,55,"b","Buffalo",5,-22.77,31,294661.92,7480553.36
"340525",340525,1992,55,"b","Buffalo",15,-22.76,31.01,295674.01,7481674.64
"340526",340526,1992,55,"b","Buffalo",80,-22.77,31.01,295688.9,7480567.2
"340530",340530,1992,55,"b","Buffalo",4,-22.78,31.02,296730.7,7479473.54
"340538",340538,1992,55,"b","Buffalo",5,-22.77,31.02,296715.88,7480580.98
"340542",340542,1992,55,"b","Buffalo",11,-22.76,31.02,296701.06,7481688.41
"340549",340549,1992,55,"b","Buffalo",12,-22.73,31.03,297683.93,7485024.38
"340575",340575,1992,55,"b","Buffalo",3,-22.75,31.11,305930.21,7482916.61
"340587",340587,1992,55,"b","Buffalo",30,-22.77,31.16,311093.12,7480766.54
"340606",340606,1992,55,"b","Buffalo",4,-22.84,31.06,300925.52,7472883.47
"340627",340627,1992,55,"b","Buffalo",1,-22.88,31.05,299957.67,7468440.22
"340637",340637,1992,55,"b","Buffalo",35,-22.78,31.05,299811.38,7479514.47
"340734",340734,1992,47,"b","Buffalo",25,-22.62,31.25,320139.41,7497488.44
"340799",340799,1992,47,"b","Buffalo",8,-22.71,31.13,307928.5,7487372.19
"340804",340804,1992,47,"b","Buffalo",7,-22.7,31.13,307914.54,7488479.56
"340933",340933,1992,48,"b","Buffalo",50,-22.84,31.27,322479.7,7473151.51
"340996",340996,1992,48,"b","Buffalo",15,-22.8,31.38,333720.73,7477708.79
"341045",341045,1992,48,"b","Buffalo",80,-22.86,31.43,338924.37,7471120.58
"341095",341095,1992,49,"b","Buffalo",40,-22.92,31.26,321557.99,7464280.73
"341106",341106,1992,49,"b","Buffalo",7,-22.94,31.25,320558.6,7462053.86
"341141",341141,1992,49,"b","Buffalo",20,-22.98,31.31,326763.13,7457696.57
"341304",341304,1992,49,"b","Buffalo",8,-22.97,31.46,342130.28,7458973.12
"341347",341347,1992,49,"b","Buffalo",3,-23,31.47,343190.22,7455662.03
"341551",341551,1992,50,"b","Buffalo",400,-23.1,31.46,342281.71,7444578.47
"341571",341571,1992,51,"b","Buffalo",40,-22.64,31.28,323248.99,7495309.77
"341642",341642,1992,6,"b","Buffalo",180,-23.56,31.34,330574.29,7393504.98
"341661",341661,1992,6,"b","Buffalo",100,-23.57,31.31,327524.84,7392361.78
"341708",341708,1992,6,"b","Buffalo",350,-23.63,31.42,338826.42,7385845.72
"341724",341724,1992,6,"b","Buffalo",20,-23.63,31.41,337806.16,7385834.4
"341783",341783,1992,6,"b","Buffalo",50,-23.69,31.42,338899.97,7379201.45
"342054",342054,1992,7,"b","Buffalo",2,-23.63,31.28,324542.4,7385680.79
"342166",342166,1992,8,"b","Buffalo",30,-23.43,31.25,321211.29,7407792.15
"342171",342171,1992,8,"b","Buffalo",14,-23.42,31.27,323241.73,7408924.24
"342287",342287,1992,8,"b","Buffalo",60,-23.49,31.27,323334.92,7401172.38
"342290",342290,1992,8,"b","Buffalo",50,-23.48,31.27,323321.59,7402279.79
"342297",342297,1992,8,"b","Buffalo",60,-23.47,31.28,324329.82,7403399.46
"342298",342298,1992,8,"b","Buffalo",80,-23.46,31.28,324316.57,7404506.86
"342299",342299,1992,8,"b","Buffalo",50,-23.46,31.28,324316.57,7404506.86
"342357",342357,1992,9,"b","Buffalo",4,-23.59,31.17,313262.06,7389971.25
"342407",342407,1992,9,"b","Buffalo",200,-23.54,31.23,319317.56,7395585.46
"342610",342610,1992,9,"b","Buffalo",300,-23.53,31.22,318282.79,7396680.27
"342633",342633,1992,9,"b","Buffalo",1,-23.51,31.21,317234.06,7398882.44
"342639",342639,1992,9,"b","Buffalo",4,-23.47,31.21,317178.88,7403312.19
"342735",342735,1992,10,"b","Buffalo",100,-23.32,31.11,306745.27,7419793.51
"342783",342783,1992,10,"b","Buffalo",2,-23.3,31.2,315922.48,7422125.72
"342784",342784,1992,10,"b","Buffalo",10,-23.3,31.2,315922.48,7422125.72
"342798",342798,1992,10,"b","Buffalo",8,-23.41,31.2,316074.24,7409944.05
"342838",342838,1992,10,"b","Buffalo",100,-23.39,31.17,312979.99,7412120.34
"342859",342859,1992,10,"b","Buffalo",100,-23.4,31.15,310949.77,7410986.81
"342904",342904,1992,10,"b","Buffalo",50,-23.38,31.12,307854.48,7413162.08
"342927",342927,1992,10,"b","Buffalo",20,-23.37,31.1,305795.29,7414242.78
"342930",342930,1992,10,"b","Buffalo",15,-23.39,31.1,305824.45,7412027.84
"342952",342952,1992,10,"b","Buffalo",10,-23.38,31.1,305809.86,7413135.31
"343108",343108,1992,10,"b","Buffalo",7,-23.41,31.05,300743.17,7409744.65
"343150",343150,1992,11,"b","Buffalo",150,-23.36,31.21,317027.59,7415493.9
"343163",343163,1992,11,"b","Buffalo",15,-23.38,31.24,320121.84,7413316.77
"343304",343304,1992,11,"b","Buffalo",250,-23.24,31.3,326073.24,7428893.57
"343314",343314,1992,11,"b","Buffalo",4,-23.18,31.3,325995.52,7435537.76
"343805",343805,1992,13,"b","Buffalo",2,-23.61,31.62,359209.65,7388271.64
"343849",343849,1992,13,"b","Buffalo",12,-23.66,31.6,357223.19,7382715.24
"343988",343988,1992,13,"b","Buffalo",80,-23.8,31.65,362470.03,7367262.03
"344027",344027,1992,13,"b","Buffalo",150,-23.82,31.63,360453.67,7365027.86
"344034",344034,1992,13,"b","Buffalo",9,-23.82,31.61,358416.23,7365008.03
"344041",344041,1992,13,"b","Buffalo",3,-23.82,31.59,356378.78,7364987.92
"344059",344059,1992,13,"b","Buffalo",50,-23.82,31.62,359434.95,7365017.98
"344136",344136,1992,13,"b","Buffalo",70,-23.67,31.52,349074.79,7381525.58
"344152",344152,1992,13,"b","Buffalo",120,-23.71,31.5,347081.55,7377074.87
"344155",344155,1992,13,"b","Buffalo",80,-23.71,31.55,352179.58,7377127.65
"344167",344167,1992,13,"b","Buffalo",300,-23.72,31.57,354229.89,7376040.93
"344267",344267,1992,14,"b","Buffalo",4,-23.52,31.52,348903.01,7398135.59
"344282",344282,1992,14,"b","Buffalo",25,-23.48,31.52,348857.38,7402564.87
"344306",344306,1992,14,"b","Buffalo",12,-23.46,31.54,350877.68,7404800.38
"344419",344419,1992,14,"b","Buffalo",20,-23.47,31.43,339652.65,7403574.72
"344420",344420,1992,14,"b","Buffalo",70,-23.47,31.43,339652.65,7403574.72
"344422",344422,1992,14,"b","Buffalo",50,-23.47,31.44,340674.15,7403585.83
"344429",344429,1992,14,"b","Buffalo",75,-23.48,31.44,340686.16,7402478.48
"344464",344464,1992,14,"b","Buffalo",40,-23.52,31.43,339713.15,7398037.95
"344582",344582,1992,15,"b","Buffalo",150,-23.38,31.48,344654.96,7413595.51
"344597",344597,1992,15,"b","Buffalo",120,-23.3,31.47,343539.04,7422443.25
"344668",344668,1992,15,"b","Buffalo",120,-23.35,31.41,337463.1,7416840.45
"344674",344674,1992,15,"b","Buffalo",55,-23.3,31.41,337402.25,7422377.14
"344682",344682,1992,15,"b","Buffalo",70,-23.36,31.4,336452.94,7415721.83
"344719",344719,1992,15,"b","Buffalo",60,-23.24,31.38,334259.57,7428987.18
"345036",345036,1992,18,"b","Buffalo",100,-23.16,31.48,344399.58,7437956.21
"345046",345046,1992,18,"b","Buffalo",250,-23.15,31.44,340292.28,7439020.21
"345086",345086,1992,18,"b","Buffalo",40,-23.28,31.4,336354.98,7424580.55
"345117",345117,1992,18,"b","Buffalo",45,-23.26,31.42,338376.77,7426817.65
"345121",345121,1992,18,"b","Buffalo",60,-23.26,31.45,341446.09,7426850.76
"345126",345126,1992,18,"b","Buffalo",30,-23.25,31.42,338364.71,7427924.97
"345149",345149,1992,18,"b","Buffalo",150,-23.23,31.43,339363.95,7430150.72
"345350",345350,1992,19,"b","Buffalo",80,-23.76,31.67,364466.3,7371710.51
"345370",345370,1992,19,"b","Buffalo",30,-23.88,31.74,371718.49,7358487.95
"345632",345632,1992,19,"b","Buffalo",30,-23.88,31.74,371718.49,7358487.95
"345922",345922,1992,1,"b","Buffalo",300,-23.89,31.6,357474.12,7357246.62
"346153",346153,1992,1,"b","Buffalo",200,-23.99,31.59,356566.54,7346162.94
"346155",346155,1992,1,"b","Buffalo",100,-24.02,31.59,356599.81,7342840.84
"346197",346197,1992,1,"b","Buffalo",30,-24.01,31.65,362692.1,7344008.03
"346325",346325,1992,2,"b","Buffalo",70,-23.95,31.53,350415.93,7350530.07
"346404",346404,1992,2,"b","Buffalo",450,-23.96,31.51,348392.16,7349401.33
"346423",346423,1992,2,"b","Buffalo",150,-23.9,31.49,346285.79,7356024.02
"346517",346517,1992,2,"b","Buffalo",150,-23.92,31.46,343255.51,7353776.29
"346688",346688,1992,2,"b","Buffalo",2,-23.98,31.42,339257.93,7347086.83
"346705",346705,1992,2,"b","Buffalo",200,-23.98,31.4,337222.87,7347063.87
"347021",347021,1992,3,"b","Buffalo",200,-23.99,31.28,325025.72,7345812.57
"347119",347119,1992,3,"b","Buffalo",3,-23.94,31.17,313761.15,7351209.12
"347307",347307,1992,4,"b","Buffalo",2,-23.68,31.15,311349.8,7379977.68
"347581",347581,1992,4,"b","Buffalo",1,-23.78,31.31,327800.36,7369105.94
"347873",347873,1992,5,"b","Buffalo",100,-23.82,31.52,349247.6,7364915.27
"347874",347874,1992,5,"b","Buffalo",50,-23.81,31.52,349236.04,7366022.64
"347881",347881,1992,5,"b","Buffalo",220,-23.79,31.51,348193.97,7368226.7
"347941",347941,1992,5,"b","Buffalo",2,-23.85,31.48,345208.19,7361550.04
"347942",347942,1992,5,"b","Buffalo",1,-23.85,31.48,345208.19,7361550.04
"347957",347957,1992,5,"b","Buffalo",250,-23.79,31.47,344117.99,7368183.36
"347994",347994,1992,5,"b","Buffalo",1,-23.79,31.46,343098.98,7368172.35
"348065",348065,1992,5,"b","Buffalo",200,-23.8,31.4,336997.38,7366997.35
"348213",348213,1992,61,"b","Buffalo",12,-22.7,30.91,285309.54,7488177.98
"348214",348214,1992,61,"b","Buffalo",14,-22.7,30.91,285309.54,7488177.98
"348215",348215,1992,61,"b","Buffalo",17,-22.7,30.9,284281.99,7488163.47
"348216",348216,1992,61,"b","Buffalo",9,-22.69,30.91,285293.94,7489285.46
"348231",348231,1992,61,"b","Buffalo",12,-22.68,30.94,288361.43,7490436
"348234",348234,1992,61,"b","Buffalo",1,-22.67,30.97,291429.33,7491585.89
"348241",348241,1992,61,"b","Buffalo",3,-22.64,31.13,307830.93,7495123.77
"348325",348325,1992,62,"b","Buffalo",20,-22.47,31.07,301420.12,7513870.51
"348392",348392,1992,63,"b","Buffalo",7,-22.58,31.32,327285.4,7502000.43
"348438",348438,1992,63,"b","Buffalo",9,-22.5,31.19,313810.23,7510702.66
"348614",348614,1992,64,"b","Buffalo",30,-22.37,31.26,320845.66,7525182.76
"348617",348617,1992,64,"b","Buffalo",9,-22.38,31.25,319828.69,7524063.53
"348642",348642,1992,64,"b","Buffalo",3,-22.37,31.25,319815.81,7525170.81
"348695",348695,1992,64,"b","Buffalo",7,-22.38,31.21,315709.54,7524015.07
"348711",348711,1992,64,"b","Buffalo",65,-22.37,31.2,314666.5,7525110.08
"348712",348712,1992,64,"b","Buffalo",50,-22.37,31.2,314666.5,7525110.08
"348823",348823,1992,64,"b","Buffalo",63,-22.36,31.12,306413.56,7526116.68
"348825",348825,1992,64,"b","Buffalo",20,-22.4,31.12,306468.91,7521687.33
"348854",348854,1992,64,"b","Buffalo",35,-22.4,31.08,302350.14,7521635.27
"348870",348870,1992,64,"b","Buffalo",9,-22.42,31.18,312673.77,7519548.75
"349010",349010,1992,20,"b","Buffalo",300,-24.11,31.58,355683.39,7332864.22
"349029",349029,1992,20,"b","Buffalo",11,-24.06,31.59,356644.22,7338411.36
"349366",349366,1992,20,"b","Buffalo",9,-24.05,31.42,339344.96,7339334.85
"349639",349639,1992,21,"b","Buffalo",250,-24.17,31.64,361846.57,7326280.46
"349663",349663,1992,21,"b","Buffalo",200,-24.16,31.61,358787.67,7327357.88
"349858",349858,1992,22,"b","Buffalo",300,-24.3,31.54,351837.42,7311781.69
"350038",350038,1992,22,"b","Buffalo",300,-24.43,31.41,338807.57,7297239.96
"350250",350250,1992,22,"b","Buffalo",150,-24.35,31.51,348851.86,7306212.25
"350687",350687,1992,23,"b","Buffalo",200,-24.16,31.66,363867.88,7327407.43
"350901",350901,1992,23,"b","Buffalo",200,-24.24,31.66,363952.83,7318548.46
"351275",351275,1992,25,"b","Buffalo",1,-24.1,31.81,379051.69,7334189.08
"351559",351559,1992,25,"b","Buffalo",60,-24.17,31.9,388260.68,7326512.67
"352605",352605,1992,27,"b","Buffalo",1,-24.18,31.88,386237.75,7325389.24
"352635",352635,1992,27,"b","Buffalo",6,-24.26,31.94,392399.88,7316578.36
"352730",352730,1992,27,"b","Buffalo",15,-24.36,31.97,395527.34,7305528.16
"352940",352940,1992,28,"b","Buffalo",3,-24.45,31.96,394587.72,7295554.73
"353225",353225,1992,28,"b","Buffalo",80,-24.47,31.86,384469.33,7293260.2
"353239",353239,1992,28,"b","Buffalo",22,-24.39,31.85,383382.26,7302110.6
"353261",353261,1992,28,"b","Buffalo",150,-24.47,31.83,381428.77,7293234.81
"353297",353297,1992,28,"b","Buffalo",13,-24.47,31.81,379401.72,7293217.51
"353305",353305,1992,28,"b","Buffalo",200,-24.44,31.8,378359.38,7296530.85
"354064",354064,1992,30,"b","Buffalo",300,-24.72,31.99,397847.96,7265679.13
"354541",354541,1992,31,"b","Buffalo",150,-24.54,31.75,373390.67,7285412.16
"354853",354853,1992,31,"b","Buffalo",60,-24.39,31.72,370198.01,7301995.13
"355057",355057,1992,32,"b","Buffalo",130,-24.46,31.61,359119.53,7294135.85
"355226",355226,1992,33,"b","Buffalo",150,-24.56,31.55,353153.81,7282998.95
"355521",355521,1992,33,"b","Buffalo",250,-24.78,31.62,360488.85,7258707.9
"355526",355526,1992,33,"b","Buffalo",20,-24.77,31.65,363511.13,7259845.64
"356225",356225,1992,35,"b","Buffalo",11,-24.88,31.62,360600.88,7247633.2
"356270",356270,1992,35,"b","Buffalo",4,-24.85,31.62,360567.22,7250955.62
"356314",356314,1992,35,"b","Buffalo",20,-24.83,31.63,361555.48,7253180.75
"356456",356456,1992,36,"b","Buffalo",110,-24.83,31.82,380757.73,7253360.22
"356481",356481,1992,36,"b","Buffalo",250,-24.88,31.78,376764.79,7247787.52
"356624",356624,1992,36,"b","Buffalo",25,-24.79,31.71,369598.89,7257689.34
"358371",358371,1992,39,"b","Buffalo",100,-25.08,31.21,319469.8,7224998.3
"358566",358566,1992,40,"b","Buffalo",15,-25.17,31.21,319602.08,7215029.43
"358568",358568,1992,40,"b","Buffalo",100,-25.16,31.22,320595.46,7216150.45
"359065",359065,1992,41,"b","Buffalo",6,-25.23,31.39,337825.42,7208612.88
"360280",360280,1992,42,"b","Buffalo",100,-25.25,31.52,350946.62,7206548.33
"360563",360563,1992,43,"b","Buffalo",35,-24.99,31.4,338517.8,7235206.84
"360633",360633,1992,44,"b","Buffalo",10,-25.34,31.74,373199.36,7196806.88
"360984",360984,1992,44,"b","Buffalo",15,-25.37,31.64,363168.44,7193385.77
"360985",360985,1992,44,"b","Buffalo",300,-25.38,31.64,363179.71,7192278.23
"360987",360987,1992,44,"b","Buffalo",14,-25.38,31.64,363179.71,7192278.23
"360988",360988,1992,44,"b","Buffalo",9,-25.39,31.64,363190.98,7191170.68
"360989",360989,1992,44,"b","Buffalo",30,-25.38,31.64,363179.71,7192278.23
"361146",361146,1992,44,"b","Buffalo",15,-25.39,31.57,356148.43,7191097.15
"361211",361211,1992,44,"b","Buffalo",1,-25.42,31.63,362219,7187837.76
"361224",361224,1992,44,"b","Buffalo",100,-25.4,31.63,362196.27,7190052.86
"361284",361284,1992,44,"b","Buffalo",10,-25.37,31.87,386311.18,7193601.26
"361285",361285,1992,44,"b","Buffalo",10,-25.37,31.87,386311.18,7193601.26
"361356",361356,1992,44,"b","Buffalo",18,-25.27,31.82,381182.69,7204632.64
"362125",362125,1992,44,"b","Buffalo",4,-25.25,31.75,374112.89,7206783.81
"362151",362151,1992,45,"b","Buffalo",100,-25.35,31.89,388305.15,7195833.07
"362165",362165,1992,45,"b","Buffalo",52,-25.34,31.89,388295.96,7196940.54
"362175",362175,1992,45,"b","Buffalo",2,-25.33,31.9,389293.29,7198056.31
"362270",362270,1992,45,"b","Buffalo",14,-25.29,31.88,387243.25,7202469.49
"362769",362769,1992,45,"b","Buffalo",52,-25.12,31.94,393135.9,7221345.04
"363922",363922,1992,60,"b","Buffalo",3,-24.96,31.74,372805.98,7238891.14
"363974",363974,1992,56,"b","Buffalo",10,-25.49,31.36,335156.17,7179777.98
"364007",364007,1992,56,"b","Buffalo",150,-25.49,31.42,341188.03,7179850.94
"364072",364072,1992,56,"b","Buffalo",30,-25.45,31.5,349180.44,7184374.38
"364306",364306,1992,56,"b","Buffalo",100,-25.41,31.53,352148.44,7188838.31
"364357",364357,1992,56,"b","Buffalo",6,-25.37,31.51,350087.15,7193246.34
"364390",364390,1992,56,"b","Buffalo",4,-25.36,31.53,352087.51,7194376.19
"364638",364638,1992,56,"b","Buffalo",15,-25.32,31.42,340965.2,7198680.39
"364668",364668,1992,46,"b","Buffalo",250,-25.23,31.95,394239.1,7209171.18
"364973",364973,1992,46,"b","Buffalo",250,-25.33,31.96,395332.27,7198104.57
"364990",364990,1992,46,"b","Buffalo",30,-25.38,31.96,395375.31,7192567.29
