"","ID","Year","Cenb","Sp","Description","No","Lat","Long","X.coord","Y.coord"
"365233",365233,1993,52,"v","Warthog",5,-23.11,31.2,315661.93,7443166.42
"365269",365269,1993,52,"v","Warthog",1,-23.11,31.24,319759.24,7443216.4
"365609",365609,1993,53,"v","Warthog",1,-23.12,31.06,301335.58,7441875.19
"365646",365646,1993,53,"v","Warthog",5,-23.15,31.03,298307.51,7438511.58
"365653",365653,1993,53,"v","Warthog",7,-23.15,31.02,297283.41,7438497.7
"365724",365724,1993,53,"v","Warthog",2,-23.16,30.97,292178.27,7437319.72
"365741",365741,1993,53,"v","Warthog",2,-23.13,30.95,290083.41,7440613.56
"365791",365791,1993,53,"v","Warthog",4,-23,30.96,290906.78,7455025.38
"365816",365816,1993,53,"v","Warthog",1,-22.99,30.97,291916.71,7456147.09
"365879",365879,1993,53,"v","Warthog",3,-23.01,31,295022.94,7453974.42
"365892",365892,1993,53,"v","Warthog",2,-23.03,31,295053.18,7451759.48
"365897",365897,1993,53,"v","Warthog",2,-23.04,31.01,296093.26,7450665.98
"365904",365904,1993,53,"v","Warthog",3,-23.03,31.02,297103.22,7451787.35
"366096",366096,1993,53,"v","Warthog",1,-23.1,31.13,308477.3,7444183.68
"366193",366193,1993,54,"v","Warthog",2,-22.92,31.03,297964.68,7463983.15
"366210",366210,1993,54,"v","Warthog",1,-22.99,31.02,297043.36,7456217.19
"366289",366289,1993,54,"v","Warthog",3,-22.9,30.95,289726.93,7466085.94
"366455",366455,1993,54,"v","Warthog",1,-22.95,31.22,317495.19,7460909.54
"366475",366475,1993,54,"v","Warthog",1,-22.99,31.22,317548.91,7456480.07
"366575",366575,1993,54,"v","Warthog",1,-23.03,31.21,316577.78,7452038.09
"366630",366630,1993,54,"v","Warthog",4,-23.03,31.2,315552.84,7452025.52
"366678",366678,1993,54,"v","Warthog",1,-23.01,31.15,310400.1,7454176.45
"366796",366796,1993,55,"v","Warthog",1,-22.75,31.02,296686.25,7482795.84
"366801",366801,1993,55,"v","Warthog",2,-22.76,31.01,295674.01,7481674.64
"366989",366989,1993,55,"v","Warthog",3,-22.9,31.18,313324.47,7466396.17
"366994",366994,1993,55,"v","Warthog",1,-22.83,31.15,310149.36,7474109.48
"367013",367013,1993,55,"v","Warthog",3,-22.8,31.12,307027.65,7477392.75
"367290",367290,1993,48,"v","Warthog",6,-22.8,31.39,334747.33,7477720.01
"367371",367371,1993,48,"v","Warthog",3,-22.81,31.27,322440.78,7476473.49
"367381",367381,1993,48,"v","Warthog",5,-22.79,31.32,327548.43,7478747.34
"367425",367425,1993,48,"v","Warthog",3,-22.83,31.3,325545.98,7474294.61
"367540",367540,1993,49,"v","Warthog",2,-22.96,31.34,329813.9,7459946.32
"367768",367768,1993,50,"v","Warthog",2,-23.07,31.49,345320.31,7447932.39
"367783",367783,1993,50,"v","Warthog",3,-23.17,31.53,349529.99,7436901.49
"367921",367921,1993,51,"v","Warthog",1,-22.69,31.32,327422.89,7489820.31
"367961",367961,1993,6,"v","Warthog",4,-23.55,31.37,333624.18,7394647.52
"367967",367967,1993,6,"v","Warthog",1,-23.63,31.36,332704.78,7385776.75
"368203",368203,1993,6,"v","Warthog",2,-23.65,31.4,336810.69,7383608.25
"368483",368483,1993,8,"v","Warthog",1,-23.45,31.32,328390.12,7405662.54
"368674",368674,1993,9,"v","Warthog",2,-23.57,31.17,313233.75,7392186.18
"368681",368681,1993,9,"v","Warthog",4,-23.56,31.18,314240.5,7393306.65
"368694",368694,1993,9,"v","Warthog",2,-23.57,31.26,322420.96,7392300.67
"368745",368745,1993,9,"v","Warthog",2,-23.53,31.14,310113.8,7396576.64
"368782",368782,1993,9,"v","Warthog",1,-23.46,31.12,307970.07,7404302.35
"368856",368856,1993,9,"v","Warthog",5,-23.49,31.22,318227.88,7401110.01
"368873",368873,1993,10,"v","Warthog",2,-23.31,31.21,316959.05,7421030.99
"368942",368942,1993,10,"v","Warthog",3,-23.3,31.09,304670.49,7421981.58
"369009",369009,1993,10,"v","Warthog",1,-23.36,31.05,300668.34,7415282.12
"369052",369052,1993,10,"v","Warthog",5,-23.41,31.17,313008.1,7409905.45
"369098",369098,1993,10,"v","Warthog",2,-23.4,31.1,305839.03,7410920.37
"369100",369100,1993,10,"v","Warthog",7,-23.41,31.11,306875.71,7409826.33
"369203",369203,1993,10,"v","Warthog",2,-23.4,31.05,300728.19,7410852.14
"369218",369218,1993,10,"v","Warthog",2,-23.45,31.05,300803.14,7405314.65
"369331",369331,1993,11,"v","Warthog",1,-23.37,31.22,318063.66,7414399.12
"369336",369336,1993,11,"v","Warthog",3,-23.37,31.27,323175.32,7414461.24
"369349",369349,1993,11,"v","Warthog",1,-23.36,31.22,318050.01,7415506.53
"369366",369366,1993,11,"v","Warthog",1,-23.33,31.28,324144.92,7418903.02
"369385",369385,1993,11,"v","Warthog",5,-23.32,31.29,325154.46,7420022.53
"369412",369412,1993,11,"v","Warthog",3,-23.29,31.24,320000.53,7423283.41
"369435",369435,1993,12,"v","Warthog",1,-23.23,30.97,292286.5,7429567.17
"369441",369441,1993,12,"v","Warthog",2,-23.21,30.97,292255.54,7431782.19
"369499",369499,1993,12,"v","Warthog",1,-23.27,31.02,297464.48,7425207.87
"369510",369510,1993,12,"v","Warthog",6,-23.18,31,295280.83,7435147.25
"369521",369521,1993,12,"v","Warthog",3,-23.25,31.02,297434.24,7427422.86
"369543",369543,1993,12,"v","Warthog",2,-23.18,31.01,296304.71,7435161.29
"369601",369601,1993,12,"v","Warthog",3,-23.28,31.09,304641.29,7424196.5
"369627",369627,1993,12,"v","Warthog",8,-23.27,31.1,305649.85,7425317.41
"369661",369661,1993,12,"v","Warthog",1,-23.2,31.1,305548.4,7433069.57
"369670",369670,1993,12,"v","Warthog",2,-23.23,31.12,307638.76,7429773.87
"369736",369736,1993,12,"v","Warthog",3,-23.26,31.16,311774.66,7426504.02
"369739",369739,1993,12,"v","Warthog",2,-23.25,31.16,311760.61,7427611.45
"369812",369812,1993,13,"v","Warthog",3,-23.7,31.54,351148.63,7378224.58
"369829",369829,1993,13,"v","Warthog",1,-23.68,31.55,352145.79,7380449.66
"369847",369847,1993,13,"v","Warthog",4,-23.62,31.59,356159.49,7387134.47
"370165",370165,1993,14,"v","Warthog",1,-23.48,31.51,347835.99,7402554.32
"370169",370169,1993,14,"v","Warthog",2,-23.57,31.56,353042.91,7392640.56
"370170",370170,1993,14,"v","Warthog",1,-23.53,31.55,351977.43,7397059.54
"370240",370240,1993,15,"v","Warthog",1,-23.38,31.52,348743.62,7413637.99
"370498",370498,1993,18,"v","Warthog",2,-23.18,31.48,344422.71,7435741.63
"370525",370525,1993,18,"v","Warthog",4,-23.19,31.42,338292.46,7434568.89
"370539",370539,1993,18,"v","Warthog",3,-23.2,31.45,341375.18,7433494.63
"370618",370618,1993,18,"v","Warthog",2,-23.12,31.39,335135.84,7442286.48
"370906",370906,1993,19,"v","Warthog",2,-23.51,31.59,356039.63,7399314.84
"370912",370912,1993,19,"v","Warthog",7,-23.57,31.62,359166.95,7392700.84
"371028",371028,1993,1,"v","Warthog",3,-24.01,31.72,369812.59,7344074.54
"371299",371299,1993,1,"v","Warthog",1,-23.93,31.58,355482.26,7352796.9
"371385",371385,1993,1,"v","Warthog",3,-24.01,31.68,365743.75,7344036.97
"371441",371441,1993,2,"v","Warthog",3,-23.92,31.56,353435.22,7353883.65
"371522",371522,1993,2,"v","Warthog",7,-23.88,31.51,348298.72,7358260.38
"371545",371545,1993,2,"v","Warthog",1,-23.94,31.49,346333.14,7351594.47
"371558",371558,1993,2,"v","Warthog",1,-23.87,31.48,345231.96,7359335.27
"371562",371562,1993,2,"v","Warthog",3,-23.88,31.48,345243.86,7358227.89
"371577",371577,1993,2,"v","Warthog",3,-23.91,31.48,345279.56,7354905.73
"371594",371594,1993,2,"v","Warthog",5,-23.95,31.47,344309.49,7350465.16
"371607",371607,1993,2,"v","Warthog",1,-23.9,31.46,343231.38,7355991.08
"371633",371633,1993,2,"v","Warthog",2,-23.89,31.43,340164.63,7357064.89
"371650",371650,1993,2,"v","Warthog",2,-23.91,31.41,338153.07,7354827.32
"371672",371672,1993,2,"v","Warthog",3,-23.92,31.39,336129.52,7353696.84
"371674",371674,1993,2,"v","Warthog",2,-23.96,31.38,335162.34,7349255.49
"372129",372129,1993,3,"v","Warthog",2,-23.97,31.25,321945.7,7347989.95
"372367",372367,1993,5,"v","Warthog",2,-23.85,31.56,353356.32,7361635.16
"372433",372433,1993,5,"v","Warthog",1,-23.8,31.47,344129.92,7367075.98
"372577",372577,1993,5,"v","Warthog",1,-23.83,31.43,340090.97,7363709.29
"372582",372582,1993,5,"v","Warthog",4,-23.85,31.43,340115.5,7361494.5
"372612",372612,1993,5,"v","Warthog",2,-23.85,31.41,338078.41,7361471.78
"372870",372870,1993,21,"v","Warthog",2,-24.23,31.44,341600.92,7319423.75
"372871",372871,1993,21,"v","Warthog",2,-24.22,31.43,340572.92,7320519.81
"373305",373305,1993,21,"v","Warthog",2,-24.42,31.38,335752.72,7298312.2
"373340",373340,1993,21,"v","Warthog",2,-24.42,31.36,333724.61,7298288.34
"373386",373386,1993,21,"v","Warthog",2,-24.39,31.4,337742.47,7301658.22
"373387",373387,1993,21,"v","Warthog",1,-24.39,31.39,336728.18,7301646.48
"373388",373388,1993,21,"v","Warthog",1,-24.39,31.39,336728.18,7301646.48
"373391",373391,1993,21,"v","Warthog",2,-24.38,31.4,337729.7,7302765.7
"373413",373413,1993,21,"v","Warthog",2,-24.37,31.43,340760.25,7303907.93
"373425",373425,1993,21,"v","Warthog",3,-24.36,31.41,338718.69,7304992.31
"373928",373928,1993,21,"v","Warthog",2,-24.42,31.38,335752.72,7298312.2
"373963",373963,1993,21,"v","Warthog",2,-24.42,31.36,333724.61,7298288.34
"373968",373968,1993,21,"v","Warthog",2,-24.41,31.38,335739.77,7299419.69
"374008",374008,1993,21,"v","Warthog",2,-24.39,31.4,337742.47,7301658.22
"374009",374009,1993,21,"v","Warthog",1,-24.39,31.4,337742.47,7301658.22
"374010",374010,1993,21,"v","Warthog",1,-24.39,31.39,336728.18,7301646.48
"374013",374013,1993,21,"v","Warthog",2,-24.38,31.4,337729.7,7302765.7
"374035",374035,1993,21,"v","Warthog",2,-24.37,31.43,340760.25,7303907.93
"374047",374047,1993,21,"v","Warthog",3,-24.36,31.41,338718.69,7304992.31
"374071",374071,1993,22,"v","Warthog",1,-24.34,31.52,349854.63,7307330.53
"374104",374104,1993,22,"v","Warthog",1,-24.34,31.48,345796.03,7307286.73
"374146",374146,1993,22,"v","Warthog",1,-24.33,31.41,338680.67,7308314.73
"374548",374548,1993,23,"v","Warthog",4,-24.18,31.71,368968.44,7325240.46
"374571",374571,1993,23,"v","Warthog",2,-24.19,31.73,371010.22,7324151.7
"374586",374586,1993,23,"v","Warthog",2,-24.21,31.64,361889.66,7321850.96
"374615",374615,1993,23,"v","Warthog",2,-24.22,31.71,369009.33,7320811.03
"374618",374618,1993,23,"v","Warthog",3,-24.22,31.72,370024.88,7320820.38
"374646",374646,1993,23,"v","Warthog",2,-24.27,31.74,372105.97,7315302.08
"374864",374864,1993,24,"v","Warthog",5,-24.3,31.63,360971.93,7311874.55
"374977",374977,1993,24,"v","Warthog",4,-24.39,31.76,374254.75,7302031.98
"375117",375117,1993,24,"v","Warthog",5,-24.29,31.74,372126,7313087.37
"375326",375326,1993,25,"v","Warthog",1,-24.11,31.82,380077.48,7333090.35
"375341",375341,1993,25,"v","Warthog",2,-24.08,31.81,379032.91,7336403.7
"375502",375502,1993,25,"v","Warthog",4,-24.09,31.74,371926.39,7335234.28
"375759",375759,1993,26,"v","Warthog",3,-24.3,31.81,379240.27,7312042.52
"375765",375765,1993,26,"v","Warthog",1,-24.29,31.82,380245.77,7313158.5
"375789",375789,1993,26,"v","Warthog",3,-24.26,31.83,381232.84,7316489.06
"375855",375855,1993,26,"v","Warthog",3,-24.25,31.76,374116.55,7317534.99
"375871",375871,1993,26,"v","Warthog",6,-24.24,31.75,373091.33,7318633.28
"375873",375873,1993,26,"v","Warthog",2,-24.24,31.75,373091.33,7318633.28
"375914",375914,1993,26,"v","Warthog",5,-24.2,31.78,376098.75,7323089.6
"375937",375937,1993,26,"v","Warthog",1,-24.17,31.76,374037.91,7326393.73
"375998",375998,1993,27,"v","Warthog",3,-24.2,31.86,384224.16,7323158.2
"376101",376101,1993,27,"v","Warthog",1,-24.35,31.93,391461.31,7306604.8
"376358",376358,1993,28,"v","Warthog",2,-24.43,31.87,385446.68,7297697.9
"376387",376387,1993,28,"v","Warthog",2,-24.4,31.9,388461.8,7301044.39
"376787",376787,1993,29,"v","Warthog",2,-24.56,31.8,378474.81,7283242.38
"376827",376827,1993,29,"v","Warthog",1,-24.61,31.86,384597.46,7277757.12
"376944",376944,1993,29,"v","Warthog",1,-24.66,31.92,390715.27,7272269.33
"376950",376950,1993,29,"v","Warthog",1,-24.68,31.92,390732.7,7270054.6
"376955",376955,1993,29,"v","Warthog",2,-24.7,31.92,390750.14,7267839.86
"376981",376981,1993,29,"v","Warthog",2,-24.69,31.9,388717.95,7268931.15
"376984",376984,1993,29,"v","Warthog",1,-24.68,31.9,388709.07,7270038.52
"376985",376985,1993,29,"v","Warthog",2,-24.69,31.89,387706.21,7268923
"377014",377014,1993,29,"v","Warthog",7,-24.73,31.88,386730.67,7264485.25
"377046",377046,1993,29,"v","Warthog",2,-24.7,31.84,382656.85,7267773.74
"377079",377079,1993,29,"v","Warthog",3,-24.72,31.83,381664.09,7265550.36
"377271",377271,1993,30,"v","Warthog",2,-24.71,31.93,391770.43,7266740.43
"377319",377319,1993,30,"v","Warthog",2,-24.72,31.91,389756.1,7265617.11
"377344",377344,1993,30,"v","Warthog",1,-24.75,31.89,387760.04,7262278.72
"377405",377405,1993,30,"v","Warthog",1,-24.66,31.94,392739.21,7272285.1
"377406",377406,1993,30,"v","Warthog",3,-24.64,31.93,391709.99,7274491.98
"377583",377583,1993,31,"v","Warthog",1,-24.49,31.76,374353.92,7290958.23
"377789",377789,1993,31,"v","Warthog",1,-24.49,31.67,365233.4,7290873.42
"377796",377796,1993,31,"v","Warthog",2,-24.54,31.67,365286.74,7285336.37
"377833",377833,1993,31,"v","Warthog",3,-24.56,31.66,364295.26,7283111.72
"377848",377848,1993,31,"v","Warthog",3,-24.6,31.65,363325.84,7278672.14
"378023",378023,1993,31,"v","Warthog",4,-24.4,31.73,371222.33,7300897.08
"378347",378347,1993,31,"v","Warthog",2,-24.39,31.61,359041.75,7301887.77
"378544",378544,1993,32,"v","Warthog",1,-24.53,31.55,353118.88,7286321.31
"378556",378556,1993,32,"v","Warthog",2,-24.52,31.57,355133.63,7287449.9
"378602",378602,1993,32,"v","Warthog",5,-24.52,31.6,358173.19,7287481.06
"378745",378745,1993,33,"v","Warthog",2,-24.57,31.61,359242.18,7281954.13
"378882",378882,1993,33,"v","Warthog",1,-24.72,31.63,361433.39,7265362.8
"378945",378945,1993,33,"v","Warthog",1,-24.76,31.68,366533.88,7260982.71
"378960",378960,1993,33,"v","Warthog",1,-24.78,31.63,361499.92,7258718.07
"379054",379054,1993,34,"v","Warthog",1,-24.63,31.75,373481.15,7275445.58
"379104",379104,1993,34,"v","Warthog",4,-24.75,31.85,383715.01,7262245.31
"379105",379105,1993,34,"v","Warthog",3,-24.77,31.85,383733.63,7260030.52
"379107",379107,1993,34,"v","Warthog",1,-24.76,31.83,381701.95,7261120.77
"379151",379151,1993,34,"v","Warthog",1,-24.73,31.76,374593.49,7264380.66
"379184",379184,1993,34,"v","Warthog",3,-24.6,31.67,365350.88,7278691.85
"379211",379211,1993,34,"v","Warthog",2,-24.64,31.67,365393.73,7274262.15
"379435",379435,1993,35,"v","Warthog",2,-24.83,31.63,361555.48,7253180.75
"379497",379497,1993,35,"v","Warthog",2,-24.9,31.61,359613.23,7245407.96
"379547",379547,1993,35,"v","Warthog",2,-24.92,31.68,366705.4,7243263.45
"379648",379648,1993,35,"v","Warthog",2,-24.78,31.65,363522.07,7258738.19
"379650",379650,1993,35,"v","Warthog",2,-24.79,31.66,364544,7257640.69
"379671",379671,1993,35,"v","Warthog",3,-24.82,31.66,364576.6,7254318.33
"379688",379688,1993,35,"v","Warthog",4,-24.83,31.67,365598.14,7253220.76
"379706",379706,1993,35,"v","Warthog",2,-24.85,31.72,370672.19,7251054.21
"379711",379711,1993,35,"v","Warthog",1,-24.85,31.68,366630.23,7251015.67
"379720",379720,1993,35,"v","Warthog",1,-24.86,31.73,371692.99,7249956.22
"379733",379733,1993,35,"v","Warthog",1,-24.88,31.66,364641.92,7247673.56
"379755",379755,1993,35,"v","Warthog",1,-24.88,31.74,372723.87,7247750.72
"379797",379797,1993,36,"v","Warthog",2,-24.8,31.84,382750.73,7256699.77
"379802",379802,1993,36,"v","Warthog",2,-24.78,31.84,382731.93,7258914.58
"379884",379884,1993,36,"v","Warthog",2,-24.85,31.79,377745.51,7251118.82
"379889",379889,1993,36,"v","Warthog",3,-24.83,31.78,376715.22,7253324.66
"379921",379921,1993,36,"v","Warthog",2,-24.83,31.77,375704.59,7253315.59
"379987",379987,1993,36,"v","Warthog",1,-24.82,31.72,370641.01,7254376.54
"379994",379994,1993,36,"v","Warthog",2,-24.82,31.71,369630.28,7254367.02
"380014",380014,1993,36,"v","Warthog",1,-24.87,31.88,386857.8,7248981.73
"380025",380025,1993,36,"v","Warthog",1,-24.81,31.88,386803.23,7255626.13
"380037",380037,1993,36,"v","Warthog",3,-24.79,31.88,386785.07,7257840.92
"380103",380103,1993,36,"v","Warthog",3,-24.84,31.84,382788.38,7252270.15
"380104",380104,1993,36,"v","Warthog",3,-24.84,31.84,382788.38,7252270.15
"380122",380122,1993,36,"v","Warthog",4,-24.84,31.83,381777.85,7252261.51
"380282",380282,1993,37,"v","Warthog",4,-24.87,31.97,395950.25,7249053.48
"380489",380489,1993,37,"v","Warthog",4,-24.87,31.9,388878.36,7248998.19
"380513",380513,1993,37,"v","Warthog",1,-24.86,31.88,386848.7,7250089.13
"380548",380548,1993,37,"v","Warthog",2,-24.91,31.9,388914.16,7244568.59
"380584",380584,1993,37,"v","Warthog",1,-24.96,31.92,390978.07,7239047.75
"380739",380739,1993,37,"v","Warthog",1,-25.05,31.95,394083.89,7229104.85
"380838",380838,1993,37,"v","Warthog",1,-25.12,31.96,395152.35,7221360.73
"380946",380946,1993,38,"v","Warthog",1,-25.03,31.92,391039.81,7231295.87
"381015",381015,1993,38,"v","Warthog",1,-24.9,31.86,384865.05,7245642.73
"381114",381114,1993,38,"v","Warthog",3,-24.97,31.8,378873.22,7237838.59
"381178",381178,1993,38,"v","Warthog",2,-24.96,31.76,374825.14,7238909.73
"381188",381188,1993,38,"v","Warthog",3,-24.9,31.76,374764.51,7245554.4
"381189",381189,1993,38,"v","Warthog",2,-24.89,31.77,375764.57,7246671
"381214",381214,1993,38,"v","Warthog",2,-25,31.79,377893.37,7234507.29
"381385",381385,1993,38,"v","Warthog",4,-25.1,31.9,389084.93,7223527.63
"381405",381405,1993,39,"v","Warthog",4,-24.98,31.3,328409.42,7236191.6
"381488",381488,1993,39,"v","Warthog",2,-25.07,31.22,320463.97,7226119.27
"381529",381529,1993,39,"v","Warthog",2,-25.13,31.25,323576.6,7219512.99
"381535",381535,1993,39,"v","Warthog",4,-25.13,31.24,322568.27,7219499.86
"381537",381537,1993,39,"v","Warthog",1,-25.13,31.26,324584.94,7219526.03
"381965",381965,1993,40,"v","Warthog",4,-25.22,31.3,328744.09,7209608.84
"382112",382112,1993,40,"v","Warthog",1,-25.17,31.22,320610.1,7215042.79
"382158",382158,1993,41,"v","Warthog",1,-25.14,31.39,337706.19,7218581.23
"382171",382171,1993,41,"v","Warthog",2,-25.14,31.43,341739,7218628.78
"382185",382185,1993,41,"v","Warthog",2,-25.11,31.45,343717.2,7221974.81
"382277",382277,1993,41,"v","Warthog",2,-25.15,31.48,346792.42,7217578.99
"382483",382483,1993,41,"v","Warthog",1,-25.3,31.4,338925.32,7200871.7
"382580",382580,1993,41,"v","Warthog",3,-25.35,31.4,338991.49,7195333.65
"382601",382601,1993,41,"v","Warthog",2,-25.37,31.39,338011.69,7193106.34
"382631",382631,1993,41,"v","Warthog",2,-25.4,31.37,336039.6,7189759.06
"382688",382688,1993,41,"v","Warthog",1,-25.33,31.34,332925.14,7197475.34
"382735",382735,1993,42,"v","Warthog",2,-25.12,31.57,355829.94,7221000.86
"382748",382748,1993,42,"v","Warthog",1,-25.16,31.6,358900.87,7216602.5
"382961",382961,1993,42,"v","Warthog",1,-25.22,31.53,351917.53,7209882.06
"383289",383289,1993,43,"v","Warthog",2,-24.97,31.57,355654.38,7237613.59
"383482",383482,1993,44,"v","Warthog",4,-25.41,31.63,362207.63,7188945.31
"383485",383485,1993,44,"v","Warthog",1,-25.4,31.63,362196.27,7190052.86
"383601",383601,1993,44,"v","Warthog",2,-25.3,31.68,367116.91,7201178.77
"383721",383721,1993,44,"v","Warthog",2,-25.29,31.62,361064.64,7202225.47
"383840",383840,1993,44,"v","Warthog",4,-25.19,31.76,375058.8,7213438.05
"383911",383911,1993,44,"v","Warthog",3,-25.22,31.74,373074.53,7210096.87
"383917",383917,1993,44,"v","Warthog",4,-25.25,31.72,371091.28,7206755.34
"384013",384013,1993,44,"v","Warthog",3,-25.3,31.85,384232.22,7201336.45
"384118",384118,1993,44,"v","Warthog",2,-25.37,31.87,386311.18,7193601.26
"384119",384119,1993,44,"v","Warthog",2,-25.36,31.87,386301.82,7194708.74
"384343",384343,1993,45,"v","Warthog",2,-25.11,31.88,387077.32,7222403.62
"384348",384348,1993,45,"v","Warthog",1,-25.1,31.87,386059.73,7223502.66
"384444",384444,1993,45,"v","Warthog",4,-25.15,31.86,385098.1,7217956.95
"384469",384469,1993,45,"v","Warthog",1,-25.14,31.82,381056.41,7219029.71
"384489",384489,1993,45,"v","Warthog",1,-25.16,31.84,383091.64,7216832.3
"384499",384499,1993,45,"v","Warthog",2,-25.15,31.82,381066.1,7217922.26
"384536",384536,1993,45,"v","Warthog",1,-25.17,31.83,382093.34,7215716.13
"384556",384556,1993,45,"v","Warthog",3,-25.17,31.83,382093.34,7215716.13
"384591",384591,1993,45,"v","Warthog",2,-25.16,31.8,379059.94,7216796.99
"384609",384609,1993,45,"v","Warthog",4,-25.19,31.84,383120.26,7213509.93
"384632",384632,1993,45,"v","Warthog",2,-25.17,31.79,378061.96,7215680.51
"384698",384698,1993,45,"v","Warthog",1,-25.22,31.81,380126.62,7210161.13
"384702",384702,1993,45,"v","Warthog",4,-25.21,31.79,378101.78,7211250.62
"384753",384753,1993,45,"v","Warthog",1,-25.33,31.88,387280.27,7198039.62
"384772",384772,1993,45,"v","Warthog",1,-25.32,31.89,388277.6,7199155.47
"384773",384773,1993,45,"v","Warthog",4,-25.32,31.89,388277.6,7199155.47
"384797",384797,1993,45,"v","Warthog",1,-25.27,31.85,384203.74,7204658.87
"384812",384812,1993,45,"v","Warthog",3,-25.26,31.93,392250.92,7205832.95
"384822",384822,1993,45,"v","Warthog",1,-25.25,31.88,387206.28,7206899.34
"384826",384826,1993,45,"v","Warthog",3,-25.25,31.86,385191.94,7206882.39
"384838",384838,1993,45,"v","Warthog",1,-25.24,31.86,385182.54,7207989.85
"384840",384840,1993,45,"v","Warthog",2,-25.24,31.87,386189.79,7207998.36
"384842",384842,1993,45,"v","Warthog",2,-25.24,31.89,388204.3,7208015.16
"384843",384843,1993,45,"v","Warthog",1,-25.24,31.89,388204.3,7208015.16
"384862",384862,1993,45,"v","Warthog",2,-25.22,31.95,394230.45,7210278.62
"384896",384896,1993,45,"v","Warthog",5,-25.21,31.95,394221.8,7211386.05
"384904",384904,1993,45,"v","Warthog",8,-25.21,31.91,390191.85,7211353.99
"384922",384922,1993,45,"v","Warthog",1,-25.2,31.93,392198.02,7212477.61
"384974",384974,1993,45,"v","Warthog",6,-25.14,31.93,392145.24,7219122.22
"385028",385028,1993,56,"v","Warthog",3,-25.34,31.52,351056.66,7196580.24
"385047",385047,1993,56,"v","Warthog",4,-25.33,31.5,349031.21,7197665.41
"385060",385060,1993,56,"v","Warthog",2,-25.3,31.49,347987.15,7200976.83
"385087",385087,1993,56,"v","Warthog",3,-25.33,31.47,346011.38,7197631.24
"385088",385088,1993,56,"v","Warthog",1,-25.32,31.47,345998.73,7198738.82
"385109",385109,1993,56,"v","Warthog",3,-25.3,31.45,343959.7,7200930.86
"385135",385135,1993,56,"v","Warthog",1,-25.33,31.43,341984.9,7197584.62
"385166",385166,1993,56,"v","Warthog",4,-25.39,31.42,341056.79,7190927.13
"385229",385229,1993,56,"v","Warthog",1,-25.41,31.55,354160.3,7188860.32
"385233",385233,1993,56,"v","Warthog",3,-25.41,31.5,349130.63,7188804.74
"385331",385331,1993,56,"v","Warthog",2,-25.46,31.51,350198.43,7183278.06
"385341",385341,1993,56,"v","Warthog",2,-25.47,31.49,348199.93,7182147.83
"385345",385345,1993,56,"v","Warthog",5,-25.47,31.48,347194.49,7182136.39
"385449",385449,1993,56,"v","Warthog",1,-25.4,31.3,328997.07,7189671.25
"385782",385782,1993,58,"v","Warthog",1,-25.1,31.62,360848.84,7223268.37
"385820",385820,1993,60,"v","Warthog",2,-25.04,31.59,357754.12,7229882.19
"385919",385919,1993,60,"v","Warthog",1,-25.02,31.68,366813.13,7232188.73
"386212",386212,1993,46,"v","Warthog",2,-25.3,31.98,397319.95,7201442.38
"386224",386224,1993,46,"v","Warthog",1,-25.28,31.97,396296.21,7203649.57
"386225",386225,1993,46,"v","Warthog",1,-25.29,31.97,396304.71,7202542.13
"386330",386330,1993,46,"v","Warthog",2,-25.23,31.96,395246.42,7209179.01
"386367",386367,1993,46,"v","Warthog",2,-25.21,31.95,394221.8,7211386.05
"386659",386659,1993,63,"v","Warthog",1,-22.56,31.22,316976.07,7504095.81
"386691",386691,1993,64,"v","Warthog",1,-22.39,31.27,321900.98,7522980.08
"386811",386811,1993,64,"v","Warthog",4,-22.34,31.11,305355.78,7528318.46
