"","ID","Year","Cenb","Sp","Description","No","Lat","Long","X.coord","Y.coord"
"48774",48774,1981,6,"ro","Roan antelope",3,-23.58,31.32,328558.59,7391266.38
"48842",48842,1981,6,"ro","Roan antelope",6,-23.58,31.36,332641.3,7391313.71
"49273",49273,1981,8,"ro","Roan antelope",2,-23.58,31.28,324475.82,7391217.91
"49820",49820,1981,10,"ro","Roan antelope",7,-23.35,31.03,298608.26,7416361.87
"50378",50378,1981,11,"ro","Roan antelope",3,-23.31,31.26,322073.03,7421093.34
"50389",50389,1981,11,"ro","Roan antelope",4,-23.31,31.28,324118.59,7421117.79
"50410",50410,1981,11,"ro","Roan antelope",2,-23.28,31.26,322033.12,7424415.52
"50415",50415,1981,11,"ro","Roan antelope",3,-23.28,31.28,324079.14,7424439.94
"50962",50962,1981,13,"ro","Roan antelope",6,-23.64,31.51,348020.2,7384837
"50970",50970,1981,13,"ro","Roan antelope",11,-23.66,31.53,350083.3,7382643.47
"50982",50982,1981,13,"ro","Roan antelope",12,-23.62,31.53,350037.72,7387072.81
"51212",51212,1981,13,"ro","Roan antelope",7,-23.72,31.61,358307.93,7376081.31
"51261",51261,1981,13,"ro","Roan antelope",12,-23.62,31.59,356159.49,7387134.47
"51404",51404,1981,14,"ro","Roan antelope",8,-23.43,31.34,330407.96,7407901
"51492",51492,1981,14,"ro","Roan antelope",5,-23.43,31.42,338582.53,7407992.93
"51608",51608,1981,14,"ro","Roan antelope",11,-23.58,31.51,347950.98,7391481.04
"51729",51729,1981,15,"ro","Roan antelope",13,-23.35,31.34,330306.04,7416759.98
"51859",51859,1981,15,"ro","Roan antelope",14,-23.41,31.53,349799.63,7410326.53
"52348",52348,1981,18,"ro","Roan antelope",12,-23.2,31.53,349563.55,7433579.66
"63108",63108,1981,41,"ro","Roan antelope",2,-25.28,31.36,334870.66,7203038.26
"67053",67053,1981,47,"ro","Roan antelope",18,-22.74,31.19,314133.25,7484126.59
"67090",67090,1981,47,"ro","Roan antelope",2,-22.83,31.21,316308.12,7474185.42
"67091",67091,1981,47,"ro","Roan antelope",3,-22.83,31.21,316308.12,7474185.42
"67197",67197,1981,47,"ro","Roan antelope",3,-22.68,31.26,321245.13,7490856.63
"67341",67341,1981,48,"ro","Roan antelope",4,-22.83,31.23,318361,7474210.17
"67386",67386,1981,48,"ro","Roan antelope",8,-22.81,31.28,323467.35,7476485.48
"67390",67390,1981,48,"ro","Roan antelope",9,-22.83,31.26,321440.3,7474246.78
"67446",67446,1981,48,"ro","Roan antelope",10,-22.81,31.32,327573.6,7476532.73
"67468",67468,1981,48,"ro","Roan antelope",14,-22.89,31.36,331778.28,7467720.5
"67493",67493,1981,48,"ro","Roan antelope",6,-22.83,31.36,331704.38,7474364.28
"67494",67494,1981,48,"ro","Roan antelope",7,-22.83,31.36,331704.38,7474364.28
"67648",67648,1981,49,"ro","Roan antelope",19,-22.91,31.3,325648.16,7465436.04
"67671",67671,1981,49,"ro","Roan antelope",8,-22.93,31.34,329776.37,7463268.27
"67901",67901,1981,50,"ro","Roan antelope",7,-23.12,31.48,344353.4,7442385.37
"67950",67950,1981,50,"ro","Roan antelope",7,-23.12,31.51,347425.86,7442417.06
"68227",68227,1981,52,"ro","Roan antelope",2,-23.03,31.3,325802.07,7452148.03
"68296",68296,1981,52,"ro","Roan antelope",16,-23.03,31.34,329901.65,7452195.07
"68940",68940,1981,54,"ro","Roan antelope",6,-22.99,31.01,296018.04,7456203.31
