"","ID","Year","Cenb","Sp","Description","No","Lat","Long","X.coord","Y.coord"
"24571",24571,1980,38,"b","Buffalo",2,-24.99,31.9,388985.91,7235709.3
"24572",24572,1980,21,"b","Buffalo",5,-24.24,31.53,350752.38,7318415.54
"24573",24573,1980,48,"b","Buffalo",5,-22.83,31.23,318361,7474210.17
"24574",24574,1980,29,"b","Buffalo",13,-24.56,31.84,382526.03,7283277.07
"24575",24575,1980,6,"b","Buffalo",15,-23.62,31.42,338814.18,7386953.09
"24576",24576,1980,9,"b","Buffalo",15,-23.51,31.11,307021.2,7398751.57
"24577",24577,1980,18,"b","Buffalo",15,-23.22,31.55,351632.7,7431385.67
"24578",24578,1980,7,"b","Buffalo",20,-23.62,31.23,319427.08,7386725.94
"24579",24579,1980,21,"b","Buffalo",20,-24.24,31.55,352783.25,7318436.79
"24580",24580,1980,18,"b","Buffalo",24,-23.24,31.53,349608.36,7429150.54
"24581",24581,1980,8,"b","Buffalo",25,-23.49,31.36,332527.36,7401280.17
"24582",24582,1980,9,"b","Buffalo",30,-23.51,31.11,307021.2,7398751.57
"24583",24583,1980,10,"b","Buffalo",30,-23.37,31.07,302728.1,7414202.1
"24584",24584,1980,18,"b","Buffalo",30,-23.22,31.51,347539.18,7431344.25
"24585",24585,1980,55,"b","Buffalo",30,-22.87,31.03,297890.59,7469520.36
"24586",24586,1980,56,"b","Buffalo",30,-25.37,31.71,370212.02,7193455.57
"24587",24587,1980,6,"b","Buffalo",35,-23.62,31.32,328610.61,7386836.75
"24588",24588,1980,18,"b","Buffalo",50,-23.2,31.34,330115.82,7433370.34
"24589",24589,1980,20,"b","Buffalo",50,-24.06,31.21,318001.78,7337971.3
"24590",24590,1980,20,"b","Buffalo",50,-24.1,31.42,339407.26,7333797.69
"24591",24591,1980,30,"b","Buffalo",50,-24.58,31.98,396721.37,7281174.52
"24592",24592,1980,46,"b","Buffalo",50,-25.35,31.94,393336.82,7195873.87
"24593",24593,1980,46,"b","Buffalo",50,-25.18,31.96,395203.61,7214716.18
"24594",24594,1980,48,"b","Buffalo",50,-22.81,31.38,333732.87,7476601.51
"24595",24595,1980,53,"b","Buffalo",50,-23.1,30.98,293110.25,7443978.93
"24596",24596,1980,3,"b","Buffalo",60,-23.95,31.28,324971.67,7350242.46
"24597",24597,1980,46,"b","Buffalo",60,-25.18,31.96,395203.61,7214716.18
"24598",24598,1980,55,"b","Buffalo",60,-22.85,31.21,316334.98,7471970.71
"24599",24599,1980,44,"b","Buffalo",70,-25.31,31.78,377194.91,7200166.66
"24600",24600,1980,13,"b","Buffalo",80,-23.64,31.61,358221.6,7384939.83
"24601",24601,1980,52,"b","Buffalo",80,-23.12,31.36,332063.26,7442252.25
"24602",24602,1980,53,"b","Buffalo",80,-23.12,31.11,306457.1,7441942.43
"24603",24603,1980,8,"b","Buffalo",100,-23.49,31.28,324356.31,7401184.64
"24604",24604,1980,12,"b","Buffalo",100,-23.24,31.07,302536.16,7428599.27
"24605",24605,1980,20,"b","Buffalo",100,-24.08,31.59,356666.46,7336196.61
"24606",24606,1980,21,"b","Buffalo",100,-24.28,31.57,354859.54,7314028.12
"24607",24607,1980,21,"b","Buffalo",100,-24.14,31.61,358765.68,7329572.64
"24608",24608,1980,47,"b","Buffalo",100,-22.7,31.15,309969.44,7488505.31
"24609",24609,1980,53,"b","Buffalo",100,-23.14,31.09,304437.52,7439700.85
"24610",24610,1980,4,"b","Buffalo",120,-23.76,31.17,313503.61,7371144.13
"24611",24611,1980,12,"b","Buffalo",120,-23.2,31.15,310666.8,7433135.58
"24612",24612,1980,14,"b","Buffalo",120,-23.6,31.46,342871.67,7389212.34
"24613",24613,1980,28,"b","Buffalo",120,-24.47,31.78,376361.13,7293191.02
"24614",24614,1980,55,"b","Buffalo",120,-22.87,31.05,299943.02,7469547.65
"24615",24615,1980,20,"b","Buffalo",130,-24.12,31.59,356710.98,7331767.09
"24616",24616,1980,28,"b","Buffalo",130,-24.39,31.9,388453.02,7302151.72
"24617",24617,1980,2,"b","Buffalo",150,-24.01,31.46,343364.34,7343809.65
"24618",24618,1980,5,"b","Buffalo",150,-23.85,31.53,350300.8,7361603.78
"24619",24619,1980,8,"b","Buffalo",150,-23.51,31.34,330510.21,7399041.94
"24620",24620,1980,9,"b","Buffalo",150,-23.6,31.13,309193.85,7388811
"24621",24621,1980,9,"b","Buffalo",150,-23.56,31.13,309135.99,7393240.93
"24622",24622,1980,9,"b","Buffalo",150,-23.47,31.17,313092.55,7403260.76
"24623",24623,1980,12,"b","Buffalo",150,-23.24,31.07,302536.16,7428599.27
"24624",24624,1980,13,"b","Buffalo",150,-23.81,31.63,360442.98,7366135.18
"24625",24625,1980,25,"b","Buffalo",150,-24.06,31.84,382064.5,7338643.83
"24626",24626,1980,26,"b","Buffalo",150,-24.35,31.86,384360.05,7306548.33
"24627",24627,1980,34,"b","Buffalo",150,-24.7,31.65,363434.69,7267597.78
"24628",24628,1980,35,"b","Buffalo",150,-24.89,31.73,371723.97,7246633.89
"24629",24629,1980,41,"b","Buffalo",150,-25.16,31.38,336724.61,7216353.97
"24630",24630,1980,54,"b","Buffalo",150,-22.89,31.03,297920.21,7467305.48
"24631",24631,1980,56,"b","Buffalo",150,-25.35,31.71,370190.65,7195670.61
"24632",24632,1980,7,"b","Buffalo",200,-23.7,31.34,330754.38,7378001.33
"24633",24633,1980,9,"b","Buffalo",200,-23.53,31.17,313177.2,7396616.03
"24634",24634,1980,9,"b","Buffalo",200,-23.53,31.19,315219.45,7396641.94
"24635",24635,1980,9,"b","Buffalo",200,-23.45,31.17,313064.37,7405475.66
"24636",24636,1980,11,"b","Buffalo",200,-23.2,31.28,323974.17,7433298.96
"24637",24637,1980,15,"b","Buffalo",200,-23.31,31.32,328209.68,7421165.84
"24638",24638,1980,18,"b","Buffalo",200,-23.18,31.34,330090.55,7435585.04
"24639",24639,1980,19,"b","Buffalo",200,-23.53,31.59,356061.39,7397100.24
"24640",24640,1980,25,"b","Buffalo",200,-24.08,31.82,380049.54,7336412.28
"24641",24641,1980,35,"b","Buffalo",200,-24.93,31.63,361666.91,7242106.01
"24642",24642,1980,38,"b","Buffalo",200,-25.12,31.92,391119.44,7221329.05
"24643",24643,1980,54,"b","Buffalo",200,-23.03,31.3,325802.07,7452148.03
"24644",24644,1980,55,"b","Buffalo",200,-22.81,31.17,312174.85,7476349.81
"24645",24645,1980,4,"b","Buffalo",250,-23.78,31.32,328819.49,7369118.02
"24646",24646,1980,18,"b","Buffalo",250,-23.2,31.34,330115.82,7433370.34
"24647",24647,1980,18,"b","Buffalo",250,-23.28,31.48,344538.6,7424668.63
"24648",24648,1980,18,"b","Buffalo",250,-23.28,31.48,344538.6,7424668.63
"24649",24649,1980,26,"b","Buffalo",250,-24.39,31.9,388453.02,7302151.72
"24650",24650,1980,37,"b","Buffalo",250,-25.01,32.01,400104.25,7233580.07
"24651",24651,1980,52,"b","Buffalo",250,-23.03,31.32,327851.87,7452171.69
"24652",24652,1980,2,"b","Buffalo",300,-23.93,31.53,350392.86,7352744.82
"24653",24653,1980,12,"b","Buffalo",300,-23.2,31.15,310666.8,7433135.58
"24654",24654,1980,14,"b","Buffalo",300,-23.56,31.57,354052.54,7393758.1
"24655",24655,1980,21,"b","Buffalo",300,-24.22,31.59,356822.58,7320693.21
"24656",24656,1980,22,"b","Buffalo",300,-24.39,31.46,343828.12,7301727.1
"24657",24657,1980,27,"b","Buffalo",300,-24.33,31.92,390429.65,7308811.59
"24658",24658,1980,31,"b","Buffalo",300,-24.62,31.71,369421.71,7276515.58
"24659",24659,1980,44,"b","Buffalo",300,-25.33,31.86,385267.25,7198022.64
"24660",24660,1980,50,"b","Buffalo",300,-23.14,31.48,344376.48,7440170.79
"24661",24661,1980,56,"b","Buffalo",300,-25.35,31.73,372203.41,7195689.86
"24662",24662,1980,1,"b","Buffalo",350,-23.97,31.59,356544.39,7348377.66
"24663",24663,1980,34,"b","Buffalo",350,-24.74,31.82,380671.67,7263326.89
"24664",24664,1980,6,"b","Buffalo",400,-23.64,31.44,340879.03,7384760.77
"24665",24665,1980,9,"b","Buffalo",400,-23.58,31.23,319372.28,7391155.71
"24666",24666,1980,15,"b","Buffalo",400,-23.33,31.48,344596.72,7419132.09
"24667",24667,1980,26,"b","Buffalo",400,-24.33,31.88,386371.15,7308779.48
"24668",24668,1980,28,"b","Buffalo",400,-24.51,31.92,390584.99,7288879.64
"24669",24669,1980,31,"b","Buffalo",400,-24.47,31.65,363184.96,7293068.59
"24670",24670,1980,32,"b","Buffalo",400,-24.56,31.55,353153.81,7282998.95
"24671",24671,1980,55,"b","Buffalo",400,-22.85,31.11,306071.82,7471842.67
"24672",24672,1980,32,"b","Buffalo",450,-24.49,31.61,359152.93,7290813.58
"24673",24673,1980,54,"b","Buffalo",500,-22.95,31.13,308265.17,7460794.87
"24674",24674,1980,54,"b","Buffalo",600,-23.06,31.21,316618.42,7448715.95
"24675",24675,1980,3,"b","Buffalo",700,-23.93,31.26,322908.74,7352432.45
"24676",24676,1980,38,"b","Buffalo",800,-25.1,31.88,387068.13,7223511.06
"24677",24677,1980,46,"b","Buffalo",999,-25.26,31.96,395272.14,7205856.69
