"","ID","Year","Cenb","Sp","Description","No","Lat","Long","X.coord","Y.coord"
"99213",99213,1983,2,"e","Eland",4,-23.89,31.38,335073.43,7357007.48
"99253",99253,1983,2,"e","Eland",10,-24.03,31.42,339320.07,7341549.71
"99299",99299,1983,2,"e","Eland",1,-23.91,31.42,339171.15,7354838.73
"99565",99565,1983,3,"e","Eland",7,-23.95,31.19,315811.21,7350127.87
"99928",99928,1983,3,"e","Eland",2,-23.89,31.3,326927.33,7356911.87
"99935",99935,1983,3,"e","Eland",1,-23.89,31.32,328963.88,7356936.2
"100038",100038,1983,3,"e","Eland",4,-23.89,31.36,333036.93,7356984.01
"100039",100039,1983,3,"e","Eland",4,-23.89,31.36,333036.93,7356984.01
"100044",100044,1983,3,"e","Eland",6,-23.91,31.34,331026.42,7354745.37
"100048",100048,1983,3,"e","Eland",2,-23.91,31.36,333062.62,7354769.15
"100406",100406,1983,4,"e","Eland",6,-23.83,31.3,326847.56,7363556.57
"101223",101223,1983,7,"e","Eland",3,-23.62,31.28,324529.08,7386788.22
"101249",101249,1983,7,"e","Eland",6,-23.7,31.32,328714.88,7377977.43
"101274",101274,1983,8,"e","Eland",5,-23.49,31.23,319249.29,7401122.63
"101285",101285,1983,8,"e","Eland",12,-23.56,31.28,324449.23,7393432.75
"101306",101306,1983,8,"e","Eland",6,-23.53,31.28,324409.38,7396755
"101311",101311,1983,8,"e","Eland",2,-23.47,31.26,322286.71,7403374.88
"101368",101368,1983,8,"e","Eland",5,-23.56,31.32,328532.62,7393481.19
"101374",101374,1983,8,"e","Eland",11,-23.51,31.32,328467.77,7399018.18
"101383",101383,1983,8,"e","Eland",6,-23.53,31.32,328493.69,7396803.39
"101399",101399,1983,8,"e","Eland",18,-23.49,31.3,326399.1,7401208.95
"101597",101597,1983,9,"e","Eland",3,-23.51,31.11,307021.2,7398751.57
"101612",101612,1983,9,"e","Eland",4,-23.49,31.09,304949.12,7400939.52
"101613",101613,1983,9,"e","Eland",7,-23.49,31.09,304949.12,7400939.52
"101614",101614,1983,9,"e","Eland",8,-23.49,31.09,304949.12,7400939.52
"101620",101620,1983,9,"e","Eland",4,-23.49,31.11,306992.05,7400966.53
"101798",101798,1983,9,"e","Eland",17,-23.45,31.19,315107.86,7405501.5
"101847",101847,1983,9,"e","Eland",2,-23.47,31.21,317178.88,7403312.19
"101938",101938,1983,10,"e","Eland",2,-23.43,31.07,302817.03,7407557.18
"102077",102077,1983,10,"e","Eland",2,-23.41,31.09,304831.54,7409799.39
"102088",102088,1983,10,"e","Eland",7,-23.35,31.09,304743.61,7416444.23
"102097",102097,1983,10,"e","Eland",1,-23.35,31.11,306788.69,7416471.12
"102170",102170,1983,10,"e","Eland",2,-23.41,31.13,308919.85,7409852.99
"102246",102246,1983,10,"e","Eland",8,-23.37,31.17,312951.91,7414335.22
"102262",102262,1983,10,"e","Eland",3,-23.33,31.17,312895.81,7418764.96
"102263",102263,1983,10,"e","Eland",4,-23.33,31.17,312895.81,7418764.96
"102439",102439,1983,11,"e","Eland",7,-23.37,31.3,326242.27,7414497.67
"102561",102561,1983,12,"e","Eland",3,-23.28,31.05,300548.92,7424142
"102562",102562,1983,12,"e","Eland",6,-23.28,31.05,300548.92,7424142
"102603",102603,1983,12,"e","Eland",4,-23.22,31.11,306600.89,7430868.03
"102628",102628,1983,12,"e","Eland",3,-23.26,31.13,308705.02,7426464.76
"102645",102645,1983,12,"e","Eland",3,-23.28,31.13,308733.59,7424249.87
"102685",102685,1983,12,"e","Eland",3,-23.24,31.15,310723.21,7428705.87
"102686",102686,1983,12,"e","Eland",6,-23.24,31.15,310723.21,7428705.87
"102703",102703,1983,12,"e","Eland",4,-23.26,31.17,312797.86,7426516.97
"103195",103195,1983,14,"e","Eland",18,-23.47,31.4,336588.15,7403540.94
"103217",103217,1983,14,"e","Eland",12,-23.45,31.4,336563.52,7405755.66
"103218",103218,1983,14,"e","Eland",2,-23.45,31.4,336563.52,7405755.66
"103271",103271,1983,14,"e","Eland",1,-23.49,31.42,338655.49,7401348.82
"103456",103456,1983,14,"e","Eland",1,-23.53,31.53,349935.44,7397038.76
"103457",103457,1983,14,"e","Eland",8,-23.53,31.53,349935.44,7397038.76
"103462",103462,1983,14,"e","Eland",8,-23.47,31.53,349867.45,7403682.67
"103494",103494,1983,15,"e","Eland",2,-23.35,31.32,328261.13,7416736.35
"103526",103526,1983,15,"e","Eland",2,-23.35,31.36,332350.93,7416783.33
"103554",103554,1983,15,"e","Eland",4,-23.33,31.36,332325.81,7418998.04
"103636",103636,1983,15,"e","Eland",1,-23.41,31.44,340602.17,7410229.88
"104592",104592,1983,19,"e","Eland",6,-23.89,31.71,368673.92,7357353.11
"105566",105566,1983,22,"e","Eland",4,-24.35,31.42,339720.61,7306111.36
"106353",106353,1983,24,"e","Eland",2,-24.37,31.71,369163.23,7304200.5
"111435",111435,1983,37,"e","Eland",1,-25.06,31.96,395101.2,7228005.23
"112401",112401,1983,39,"e","Eland",2,-25.14,31.28,326615.72,7218444.27
"116624",116624,1983,47,"e","Eland",5,-22.76,31.19,314160.31,7481911.89
"116633",116633,1983,47,"e","Eland",25,-22.72,31.17,312051.64,7486316.08
"116634",116634,1983,47,"e","Eland",5,-22.72,31.17,312051.64,7486316.08
"116635",116635,1983,47,"e","Eland",5,-22.72,31.17,312051.64,7486316.08
"116636",116636,1983,47,"e","Eland",9,-22.72,31.17,312051.64,7486316.08
"116652",116652,1983,47,"e","Eland",9,-22.68,31.17,311997.02,7490745.5
"116660",116660,1983,47,"e","Eland",6,-22.7,31.17,312024.32,7488530.79
"116693",116693,1983,47,"e","Eland",9,-22.78,31.23,318294.68,7479746.88
"116713",116713,1983,47,"e","Eland",7,-22.74,31.21,316187.5,7484151.55
"116772",116772,1983,47,"e","Eland",3,-22.76,31.28,323402.97,7482022.07
"116773",116773,1983,47,"e","Eland",8,-22.76,31.28,323402.97,7482022.07
"116810",116810,1983,47,"e","Eland",1,-22.7,31.28,323325.88,7488665.95
"116821",116821,1983,47,"e","Eland",4,-22.66,31.26,321219.2,7493071.25
"116888",116888,1983,48,"e","Eland",8,-22.89,31.26,321518.71,7467602.76
"116920",116920,1983,48,"e","Eland",3,-22.87,31.26,321492.55,7469817.44
"116921",116921,1983,48,"e","Eland",9,-22.87,31.26,321492.55,7469817.44
"116926",116926,1983,48,"e","Eland",3,-22.87,31.28,323544.8,7469841.53
"116993",116993,1983,48,"e","Eland",8,-22.87,31.3,325597.03,7469865.34
"116999",116999,1983,48,"e","Eland",2,-22.87,31.32,327649.24,7469888.87
"117003",117003,1983,48,"e","Eland",5,-22.81,31.3,325520.49,7476509.24
"117028",117028,1983,48,"e","Eland",1,-22.76,31.32,327510.71,7482069.24
"117036",117036,1983,48,"e","Eland",3,-22.78,31.32,327535.85,7479854.64
"117068",117068,1983,48,"e","Eland",3,-22.81,31.34,329626.71,7476555.93
"117095",117095,1983,48,"e","Eland",5,-22.76,31.34,329564.57,7482092.41
"117142",117142,1983,48,"e","Eland",3,-22.81,31.38,333732.87,7476601.51
"117287",117287,1983,49,"e","Eland",8,-22.91,31.28,323596.53,7465412.2
"117329",117329,1983,49,"e","Eland",5,-22.91,31.3,325648.16,7465436.04
"117354",117354,1983,49,"e","Eland",7,-22.93,31.34,329776.37,7463268.27
"117364",117364,1983,49,"e","Eland",3,-22.95,31.34,329801.38,7461053.64
"117376",117376,1983,49,"e","Eland",5,-23.01,31.4,336026.73,7454478.13
"117377",117377,1983,49,"e","Eland",8,-23.01,31.4,336026.73,7454478.13
"117491",117491,1983,49,"e","Eland",2,-22.97,31.46,342130.28,7458973.12
"117723",117723,1983,51,"e","Eland",2,-22.72,31.34,329514.95,7486521.56
"117771",117771,1983,52,"e","Eland",15,-23.08,31.19,314596.42,7446475.94
"117814",117814,1983,52,"e","Eland",3,-23.14,31.23,318775.24,7439881.86
"117899",117899,1983,52,"e","Eland",2,-23.12,31.26,321821.08,7442133.6
"118210",118210,1983,53,"e","Eland",4,-23.06,31.01,296123.4,7448451.04
"118292",118292,1983,53,"e","Eland",26,-23.1,31.07,302330.6,7444103.67
"118293",118293,1983,53,"e","Eland",6,-23.12,31.05,300311.26,7441861.53
"118488",118488,1983,53,"e","Eland",1,-23.14,31.17,312630.6,7439805.97
"118560",118560,1983,54,"e","Eland",9,-22.97,31.01,295987.99,7458418.23
"118585",118585,1983,54,"e","Eland",4,-22.95,31.03,298009.22,7460660.8
"118603",118603,1983,54,"e","Eland",26,-22.91,31.03,297949.85,7465090.59
"118616",118616,1983,54,"e","Eland",19,-22.97,31.07,302140.76,7458500.41
"118625",118625,1983,54,"e","Eland",2,-22.99,31.07,302169.9,7456285.54
"118787",118787,1983,54,"e","Eland",2,-23.03,31.17,312477.99,7451987.41
"119050",119050,1983,55,"e","Eland",3,-22.81,31.07,301908.52,7476219.17
"119058",119058,1983,55,"e","Eland",4,-22.83,31.07,301937.47,7474004.34
"119133",119133,1983,55,"e","Eland",2,-22.81,31.11,306015.1,7476272.26
"119176",119176,1983,55,"e","Eland",1,-22.87,31.15,310204.92,7469679.96
"119186",119186,1983,55,"e","Eland",17,-22.76,31.15,310052.36,7481861.11
"119213",119213,1983,55,"e","Eland",2,-22.89,31.19,314336.78,7467516.19
"119225",119225,1983,55,"e","Eland",3,-22.91,31.19,314364.02,7465301.45
"119296",119296,1983,55,"e","Eland",5,-22.85,31.21,316334.98,7471970.71
