"","ID","Year","Cenb","Sp","Description","No","Lat","Long","X.coord","Y.coord"
"121092",121092,1984,2,"bg","Roan antelope bull",1,-23.91,31.46,343243.44,7354883.68
"121930",121930,1984,4,"bg","Roan antelope bull",1,-23.74,31.15,311436.1,7373332.73
"122802",122802,1984,5,"bg","Roan antelope bull",1,-23.87,31.46,343195.21,7359313.26
"123523",123523,1984,7,"bg","Roan antelope bull",1,-23.62,31.26,322488.29,7386763.52
"123555",123555,1984,7,"bg","Roan antelope bull",1,-23.66,31.3,326622.57,7382382.95
"123729",123729,1984,8,"bg","Roan antelope bull",1,-23.43,31.32,328364.28,7407877.31
"124457",124457,1984,10,"bg","Roan antelope bull",1,-23.39,31.05,300713.22,7411959.64
"124953",124953,1984,11,"bg","Roan antelope bull",1,-23.28,31.3,326125.15,7424464.08
"125488",125488,1984,13,"bg","Roan antelope bull",1,-23.64,31.53,350060.5,7384858.14
"125743",125743,1984,13,"bg","Roan antelope bull",1,-23.7,31.59,356247,7378275.92
"125949",125949,1984,14,"bg","Roan antelope bull",1,-23.43,31.38,334495.27,7407947.53
"126195",126195,1984,14,"bg","Roan antelope bull",1,-23.45,31.48,344736.7,7405844.24
"126196",126196,1984,14,"bg","Roan antelope bull",1,-23.45,31.48,344736.7,7405844.24
"126240",126240,1984,14,"bg","Roan antelope bull",1,-23.47,31.51,347824.52,7403661.65
"126424",126424,1984,15,"bg","Roan antelope bull",1,-23.41,31.51,347755.77,7410305.55
"126488",126488,1984,18,"bg","Roan antelope bull",1,-23.22,31.34,330141.12,7431155.64
"126521",126521,1984,18,"bg","Roan antelope bull",1,-23.26,31.4,336330.54,7426795.22
"126592",126592,1984,18,"bg","Roan antelope bull",1,-23.26,31.44,340422.99,7426839.8
"126612",126612,1984,18,"bg","Roan antelope bull",2,-23.24,31.42,338352.66,7429032.3
"126674",126674,1984,18,"bg","Roan antelope bull",3,-23.28,31.48,344538.6,7424668.63
"126737",126737,1984,18,"bg","Roan antelope bull",1,-23.2,31.53,349563.55,7433579.66
"129931",129931,1984,26,"bg","Roan antelope bull",1,-24.24,31.78,376137.45,7318660.24
"136651",136651,1984,39,"bg","Roan antelope bull",1,-25.08,31.19,317452.27,7224971.43
"137717",137717,1984,41,"bg","Roan antelope bull",1,-25.26,31.34,332829.13,7205228.73
"141695",141695,1984,47,"bg","Roan antelope bull",1,-22.76,31.23,318268.2,7481961.55
"141758",141758,1984,47,"bg","Roan antelope bull",2,-22.76,31.28,323402.97,7482022.07
"141924",141924,1984,48,"bg","Roan antelope bull",1,-22.85,31.3,325571.49,7472079.98
"141953",141953,1984,48,"bg","Roan antelope bull",1,-22.83,31.32,327598.79,7474318.11
"142063",142063,1984,48,"bg","Roan antelope bull",1,-22.76,31.4,335726.03,7482160.24
"142186",142186,1984,49,"bg","Roan antelope bull",1,-22.97,31.3,325725.02,7458792.06
"142189",142189,1984,49,"bg","Roan antelope bull",1,-22.97,31.32,327775.72,7458815.67
"142296",142296,1984,49,"bg","Roan antelope bull",1,-22.95,31.4,335954.28,7461121.91
"142597",142597,1984,50,"bg","Roan antelope bull",1,-23.06,31.51,347358.09,7449060.69
"142805",142805,1984,52,"bg","Roan antelope bull",1,-23.12,31.21,316699.85,7442071.63
"142806",142806,1984,52,"bg","Roan antelope bull",2,-23.12,31.21,316699.85,7442071.63
"142985",142985,1984,52,"bg","Roan antelope bull",1,-23.12,31.32,327966.43,7442205.63
"143013",143013,1984,52,"bg","Roan antelope bull",1,-23.14,31.34,330040.06,7440014.41
"143036",143036,1984,52,"bg","Roan antelope bull",1,-23.06,31.34,329939.34,7448873.09
"143200",143200,1984,53,"bg","Roan antelope bull",2,-23.06,30.98,293049,7448408.88
"143348",143348,1984,53,"bg","Roan antelope bull",1,-23.1,31.07,302330.6,7444103.67
"143441",143441,1984,53,"bg","Roan antelope bull",1,-23.12,31.09,304408.51,7441915.74
