"","ID","Year","Cenb","Sp","Description","No","Lat","Long","X.coord","Y.coord"
"410635",410635,1996,16,"e","Eland",2,-24.3,31.57,354882.28,7311813.3
"413599",413599,1996,43,"e","Eland",3,-22.64,31.23,318109.73,7495249.5
"413610",413610,1996,43,"e","Eland",1,-22.65,31.22,317095.12,7494129.91
"413613",413613,1996,43,"e","Eland",1,-22.65,31.21,316067.33,7494117.58
"413616",413616,1996,43,"e","Eland",2,-22.66,31.18,312997.48,7492972.81
"413620",413620,1996,43,"e","Eland",5,-22.65,31.25,320178.47,7494166.5
"413629",413629,1996,43,"e","Eland",4,-22.67,31.22,317121.64,7491915.26
"413637",413637,1996,43,"e","Eland",2,-22.68,31.28,323300.23,7490880.56
"413703",413703,1996,45,"e","Eland",1,-22.89,31.45,341011.59,7467820.5
"413757",413757,1996,44,"e","Eland",4,-22.81,31.32,327573.6,7476532.73
"413806",413806,1996,44,"e","Eland",4,-22.85,31.26,321466.41,7472032.11
"413821",413821,1996,44,"e","Eland",2,-22.86,31.25,320453.28,7470912.63
"413911",413911,1996,45,"e","Eland",1,-22.92,31.3,325660.96,7464328.71
"414004",414004,1996,45,"e","Eland",1,-22.99,31.38,333952.21,7456670.22
"414014",414014,1996,45,"e","Eland",6,-23.01,31.37,332951.66,7454444.24
