"","ID","Year","Cenb","Sp","Description","No","Lat","Long","X.coord","Y.coord"
"413585",413585,1996,43,"ob","Elephant bull",1,-22.62,31.23,318083.4,7497464.14
"413593",413593,1996,43,"ob","Elephant bull",1,-22.63,31.23,318096.56,7496356.82
"413597",413597,1996,43,"ob","Elephant bull",6,-22.65,31.2,315039.53,7494105.17
"413614",413614,1996,43,"ob","Elephant bull",1,-22.65,31.19,314011.73,7494092.7
"413618",413618,1996,43,"ob","Elephant bull",1,-22.66,31.21,316080.66,7493010.25
"413621",413621,1996,43,"ob","Elephant bull",1,-22.67,31.21,316093.99,7491902.91
"413622",413622,1996,43,"ob","Elephant bull",4,-22.67,31.2,315066.35,7491890.5
"413624",413624,1996,43,"ob","Elephant bull",1,-22.67,31.19,314038.7,7491878.02
"413625",413625,1996,43,"ob","Elephant bull",1,-22.67,31.12,306845.03,7491788.71
"413626",413626,1996,43,"ob","Elephant bull",1,-22.67,31.12,306845.03,7491788.71
"413627",413627,1996,43,"ob","Elephant bull",7,-22.68,31.2,315079.76,7490783.16
"413630",413630,1996,43,"ob","Elephant bull",2,-22.67,31.22,317121.64,7491915.26
"413632",413632,1996,43,"ob","Elephant bull",1,-22.67,31.24,319176.91,7491939.74
"413633",413633,1996,43,"ob","Elephant bull",3,-22.67,31.24,319176.91,7491939.74
"413634",413634,1996,43,"ob","Elephant bull",3,-22.67,31.25,320204.54,7491951.87
"413639",413639,1996,43,"ob","Elephant bull",1,-22.68,31.23,318162.47,7490820.21
"413644",413644,1996,43,"ob","Elephant bull",1,-22.69,31.28,323313.05,7489773.25
"413668",413668,1996,43,"ob","Elephant bull",1,-22.73,31.3,325418.73,7485367.71
"413671",413671,1996,43,"ob","Elephant bull",1,-22.75,31.17,312092.66,7482994
"413690",413690,1996,44,"ob","Elephant bull",1,-22.86,31.24,319427.07,7470900.41
"413692",413692,1996,44,"ob","Elephant bull",2,-22.9,31.24,319479.99,7466471.02
"413693",413693,1996,54,"ob","Elephant bull",1,-22.86,31.22,317374.64,7470875.77
"413733",413733,1996,44,"ob","Elephant bull",1,-22.81,31.35,330653.25,7476567.43
"413735",413735,1996,44,"ob","Elephant bull",1,-22.86,31.37,332767.47,7471053.77
"413745",413745,1996,44,"ob","Elephant bull",1,-22.81,31.35,330653.25,7476567.43
"413772",413772,1996,44,"ob","Elephant bull",4,-22.83,31.32,327598.79,7474318.11
"413797",413797,1996,44,"ob","Elephant bull",1,-22.83,31.27,322466.73,7474258.84
"413798",413798,1996,44,"ob","Elephant bull",1,-22.83,31.27,322466.73,7474258.84
"413801",413801,1996,44,"ob","Elephant bull",2,-22.83,31.27,322466.73,7474258.84
"413817",413817,1996,44,"ob","Elephant bull",2,-22.87,31.26,321492.55,7469817.44
"413819",413819,1996,44,"ob","Elephant bull",1,-22.9,31.27,322557.69,7466507.51
"413820",413820,1996,44,"ob","Elephant bull",1,-22.89,31.26,321518.71,7467602.76
"413835",413835,1996,44,"ob","Elephant bull",1,-22.86,31.24,319427.07,7470900.41
"413840",413840,1996,45,"ob","Elephant bull",1,-22.92,31.23,318480.72,7464244.01
"413850",413850,1996,45,"ob","Elephant bull",2,-22.92,31.24,319506.48,7464256.32
"413859",413859,1996,45,"ob","Elephant bull",1,-22.97,31.27,322648.93,7458756.12
"413880",413880,1996,45,"ob","Elephant bull",2,-22.99,31.29,324725.47,7456565.47
"413885",413885,1996,44,"ob","Elephant bull",2,-22.9,31.26,321531.8,7466495.42
"413887",413887,1996,45,"ob","Elephant bull",1,-22.91,31.27,322570.71,7465400.17
"413888",413888,1996,45,"ob","Elephant bull",1,-22.91,31.28,323596.53,7465412.2
"413889",413889,1996,45,"ob","Elephant bull",4,-22.91,31.28,323596.53,7465412.2
"413890",413890,1996,45,"ob","Elephant bull",1,-22.91,31.28,323596.53,7465412.2
"413892",413892,1996,45,"ob","Elephant bull",4,-22.92,31.28,323609.48,7464304.86
"413893",413893,1996,45,"ob","Elephant bull",3,-22.93,31.28,323622.43,7463197.53
"413909",413909,1996,45,"ob","Elephant bull",4,-22.91,31.28,323596.53,7465412.2
"413910",413910,1996,45,"ob","Elephant bull",1,-22.9,31.28,323583.59,7466519.53
"413937",413937,1996,45,"ob","Elephant bull",1,-23.01,31.37,332951.66,7454444.24
"413938",413938,1996,45,"ob","Elephant bull",1,-23.02,31.37,332963.98,7453336.93
"413941",413941,1996,45,"ob","Elephant bull",1,-22.99,31.37,332927.03,7456658.86
"413942",413942,1996,45,"ob","Elephant bull",1,-22.99,31.37,332927.03,7456658.86
"413945",413945,1996,45,"ob","Elephant bull",2,-22.96,31.37,332890.14,7459980.78
"413959",413959,1996,45,"ob","Elephant bull",3,-22.9,31.45,341023.24,7466713.24
"413962",413962,1996,45,"ob","Elephant bull",1,-22.91,31.43,338983.39,7465584.22
"413964",413964,1996,45,"ob","Elephant bull",4,-22.92,31.39,334892.42,7464432.59
"413967",413967,1996,45,"ob","Elephant bull",1,-22.92,31.41,336943.82,7464454.91
"413971",413971,1996,45,"ob","Elephant bull",1,-22.93,31.39,334904.54,7463325.3
