"","ID","Year","Cenb","Sp","Description","No","Lat","Long","X.coord","Y.coord"
"71828",71828,1982,1,"wa","Waterbuck bull",4,-23.99,31.65,362670.87,7346222.73
"71868",71868,1982,1,"wa","Waterbuck bull",2,-23.93,31.65,362607.29,7352866.77
"71969",71969,1982,1,"wa","Waterbuck bull",2,-24.06,31.67,364778.9,7338490.67
"72001",72001,1982,1,"wa","Waterbuck bull",1,-24.01,31.67,364726.54,7344027.4
"72184",72184,1982,1,"wa","Waterbuck bull",1,-24.01,31.71,368795.38,7344065.26
"72287",72287,1982,1,"wa","Waterbuck bull",1,-23.97,31.78,375877.41,7348557.96
"72321",72321,1982,2,"wa","Waterbuck bull",1,-24.06,31.38,335289.79,7338181.1
"72338",72338,1982,2,"wa","Waterbuck bull",1,-24.03,31.38,335251.5,7341503.43
"72418",72418,1982,2,"wa","Waterbuck bull",1,-24.03,31.42,339320.07,7341549.71
"72483",72483,1982,2,"wa","Waterbuck bull",1,-23.93,31.48,345303.39,7352690.94
"72527",72527,1982,2,"wa","Waterbuck bull",1,-24.01,31.53,350485.22,7343885.78
"72562",72562,1982,2,"wa","Waterbuck bull",1,-23.93,31.51,348357.09,7352723.49
"72593",72593,1982,2,"wa","Waterbuck bull",1,-23.89,31.51,348310.39,7357153
"72594",72594,1982,2,"wa","Waterbuck bull",1,-23.89,31.51,348310.39,7357153
"72633",72633,1982,2,"wa","Waterbuck bull",1,-24.06,31.55,352576.82,7338369.96
"72638",72638,1982,2,"wa","Waterbuck bull",1,-24.01,31.55,352519.73,7343906.88
"72649",72649,1982,2,"wa","Waterbuck bull",1,-24.03,31.55,352542.55,7341692.11
"72670",72670,1982,2,"wa","Waterbuck bull",1,-23.99,31.55,352496.93,7346121.63
"72866",72866,1982,3,"wa","Waterbuck bull",2,-24.01,31.21,317931.29,7343508.84
"73004",73004,1982,3,"wa","Waterbuck bull",1,-24.1,31.28,325174.77,7333630.28
"73011",73011,1982,3,"wa","Waterbuck bull",1,-24.06,31.26,323086.6,7338035.18
"73039",73039,1982,3,"wa","Waterbuck bull",3,-24.08,31.26,323114.04,7335820.19
"73056",73056,1982,3,"wa","Waterbuck bull",1,-24.08,31.28,325147.62,7335845.25
"73214",73214,1982,3,"wa","Waterbuck bull",1,-24.08,31.3,327181.19,7335870.02
"73559",73559,1982,4,"wa","Waterbuck bull",1,-23.68,31.15,311349.8,7379977.68
"73576",73576,1982,4,"wa","Waterbuck bull",1,-23.7,31.15,311378.54,7377762.7
"73890",73890,1982,4,"wa","Waterbuck bull",1,-23.72,31.23,319564.48,7375651.42
"73923",73923,1982,4,"wa","Waterbuck bull",1,-23.7,31.21,317497.38,7377840.85
"74032",74032,1982,4,"wa","Waterbuck bull",1,-23.72,31.26,322623.35,7375689.12
"74040",74040,1982,4,"wa","Waterbuck bull",1,-23.72,31.28,324662.59,7375713.89
"74066",74066,1982,4,"wa","Waterbuck bull",1,-23.74,31.28,324689.35,7373499.01
"74100",74100,1982,4,"wa","Waterbuck bull",1,-23.81,31.32,328858.81,7365795.73
"74155",74155,1982,4,"wa","Waterbuck bull",1,-23.72,31.32,328741,7375762.59
"74237",74237,1982,5,"wa","Waterbuck bull",1,-23.78,31.36,332895.99,7369165.66
"74414",74414,1982,5,"wa","Waterbuck bull",2,-23.76,31.46,343062.98,7371494.48
"74420",74420,1982,5,"wa","Waterbuck bull",1,-23.76,31.48,345101.45,7371516.42
"74421",74421,1982,5,"wa","Waterbuck bull",4,-23.76,31.48,345101.45,7371516.42
"74524",74524,1982,5,"wa","Waterbuck bull",1,-23.81,31.55,352292.52,7366054.19
"74546",74546,1982,5,"wa","Waterbuck bull",1,-23.83,31.57,354352.48,7363860.18
"74632",74632,1982,6,"wa","Waterbuck bull",1,-23.76,31.38,334908.96,7371403.86
"74830",74830,1982,6,"wa","Waterbuck bull",1,-23.62,31.44,340854.85,7386975.5
"74871",74871,1982,6,"wa","Waterbuck bull",1,-23.74,31.46,343039,7373709.23
"74907",74907,1982,6,"wa","Waterbuck bull",1,-23.66,31.46,342943.26,7382568.18
"74933",74933,1982,7,"wa","Waterbuck bull",1,-23.68,31.19,315429.66,7380030.03
"74934",74934,1982,7,"wa","Waterbuck bull",1,-23.68,31.19,315429.66,7380030.03
"74944",74944,1982,7,"wa","Waterbuck bull",1,-23.7,31.17,313418.17,7377789.04
"74949",74949,1982,7,"wa","Waterbuck bull",1,-23.7,31.19,315457.78,7377815.09
"74966",74966,1982,7,"wa","Waterbuck bull",3,-23.72,31.23,319564.48,7375651.42
"74979",74979,1982,7,"wa","Waterbuck bull",1,-23.7,31.21,317497.38,7377840.85
"75020",75020,1982,7,"wa","Waterbuck bull",3,-23.72,31.26,322623.35,7375689.12
"75074",75074,1982,7,"wa","Waterbuck bull",1,-23.7,31.3,326675.37,7377953.24
"75079",75079,1982,7,"wa","Waterbuck bull",4,-23.7,31.32,328714.88,7377977.43
"75107",75107,1982,7,"wa","Waterbuck bull",1,-23.74,31.36,332844.89,7373595.31
"75108",75108,1982,7,"wa","Waterbuck bull",1,-23.74,31.36,332844.89,7373595.31
"75248",75248,1982,8,"wa","Waterbuck bull",1,-23.43,31.32,328364.28,7407877.31
"75279",75279,1982,8,"wa","Waterbuck bull",4,-23.41,31.32,328338.46,7410092.08
"75295",75295,1982,8,"wa","Waterbuck bull",1,-23.51,31.34,330510.21,7399041.94
"75296",75296,1982,8,"wa","Waterbuck bull",1,-23.51,31.34,330510.21,7399041.94
"75305",75305,1982,8,"wa","Waterbuck bull",1,-23.51,31.36,332552.64,7399065.41
"75355",75355,1982,8,"wa","Waterbuck bull",2,-23.51,31.38,334595.06,7399088.59
"75369",75369,1982,8,"wa","Waterbuck bull",1,-23.51,31.4,336637.46,7399111.49
"75380",75380,1982,8,"wa","Waterbuck bull",4,-23.53,31.38,334620.06,7396873.84
"75388",75388,1982,8,"wa","Waterbuck bull",1,-23.53,31.4,336662.15,7396896.76
"75404",75404,1982,9,"wa","Waterbuck bull",1,-23.49,31.07,302906.18,7400912.22
"75412",75412,1982,9,"wa","Waterbuck bull",1,-23.6,31.11,307152.64,7388784.17
"75413",75413,1982,9,"wa","Waterbuck bull",1,-23.6,31.11,307152.64,7388784.17
"75433",75433,1982,9,"wa","Waterbuck bull",1,-23.51,31.11,307021.2,7398751.57
"75442",75442,1982,9,"wa","Waterbuck bull",4,-23.53,31.11,307050.37,7396536.6
"75504",75504,1982,9,"wa","Waterbuck bull",1,-23.56,31.13,309135.99,7393240.93
"75512",75512,1982,9,"wa","Waterbuck bull",2,-23.58,31.13,309164.91,7391025.96
"75749",75749,1982,10,"wa","Waterbuck bull",1,-23.47,31.05,300833.17,7403099.65
"76077",76077,1982,10,"wa","Waterbuck bull",1,-23.41,31.17,313008.1,7409905.45
"76446",76446,1982,12,"wa","Waterbuck bull",1,-23.18,31.01,296304.71,7435161.29
"76687",76687,1982,13,"wa","Waterbuck bull",1,-23.62,31.48,344936.16,7387019.46
"76691",76691,1982,13,"wa","Waterbuck bull",1,-23.76,31.51,348159.13,7371548.79
"76701",76701,1982,13,"wa","Waterbuck bull",1,-23.76,31.53,350197.57,7371570.01
"76715",76715,1982,13,"wa","Waterbuck bull",1,-23.74,31.51,348135.93,7373763.5
"76782",76782,1982,13,"wa","Waterbuck bull",2,-23.78,31.57,354296.69,7369396.9
"76846",76846,1982,13,"wa","Waterbuck bull",1,-23.85,31.59,356411.82,7361665.9
"76858",76858,1982,13,"wa","Waterbuck bull",2,-23.81,31.59,356367.77,7366095.26
"76879",76879,1982,13,"wa","Waterbuck bull",1,-23.83,31.59,356389.79,7363880.58
"76901",76901,1982,13,"wa","Waterbuck bull",1,-23.78,31.59,356334.78,7369417.28
"76914",76914,1982,13,"wa","Waterbuck bull",1,-23.78,31.61,358372.86,7369437.36
"76947",76947,1982,13,"wa","Waterbuck bull",1,-23.74,31.61,358329.56,7373866.67
"76948",76948,1982,13,"wa","Waterbuck bull",1,-23.74,31.61,358329.56,7373866.67
"77039",77039,1982,13,"wa","Waterbuck bull",1,-23.78,31.63,360410.93,7369457.16
"77040",77040,1982,13,"wa","Waterbuck bull",1,-23.78,31.63,360410.93,7369457.16
"77063",77063,1982,13,"wa","Waterbuck bull",1,-23.72,31.63,360346.93,7376101.07
"77155",77155,1982,14,"wa","Waterbuck bull",1,-23.56,31.48,344865.61,7393663.55
"77193",77193,1982,14,"wa","Waterbuck bull",1,-23.49,31.48,344783.51,7401414.92
"77194",77194,1982,14,"wa","Waterbuck bull",6,-23.49,31.48,344783.51,7401414.92
"77764",77764,1982,18,"wa","Waterbuck bull",2,-23.14,31.42,338232.38,7440105.46
"77959",77959,1982,18,"wa","Waterbuck bull",1,-23.18,31.51,347493.8,7435773.39
"77982",77982,1982,18,"wa","Waterbuck bull",1,-23.28,31.55,351699.09,7424742
"78052",78052,1982,19,"wa","Waterbuck bull",1,-23.78,31.65,362448.98,7369476.67
"78278",78278,1982,19,"wa","Waterbuck bull",2,-23.95,31.73,370769.93,7350727.67
"78334",78334,1982,19,"wa","Waterbuck bull",1,-23.78,31.71,368563.08,7369533.48
"78366",78366,1982,19,"wa","Waterbuck bull",1,-23.93,31.78,375839.12,7352987.16
"78410",78410,1982,19,"wa","Waterbuck bull",1,-23.91,31.78,375820,7355201.76
"78411",78411,1982,19,"wa","Waterbuck bull",1,-23.91,31.78,375820,7355201.76
"78419",78419,1982,19,"wa","Waterbuck bull",1,-23.97,31.8,377912.41,7348575.42
"78466",78466,1982,19,"wa","Waterbuck bull",1,-23.97,31.86,384017.34,7348626.07
"78481",78481,1982,19,"wa","Waterbuck bull",1,-23.95,31.84,381964.16,7350824.05
"78538",78538,1982,20,"wa","Waterbuck bull",2,-24.1,31.26,323141.5,7333605.2
"78551",78551,1982,20,"wa","Waterbuck bull",1,-24.1,31.28,325174.77,7333630.28
"78573",78573,1982,20,"wa","Waterbuck bull",1,-24.1,31.32,329241.27,7333679.56
"78611",78611,1982,20,"wa","Waterbuck bull",1,-24.1,31.36,333307.7,7333727.68
"78677",78677,1982,20,"wa","Waterbuck bull",1,-24.1,31.42,339407.26,7333797.69
"78720",78720,1982,20,"wa","Waterbuck bull",3,-24.06,31.46,343424.97,7338272.58
"78749",78749,1982,20,"wa","Waterbuck bull",3,-24.03,31.48,345422.82,7341616.95
"78835",78835,1982,20,"wa","Waterbuck bull",1,-24.12,31.59,356710.98,7331767.09
"78839",78839,1982,20,"wa","Waterbuck bull",1,-24.06,31.59,356644.22,7338411.36
"78866",78866,1982,20,"wa","Waterbuck bull",2,-24.1,31.65,362787.83,7334041.85
"78885",78885,1982,20,"wa","Waterbuck bull",1,-24.06,31.65,362745.24,7338471.28
"78906",78906,1982,20,"wa","Waterbuck bull",1,-24.01,31.65,362692.1,7344008.03
"79127",79127,1982,21,"wa","Waterbuck bull",1,-24.16,31.61,358787.67,7327357.88
"79144",79144,1982,21,"wa","Waterbuck bull",2,-24.22,31.63,360884.88,7320733.65
"79153",79153,1982,21,"wa","Waterbuck bull",4,-24.24,31.63,360906.61,7318518.88
"80067",80067,1982,23,"wa","Waterbuck bull",1,-24.06,31.67,364778.9,7338490.67
"80138",80138,1982,23,"wa","Waterbuck bull",1,-24.22,31.73,371040.42,7320829.65
"80255",80255,1982,23,"wa","Waterbuck bull",1,-24.08,31.71,368866.5,7336313.92
"81201",81201,1982,25,"wa","Waterbuck bull",1,-24.06,31.84,382064.5,7338643.83
"81299",81299,1982,25,"wa","Waterbuck bull",1,-23.99,31.84,382000.6,7346394.9
"81307",81307,1982,25,"wa","Waterbuck bull",1,-23.99,31.86,384035.25,7346411.5
"81436",81436,1982,25,"wa","Waterbuck bull",1,-24.01,31.88,386087.51,7344213.26
"81446",81446,1982,25,"wa","Waterbuck bull",1,-24.03,31.88,386105.13,7341998.69
"81608",81608,1982,26,"wa","Waterbuck bull",1,-24.26,31.8,378187.23,7316463.18
"81618",81618,1982,26,"wa","Waterbuck bull",1,-24.28,31.82,380236.39,7314265.84
"81712",81712,1982,26,"wa","Waterbuck bull",1,-24.31,31.86,384323.74,7310977.66
"81734",81734,1982,26,"wa","Waterbuck bull",1,-24.33,31.86,384341.88,7308762.99
"81772",81772,1982,26,"wa","Waterbuck bull",1,-24.39,31.9,388453.02,7302151.72
"82006",82006,1982,27,"wa","Waterbuck bull",1,-24.31,31.88,386353.32,7310994.14
"82032",82032,1982,27,"wa","Waterbuck bull",1,-24.33,31.9,388400.4,7308795.68
"82033",82033,1982,27,"wa","Waterbuck bull",1,-24.33,31.9,388400.4,7308795.68
"82287",82287,1982,27,"wa","Waterbuck bull",1,-24.37,31.92,390464.07,7304382.31
"82288",82288,1982,27,"wa","Waterbuck bull",1,-24.37,31.92,390464.07,7304382.31
"82563",82563,1982,27,"wa","Waterbuck bull",1,-24.43,31.98,396598.71,7297784.45
"83042",83042,1982,28,"wa","Waterbuck bull",1,-24.41,31.86,384414.62,7299904.29
"83291",83291,1982,28,"wa","Waterbuck bull",1,-24.41,31.9,388470.59,7299937.06
"83745",83745,1982,29,"wa","Waterbuck bull",1,-24.68,31.82,380614.45,7269971.26
"83939",83939,1982,29,"wa","Waterbuck bull",2,-24.68,31.84,382638.12,7269988.52
"83957",83957,1982,29,"wa","Waterbuck bull",2,-24.7,31.84,382656.85,7267773.74
"84210",84210,1982,30,"wa","Waterbuck bull",1,-24.78,31.9,388798.02,7258964.73
"84227",84227,1982,30,"wa","Waterbuck bull",1,-24.74,31.9,388762.4,7263394.26
"84244",84244,1982,30,"wa","Waterbuck bull",1,-24.76,31.92,390802.54,7261195.61
"84326",84326,1982,30,"wa","Waterbuck bull",1,-24.74,31.92,390785.06,7263410.37
"84441",84441,1982,30,"wa","Waterbuck bull",1,-24.78,31.96,394864.03,7259012.22
"84778",84778,1982,30,"wa","Waterbuck bull",1,-24.49,31.98,396647.69,7291140.52
"85827",85827,1982,33,"wa","Waterbuck bull",7,-24.72,31.65,363456.51,7265382.89
"85852",85852,1982,33,"wa","Waterbuck bull",1,-24.74,31.65,363478.35,7263168
"85938",85938,1982,34,"wa","Waterbuck bull",1,-24.7,31.65,363434.69,7267597.78
"86878",86878,1982,35,"wa","Waterbuck bull",2,-24.87,31.73,371703.31,7248848.78
"86895",86895,1982,36,"wa","Waterbuck bull",1,-24.85,31.73,371682.67,7251063.67
"86968",86968,1982,36,"wa","Waterbuck bull",1,-24.87,31.78,376754.87,7248894.95
"87083",87083,1982,36,"wa","Waterbuck bull",1,-24.83,31.82,380757.73,7253360.22
"87111",87111,1982,36,"wa","Waterbuck bull",1,-24.85,31.84,382797.8,7251162.73
"87125",87125,1982,36,"wa","Waterbuck bull",1,-24.85,31.86,384818.71,7251179.78
"87646",87646,1982,37,"wa","Waterbuck bull",1,-24.81,31.92,390846.29,7255658.7
"87707",87707,1982,37,"wa","Waterbuck bull",1,-25.1,31.96,395135.29,7223575.57
"87772",87772,1982,37,"wa","Waterbuck bull",1,-25.08,31.96,395118.24,7225790.4
"87919",87919,1982,37,"wa","Waterbuck bull",1,-24.93,31.98,397010.32,7242416.78
"87920",87920,1982,37,"wa","Waterbuck bull",2,-24.93,31.98,397010.32,7242416.78
"88049",88049,1982,37,"wa","Waterbuck bull",1,-25.18,32.01,400242.23,7214754.16
"88188",88188,1982,37,"wa","Waterbuck bull",1,-24.99,32.01,400088.08,7235794.85
"88233",88233,1982,38,"wa","Waterbuck bull",3,-25.01,31.78,376894.1,7233390.8
"88381",88381,1982,38,"wa","Waterbuck bull",1,-24.95,31.8,378853.64,7240053.46
"88488",88488,1982,38,"wa","Waterbuck bull",3,-25.03,31.86,384985.97,7231246.24
"89233",89233,1982,40,"wa","Waterbuck bull",1,-25.33,31.26,324871.79,7197373.08
"89234",89234,1982,40,"wa","Waterbuck bull",2,-25.33,31.26,324871.79,7197373.08
"89247",89247,1982,40,"wa","Waterbuck bull",1,-25.33,31.28,326885.15,7197399.1
"89258",89258,1982,40,"wa","Waterbuck bull",4,-25.26,31.26,324771.15,7205126.67
"89508",89508,1982,40,"wa","Waterbuck bull",1,-25.2,31.36,334762.48,7211899.16
"89693",89693,1982,41,"wa","Waterbuck bull",4,-25.35,31.38,336978.54,7195309.43
"89704",89704,1982,41,"wa","Waterbuck bull",1,-25.35,31.4,338991.49,7195333.65
"89717",89717,1982,41,"wa","Waterbuck bull",1,-25.31,31.4,338938.54,7199764.09
"89808",89808,1982,41,"wa","Waterbuck bull",1,-25.2,31.38,336777.92,7211923.58
"89869",89869,1982,41,"wa","Waterbuck bull",1,-25.33,31.42,340978.27,7197572.78
"89883",89883,1982,41,"wa","Waterbuck bull",1,-25.28,31.42,340912.98,7203110.78
"89918",89918,1982,41,"wa","Waterbuck bull",1,-25.18,31.42,340782.75,7214186.69
"90101",90101,1982,41,"wa","Waterbuck bull",1,-25.14,31.48,346779.93,7218686.55
"90372",90372,1982,42,"wa","Waterbuck bull",1,-25.22,31.57,355947.53,7209925.53
"90443",90443,1982,42,"wa","Waterbuck bull",1,-25.2,31.57,355923.97,7212140.6
"90680",90680,1982,42,"wa","Waterbuck bull",1,-25.22,31.59,357962.51,7209946.81
"90737",90737,1982,42,"wa","Waterbuck bull",2,-25.18,31.59,357916.08,7214376.93
"92151",92151,1982,44,"wa","Waterbuck bull",2,-25.2,31.71,370030.93,7212283.2
"92152",92152,1982,44,"wa","Waterbuck bull",5,-25.2,31.71,370030.93,7212283.2
"92218",92218,1982,44,"wa","Waterbuck bull",1,-25.33,31.78,377215.08,7197951.68
"92599",92599,1982,44,"wa","Waterbuck bull",2,-25.37,31.86,385305,7193592.72
"93294",93294,1982,45,"wa","Waterbuck bull",1,-25.28,31.92,391261.67,7203609.98
"93355",93355,1982,45,"wa","Waterbuck bull",3,-25.18,31.92,391172.68,7214684.44
"93597",93597,1982,46,"wa","Waterbuck bull",1,-25.18,31.94,393188.15,7214700.46
"93649",93649,1982,46,"wa","Waterbuck bull",1,-25.39,31.98,397395.92,7191475.34
"93798",93798,1982,46,"wa","Waterbuck bull",1,-25.33,31.96,395332.27,7198104.57
"93809",93809,1982,46,"wa","Waterbuck bull",1,-25.33,31.98,397345.25,7198120.05
"93983",93983,1982,46,"wa","Waterbuck bull",1,-25.18,31.98,397219.06,7214731.59
"94178",94178,1982,46,"wa","Waterbuck bull",1,-25.2,32.01,400258.52,7212539.32
"94179",94179,1982,46,"wa","Waterbuck bull",1,-25.2,32.01,400258.52,7212539.32
"94358",94358,1982,48,"wa","Waterbuck bull",2,-22.91,31.21,316415.71,7465326.55
"94388",94388,1982,48,"wa","Waterbuck bull",1,-22.87,31.21,316361.87,7469755.99
"94617",94617,1982,48,"wa","Waterbuck bull",1,-22.87,31.38,333805.8,7469957.79
"94789",94789,1982,49,"wa","Waterbuck bull",1,-22.99,31.36,331901.85,7456647.43
"95010",95010,1982,50,"wa","Waterbuck bull",3,-23.03,31.48,344249.75,7452350.88
"95177",95177,1982,51,"wa","Waterbuck bull",1,-22.62,31.34,329391.27,7497594.36
"95580",95580,1982,52,"wa","Waterbuck bull",1,-23.08,31.38,334062.5,7446704.42
"95729",95729,1982,53,"wa","Waterbuck bull",1,-23.18,31.03,298352.47,7435189.16
"96538",96538,1982,55,"wa","Waterbuck bull",1,-22.87,31.05,299943.02,7469547.65
"96539",96539,1982,55,"wa","Waterbuck bull",3,-22.87,31.05,299943.02,7469547.65
"96616",96616,1982,55,"wa","Waterbuck bull",1,-22.87,31.11,306100.21,7469627.87
"96768",96768,1982,55,"wa","Waterbuck bull",2,-22.85,31.23,318387.57,7471995.48
"96797",96797,1982,56,"wa","Waterbuck bull",1,-25.35,31.44,343017.35,7195381.19
"96864",96864,1982,56,"wa","Waterbuck bull",1,-25.33,31.46,345004.77,7197619.7
