"","ID","Year","Cenb","Sp","Description","No","Lat","Long","X.coord","Y.coord"
"414170",414170,1997,33,"sr","Black rhino",2,-24.99,31.3,328423.3,7235084
"414181",414181,1997,33,"sr","Black rhino",3,-25,31.31,329446.58,7233989.02
"414249",414249,1997,33,"sr","Black rhino",2,-25.1,31.34,332610.61,7222950.51
"414268",414268,1997,33,"sr","Black rhino",2,-25.11,31.32,330607.29,7221817.95
"414302",414302,1997,33,"sr","Black rhino",2,-25.09,31.26,324527.82,7223956.56
"414773",414773,1997,36,"sr","Black rhino",1,-25.27,31.47,345935.53,7204276.74
"415060",415060,1997,36,"sr","Black rhino",2,-25.13,31.52,350800.47,7219838.95
"415292",415292,1997,37,"sr","Black rhino",1,-25.27,31.59,358020.64,7204409.12
"415419",415419,1997,38,"sr","Black rhino",1,-25.01,31.54,352673.43,7233151.27
"415421",415421,1997,38,"sr","Black rhino",1,-25.03,31.54,352697.31,7230936.22
"415450",415450,1997,38,"sr","Black rhino",2,-25.04,31.53,351700.27,7229817.78
"415457",415457,1997,38,"sr","Black rhino",1,-25,31.53,351652.19,7234247.88
"415617",415617,1997,38,"sr","Black rhino",1,-25.05,31.46,344649.91,7228631.69
"415662",415662,1997,38,"sr","Black rhino",2,-25.08,31.4,338635.63,7225238.71
"415707",415707,1997,38,"sr","Black rhino",1,-24.98,31.38,336485.7,7236290.44
"415982",415982,1997,40,"sr","Black rhino",1,-25.3,31.62,361076.04,7201117.93
"415988",415988,1997,40,"sr","Black rhino",2,-25.32,31.63,362105.51,7198913.19
"416490",416490,1997,41,"sr","Black rhino",2,-25.17,31.84,383101.17,7215724.84
"416491",416491,1997,41,"sr","Black rhino",1,-25.18,31.84,383110.71,7214617.39
"417284",417284,1997,56,"sr","Black rhino",1,-25.12,31.74,372970.94,7221171.7
"417343",417343,1997,56,"sr","Black rhino",2,-25.13,31.68,366932.09,7220006.38
"417413",417413,1997,57,"sr","Black rhino",2,-25.05,31.73,371889.8,7228914.57
"417461",417461,1997,57,"sr","Black rhino",2,-25.09,31.68,366888.78,7224436.35
"417604",417604,1997,59,"sr","Black rhino",2,-24.97,31.74,372816.26,7237783.69
