"","ID","Year","Cenb","Sp","Description","No","Lat","Long","X.coord","Y.coord"
"203445",203445,1987,1,"s","Sable antelope",11,-23.96,31.59,356533.32,7349485.02
"203888",203888,1987,2,"s","Sable antelope",10,-24.04,31.42,339332.51,7340442.28
"204009",204009,1987,2,"s","Sable antelope",7,-23.97,31.42,339245.52,7348194.24
"204021",204021,1987,2,"s","Sable antelope",1,-23.96,31.37,334144.64,7349243.76
"204033",204033,1987,2,"s","Sable antelope",1,-23.94,31.55,352440,7351658.5
"204048",204048,1987,2,"s","Sable antelope",11,-23.95,31.42,339220.71,7350409.08
"204055",204055,1987,2,"s","Sable antelope",2,-23.93,31.56,353446.51,7352776.28
"204083",204083,1987,2,"s","Sable antelope",1,-23.92,31.38,335111.51,7353685.2
"204085",204085,1987,2,"s","Sable antelope",1,-23.9,31.56,353412.66,7356098.37
"204090",204090,1987,2,"s","Sable antelope",1,-23.9,31.54,351376.42,7356077.49
"204128",204128,1987,2,"s","Sable antelope",1,-23.91,31.37,334080.72,7354780.92
"204188",204188,1987,2,"s","Sable antelope",1,-23.88,31.37,334042.42,7358103.21
"204452",204452,1987,3,"s","Sable antelope",11,-24,31.24,320969.53,7344654.81
"204456",204456,1987,3,"s","Sable antelope",3,-24,31.23,319952.1,7344642.06
"204499",204499,1987,3,"s","Sable antelope",16,-23.99,31.24,320955.69,7345762.3
"204550",204550,1987,3,"s","Sable antelope",6,-23.97,31.23,319910.36,7347964.54
"204554",204554,1987,3,"s","Sable antelope",7,-23.96,31.23,319896.46,7349072.03
"204569",204569,1987,3,"s","Sable antelope",11,-23.97,31.22,318892.69,7347951.73
"204684",204684,1987,3,"s","Sable antelope",8,-23.92,31.35,332057.45,7353649.86
"204782",204782,1987,3,"s","Sable antelope",1,-23.9,31.29,325922.45,7355792.14
"204910",204910,1987,3,"s","Sable antelope",4,-23.86,31.32,328924.44,7360258.54
"206339",206339,1987,6,"s","Sable antelope",10,-23.69,31.37,333800.94,7379144.05
"206341",206341,1987,6,"s","Sable antelope",5,-23.69,31.37,333800.94,7379144.05
"206432",206432,1987,6,"s","Sable antelope",7,-23.65,31.33,329669.81,7383526.48
"206744",206744,1987,7,"s","Sable antelope",13,-23.67,31.16,312355.48,7381098.36
"206860",206860,1987,7,"s","Sable antelope",12,-23.62,31.23,319427.08,7386725.94
"206898",206898,1987,8,"s","Sable antelope",3,-23.43,31.22,318145.67,7407754.59
"206903",206903,1987,8,"s","Sable antelope",12,-23.46,31.23,319208.4,7404444.91
"206904",206904,1987,8,"s","Sable antelope",7,-23.45,31.23,319194.78,7405552.33
"206961",206961,1987,8,"s","Sable antelope",2,-23.52,31.27,323374.94,7397850.14
"206978",206978,1987,8,"s","Sable antelope",10,-23.49,31.29,325377.71,7401196.83
"207072",207072,1987,8,"s","Sable antelope",17,-23.44,31.29,325311.89,7406733.84
"207083",207083,1987,8,"s","Sable antelope",6,-23.4,31.29,325259.32,7411163.42
"207159",207159,1987,8,"s","Sable antelope",9,-23.37,31.31,327264.58,7414509.67
"207229",207229,1987,8,"s","Sable antelope",9,-23.51,31.35,331531.43,7399053.71
"207384",207384,1987,9,"s","Sable antelope",18,-23.47,31.18,314114.14,7403273.73
"207537",207537,1987,9,"s","Sable antelope",7,-23.51,31.24,320297.84,7398920.32
"207585",207585,1987,9,"s","Sable antelope",13,-23.52,31.24,320311.42,7397812.89
"207633",207633,1987,9,"s","Sable antelope",22,-23.56,31.22,318324.04,7393357.95
"207723",207723,1987,9,"s","Sable antelope",32,-23.62,31.13,309222.81,7386596.02
"207810",207810,1987,10,"s","Sable antelope",8,-23.34,31.08,303706.35,7417538.16
"207915",207915,1987,10,"s","Sable antelope",12,-23.43,31.09,304860.9,7407584.43
"208022",208022,1987,10,"s","Sable antelope",15,-23.4,31.13,308905.49,7410960.45
"208023",208023,1987,10,"s","Sable antelope",9,-23.4,31.13,308905.49,7410960.45
"208036",208036,1987,10,"s","Sable antelope",23,-23.32,31.13,308790.79,7419820.09
"208043",208043,1987,10,"s","Sable antelope",16,-23.29,31.12,307724.89,7423129.19
"208057",208057,1987,10,"s","Sable antelope",6,-23.32,31.12,307768.03,7419806.83
"208058",208058,1987,10,"s","Sable antelope",27,-23.31,31.12,307753.65,7420914.28
"208064",208064,1987,10,"s","Sable antelope",18,-23.29,31.11,306701.89,7423115.88
"208067",208067,1987,10,"s","Sable antelope",4,-23.29,31.11,306701.89,7423115.88
"208198",208198,1987,11,"s","Sable antelope",1,-23.28,31.28,324079.14,7424439.94
"208210",208210,1987,11,"s","Sable antelope",7,-23.38,31.27,323188.59,7413353.84
"208236",208236,1987,11,"s","Sable antelope",12,-23.3,31.26,322059.72,7422200.74
"208273",208273,1987,11,"s","Sable antelope",4,-23.3,31.24,320013.99,7422176.01
"208690",208690,1987,12,"s","Sable antelope",8,-23.23,31.18,313779.4,7429852.1
"208815",208815,1987,12,"s","Sable antelope",1,-23.27,31.02,297464.48,7425207.87
"208892",208892,1987,12,"s","Sable antelope",16,-23.22,31.2,315812.53,7430985.02
"208913",208913,1987,12,"s","Sable antelope",4,-23.26,31.19,314844.26,7426542.65
"209696",209696,1987,14,"s","Sable antelope",17,-23.42,31.34,330395.2,7409008.38
"209746",209746,1987,15,"s","Sable antelope",1,-23.37,31.5,346687.79,7414724.2
"209749",209749,1987,15,"s","Sable antelope",12,-23.4,31.5,346722.32,7411402.27
"209765",209765,1987,15,"s","Sable antelope",1,-23.4,31.48,344678.29,7411380.87
"209869",209869,1987,15,"s","Sable antelope",6,-23.36,31.34,330318.76,7415652.61
"209874",209874,1987,15,"s","Sable antelope",9,-23.36,31.33,329296.39,7415640.83
"210055",210055,1987,18,"s","Sable antelope",13,-23.17,31.47,343387.36,7436838.2
"210699",210699,1987,19,"s","Sable antelope",1,-23.33,31.53,349709.46,7419184.93
"210712",210712,1987,19,"s","Sable antelope",12,-23.41,31.54,350821.55,7410336.91
"211347",211347,1987,21,"s","Sable antelope",32,-24.15,31.49,346582.92,7328338.98
"211393",211393,1987,21,"s","Sable antelope",1,-24.19,31.5,347646.57,7323920.24
"211408",211408,1987,21,"s","Sable antelope",11,-24.18,31.53,350682.45,7325060.02
"211444",211444,1987,21,"s","Sable antelope",5,-24.2,31.55,352737.25,7322866.42
"211614",211614,1987,21,"s","Sable antelope",32,-24.15,31.49,346582.92,7328338.98
"211660",211660,1987,21,"s","Sable antelope",1,-24.19,31.5,347646.57,7323920.24
"211675",211675,1987,21,"s","Sable antelope",11,-24.18,31.53,350682.45,7325060.02
"211711",211711,1987,21,"s","Sable antelope",5,-24.2,31.55,352737.25,7322866.42
"212621",212621,1987,22,"s","Sable antelope",2,-24.29,31.48,345735.53,7312823.95
"214746",214746,1987,26,"s","Sable antelope",44,-24.21,31.77,375092.81,7321973.35
"215596",215596,1987,27,"s","Sable antelope",27,-24.23,31.93,391359.22,7319892.52
"216716",216716,1987,29,"s","Sable antelope",6,-24.71,31.88,386712.56,7266700.01
"217486",217486,1987,31,"s","Sable antelope",15,-24.59,31.64,362302.37,7279769.6
"217503",217503,1987,31,"s","Sable antelope",1,-24.58,31.65,363304.12,7280886.99
"217516",217516,1987,31,"s","Sable antelope",32,-24.56,31.66,364295.26,7283111.72
"217519",217519,1987,31,"s","Sable antelope",1,-24.55,31.65,363271.57,7284209.26
"217525",217525,1987,31,"s","Sable antelope",1,-24.53,31.64,362236.8,7286414.15
"217533",217533,1987,31,"s","Sable antelope",1,-24.52,31.65,363239.06,7287531.52
"217534",217534,1987,31,"s","Sable antelope",1,-24.52,31.65,363239.06,7287531.52
"217540",217540,1987,31,"s","Sable antelope",1,-24.51,31.65,363228.23,7288638.94
"217637",217637,1987,31,"s","Sable antelope",1,-24.54,31.68,366299.74,7285346.1
"217672",217672,1987,31,"s","Sable antelope",17,-24.46,31.66,364187.8,7294185.86
"218562",218562,1987,32,"s","Sable antelope",8,-24.51,31.61,359175.22,7288598.73
"219299",219299,1987,35,"s","Sable antelope",18,-24.84,31.74,372682.91,7252180.48
"219301",219301,1987,35,"s","Sable antelope",22,-24.85,31.74,372693.15,7251073.04
"219339",219339,1987,35,"s","Sable antelope",26,-24.84,31.67,365608.94,7252113.3
"219362",219362,1987,35,"s","Sable antelope",17,-24.87,31.73,371703.31,7248848.78
"219700",219700,1987,36,"s","Sable antelope",23,-24.83,31.73,371662.04,7253278.54
"220475",220475,1987,37,"s","Sable antelope",2,-25,31.98,397068.57,7234665.02
"221236",221236,1987,38,"s","Sable antelope",10,-24.99,31.87,385958.01,7235684.4
"221300",221300,1987,38,"s","Sable antelope",12,-25,31.86,384958.01,7234568.53
"221884",221884,1987,39,"s","Sable antelope",13,-25.07,31.25,323490.47,7226158.79
"221955",221955,1987,39,"s","Sable antelope",6,-25.09,31.27,325536.48,7223969.51
"221996",221996,1987,39,"s","Sable antelope",9,-25.09,31.19,317467.11,7223863.77
"221998",221998,1987,39,"s","Sable antelope",5,-25.1,31.2,318490.56,7222769.6
"222023",222023,1987,39,"s","Sable antelope",18,-25.1,31.3,328576.38,7222900.32
"222119",222119,1987,39,"s","Sable antelope",40,-25.13,31.32,330634.87,7219602.73
"222138",222138,1987,39,"s","Sable antelope",17,-25.15,31.25,323605.36,7217297.71
"222263",222263,1987,40,"s","Sable antelope",38,-25.15,31.3,328646.17,7217362.22
"222383",222383,1987,40,"s","Sable antelope",14,-25.14,31.34,332665.12,7218520.1
"222514",222514,1987,41,"s","Sable antelope",5,-25.14,31.49,347788.11,7218697.87
"222517",222517,1987,41,"s","Sable antelope",15,-25.14,31.51,349804.45,7218720.3
"222537",222537,1987,41,"s","Sable antelope",2,-25.14,31.46,344763.57,7218663.67
"222633",222633,1987,41,"s","Sable antelope",3,-25.23,31.35,333795.54,7208564
"222683",222683,1987,41,"s","Sable antelope",2,-25.23,31.46,344877.61,7208695.53
"222701",222701,1987,41,"s","Sable antelope",1,-25.26,31.48,346930.09,7205395.76
"222703",222703,1987,41,"s","Sable antelope",14,-25.26,31.47,345922.9,7205384.31
"222730",222730,1987,41,"s","Sable antelope",1,-25.27,31.45,343921.3,7204253.62
"222751",222751,1987,41,"s","Sable antelope",15,-25.26,31.41,339879.69,7205314.08
"222754",222754,1987,41,"s","Sable antelope",4,-25.26,31.4,338872.47,7205302.11
"222777",222777,1987,41,"s","Sable antelope",2,-25.26,31.35,333836.36,7205241.15
"222780",222780,1987,41,"s","Sable antelope",16,-25.26,31.34,332829.13,7205228.73
"222802",222802,1987,41,"s","Sable antelope",15,-25.27,31.41,339892.81,7204206.48
"222812",222812,1987,41,"s","Sable antelope",2,-25.27,31.45,343921.3,7204253.62
"222839",222839,1987,41,"s","Sable antelope",18,-25.31,31.32,330884.03,7199665.5
"222886",222886,1987,41,"s","Sable antelope",17,-25.35,31.31,329933.13,7195222.27
"222896",222896,1987,41,"s","Sable antelope",9,-25.35,31.38,336978.54,7195309.43
"223036",223036,1987,42,"s","Sable antelope",13,-25.14,31.53,351820.79,7218742.44
"223306",223306,1987,42,"s","Sable antelope",13,-25.25,31.49,347924.82,7206514.69
"224232",224232,1987,44,"s","Sable antelope",5,-25.2,31.7,369023.31,7212273.51
"224403",224403,1987,44,"s","Sable antelope",17,-25.24,31.65,364029.64,7207793.83
"226005",226005,1987,47,"s","Sable antelope",9,-22.69,31.13,307900.59,7489586.93
"226009",226009,1987,47,"s","Sable antelope",8,-22.7,31.13,307914.54,7488479.56
"226045",226045,1987,47,"s","Sable antelope",1,-22.72,31.17,312051.64,7486316.08
"226165",226165,1987,47,"s","Sable antelope",11,-22.66,31.25,320191.5,7493059.19
"226208",226208,1987,47,"s","Sable antelope",21,-22.72,31.3,325406.03,7486475.02
"226216",226216,1987,47,"s","Sable antelope",41,-22.77,31.26,321362.09,7480890.75
"226220",226220,1987,47,"s","Sable antelope",6,-22.68,31.29,324327.77,7490892.42
"226234",226234,1987,48,"s","Sable antelope",15,-22.79,31.24,319334.67,7478651.8
"226312",226312,1987,48,"s","Sable antelope",19,-22.78,31.28,323428.71,7479807.44
"226457",226457,1987,48,"s","Sable antelope",8,-22.87,31.38,333805.8,7469957.79
"226508",226508,1987,48,"s","Sable antelope",19,-22.88,31.4,335869.98,7468872.93
"226612",226612,1987,49,"s","Sable antelope",2,-22.92,31.42,337969.51,7464465.96
"226620",226620,1987,49,"s","Sable antelope",4,-22.92,31.4,335918.12,7464443.78
"226805",226805,1987,49,"s","Sable antelope",1,-22.98,31.47,343167.12,7457876.58
"226812",226812,1987,49,"s","Sable antelope",8,-23.01,31.48,344226.78,7454565.42
"227220",227220,1987,52,"s","Sable antelope",3,-23.08,31.25,320743.75,7446550.83
"227268",227268,1987,52,"s","Sable antelope",13,-23.12,31.29,324893.77,7442169.93
"227369",227369,1987,52,"s","Sable antelope",15,-23.07,31.35,330976.49,7447777.36
"227519",227519,1987,53,"s","Sable antelope",33,-23.03,31.09,304278.23,7451882.67
"227554",227554,1987,53,"s","Sable antelope",5,-23.04,31.1,305317.59,7450788.58
"227626",227626,1987,53,"s","Sable antelope",13,-23.08,31.14,309473.53,7446411.6
"227634",227634,1987,53,"s","Sable antelope",16,-23.06,31.15,310470.08,7448639.42
"227686",227686,1987,53,"s","Sable antelope",6,-23.19,31.09,304510.16,7434163.61
"227701",227701,1987,53,"s","Sable antelope",11,-23.16,31.12,307538.54,7437525.94
"227874",227874,1987,53,"s","Sable antelope",16,-23.11,30.92,286978.94,7442785.08
"228178",228178,1987,53,"s","Sable antelope",34,-23.14,31.04,299316.71,7439632.86
"228267",228267,1987,54,"s","Sable antelope",19,-22.94,30.96,290814.41,7461670.28
"228367",228367,1987,54,"s","Sable antelope",9,-22.95,31.02,296983.6,7460647.01
"228953",228953,1987,54,"s","Sable antelope",19,-22.96,31.23,318534.07,7459814.57
"229022",229022,1987,55,"s","Sable antelope",4,-22.71,31.13,307928.5,7487372.19
"229034",229034,1987,55,"s","Sable antelope",24,-22.76,31.1,304917.33,7481796.08
"229076",229076,1987,55,"s","Sable antelope",17,-22.83,31.07,301937.47,7474004.34
"229078",229078,1987,55,"s","Sable antelope",4,-22.84,31.07,301951.95,7472896.93
"229113",229113,1987,55,"s","Sable antelope",6,-22.84,31.05,299899.08,7472869.94
"229115",229115,1987,55,"s","Sable antelope",7,-22.83,31.04,298857.94,7473963.77
"229117",229117,1987,55,"s","Sable antelope",26,-22.84,31.04,298872.64,7472856.34
"229120",229120,1987,55,"s","Sable antelope",32,-22.84,31.03,297846.2,7472842.67
"229125",229125,1987,55,"s","Sable antelope",18,-22.85,31.02,296834.62,7471721.49
"229143",229143,1987,55,"s","Sable antelope",9,-22.84,30.97,291687.45,7472759.19
"229179",229179,1987,55,"s","Sable antelope",6,-22.82,31.07,301922.99,7475111.76
"229188",229188,1987,55,"s","Sable antelope",16,-22.87,31.06,300969.23,7469561.2
"229194",229194,1987,55,"s","Sable antelope",4,-22.82,31.08,302949.57,7475125.14
"229195",229195,1987,55,"s","Sable antelope",5,-22.82,31.09,303976.14,7475138.45
"229207",229207,1987,55,"s","Sable antelope",4,-22.83,31.11,306043.45,7474057.47
"229376",229376,1987,55,"s","Sable antelope",34,-22.91,31.22,317441.56,7465338.99
"229467",229467,1987,56,"s","Sable antelope",61,-25.32,31.46,344992.03,7198727.29
"230242",230242,1987,61,"s","Sable antelope",6,-22.69,30.92,286321.56,7489299.89
"230393",230393,1987,61,"s","Sable antelope",9,-22.67,31.07,301706.57,7491722.83
"231010",231010,1987,64,"s","Sable antelope",25,-22.38,31.2,314679.75,7524002.78
