"","ID","Year","Cenb","Sp","Description","No","Lat","Long","X.coord","Y.coord"
"313988",313988,1991,52,"kb","Kudu bull",1,-23.11,31.36,332050.81,7443359.58
"314271",314271,1991,53,"kb","Kudu bull",2,-23.14,30.94,289074.77,7439491.61
"314450",314450,1991,53,"kb","Kudu bull",2,-23.15,31.05,300355.7,7438539.14
"314850",314850,1991,53,"kb","Kudu bull",2,-23.09,31.1,305389.56,7445251.43
"316119",316119,1991,47,"kb","Kudu bull",1,-22.66,31.15,309914.27,7492934.76
"316268",316268,1991,48,"kb","Kudu bull",1,-22.74,31.37,332620.95,7484341.19
"316840",316840,1991,50,"kb","Kudu bull",1,-23.06,31.46,342235.03,7449007.61
"317023",317023,1991,50,"kb","Kudu bull",3,-23.17,31.52,348506.23,7436891.12
"317144",317144,1991,6,"kb","Kudu bull",1,-23.7,31.44,340951.67,7378116.54
"317148",317148,1991,6,"kb","Kudu bull",1,-23.66,31.45,341923.25,7382557.14
"317206",317206,1991,6,"kb","Kudu bull",1,-23.73,31.39,335890.63,7374737.64
"317214",317214,1991,6,"kb","Kudu bull",1,-23.65,31.39,335790.58,7383596.78
"317289",317289,1991,6,"kb","Kudu bull",1,-23.56,31.34,330574.29,7393504.98
"317291",317291,1991,6,"kb","Kudu bull",1,-23.64,31.4,336798.29,7384715.63
"317655",317655,1991,7,"kb","Kudu bull",1,-23.72,31.35,331799.78,7375798.35
"317713",317713,1991,7,"kb","Kudu bull",1,-23.69,31.23,319523.2,7378973.79
"319762",319762,1991,14,"kb","Kudu bull",1,-23.59,31.48,344900.86,7390341.51
"319911",319911,1991,14,"kb","Kudu bull",5,-23.47,31.54,350888.91,7403693.07
"319956",319956,1991,14,"kb","Kudu bull",1,-23.59,31.48,344900.86,7390341.51
"320105",320105,1991,14,"kb","Kudu bull",5,-23.47,31.54,350888.91,7403693.07
"320378",320378,1991,18,"kb","Kudu bull",1,-23.2,31.36,332163.01,7433393.57
"320458",320458,1991,18,"kb","Kudu bull",1,-23.28,31.54,350676.17,7424731.73
"320546",320546,1991,18,"kb","Kudu bull",1,-23.2,31.49,345469.39,7433537.71
"320624",320624,1991,18,"kb","Kudu bull",1,-23.13,31.45,341292.68,7441245.74
"320735",320735,1991,19,"kb","Kudu bull",1,-23.78,31.68,365506.04,7369505.4
"320778",320778,1991,19,"kb","Kudu bull",1,-23.32,31.53,349698.21,7420292.23
"320794",320794,1991,19,"kb","Kudu bull",1,-23.42,31.54,350832.77,7409229.61
"320854",320854,1991,19,"kb","Kudu bull",1,-23.92,31.76,373793.76,7354076.74
"320865",320865,1991,19,"kb","Kudu bull",1,-23.93,31.75,372785.66,7352960.46
"320909",320909,1991,19,"kb","Kudu bull",2,-23.81,31.65,362480.57,7366154.71
"321626",321626,1991,2,"kb","Kudu bull",1,-23.97,31.46,343315.92,7348239.28
"321696",321696,1991,2,"kb","Kudu bull",1,-24,31.56,353525.66,7345024.69
"321920",321920,1991,3,"kb","Kudu bull",1,-23.89,31.17,313689.43,7356746.67
"321921",321921,1991,3,"kb","Kudu bull",1,-23.9,31.17,313703.76,7355639.16
"322696",322696,1991,3,"kb","Kudu bull",1,-23.75,31.29,325722.12,7372403.86
"323209",323209,1991,3,"kb","Kudu bull",3,-23.72,31.26,322623.35,7375689.12
"323466",323466,1991,5,"kb","Kudu bull",1,-23.82,31.45,342116.26,7364839.1
"323515",323515,1991,5,"kb","Kudu bull",1,-23.85,31.4,337059.85,7361460.31
"323690",323690,1991,20,"kb","Kudu bull",1,-24.08,31.31,328197.97,7335882.3
"323691",323691,1991,20,"kb","Kudu bull",1,-24.08,31.31,328197.97,7335882.3
"323703",323703,1991,20,"kb","Kudu bull",2,-24.09,31.33,330244.7,7334799.17
"323734",323734,1991,20,"kb","Kudu bull",1,-24.08,31.34,331248.29,7335918.7
"323735",323735,1991,20,"kb","Kudu bull",1,-24.08,31.34,331248.29,7335918.7
"323764",323764,1991,20,"kb","Kudu bull",1,-24.06,31.37,334272.87,7338169.34
"323765",323765,1991,20,"kb","Kudu bull",1,-24.06,31.37,334272.87,7338169.34
"323956",323956,1991,20,"kb","Kudu bull",1,-24.07,31.55,352588.25,7337262.57
"323958",323958,1991,20,"kb","Kudu bull",1,-24.05,31.55,352565.39,7339477.35
"324096",324096,1991,21,"kb","Kudu bull",2,-24.18,31.45,342555.04,7324972.26
"324250",324250,1991,21,"kb","Kudu bull",1,-24.18,31.62,359825.56,7325153.18
"324723",324723,1991,22,"kb","Kudu bull",2,-24.36,31.45,342776.75,7305038.19
"324764",324764,1991,22,"kb","Kudu bull",1,-24.41,31.43,340810.39,7299478.04
"325838",325838,1991,25,"kb","Kudu bull",1,-24.17,31.8,378101.61,7326429.17
"326164",326164,1991,25,"kb","Kudu bull",1,-24,31.78,375906.17,7345236.04
"326339",326339,1991,26,"kb","Kudu bull",1,-24.28,31.76,374146.1,7314212.94
"326796",326796,1991,27,"kb","Kudu bull",1,-24.28,31.89,387341.62,7314324.23
"326899",326899,1991,27,"kb","Kudu bull",1,-24.34,31.98,396525.45,7307750.25
"326923",326923,1991,27,"kb","Kudu bull",1,-24.39,31.98,396566.12,7302213.71
"327292",327292,1991,28,"kb","Kudu bull",2,-24.47,31.97,395617.86,7293347.66
"327317",327317,1991,28,"kb","Kudu bull",1,-24.49,31.95,393607.69,7291117.75
"327326",327326,1991,28,"kb","Kudu bull",1,-24.48,31.95,393599.28,7292225.08
"327398",327398,1991,28,"kb","Kudu bull",1,-24.47,31.88,386496.35,7293276.76
"327444",327444,1991,28,"kb","Kudu bull",1,-24.48,31.84,382451.58,7292135.98
"327553",327553,1991,28,"kb","Kudu bull",2,-24.42,31.82,380368.05,7298762.99
"328121",328121,1991,29,"kb","Kudu bull",1,-24.69,31.89,387706.21,7268923
"328340",328340,1991,30,"kb","Kudu bull",1,-24.75,31.96,394838.76,7262334.33
"328546",328546,1991,30,"kb","Kudu bull",1,-24.66,31.98,396787.08,7272315.76
"328592",328592,1991,30,"kb","Kudu bull",1,-24.6,31.99,397750.22,7278967.31
"329386",329386,1991,31,"kb","Kudu bull",5,-24.46,31.63,361146.85,7294156.07
"329449",329449,1991,31,"kb","Kudu bull",2,-24.48,31.7,368263.18,7292009.75
"329484",329484,1991,32,"kb","Kudu bull",1,-24.4,31.6,358038.71,7300770.16
"329509",329509,1991,32,"kb","Kudu bull",1,-24.4,31.58,356010.42,7300749.53
"329585",329585,1991,32,"kb","Kudu bull",5,-24.44,31.55,353014.31,7296288.31
"329721",329721,1991,32,"kb","Kudu bull",2,-24.52,31.49,347028.01,7287363.57
"329812",329812,1991,32,"kb","Kudu bull",2,-24.49,31.61,359152.93,7290813.58
"329837",329837,1991,32,"kb","Kudu bull",3,-24.48,31.6,358128.29,7291910.78
"329856",329856,1991,32,"kb","Kudu bull",1,-24.49,31.58,356112.66,7290782.67
"329859",329859,1991,32,"kb","Kudu bull",1,-24.48,31.58,356101.28,7291890.1
"330189",330189,1991,33,"kb","Kudu bull",2,-24.65,31.65,363380.21,7273134.97
"330225",330225,1991,33,"kb","Kudu bull",1,-24.62,31.62,360310.47,7276427.13
"330274",330274,1991,34,"kb","Kudu bull",2,-24.76,31.69,367545.1,7260992.43
"330540",330540,1991,34,"kb","Kudu bull",1,-24.65,31.69,367428.68,7273174.18
"330581",330581,1991,34,"kb","Kudu bull",1,-24.67,31.78,376557.25,7271043.27
"330648",330648,1991,35,"kb","Kudu bull",1,-24.95,31.7,368757.03,7239960.53
"330674",330674,1991,35,"kb","Kudu bull",1,-24.97,31.58,356663.92,7237624.19
"330834",330834,1991,35,"kb","Kudu bull",1,-24.8,31.63,361522.13,7256503.15
"330901",330901,1991,35,"kb","Kudu bull",2,-24.87,31.73,371703.31,7248848.78
"330986",330986,1991,35,"kb","Kudu bull",2,-24.95,31.74,372795.7,7239998.59
"331099",331099,1991,36,"kb","Kudu bull",1,-24.88,31.8,378785.23,7247805.48
"331525",331525,1991,37,"kb","Kudu bull",1,-24.82,31.89,387823.01,7254526.99
"332010",332010,1991,37,"kb","Kudu bull",3,-25.1,32,399168.81,7223606.03
"332011",332011,1991,37,"kb","Kudu bull",3,-25.09,32,399160.61,7224713.44
"332096",332096,1991,38,"kb","Kudu bull",2,-24.94,31.85,383892.48,7241204.56
"332107",332107,1991,38,"kb","Kudu bull",1,-24.99,31.78,376874.16,7235605.69
"332141",332141,1991,38,"kb","Kudu bull",1,-25.02,31.82,380940.38,7232319.1
"332177",332177,1991,38,"kb","Kudu bull",1,-25.06,31.83,381987.74,7227898.09
"332223",332223,1991,38,"kb","Kudu bull",1,-25.07,31.88,387040.59,7226833.36
"332436",332436,1991,39,"kb","Kudu bull",1,-25.02,31.29,327455.77,7231748.49
"332437",332437,1991,39,"kb","Kudu bull",1,-25.02,31.3,328464.99,7231761.19
"332476",332476,1991,39,"kb","Kudu bull",2,-25.04,31.33,331519.96,7229583.67
"332531",332531,1991,39,"kb","Kudu bull",1,-25.06,31.3,328520.64,7227330.76
"332537",332537,1991,39,"kb","Kudu bull",2,-25.07,31.28,326516.94,7226197.63
"332569",332569,1991,39,"kb","Kudu bull",2,-25.08,31.33,331574.67,7225153.28
"332607",332607,1991,39,"kb","Kudu bull",1,-25.1,31.3,328576.38,7222900.32
"332679",332679,1991,39,"kb","Kudu bull",1,-25.14,31.28,326615.72,7218444.27
"332729",332729,1991,39,"kb","Kudu bull",2,-25.07,31.23,321472.81,7226132.52
"332810",332810,1991,40,"kb","Kudu bull",3,-25.16,31.32,330676.28,7216279.89
"332811",332811,1991,40,"kb","Kudu bull",1,-25.16,31.32,330676.28,7216279.89
"332815",332815,1991,40,"kb","Kudu bull",1,-25.17,31.3,328674.12,7215146.98
"332816",332816,1991,40,"kb","Kudu bull",1,-25.17,31.3,328674.12,7215146.98
"332888",332888,1991,40,"kb","Kudu bull",2,-25.18,31.36,334735.49,7214114.37
"332900",332900,1991,40,"kb","Kudu bull",2,-25.22,31.3,328744.09,7209608.84
"332937",332937,1991,40,"kb","Kudu bull",1,-25.16,31.25,323619.74,7216190.07
"332994",332994,1991,40,"kb","Kudu bull",1,-25.2,31.22,320654.04,7211719.82
"332995",332995,1991,40,"kb","Kudu bull",1,-25.2,31.23,321661.81,7211733.12
"333019",333019,1991,40,"kb","Kudu bull",2,-25.21,31.28,326714.76,7210690.84
"333022",333022,1991,40,"kb","Kudu bull",2,-25.21,31.23,321676.39,7210625.46
"333023",333023,1991,40,"kb","Kudu bull",2,-25.21,31.23,321676.39,7210625.46
"333031",333031,1991,40,"kb","Kudu bull",1,-25.22,31.25,323706.17,7209544.19
"333081",333081,1991,40,"kb","Kudu bull",1,-25.3,31.3,328856.32,7200747.75
"333108",333108,1991,40,"kb","Kudu bull",1,-25.31,31.28,326856.7,7199614.4
"333145",333145,1991,40,"kb","Kudu bull",1,-25.36,31.31,329947.13,7194114.62
"333367",333367,1991,41,"kb","Kudu bull",1,-25.25,31.39,337851.97,7206397.68
"333409",333409,1991,41,"kb","Kudu bull",1,-25.27,31.46,344928.41,7204265.22
"333480",333480,1991,41,"kb","Kudu bull",1,-25.16,31.43,341764.8,7216413.63
"333513",333513,1991,41,"kb","Kudu bull",1,-25.23,31.44,342862.71,7208672.29
"333594",333594,1991,41,"kb","Kudu bull",1,-25.23,31.49,347899.92,7208729.83
"333934",333934,1991,42,"kb","Kudu bull",1,-25.17,31.56,354880.77,7215452.47
"334005",334005,1991,42,"kb","Kudu bull",1,-25.24,31.6,358993.07,7207742.28
"334182",334182,1991,42,"kb","Kudu bull",1,-25.28,31.6,359039.27,7203312.13
"334280",334280,1991,42,"kb","Kudu bull",2,-25.22,31.57,355947.53,7209925.53
"334924",334924,1991,44,"kb","Kudu bull",1,-25.37,31.74,373230.66,7193484.36
"335269",335269,1991,44,"kb","Kudu bull",1,-25.3,31.73,372150.9,7201227.4
"335355",335355,1991,44,"kb","Kudu bull",1,-25.21,31.75,374071.69,7211213.76
"335417",335417,1991,44,"kb","Kudu bull",2,-25.18,31.72,371017.49,7214507.81
"335446",335446,1991,44,"kb","Kudu bull",2,-25.27,31.68,367084.21,7204501.32
"335526",335526,1991,44,"kb","Kudu bull",1,-25.22,31.66,365014.86,7210018.94
"335527",335527,1991,44,"kb","Kudu bull",1,-25.22,31.66,365014.86,7210018.94
"335699",335699,1991,44,"kb","Kudu bull",1,-25.2,31.92,391190.45,7212469.56
"335817",335817,1991,44,"kb","Kudu bull",1,-25.21,31.84,383139.35,7211295
"335939",335939,1991,44,"kb","Kudu bull",3,-25.12,31.93,392127.67,7221337.08
"336036",336036,1991,44,"kb","Kudu bull",3,-25.11,31.9,389093.95,7222420.2
"336037",336037,1991,44,"kb","Kudu bull",1,-25.11,31.9,389093.95,7222420.2
"336352",336352,1991,46,"kb","Kudu bull",2,-25.23,31.97,396253.73,7209186.77
"336458",336458,1991,46,"kb","Kudu bull",5,-25.38,31.95,394369.24,7192559.42
"336460",336460,1991,46,"kb","Kudu bull",1,-25.39,31.95,394377.94,7191451.96
"336590",336590,1991,46,"kb","Kudu bull",1,-25.32,32,399349.95,7199242.67
"336701",336701,1991,46,"kb","Kudu bull",2,-25.48,31.33,332126.3,7180848.13
"336705",336705,1991,46,"kb","Kudu bull",3,-25.49,31.33,332140.19,7179740.48
"336762",336762,1991,46,"kb","Kudu bull",1,-25.5,31.42,341201.18,7178743.31
"336785",336785,1991,46,"kb","Kudu bull",7,-25.48,31.47,346201.76,7181017.27
"336787",336787,1991,46,"kb","Kudu bull",3,-25.49,31.47,346214.49,7179909.66
"336831",336831,1991,46,"kb","Kudu bull",7,-25.44,31.52,351179.36,7185504.45
"336838",336838,1991,46,"kb","Kudu bull",1,-25.43,31.55,354184.37,7186645.17
"336923",336923,1991,46,"kb","Kudu bull",1,-25.42,31.52,351154.79,7187719.62
"336970",336970,1991,46,"kb","Kudu bull",1,-25.39,31.48,347093.52,7190997.17
"337006",337006,1991,46,"kb","Kudu bull",1,-25.36,31.44,343030.26,7194273.59
"337138",337138,1991,46,"kb","Kudu bull",1,-25.3,31.48,346980.29,7200965.45
"337595",337595,1991,58,"kb","Kudu bull",1,-25.03,31.73,371869.02,7231129.51
"337652",337652,1991,58,"kb","Kudu bull",1,-25.06,31.69,367865.11,7227768.61
"337697",337697,1991,58,"kb","Kudu bull",1,-25.07,31.65,363841.04,7226621.44
"337744",337744,1991,58,"kb","Kudu bull",2,-25.13,31.67,365923.89,7219996.48
"337787",337787,1991,58,"kb","Kudu bull",1,-25.07,31.61,359806.2,7226580.55
"337822",337822,1991,58,"kb","Kudu bull",1,-25.1,31.62,360848.84,7223268.37
"337830",337830,1991,58,"kb","Kudu bull",1,-25.13,31.63,361891.04,7219956.11
"337860",337860,1991,58,"kb","Kudu bull",1,-25.14,31.62,360894.15,7218838.33
"337928",337928,1991,60,"kb","Kudu bull",4,-24.96,31.73,371796.4,7238881.73
"338404",338404,1991,63,"kb","Kudu bull",1,-22.55,31.33,328276.51,7505333.78
"338605",338605,1991,64,"kb","Kudu bull",2,-22.38,31.27,321888.24,7524087.36
