"","ID","Year","Cenb","Sp","Description","No","Lat","Long","X.coord","Y.coord"
"373",373,1977,2,"ro","Roan antelope",15,-23.93,31.44,341231.76,7352646.54
"1108",1108,1977,6,"ro","Roan antelope",5,-23.56,31.32,328532.62,7393481.19
"1123",1123,1977,6,"ro","Roan antelope",6,-23.62,31.34,330651.35,7386860.59
"1124",1124,1977,6,"ro","Roan antelope",6,-23.62,31.34,330651.35,7386860.59
"1243",1243,1977,7,"ro","Roan antelope",5,-23.6,31.23,319399.67,7388940.83
"1442",1442,1977,9,"ro","Roan antelope",5,-23.6,31.23,319399.67,7388940.83
"1470",1470,1977,8,"ro","Roan antelope",5,-23.56,31.32,328532.62,7393481.19
"1471",1471,1977,8,"ro","Roan antelope",5,-23.56,31.32,328532.62,7393481.19
"1768",1768,1977,10,"ro","Roan antelope",8,-23.35,31.21,317013.87,7416601.32
"1778",1778,1977,11,"ro","Roan antelope",8,-23.35,31.21,317013.87,7416601.32
"1941",1941,1977,12,"ro","Roan antelope",9,-23.26,31.07,302565.63,7426384.33
"2072",2072,1977,13,"ro","Roan antelope",3,-23.7,31.51,348089.58,7378192.92
"2118",2118,1977,13,"ro","Roan antelope",4,-23.68,31.55,352145.79,7380449.66
"2227",2227,1977,13,"ro","Roan antelope",9,-23.74,31.59,356290.85,7373846.61
"2228",2228,1977,13,"ro","Roan antelope",9,-23.74,31.59,356290.85,7373846.61
"2407",2407,1977,14,"ro","Roan antelope",8,-23.47,31.38,334545.13,7403518.07
"2409",2409,1977,14,"ro","Roan antelope",3,-23.43,31.38,334495.27,7407947.53
"2452",2452,1977,14,"ro","Roan antelope",5,-23.53,31.44,340746.3,7396941.73
"2453",2453,1977,14,"ro","Roan antelope",5,-23.53,31.44,340746.3,7396941.73
"2600",2600,1977,14,"ro","Roan antelope",11,-23.45,31.51,347801.58,7405876.28
"2627",2627,1977,15,"ro","Roan antelope",3,-23.33,31.32,328235.39,7418951.1
"2655",2655,1977,15,"ro","Roan antelope",4,-23.41,31.38,334470.38,7410162.26
"2656",2656,1977,15,"ro","Roan antelope",4,-23.41,31.38,334470.38,7410162.26
"2657",2657,1977,15,"ro","Roan antelope",4,-23.41,31.38,334470.38,7410162.26
"2787",2787,1977,15,"ro","Roan antelope",5,-23.43,31.53,349822.22,7408111.91
"2853",2853,1977,18,"ro","Roan antelope",6,-23.24,31.32,328119.84,7428917.4
"2854",2854,1977,18,"ro","Roan antelope",6,-23.24,31.32,328119.84,7428917.4
"2912",2912,1977,18,"ro","Roan antelope",7,-23.26,31.4,336330.54,7426795.22
"3038",3038,1977,18,"ro","Roan antelope",13,-23.16,31.42,338256.4,7437890.84
"3039",3039,1977,18,"ro","Roan antelope",13,-23.16,31.42,338256.4,7437890.84
"3040",3040,1977,18,"ro","Roan antelope",13,-23.16,31.42,338256.4,7437890.84
"3202",3202,1977,19,"ro","Roan antelope",5,-23.43,31.53,349822.22,7408111.91
"3203",3203,1977,19,"ro","Roan antelope",5,-23.43,31.53,349822.22,7408111.91
"4272",4272,1977,40,"ro","Roan antelope",11,-25.28,31.3,328828.23,7202963.03
"4273",4273,1977,40,"ro","Roan antelope",11,-25.28,31.3,328828.23,7202963.03
"4274",4274,1977,40,"ro","Roan antelope",11,-25.28,31.3,328828.23,7202963.03
"4415",4415,1977,41,"ro","Roan antelope",3,-25.28,31.32,330842.39,7202988.4
"4416",4416,1977,41,"ro","Roan antelope",3,-25.28,31.32,330842.39,7202988.4
"4523",4523,1977,41,"ro","Roan antelope",4,-25.22,31.4,338819.7,7209732.51
"5780",5780,1977,47,"ro","Roan antelope",7,-22.72,31.23,318215.29,7486390.89
"5788",5788,1977,47,"ro","Roan antelope",6,-22.68,31.23,318162.47,7490820.21
"5789",5789,1977,47,"ro","Roan antelope",6,-22.68,31.23,318162.47,7490820.21
"5819",5819,1977,47,"ro","Roan antelope",7,-22.68,31.28,323300.23,7490880.56
"5913",5913,1977,48,"ro","Roan antelope",8,-22.81,31.3,325520.49,7476509.24
"5914",5914,1977,48,"ro","Roan antelope",8,-22.81,31.3,325520.49,7476509.24
"5915",5915,1977,48,"ro","Roan antelope",8,-22.81,31.3,325520.49,7476509.24
"6096",6096,1977,49,"ro","Roan antelope",8,-22.93,31.32,327725.07,7463244.97
"6097",6097,1977,49,"ro","Roan antelope",8,-22.93,31.32,327725.07,7463244.97
"6309",6309,1977,50,"ro","Roan antelope",12,-23.1,31.48,344330.33,7444599.93
"6441",6441,1977,50,"ro","Roan antelope",9,-23.18,31.55,351588.54,7435814.75
"6652",6652,1977,52,"ro","Roan antelope",13,-23.08,31.36,332013.5,7446681.56
"6653",6653,1977,52,"ro","Roan antelope",13,-23.08,31.36,332013.5,7446681.56
"6846",6846,1977,53,"ro","Roan antelope",7,-23.01,31.03,298098.45,7454016.09
"6847",6847,1977,53,"ro","Roan antelope",7,-23.01,31.03,298098.45,7454016.09
"7061",7061,1977,54,"ro","Roan antelope",8,-22.95,31.03,298009.22,7460660.8
"7442",7442,1977,55,"ro","Roan antelope",13,-22.81,31.19,314228.07,7476375.11
"7443",7443,1977,55,"ro","Roan antelope",13,-22.81,31.19,314228.07,7476375.11
