"","ID","Year","Cenb","Sp","Description","No","Lat","Long","X.coord","Y.coord"
"18",18,1977,1,"bb","Buffalo bull",2,-24.01,31.61,358623.19,7343968.44
"22",22,1977,1,"bb","Buffalo bull",1,-24.03,31.59,356610.9,7341733.47
"120",120,1977,1,"bb","Buffalo bull",1,-23.85,31.63,360485.78,7361705.87
"121",121,1977,1,"bb","Buffalo bull",1,-23.85,31.63,360485.78,7361705.87
"197",197,1977,1,"bb","Buffalo bull",5,-23.93,31.69,366678.67,7352905.11
"198",198,1977,1,"bb","Buffalo bull",5,-23.93,31.69,366678.67,7352905.11
"255",255,1977,1,"bb","Buffalo bull",1,-23.99,31.73,370809.82,7346298.4
"256",256,1977,1,"bb","Buffalo bull",1,-23.99,31.73,370809.82,7346298.4
"287",287,1977,1,"bb","Buffalo bull",2,-23.97,31.8,377912.41,7348575.42
"311",311,1977,2,"bb","Buffalo bull",62,-24.01,31.4,337260.61,7343741.58
"320",320,1977,2,"bb","Buffalo bull",1,-23.97,31.4,337210.3,7348171.29
"341",341,1977,2,"bb","Buffalo bull",3,-24.01,31.42,339295.2,7343764.56
"342",342,1977,2,"bb","Buffalo bull",3,-24.01,31.42,339295.2,7343764.56
"343",343,1977,2,"bb","Buffalo bull",3,-24.01,31.42,339295.2,7343764.56
"363",363,1977,2,"bb","Buffalo bull",1,-23.97,31.42,339245.52,7348194.24
"383",383,1977,2,"bb","Buffalo bull",1,-23.97,31.48,345351.11,7348261.36
"384",384,1977,2,"bb","Buffalo bull",1,-23.97,31.48,345351.11,7348261.36
"444",444,1977,2,"bb","Buffalo bull",3,-23.89,31.53,350346.79,7357174.31
"454",454,1977,2,"bb","Buffalo bull",4,-23.87,31.53,350323.79,7359389.05
"566",566,1977,3,"bb","Buffalo bull",1,-23.97,31.21,317875.01,7347938.84
"572",572,1977,3,"bb","Buffalo bull",5,-23.99,31.23,319938.18,7345749.56
"575",575,1977,3,"bb","Buffalo bull",1,-23.93,31.21,317818.81,7352368.83
"585",585,1977,3,"bb","Buffalo bull",2,-23.89,31.23,319799.31,7356824.43
"593",593,1977,3,"bb","Buffalo bull",2,-23.87,31.23,319771.6,7359039.39
"626",626,1977,3,"bb","Buffalo bull",4,-23.91,31.26,322881.46,7354647.4
"630",630,1977,3,"bb","Buffalo bull",2,-23.87,31.26,322826.96,7359077.27
"641",641,1977,3,"bb","Buffalo bull",1,-23.97,31.32,329069.28,7348076.6
"648",648,1977,3,"bb","Buffalo bull",1,-23.95,31.3,327007.29,7350267.13
"654",654,1977,3,"bb","Buffalo bull",3,-23.89,31.32,328963.88,7356936.2
"679",679,1977,3,"bb","Buffalo bull",1,-24.01,31.34,331156.75,7343670.9
"688",688,1977,3,"bb","Buffalo bull",1,-23.97,31.34,331104.56,7348100.71
"696",696,1977,3,"bb","Buffalo bull",2,-23.89,31.34,331000.41,7356960.25
"709",709,1977,3,"bb","Buffalo bull",2,-23.87,31.36,333011.26,7359198.87
"729",729,1977,4,"bb","Buffalo bull",2,-23.85,31.19,315669.42,7361202.86
"731",731,1977,4,"bb","Buffalo bull",1,-23.81,31.17,313574.96,7365606.67
"738",738,1977,4,"bb","Buffalo bull",1,-23.83,31.17,313603.55,7363391.68
"747",747,1977,4,"bb","Buffalo bull",3,-23.76,31.17,313503.61,7371144.13
"773",773,1977,4,"bb","Buffalo bull",3,-23.83,31.21,317678.69,7363443.71
"790",790,1977,4,"bb","Buffalo bull",2,-23.72,31.21,317525.21,7375625.92
"826",826,1977,4,"bb","Buffalo bull",1,-23.74,31.28,324689.35,7373499.01
"830",830,1977,4,"bb","Buffalo bull",2,-23.85,31.32,328911.3,7361365.98
"831",831,1977,4,"bb","Buffalo bull",2,-23.85,31.32,328911.3,7361365.98
"871",871,1977,4,"bb","Buffalo bull",1,-23.74,31.32,328767.15,7373547.74
"879",879,1977,4,"bb","Buffalo bull",2,-23.87,31.36,333011.26,7359198.87
"889",889,1977,4,"bb","Buffalo bull",1,-23.76,31.36,332870.43,7371380.49
"897",897,1977,4,"bb","Buffalo bull",1,-23.78,31.36,332895.99,7369165.66
"910",910,1977,5,"bb","Buffalo bull",1,-23.76,31.36,332870.43,7371380.49
"914",914,1977,5,"bb","Buffalo bull",1,-23.78,31.36,332895.99,7369165.66
"974",974,1977,5,"bb","Buffalo bull",3,-23.83,31.44,341109.67,7363720.54
"1027",1027,1977,5,"bb","Buffalo bull",2,-23.76,31.48,345101.45,7371516.42
"1041",1041,1977,5,"bb","Buffalo bull",4,-23.87,31.53,350323.79,7359389.05
"1084",1084,1977,5,"bb","Buffalo bull",1,-23.83,31.57,354352.48,7363860.18
"1085",1085,1977,5,"bb","Buffalo bull",1,-23.83,31.57,354352.48,7363860.18
"1086",1086,1977,5,"bb","Buffalo bull",1,-23.83,31.57,354352.48,7363860.18
"1102",1102,1977,5,"bb","Buffalo bull",2,-23.83,31.59,356389.79,7363880.58
"1109",1109,1977,6,"bb","Buffalo bull",1,-23.72,31.36,332819.37,7375810.13
"1128",1128,1977,6,"bb","Buffalo bull",1,-23.58,31.36,332641.3,7391313.71
"1133",1133,1977,6,"bb","Buffalo bull",1,-23.72,31.38,334858.53,7375833.48
"1138",1138,1977,6,"bb","Buffalo bull",1,-23.74,31.4,336922.57,7373641.74
"1142",1142,1977,6,"bb","Buffalo bull",1,-23.68,31.4,336847.94,7380286.09
"1155",1155,1977,6,"bb","Buffalo bull",2,-23.62,31.38,334732.79,7386907.41
"1166",1166,1977,6,"bb","Buffalo bull",2,-23.74,31.42,338961.39,7373664.53
"1186",1186,1977,6,"bb","Buffalo bull",2,-23.56,31.42,338740.84,7393597.3
"1200",1200,1977,6,"bb","Buffalo bull",6,-23.64,31.46,342919.38,7384782.91
"1222",1222,1977,7,"bb","Buffalo bull",1,-23.64,31.19,315373.48,7384459.9
"1226",1226,1977,7,"bb","Buffalo bull",1,-23.66,31.17,313361.32,7382218.95
"1253",1253,1977,7,"bb","Buffalo bull",1,-23.7,31.28,324635.84,7377928.77
"1254",1254,1977,7,"bb","Buffalo bull",1,-23.7,31.28,324635.84,7377928.77
"1259",1259,1977,7,"bb","Buffalo bull",3,-23.66,31.26,322542.25,7382333.77
"1266",1266,1977,7,"bb","Buffalo bull",2,-23.62,31.26,322488.29,7386763.52
"1274",1274,1977,7,"bb","Buffalo bull",2,-23.7,31.3,326675.37,7377953.24
"1282",1282,1977,7,"bb","Buffalo bull",1,-23.66,31.3,326622.57,7382382.95
"1284",1284,1977,7,"bb","Buffalo bull",1,-23.72,31.34,330780.19,7375786.5
"1287",1287,1977,7,"bb","Buffalo bull",1,-23.72,31.36,332819.37,7375810.13
"1296",1296,1977,8,"bb","Buffalo bull",1,-23.53,31.23,319303.9,7396692.9
"1299",1299,1977,8,"bb","Buffalo bull",2,-23.43,31.23,319167.55,7407767.18
"1334",1334,1977,9,"bb","Buffalo bull",1,-23.47,31.09,304919.69,7403154.49
"1358",1358,1977,9,"bb","Buffalo bull",1,-23.64,31.15,311292.38,7384407.62
"1394",1394,1977,9,"bb","Buffalo bull",3,-23.45,31.15,311020.88,7405449.54
"1415",1415,1977,9,"bb","Buffalo bull",1,-23.51,31.19,315191.52,7398856.84
"1417",1417,1977,9,"bb","Buffalo bull",1,-23.53,31.17,313177.2,7396616.03
"1448",1448,1977,9,"bb","Buffalo bull",1,-23.58,31.23,319372.28,7391155.71
"1456",1456,1977,9,"bb","Buffalo bull",1,-23.53,31.23,319303.9,7396692.9
"1468",1468,1977,10,"bb","Buffalo bull",2,-23.43,31.03,298729.24,7407501.84
"1508",1508,1977,8,"bb","Buffalo bull",2,-23.45,31.34,330433.49,7405686.24
"1513",1513,1977,8,"bb","Buffalo bull",3,-23.51,31.4,336637.46,7399111.49
"1514",1514,1977,8,"bb","Buffalo bull",3,-23.51,31.4,336637.46,7399111.49
"1515",1515,1977,8,"bb","Buffalo bull",3,-23.51,31.4,336637.46,7399111.49
"1516",1516,1977,8,"bb","Buffalo bull",3,-23.51,31.4,336637.46,7399111.49
"1525",1525,1977,8,"bb","Buffalo bull",4,-23.53,31.42,338704.23,7396919.39
"1529",1529,1977,9,"bb","Buffalo bull",15,-23.49,31.07,302906.18,7400912.22
"1531",1531,1977,9,"bb","Buffalo bull",2,-23.6,31.11,307152.64,7388784.17
"1541",1541,1977,9,"bb","Buffalo bull",1,-23.47,31.09,304919.69,7403154.49
"1542",1542,1977,9,"bb","Buffalo bull",1,-23.47,31.09,304919.69,7403154.49
"1566",1566,1977,10,"bb","Buffalo bull",1,-23.47,31.05,300833.17,7403099.65
"1571",1571,1977,10,"bb","Buffalo bull",15,-23.49,31.07,302906.18,7400912.22
"1573",1573,1977,10,"bb","Buffalo bull",1,-23.43,31.05,300773.15,7407529.65
"1574",1574,1977,10,"bb","Buffalo bull",1,-23.43,31.05,300773.15,7407529.65
"1626",1626,1977,10,"bb","Buffalo bull",1,-23.28,31.05,300548.92,7424142
"1627",1627,1977,10,"bb","Buffalo bull",1,-23.28,31.05,300548.92,7424142
"1650",1650,1977,10,"bb","Buffalo bull",1,-23.47,31.09,304919.69,7403154.49
"1651",1651,1977,10,"bb","Buffalo bull",1,-23.47,31.09,304919.69,7403154.49
"1652",1652,1977,10,"bb","Buffalo bull",1,-23.47,31.09,304919.69,7403154.49
"1661",1661,1977,10,"bb","Buffalo bull",2,-23.43,31.11,306904.76,7407611.39
"1662",1662,1977,10,"bb","Buffalo bull",2,-23.43,31.11,306904.76,7407611.39
"1713",1713,1977,10,"bb","Buffalo bull",3,-23.45,31.15,311020.88,7405449.54
"1714",1714,1977,10,"bb","Buffalo bull",3,-23.45,31.15,311020.88,7405449.54
"1715",1715,1977,10,"bb","Buffalo bull",2,-23.39,31.13,308891.13,7412067.91
"1730",1730,1977,10,"bb","Buffalo bull",3,-23.35,31.13,308833.76,7416497.73
"1738",1738,1977,10,"bb","Buffalo bull",2,-23.33,31.15,310850.47,7418738.94
"1754",1754,1977,10,"bb","Buffalo bull",1,-23.31,31.17,312867.8,7420979.83
"1755",1755,1977,10,"bb","Buffalo bull",1,-23.31,31.17,312867.8,7420979.83
"1756",1756,1977,10,"bb","Buffalo bull",1,-23.31,31.17,312867.8,7420979.83
"1760",1760,1977,10,"bb","Buffalo bull",1,-23.31,31.19,314913.43,7421005.55
"1762",1762,1977,10,"bb","Buffalo bull",2,-23.33,31.19,314941.14,7418790.7
"1836",1836,1977,11,"bb","Buffalo bull",1,-23.22,31.26,321953.44,7431059.84
"1838",1838,1977,11,"bb","Buffalo bull",3,-23.18,31.28,323947.98,7435513.7
"1839",1839,1977,11,"bb","Buffalo bull",3,-23.18,31.28,323947.98,7435513.7
"1854",1854,1977,11,"bb","Buffalo bull",1,-23.22,31.3,326047.31,7431108.3
"1855",1855,1977,11,"bb","Buffalo bull",1,-23.22,31.3,326047.31,7431108.3
"1856",1856,1977,11,"bb","Buffalo bull",1,-23.18,31.3,325995.52,7435537.76
"1857",1857,1977,11,"bb","Buffalo bull",1,-23.18,31.3,325995.52,7435537.76
"1858",1858,1977,11,"bb","Buffalo bull",1,-23.18,31.3,325995.52,7435537.76
"1859",1859,1977,11,"bb","Buffalo bull",1,-23.18,31.3,325995.52,7435537.76
"1882",1882,1977,12,"bb","Buffalo bull",1,-23.22,30.98,293294.61,7430688.95
"1885",1885,1977,12,"bb","Buffalo bull",1,-23.24,30.98,293325.42,7428473.94
"1889",1889,1977,12,"bb","Buffalo bull",1,-23.18,30.96,291185.26,7435090.39
"1917",1917,1977,12,"bb","Buffalo bull",4,-23.22,31.03,298412.49,7430759.24
"1919",1919,1977,12,"bb","Buffalo bull",1,-23.24,31.01,296395.71,7428516.35
"1942",1942,1977,12,"bb","Buffalo bull",1,-23.28,31.05,300548.92,7424142
"1959",1959,1977,12,"bb","Buffalo bull",2,-23.24,31.07,302536.16,7428599.27
"1969",1969,1977,12,"bb","Buffalo bull",1,-23.28,31.09,304641.29,7424196.5
"1990",1990,1977,12,"bb","Buffalo bull",1,-23.2,31.09,304524.71,7433056.16
"2023",2023,1977,12,"bb","Buffalo bull",4,-23.24,31.17,312769.93,7428731.81
"2031",2031,1977,13,"bb","Buffalo bull",6,-23.64,31.46,342919.38,7384782.91
"2032",2032,1977,13,"bb","Buffalo bull",6,-23.64,31.46,342919.38,7384782.91
"2037",2037,1977,13,"bb","Buffalo bull",8,-23.64,31.48,344959.72,7384804.76
"2038",2038,1977,13,"bb","Buffalo bull",8,-23.64,31.48,344959.72,7384804.76
"2065",2065,1977,13,"bb","Buffalo bull",3,-23.74,31.51,348135.93,7373763.5
"2146",2146,1977,13,"bb","Buffalo bull",4,-23.81,31.61,358405.38,7366115.37
"2147",2147,1977,13,"bb","Buffalo bull",4,-23.81,31.61,358405.38,7366115.37
"2148",2148,1977,13,"bb","Buffalo bull",4,-23.81,31.61,358405.38,7366115.37
"2161",2161,1977,13,"bb","Buffalo bull",2,-23.83,31.59,356389.79,7363880.58
"2162",2162,1977,13,"bb","Buffalo bull",2,-23.83,31.59,356389.79,7363880.58
"2177",2177,1977,13,"bb","Buffalo bull",4,-23.76,31.61,358351.2,7371652.02
"2178",2178,1977,13,"bb","Buffalo bull",4,-23.76,31.61,358351.2,7371652.02
"2179",2179,1977,13,"bb","Buffalo bull",4,-23.76,31.61,358351.2,7371652.02
"2275",2275,1977,13,"bb","Buffalo bull",1,-23.85,31.63,360485.78,7361705.87
"2279",2279,1977,13,"bb","Buffalo bull",1,-23.81,31.63,360442.98,7366135.18
"2280",2280,1977,13,"bb","Buffalo bull",1,-23.81,31.63,360442.98,7366135.18
"2338",2338,1977,13,"bb","Buffalo bull",2,-23.78,31.65,362448.98,7369476.67
"2354",2354,1977,13,"bb","Buffalo bull",2,-23.74,31.63,360368.25,7373886.44
"2355",2355,1977,13,"bb","Buffalo bull",2,-23.74,31.63,360368.25,7373886.44
"2356",2356,1977,13,"bb","Buffalo bull",2,-23.74,31.63,360368.25,7373886.44
"2375",2375,1977,13,"bb","Buffalo bull",2,-23.7,31.63,360325.63,7378315.7
"2376",2376,1977,13,"bb","Buffalo bull",2,-23.7,31.63,360325.63,7378315.7
"2377",2377,1977,13,"bb","Buffalo bull",2,-23.7,31.63,360325.63,7378315.7
"2402",2402,1977,14,"bb","Buffalo bull",2,-23.45,31.34,330433.49,7405686.24
"2404",2404,1977,14,"bb","Buffalo bull",3,-23.51,31.4,336637.46,7399111.49
"2406",2406,1977,14,"bb","Buffalo bull",1,-23.47,31.38,334545.13,7403518.07
"2420",2420,1977,14,"bb","Buffalo bull",2,-23.56,31.42,338740.84,7393597.3
"2430",2430,1977,14,"bb","Buffalo bull",3,-23.51,31.42,338679.85,7399134.11
"2444",2444,1977,14,"bb","Buffalo bull",4,-23.53,31.42,338704.23,7396919.39
"2482",2482,1977,14,"bb","Buffalo bull",15,-23.6,31.46,342871.67,7389212.34
"2483",2483,1977,14,"bb","Buffalo bull",15,-23.6,31.46,342871.67,7389212.34
"2484",2484,1977,14,"bb","Buffalo bull",15,-23.6,31.46,342871.67,7389212.34
"2609",2609,1977,14,"bb","Buffalo bull",6,-23.56,31.55,352011.02,7393737.59
"2616",2616,1977,14,"bb","Buffalo bull",1,-23.51,31.55,351955.06,7399274.17
"2617",2617,1977,14,"bb","Buffalo bull",1,-23.51,31.55,351955.06,7399274.17
"2678",2678,1977,15,"bb","Buffalo bull",2,-23.31,31.38,334346.2,7421235.79
"2679",2679,1977,15,"bb","Buffalo bull",2,-23.31,31.38,334346.2,7421235.79
"2684",2684,1977,15,"bb","Buffalo bull",6,-23.31,31.4,336391.68,7421258.54
"2752",2752,1977,15,"bb","Buffalo bull",1,-23.31,31.42,338437.14,7421281.01
"2771",2771,1977,15,"bb","Buffalo bull",3,-23.31,31.48,344573.46,7421346.71
"2789",2789,1977,15,"bb","Buffalo bull",2,-23.39,31.53,349777.06,7412541.14
"2847",2847,1977,18,"bb","Buffalo bull",1,-23.26,31.32,328145.48,7426702.67
"2879",2879,1977,18,"bb","Buffalo bull",2,-23.18,31.34,330090.55,7435585.04
"2880",2880,1977,18,"bb","Buffalo bull",2,-23.18,31.34,330090.55,7435585.04
"2881",2881,1977,18,"bb","Buffalo bull",2,-23.18,31.34,330090.55,7435585.04
"2938",2938,1977,18,"bb","Buffalo bull",5,-23.14,31.38,334136.25,7440060.5
"2939",2939,1977,18,"bb","Buffalo bull",5,-23.14,31.38,334136.25,7440060.5
"2940",2940,1977,18,"bb","Buffalo bull",5,-23.14,31.38,334136.25,7440060.5
"2985",2985,1977,18,"bb","Buffalo bull",1,-23.24,31.44,340399.18,7429054.43
"2986",2986,1977,18,"bb","Buffalo bull",1,-23.24,31.44,340399.18,7429054.43
"3023",3023,1977,18,"bb","Buffalo bull",2,-23.14,31.42,338232.38,7440105.46
"3061",3061,1977,18,"bb","Buffalo bull",4,-23.1,31.42,338184.41,7444534.69
"3062",3062,1977,18,"bb","Buffalo bull",4,-23.1,31.42,338184.41,7444534.69
"3082",3082,1977,18,"bb","Buffalo bull",3,-23.31,31.48,344573.46,7421346.71
"3110",3110,1977,18,"bb","Buffalo bull",1,-23.18,31.48,344422.71,7435741.63
"3125",3125,1977,18,"bb","Buffalo bull",1,-23.16,31.46,342351.87,7437934.7
"3126",3126,1977,18,"bb","Buffalo bull",1,-23.16,31.46,342351.87,7437934.7
"3127",3127,1977,18,"bb","Buffalo bull",1,-23.16,31.46,342351.87,7437934.7
"3128",3128,1977,18,"bb","Buffalo bull",1,-23.16,31.46,342351.87,7437934.7
"3145",3145,1977,18,"bb","Buffalo bull",2,-23.16,31.48,344399.58,7437956.21
"3146",3146,1977,18,"bb","Buffalo bull",2,-23.16,31.48,344399.58,7437956.21
"3147",3147,1977,18,"bb","Buffalo bull",2,-23.16,31.48,344399.58,7437956.21
"3178",3178,1977,18,"bb","Buffalo bull",4,-23.18,31.51,347493.8,7435773.39
"3179",3179,1977,18,"bb","Buffalo bull",4,-23.18,31.51,347493.8,7435773.39
"3196",3196,1977,18,"bb","Buffalo bull",2,-23.22,31.55,351632.7,7431385.67
"3206",3206,1977,19,"bb","Buffalo bull",2,-23.39,31.53,349777.06,7412541.14
"3207",3207,1977,19,"bb","Buffalo bull",2,-23.39,31.53,349777.06,7412541.14
"3233",3233,1977,19,"bb","Buffalo bull",2,-23.35,31.55,351776.74,7416990.99
"3242",3242,1977,19,"bb","Buffalo bull",4,-23.56,31.61,358135.55,7393798.27
"3251",3251,1977,19,"bb","Buffalo bull",1,-23.85,31.63,360485.78,7361705.87
"3283",3283,1977,19,"bb","Buffalo bull",5,-23.93,31.69,366678.67,7352905.11
"3287",3287,1977,19,"bb","Buffalo bull",8,-23.89,31.69,366637.62,7357334.4
"3293",3293,1977,19,"bb","Buffalo bull",6,-23.85,31.67,364559.69,7361744.69
"3309",3309,1977,19,"bb","Buffalo bull",2,-23.76,31.69,366504.64,7371729.43
"3310",3310,1977,19,"bb","Buffalo bull",2,-23.76,31.69,366504.64,7371729.43
"3400",3400,1977,19,"bb","Buffalo bull",1,-23.78,31.71,368563.08,7369533.48
"3401",3401,1977,19,"bb","Buffalo bull",1,-23.78,31.71,368563.08,7369533.48
"3448",3448,1977,19,"bb","Buffalo bull",2,-23.97,31.8,377912.41,7348575.42
"3449",3449,1977,19,"bb","Buffalo bull",2,-23.97,31.8,377912.41,7348575.42
"3474",3474,1977,19,"bb","Buffalo bull",1,-23.95,31.82,379928.87,7350807.18
"3475",3475,1977,19,"bb","Buffalo bull",1,-23.95,31.82,379928.87,7350807.18
"3476",3476,1977,19,"bb","Buffalo bull",1,-23.95,31.82,379928.87,7350807.18
"3667",3667,1977,39,"bb","Buffalo bull",8,-25.16,31.28,326643.99,7216229.01
"3767",3767,1977,39,"bb","Buffalo bull",5,-25.14,31.32,330648.67,7218495.12
"3787",3787,1977,39,"bb","Buffalo bull",2,-25.12,31.32,330621.08,7220710.34
"3788",3788,1977,39,"bb","Buffalo bull",2,-25.12,31.32,330621.08,7220710.34
"3789",3789,1977,39,"bb","Buffalo bull",2,-25.12,31.32,330621.08,7220710.34
"4059",4059,1977,40,"bb","Buffalo bull",2,-25.33,31.28,326885.15,7197399.1
"4060",4060,1977,40,"bb","Buffalo bull",2,-25.33,31.28,326885.15,7197399.1
"4202",4202,1977,40,"bb","Buffalo bull",8,-25.16,31.28,326643.99,7216229.01
"4330",4330,1977,40,"bb","Buffalo bull",5,-25.14,31.32,330648.67,7218495.12
"4459",4459,1977,41,"bb","Buffalo bull",2,-25.28,31.36,334870.66,7203038.26
"4485",4485,1977,41,"bb","Buffalo bull",2,-25.31,31.38,336924.94,7199739.9
"4486",4486,1977,41,"bb","Buffalo bull",2,-25.31,31.38,336924.94,7199739.9
"4631",4631,1977,41,"bb","Buffalo bull",12,-25.1,31.42,340678.92,7223047.31
"4665",4665,1977,41,"bb","Buffalo bull",4,-25.24,31.48,346905.02,7207610.9
"4745",4745,1977,42,"bb","Buffalo bull",1,-25.22,31.53,351917.53,7209882.06
"4746",4746,1977,42,"bb","Buffalo bull",1,-25.22,31.53,351917.53,7209882.06
"4747",4747,1977,42,"bb","Buffalo bull",1,-25.22,31.53,351917.53,7209882.06
"4748",4748,1977,42,"bb","Buffalo bull",1,-25.22,31.53,351917.53,7209882.06
"4749",4749,1977,42,"bb","Buffalo bull",1,-25.22,31.53,351917.53,7209882.06
"4930",4930,1977,42,"bb","Buffalo bull",3,-25.22,31.55,353932.53,7209903.94
"4931",4931,1977,42,"bb","Buffalo bull",3,-25.22,31.55,353932.53,7209903.94
"4932",4932,1977,42,"bb","Buffalo bull",3,-25.22,31.55,353932.53,7209903.94
"4933",4933,1977,42,"bb","Buffalo bull",3,-25.22,31.55,353932.53,7209903.94
"5176",5176,1977,42,"bb","Buffalo bull",1,-25.08,31.57,355783.03,7225430.95
"5177",5177,1977,42,"bb","Buffalo bull",1,-25.08,31.57,355783.03,7225430.95
"5178",5178,1977,42,"bb","Buffalo bull",1,-25.08,31.57,355783.03,7225430.95
"5179",5179,1977,42,"bb","Buffalo bull",1,-25.08,31.57,355783.03,7225430.95
"5180",5180,1977,42,"bb","Buffalo bull",1,-25.08,31.57,355783.03,7225430.95
"5201",5201,1977,42,"bb","Buffalo bull",4,-25.31,31.59,358067.23,7199978.95
"5202",5202,1977,42,"bb","Buffalo bull",4,-25.31,31.59,358067.23,7199978.95
"5203",5203,1977,42,"bb","Buffalo bull",4,-25.31,31.59,358067.23,7199978.95
"5204",5204,1977,42,"bb","Buffalo bull",4,-25.31,31.59,358067.23,7199978.95
"5205",5205,1977,42,"bb","Buffalo bull",4,-25.31,31.59,358067.23,7199978.95
"5206",5206,1977,42,"bb","Buffalo bull",4,-25.31,31.59,358067.23,7199978.95
"5207",5207,1977,42,"bb","Buffalo bull",4,-25.31,31.59,358067.23,7199978.95
"5540",5540,1977,43,"bb","Buffalo bull",12,-25.1,31.42,340678.92,7223047.31
"5541",5541,1977,43,"bb","Buffalo bull",12,-25.1,31.42,340678.92,7223047.31
"5736",5736,1977,47,"bb","Buffalo bull",2,-22.72,31.15,309997.05,7486290.58
"5737",5737,1977,47,"bb","Buffalo bull",1,-22.68,31.15,309941.84,7490720.04
"5738",5738,1977,47,"bb","Buffalo bull",3,-22.7,31.15,309969.44,7488505.31
"5739",5739,1977,47,"bb","Buffalo bull",3,-22.7,31.15,309969.44,7488505.31
"5740",5740,1977,47,"bb","Buffalo bull",2,-22.64,31.15,309886.72,7495149.47
"5741",5741,1977,47,"bb","Buffalo bull",2,-22.64,31.15,309886.72,7495149.47
"5742",5742,1977,47,"bb","Buffalo bull",3,-22.66,31.15,309914.27,7492934.76
"5763",5763,1977,47,"bb","Buffalo bull",2,-22.64,31.17,311942.5,7495174.9
"5786",5786,1977,47,"bb","Buffalo bull",3,-22.68,31.23,318162.47,7490820.21
"5787",5787,1977,47,"bb","Buffalo bull",3,-22.68,31.23,318162.47,7490820.21
"5796",5796,1977,47,"bb","Buffalo bull",3,-22.76,31.26,321349.07,7481998.07
"5797",5797,1977,47,"bb","Buffalo bull",3,-22.76,31.26,321349.07,7481998.07
"5825",5825,1977,47,"bb","Buffalo bull",4,-22.7,31.28,323325.88,7488665.95
"5831",5831,1977,47,"bb","Buffalo bull",2,-22.66,31.28,323274.6,7493095.17
"5837",5837,1977,47,"bb","Buffalo bull",4,-22.72,31.3,325406.03,7486475.02
"5857",5857,1977,48,"bb","Buffalo bull",8,-22.87,31.21,316361.87,7469755.99
"5860",5860,1977,48,"bb","Buffalo bull",1,-22.87,31.23,318414.15,7469780.78
"5861",5861,1977,48,"bb","Buffalo bull",1,-22.87,31.23,318414.15,7469780.78
"5865",5865,1977,48,"bb","Buffalo bull",1,-22.83,31.23,318361,7474210.17
"5866",5866,1977,48,"bb","Buffalo bull",1,-22.83,31.23,318361,7474210.17
"5877",5877,1977,48,"bb","Buffalo bull",2,-22.91,31.26,321544.89,7465388.07
"5890",5890,1977,48,"bb","Buffalo bull",3,-22.81,31.26,321414.21,7476461.44
"5897",5897,1977,48,"bb","Buffalo bull",6,-22.83,31.28,323493.15,7474270.83
"5954",5954,1977,48,"bb","Buffalo bull",1,-22.83,31.34,329651.6,7474341.33
"5955",5955,1977,48,"bb","Buffalo bull",1,-22.83,31.34,329651.6,7474341.33
"6034",6034,1977,48,"bb","Buffalo bull",5,-22.89,31.42,337933.85,7467787.8
"6035",6035,1977,48,"bb","Buffalo bull",5,-22.89,31.42,337933.85,7467787.8
"6061",6061,1977,49,"bb","Buffalo bull",4,-22.93,31.23,318494.05,7463136.65
"6083",6083,1977,49,"bb","Buffalo bull",2,-22.91,31.26,321544.89,7465388.07
"6084",6084,1977,49,"bb","Buffalo bull",2,-22.91,31.26,321544.89,7465388.07
"6145",6145,1977,49,"bb","Buffalo bull",4,-22.97,31.38,333927.76,7458884.83
"6153",6153,1977,49,"bb","Buffalo bull",3,-22.95,31.38,333903.33,7461099.43
"6154",6154,1977,49,"bb","Buffalo bull",3,-22.95,31.38,333903.33,7461099.43
"6204",6204,1977,49,"bb","Buffalo bull",3,-22.93,31.46,342083.85,7463402.21
"6213",6213,1977,50,"bb","Buffalo bull",3,-23.06,31.4,336087.24,7448941.61
"6218",6218,1977,50,"bb","Buffalo bull",4,-23.08,31.4,336111.49,7446727
"6219",6219,1977,50,"bb","Buffalo bull",4,-23.08,31.4,336111.49,7446727
"6234",6234,1977,50,"bb","Buffalo bull",4,-23.1,31.42,338184.41,7444534.69
"6235",6235,1977,50,"bb","Buffalo bull",4,-23.1,31.42,338184.41,7444534.69
"6271",6271,1977,50,"bb","Buffalo bull",3,-23.08,31.42,338160.46,7446749.29
"6272",6272,1977,50,"bb","Buffalo bull",3,-23.08,31.42,338160.46,7446749.29
"6273",6273,1977,50,"bb","Buffalo bull",3,-23.08,31.42,338160.46,7446749.29
"6293",6293,1977,50,"bb","Buffalo bull",1,-23.16,31.46,342351.87,7437934.7
"6298",6298,1977,50,"bb","Buffalo bull",2,-23.16,31.48,344399.58,7437956.21
"6311",6311,1977,50,"bb","Buffalo bull",1,-23.12,31.46,342305.07,7442363.88
"6374",6374,1977,50,"bb","Buffalo bull",4,-23.18,31.51,347493.8,7435773.39
"6377",6377,1977,50,"bb","Buffalo bull",1,-23.18,31.53,349541.17,7435794.21
"6378",6378,1977,50,"bb","Buffalo bull",1,-23.18,31.53,349541.17,7435794.21
"6425",6425,1977,50,"bb","Buffalo bull",2,-23.08,31.51,347380.66,7446846.15
"6426",6426,1977,50,"bb","Buffalo bull",2,-23.08,31.51,347380.66,7446846.15
"6435",6435,1977,50,"bb","Buffalo bull",2,-23.22,31.55,351632.7,7431385.67
"6443",6443,1977,50,"bb","Buffalo bull",7,-23.16,31.55,351566.48,7438029.29
"6447",6447,1977,51,"bb","Buffalo bull",2,-22.66,31.28,323274.6,7493095.17
"6454",6454,1977,51,"bb","Buffalo bull",3,-22.72,31.32,327460.5,7486498.43
"6457",6457,1977,51,"bb","Buffalo bull",2,-22.68,31.3,325355.3,7490904.22
"6473",6473,1977,52,"bb","Buffalo bull",1,-23.14,31.19,314678.83,7439831.55
"6474",6474,1977,52,"bb","Buffalo bull",1,-23.14,31.19,314678.83,7439831.55
"6475",6475,1977,52,"bb","Buffalo bull",1,-23.14,31.19,314678.83,7439831.55
"6516",6516,1977,52,"bb","Buffalo bull",3,-23.16,31.21,316754.25,7437642.06
"6517",6517,1977,52,"bb","Buffalo bull",3,-23.16,31.21,316754.25,7437642.06
"6518",6518,1977,52,"bb","Buffalo bull",3,-23.16,31.21,316754.25,7437642.06
"6519",6519,1977,52,"bb","Buffalo bull",3,-23.16,31.21,316754.25,7437642.06
"6543",6543,1977,52,"bb","Buffalo bull",3,-23.18,31.28,323947.98,7435513.7
"6547",6547,1977,52,"bb","Buffalo bull",3,-23.14,31.26,321847.51,7439918.85
"6548",6548,1977,52,"bb","Buffalo bull",3,-23.14,31.26,321847.51,7439918.85
"6576",6576,1977,52,"bb","Buffalo bull",1,-23.18,31.3,325995.52,7435537.76
"6710",6710,1977,53,"bb","Buffalo bull",2,-23.03,30.92,286852.84,7451645.21
"6715",6715,1977,53,"bb","Buffalo bull",4,-23.03,30.94,288902.96,7451674.2
"6771",6771,1977,53,"bb","Buffalo bull",3,-23.01,30.96,290922.2,7453917.89
"6772",6772,1977,53,"bb","Buffalo bull",3,-23.01,30.96,290922.2,7453917.89
"6800",6800,1977,53,"bb","Buffalo bull",4,-22.99,30.96,290891.37,7456132.86
"6848",6848,1977,53,"bb","Buffalo bull",8,-23.03,31.01,296078.21,7451773.45
"6859",6859,1977,53,"bb","Buffalo bull",1,-23.18,31.07,302447.92,7435244.04
"6868",6868,1977,53,"bb","Buffalo bull",1,-23.16,31.07,302418.55,7437458.96
"6893",6893,1977,53,"bb","Buffalo bull",1,-23.2,31.09,304524.71,7433056.16
"6937",6937,1977,53,"bb","Buffalo bull",1,-23.12,31.11,306457.1,7441942.43
"6938",6938,1977,53,"bb","Buffalo bull",1,-23.12,31.11,306457.1,7441942.43
"6939",6939,1977,53,"bb","Buffalo bull",1,-23.12,31.11,306457.1,7441942.43
"6984",6984,1977,53,"bb","Buffalo bull",2,-23.06,31.13,308420.61,7448613.35
"7002",7002,1977,53,"bb","Buffalo bull",1,-23.14,31.19,314678.83,7439831.55
"7021",7021,1977,54,"bb","Buffalo bull",4,-22.97,30.96,290860.57,7458347.83
"7026",7026,1977,54,"bb","Buffalo bull",4,-22.99,30.96,290891.37,7456132.86
"7027",7027,1977,54,"bb","Buffalo bull",4,-22.99,30.96,290891.37,7456132.86
"7035",7035,1977,54,"bb","Buffalo bull",2,-22.93,30.98,292850.63,7462806.09
"7062",7062,1977,54,"bb","Buffalo bull",1,-22.89,31.01,295868.06,7467277.88
"7118",7118,1977,54,"bb","Buffalo bull",1,-22.93,31.11,306185.53,7462983.44
"7119",7119,1977,54,"bb","Buffalo bull",1,-22.93,31.11,306185.53,7462983.44
"7171",7171,1977,54,"bb","Buffalo bull",1,-23.01,31.17,312450.32,7454202.2
"7203",7203,1977,54,"bb","Buffalo bull",1,-22.93,31.17,312339.86,7463061.3
"7204",7204,1977,54,"bb","Buffalo bull",1,-22.93,31.17,312339.86,7463061.3
"7268",7268,1977,55,"bb","Buffalo bull",1,-22.85,30.96,290676.29,7471637.56
"7283",7283,1977,55,"bb","Buffalo bull",7,-22.87,30.98,292759.43,7469450.89
"7284",7284,1977,55,"bb","Buffalo bull",7,-22.87,30.98,292759.43,7469450.89
"7285",7285,1977,55,"bb","Buffalo bull",7,-22.87,30.98,292759.43,7469450.89
"7289",7289,1977,55,"bb","Buffalo bull",1,-22.89,31.01,295868.06,7467277.88
"7314",7314,1977,55,"bb","Buffalo bull",1,-22.74,31.03,297698.65,7483916.96
"7315",7315,1977,55,"bb","Buffalo bull",1,-22.74,31.03,297698.65,7483916.96
"7325",7325,1977,55,"bb","Buffalo bull",1,-22.85,31.07,301966.44,7471789.51
"7427",7427,1977,55,"bb","Buffalo bull",3,-22.87,31.19,314309.57,7469730.92
"7428",7428,1977,55,"bb","Buffalo bull",3,-22.87,31.19,314309.57,7469730.92
"7457",7457,1977,55,"bb","Buffalo bull",4,-22.93,31.23,318494.05,7463136.65
"7468",7468,1977,55,"bb","Buffalo bull",2,-22.85,31.21,316334.98,7471970.71
"7469",7469,1977,55,"bb","Buffalo bull",8,-22.87,31.21,316361.87,7469755.99
"7470",7470,1977,55,"bb","Buffalo bull",8,-22.87,31.21,316361.87,7469755.99
"7475",7475,1977,55,"bb","Buffalo bull",1,-22.87,31.23,318414.15,7469780.78
