"","ID","Year","Cenb","Sp","Description","No","Lat","Long","X.coord","Y.coord"
"176393",176393,1986,48,"bb","Buffalo bull",3,-22.81,31.21,316281.27,7476400.12
"176469",176469,1986,48,"bb","Buffalo bull",1,-22.77,31.34,329576.98,7480985.11
"176480",176480,1986,48,"bb","Buffalo bull",5,-22.79,31.35,330628.53,7478782.02
"176481",176481,1986,48,"bb","Buffalo bull",1,-22.79,31.34,329601.83,7478770.53
"176540",176540,1986,48,"bb","Buffalo bull",1,-22.78,31.38,333696.47,7479923.35
"176570",176570,1986,48,"bb","Buffalo bull",1,-22.82,31.33,328612.67,7475437.06
"176627",176627,1986,48,"bb","Buffalo bull",3,-22.81,31.41,336812.45,7476634.96
"176677",176677,1986,48,"bb","Buffalo bull",1,-22.89,31.39,334856.08,7467754.46
"176681",176681,1986,48,"bb","Buffalo bull",4,-22.89,31.39,334856.08,7467754.46
"176682",176682,1986,48,"bb","Buffalo bull",3,-22.89,31.39,334856.08,7467754.46
"176687",176687,1986,48,"bb","Buffalo bull",4,-22.87,31.39,334831.88,7469969.04
"176719",176719,1986,48,"bb","Buffalo bull",2,-22.87,31.4,335857.96,7469980.21
"176720",176720,1986,48,"bb","Buffalo bull",1,-22.88,31.4,335869.98,7468872.93
"176725",176725,1986,48,"bb","Buffalo bull",2,-22.87,31.42,337910.1,7470002.35
"176761",176761,1986,3,"bb","Buffalo bull",5,-23.94,31.35,332083.33,7351434.98
"176762",176762,1986,3,"bb","Buffalo bull",4,-23.93,31.36,333088.33,7352554.28
"176772",176772,1986,3,"bb","Buffalo bull",3,-23.93,31.35,332070.39,7352542.42
"176780",176780,1986,3,"bb","Buffalo bull",1,-23.94,31.32,329029.71,7351398.96
"176781",176781,1986,3,"bb","Buffalo bull",1,-23.93,31.33,330034.49,7352518.49
"176807",176807,1986,3,"bb","Buffalo bull",5,-23.88,31.32,328950.73,7358043.65
"176811",176811,1986,3,"bb","Buffalo bull",1,-23.88,31.33,329969.07,7358055.71
"176814",176814,1986,3,"bb","Buffalo bull",1,-23.92,31.34,331039.43,7353637.93
"176825",176825,1986,3,"bb","Buffalo bull",1,-23.86,31.36,332998.43,7360306.29
"176837",176837,1986,3,"bb","Buffalo bull",1,-23.88,31.25,321822.2,7357957.25
"176940",176940,1986,3,"bb","Buffalo bull",1,-23.98,31.32,329082.48,7346969.14
"177016",177016,1986,3,"bb","Buffalo bull",1,-23.99,31.23,319938.18,7345749.56
"177043",177043,1986,3,"bb","Buffalo bull",1,-23.95,31.21,317846.9,7350153.84
"177157",177157,1986,3,"bb","Buffalo bull",1,-24.01,31.32,329122.1,7343646.77
"177164",177164,1986,3,"bb","Buffalo bull",2,-23.99,31.34,331130.64,7345885.81
"177193",177193,1986,3,"bb","Buffalo bull",1,-24,31.26,323004.39,7344680.1
"177291",177291,1986,3,"bb","Buffalo bull",2,-24.01,31.24,320983.38,7343547.32
"177361",177361,1986,35,"bb","Buffalo bull",8,-24.8,31.6,358489.38,7256472.39
"177435",177435,1986,35,"bb","Buffalo bull",3,-24.86,31.61,359568.01,7249837.88
"177437",177437,1986,35,"bb","Buffalo bull",4,-24.87,31.62,360589.66,7248740.67
"177701",177701,1986,32,"bb","Buffalo bull",1,-24.48,31.47,344952.51,7291771.15
"177745",177745,1986,32,"bb","Buffalo bull",1,-24.52,31.51,349054.43,7287385.6
"177761",177761,1986,32,"bb","Buffalo bull",5,-24.57,31.5,348101.46,7281837.28
"177771",177771,1986,32,"bb","Buffalo bull",1,-24.48,31.53,351033.7,7291837.13
"177849",177849,1986,32,"bb","Buffalo bull",1,-24.48,31.54,352047.22,7291847.87
"177852",177852,1986,32,"bb","Buffalo bull",4,-24.5,31.55,353083.98,7289643.65
"177889",177889,1986,32,"bb","Buffalo bull",2,-24.45,31.57,355053.42,7295201.96
"177928",177928,1986,32,"bb","Buffalo bull",8,-24.44,31.61,359097.29,7296350.69
"178002",178002,1986,32,"bb","Buffalo bull",2,-24.56,31.6,358218.15,7283051.31
"178003",178003,1986,32,"bb","Buffalo bull",1,-24.55,31.64,362258.64,7284199.31
"178036",178036,1986,36,"bb","Buffalo bull",1,-24.8,31.72,370620.24,7256591.41
"178108",178108,1986,36,"bb","Buffalo bull",1,-24.82,31.8,378726.74,7254450.01
"178295",178295,1986,29,"bb","Buffalo bull",1,-24.5,31.77,375377.15,7289859.91
"178296",178296,1986,29,"bb","Buffalo bull",1,-24.5,31.77,375377.15,7289859.91
"178464",178464,1986,29,"bb","Buffalo bull",1,-24.58,31.78,376468.81,7281009.82
"178735",178735,1986,29,"bb","Buffalo bull",2,-24.78,31.86,384753.97,7258931.59
"179148",179148,1986,42,"bb","Buffalo bull",1,-25.21,31.55,353920.59,7211011.49
"179200",179200,1986,42,"bb","Buffalo bull",1,-25.2,31.53,351893.31,7212097.16
"179522",179522,1986,42,"bb","Buffalo bull",1,-25.09,31.55,353777.61,7224301.93
"179531",179531,1986,42,"bb","Buffalo bull",1,-25.08,31.56,354774.38,7225420.24
"179654",179654,1986,37,"bb","Buffalo bull",4,-24.83,32,398948.54,7253505.56
"179662",179662,1986,37,"bb","Buffalo bull",4,-24.8,31.99,397913.37,7256820.23
"179844",179844,1986,37,"bb","Buffalo bull",2,-24.8,31.92,390837.54,7256766.09
"179948",179948,1986,37,"bb","Buffalo bull",2,-25.17,32.02,401241.89,7215868.94
"179949",179949,1986,37,"bb","Buffalo bull",1,-25.16,32.02,401233.83,7216976.36
"179951",179951,1986,37,"bb","Buffalo bull",1,-25.15,32.02,401225.78,7218083.77
"180080",180080,1986,37,"bb","Buffalo bull",1,-25.16,32.01,400225.95,7216968.99
"180316",180316,1986,37,"bb","Buffalo bull",1,-25.16,31.98,397202.29,7216946.44
"180323",180323,1986,37,"bb","Buffalo bull",2,-25.14,31.95,394161.36,7219138.07
"180822",180822,1986,39,"bb","Buffalo bull",3,-25.1,31.32,330593.5,7222925.56
"180859",180859,1986,39,"bb","Buffalo bull",2,-25.11,31.3,328590.33,7221792.7
"180880",180880,1986,39,"bb","Buffalo bull",1,-25.09,31.29,327553.79,7223995.2
"180969",180969,1986,33,"bb","Buffalo bull",2,-24.75,31.61,359444,7262020.04
"180973",180973,1986,33,"bb","Buffalo bull",2,-24.74,31.62,360444.15,7263137.74
"181138",181138,1986,33,"bb","Buffalo bull",2,-24.6,31.58,356238.1,7278600.8
"181156",181156,1986,33,"bb","Buffalo bull",3,-24.6,31.57,355225.56,7278590.31
"181174",181174,1986,33,"bb","Buffalo bull",2,-24.56,31.59,357205.29,7283040.99
"181180",181180,1986,33,"bb","Buffalo bull",1,-24.58,31.6,358240.66,7280836.43
"181209",181209,1986,33,"bb","Buffalo bull",1,-24.56,31.61,359231.01,7283061.57
"181211",181211,1986,33,"bb","Buffalo bull",6,-24.56,31.62,360243.87,7283071.75
"181220",181220,1986,33,"bb","Buffalo bull",4,-24.57,31.63,361267.73,7281974.42
"181329",181329,1986,38,"bb","Buffalo bull",2,-24.89,31.79,377784.85,7246689.11
"181502",181502,1986,38,"bb","Buffalo bull",3,-25.1,31.9,389084.93,7223527.63
"181619",181619,1986,38,"bb","Buffalo bull",1,-25.01,31.78,376894.1,7233390.8
"181685",181685,1986,34,"bb","Buffalo bull",1,-24.72,31.8,378629.55,7265524.11
"181695",181695,1986,34,"bb","Buffalo bull",1,-24.75,31.77,375624.84,7262174.96
"181719",181719,1986,34,"bb","Buffalo bull",6,-24.73,31.75,373582.04,7264371.47
"181730",181730,1986,34,"bb","Buffalo bull",10,-24.62,31.78,376508.08,7276580.26
"181758",181758,1986,34,"bb","Buffalo bull",2,-24.62,31.74,372458.74,7276543.74
"181759",181759,1986,34,"bb","Buffalo bull",1,-24.62,31.73,371446.4,7276534.43
"181799",181799,1986,34,"bb","Buffalo bull",7,-24.61,31.67,365361.59,7277584.43
"181908",181908,1986,34,"bb","Buffalo bull",2,-24.68,31.79,377578.94,7269944.83
"181945",181945,1986,34,"bb","Buffalo bull",6,-24.68,31.73,371507.83,7269889.95
"181948",181948,1986,34,"bb","Buffalo bull",2,-24.68,31.74,372519.69,7269899.28
"181973",181973,1986,34,"bb","Buffalo bull",7,-24.68,31.71,369484.11,7269871.07
"181974",181974,1986,34,"bb","Buffalo bull",2,-24.68,31.71,369484.11,7269871.07
"181997",181997,1986,34,"bb","Buffalo bull",1,-24.7,31.68,366469.83,7267627.33
"182180",182180,1986,40,"bb","Buffalo bull",4,-25.15,31.33,331670.62,7217400.04
"182311",182311,1986,40,"bb","Buffalo bull",2,-25.23,31.37,335810.49,7208588.59
"182346",182346,1986,40,"bb","Buffalo bull",1,-25.19,31.29,327694.27,7212918.96
"182350",182350,1986,40,"bb","Buffalo bull",2,-25.2,31.29,327708.35,7211811.33
"182376",182376,1986,40,"bb","Buffalo bull",5,-25.2,31.23,321661.81,7211733.12
"182385",182385,1986,40,"bb","Buffalo bull",4,-25.19,31.22,320639.39,7212827.48
"182468",182468,1986,40,"bb","Buffalo bull",2,-25.26,31.25,323763.89,7205113.58
"182469",182469,1986,40,"bb","Buffalo bull",2,-25.26,31.25,323763.89,7205113.58
"182497",182497,1986,40,"bb","Buffalo bull",10,-25.31,31.26,324843.01,7199588.4
"182613",182613,1986,57,"bb","Buffalo bull",1,-25.1,31.71,369924.94,7223358.09
"182736",182736,1986,57,"bb","Buffalo bull",4,-25.07,31.79,377962.66,7226755.14
"182857",182857,1986,57,"bb","Buffalo bull",1,-23.31,31.04,299570.79,7420805.74
"182859",182859,1986,57,"bb","Buffalo bull",2,-23.39,31.04,299690.96,7411945.79
"182864",182864,1986,57,"bb","Buffalo bull",1,-23.38,31.02,297631.24,7413025.38
"182869",182869,1986,57,"bb","Buffalo bull",1,-23.36,31.03,298623.36,7415254.37
"182871",182871,1986,57,"bb","Buffalo bull",1,-23.37,31.02,297616.05,7414132.88
"182944",182944,1986,57,"bb","Buffalo bull",1,-23.4,31.09,304816.87,7410906.86
"182994",182994,1986,57,"bb","Buffalo bull",1,-23.44,31.09,304875.59,7406476.94
"183040",183040,1986,57,"bb","Buffalo bull",5,-23.45,31.11,306933.83,7405396.44
"183049",183049,1986,57,"bb","Buffalo bull",2,-23.44,31.1,305897.44,7406490.46
"183062",183062,1986,57,"bb","Buffalo bull",2,-23.46,31.08,303883.28,7404248.38
"183093",183093,1986,57,"bb","Buffalo bull",4,-23.43,31.15,310992.42,7407664.45
"183096",183096,1986,57,"bb","Buffalo bull",1,-23.43,31.16,312014.32,7407677.54
"183162",183162,1986,57,"bb","Buffalo bull",2,-23.35,31.2,315991.37,7416588.62
"183170",183170,1986,57,"bb","Buffalo bull",2,-23.36,31.15,310892.99,7415416.61
"183179",183179,1986,57,"bb","Buffalo bull",1,-23.33,31.18,313918.48,7418777.87
"183195",183195,1986,57,"bb","Buffalo bull",1,-23.28,31.18,313848.87,7424315
"183200",183200,1986,57,"bb","Buffalo bull",1,-23.29,31.14,309770.87,7423155.6
"183252",183252,1986,31,"bb","Buffalo bull",1,-24.41,31.7,368190.38,7299761.5
"183338",183338,1986,31,"bb","Buffalo bull",1,-24.41,31.7,368190.38,7299761.5
"183471",183471,1986,31,"bb","Buffalo bull",3,-24.47,31.63,361157.81,7293048.66
"183483",183483,1986,31,"bb","Buffalo bull",2,-24.46,31.67,365201.44,7294195.64
"183495",183495,1986,31,"bb","Buffalo bull",1,-24.46,31.69,367228.72,7294214.98
"183557",183557,1986,31,"bb","Buffalo bull",8,-24.46,31.77,375337.74,7294289.42
"183605",183605,1986,31,"bb","Buffalo bull",1,-24.48,31.72,370290.12,7292028.66
"183654",183654,1986,31,"bb","Buffalo bull",1,-24.49,31.68,366246.8,7290883.14
"183675",183675,1986,31,"bb","Buffalo bull",1,-24.51,31.69,367281.2,7288677.98
"183713",183713,1986,31,"bb","Buffalo bull",1,-24.52,31.75,373370.6,7287626.94
"183720",183720,1986,31,"bb","Buffalo bull",1,-24.52,31.73,371344.32,7287608.44
"183736",183736,1986,31,"bb","Buffalo bull",2,-24.54,31.64,362247.72,7285306.73
"183752",183752,1986,31,"bb","Buffalo bull",2,-24.55,31.7,368336.17,7284257.93
"183800",183800,1986,31,"bb","Buffalo bull",1,-24.58,31.63,361278.74,7280866.99
"183819",183819,1986,31,"bb","Buffalo bull",2,-24.59,31.67,365340.18,7279799.28
"183967",183967,1986,25,"bb","Buffalo bull",2,-24.11,31.78,376011.9,7333055.56
"184007",184007,1986,25,"bb","Buffalo bull",1,-24.06,31.82,380030.94,7338626.9
"184027",184027,1986,25,"bb","Buffalo bull",5,-24.11,31.73,370929.87,7333010.45
"184167",184167,1986,25,"bb","Buffalo bull",1,-24.03,31.79,376951.99,7341922.89
"184330",184330,1986,25,"bb","Buffalo bull",1,-24,31.77,374888.9,7345227.19
"184341",184341,1986,25,"bb","Buffalo bull",1,-24,31.75,372854.36,7345209.28
"184353",184353,1986,25,"bb","Buffalo bull",1,-23.99,31.84,382000.6,7346394.9
"184354",184354,1986,25,"bb","Buffalo bull",1,-23.99,31.86,384035.25,7346411.5
"184416",184416,1986,25,"bb","Buffalo bull",1,-24.07,31.86,384107.04,7337553.18
"184417",184417,1986,25,"bb","Buffalo bull",1,-24.08,31.86,384116.03,7336445.88
"184418",184418,1986,25,"bb","Buffalo bull",1,-24.08,31.86,384116.03,7336445.88
"184446",184446,1986,25,"bb","Buffalo bull",6,-24.09,31.85,383108.48,7335330.29
"184456",184456,1986,25,"bb","Buffalo bull",2,-24.1,31.85,383117.55,7334222.98
"184459",184459,1986,25,"bb","Buffalo bull",2,-24.1,31.87,385150.47,7334239.5
"184592",184592,1986,25,"bb","Buffalo bull",2,-24.06,31.88,386131.59,7338676.82
"184740",184740,1986,26,"bb","Buffalo bull",1,-24.24,31.76,374106.7,7318642.34
"184745",184745,1986,26,"bb","Buffalo bull",1,-24.24,31.82,380198.9,7318695.17
"184782",184782,1986,26,"bb","Buffalo bull",3,-24.25,31.84,382238.83,7317604.87
"184811",184811,1986,26,"bb","Buffalo bull",1,-24.27,31.76,374136.24,7315320.29
"184851",184851,1986,26,"bb","Buffalo bull",4,-24.3,31.8,378225.39,7312033.81
"184880",184880,1986,26,"bb","Buffalo bull",4,-24.3,31.86,384314.67,7312084.99
"185054",185054,1986,26,"bb","Buffalo bull",1,-24.4,31.78,376292.84,7300942.6
"185163",185163,1986,26,"bb","Buffalo bull",1,-24.35,31.9,388417.93,7306581.04
"185187",185187,1986,26,"bb","Buffalo bull",1,-24.39,31.94,392509.59,7302183.3
"185211",185211,1986,24,"bb","Buffalo bull",1,-24.38,31.75,373230.59,7303130.25
"185212",185212,1986,24,"bb","Buffalo bull",1,-24.38,31.74,372216.32,7303121.07
"185283",185283,1986,24,"bb","Buffalo bull",1,-24.36,31.59,356979.56,7305189.55
"185284",185284,1986,24,"bb","Buffalo bull",1,-24.36,31.58,355965.09,7305179.21
"185296",185296,1986,24,"bb","Buffalo bull",4,-24.35,31.58,355953.77,7306286.63
"185388",185388,1986,24,"bb","Buffalo bull",1,-24.35,31.69,367113.63,7306396.27
"185486",185486,1986,24,"bb","Buffalo bull",1,-24.31,31.72,370116.39,7310854.12
"185491",185491,1986,24,"bb","Buffalo bull",1,-24.31,31.72,370116.39,7310854.12
"185502",185502,1986,24,"bb","Buffalo bull",1,-24.3,31.74,372136.02,7311980.01
"185530",185530,1986,24,"bb","Buffalo bull",1,-24.3,31.62,359957,7311864.52
"185547",185547,1986,24,"bb","Buffalo bull",3,-24.28,31.57,354859.54,7314028.12
"185647",185647,1986,24,"bb","Buffalo bull",1,-24.26,31.62,359913.12,7316294.1
"185679",185679,1986,24,"bb","Buffalo bull",3,-24.26,31.59,356867.34,7316263.62
"185680",185680,1986,24,"bb","Buffalo bull",1,-24.26,31.59,356867.34,7316263.62
"185737",185737,1986,24,"bb","Buffalo bull",3,-22.87,31.14,309178.75,7469667.04
"185745",185745,1986,24,"bb","Buffalo bull",3,-22.9,31.14,309220.71,7466344.87
"185753",185753,1986,24,"bb","Buffalo bull",4,-22.89,31.15,310232.74,7467465.18
"185776",185776,1986,24,"bb","Buffalo bull",3,-22.8,31.16,311134.45,7477444.43
"185778",185778,1986,24,"bb","Buffalo bull",3,-22.84,31.17,312216.03,7473027.7
"185788",185788,1986,24,"bb","Buffalo bull",2,-22.89,31.18,313310.78,7467503.54
"185801",185801,1986,24,"bb","Buffalo bull",2,-22.81,31.18,313201.46,7476362.49
"185804",185804,1986,24,"bb","Buffalo bull",1,-22.78,31.19,314187.4,7479697.18
"185806",185806,1986,24,"bb","Buffalo bull",1,-22.81,31.18,313201.46,7476362.49
"185808",185808,1986,24,"bb","Buffalo bull",4,-22.81,31.19,314228.07,7476375.11
"185809",185809,1986,24,"bb","Buffalo bull",2,-22.81,31.19,314228.07,7476375.11
"185812",185812,1986,24,"bb","Buffalo bull",4,-22.82,31.19,314241.64,7475267.75
"185815",185815,1986,24,"bb","Buffalo bull",3,-22.83,31.18,313228.76,7474147.76
"185828",185828,1986,24,"bb","Buffalo bull",1,-22.85,31.21,316334.98,7471970.71
"185867",185867,1986,24,"bb","Buffalo bull",2,-22.91,31.2,315389.87,7465314.03
"185887",185887,1986,24,"bb","Buffalo bull",5,-22.93,31.22,317468.36,7463124.27
"185907",185907,1986,24,"bb","Buffalo bull",4,-22.76,31.08,302863.29,7481769.58
"185940",185940,1986,24,"bb","Buffalo bull",3,-22.78,31.17,312133.73,7479671.91
"185981",185981,1986,24,"bb","Buffalo bull",8,-22.87,30.99,293785.67,7469464.92
"185983",185983,1986,24,"bb","Buffalo bull",4,-22.87,30.98,292759.43,7469450.89
"185986",185986,1986,24,"bb","Buffalo bull",1,-22.87,30.96,290706.94,7469422.62
"186032",186032,1986,24,"bb","Buffalo bull",1,-22.85,30.97,291702.69,7471651.72
"186037",186037,1986,24,"bb","Buffalo bull",2,-22.84,30.99,293740.38,7472787.29
"186054",186054,1986,24,"bb","Buffalo bull",1,-22.78,31.02,296730.7,7479473.54
"186059",186059,1986,24,"bb","Buffalo bull",2,-22.79,30.99,293665.03,7478324.55
"186061",186061,1986,24,"bb","Buffalo bull",5,-22.78,31.01,295703.79,7479459.76
"186063",186063,1986,24,"bb","Buffalo bull",3,-22.77,31.01,295688.9,7480567.2
"186372",186372,1986,58,"bb","Buffalo bull",2,-25.07,31.75,373927.96,7226718.43
"186394",186394,1986,58,"bb","Buffalo bull",3,-25.02,31.76,374885.9,7232265.02
"186439",186439,1986,58,"bb","Buffalo bull",1,-25.01,31.78,376894.1,7233390.8
"186470",186470,1986,11,"bb","Buffalo bull",1,-23.38,31.26,322166.34,7413341.56
"186475",186475,1986,11,"bb","Buffalo bull",2,-23.37,31.27,323175.32,7414461.24
"186476",186476,1986,11,"bb","Buffalo bull",3,-23.37,31.28,324197.64,7414473.46
"186488",186488,1986,11,"bb","Buffalo bull",1,-23.33,31.3,326190.17,7418927.2
"186559",186559,1986,11,"bb","Buffalo bull",3,-23.32,31.22,317995.48,7419936.19
"186577",186577,1986,11,"bb","Buffalo bull",1,-23.25,31.3,326086.21,7427786.2
"186584",186584,1986,11,"bb","Buffalo bull",2,-23.25,31.29,325062.97,7427774.18
"186586",186586,1986,11,"bb","Buffalo bull",1,-23.26,31.29,325076.03,7426666.8
"186589",186589,1986,11,"bb","Buffalo bull",1,-23.26,31.27,323029.7,7426642.54
"186612",186612,1986,11,"bb","Buffalo bull",1,-23.24,31.26,321979.98,7428845.07
"186615",186615,1986,11,"bb","Buffalo bull",1,-23.23,31.27,322990.1,7429964.68
"186618",186618,1986,11,"bb","Buffalo bull",1,-23.23,31.28,324013.5,7429976.84
"186629",186629,1986,11,"bb","Buffalo bull",1,-23.25,31.22,317900.24,7427688.04
"186669",186669,1986,11,"bb","Buffalo bull",2,-23.21,31.24,319893.07,7432142.57
"186679",186679,1986,11,"bb","Buffalo bull",1,-23.21,31.28,323987.28,7432191.59
"186715",186715,1986,11,"bb","Buffalo bull",1,-23.18,31.31,327019.28,7435549.68
"186725",186725,1986,22,"bb","Buffalo bull",2,-24.26,31.46,343668.69,7316123.98
"186731",186731,1986,22,"bb","Buffalo bull",2,-24.26,31.49,346714.58,7316157.3
"186732",186732,1986,22,"bb","Buffalo bull",2,-24.26,31.47,344683.99,7316135.16
"186752",186752,1986,22,"bb","Buffalo bull",3,-24.3,31.44,341687.68,7311671.59
"186772",186772,1986,22,"bb","Buffalo bull",1,-24.27,31.5,347741.78,7315060.83
"186774",186774,1986,22,"bb","Buffalo bull",1,-24.32,31.43,340697.69,7309445.26
"186795",186795,1986,22,"bb","Buffalo bull",1,-24.35,31.57,354939.22,7306276.22
"186807",186807,1986,22,"bb","Buffalo bull",1,-24.33,31.56,353901.72,7308480.59
"186825",186825,1986,22,"bb","Buffalo bull",3,-24.27,31.56,353832.99,7315125.08
"186837",186837,1986,22,"bb","Buffalo bull",2,-24.27,31.58,355863.36,7315145.91
"186845",186845,1986,22,"bb","Buffalo bull",1,-24.25,31.55,352794.76,7317329.38
"186848",186848,1986,22,"bb","Buffalo bull",3,-24.26,31.55,352806.27,7316221.97
"186851",186851,1986,22,"bb","Buffalo bull",1,-24.26,31.53,350775.72,7316200.7
"186853",186853,1986,22,"bb","Buffalo bull",1,-24.26,31.53,350775.72,7316200.7
"186854",186854,1986,22,"bb","Buffalo bull",2,-24.25,31.52,349748.68,7317297.38
"186875",186875,1986,22,"bb","Buffalo bull",2,-24.45,31.41,338833.01,7295024.99
"186947",186947,1986,22,"bb","Buffalo bull",9,-24.45,31.43,340860.6,7295048.13
"186976",186976,1986,22,"bb","Buffalo bull",3,-24.45,31.45,342888.19,7295070.99
"187092",187092,1986,22,"bb","Buffalo bull",1,-24.4,31.52,349925.47,7300685.9
"187094",187094,1986,22,"bb","Buffalo bull",2,-24.4,31.52,349925.47,7300685.9
"187101",187101,1986,22,"bb","Buffalo bull",2,-24.42,31.52,349949.12,7298471.01
"187121",187121,1986,22,"bb","Buffalo bull",2,-24.4,31.53,350939.64,7300696.69
"187189",187189,1986,22,"bb","Buffalo bull",5,-24.39,31.56,353970.62,7301836.04
"187207",187207,1986,22,"bb","Buffalo bull",1,-24.37,31.57,354962.03,7304061.38
"187227",187227,1986,22,"bb","Buffalo bull",1,-24.35,31.56,353924.67,7306265.74
"187263",187263,1986,22,"bb","Buffalo bull",1,-24.39,31.52,349913.65,7301793.34
"187274",187274,1986,22,"bb","Buffalo bull",4,-24.38,31.52,349901.84,7302900.78
"187277",187277,1986,22,"bb","Buffalo bull",1,-24.41,31.51,348923.21,7299567.59
"187278",187278,1986,22,"bb","Buffalo bull",1,-24.4,31.51,348911.3,7300675.04
"187283",187283,1986,22,"bb","Buffalo bull",1,-24.4,31.5,347897.13,7300664.11
"187286",187286,1986,22,"bb","Buffalo bull",1,-24.41,31.5,347909.11,7299556.66
"187288",187288,1986,22,"bb","Buffalo bull",2,-24.38,31.51,348887.51,7302889.93
"187290",187290,1986,22,"bb","Buffalo bull",1,-24.38,31.5,347873.18,7302879
"187297",187297,1986,22,"bb","Buffalo bull",1,-24.35,31.51,348851.86,7306212.25
"187512",187512,1986,22,"bb","Buffalo bull",1,-24.41,31.35,332697.37,7299383.8
"187524",187524,1986,22,"bb","Buffalo bull",1,-24.41,31.36,333711.5,7299395.84
"187532",187532,1986,22,"bb","Buffalo bull",1,-24.41,31.38,335739.77,7299419.69
"187576",187576,1986,22,"bb","Buffalo bull",1,-24.43,31.48,345905.22,7297319.65
"187607",187607,1986,12,"bb","Buffalo bull",3,-23.27,30.98,293371.69,7425151.41
"187614",187614,1986,12,"bb","Buffalo bull",4,-23.27,30.99,294394.89,7425165.63
"187615",187615,1986,12,"bb","Buffalo bull",1,-23.27,30.99,294394.89,7425165.63
"187641",187641,1986,12,"bb","Buffalo bull",1,-23.22,30.98,293294.61,7430688.95
"187649",187649,1986,12,"bb","Buffalo bull",1,-23.25,30.98,293340.84,7427366.43
"187650",187650,1986,12,"bb","Buffalo bull",3,-23.25,30.98,293340.84,7427366.43
"187667",187667,1986,12,"bb","Buffalo bull",1,-23.27,31,295418.09,7425179.78
"187747",187747,1986,12,"bb","Buffalo bull",1,-23.23,31,295357.02,7429609.78
"187780",187780,1986,12,"bb","Buffalo bull",2,-23.2,31,295311.29,7432932.27
"187924",187924,1986,12,"bb","Buffalo bull",1,-23.23,31.07,302521.44,7429706.73
"187926",187926,1986,12,"bb","Buffalo bull",3,-23.24,31.07,302536.16,7428599.27
"187933",187933,1986,12,"bb","Buffalo bull",3,-23.26,31.09,304612.11,7426411.42
"187986",187986,1986,12,"bb","Buffalo bull",1,-23.24,31.11,306629.72,7428653.13
"188011",188011,1986,12,"bb","Buffalo bull",1,-23.25,31.13,308690.74,7427572.2
"188079",188079,1986,12,"bb","Buffalo bull",1,-23.18,31.13,308590.97,7435324.26
"188149",188149,1986,12,"bb","Buffalo bull",1,-23.25,31.15,310737.33,7427598.44
"188180",188180,1986,12,"bb","Buffalo bull",1,-23.23,31.16,311732.54,7429826.3
"188210",188210,1986,12,"bb","Buffalo bull",1,-23.24,31.17,312769.93,7428731.81
"188235",188235,1986,12,"bb","Buffalo bull",1,-23.23,31.19,314802.83,7429864.89
"188237",188237,1986,12,"bb","Buffalo bull",2,-23.22,31.2,315812.53,7430985.02
"188260",188260,1986,9,"bb","Buffalo bull",3,-23.6,31.11,307152.64,7388784.17
"188302",188302,1986,9,"bb","Buffalo bull",1,-23.55,31.11,307079.56,7394321.63
"188314",188314,1986,9,"bb","Buffalo bull",1,-23.57,31.15,311192.11,7392159.96
"188318",188318,1986,9,"bb","Buffalo bull",1,-23.51,31.08,303957.26,7398710.91
"188330",188330,1986,9,"bb","Buffalo bull",1,-23.49,31.06,301884.7,7400898.46
"188476",188476,1986,9,"bb","Buffalo bull",1,-23.56,31.19,315261.39,7393319.58
"188540",188540,1986,9,"bb","Buffalo bull",1,-23.55,31.25,321373.13,7394503.1
"188604",188604,1986,9,"bb","Buffalo bull",2,-23.45,31.17,313064.37,7405475.66
"188659",188659,1986,9,"bb","Buffalo bull",2,-23.46,31.22,318186.75,7404432.3
"188672",188672,1986,9,"bb","Buffalo bull",1,-23.49,31.23,319249.29,7401122.63
"188705",188705,1986,8,"bb","Buffalo bull",1,-23.42,31.32,328351.37,7408984.69
"188709",188709,1986,8,"bb","Buffalo bull",2,-23.43,31.29,325298.74,7407841.24
"188719",188719,1986,8,"bb","Buffalo bull",1,-23.45,31.26,322259.92,7405589.71
"188722",188722,1986,8,"bb","Buffalo bull",1,-23.45,31.27,323281.63,7405602.02
"188742",188742,1986,8,"bb","Buffalo bull",1,-23.47,31.25,321265.15,7403362.48
"188743",188743,1986,8,"bb","Buffalo bull",1,-23.48,31.25,321278.63,7402255.07
"188778",188778,1986,8,"bb","Buffalo bull",1,-23.5,31.26,322326.93,7400052.63
"188782",188782,1986,8,"bb","Buffalo bull",1,-23.49,31.27,323334.92,7401172.38
"188793",188793,1986,8,"bb","Buffalo bull",1,-23.46,31.35,331467.87,7404590.61
"188808",188808,1986,8,"bb","Buffalo bull",1,-23.48,31.29,325364.53,7402304.24
"188814",188814,1986,8,"bb","Buffalo bull",1,-23.5,31.27,323348.25,7400064.97
"188815",188815,1986,8,"bb","Buffalo bull",1,-23.5,31.27,323348.25,7400064.97
"188838",188838,1986,8,"bb","Buffalo bull",1,-23.49,31.34,330484.62,7401256.71
"188851",188851,1986,8,"bb","Buffalo bull",1,-23.51,31.26,322340.35,7398945.21
"188863",188863,1986,8,"bb","Buffalo bull",1,-23.51,31.31,327446.54,7399006.2
"188876",188876,1986,8,"bb","Buffalo bull",1,-23.49,31.37,333548.72,7401291.79
"188879",188879,1986,8,"bb","Buffalo bull",1,-23.49,31.37,333548.72,7401291.79
"188884",188884,1986,8,"bb","Buffalo bull",1,-23.5,31.33,329476.12,7400137.49
"188888",188888,1986,8,"bb","Buffalo bull",2,-23.52,31.29,325417.26,7397874.61
"188904",188904,1986,8,"bb","Buffalo bull",1,-23.49,31.38,334570.08,7401303.34
"188918",188918,1986,8,"bb","Buffalo bull",1,-23.53,31.29,325430.46,7396767.2
"188961",188961,1986,8,"bb","Buffalo bull",2,-23.54,31.31,327485.66,7395684
"188968",188968,1986,8,"bb","Buffalo bull",2,-23.56,31.27,323428.37,7393420.46
"189069",189069,1986,30,"bb","Buffalo bull",4,-24.61,31.99,397758.35,7277859.97
"189300",189300,1986,30,"bb","Buffalo bull",1,-24.69,31.98,396811.77,7268993.7
"189325",189325,1986,30,"bb","Buffalo bull",4,-24.73,31.96,394821.94,7264549.06
"189423",189423,1986,30,"bb","Buffalo bull",2,-24.76,32,398891.79,7261257.12
"189424",189424,1986,30,"bb","Buffalo bull",3,-24.76,32,398891.79,7261257.12
"189458",189458,1986,30,"bb","Buffalo bull",2,-24.77,31.96,394855.6,7260119.59
"189719",189719,1986,30,"bb","Buffalo bull",3,-24.46,31.99,397636.75,7294469.93
"189778",189778,1986,46,"bb","Buffalo bull",6,-25.35,32,399374.76,7195920.34
"189899",189899,1986,46,"bb","Buffalo bull",4,-25.18,32.01,400242.23,7214754.16
"189904",189904,1986,46,"bb","Buffalo bull",2,-25.16,31.93,392162.82,7216907.36
"189915",189915,1986,46,"bb","Buffalo bull",4,-25.16,31.96,395186.51,7216931.03
"189938",189938,1986,46,"bb","Buffalo bull",1,-25.17,32,399226.29,7215854.13
"190159",190159,1986,46,"bb","Buffalo bull",14,-25.31,31.93,392295.09,7200295.69
"190170",190170,1986,46,"bb","Buffalo bull",10,-25.33,31.94,393319.28,7198088.78
"190171",190171,1986,46,"bb","Buffalo bull",1,-25.33,31.95,394325.78,7198096.71
"190177",190177,1986,46,"bb","Buffalo bull",2,-25.33,31.94,393319.28,7198088.78
"190178",190178,1986,46,"bb","Buffalo bull",2,-25.33,31.92,391306.29,7198072.7
"190186",190186,1986,46,"bb","Buffalo bull",2,-25.33,31.91,390299.79,7198064.54
"190189",190189,1986,46,"bb","Buffalo bull",4,-25.33,31.9,389293.29,7198056.31
"190198",190198,1986,46,"bb","Buffalo bull",3,-25.35,31.95,394343.15,7195881.8
"190221",190221,1986,46,"bb","Buffalo bull",2,-25.36,31.95,394351.84,7194774.34
"190223",190223,1986,46,"bb","Buffalo bull",4,-25.36,31.96,395358.09,7194782.2
"190350",190350,1986,27,"bb","Buffalo bull",2,-24.35,31.97,395519.13,7306635.46
"190397",190397,1986,27,"bb","Buffalo bull",3,-24.38,31.95,393515.34,7303298.33
"190467",190467,1986,27,"bb","Buffalo bull",3,-24.35,31.91,389432.39,7306589.03
"190534",190534,1986,27,"bb","Buffalo bull",1,-24.31,31.93,391427.23,7311034.06
"190541",190541,1986,27,"bb","Buffalo bull",3,-24.31,31.9,388382.89,7311010.33
"191159",191159,1986,28,"bb","Buffalo bull",1,-24.41,31.8,378330.61,7299852.94
"191170",191170,1986,28,"bb","Buffalo bull",2,-24.4,31.82,380349.2,7300977.7
"191249",191249,1986,28,"bb","Buffalo bull",3,-24.39,31.85,383382.26,7302110.6
"191317",191317,1986,28,"bb","Buffalo bull",2,-24.39,31.88,386424.72,7302135.49
"191320",191320,1986,28,"bb","Buffalo bull",2,-24.38,31.88,386415.79,7303242.83
"191438",191438,1986,28,"bb","Buffalo bull",3,-24.45,31.95,393574.07,7295547.07
"191494",191494,1986,53,"bb","Buffalo bull",1,-23.18,31.16,311662.45,7435363.41
"191495",191495,1986,53,"bb","Buffalo bull",4,-23.18,31.16,311662.45,7435363.41
"191507",191507,1986,53,"bb","Buffalo bull",1,-23.13,31.18,313640.89,7440926.2
"191517",191517,1986,53,"bb","Buffalo bull",2,-23.17,31.16,311648.45,7436470.83
"191525",191525,1986,53,"bb","Buffalo bull",6,-23.17,31.15,310624.55,7436457.86
"191531",191531,1986,53,"bb","Buffalo bull",8,-23.16,31.14,309586.5,7437552.23
"191565",191565,1986,53,"bb","Buffalo bull",5,-23.07,31.14,309459.44,7447519.01
"191605",191605,1986,53,"bb","Buffalo bull",1,-23.14,31.13,308534.09,7439753.98
"191656",191656,1986,53,"bb","Buffalo bull",1,-23.03,31.12,307353.17,7451922.47
"191695",191695,1986,53,"bb","Buffalo bull",1,-23.06,31.07,302272.08,7448533.46
"191793",191793,1986,53,"bb","Buffalo bull",6,-23.05,31.02,297133.19,7449572.42
"191796",191796,1986,53,"bb","Buffalo bull",1,-23.04,31.01,296093.26,7450665.98
"191831",191831,1986,53,"bb","Buffalo bull",3,-23.17,31.02,297313.52,7436282.74
"191843",191843,1986,53,"bb","Buffalo bull",3,-23.16,31.01,296274.43,7437376.26
"191846",191846,1986,53,"bb","Buffalo bull",5,-23.15,31.01,296259.3,7438483.75
"191872",191872,1986,53,"bb","Buffalo bull",3,-23.01,31,295022.94,7453974.42
"191925",191925,1986,53,"bb","Buffalo bull",4,-23.16,30.99,294226.36,7437348.13
"191963",191963,1986,53,"bb","Buffalo bull",2,-23.03,30.97,291978.09,7451717.15
"192000",192000,1986,53,"bb","Buffalo bull",1,-23.06,30.93,287924.91,7448337.21
"192010",192010,1986,53,"bb","Buffalo bull",1,-23.02,30.94,288887.37,7452781.7
"192014",192014,1986,53,"bb","Buffalo bull",5,-22.98,30.94,288825.11,7457211.69
"192018",192018,1986,53,"bb","Buffalo bull",2,-22.99,30.92,286789.95,7456075.24
"192032",192032,1986,53,"bb","Buffalo bull",8,-23.06,30.92,286900.08,7448322.67
"192033",192033,1986,53,"bb","Buffalo bull",9,-23.06,30.92,286900.08,7448322.67
"192034",192034,1986,53,"bb","Buffalo bull",4,-23.07,30.92,286915.84,7447215.15
"192037",192037,1986,53,"bb","Buffalo bull",2,-23.07,30.92,286915.84,7447215.15
"192039",192039,1986,53,"bb","Buffalo bull",1,-23.09,30.92,286947.38,7445000.12
"192070",192070,1986,53,"bb","Buffalo bull",1,-25.37,31.6,359143.48,7193344.22
"192251",192251,1986,53,"bb","Buffalo bull",1,-25.28,31.62,361053.25,7203333
"192253",192253,1986,53,"bb","Buffalo bull",4,-25.28,31.63,362060.23,7203343.32
"192296",192296,1986,53,"bb","Buffalo bull",5,-25.29,31.63,362071.55,7202235.79
"192319",192319,1986,53,"bb","Buffalo bull",1,-25.36,31.67,366176.12,7194523.66
"192324",192324,1986,53,"bb","Buffalo bull",1,-25.38,31.69,368210.43,7192328.48
"192351",192351,1986,53,"bb","Buffalo bull",1,-25.28,31.66,365081.17,7203373.84
"192355",192355,1986,53,"bb","Buffalo bull",1,-25.28,31.67,366088.14,7203383.86
"192426",192426,1986,53,"bb","Buffalo bull",2,-25.36,31.73,372213.93,7194582.35
"192428",192428,1986,53,"bb","Buffalo bull",1,-25.37,31.73,372224.45,7193474.84
"192429",192429,1986,53,"bb","Buffalo bull",2,-25.37,31.73,372224.45,7193474.84
"192507",192507,1986,45,"bb","Buffalo bull",1,-25.12,31.92,391119.44,7221329.05
"192513",192513,1986,45,"bb","Buffalo bull",1,-25.13,31.93,392136.45,7220229.65
"192616",192616,1986,45,"bb","Buffalo bull",1,-25.12,31.86,385070.02,7221279.29
"193024",193024,1986,45,"bb","Buffalo bull",10,-25.21,31.85,384146.86,7211303.66
"193038",193038,1986,45,"bb","Buffalo bull",2,-25.22,31.81,380126.62,7210161.13
"193206",193206,1986,45,"bb","Buffalo bull",2,-25.27,31.86,385210.75,7204667.46
"193233",193233,1986,45,"bb","Buffalo bull",1,-25.32,31.9,389284.19,7199163.77
"193234",193234,1986,45,"bb","Buffalo bull",6,-25.32,31.9,389284.19,7199163.77
"193236",193236,1986,45,"bb","Buffalo bull",4,-25.32,31.89,388277.6,7199155.47
"193242",193242,1986,45,"bb","Buffalo bull",2,-25.33,31.89,388286.78,7198048
"193278",193278,1986,41,"bb","Buffalo bull",1,-25.22,31.5,348895,7209848.67
"193362",193362,1986,41,"bb","Buffalo bull",2,-25.16,31.49,347812.92,7216482.76
"193539",193539,1986,41,"bb","Buffalo bull",8,-25.2,31.4,338793.35,7211947.7
"193548",193548,1986,41,"bb","Buffalo bull",4,-25.21,31.39,337798.89,7210828.08
"193648",193648,1986,41,"bb","Buffalo bull",6,-25.22,31.38,336804.61,7209708.37
"193796",193796,1986,41,"bb","Buffalo bull",1,-25.28,31.38,336884.78,7203062.73
"193879",193879,1986,41,"bb","Buffalo bull",3,-25.33,31.4,338965.01,7197548.87
"193906",193906,1986,41,"bb","Buffalo bull",1,-25.34,31.4,338978.25,7196441.26
"193909",193909,1986,41,"bb","Buffalo bull",2,-25.35,31.39,337985.02,7195321.57
"193934",193934,1986,43,"bb","Buffalo bull",2,-25.01,31.35,333497.56,7232931.19
"193951",193951,1986,43,"bb","Buffalo bull",2,-25.01,31.36,334506.85,7232943.44
"194016",194016,1986,43,"bb","Buffalo bull",2,-24.98,31.4,338504.73,7236314.4
"194092",194092,1986,43,"bb","Buffalo bull",2,-25.05,31.41,339605.25,7228573.33
"194093",194093,1986,43,"bb","Buffalo bull",2,-25.05,31.41,339605.25,7228573.33
"194163",194163,1986,43,"bb","Buffalo bull",1,-24.99,31.45,343564.93,7235265.47
"194308",194308,1986,43,"bb","Buffalo bull",2,-25.02,31.56,354703.65,7232065.35
"194448",194448,1986,43,"bb","Buffalo bull",4,-25.03,31.5,348661.03,7230892.1
"194652",194652,1986,20,"bb","Buffalo bull",1,-24.03,31.44,341354.33,7341572.41
"194700",194700,1986,20,"bb","Buffalo bull",1,-24.09,31.5,347527.98,7334994.37
"194725",194725,1986,20,"bb","Buffalo bull",1,-24.05,31.52,349514.57,7339445.55
"194758",194758,1986,20,"bb","Buffalo bull",5,-24.06,31.54,351559.96,7338359.43
"194768",194768,1986,20,"bb","Buffalo bull",1,-24.06,31.55,352576.82,7338369.96
"194796",194796,1986,20,"bb","Buffalo bull",2,-24.07,31.59,356655.34,7337303.98
"194802",194802,1986,20,"bb","Buffalo bull",1,-24.1,31.6,357705.24,7333992.03
"194817",194817,1986,20,"bb","Buffalo bull",1,-24.1,31.61,358721.76,7334002.14
"194819",194819,1986,20,"bb","Buffalo bull",2,-24.1,31.62,359738.28,7334012.18
"194821",194821,1986,20,"bb","Buffalo bull",1,-24.1,31.62,359738.28,7334012.18
"194830",194830,1986,20,"bb","Buffalo bull",4,-24.06,31.64,361728.41,7338461.47
"194839",194839,1986,20,"bb","Buffalo bull",5,-24.01,31.65,362692.1,7344008.03
"194840",194840,1986,20,"bb","Buffalo bull",2,-24.01,31.66,363709.32,7344017.75
"194849",194849,1986,20,"bb","Buffalo bull",2,-24.03,31.65,362713.35,7341793.34
"194876",194876,1986,20,"bb","Buffalo bull",1,-24.09,31.65,362777.18,7335149.21
"194877",194877,1986,20,"bb","Buffalo bull",5,-24.1,31.64,361771.32,7334032.03
"194972",194972,1986,19,"bb","Buffalo bull",2,-23.72,31.67,364424.9,7376139.73
"195069",195069,1986,19,"bb","Buffalo bull",2,-23.41,31.53,349799.63,7410326.53
"195144",195144,1986,19,"bb","Buffalo bull",1,-23.86,31.65,362533.29,7360618.09
"195149",195149,1986,19,"bb","Buffalo bull",2,-23.85,31.67,364559.69,7361744.69
"195173",195173,1986,19,"bb","Buffalo bull",3,-23.88,31.67,364590.89,7358422.72
"195184",195184,1986,19,"bb","Buffalo bull",1,-23.9,31.67,364611.72,7356208.07
"195190",195190,1986,19,"bb","Buffalo bull",1,-23.9,31.69,366647.87,7356227.08
"195192",195192,1986,19,"bb","Buffalo bull",4,-23.9,31.7,367665.95,7356236.48
"195202",195202,1986,19,"bb","Buffalo bull",5,-23.91,31.71,368694.12,7355138.48
"195298",195298,1986,19,"bb","Buffalo bull",1,-23.9,31.77,374792.39,7356300.23
"195381",195381,1986,19,"bb","Buffalo bull",2,-23.97,31.84,381982.38,7348609.48
"195625",195625,1986,44,"bb","Buffalo bull",3,-25.22,31.7,369044.72,7210058.51
"195667",195667,1986,44,"bb","Buffalo bull",3,-25.21,31.71,370041.55,7211175.71
"195759",195759,1986,44,"bb","Buffalo bull",3,-25.26,31.75,374123.2,7205676.31
"195807",195807,1986,44,"bb","Buffalo bull",5,-25.3,31.77,376178.05,7201264.96
"195810",195810,1986,44,"bb","Buffalo bull",2,-25.31,31.78,377194.91,7200166.66
"195835",195835,1986,44,"bb","Buffalo bull",3,-25.32,31.79,378211.61,7199068.3
"195877",195877,1986,44,"bb","Buffalo bull",2,-25.3,31.85,384232.22,7201336.45
"195897",195897,1986,44,"bb","Buffalo bull",2,-25.32,31.87,386264.42,7199138.64
"195908",195908,1986,44,"bb","Buffalo bull",3,-25.34,31.81,380244.51,7196871.36
"195911",195911,1986,44,"bb","Buffalo bull",2,-25.35,31.82,381260.71,7195772.78
"195960",195960,1986,44,"bb","Buffalo bull",2,-25.38,31.88,387326.63,7192502.25
"195983",195983,1986,2,"bb","Buffalo bull",4,-23.9,31.55,352394.54,7356087.97
"196015",196015,1986,2,"bb","Buffalo bull",1,-23.97,31.52,349421.43,7348304.67
"196050",196050,1986,2,"bb","Buffalo bull",1,-23.88,31.52,349317.01,7358271.07
"196057",196057,1986,2,"bb","Buffalo bull",2,-23.87,31.51,348287.07,7359367.76
"196073",196073,1986,2,"bb","Buffalo bull",1,-23.97,31.51,348403.86,7348293.95
"196121",196121,1986,2,"bb","Buffalo bull",2,-23.94,31.47,344297.49,7351572.56
"196164",196164,1986,2,"bb","Buffalo bull",2,-23.88,31.38,335060.75,7358114.9
"196165",196165,1986,2,"bb","Buffalo bull",1,-23.88,31.37,334042.42,7358103.21
"196169",196169,1986,2,"bb","Buffalo bull",1,-23.92,31.38,335111.51,7353685.2
"196183",196183,1986,2,"bb","Buffalo bull",1,-23.98,31.55,352485.54,7347229.01
"196186",196186,1986,2,"bb","Buffalo bull",1,-24,31.55,352508.33,7345014.25
"196187",196187,1986,2,"bb","Buffalo bull",1,-24,31.55,352508.33,7345014.25
"196197",196197,1986,2,"bb","Buffalo bull",1,-24,31.54,351491,7345003.74
"196214",196214,1986,2,"bb","Buffalo bull",2,-24.02,31.52,349479.61,7342767.73
"196226",196226,1986,2,"bb","Buffalo bull",3,-24.02,31.51,348462.42,7342756.99
"196227",196227,1986,2,"bb","Buffalo bull",6,-24.02,31.51,348462.42,7342756.99
"196234",196234,1986,2,"bb","Buffalo bull",1,-24.03,31.5,347457.04,7341638.79
"196238",196238,1986,2,"bb","Buffalo bull",3,-24.02,31.49,346428.05,7342735.31
"196248",196248,1986,2,"bb","Buffalo bull",3,-23.98,31.48,345363.05,7347153.97
"196255",196255,1986,2,"bb","Buffalo bull",1,-23.99,31.47,344357.56,7346035.55
"196284",196284,1986,2,"bb","Buffalo bull",5,-23.99,31.42,339270.35,7345979.4
"196288",196288,1986,2,"bb","Buffalo bull",1,-24,31.41,338265.4,7344860.53
"196319",196319,1986,2,"bb","Buffalo bull",1,-24.04,31.38,335264.26,7340395.99
"196376",196376,1986,47,"bb","Buffalo bull",3,-22.64,31.24,319137.59,7495261.69
"196383",196383,1986,47,"bb","Buffalo bull",1,-22.66,31.27,322246.9,7493083.24
"196389",196389,1986,47,"bb","Buffalo bull",2,-22.65,31.22,317095.12,7494129.91
"196408",196408,1986,47,"bb","Buffalo bull",3,-22.66,31.17,311969.75,7492960.2
"196563",196563,1986,13,"bb","Buffalo bull",3,-23.61,31.55,352067.1,7388200.98
"196568",196568,1986,13,"bb","Buffalo bull",2,-23.62,31.5,346976.79,7387041.02
"196608",196608,1986,13,"bb","Buffalo bull",2,-23.63,31.62,359231.03,7386057.03
"196638",196638,1986,13,"bb","Buffalo bull",1,-23.68,31.58,355205.27,7380480.45
"196641",196641,1986,13,"bb","Buffalo bull",1,-23.67,31.63,360293.72,7381637.63
"196667",196667,1986,13,"bb","Buffalo bull",5,-23.69,31.64,361334.72,7379432.77
"196793",196793,1986,13,"bb","Buffalo bull",2,-23.81,31.59,356367.77,7366095.26
"196926",196926,1986,13,"bb","Buffalo bull",1,-23.72,31.57,354229.89,7376040.93
"196950",196950,1986,13,"bb","Buffalo bull",2,-23.75,31.51,348147.53,7372656.15
"196990",196990,1986,13,"bb","Buffalo bull",2,-23.8,31.57,354318.99,7367182.22
"197117",197117,1986,7,"bb","Buffalo bull",1,-23.7,31.28,324635.84,7377928.77
"197125",197125,1986,7,"bb","Buffalo bull",1,-23.62,31.27,323508.69,7386775.9
"197146",197146,1986,7,"bb","Buffalo bull",2,-23.68,31.29,325629.04,7380155.9
"197151",197151,1986,7,"bb","Buffalo bull",1,-23.69,31.29,325642.32,7379048.47
"197166",197166,1986,7,"bb","Buffalo bull",5,-23.69,31.33,329721.66,7379096.83
"197169",197169,1986,7,"bb","Buffalo bull",1,-23.7,31.32,328714.88,7377977.43
"197182",197182,1986,7,"bb","Buffalo bull",1,-23.7,31.34,330754.38,7378001.33
"197190",197190,1986,7,"bb","Buffalo bull",1,-23.72,31.35,331799.78,7375798.35
"197198",197198,1986,7,"bb","Buffalo bull",2,-23.73,31.36,332832.12,7374702.72
"197204",197204,1986,51,"bb","Buffalo bull",7,-22.62,31.27,322195.4,7497512.46
"197205",197205,1986,51,"bb","Buffalo bull",1,-22.62,31.27,322195.4,7497512.46
"197226",197226,1986,51,"bb","Buffalo bull",5,-22.61,31.33,328350.88,7498690.15
"197557",197557,1986,4,"bb","Buffalo bull",7,-23.76,31.15,311464.92,7371117.74
"197558",197558,1986,4,"bb","Buffalo bull",1,-23.76,31.16,312484.27,7371130.97
"197702",197702,1986,4,"bb","Buffalo bull",3,-23.8,31.22,318655.78,7366778.96
"197724",197724,1986,4,"bb","Buffalo bull",1,-23.77,31.24,320652.62,7370126.77
"197725",197725,1986,4,"bb","Buffalo bull",6,-23.77,31.24,320652.62,7370126.77
"197778",197778,1986,4,"bb","Buffalo bull",1,-23.71,31.27,323629.52,7376808.98
"197902",197902,1986,4,"bb","Buffalo bull",10,-23.82,31.28,324796.63,7364639.44
"197997",197997,1986,4,"bb","Buffalo bull",2,-23.82,31.3,326834.28,7364664.01
"198096",198096,1986,4,"bb","Buffalo bull",1,-23.79,31.34,330870.69,7368034.56
"198145",198145,1986,21,"bb","Buffalo bull",1,-24.2,31.45,342579.59,7322757.39
"198173",198173,1986,21,"bb","Buffalo bull",3,-24.2,31.51,348674.22,7322823.68
"198177",198177,1986,21,"bb","Buffalo bull",4,-24.22,31.51,348697.85,7320608.84
"198179",198179,1986,21,"bb","Buffalo bull",1,-24.22,31.51,348697.85,7320608.84
"198186",198186,1986,21,"bb","Buffalo bull",2,-24.22,31.52,349713.45,7320619.64
"198202",198202,1986,21,"bb","Buffalo bull",1,-24.16,31.48,345578.78,7327220.57
"198211",198211,1986,21,"bb","Buffalo bull",1,-24.13,31.51,348591.68,7330575.58
"198299",198299,1986,21,"bb","Buffalo bull",2,-24.13,31.6,357738.41,7330669.9
"198353",198353,1986,21,"bb","Buffalo bull",1,-24.12,31.61,358743.71,7331787.4
"198358",198358,1986,21,"bb","Buffalo bull",1,-24.13,31.61,358754.7,7330680.02
"198369",198369,1986,21,"bb","Buffalo bull",1,-24.15,31.6,357760.54,7328455.14
"198473",198473,1986,6,"bb","Buffalo bull",1,-23.61,31.33,329618.04,7387956.11
"198474",198474,1986,6,"bb","Buffalo bull",1,-23.63,31.32,328623.62,7385729.34
"198487",198487,1986,6,"bb","Buffalo bull",1,-23.63,31.4,336785.89,7385823.01
"198489",198489,1986,6,"bb","Buffalo bull",2,-23.64,31.42,338838.67,7384738.34
"198499",198499,1986,6,"bb","Buffalo bull",1,-23.56,31.4,336699.22,7393574.65
"198526",198526,1986,6,"bb","Buffalo bull",1,-23.58,31.44,340806.56,7391404.95
"198527",198527,1986,6,"bb","Buffalo bull",1,-23.59,31.44,340818.62,7390297.59
"198534",198534,1986,6,"bb","Buffalo bull",2,-23.6,31.42,338789.71,7389167.83
"198564",198564,1986,6,"bb","Buffalo bull",1,-23.66,31.36,332742.93,7382454.56
"198569",198569,1986,6,"bb","Buffalo bull",1,-23.67,31.33,329695.72,7381311.66
"198582",198582,1986,6,"bb","Buffalo bull",4,-23.7,31.35,331774.13,7378013.17
"198589",198589,1986,6,"bb","Buffalo bull",1,-23.68,31.39,335828.06,7380274.62
"198594",198594,1986,6,"bb","Buffalo bull",2,-23.66,31.45,341923.25,7382557.14
"198614",198614,1986,6,"bb","Buffalo bull",4,-23.71,31.36,332806.62,7376917.54
"198636",198636,1986,6,"bb","Buffalo bull",1,-23.68,31.47,343987.03,7380364.43
"198646",198646,1986,6,"bb","Buffalo bull",1,-23.7,31.42,338912.24,7378094.07
"198647",198647,1986,6,"bb","Buffalo bull",4,-23.71,31.42,338924.52,7376986.69
"198655",198655,1986,6,"bb","Buffalo bull",1,-23.71,31.4,336885.23,7376963.92
"198691",198691,1986,6,"bb","Buffalo bull",6,-23.75,31.38,334896.35,7372511.27
"198710",198710,1986,6,"bb","Buffalo bull",1,-23.74,31.43,339980.8,7373675.81
"198757",198757,1986,54,"bb","Buffalo bull",2,-22.96,30.94,288794.02,7459426.68
"198794",198794,1986,54,"bb","Buffalo bull",1,-22.92,30.98,292835.41,7463913.56
"198908",198908,1986,54,"bb","Buffalo bull",4,-23.01,31.1,305274.49,7454110.86
"199016",199016,1986,49,"bb","Buffalo bull",2,-23.02,31.37,332963.98,7453336.93
"199018",199018,1986,49,"bb","Buffalo bull",2,-23.02,31.4,336038.82,7453370.83
"199173",199173,1986,49,"bb","Buffalo bull",6,-22.96,31.42,338017.13,7460036.82
"199196",199196,1986,49,"bb","Buffalo bull",1,-22.92,31.47,343097.93,7464520.18
"199205",199205,1986,49,"bb","Buffalo bull",2,-22.91,31.37,332828.74,7465517.29
"199215",199215,1986,49,"bb","Buffalo bull",9,-22.9,31.46,342049.07,7466724
"199216",199216,1986,49,"bb","Buffalo bull",2,-22.91,31.4,335906.08,7465551.07
"199218",199218,1986,49,"bb","Buffalo bull",2,-22.91,31.37,332828.74,7465517.29
"199229",199229,1986,49,"bb","Buffalo bull",3,-22.9,31.41,336919.89,7466669.47
"199230",199230,1986,49,"bb","Buffalo bull",6,-22.9,31.41,336919.89,7466669.47
"199232",199232,1986,49,"bb","Buffalo bull",2,-22.9,31.44,339997.41,7466702.4
"199233",199233,1986,49,"bb","Buffalo bull",2,-22.89,31.45,341011.59,7467820.5
"199326",199326,1986,23,"bb","Buffalo bull",2,-24.18,31.62,359825.56,7325153.18
"199333",199333,1986,23,"bb","Buffalo bull",1,-24.18,31.63,360841.45,7325163.17
"199357",199357,1986,23,"bb","Buffalo bull",1,-24.18,31.71,368968.44,7325240.46
"199394",199394,1986,23,"bb","Buffalo bull",1,-24.15,31.71,368937.82,7328562.51
"199431",199431,1986,23,"bb","Buffalo bull",1,-24.13,31.71,368917.42,7330777.2
"199447",199447,1986,23,"bb","Buffalo bull",1,-24.13,31.68,365868.64,7330748.81
"199481",199481,1986,23,"bb","Buffalo bull",4,-24.11,31.67,364831.35,7332953.91
"199485",199485,1986,23,"bb","Buffalo bull",2,-24.11,31.65,362798.49,7332934.49
"199547",199547,1986,23,"bb","Buffalo bull",1,-24.06,31.68,365795.72,7338500.26
"199683",199683,1986,60,"bb","Buffalo bull",1,-25.01,31.65,363774.76,7233266.38
"199718",199718,1986,60,"bb","Buffalo bull",6,-25.03,31.66,364805.87,7231061.43
"199783",199783,1986,60,"bb","Buffalo bull",2,-24.97,31.68,366759.21,7237726.11
"199858",199858,1986,60,"bb","Buffalo bull",1,-25.01,31.72,370839.07,7233334.94
"199907",199907,1986,52,"bb","Buffalo bull",1,-23.12,31.21,316699.85,7442071.63
"199946",199946,1986,52,"bb","Buffalo bull",8,-23.19,31.21,316795.11,7434319.87
"199973",199973,1986,52,"bb","Buffalo bull",3,-23.16,31.21,316754.25,7437642.06
"199984",199984,1986,52,"bb","Buffalo bull",1,-23.2,31.22,317832.39,7433225.03
"199986",199986,1986,52,"bb","Buffalo bull",3,-23.2,31.23,318856.03,7433237.53
"200076",200076,1986,52,"bb","Buffalo bull",1,-23.18,31.27,322924.21,7435501.56
"200148",200148,1986,52,"bb","Buffalo bull",1,-23.06,31.35,330964,7448884.68
"200150",200150,1986,52,"bb","Buffalo bull",2,-23.06,31.36,331988.65,7448896.21
"200176",200176,1986,52,"bb","Buffalo bull",7,-23.16,31.31,326993.57,7437764.4
"200255",200255,1986,52,"bb","Buffalo bull",2,-23.1,31.37,333062.72,7444478.38
"200261",200261,1986,52,"bb","Buffalo bull",1,-23.09,31.38,334074.78,7445597.1
"200262",200262,1986,52,"bb","Buffalo bull",1,-23.08,31.37,333038,7446693.03
"200268",200268,1986,52,"bb","Buffalo bull",2,-23.08,31.37,333038,7446693.03
"200270",200270,1986,52,"bb","Buffalo bull",2,-23.07,31.37,333025.65,7447800.35
"200271",200271,1986,52,"bb","Buffalo bull",1,-23.07,31.36,332001.08,7447788.89
"200272",200272,1986,52,"bb","Buffalo bull",3,-23.07,31.36,332001.08,7447788.89
"200274",200274,1986,52,"bb","Buffalo bull",5,-23.06,31.37,333013.31,7448907.67
"200275",200275,1986,52,"bb","Buffalo bull",4,-23.05,31.37,333000.97,7450014.98
"200297",200297,1986,18,"bb","Buffalo bull",1,-23.27,31.38,334296.67,7425665.16
"200401",200401,1986,18,"bb","Buffalo bull",1,-23.22,31.45,341398.8,7431280.01
"200414",200414,1986,18,"bb","Buffalo bull",1,-23.21,31.44,340363.5,7432376.37
"200445",200445,1986,18,"bb","Buffalo bull",1,-23.19,31.48,344434.27,7434634.34
"200463",200463,1986,18,"bb","Buffalo bull",1,-23.18,31.45,341351.59,7435709.24
"200505",200505,1986,18,"bb","Buffalo bull",1,-23.19,31.53,349552.36,7434686.94
"200515",200515,1986,18,"bb","Buffalo bull",1,-23.21,31.51,347527.83,7432451.54
"200539",200539,1986,18,"bb","Buffalo bull",1,-23.22,31.55,351632.7,7431385.67
"200550",200550,1986,18,"bb","Buffalo bull",1,-23.26,31.53,349630.8,7426935.97
"200562",200562,1986,18,"bb","Buffalo bull",2,-23.27,31.53,349642.02,7425828.68
"200611",200611,1986,18,"bb","Buffalo bull",1,-23.16,31.41,337232.52,7437879.69
"200649",200649,1986,18,"bb","Buffalo bull",3,-23.12,31.44,340256.74,7442342.12
"200658",200658,1986,18,"bb","Buffalo bull",1,-23.16,31.48,344399.58,7437956.21
"200666",200666,1986,18,"bb","Buffalo bull",2,-23.16,31.46,342351.87,7437934.7
"200668",200668,1986,18,"bb","Buffalo bull",4,-23.15,31.49,345411.96,7439074.15
"200677",200677,1986,18,"bb","Buffalo bull",2,-23.1,31.4,336135.75,7444512.38
"200684",200684,1986,18,"bb","Buffalo bull",1,-23.1,31.38,334087.06,7444489.78
"200689",200689,1986,18,"bb","Buffalo bull",1,-23.11,31.41,337172.14,7443416.26
"200701",200701,1986,18,"bb","Buffalo bull",1,-23.12,31.42,338208.39,7442320.07
"200737",200737,1986,18,"bb","Buffalo bull",1,-23.15,31.35,331076.65,7438918.7
"200899",200899,1986,50,"bb","Buffalo bull",1,-23.2,31.54,350587.08,7433589.97
"200917",200917,1986,50,"bb","Buffalo bull",1,-23.16,31.51,347471.13,7437987.95
"200926",200926,1986,50,"bb","Buffalo bull",2,-23.16,31.51,347471.13,7437987.95
"200947",200947,1986,50,"bb","Buffalo bull",6,-23.14,31.47,343352.47,7440160.08
"200957",200957,1986,50,"bb","Buffalo bull",1,-23.13,31.48,344364.94,7441278.08
"201071",201071,1986,50,"bb","Buffalo bull",5,-23.06,31.41,337111.88,7448952.79
"201072",201072,1986,50,"bb","Buffalo bull",2,-23.07,31.41,337123.93,7447845.49
"201081",201081,1986,50,"bb","Buffalo bull",4,-23.05,31.46,342223.37,7450114.9
"201083",201083,1986,50,"bb","Buffalo bull",1,-23.05,31.45,341198.67,7450104.08
"201092",201092,1986,50,"bb","Buffalo bull",2,-23.04,31.48,344261.25,7451243.61
"201111",201111,1986,50,"bb","Buffalo bull",2,-23.03,31.49,345274.59,7452361.48
"201128",201128,1986,50,"bb","Buffalo bull",2,-23.03,31.48,344249.75,7452350.88
"201160",201160,1986,15,"bb","Buffalo bull",2,-23.29,31.37,333298.53,7423439.01
"201318",201318,1986,15,"bb","Buffalo bull",2,-23.31,31.39,335368.94,7421247.2
"201357",201357,1986,15,"bb","Buffalo bull",2,-23.28,31.39,335332.02,7424569.22
"201369",201369,1986,15,"bb","Buffalo bull",1,-23.38,31.47,343632.79,7413584.71
"201373",201373,1986,15,"bb","Buffalo bull",1,-23.38,31.53,349765.78,7413648.44
"201392",201392,1986,15,"bb","Buffalo bull",1,-23.41,31.53,349799.63,7410326.53
"201444",201444,1986,15,"bb","Buffalo bull",1,-23.31,31.51,347641.57,7421378.61
"201447",201447,1986,15,"bb","Buffalo bull",4,-23.31,31.51,347641.57,7421378.61
"201448",201448,1986,15,"bb","Buffalo bull",1,-23.3,31.51,347630.17,7422485.91
"201449",201449,1986,15,"bb","Buffalo bull",1,-23.3,31.51,347630.17,7422485.91
"201458",201458,1986,15,"bb","Buffalo bull",1,-23.31,31.53,349686.96,7421399.52
"201467",201467,1986,5,"bb","Buffalo bull",2,-23.78,31.56,353277.64,7369386.61
"201491",201491,1986,5,"bb","Buffalo bull",1,-23.84,31.55,352326.48,7362732.13
"201505",201505,1986,5,"bb","Buffalo bull",1,-23.86,31.53,350312.29,7360496.42
"201531",201531,1986,5,"bb","Buffalo bull",1,-23.77,31.53,350209.02,7370462.65
"201543",201543,1986,5,"bb","Buffalo bull",5,-23.79,31.51,348193.97,7368226.7
"201544",201544,1986,5,"bb","Buffalo bull",1,-23.8,31.5,347186.67,7367108.61
"201574",201574,1986,5,"bb","Buffalo bull",2,-23.86,31.52,349293.85,7360485.81
"201575",201575,1986,5,"bb","Buffalo bull",3,-23.8,31.49,346167.76,7367097.81
"201599",201599,1986,5,"bb","Buffalo bull",1,-23.75,31.46,343050.98,7372601.86
"201607",201607,1986,5,"bb","Buffalo bull",3,-23.76,31.47,344082.21,7371505.49
"201636",201636,1986,5,"bb","Buffalo bull",4,-23.78,31.46,343086.98,7369279.73
"201640",201640,1986,5,"bb","Buffalo bull",1,-23.8,31.46,343111,7367064.97
"201683",201683,1986,5,"bb","Buffalo bull",1,-23.86,31.42,339109.31,7360375.77
"201686",201686,1986,5,"bb","Buffalo bull",1,-23.86,31.41,338090.84,7360364.37
"201699",201699,1986,5,"bb","Buffalo bull",1,-23.83,31.4,337034.85,7363675.13
"201711",201711,1986,5,"bb","Buffalo bull",2,-23.77,31.41,337979.13,7370330.99
"201847",201847,1986,1,"bb","Buffalo bull",1,-23.97,31.63,360614.58,7348417.78
"201853",201853,1986,1,"bb","Buffalo bull",1,-23.85,31.6,357430.31,7361676
"201856",201856,1986,1,"bb","Buffalo bull",1,-23.85,31.6,357430.31,7361676
"201919",201919,1986,1,"bb","Buffalo bull",1,-23.92,31.65,362596.7,7353974.11
"201923",201923,1986,1,"bb","Buffalo bull",2,-23.93,31.64,361589.43,7352857.01
"201965",201965,1986,1,"bb","Buffalo bull",1,-23.92,31.7,367686.32,7354021.84
"201984",201984,1986,1,"bb","Buffalo bull",1,-23.98,31.69,366730.07,7347368.47
"202084",202084,1986,1,"bb","Buffalo bull",1,-23.93,31.62,359553.72,7352837.26
"202127",202127,1986,1,"bb","Buffalo bull",1,-24,31.6,357594.94,7345065.72
"202148",202148,1986,1,"bb","Buffalo bull",3,-24.01,31.63,360657.65,7343988.38
"202157",202157,1986,1,"bb","Buffalo bull",1,-24.02,31.6,357616.97,7342850.99
"202162",202162,1986,1,"bb","Buffalo bull",3,-24.04,31.6,357639.01,7340636.26
"202204",202204,1986,1,"bb","Buffalo bull",3,-23.99,31.67,364705.63,7346242.08
"202231",202231,1986,1,"bb","Buffalo bull",1,-24.01,31.65,362692.1,7344008.03
"202248",202248,1986,1,"bb","Buffalo bull",16,-24.02,31.73,370839.78,7342976.43
"202292",202292,1986,1,"bb","Buffalo bull",6,-24.02,31.67,364737,7342920.06
"202311",202311,1986,1,"bb","Buffalo bull",2,-24.03,31.72,369832.73,7341859.89
"202369",202369,1986,1,"bb","Buffalo bull",1,-24.05,31.7,367819.11,7339626.56
"202378",202378,1986,1,"bb","Buffalo bull",1,-24.05,31.69,366802.21,7339617.12
"202383",202383,1986,1,"bb","Buffalo bull",1,-24.05,31.68,365785.32,7339607.61
"202384",202384,1986,1,"bb","Buffalo bull",1,-24.05,31.68,365785.32,7339607.61
"202451",202451,1986,54,"bb","Buffalo bull",3,-22.91,31.16,311286.44,7465263.27
"202723",202723,1986,54,"bb","Buffalo bull",1,-23.02,31.23,318614.26,7453170.38
"202938",202938,1986,14,"bb","Buffalo bull",6,-23.54,31.43,339737.39,7395823.24
"202948",202948,1986,14,"bb","Buffalo bull",1,-23.54,31.46,342800.24,7395856.45
"202950",202950,1986,14,"bb","Buffalo bull",2,-23.54,31.47,343821.18,7395867.37
"202951",202951,1986,14,"bb","Buffalo bull",1,-23.54,31.48,344842.13,7395878.23
"202954",202954,1986,14,"bb","Buffalo bull",9,-23.56,31.45,341803.24,7393630.74
"203112",203112,1986,14,"bb","Buffalo bull",2,-23.54,31.49,345863.06,7395889.01
"203150",203150,1986,14,"bb","Buffalo bull",3,-23.6,31.46,342871.67,7389212.34
