"","ID","Year","Cenb","Sp","Description","No","Lat","Long","X.coord","Y.coord"
"45130",45130,1980,11,"wk","White rhino calf",1,-23.31,31.23,319004.65,7421056.14
"45131",45131,1980,11,"wk","White rhino calf",1,-23.33,31.23,319031.75,7418841.33
"45132",45132,1980,20,"wk","White rhino calf",1,-24.12,31.59,356710.98,7331767.09
"45133",45133,1980,29,"wk","White rhino calf",1,-24.58,31.8,378494.1,7281027.62
"45134",45134,1980,34,"wk","White rhino calf",1,-24.64,31.76,374503.39,7274347.34
"45135",45135,1980,39,"wk","White rhino calf",1,-25.06,31.28,326502.85,7227305.25
"45136",45136,1980,39,"wk","White rhino calf",1,-25.08,31.26,324513.56,7225064.18
"45137",45137,1980,39,"wk","White rhino calf",1,-25.08,31.28,326531.04,7225090.01
"45138",45138,1980,39,"wk","White rhino calf",1,-25.03,31.28,326460.61,7230628.09
"45139",45139,1980,39,"wk","White rhino calf",1,-25.06,31.32,330538.42,7227355.98
"45140",45140,1980,39,"wk","White rhino calf",1,-25.01,31.3,328451.09,7232868.8
"45141",45141,1980,39,"wk","White rhino calf",1,-25.03,31.34,332515.42,7230703.68
"45142",45142,1980,40,"wk","White rhino calf",1,-25.18,31.34,332719.71,7214089.66
"45143",45143,1980,40,"wk","White rhino calf",1,-25.16,31.34,332692.4,7216304.88
"45144",45144,1980,41,"wk","White rhino calf",1,-25.28,31.36,334870.66,7203038.26
"45145",45145,1980,41,"wk","White rhino calf",1,-25.24,31.36,334816.53,7207468.72
"45146",45146,1980,41,"wk","White rhino calf",1,-25.18,31.4,338767.01,7214162.88
"45147",45147,1980,41,"wk","White rhino calf",1,-25.2,31.38,336777.92,7211923.58
"45148",45148,1980,41,"wk","White rhino calf",1,-25.2,31.4,338793.35,7211947.7
"45149",45149,1980,41,"wk","White rhino calf",1,-25.14,31.38,336697.99,7218569.15
"45150",45150,1980,41,"wk","White rhino calf",1,-25.22,31.42,340834.79,7209756.34
"45151",45151,1980,41,"wk","White rhino calf",1,-25.22,31.44,342849.86,7209779.88
"45152",45152,1980,41,"wk","White rhino calf",1,-25.2,31.42,340808.76,7211971.52
"45153",45153,1980,41,"wk","White rhino calf",1,-25.22,31.46,344864.92,7209803.11
"45154",45154,1980,41,"wk","White rhino calf",1,-25.22,31.46,344864.92,7209803.11
"45155",45155,1980,41,"wk","White rhino calf",1,-25.22,31.48,346879.96,7209826.04
"45156",45156,1980,41,"wk","White rhino calf",1,-25.22,31.48,346879.96,7209826.04
"45157",45157,1980,41,"wk","White rhino calf",1,-25.18,31.46,344814.2,7214233.4
"45158",45158,1980,41,"wk","White rhino calf",1,-25.18,31.48,346829.91,7214256.3
"45159",45159,1980,41,"wk","White rhino calf",1,-25.2,31.46,344839.55,7212018.26
"45160",45160,1980,41,"wk","White rhino calf",1,-25.2,31.46,344839.55,7212018.26
"45161",45161,1980,41,"wk","White rhino calf",1,-25.2,31.48,346854.93,7212041.18
"45162",45162,1980,41,"wk","White rhino calf",1,-25.14,31.46,344763.57,7218663.67
"45163",45163,1980,41,"wk","White rhino calf",1,-25.14,31.48,346779.93,7218686.55
"45164",45164,1980,41,"wk","White rhino calf",1,-25.16,31.48,346804.91,7216471.43
"45165",45165,1980,41,"wk","White rhino calf",1,-25.18,31.51,349853.44,7214290.1
"45166",45166,1980,42,"wk","White rhino calf",1,-25.26,31.53,351966,7205451.84
"45167",45167,1980,42,"wk","White rhino calf",1,-25.26,31.53,351966,7205451.84
"45168",45168,1980,42,"wk","White rhino calf",1,-25.22,31.51,349902.51,7209859.88
"45169",45169,1980,42,"wk","White rhino calf",1,-25.2,31.51,349877.97,7212074.99
"45170",45170,1980,42,"wk","White rhino calf",1,-25.2,31.53,351893.31,7212097.16
"45171",45171,1980,42,"wk","White rhino calf",1,-25.31,31.59,358067.23,7199978.95
"45172",45172,1980,42,"wk","White rhino calf",1,-25.31,31.59,358067.23,7199978.95
"45173",45173,1980,42,"wk","White rhino calf",1,-25.26,31.59,358009.01,7205516.67
"45174",45174,1980,42,"wk","White rhino calf",1,-25.28,31.59,358032.28,7203301.58
"45175",45175,1980,42,"wk","White rhino calf",1,-25.16,31.59,357892.89,7216591.99
"45176",45176,1980,43,"wk","White rhino calf",1,-25.08,31.38,336618.23,7225214.68
"45177",45177,1980,43,"wk","White rhino calf",1,-25.08,31.44,342670.39,7225285.89
"45178",45178,1980,43,"wk","White rhino calf",1,-25.1,31.46,344713,7223093.91
"45179",45179,1980,43,"wk","White rhino calf",1,-25.06,31.53,351724.34,7227602.72
"45180",45180,1980,43,"wk","White rhino calf",1,-25.08,31.51,349731.1,7225365.57
"45181",45181,1980,44,"wk","White rhino calf",1,-25.26,31.69,368080.46,7205618.7
"45182",45182,1980,44,"wk","White rhino calf",1,-25.28,31.69,368102.08,7203403.68
"45183",45183,1980,45,"wk","White rhino calf",1,-25.22,31.8,379119.19,7210152.17
"45184",45184,1980,45,"wk","White rhino calf",1,-25.22,31.82,381134.05,7210170.01
"45185",45185,1980,45,"wk","White rhino calf",1,-25.2,31.82,381114.62,7212384.94
"45186",45186,1980,45,"wk","White rhino calf",1,-25.22,31.84,383148.9,7210187.54
"45187",45187,1980,45,"wk","White rhino calf",1,-25.2,31.84,383129.8,7212402.47
"45188",45188,1980,45,"wk","White rhino calf",1,-25.14,31.84,383072.58,7219047.21
"45189",45189,1980,45,"wk","White rhino calf",1,-25.16,31.86,385107.47,7216849.5
"45190",45190,1980,45,"wk","White rhino calf",1,-25.28,31.9,389247.84,7203593.62
"45191",45191,1980,45,"wk","White rhino calf",1,-25.22,31.88,387178.59,7210221.71
"45192",45192,1980,45,"wk","White rhino calf",1,-25.2,31.9,389175.3,7212453.24
"45193",45193,1980,45,"wk","White rhino calf",1,-25.2,31.9,389175.3,7212453.24
"45194",45194,1980,46,"wk","White rhino calf",1,-25.24,31.96,395254.99,7208071.57
"45195",45195,1980,56,"wk","White rhino calf",1,-25.35,31.42,341004.42,7195357.57
"45196",45196,1980,56,"wk","White rhino calf",1,-25.35,31.44,343017.35,7195381.19
"45197",45197,1980,56,"wk","White rhino calf",1,-25.37,31.44,343043.18,7193165.99
"45198",45198,1980,56,"wk","White rhino calf",1,-25.37,31.44,343043.18,7193165.99
"45199",45199,1980,56,"wk","White rhino calf",1,-25.35,31.48,347043.15,7195427.53
"45200",45200,1980,56,"wk","White rhino calf",1,-25.35,31.48,347043.15,7195427.53
"45201",45201,1980,56,"wk","White rhino calf",1,-25.33,31.48,347017.99,7197642.7
"45202",45202,1980,56,"wk","White rhino calf",1,-25.33,31.51,350037.82,7197676.65
"45203",45203,1980,57,"wk","White rhino calf",1,-25.16,31.71,369988.49,7216713.18
"45204",45204,1980,41,"wk","White rhino calf",2,-25.14,31.4,338714.4,7218593.23
"45205",45205,1980,41,"wk","White rhino calf",2,-25.2,31.42,340808.76,7211971.52
