"","ID","Year","Cenb","Sp","Description","No","Lat","Long","X.coord","Y.coord"
"326498",326498,1991,26,"sr","Black rhino",1,-24.37,31.8,378292.29,7304282.36
"326773",326773,1991,27,"sr","Black rhino",2,-24.23,31.87,385266.7,7319844.51
"326798",326798,1991,27,"sr","Black rhino",2,-24.28,31.89,387341.62,7314324.23
"327206",327206,1991,28,"sr","Black rhino",1,-24.64,31.91,389685.72,7274476.07
"327210",327210,1991,28,"sr","Black rhino",2,-24.62,31.93,391692.75,7276706.69
"327220",327220,1991,28,"sr","Black rhino",1,-24.6,31.9,388638.15,7278897.46
"327387",327387,1991,28,"sr","Black rhino",2,-24.46,31.89,387500.98,7294392.27
"328038",328038,1991,29,"sr","Black rhino",2,-24.62,31.84,382582.01,7276632.82
"328164",328164,1991,29,"sr","Black rhino",1,-24.72,31.86,384698.61,7265575.94
"328472",328472,1991,30,"sr","Black rhino",2,-24.64,31.94,392722.12,7274499.82
"328473",328473,1991,30,"sr","Black rhino",2,-24.63,31.94,392713.58,7275607.18
"328489",328489,1991,30,"sr","Black rhino",2,-24.65,31.96,394754.76,7273407.94
"328577",328577,1991,30,"sr","Black rhino",1,-24.53,31.99,397693.41,7286718.65
"328591",328591,1991,30,"sr","Black rhino",1,-24.6,31.99,397750.22,7278967.31
"329032",329032,1991,31,"sr","Black rhino",1,-24.6,31.74,372438.45,7278758.55
"331492",331492,1991,37,"sr","Black rhino",3,-24.83,31.92,390863.82,7253443.93
"332142",332142,1991,38,"sr","Black rhino",1,-25.03,31.82,380950.02,7231211.66
"332532",332532,1991,39,"sr","Black rhino",2,-25.06,31.3,328520.64,7227330.76
"332540",332540,1991,39,"sr","Black rhino",2,-25.08,31.29,327539.77,7225102.82
"332544",332544,1991,39,"sr","Black rhino",2,-25.07,31.31,329543.38,7226235.8
"332596",332596,1991,39,"sr","Black rhino",1,-25.09,31.36,334614.26,7224082.75
"332615",332615,1991,39,"sr","Black rhino",1,-25.1,31.32,330593.5,7222925.56
"332634",332634,1991,39,"sr","Black rhino",2,-25.11,31.26,324556.37,7221741.3
"332638",332638,1991,39,"sr","Black rhino",1,-25.12,31.29,327595.88,7220672.34
"334202",334202,1991,42,"sr","Black rhino",2,-25.29,31.55,354016.26,7202151.09
"334298",334298,1991,43,"sr","Black rhino",1,-25,31.35,333484.07,7234038.77
"334561",334561,1991,43,"sr","Black rhino",1,-24.98,31.52,350618.7,7236451.94
"334832",334832,1991,43,"sr","Black rhino",2,-25.04,31.52,350691.28,7229806.78
"334858",334858,1991,43,"sr","Black rhino",1,-25.04,31.54,352709.25,7229828.7
"335119",335119,1991,44,"sr","Black rhino",1,-25.28,31.82,381192.43,7203525.16
"335156",335156,1991,44,"sr","Black rhino",1,-25.26,31.78,377144.54,7205704.11
"335452",335452,1991,44,"sr","Black rhino",2,-25.24,31.69,368058.85,7207833.72
"336989",336989,1991,46,"sr","Black rhino",2,-25.38,31.47,346074.72,7192093.28
"337083",337083,1991,46,"sr","Black rhino",2,-25.35,31.53,352075.34,7195483.76
"337120",337120,1991,46,"sr","Black rhino",2,-25.35,31.5,349056.04,7195450.25
"337245",337245,1991,57,"sr","Black rhino",1,-25.14,31.76,375007.83,7218975.44
"337311",337311,1991,57,"sr","Black rhino",2,-25.09,31.72,370922.89,7224475.16
"337401",337401,1991,57,"sr","Black rhino",2,-25.09,31.8,378990.99,7224549.22
"337465",337465,1991,57,"sr","Black rhino",2,-25.07,31.83,381997.32,7226790.65
"337619",337619,1991,58,"sr","Black rhino",2,-25.06,31.73,371900.2,7227807.1
"337637",337637,1991,58,"sr","Black rhino",2,-25.04,31.71,369861.54,7230002.96
"337956",337956,1991,60,"sr","Black rhino",2,-25,31.71,369819.35,7234432.84
"337959",337959,1991,60,"sr","Black rhino",1,-25,31.7,368810.09,7234423.19
"337974",337974,1991,60,"sr","Black rhino",2,-25.02,31.69,367822.23,7232198.53
