"","ID","Year","Cenb","Sp","Description","No","Lat","Long","X.coord","Y.coord"
"147032",147032,1985,10,"rk","Roan antelope calf",1,-23.37,31.14,309884.81,7414296.03
"147360",147360,1985,11,"rk","Roan antelope calf",2,-23.26,31.28,324052.87,7426654.7
"148172",148172,1985,13,"rk","Roan antelope calf",1,-23.72,31.57,354229.89,7376040.93
"148368",148368,1985,13,"rk","Roan antelope calf",1,-23.71,31.59,356257.96,7377168.59
"148466",148466,1985,13,"rk","Roan antelope calf",3,-23.62,31.58,355139.21,7387124.37
"148796",148796,1985,14,"rk","Roan antelope calf",1,-23.44,31.37,333485.98,7406828.64
"148838",148838,1985,14,"rk","Roan antelope calf",1,-23.44,31.37,333485.98,7406828.64
"148989",148989,1985,14,"rk","Roan antelope calf",7,-23.55,31.46,342812.13,7394749.1
"149216",149216,1985,15,"rk","Roan antelope calf",5,-23.37,31.36,332376.07,7414568.61
"149217",149217,1985,15,"rk","Roan antelope calf",4,-23.38,31.35,331366.44,7413449.59
"149426",149426,1985,15,"rk","Roan antelope calf",2,-23.4,31.47,343656.27,7411370.06
"149594",149594,1985,18,"rk","Roan antelope calf",2,-23.22,31.33,329117.67,7431143.92
"150639",150639,1985,2,"rk","Roan antelope calf",5,-23.9,31.45,342213.23,7355979.95
"162620",162620,1985,37,"rk","Roan antelope calf",1,-24.84,31.99,397946.15,7252390.74
"164754",164754,1985,40,"rk","Roan antelope calf",1,-25.26,31.3,328800.17,7205178.3
"169478",169478,1985,47,"rk","Roan antelope calf",3,-22.8,31.22,317294.53,7477519.87
"169582",169582,1985,47,"rk","Roan antelope calf",4,-22.71,31.25,320256.74,7487522.6
"169922",169922,1985,48,"rk","Roan antelope calf",1,-22.85,31.4,335833.93,7472194.77
"170091",170091,1985,49,"rk","Roan antelope calf",5,-22.98,31.33,328813.67,7457720.05
"170120",170120,1985,49,"rk","Roan antelope calf",1,-22.9,31.3,325635.37,7466543.37
"171047",171047,1985,50,"rk","Roan antelope calf",4,-23.06,31.46,342235.03,7449007.61
"171662",171662,1985,52,"rk","Roan antelope calf",3,-23.05,31.33,328902.03,7449968.75
"171664",171664,1985,52,"rk","Roan antelope calf",3,-23.06,31.29,324815.98,7448814.05
"172074",172074,1985,53,"rk","Roan antelope calf",1,-23.05,31,295083.46,7449544.53
"173126",173126,1985,55,"rk","Roan antelope calf",4,-22.81,31.19,314228.07,7476375.11
