"","ID","Year","Cenb","Sp","Description","No","Lat","Long","X.coord","Y.coord"
"62515",62515,1981,39,"sr","Black rhino",1,-25.01,31.32,330469.69,7232893.97
"62546",62546,1981,39,"sr","Black rhino",1,-24.99,31.3,328423.3,7235084
"63351",63351,1981,41,"sr","Black rhino",1,-25.16,31.44,342772.83,7216425.34
"64246",64246,1981,43,"sr","Black rhino",1,-25.06,31.4,338609.41,7227453.86
"64453",64453,1981,43,"sr","Black rhino",2,-25.06,31.48,346680.19,7227546.96
"64545",64545,1981,43,"sr","Black rhino",1,-24.99,31.48,346593.17,7235299.75
"64685",64685,1981,43,"sr","Black rhino",1,-25.03,31.53,351688.24,7230925.31
"64710",64710,1981,43,"sr","Black rhino",1,-24.99,31.51,349621.38,7235333.36
"64711",64711,1981,43,"sr","Black rhino",2,-24.99,31.51,349621.38,7235333.36
"64749",64749,1981,43,"sr","Black rhino",2,-25.01,31.55,353682.65,7233162.1
"66203",66203,1981,46,"sr","Black rhino",1,-25.37,31.94,393354.38,7193658.94
"70306",70306,1981,56,"sr","Black rhino",1,-25.35,31.63,362139.51,7195590.58
