"","ID","Year","Cenb","Sp","Description","No","Lat","Long","X.coord","Y.coord"
"28867",28867,1980,1,"kk","Giraffe calf",1,-23.87,31.59,356433.87,7359451.2
"28868",28868,1980,1,"kk","Giraffe calf",1,-23.97,31.76,373842.4,7348540.21
"28869",28869,1980,2,"kk","Giraffe calf",1,-23.91,31.38,335098.81,7354792.63
"28870",28870,1980,2,"kk","Giraffe calf",1,-23.89,31.42,339146.4,7357053.55
"28871",28871,1980,2,"kk","Giraffe calf",1,-24.01,31.46,343364.34,7343809.65
"28872",28872,1980,2,"kk","Giraffe calf",1,-23.91,31.53,350369.82,7354959.57
"28873",28873,1980,3,"kk","Giraffe calf",1,-23.89,31.17,313689.43,7356746.67
"28874",28874,1980,3,"kk","Giraffe calf",1,-24.03,31.21,317959.47,7341293.82
"28875",28875,1980,3,"kk","Giraffe calf",1,-24.06,31.3,327154.38,7338084.98
"28876",28876,1980,4,"kk","Giraffe calf",1,-23.74,31.17,313475.11,7373359.11
"28877",28877,1980,4,"kk","Giraffe calf",1,-23.74,31.17,313475.11,7373359.11
"28878",28878,1980,4,"kk","Giraffe calf",1,-23.74,31.26,322650.43,7373474.22
"28879",28879,1980,13,"kk","Giraffe calf",1,-23.72,31.63,360346.93,7376101.07
"28880",28880,1980,19,"kk","Giraffe calf",1,-23.58,31.63,360198.21,7391603.34
"28881",28881,1980,19,"kk","Giraffe calf",1,-23.87,31.73,370690.33,7359586.15
"28882",28882,1980,19,"kk","Giraffe calf",1,-23.78,31.71,368563.08,7369533.48
"28883",28883,1980,20,"kk","Giraffe calf",1,-24.06,31.48,345458.74,7338294.73
"28884",28884,1980,20,"kk","Giraffe calf",1,-24.06,31.48,345458.74,7338294.73
"28885",28885,1980,20,"kk","Giraffe calf",1,-24.1,31.53,350589.48,7333919.25
"28886",28886,1980,21,"kk","Giraffe calf",1,-24.35,31.42,339720.61,7306111.36
"28887",28887,1980,21,"kk","Giraffe calf",1,-24.35,31.44,341749.8,7306134.29
"28888",28888,1980,21,"kk","Giraffe calf",1,-24.16,31.48,345578.78,7327220.57
"28889",28889,1980,21,"kk","Giraffe calf",1,-24.12,31.48,345530.71,7331650.25
"28890",28890,1980,21,"kk","Giraffe calf",1,-24.14,31.57,354700.83,7329531.72
"28891",28891,1980,21,"kk","Giraffe calf",1,-24.12,31.55,352645.47,7331725.62
"28892",28892,1980,22,"kk","Giraffe calf",1,-24.45,31.44,341874.4,7295059.6
"28893",28893,1980,22,"kk","Giraffe calf",1,-24.37,31.46,343803.54,7303942.02
"28894",28894,1980,22,"kk","Giraffe calf",1,-24.39,31.53,350927.9,7301804.13
"28895",28895,1980,22,"kk","Giraffe calf",1,-24.39,31.53,350927.9,7301804.13
"28896",28896,1980,23,"kk","Giraffe calf",1,-24.16,31.65,362851.85,7327397.67
"28897",28897,1980,23,"kk","Giraffe calf",1,-24.26,31.67,364989.35,7316343.43
"28898",28898,1980,23,"kk","Giraffe calf",1,-24.08,31.67,364799.87,7336275.97
"28899",28899,1980,23,"kk","Giraffe calf",1,-24.08,31.69,366833.19,7336295.09
"28900",28900,1980,38,"kk","Giraffe calf",1,-24.89,31.8,378794.99,7246698.05
"28901",28901,1980,38,"kk","Giraffe calf",1,-24.99,31.9,388985.91,7235709.3
"28902",28902,1980,38,"kk","Giraffe calf",1,-24.89,31.88,386876.02,7246766.92
"28903",28903,1980,38,"kk","Giraffe calf",1,-25.12,31.92,391119.44,7221329.05
"28904",28904,1980,38,"kk","Giraffe calf",1,-25.06,31.92,391066.33,7227973.61
"28905",28905,1980,40,"kk","Giraffe calf",1,-25.2,31.21,319646.27,7211706.45
"28906",28906,1980,40,"kk","Giraffe calf",1,-25.33,31.28,326885.15,7197399.1
"28907",28907,1980,40,"kk","Giraffe calf",1,-25.24,31.28,326757.29,7207367.92
"28908",28908,1980,41,"kk","Giraffe calf",1,-25.35,31.34,332952.61,7195260.07
"28909",28909,1980,41,"kk","Giraffe calf",1,-25.14,31.4,338714.4,7218593.23
"28910",28910,1980,41,"kk","Giraffe calf",1,-25.26,31.44,342901.31,7205349.54
"28911",28911,1980,41,"kk","Giraffe calf",1,-25.22,31.42,340834.79,7209756.34
"28912",28912,1980,42,"kk","Giraffe calf",1,-25.22,31.51,349902.51,7209859.88
"28913",28913,1980,42,"kk","Giraffe calf",1,-25.24,31.61,360000.39,7207752.74
"28914",28914,1980,43,"kk","Giraffe calf",1,-25.08,31.44,342670.39,7225285.89
"28915",28915,1980,43,"kk","Giraffe calf",1,-25.03,31.51,349670.1,7230903.24
"28916",28916,1980,44,"kk","Giraffe calf",1,-25.24,31.65,364029.64,7207793.83
"28917",28917,1980,44,"kk","Giraffe calf",1,-25.26,31.69,368080.46,7205618.7
"28918",28918,1980,44,"kk","Giraffe calf",1,-25.26,31.69,368080.46,7205618.7
"28919",28919,1980,44,"kk","Giraffe calf",1,-25.2,31.67,366000.42,7212243.96
"28920",28920,1980,44,"kk","Giraffe calf",1,-25.37,31.86,385305,7193592.72
"28921",28921,1980,44,"kk","Giraffe calf",1,-25.31,31.84,383235.04,7200220.3
"28922",28922,1980,44,"kk","Giraffe calf",1,-25.33,31.84,383254.22,7198005.35
"28923",28923,1980,44,"kk","Giraffe calf",1,-25.33,31.86,385267.25,7198022.64
"28924",28924,1980,44,"kk","Giraffe calf",1,-25.28,31.84,383206.3,7203542.73
"28925",28925,1980,45,"kk","Giraffe calf",1,-25.26,31.8,379158.75,7205722.26
"28926",28926,1980,45,"kk","Giraffe calf",1,-25.18,31.8,379079.68,7214582.06
"28927",28927,1980,45,"kk","Giraffe calf",1,-25.2,31.84,383129.8,7212402.47
"28928",28928,1980,45,"kk","Giraffe calf",1,-25.14,31.84,383072.58,7219047.21
"28929",28929,1980,45,"kk","Giraffe calf",1,-25.14,31.84,383072.58,7219047.21
"28930",28930,1980,45,"kk","Giraffe calf",1,-25.14,31.9,389121.04,7219097.89
"28931",28931,1980,45,"kk","Giraffe calf",1,-25.12,31.9,389102.98,7221312.76
"28932",28932,1980,45,"kk","Giraffe calf",1,-25.22,31.94,393223.05,7210270.71
"28933",28933,1980,45,"kk","Giraffe calf",1,-25.24,31.92,391226.03,7208039.78
"28934",28934,1980,46,"kk","Giraffe calf",1,-25.35,31.98,397362.12,7195905.15
"28935",28935,1980,46,"kk","Giraffe calf",1,-25.35,31.98,397362.12,7195905.15
"28936",28936,1980,46,"kk","Giraffe calf",1,-25.37,31.96,395366.7,7193674.75
"28937",28937,1980,46,"kk","Giraffe calf",1,-25.33,31.98,397345.25,7198120.05
"28938",28938,1980,54,"kk","Giraffe calf",1,-23.03,31.21,316577.78,7452038.09
"28939",28939,1980,54,"kk","Giraffe calf",1,-23.01,31.28,323726.24,7454338.79
"28940",28940,1980,56,"kk","Giraffe calf",1,-25.35,31.48,347043.15,7195427.53
"28941",28941,1980,56,"kk","Giraffe calf",1,-25.31,31.61,360080.71,7199999.99
"28942",28942,1980,56,"kk","Giraffe calf",1,-25.28,31.65,364074.19,7203363.74
"28943",28943,1980,56,"kk","Giraffe calf",1,-25.35,31.71,370190.65,7195670.61
"28944",28944,1980,57,"kk","Giraffe calf",1,-25.1,31.82,381017.67,7223459.53
"28945",28945,1980,57,"kk","Giraffe calf",1,-25.12,31.8,379020.52,7221226.84
"28946",28946,1980,57,"kk","Giraffe calf",1,-25.08,31.8,378981.16,7225656.67
"28947",28947,1980,57,"kk","Giraffe calf",1,-25.1,31.84,383034.5,7223477.01
"28948",28948,1980,58,"kk","Giraffe calf",1,-25.06,31.73,371900.2,7227807.1
"28949",28949,1980,58,"kk","Giraffe calf",1,-25.03,31.78,376914.04,7231175.89
"28950",28950,1980,1,"kk","Giraffe calf",2,-23.99,31.73,370809.82,7346298.4
"28951",28951,1980,4,"kk","Giraffe calf",2,-23.68,31.15,311349.8,7379977.68
"28952",28952,1980,13,"kk","Giraffe calf",2,-23.7,31.63,360325.63,7378315.7
"28953",28953,1980,22,"kk","Giraffe calf",2,-24.47,31.44,341899.37,7292844.64
"28954",28954,1980,22,"kk","Giraffe calf",2,-24.43,31.42,339821.53,7297251.56
"28955",28955,1980,23,"kk","Giraffe calf",2,-24.18,31.69,366936.71,7325221.57
"28956",28956,1980,23,"kk","Giraffe calf",2,-24.06,31.67,364778.9,7338490.67
"28957",28957,1980,24,"kk","Giraffe calf",2,-24.28,31.63,360950.14,7314089.33
"28958",28958,1980,25,"kk","Giraffe calf",2,-24.12,31.76,373988.89,7331930.4
"28959",28959,1980,25,"kk","Giraffe calf",2,-24.06,31.8,377997.36,7338609.67
"28960",28960,1980,25,"kk","Giraffe calf",2,-24.12,31.86,384152.02,7332016.68
"28961",28961,1980,26,"kk","Giraffe calf",2,-24.33,31.76,374195.43,7308676.16
"28962",28962,1980,26,"kk","Giraffe calf",2,-24.28,31.82,380236.39,7314265.84
"28963",28963,1980,27,"kk","Giraffe calf",2,-24.33,31.92,390429.65,7308811.59
"28964",28964,1980,27,"kk","Giraffe calf",2,-24.39,31.98,396566.12,7302213.71
"28965",28965,1980,27,"kk","Giraffe calf",2,-24.28,31.96,394446.74,7314379.05
"28966",28966,1980,28,"kk","Giraffe calf",2,-24.47,31.8,378388.19,7293208.75
"28967",28967,1980,28,"kk","Giraffe calf",2,-24.45,31.84,382423.72,7295458.05
"28968",28968,1980,28,"kk","Giraffe calf",2,-24.62,31.9,388655.86,7276682.73
"28969",28969,1980,28,"kk","Giraffe calf",2,-24.41,31.88,386442.61,7299920.82
"28970",28970,1980,29,"kk","Giraffe calf",2,-24.66,31.82,380595.41,7272186.05
"28971",28971,1980,29,"kk","Giraffe calf",2,-24.6,31.8,378513.41,7278812.85
"28972",28972,1980,29,"kk","Giraffe calf",2,-24.72,31.86,384698.61,7265575.94
"28973",28973,1980,29,"kk","Giraffe calf",2,-24.72,31.86,384698.61,7265575.94
"28974",28974,1980,31,"kk","Giraffe calf",2,-24.6,31.63,361300.79,7278652.12
"28975",28975,1980,31,"kk","Giraffe calf",2,-24.47,31.67,365212.09,7293088.23
"28976",28976,1980,31,"kk","Giraffe calf",2,-24.41,31.67,365148.27,7299732.64
"28977",28977,1980,31,"kk","Giraffe calf",2,-24.47,31.73,371293.42,7293145.4
"28978",28978,1980,33,"kk","Giraffe calf",2,-24.62,31.59,357273.35,7276396.31
"28979",28979,1980,34,"kk","Giraffe calf",2,-24.64,31.67,365393.73,7274262.15
"28980",28980,1980,34,"kk","Giraffe calf",2,-24.64,31.69,367418.12,7274281.6
"28981",28981,1980,34,"kk","Giraffe calf",2,-24.7,31.73,371528.34,7267675.12
"28982",28982,1980,34,"kk","Giraffe calf",2,-24.76,31.8,378668.38,7261094.49
"28983",28983,1980,35,"kk","Giraffe calf",2,-24.99,31.61,359715.24,7235440.56
"28984",28984,1980,35,"kk","Giraffe calf",2,-24.95,31.67,365728,7239931.2
"28985",28985,1980,36,"kk","Giraffe calf",2,-24.83,31.8,378736.48,7253342.59
"28986",28986,1980,37,"kk","Giraffe calf",2,-25.06,32.03,402162.15,7228057.7
"28987",28987,1980,37,"kk","Giraffe calf",2,-25.08,32.03,402178.04,7225842.9
"28988",28988,1980,38,"kk","Giraffe calf",2,-24.97,31.9,388967.96,7237924.13
"28989",28989,1980,40,"kk","Giraffe calf",2,-25.2,31.23,321661.81,7211733.12
"28990",28990,1980,41,"kk","Giraffe calf",2,-25.24,31.4,338846.08,7207517.31
"28991",28991,1980,45,"kk","Giraffe calf",2,-25.26,31.82,381172.96,7205740.12
"28992",28992,1980,46,"kk","Giraffe calf",2,-25.37,31.96,395366.7,7193674.75
"28993",28993,1980,46,"kk","Giraffe calf",2,-25.28,31.98,397303.11,7203657.27
"28994",28994,1980,46,"kk","Giraffe calf",2,-25.28,31.98,397303.11,7203657.27
"28995",28995,1980,46,"kk","Giraffe calf",2,-25.22,31.96,395237.85,7210286.45
"28996",28996,1980,47,"kk","Giraffe calf",2,-22.72,31.36,331569.38,7486544.42
"28997",28997,1980,49,"kk","Giraffe calf",2,-22.99,31.46,342153.52,7456758.58
"28998",28998,1980,50,"kk","Giraffe calf",2,-23.03,31.46,342200.07,7452329.46
"28999",28999,1980,56,"kk","Giraffe calf",2,-25.33,31.55,354064.2,7197720.85
"29000",29000,1980,57,"kk","Giraffe calf",2,-25.12,31.84,383053.53,7221262.11
"29001",29001,1980,19,"kk","Giraffe calf",3,-23.64,31.67,364342.3,7384998.1
"29002",29002,1980,23,"kk","Giraffe calf",3,-24.08,31.69,366833.19,7336295.09
"29003",29003,1980,24,"kk","Giraffe calf",3,-24.35,31.69,367113.63,7306396.27
"29004",29004,1980,25,"kk","Giraffe calf",3,-24.1,31.73,370919.85,7334117.78
"29005",29005,1980,28,"kk","Giraffe calf",3,-24.41,31.86,384414.62,7299904.29
"29006",29006,1980,29,"kk","Giraffe calf",3,-24.51,31.84,382479.47,7288813.9
"29007",29007,1980,31,"kk","Giraffe calf",3,-24.47,31.67,365212.09,7293088.23
"29008",29008,1980,31,"kk","Giraffe calf",3,-24.43,31.67,365169.52,7297517.84
"29009",29009,1980,41,"kk","Giraffe calf",3,-25.26,31.46,344915.7,7205372.8
"29010",29010,1980,57,"kk","Giraffe calf",3,-25.14,31.82,381056.41,7219029.71
"29011",29011,1980,25,"kk","Giraffe calf",4,-24.1,31.73,370919.85,7334117.78
"29012",29012,1980,25,"kk","Giraffe calf",4,-24.08,31.76,373949.74,7336359.71
"29013",29013,1980,26,"kk","Giraffe calf",4,-24.39,31.82,380339.78,7302085.05
"29014",29014,1980,27,"kk","Giraffe calf",4,-24.43,31.98,396598.71,7297784.45
"29015",29015,1980,31,"kk","Giraffe calf",4,-24.47,31.69,367239.21,7293107.58
"29016",29016,1980,31,"kk","Giraffe calf",4,-24.6,31.78,376488.43,7278795.04
"29017",29017,1980,30,"kk","Giraffe calf",5,-24.66,31.94,392739.21,7272285.1
"29344",29344,1980,23,"kk","Giraffe calf",1,-24.08,31.71,368866.5,7336313.92
"29345",29345,1980,24,"kk","Giraffe calf",1,-24.39,31.59,357013.31,7301867.3
"29346",29346,1980,24,"kk","Giraffe calf",1,-24.26,31.59,356867.34,7316263.62
"29347",29347,1980,24,"kk","Giraffe calf",1,-24.26,31.61,358897.86,7316284.01
"29348",29348,1980,24,"kk","Giraffe calf",1,-24.28,31.59,356889.75,7314048.82
"29349",29349,1980,24,"kk","Giraffe calf",1,-24.37,31.65,363077.07,7304142.63
"29350",29350,1980,24,"kk","Giraffe calf",1,-24.26,31.63,360928.37,7316304.11
"29351",29351,1980,24,"kk","Giraffe calf",1,-24.26,31.63,360928.37,7316304.11
"29352",29352,1980,24,"kk","Giraffe calf",1,-24.28,31.63,360950.14,7314089.33
"29353",29353,1980,24,"kk","Giraffe calf",1,-24.31,31.76,374175.68,7310890.88
"29354",29354,1980,25,"kk","Giraffe calf",1,-24.1,31.71,368886.86,7334099.23
"29355",29355,1980,25,"kk","Giraffe calf",1,-24.03,31.82,380003.06,7341948.81
"29356",29356,1980,25,"kk","Giraffe calf",1,-24.1,31.88,386166.93,7334247.65
"29357",29357,1980,26,"kk","Giraffe calf",1,-24.39,31.78,376283.1,7302049.96
"29358",29358,1980,26,"kk","Giraffe calf",1,-24.2,31.76,374067.37,7323071.72
"29359",29359,1980,26,"kk","Giraffe calf",1,-24.2,31.78,376098.75,7323089.6
"29360",29360,1980,26,"kk","Giraffe calf",1,-24.35,31.9,388417.93,7306581.04
"29361",29361,1980,27,"kk","Giraffe calf",1,-24.33,31.9,388400.4,7308795.68
"29362",29362,1980,27,"kk","Giraffe calf",1,-24.35,31.92,390446.85,7306596.95
"29363",29363,1980,27,"kk","Giraffe calf",1,-24.31,31.92,390412.45,7311026.22
"29364",29364,1980,27,"kk","Giraffe calf",1,-24.33,31.92,390429.65,7308811.59
"29365",29365,1980,27,"kk","Giraffe calf",1,-24.43,31.98,396598.71,7297784.45
"29366",29366,1980,27,"kk","Giraffe calf",1,-24.45,31.98,396615.02,7295569.81
"29367",29367,1980,27,"kk","Giraffe calf",1,-24.39,31.96,394537.86,7302198.65
"29368",29368,1980,27,"kk","Giraffe calf",1,-24.41,31.96,394554.47,7299984.02
"29369",29369,1980,27,"kk","Giraffe calf",1,-24.35,31.96,394504.68,7306627.91
"29370",29370,1980,27,"kk","Giraffe calf",1,-24.31,31.96,394471.55,7311057.14
"29371",29371,1980,28,"kk","Giraffe calf",1,-24.47,31.78,376361.13,7293191.02
"29372",29372,1980,28,"kk","Giraffe calf",1,-24.47,31.82,380415.25,7293226.19
"29373",29373,1980,28,"kk","Giraffe calf",1,-24.45,31.8,378368.98,7295423.49
"29374",29374,1980,28,"kk","Giraffe calf",1,-24.41,31.86,384414.62,7299904.29
"29375",29375,1980,28,"kk","Giraffe calf",1,-24.6,31.94,392687.98,7278929.24
"29376",29376,1980,28,"kk","Giraffe calf",1,-24.56,31.92,390628.33,7283342.91
"29377",29377,1980,28,"kk","Giraffe calf",1,-24.58,31.94,392670.93,7281143.94
"29378",29378,1980,28,"kk","Giraffe calf",1,-24.45,31.96,394587.72,7295554.73
"29379",29379,1980,29,"kk","Giraffe calf",1,-24.64,31.78,376527.73,7274365.47
"29380",29380,1980,29,"kk","Giraffe calf",1,-24.56,31.82,380500.42,7283259.87
"29381",29381,1980,29,"kk","Giraffe calf",1,-24.51,31.8,378426.65,7288779.27
"29382",29382,1980,29,"kk","Giraffe calf",1,-24.53,31.8,378445.91,7286564.52
"29383",29383,1980,29,"kk","Giraffe calf",1,-24.62,31.84,382582.01,7276632.82
"29384",29384,1980,29,"kk","Giraffe calf",1,-24.53,31.86,384524.15,7286616.06
"29385",29385,1980,29,"kk","Giraffe calf",1,-24.68,31.9,388709.07,7270038.52
"29386",29386,1980,30,"kk","Giraffe calf",1,-24.53,31.98,396680.4,7286711.2
"29387",29387,1980,31,"kk","Giraffe calf",1,-24.58,31.65,363304.12,7280886.99
"29388",29388,1980,31,"kk","Giraffe calf",1,-24.58,31.67,365329.49,7280906.7
"29389",29389,1980,31,"kk","Giraffe calf",1,-24.41,31.69,367176.35,7299751.95
"29390",29390,1980,31,"kk","Giraffe calf",1,-24.58,31.71,369380.18,7280945.23
"29391",29391,1980,31,"kk","Giraffe calf",1,-24.49,31.73,371313.77,7290930.62
"29392",29392,1980,32,"kk","Giraffe calf",1,-24.56,31.46,344037.82,7282900.06
"29393",29393,1980,33,"kk","Giraffe calf",1,-24.72,31.61,359410.26,7265342.42
"29394",29394,1980,33,"kk","Giraffe calf",1,-24.7,31.61,359387.8,7267557.33
"29395",29395,1980,33,"kk","Giraffe calf",1,-24.62,31.59,357273.35,7276396.31
"29396",29396,1980,34,"kk","Giraffe calf",1,-24.7,31.69,367481.54,7267637.04
"29397",29397,1980,34,"kk","Giraffe calf",1,-24.66,31.73,371487.34,7272104.79
"29398",29398,1980,34,"kk","Giraffe calf",1,-24.76,31.84,382713.14,7261129.38
"29399",29399,1980,35,"kk","Giraffe calf",1,-24.95,31.67,365728,7239931.2
"29400",29400,1980,35,"kk","Giraffe calf",1,-24.85,31.67,365619.74,7251005.85
"29401",29401,1980,36,"kk","Giraffe calf",1,-24.76,31.69,367545.1,7260992.43
"29402",29402,1980,36,"kk","Giraffe calf",1,-24.78,31.69,367566.33,7258777.55
"29403",29403,1980,36,"kk","Giraffe calf",1,-24.87,31.78,376754.87,7248894.95
"29404",29404,1980,36,"kk","Giraffe calf",1,-24.76,31.78,376645.99,7261076.6
"29405",29405,1980,36,"kk","Giraffe calf",1,-24.76,31.78,376645.99,7261076.6
"29406",29406,1980,36,"kk","Giraffe calf",1,-24.78,31.78,376665.75,7258861.76
"29407",29407,1980,36,"kk","Giraffe calf",1,-24.78,31.8,378687.82,7258879.67
"29408",29408,1980,36,"kk","Giraffe calf",1,-24.81,31.86,384781.69,7255609.4
"29409",29409,1980,37,"kk","Giraffe calf",1,-25.12,31.94,393135.9,7221345.04
"29410",29410,1980,37,"kk","Giraffe calf",1,-25.14,31.98,397185.53,7219161.28
"29411",29411,1980,37,"kk","Giraffe calf",1,-25.16,31.96,395186.51,7216931.03
"29412",29412,1980,37,"kk","Giraffe calf",1,-25.16,31.96,395186.51,7216931.03
"29413",29413,1980,37,"kk","Giraffe calf",1,-25.16,31.96,395186.51,7216931.03
"29414",29414,1980,37,"kk","Giraffe calf",1,-25.06,31.98,397118.62,7228020.59
"29415",29415,1980,37,"kk","Giraffe calf",1,-25.08,32.01,400160.96,7225828.27
"29416",29416,1980,37,"kk","Giraffe calf",1,-24.97,32.01,400071.92,7238009.63
"29417",29417,1980,38,"kk","Giraffe calf",1,-24.93,31.8,378834.08,7242268.33
