"","ID","Year","Cenb","Sp","Description","No","Lat","Long","X.coord","Y.coord"
"50330",50330,1981,11,"wk","White rhino calf",1,-23.28,31.23,318964.05,7424378.35
"50357",50357,1981,11,"wk","White rhino calf",1,-23.39,31.26,322179.7,7412234.15
"50381",50381,1981,11,"wk","White rhino calf",1,-23.31,31.26,322073.03,7421093.34
"53703",53703,1981,21,"wk","White rhino calf",1,-24.2,31.63,360863.16,7322948.41
"54419",54419,1981,22,"wk","White rhino calf",1,-24.37,31.57,354962.03,7304061.38
"56727",56727,1981,27,"wk","White rhino calf",1,-24.24,31.9,388321.7,7318761.53
"58039",58039,1981,30,"wk","White rhino calf",1,-24.76,31.94,392824.86,7261211.43
"59012",59012,1981,31,"wk","White rhino calf",1,-24.56,31.76,374423.57,7283206.52
"59679",59679,1981,33,"wk","White rhino calf",1,-24.78,31.67,365544.2,7258758.02
"62216",62216,1981,39,"wk","White rhino calf",1,-25.14,31.21,319557.94,7218352.4
"62339",62339,1981,39,"wk","White rhino calf",1,-25.1,31.28,326559.24,7222874.77
"62376",62376,1981,39,"wk","White rhino calf",1,-25.06,31.26,324485.04,7227279.44
"62523",62523,1981,39,"wk","White rhino calf",1,-25.03,31.3,328478.89,7230653.59
"62574",62574,1981,39,"wk","White rhino calf",1,-25.1,31.36,334627.71,7222975.16
"62585",62585,1981,39,"wk","White rhino calf",1,-25.06,31.34,332556.19,7227380.9
"63054",63054,1981,40,"wk","White rhino calf",1,-25.18,31.36,334735.49,7214114.37
"63063",63063,1981,40,"wk","White rhino calf",1,-25.2,31.36,334762.48,7211899.16
"63067",63067,1981,40,"wk","White rhino calf",1,-25.16,31.34,332692.4,7216304.88
"63088",63088,1981,41,"wk","White rhino calf",1,-25.35,31.36,334965.59,7195284.9
"63117",63117,1981,41,"wk","White rhino calf",1,-25.24,31.36,334816.53,7207468.72
"63154",63154,1981,41,"wk","White rhino calf",1,-25.35,31.4,338991.49,7195333.65
"63170",63170,1981,41,"wk","White rhino calf",1,-25.22,31.38,336804.61,7209708.37
"63181",63181,1981,41,"wk","White rhino calf",1,-25.22,31.4,338819.7,7209732.51
"63187",63187,1981,41,"wk","White rhino calf",1,-25.24,31.38,336831.31,7207493.17
"63210",63210,1981,41,"wk","White rhino calf",1,-25.2,31.4,338793.35,7211947.7
"63265",63265,1981,41,"wk","White rhino calf",1,-25.28,31.42,340912.98,7203110.78
"63277",63277,1981,41,"wk","White rhino calf",1,-25.22,31.42,340834.79,7209756.34
"63278",63278,1981,41,"wk","White rhino calf",1,-25.22,31.42,340834.79,7209756.34
"63293",63293,1981,41,"wk","White rhino calf",1,-25.24,31.44,342875.57,7207564.71
"63320",63320,1981,41,"wk","White rhino calf",1,-25.2,31.44,342824.16,7211995.04
"63331",63331,1981,41,"wk","White rhino calf",1,-25.14,31.44,342747.19,7218640.49
"63378",63378,1981,41,"wk","White rhino calf",1,-25.22,31.46,344864.92,7209803.11
"63426",63426,1981,41,"wk","White rhino calf",1,-25.14,31.48,346779.93,7218686.55
"63439",63439,1981,41,"wk","White rhino calf",1,-25.16,31.48,346804.91,7216471.43
"63470",63470,1981,41,"wk","White rhino calf",1,-25.18,31.51,349853.44,7214290.1
"63557",63557,1981,42,"wk","White rhino calf",1,-25.22,31.53,351917.53,7209882.06
"63661",63661,1981,42,"wk","White rhino calf",1,-25.31,31.57,356053.73,7199957.61
"63662",63662,1981,42,"wk","White rhino calf",1,-25.31,31.57,356053.73,7199957.61
"63680",63680,1981,42,"wk","White rhino calf",1,-25.26,31.55,353980.35,7205473.75
"63737",63737,1981,42,"wk","White rhino calf",1,-25.28,31.57,356018.29,7203280.26
"63751",63751,1981,42,"wk","White rhino calf",1,-25.22,31.55,353932.53,7209903.94
"63868",63868,1981,42,"wk","White rhino calf",1,-25.14,31.57,355853.42,7218785.8
"63988",63988,1981,42,"wk","White rhino calf",1,-25.26,31.59,358009.01,7205516.67
"64032",64032,1981,42,"wk","White rhino calf",1,-25.28,31.59,358032.28,7203301.58
"64256",64256,1981,43,"wk","White rhino calf",1,-25.08,31.4,338635.63,7225238.71
"64357",64357,1981,43,"wk","White rhino calf",1,-25.08,31.44,342670.39,7225285.89
"64423",64423,1981,43,"wk","White rhino calf",1,-25.1,31.48,346730.02,7223116.76
"64437",64437,1981,43,"wk","White rhino calf",1,-25.06,31.46,344662.52,7227524.13
"64457",64457,1981,43,"wk","White rhino calf",1,-25.06,31.48,346680.19,7227546.96
"64484",64484,1981,43,"wk","White rhino calf",1,-25.08,31.48,346705.1,7225331.87
"64621",64621,1981,43,"wk","White rhino calf",1,-25.08,31.53,351748.42,7225387.66
"65021",65021,1981,44,"wk","White rhino calf",1,-25.22,31.67,366022.33,7210028.94
"65167",65167,1981,44,"wk","White rhino calf",1,-25.22,31.71,370052.18,7210068.21
"65208",65208,1981,44,"wk","White rhino calf",1,-25.18,31.71,370009.7,7214498.19
"65342",65342,1981,44,"wk","White rhino calf",1,-25.2,31.76,375069.01,7212330.57
"65657",65657,1981,45,"wk","White rhino calf",1,-25.2,31.82,381114.62,7212384.94
"65698",65698,1981,45,"wk","White rhino calf",1,-25.22,31.84,383148.9,7210187.54
"65805",65805,1981,45,"wk","White rhino calf",1,-25.16,31.86,385107.47,7216849.5
"65923",65923,1981,45,"wk","White rhino calf",1,-25.12,31.88,387086.51,7221296.18
"66073",66073,1981,46,"wk","White rhino calf",1,-25.28,31.88,387234,7203576.96
"66098",66098,1981,46,"wk","White rhino calf",1,-25.22,31.9,389193.42,7210238.34
"66142",66142,1981,46,"wk","White rhino calf",1,-25.2,31.88,387160.14,7212436.61
"66182",66182,1981,46,"wk","White rhino calf",1,-25.16,31.9,389139.11,7216883.01
"69131",69131,1981,54,"wk","White rhino calf",1,-22.91,31.09,304105.29,7465171.76
"69610",69610,1981,55,"wk","White rhino calf",1,-22.91,31.15,310260.57,7465250.41
"69679",69679,1981,55,"wk","White rhino calf",1,-22.91,31.17,312312.3,7465276.07
"69817",69817,1981,56,"wk","White rhino calf",1,-25.35,31.46,345030.26,7195404.51
"69834",69834,1981,56,"wk","White rhino calf",1,-25.31,31.46,344979.3,7199834.88
"69835",69835,1981,56,"wk","White rhino calf",1,-25.31,31.46,344979.3,7199834.88
"69858",69858,1981,56,"wk","White rhino calf",1,-25.33,31.46,345004.77,7197619.7
"70018",70018,1981,56,"wk","White rhino calf",1,-25.39,31.55,354136.25,7191075.46
"70019",70019,1981,56,"wk","White rhino calf",1,-25.39,31.55,354136.25,7191075.46
"70155",70155,1981,56,"wk","White rhino calf",1,-25.39,31.59,358160.6,7191118.53
"70314",70314,1981,56,"wk","White rhino calf",1,-25.35,31.65,364152.31,7195611.04
"70357",70357,1981,56,"wk","White rhino calf",1,-25.33,31.63,362116.84,7197805.65
