"","ID","Year","Cenb","Sp","Description","No","Lat","Long","X.coord","Y.coord"
"176524",176524,1986,48,"s","Sable antelope",5,-22.83,31.27,322466.73,7474258.84
"176582",176582,1986,48,"s","Sable antelope",10,-22.86,31.27,322505.68,7470936.85
"176599",176599,1986,48,"s","Sable antelope",5,-22.88,31.23,318427.46,7468673.43
"176786",176786,1986,3,"s","Sable antelope",22,-23.94,31.31,328011.84,7351386.81
"176815",176815,1986,3,"s","Sable antelope",10,-23.91,31.35,332044.52,7354757.3
"176831",176831,1986,3,"s","Sable antelope",4,-23.89,31.27,323872.49,7356874.83
"176848",176848,1986,3,"s","Sable antelope",5,-23.86,31.23,319757.75,7360146.87
"176855",176855,1986,3,"s","Sable antelope",5,-23.86,31.2,316702.12,7360108.35
"176932",176932,1986,3,"s","Sable antelope",6,-23.86,31.19,315683.57,7360095.36
"176949",176949,1986,3,"s","Sable antelope",20,-23.99,31.25,321973.21,7345774.98
"176966",176966,1986,3,"s","Sable antelope",5,-23.93,31.28,324944.69,7352457.39
"177385",177385,1986,35,"s","Sable antelope",2,-24.82,31.68,366598.08,7254338.03
"177426",177426,1986,35,"s","Sable antelope",14,-24.86,31.65,363609.71,7249878.51
"177981",177981,1986,32,"s","Sable antelope",8,-24.5,31.63,361190.75,7289726.4
"178006",178006,1986,36,"s","Sable antelope",19,-24.77,31.69,367555.71,7259884.99
"178008",178008,1986,36,"s","Sable antelope",10,-24.8,31.69,367587.56,7256562.66
"178042",178042,1986,36,"s","Sable antelope",18,-24.81,31.74,372652.23,7255502.78
"178062",178062,1986,36,"s","Sable antelope",12,-24.83,31.77,375704.59,7253315.59
"178982",178982,1986,42,"s","Sable antelope",4,-25.26,31.51,349951.65,7205429.63
"180737",180737,1986,39,"s","Sable antelope",3,-25.08,31.24,322496.07,7225038.06
"180794",180794,1986,39,"s","Sable antelope",19,-25.07,31.35,333578.58,7226285.65
"180848",180848,1986,39,"s","Sable antelope",1,-25.08,31.26,324513.56,7225064.18
"180893",180893,1986,39,"s","Sable antelope",15,-25.11,31.22,320522.36,7221688.69
"180920",180920,1986,39,"s","Sable antelope",14,-25.15,31.27,325621.69,7217323.74
"181330",181330,1986,38,"s","Sable antelope",12,-24.9,31.78,376784.64,7245572.66
"181363",181363,1986,38,"s","Sable antelope",9,-24.98,31.82,380901.81,7236748.86
"181386",181386,1986,38,"s","Sable antelope",5,-24.96,31.84,382901.68,7238981.12
"181471",181471,1986,38,"s","Sable antelope",21,-24.9,31.8,378804.76,7245590.62
"182176",182176,1986,40,"s","Sable antelope",21,-25.14,31.33,331656.9,7218507.65
"182195",182195,1986,40,"s","Sable antelope",6,-25.16,31.32,330676.28,7216279.89
"182223",182223,1986,40,"s","Sable antelope",17,-25.17,31.22,320610.1,7215042.79
"182342",182342,1986,40,"s","Sable antelope",23,-25.19,31.3,328702.1,7212931.73
"182443",182443,1986,40,"s","Sable antelope",13,-25.25,31.28,326771.47,7206260.28
"182462",182462,1986,40,"s","Sable antelope",14,-25.27,31.3,328814.2,7204070.67
"182481",182481,1986,40,"s","Sable antelope",15,-25.3,31.3,328856.32,7200747.75
"182801",182801,1986,57,"s","Sable antelope",29,-23.35,31.07,302698.51,7416417.06
"182808",182808,1986,57,"s","Sable antelope",5,-23.37,31.08,303750.5,7414215.73
"182825",182825,1986,57,"s","Sable antelope",19,-23.32,31.05,300608.58,7419712.07
"182828",182828,1986,57,"s","Sable antelope",24,-23.31,31.05,300593.66,7420819.55
"182837",182837,1986,57,"s","Sable antelope",5,-23.3,31.02,297509.88,7421885.39
"182887",182887,1986,57,"s","Sable antelope",3,-23.34,31.01,296547.86,7417441.35
"182990",182990,1986,57,"s","Sable antelope",26,-23.42,31.13,308934.22,7408745.52
"182997",182997,1986,57,"s","Sable antelope",18,-23.44,31.09,304875.59,7406476.94
"183157",183157,1986,57,"s","Sable antelope",12,-23.36,31.18,313960.31,7415455.57
"183205",183205,1986,57,"s","Sable antelope",7,-23.3,31.12,307739.26,7422021.74
"183208",183208,1986,57,"s","Sable antelope",21,-23.32,31.13,308790.79,7419820.09
"183663",183663,1986,31,"s","Sable antelope",19,-24.5,31.64,362204.08,7289736.41
"184662",184662,1986,26,"s","Sable antelope",5,-24.17,31.81,379117.53,7326437.85
"184703",184703,1986,26,"s","Sable antelope",44,-24.21,31.81,379155.23,7322008.54
"185682",185682,1986,24,"s","Sable antelope",5,-22.87,31.07,301995.43,7469574.67
"185720",185720,1986,24,"s","Sable antelope",4,-22.88,31.11,306114.42,7468520.47
"185789",185789,1986,24,"s","Sable antelope",19,-22.89,31.17,312284.77,7467490.83
"185823",185823,1986,24,"s","Sable antelope",6,-22.85,31.19,314282.38,7471945.66
"185888",185888,1986,24,"s","Sable antelope",12,-22.93,31.21,316442.67,7463111.82
"185924",185924,1986,24,"s","Sable antelope",35,-22.76,31.11,305944.34,7481809.22
"185973",185973,1986,24,"s","Sable antelope",22,-22.86,31.01,295823.18,7470600.23
"186013",186013,1986,24,"s","Sable antelope",7,-22.82,31.06,300896.41,7475098.31
"186040",186040,1986,24,"s","Sable antelope",7,-22.83,31,294751.83,7473908.69
"186050",186050,1986,24,"s","Sable antelope",2,-22.79,31.06,300852.79,7478420.56
"186066",186066,1986,24,"s","Sable antelope",19,-22.77,31.03,297742.85,7480594.68
"186478",186478,1986,11,"s","Sable antelope",5,-23.38,31.28,324210.84,7413366.06
"186555",186555,1986,11,"s","Sable antelope",9,-23.31,31.25,321050.24,7421081.01
"186597",186597,1986,11,"s","Sable antelope",25,-23.28,31.23,318964.05,7424378.35
"187868",187868,1986,12,"s","Sable antelope",16,-23.23,31.05,300474.49,7429679.39
"187880",187880,1986,12,"s","Sable antelope",9,-23.27,31.07,302580.37,7425276.86
"188077",188077,1986,12,"s","Sable antelope",8,-23.19,31.13,308605.21,7434216.83
"188163",188163,1986,12,"s","Sable antelope",22,-23.28,31.17,312825.82,7424302.11
"188398",188398,1986,9,"s","Sable antelope",17,-23.49,31.11,306992.05,7400966.53
"188473",188473,1986,9,"s","Sable antelope",19,-23.58,31.21,317330.84,7391130.33
"188516",188516,1986,9,"s","Sable antelope",14,-23.56,31.21,317303.16,7393345.23
"188529",188529,1986,9,"s","Sable antelope",10,-23.54,31.24,320338.59,7395598.03
"188557",188557,1986,9,"s","Sable antelope",9,-23.52,31.19,315205.48,7397749.39
"188587",188587,1986,9,"s","Sable antelope",9,-23.52,31.19,315205.48,7397749.39
"188611",188611,1986,9,"s","Sable antelope",15,-23.47,31.18,314114.14,7403273.73
"188653",188653,1986,9,"s","Sable antelope",17,-23.44,31.21,317137.55,7406634.49
"188667",188667,1986,9,"s","Sable antelope",12,-23.48,31.23,319235.66,7402230.05
"188682",188682,1986,8,"s","Sable antelope",7,-23.4,31.29,325259.32,7411163.42
"188698",188698,1986,8,"s","Sable antelope",27,-23.42,31.28,324263.66,7408936.47
"188750",188750,1986,8,"s","Sable antelope",17,-23.46,31.28,324316.57,7404506.86
"188855",188855,1986,8,"s","Sable antelope",15,-23.52,31.25,321332.6,7397825.38
"188877",188877,1986,8,"s","Sable antelope",18,-23.49,31.37,333548.72,7401291.79
"190719",190719,1986,27,"s","Sable antelope",29,-24.21,31.88,386264.37,7322067.32
"190825",190825,1986,28,"s","Sable antelope",8,-24.57,31.89,387598.9,7282211.41
"191513",191513,1986,53,"s","Sable antelope",16,-23.11,31.17,312588.91,7443128.2
"191559",191559,1986,53,"s","Sable antelope",14,-23.08,31.15,310498.12,7446424.6
"191566",191566,1986,53,"s","Sable antelope",7,-23.07,31.14,309459.44,7447519.01
"191639",191639,1986,53,"s","Sable antelope",32,-23.1,31.11,306428.42,7444157.29
"191659",191659,1986,53,"s","Sable antelope",38,-23.03,31.1,305303.22,7451896.01
"191983",191983,1986,53,"s","Sable antelope",9,-23.11,30.95,290052.28,7442828.58
"192007",192007,1986,53,"s","Sable antelope",7,-23.03,30.94,288902.96,7451674.2
"192042",192042,1986,53,"s","Sable antelope",8,-23.1,30.92,286963.15,7443892.6
"193293",193293,1986,41,"s","Sable antelope",3,-25.2,31.49,347862.61,7212052.52
"193333",193333,1986,41,"s","Sable antelope",4,-25.2,31.48,346854.93,7212041.18
"193455",193455,1986,41,"s","Sable antelope",12,-25.19,31.44,342811.32,7213102.61
"193567",193567,1986,41,"s","Sable antelope",11,-25.2,31.38,336777.92,7211923.58
"193629",193629,1986,41,"s","Sable antelope",7,-25.11,31.4,338674.99,7221915.98
"193640",193640,1986,41,"s","Sable antelope",4,-25.13,31.36,334668.09,7219652.37
"193651",193651,1986,41,"s","Sable antelope",16,-25.23,31.39,337825.42,7208612.88
"193666",193666,1986,41,"s","Sable antelope",9,-25.25,31.43,341881.15,7206445.38
"193799",193799,1986,41,"s","Sable antelope",17,-25.28,31.36,334870.66,7203038.26
"193810",193810,1986,41,"s","Sable antelope",14,-25.29,31.32,330856.27,7201880.77
"194332",194332,1986,43,"s","Sable antelope",23,-25.09,31.42,340665.97,7224154.88
"194543",194543,1986,20,"s","Sable antelope",11,-24.07,31.36,333268.89,7337050.05
"194874",194874,1986,20,"s","Sable antelope",4,-24.11,31.61,358732.74,7332894.77
"195094",195094,1986,19,"s","Sable antelope",4,-23.57,31.61,358146.29,7392690.97
"195744",195744,1986,44,"s","Sable antelope",5,-25.22,31.75,374081.98,7210106.28
"196139",196139,1986,2,"s","Sable antelope",5,-23.96,31.43,340250.8,7349313.03
"196171",196171,1986,2,"s","Sable antelope",13,-23.93,31.37,334106.27,7352566.06
"196250",196250,1986,2,"s","Sable antelope",14,-23.97,31.48,345351.11,7348261.36
"196425",196425,1986,47,"s","Sable antelope",14,-22.67,31.21,316093.99,7491902.91
"196482",196482,1986,47,"s","Sable antelope",17,-22.72,31.28,323351.55,7486451.33
"196537",196537,1986,47,"s","Sable antelope",40,-22.79,31.23,318307.94,7478639.54
"196549",196549,1986,47,"s","Sable antelope",13,-22.8,31.24,319347.86,7477544.46
"197201",197201,1986,7,"s","Sable antelope",31,-23.63,31.17,313318.75,7385541.38
"197207",197207,1986,51,"s","Sable antelope",10,-22.6,31.3,325254.1,7499762.56
"197260",197260,1986,56,"s","Sable antelope",13,-25.35,31.45,344023.8,7195392.89
"197661",197661,1986,4,"s","Sable antelope",6,-23.83,31.19,315641.13,7363417.84
"198034",198034,1986,4,"s","Sable antelope",5,-23.85,31.31,327892.72,7361353.86
"198146",198146,1986,21,"s","Sable antelope",7,-24.2,31.45,342579.59,7322757.39
"198174",198174,1986,21,"s","Sable antelope",10,-24.21,31.51,348686.03,7321716.26
"198178",198178,1986,21,"s","Sable antelope",8,-24.22,31.51,348697.85,7320608.84
"198205",198205,1986,21,"s","Sable antelope",22,-24.16,31.51,348627.03,7327253.34
"198446",198446,1986,6,"s","Sable antelope",4,-23.57,31.29,325483.3,7392337.55
"198471",198471,1986,6,"s","Sable antelope",22,-23.62,31.31,327590.23,7386824.73
"198478",198478,1986,6,"s","Sable antelope",5,-23.63,31.36,332704.78,7385776.75
"198573",198573,1986,6,"s","Sable antelope",3,-23.66,31.4,336823.11,7382500.87
"198579",198579,1986,6,"s","Sable antelope",11,-23.68,31.36,332768.39,7380239.75
"198602",198602,1986,6,"s","Sable antelope",11,-23.67,31.44,340915.33,7381438.66
"198776",198776,1986,54,"s","Sable antelope",25,-22.96,30.95,289819.6,7459441.03
"198802",198802,1986,54,"s","Sable antelope",9,-22.9,30.99,293831.01,7466142.54
"199154",199154,1986,49,"s","Sable antelope",8,-23,31.46,342165.15,7455651.3
"199190",199190,1986,49,"s","Sable antelope",6,-22.93,31.45,341058.24,7463391.43
"199919",199919,1986,52,"s","Sable antelope",3,-23.07,31.22,317656.61,7447621.08
"200145",200145,1986,52,"s","Sable antelope",3,-23.05,31.33,328902.03,7449968.75
"200218",200218,1986,52,"s","Sable antelope",14,-23.12,31.33,328990.64,7442217.39
"200603",200603,1986,18,"s","Sable antelope",13,-23.16,31.46,342351.87,7437934.7
"200606",200606,1986,18,"s","Sable antelope",2,-23.16,31.43,339280.27,7437901.91
"200804",200804,1986,18,"s","Sable antelope",2,-23.18,31.39,335209.25,7435642.55
"201138",201138,1986,50,"s","Sable antelope",8,-23.02,31.47,343213.34,7453447.48
"201165",201165,1986,15,"s","Sable antelope",1,-23.31,31.32,328209.68,7421165.84
"201171",201171,1986,15,"s","Sable antelope",1,-23.33,31.33,329258,7418962.94
"201176",201176,1986,15,"s","Sable antelope",1,-23.36,31.34,330318.76,7415652.61
"201189",201189,1986,15,"s","Sable antelope",1,-23.4,31.33,329347.63,7411211.33
"201321",201321,1986,15,"s","Sable antelope",7,-23.31,31.41,337414.41,7421269.81
"201328",201328,1986,15,"s","Sable antelope",20,-23.31,31.45,341505.32,7421314.18
"201427",201427,1986,15,"s","Sable antelope",11,-23.32,31.5,346630.34,7420260.74
"201704",201704,1986,5,"s","Sable antelope",3,-23.8,31.4,336997.38,7366997.35
"201751",201751,1986,5,"s","Sable antelope",4,-23.8,31.38,334959.48,7366974.23
"202120",202120,1986,1,"s","Sable antelope",9,-23.99,31.61,358601.33,7346183.16
"202771",202771,1986,54,"s","Sable antelope",18,-23.01,31.2,315525.62,7454240.29
"202817",202817,1986,14,"s","Sable antelope",3,-23.46,31.37,333511.06,7404613.9
"202827",202827,1986,14,"s","Sable antelope",9,-23.44,31.38,334507.73,7406840.17
