"","ID","Year","Cenb","Sp","Description","No","Lat","Long","X.coord","Y.coord"
"203555",203555,1987,1,"o","Elephant",17,-23.99,31.69,366740.37,7346261.14
"203590",203590,1987,1,"o","Elephant",15,-23.98,31.75,372834.71,7347423.91
"203591",203591,1987,1,"o","Elephant",3,-23.98,31.75,372834.71,7347423.91
"203669",203669,1987,1,"o","Elephant",33,-24.01,31.67,364726.54,7344027.4
"203771",203771,1987,1,"o","Elephant",9,-24.04,31.72,369842.81,7340752.56
"203803",203803,1987,1,"o","Elephant",3,-24.05,31.7,367819.11,7339626.56
"203821",203821,1987,1,"o","Elephant",60,-24.02,31.6,357616.97,7342850.99
"203908",203908,1987,2,"o","Elephant",15,-24.03,31.41,338302.93,7341538.25
"203910",203910,1987,2,"o","Elephant",8,-24.02,31.41,338290.42,7342645.68
"203911",203911,1987,2,"o","Elephant",20,-24.04,31.4,337298.39,7340419.28
"203912",203912,1987,2,"o","Elephant",12,-24.03,31.4,337285.79,7341526.71
"203934",203934,1987,2,"o","Elephant",7,-24,31.52,349456.32,7344982.51
"203955",203955,1987,2,"o","Elephant",50,-24.01,31.41,338277.91,7343753.1
"203957",203957,1987,2,"o","Elephant",7,-24.01,31.4,337260.61,7343741.58
"203972",203972,1987,2,"o","Elephant",3,-23.99,31.52,349444.69,7346089.89
"203975",203975,1987,2,"o","Elephant",16,-23.99,31.52,349444.69,7346089.89
"203982",203982,1987,2,"o","Elephant",6,-23.99,31.43,340287.8,7345990.78
"204020",204020,1987,2,"o","Elephant",4,-23.97,31.37,334157.44,7348136.33
"204032",204032,1987,2,"o","Elephant",7,-23.94,31.55,352440,7351658.5
"204119",204119,1987,2,"o","Elephant",11,-23.9,31.44,341195.08,7355968.76
"204125",204125,1987,2,"o","Elephant",19,-23.91,31.37,334080.72,7354780.92
"204154",204154,1987,2,"o","Elephant",17,-23.88,31.52,349317.01,7358271.07
"204166",204166,1987,2,"o","Elephant",6,-23.88,31.44,341170.65,7358183.56
"204216",204216,1987,3,"o","Elephant",6,-24.09,31.26,323127.77,7334712.7
"204296",204296,1987,3,"o","Elephant",7,-24.05,31.26,323072.88,7339142.67
"204308",204308,1987,3,"o","Elephant",25,-24.05,31.24,321038.81,7339117.34
"204345",204345,1987,3,"o","Elephant",20,-24.02,31.29,326083.56,7342502.54
"204352",204352,1987,3,"o","Elephant",8,-24.02,31.28,325066.3,7342490.15
"204385",204385,1987,3,"o","Elephant",9,-24.03,31.22,318976.68,7341306.73
"204389",204389,1987,3,"o","Elephant",15,-24.02,31.22,318962.67,7342414.24
"204417",204417,1987,3,"o","Elephant",10,-24.01,31.29,326070.11,7343610.02
"204424",204424,1987,3,"o","Elephant",7,-24.01,31.28,325052.77,7343597.62
"204426",204426,1987,3,"o","Elephant",4,-24.01,31.27,324035.43,7343585.16
"204434",204434,1987,3,"o","Elephant",5,-24.01,31.25,322000.73,7343560.01
"204435",204435,1987,3,"o","Elephant",12,-24.01,31.26,323018.08,7343572.62
"204439",204439,1987,3,"o","Elephant",20,-24.01,31.24,320983.38,7343547.32
"204441",204441,1987,3,"o","Elephant",30,-24.01,31.24,320983.38,7343547.32
"204444",204444,1987,3,"o","Elephant",15,-24.01,31.23,319966.02,7343534.57
"204451",204451,1987,3,"o","Elephant",26,-24,31.24,320969.53,7344654.81
"204527",204527,1987,3,"o","Elephant",8,-23.97,31.36,333139.82,7348124.52
"204528",204528,1987,3,"o","Elephant",7,-23.96,31.36,333126.94,7349231.96
"204544",204544,1987,3,"o","Elephant",17,-23.96,31.29,326002.91,7349147.36
"204556",204556,1987,3,"o","Elephant",6,-23.97,31.24,320928.03,7347977.28
"204615",204615,1987,3,"o","Elephant",10,-23.95,31.28,324971.67,7350242.46
"204622",204622,1987,3,"o","Elephant",35,-23.95,31.24,320900.39,7350192.25
"204686",204686,1987,3,"o","Elephant",19,-23.92,31.33,330021.4,7353625.93
"204783",204783,1987,3,"o","Elephant",3,-23.9,31.29,325922.45,7355792.14
"204872",204872,1987,3,"o","Elephant",1,-23.87,31.28,324863.85,7359102.17
"205086",205086,1987,4,"o","Elephant",30,-23.74,31.19,315514.09,7373385.19
"205123",205123,1987,4,"o","Elephant",7,-23.75,31.17,313489.35,7372251.62
"205182",205182,1987,4,"o","Elephant",7,-23.78,31.17,313532.13,7368929.15
"205322",205322,1987,4,"o","Elephant",5,-23.8,31.33,329864.67,7366915.18
"205385",205385,1987,4,"o","Elephant",4,-23.81,31.31,327839.91,7365783.63
"205391",205391,1987,4,"o","Elephant",4,-23.82,31.32,328871.92,7364688.29
"205636",205636,1987,5,"o","Elephant",30,-23.84,31.42,339084.61,7362590.58
"205789",205789,1987,5,"o","Elephant",5,-23.79,31.56,353288.87,7368279.27
"205793",205793,1987,5,"o","Elephant",9,-23.79,31.55,352269.89,7368268.9
"205873",205873,1987,5,"o","Elephant",34,-23.79,31.38,334946.84,7368081.64
"205888",205888,1987,5,"o","Elephant",80,-23.78,31.55,352258.59,7369376.25
"205889",205889,1987,5,"o","Elephant",20,-23.78,31.54,351239.53,7369365.81
"205942",205942,1987,5,"o","Elephant",50,-23.77,31.42,338998.31,7370342.36
"205948",205948,1987,5,"o","Elephant",20,-23.78,31.4,336972.42,7369212.15
"206025",206025,1987,5,"o","Elephant",6,-23.76,31.4,336947.49,7371426.95
"206036",206036,1987,5,"o","Elephant",10,-23.75,31.4,336935.03,7372534.35
"206038",206038,1987,5,"o","Elephant",20,-23.76,31.38,334908.96,7371403.86
"206123",206123,1987,6,"o","Elephant",20,-23.74,31.41,337941.98,7373653.17
"206140",206140,1987,6,"o","Elephant",21,-23.74,31.38,334883.74,7373618.67
"206236",206236,1987,6,"o","Elephant",15,-23.71,31.39,335865.58,7376952.43
"206405",206405,1987,6,"o","Elephant",8,-23.67,31.33,329695.72,7381311.66
"206493",206493,1987,6,"o","Elephant",7,-23.61,31.45,341863.18,7388093.96
"206557",206557,1987,6,"o","Elephant",9,-23.57,31.41,337732.32,7392478.64
"207347",207347,1987,9,"o","Elephant",30,-23.48,31.08,303912.86,7402033.39
"207417",207417,1987,9,"o","Elephant",35,-23.48,31.09,304934.4,7402047
"207839",207839,1987,10,"o","Elephant",10,-23.38,31.08,303765.23,7413108.25
"207880",207880,1987,10,"o","Elephant",15,-23.4,31.08,303794.71,7410893.29
"207972",207972,1987,10,"o","Elephant",13,-23.46,31.08,303883.28,7404248.38
"207974",207974,1987,10,"o","Elephant",8,-23.46,31.09,304904.99,7404261.98
"208507",208507,1987,12,"o","Elephant",1,-23.21,31.07,302492.01,7431921.66
"208587",208587,1987,12,"o","Elephant",19,-23.22,31.2,315812.53,7430985.02
"208590",208590,1987,12,"o","Elephant",19,-23.22,31.2,315812.53,7430985.02
"208627",208627,1987,12,"o","Elephant",11,-23.23,31.07,302521.44,7429706.73
"208638",208638,1987,12,"o","Elephant",12,-23.23,31.08,303544.91,7429720.3
"208680",208680,1987,12,"o","Elephant",12,-23.23,31.18,313779.4,7429852.1
"208705",208705,1987,12,"o","Elephant",17,-23.24,31.2,315839.98,7428770.2
"208706",208706,1987,12,"o","Elephant",12,-23.24,31.2,315839.98,7428770.2
"208715",208715,1987,12,"o","Elephant",3,-23.26,30.99,294379.54,7426273.14
"208722",208722,1987,12,"o","Elephant",1,-23.25,31.02,297434.24,7427422.86
"208811",208811,1987,12,"o","Elephant",1,-23.28,30.99,294410.25,7424058.12
"208849",208849,1987,12,"o","Elephant",15,-23.2,31.17,312714.13,7433161.49
"208857",208857,1987,12,"o","Elephant",5,-23.21,31.19,314775.23,7432079.71
"208866",208866,1987,12,"o","Elephant",30,-23.21,31.19,314775.23,7432079.71
"208887",208887,1987,12,"o","Elephant",40,-23.22,31.19,314789.03,7430972.3
"208889",208889,1987,12,"o","Elephant",13,-23.22,31.2,315812.53,7430985.02
"209741",209741,1987,15,"o","Elephant",4,-23.36,31.51,347698.61,7415842.09
"209742",209742,1987,15,"o","Elephant",8,-23.36,31.5,346676.3,7415831.51
"209877",209877,1987,15,"o","Elephant",1,-23.37,31.33,329309.19,7414533.46
"209918",209918,1987,18,"o","Elephant",4,-23.2,31.53,349563.55,7433579.66
"209938",209938,1987,18,"o","Elephant",1,-23.23,31.53,349597.15,7430257.82
"210111",210111,1987,18,"o","Elephant",9,-23.14,31.44,340280.43,7440127.52
"210473",210473,1987,19,"o","Elephant",20,-23.93,31.71,368714.34,7352923.85
"210474",210474,1987,19,"o","Elephant",6,-23.93,31.71,368714.34,7352923.85
"210507",210507,1987,19,"o","Elephant",15,-23.93,31.73,370750.01,7352942.3
"210557",210557,1987,19,"o","Elephant",17,-23.9,31.77,374792.39,7356300.23
"210601",210601,1987,19,"o","Elephant",7,-23.94,31.8,377884.16,7351897.31
"210641",210641,1987,19,"o","Elephant",8,-23.96,31.81,378920.56,7349691.34
"210961",210961,1987,20,"o","Elephant",5,-24.06,31.43,340374.3,7338238.82
"211027",211027,1987,20,"o","Elephant",4,-24.05,31.47,344429.8,7339391.11
"211029",211029,1987,20,"o","Elephant",12,-24.05,31.47,344429.8,7339391.11
"211041",211041,1987,20,"o","Elephant",13,-24.07,31.46,343437.11,7337165.17
"211042",211042,1987,20,"o","Elephant",1,-24.07,31.47,344453.92,7337176.28
"211043",211043,1987,20,"o","Elephant",16,-24.07,31.47,344453.92,7337176.28
"211053",211053,1987,20,"o","Elephant",11,-24.06,31.47,344441.86,7338283.69
"211130",211130,1987,20,"o","Elephant",2,-24.08,31.57,354633.08,7336176.04
"211131",211131,1987,20,"o","Elephant",4,-24.09,31.57,354644.36,7335068.66
"211136",211136,1987,20,"o","Elephant",10,-24.07,31.59,356655.34,7337303.98
"211301",211301,1987,20,"o","Elephant",26,-24.1,31.3,327208.03,7333655.07
"211302",211302,1987,20,"o","Elephant",3,-24.09,31.3,327194.61,7334762.55
"211303",211303,1987,20,"o","Elephant",1,-24.09,31.3,327194.61,7334762.55
"211410",211410,1987,21,"o","Elephant",13,-24.17,31.52,349654.82,7326156.71
"211677",211677,1987,21,"o","Elephant",13,-24.17,31.52,349654.82,7326156.71
"211928",211928,1987,22,"o","Elephant",14,-24.4,31.41,338769.45,7300562.4
"212068",212068,1987,22,"o","Elephant",7,-24.4,31.44,341812.04,7300596.96
"212074",212074,1987,22,"o","Elephant",28,-24.4,31.43,340797.85,7300585.52
"212075",212075,1987,22,"o","Elephant",16,-24.41,31.43,340810.39,7299478.04
"212731",212731,1987,23,"o","Elephant",3,-24.06,31.67,364778.9,7338490.67
"212994",212994,1987,23,"o","Elephant",8,-24.06,31.7,367829.35,7338519.22
"213249",213249,1987,24,"o","Elephant",1,-24.25,31.58,355840.8,7317360.72
"213748",213748,1987,24,"o","Elephant",2,-24.34,31.69,367103.19,7307503.65
"213791",213791,1987,24,"o","Elephant",50,-24.31,31.7,368086.73,7310835.31
"213901",213901,1987,25,"o","Elephant",16,-24.01,31.74,371846.99,7344092.89
"213997",213997,1987,25,"o","Elephant",1,-24.01,31.76,373881.38,7344110.96
"214113",214113,1987,25,"o","Elephant",1,-24.04,31.78,375944.56,7340806.79
"214515",214515,1987,25,"o","Elephant",10,-24,31.86,384044.22,7345304.22
"214627",214627,1987,25,"o","Elephant",6,-24.08,31.88,386149.25,7336462.24
"214641",214641,1987,25,"o","Elephant",5,-24.12,31.88,386184.61,7332033.06
"214847",214847,1987,26,"o","Elephant",30,-24.27,31.8,378196.77,7315355.84
"214848",214848,1987,26,"o","Elephant",15,-24.27,31.79,377181.64,7315347.06
"214888",214888,1987,26,"o","Elephant",2,-24.34,31.8,378263.6,7307604.42
"215078",215078,1987,26,"o","Elephant",3,-24.32,31.83,381288.66,7309845.05
"215146",215146,1987,26,"o","Elephant",18,-24.34,31.86,384350.96,7307655.66
"215311",215311,1987,27,"o","Elephant",18,-24.26,31.85,383263.23,7316505.95
"215387",215387,1987,27,"o","Elephant",34,-24.24,31.88,386291.02,7318745.38
"215450",215450,1987,27,"o","Elephant",40,-24.24,31.91,389337.04,7318769.5
"215711",215711,1987,27,"o","Elephant",10,-24.35,31.96,394504.68,7306627.91
"215727",215727,1987,27,"o","Elephant",7,-24.37,31.98,396549.84,7304428.33
"215990",215990,1987,28,"o","Elephant",1,-24.44,31.88,386469.47,7296598.79
"216586",216586,1987,29,"o","Elephant",20,-24.64,31.84,382600.7,7274418.06
"216599",216599,1987,29,"o","Elephant",5,-24.66,31.84,382619.4,7272203.29
"217250",217250,1987,30,"o","Elephant",4,-24.72,31.94,392790.56,7265640.92
"217263",217263,1987,30,"o","Elephant",9,-24.74,31.9,388762.4,7263394.26
"217312",217312,1987,30,"o","Elephant",7,-24.75,31.93,391805.04,7262310.94
"217629",217629,1987,31,"o","Elephant",1,-24.56,31.66,364295.26,7283111.72
"217642",217642,1987,31,"o","Elephant",25,-24.52,31.66,364252.23,7287541.39
"217761",217761,1987,31,"o","Elephant",20,-24.39,31.69,367155.42,7301966.73
"217810",217810,1987,31,"o","Elephant",40,-24.43,31.7,368211.16,7297546.72
"217923",217923,1987,31,"o","Elephant",5,-24.41,31.71,369204.42,7299770.97
"217947",217947,1987,31,"o","Elephant",1,-24.44,31.71,369235.35,7296448.81
"218132",218132,1987,31,"o","Elephant",10,-24.59,31.73,371415.73,7279856.65
"218229",218229,1987,31,"o","Elephant",2,-24.41,31.77,375288.57,7299826.27
"218395",218395,1987,32,"o","Elephant",5,-24.47,31.53,351021.93,7292944.58
"218416",218416,1987,32,"o","Elephant",9,-24.55,31.55,353142.16,7284106.4
"218418",218418,1987,32,"o","Elephant",12,-24.53,31.55,353118.88,7286321.31
"218493",218493,1987,32,"o","Elephant",17,-24.54,31.56,354143.55,7285224.47
"218538",218538,1987,32,"o","Elephant",27,-24.53,31.58,356158.21,7286352.92
"218561",218561,1987,32,"o","Elephant",3,-24.53,31.61,359197.52,7286383.87
"218636",218636,1987,33,"o","Elephant",30,-24.57,31.57,355191.05,7281912.67
"218678",218678,1987,33,"o","Elephant",2,-24.66,31.6,358330.86,7271976.86
"218899",218899,1987,34,"o","Elephant",10,-24.6,31.73,371425.95,7278749.24
"219146",219146,1987,34,"o","Elephant",4,-24.74,31.72,370558.04,7263236.01
"219173",219173,1987,34,"o","Elephant",2,-24.73,31.79,377627.82,7264407.81
"219175",219175,1987,34,"o","Elephant",15,-24.73,31.79,377627.82,7264407.81
"219177",219177,1987,34,"o","Elephant",8,-24.73,31.79,377627.82,7264407.81
"219179",219179,1987,34,"o","Elephant",7,-24.74,31.8,378648.96,7263309.3
"219180",219180,1987,34,"o","Elephant",10,-24.74,31.79,377637.6,7263300.4
"219197",219197,1987,34,"o","Elephant",16,-24.75,31.7,368545.8,7262109.51
"219218",219218,1987,34,"o","Elephant",7,-24.75,31.8,378658.67,7262201.89
"219322",219322,1987,35,"o","Elephant",15,-24.84,31.7,368640.66,7252142.54
"219326",219326,1987,35,"o","Elephant",8,-24.85,31.7,368651.22,7251035.09
"219368",219368,1987,35,"o","Elephant",7,-24.85,31.7,368651.22,7251035.09
"219394",219394,1987,35,"o","Elephant",15,-24.87,31.74,372713.63,7248858.16
"219405",219405,1987,35,"o","Elephant",4,-24.89,31.71,369703.65,7246614.89
"219689",219689,1987,36,"o","Elephant",5,-24.77,31.74,372611.38,7259932.5
"219690",219690,1987,36,"o","Elephant",2,-24.78,31.74,372621.59,7258825.07
"219774",219774,1987,36,"o","Elephant",8,-24.78,31.8,378687.82,7258879.67
"220184",220184,1987,37,"o","Elephant",8,-24.8,31.93,391848.38,7256774.04
"220185",220185,1987,37,"o","Elephant",15,-24.8,31.93,391848.38,7256774.04
"220186",220186,1987,37,"o","Elephant",15,-24.79,31.93,391839.7,7257881.43
"220297",220297,1987,37,"o","Elephant",16,-24.97,31.95,394015.24,7237964.11
"220317",220317,1987,37,"o","Elephant",11,-25.11,31.95,394135.51,7222460.34
"220567",220567,1987,37,"o","Elephant",5,-25.13,31.99,398185.29,7220276.29
"221161",221161,1987,38,"o","Elephant",9,-24.94,31.84,382882.76,7241195.98
"221517",221517,1987,38,"o","Elephant",13,-25,31.92,391013.33,7234618.11
"221825",221825,1987,39,"o","Elephant",2,-25.05,31.31,329515.7,7228451.02
"221948",221948,1987,39,"o","Elephant",4,-25.09,31.29,327553.79,7223995.2
"221951",221951,1987,39,"o","Elephant",14,-25.09,31.28,326545.14,7223982.39
"222035",222035,1987,39,"o","Elephant",3,-25.11,31.26,324556.37,7221741.3
"222251",222251,1987,40,"o","Elephant",1,-25.32,31.28,326870.92,7198506.75
"222308",222308,1987,40,"o","Elephant",15,-25.37,31.3,328954.79,7192994.22
"222349",222349,1987,40,"o","Elephant",3,-25.25,31.32,330800.79,7206311.3
"222587",222587,1987,41,"o","Elephant",40,-25.18,31.39,337759.14,7214150.86
"222690",222690,1987,41,"o","Elephant",35,-25.23,31.49,347899.92,7208729.83
"222714",222714,1987,41,"o","Elephant",3,-25.27,31.47,345935.53,7204276.74
"222723",222723,1987,41,"o","Elephant",3,-25.26,31.45,343908.51,7205361.2
"222808",222808,1987,41,"o","Elephant",50,-25.28,31.43,341920.02,7203122.61
"223170",223170,1987,42,"o","Elephant",9,-25.19,31.55,353896.72,7213226.58
"223217",223217,1987,42,"o","Elephant",6,-25.22,31.61,359977.48,7209967.79
"223219",223219,1987,42,"o","Elephant",10,-25.22,31.6,358970,7209957.34
"223326",223326,1987,42,"o","Elephant",10,-25.26,31.52,350958.83,7205440.77
"223353",223353,1987,42,"o","Elephant",6,-25.26,31.6,359016.16,7205527.21
"223442",223442,1987,42,"o","Elephant",20,-25.29,31.58,357037.01,7202183.42
"223522",223522,1987,43,"o","Elephant",24,-25.09,31.39,337640.13,7224119.15
"223699",223699,1987,43,"o","Elephant",2,-25.07,31.48,346692.64,7226439.41
"223819",223819,1987,43,"o","Elephant",1,-25.03,31.52,350679.17,7230914.31
"223871",223871,1987,43,"o","Elephant",3,-25.01,31.55,353682.65,7233162.1
"223880",223880,1987,43,"o","Elephant",12,-25.03,31.55,353706.37,7230947.07
"223881",223881,1987,43,"o","Elephant",15,-25.03,31.55,353706.37,7230947.07
"223899",223899,1987,43,"o","Elephant",1,-25.03,31.57,355724.48,7230968.53
"224018",224018,1987,44,"o","Elephant",11,-25.32,31.8,379218.22,7199077.36
"224100",224100,1987,44,"o","Elephant",5,-25.23,31.76,375099.64,7209008.12
"224129",224129,1987,44,"o","Elephant",3,-25.29,31.73,372140.41,7202334.91
"224131",224131,1987,44,"o","Elephant",15,-25.28,31.73,372129.92,7203442.41
"224163",224163,1987,44,"o","Elephant",20,-25.31,31.72,371154.69,7200110.32
"224165",224165,1987,44,"o","Elephant",5,-25.31,31.72,371154.69,7200110.32
"224168",224168,1987,44,"o","Elephant",15,-25.31,31.71,370147.97,7200100.66
"224177",224177,1987,44,"o","Elephant",55,-25.3,31.7,369130.52,7201198.45
"224191",224191,1987,44,"o","Elephant",9,-25.27,31.7,369098.31,7204520.98
"224192",224192,1987,44,"o","Elephant",3,-25.27,31.7,369098.31,7204520.98
"224265",224265,1987,44,"o","Elephant",9,-25.29,31.7,369119.78,7202305.96
"224266",224266,1987,44,"o","Elephant",7,-25.29,31.7,369119.78,7202305.96
"224446",224446,1987,44,"o","Elephant",1,-25.26,31.62,361030.47,7205548.06
"224448",224448,1987,44,"o","Elephant",5,-25.26,31.62,361030.47,7205548.06
"224554",224554,1987,44,"o","Elephant",3,-25.33,31.6,359097.12,7197774.42
"224570",224570,1987,44,"o","Elephant",8,-25.31,31.64,363100.92,7200030.98
"224573",224573,1987,44,"o","Elephant",11,-25.33,31.64,363123.41,7197815.91
"224609",224609,1987,44,"o","Elephant",2,-25.34,31.59,358102.21,7196656.31
"224617",224617,1987,44,"o","Elephant",1,-25.34,31.6,359108.7,7196666.87
"224693",224693,1987,44,"o","Elephant",4,-25.37,31.63,362162.2,7193375.49
"224755",224755,1987,44,"o","Elephant",1,-25.4,31.63,362196.27,7190052.86
"224849",224849,1987,45,"o","Elephant",3,-25.13,31.83,382054.89,7220145.95
"224855",224855,1987,45,"o","Elephant",6,-25.14,31.84,383072.58,7219047.21
"224920",224920,1987,45,"o","Elephant",6,-25.16,31.84,383091.64,7216832.3
"224921",224921,1987,45,"o","Elephant",5,-25.16,31.84,383091.64,7216832.3
"224922",224922,1987,45,"o","Elephant",11,-25.16,31.85,384099.56,7216840.94
"224931",224931,1987,45,"o","Elephant",4,-25.16,31.86,385107.47,7216849.5
"225003",225003,1987,45,"o","Elephant",13,-25.17,31.87,386124.67,7215750.54
"225010",225010,1987,45,"o","Elephant",3,-25.17,31.89,388140.33,7215767.3
"225022",225022,1987,45,"o","Elephant",3,-25.18,31.93,392180.41,7214692.49
"225029",225029,1987,45,"o","Elephant",3,-25.19,31.77,376066.49,7213447.3
"225243",225243,1987,45,"o","Elephant",9,-25.27,31.82,381182.69,7204632.64
"225264",225264,1987,45,"o","Elephant",9,-25.25,31.81,380156.04,7206838.7
"225265",225265,1987,45,"o","Elephant",2,-25.26,31.81,380165.86,7205731.23
"225268",225268,1987,45,"o","Elephant",2,-25.27,31.82,381182.69,7204632.64
"225315",225315,1987,45,"o","Elephant",1,-25.27,31.88,387224.76,7204684.42
"225320",225320,1987,45,"o","Elephant",2,-25.28,31.88,387234,7203576.96
"225324",225324,1987,45,"o","Elephant",1,-25.28,31.87,386227.08,7203568.51
"225329",225329,1987,45,"o","Elephant",6,-25.27,31.89,388231.76,7204692.78
"225332",225332,1987,45,"o","Elephant",14,-25.28,31.89,388240.92,7203585.32
"225335",225335,1987,45,"o","Elephant",11,-25.31,31.87,386255.08,7200246.11
"225337",225337,1987,45,"o","Elephant",10,-25.3,31.88,387252.5,7201362.03
"225497",225497,1987,46,"o","Elephant",17,-25.19,32,399242.73,7213639.29
"225585",225585,1987,46,"o","Elephant",8,-25.37,32,399391.32,7193705.45
"225676",225676,1987,46,"o","Elephant",1,-25.31,31.99,398335.03,7200342.57
"225748",225748,1987,46,"o","Elephant",3,-25.25,31.97,396270.71,7206971.89
"225754",225754,1987,46,"o","Elephant",2,-25.25,31.96,395263.56,7206964.13
"225758",225758,1987,46,"o","Elephant",1,-25.27,31.97,396287.71,7204757.01
"225769",225769,1987,46,"o","Elephant",12,-25.33,31.97,396338.76,7198112.34
"225771",225771,1987,46,"o","Elephant",1,-25.34,31.97,396347.28,7197004.89
"225774",225774,1987,46,"o","Elephant",5,-25.35,31.97,396355.8,7195897.44
"225788",225788,1987,46,"o","Elephant",1,-25.37,31.97,396372.86,7193682.54
"225836",225836,1987,46,"o","Elephant",6,-25.22,31.95,394230.45,7210278.62
"225897",225897,1987,46,"o","Elephant",6,-25.22,31.95,394230.45,7210278.62
"225947",225947,1987,46,"o","Elephant",4,-25.16,31.99,398210.18,7216954.03
"225948",225948,1987,46,"o","Elephant",2,-25.16,31.99,398210.18,7216954.03
"225972",225972,1987,46,"o","Elephant",4,-25.16,31.96,395186.51,7216931.03
"226459",226459,1987,48,"o","Elephant",2,-22.87,31.38,333805.8,7469957.79
"226480",226480,1987,48,"o","Elephant",7,-22.78,31.38,333696.47,7479923.35
"226482",226482,1987,48,"o","Elephant",1,-22.78,31.39,334723.22,7479934.56
"226495",226495,1987,48,"o","Elephant",22,-22.79,31.39,334735.28,7478827.28
"226617",226617,1987,49,"o","Elephant",3,-22.93,31.4,335930.17,7463336.49
"226677",226677,1987,49,"o","Elephant",52,-22.92,31.23,318480.72,7464244.01
"226680",226680,1987,49,"o","Elephant",2,-22.95,31.44,340056.14,7461166.03
"226767",226767,1987,49,"o","Elephant",20,-22.97,31.28,323674.29,7458768.17
"226828",226828,1987,49,"o","Elephant",2,-23.02,31.4,336038.82,7453370.83
"226846",226846,1987,49,"o","Elephant",70,-23.02,31.34,329889.1,7453302.4
"226854",226854,1987,49,"o","Elephant",12,-23.01,31.31,326801.41,7454374.57
"226855",226855,1987,49,"o","Elephant",52,-23.01,31.32,327826.46,7454386.36
"226905",226905,1987,50,"o","Elephant",13,-23.08,31.45,341233.89,7446782.21
"227400",227400,1987,52,"o","Elephant",4,-23.07,31.36,332001.08,7447788.89
"227421",227421,1987,52,"o","Elephant",10,-23.13,31.36,332075.71,7441144.92
"227455",227455,1987,53,"o","Elephant",6,-23.01,31.03,298098.45,7454016.09
"227864",227864,1987,53,"o","Elephant",25,-23.07,30.92,286915.84,7447215.15
"228071",228071,1987,53,"o","Elephant",4,-23.13,31,295204.79,7440684.69
"228085",228085,1987,53,"o","Elephant",15,-23.08,31,295128.91,7446222.1
"228094",228094,1987,53,"o","Elephant",10,-23.03,31,295053.18,7451759.48
"228095",228095,1987,53,"o","Elephant",50,-23.03,31.01,296078.21,7451773.45
"228098",228098,1987,53,"o","Elephant",21,-23.02,31.01,296063.16,7452880.92
"228107",228107,1987,53,"o","Elephant",7,-23,31,295007.82,7455081.89
"228185",228185,1987,53,"o","Elephant",25,-23.17,31.04,299361.42,7436310.46
"228298",228298,1987,54,"o","Elephant",50,-22.97,30.96,290860.57,7458347.83
"228299",228299,1987,54,"o","Elephant",7,-22.97,30.97,291886.06,7458362.05
"228328",228328,1987,54,"o","Elephant",25,-22.93,30.99,293876.41,7462820.15
"228330",228330,1987,54,"o","Elephant",50,-22.94,30.99,293891.56,7461712.69
"228358",228358,1987,54,"o","Elephant",80,-22.92,31.01,295912.99,7463955.52
"228359",228359,1987,54,"o","Elephant",10,-22.93,31.02,296953.75,7462861.92
"228362",228362,1987,54,"o","Elephant",10,-22.94,31.01,295942.97,7461740.61
"228364",228364,1987,54,"o","Elephant",10,-22.94,31.01,295942.97,7461740.61
"228399",228399,1987,54,"o","Elephant",30,-22.94,31.04,299020.06,7461781.97
"228422",228422,1987,54,"o","Elephant",12,-22.91,31.06,301027.59,7465131.49
"228836",228836,1987,54,"o","Elephant",3,-22.94,31.2,315430.53,7461991.92
"228841",228841,1987,54,"o","Elephant",10,-22.95,31.2,315444.1,7460884.55
"229023",229023,1987,55,"o","Elephant",9,-22.7,31.13,307914.54,7488479.56
"229042",229042,1987,55,"o","Elephant",15,-22.77,31.17,312120.03,7480779.28
"229044",229044,1987,55,"o","Elephant",20,-22.78,31.1,304945.77,7479581.29
"229053",229053,1987,55,"o","Elephant",13,-22.78,31.01,295703.79,7479459.76
"229060",229060,1987,55,"o","Elephant",14,-22.8,31.09,303947.51,7477353.26
"229198",229198,1987,55,"o","Elephant",23,-22.85,31.08,302992.79,7471802.91
"229200",229200,1987,55,"o","Elephant",12,-22.86,31.08,303007.21,7470695.49
"229204",229204,1987,55,"o","Elephant",33,-22.88,31.1,305088.3,7468507.27
"229239",229239,1987,55,"o","Elephant",23,-22.82,31.15,310135.49,7475216.86
"229245",229245,1987,55,"o","Elephant",25,-22.88,31.15,310218.83,7468572.57
"229284",229284,1987,55,"o","Elephant",52,-22.9,31.17,312298.53,7466383.45
"229478",229478,1987,56,"o","Elephant",3,-25.35,31.47,346036.71,7195416.06
"229491",229491,1987,56,"o","Elephant",5,-25.32,31.48,347005.42,7198750.29
"229541",229541,1987,56,"o","Elephant",8,-25.45,31.51,350186.05,7184385.66
"229564",229564,1987,56,"o","Elephant",20,-25.41,31.52,351142.5,7188827.2
"229608",229608,1987,56,"o","Elephant",3,-25.35,31.56,355094.62,7195516.6
"229693",229693,1987,57,"o","Elephant",20,-25.07,31.81,379979.99,7226773.04
"229694",229694,1987,57,"o","Elephant",12,-25.07,31.81,379979.99,7226773.04
"229766",229766,1987,57,"o","Elephant",20,-25.08,31.74,372929.6,7225601.6
"229779",229779,1987,57,"o","Elephant",20,-25.11,31.7,368927.16,7222240.94
"229882",229882,1987,57,"o","Elephant",49,-25.13,31.69,367940.3,7220016.21
"230014",230014,1987,58,"o","Elephant",12,-25.08,31.76,374946.8,7225620.26
"230015",230015,1987,58,"o","Elephant",6,-25.08,31.76,374946.8,7225620.26
"230019",230019,1987,58,"o","Elephant",10,-25.03,31.76,374896.04,7231157.56
"230034",230034,1987,58,"o","Elephant",16,-25.07,31.78,376953.99,7226746.07
"230039",230039,1987,58,"o","Elephant",23,-25.04,31.8,378941.86,7230086.48
"230091",230091,1987,60,"o","Elephant",5,-25.01,31.62,360747.16,7233235.88
"230121",230121,1987,60,"o","Elephant",4,-24.99,31.63,361733.97,7235461.1
"230122",230122,1987,60,"o","Elephant",11,-24.99,31.63,361733.97,7235461.1
"230153",230153,1987,60,"o","Elephant",1,-24.99,31.65,363752.7,7235481.35
"230171",230171,1987,60,"o","Elephant",14,-24.96,31.69,367758.04,7238843.36
"230174",230174,1987,60,"o","Elephant",13,-24.96,31.7,368767.63,7238853.06
"230213",230213,1987,60,"o","Elephant",5,-24.96,31.74,372805.98,7238891.14
"230221",230221,1987,60,"o","Elephant",2,-24.99,31.73,371827.5,7235559.36
"230330",230330,1987,61,"o","Elephant",30,-22.61,31.02,296479.58,7498299.72
"230352",230352,1987,61,"o","Elephant",10,-22.6,31.04,298521.35,7499434.32
"230371",230371,1987,61,"o","Elephant",4,-22.53,31.08,302534.55,7507239.5
"230387",230387,1987,61,"o","Elephant",21,-22.61,31.07,301620.38,7498367.19
"230445",230445,1987,62,"o","Elephant",6,-22.51,31.09,303535,7509467.42
"230460",230460,1987,62,"o","Elephant",5,-22.51,31.1,304563.88,7509480.52
"230461",230461,1987,62,"o","Elephant",7,-22.5,31.11,305578.77,7510600.91
"230464",230464,1987,62,"o","Elephant",5,-22.54,31.11,305634.75,7506171.48
"230483",230483,1987,62,"o","Elephant",25,-22.46,31.12,306552.12,7515043.27
"230484",230484,1987,62,"o","Elephant",13,-22.47,31.12,306566.01,7513935.92
"230486",230486,1987,62,"o","Elephant",15,-22.47,31.13,307595.18,7513948.8
"230497",230497,1987,62,"o","Elephant",8,-22.56,31.13,307719.78,7503982.65
"230558",230558,1987,62,"o","Elephant",21,-22.45,31.18,312714.06,7516226.79
"230561",230561,1987,62,"o","Elephant",17,-22.48,31.18,312754.39,7512904.83
"230990",230990,1987,64,"o","Elephant",15,-22.42,31.17,311644.26,7519536.24
"231026",231026,1987,64,"o","Elephant",80,-22.4,31.2,314706.26,7521788.17
"231028",231028,1987,64,"o","Elephant",15,-22.41,31.2,314719.52,7520680.87
"231037",231037,1987,64,"o","Elephant",10,-22.42,31.2,314732.79,7519573.56
