"","ID","Year","Cenb","Sp","Description","No","Lat","Long","X.coord","Y.coord"
"313888",313888,1991,52,"bb","Buffalo bull",2,-23.06,31.2,315593.71,7448703.37
"313935",313935,1991,52,"bb","Buffalo bull",3,-23.06,31.17,312519.55,7448665.21
"313951",313951,1991,52,"bb","Buffalo bull",3,-23.06,31.39,335062.6,7448930.37
"314049",314049,1991,52,"bb","Buffalo bull",1,-23.13,31.33,329003.32,7441110.05
"314124",314124,1991,52,"bb","Buffalo bull",2,-23.14,31.22,317751.14,7439869.39
"314126",314126,1991,52,"bb","Buffalo bull",14,-23.13,31.21,316713.45,7440964.24
"314133",314133,1991,52,"bb","Buffalo bull",1,-23.2,31.23,318856.03,7433237.53
"314147",314147,1991,52,"bb","Buffalo bull",5,-23.17,31.21,316767.87,7436534.66
"314175",314175,1991,52,"bb","Buffalo bull",4,-23.02,31.28,323739.24,7453231.44
"314256",314256,1991,53,"bb","Buffalo bull",2,-23.1,30.91,285938.62,7443877.97
"314262",314262,1991,53,"bb","Buffalo bull",7,-23.09,30.92,286947.38,7445000.12
"314273",314273,1991,53,"bb","Buffalo bull",1,-23.15,30.94,289090.43,7438384.09
"314274",314274,1991,53,"bb","Buffalo bull",4,-23.15,30.94,289090.43,7438384.09
"314275",314275,1991,53,"bb","Buffalo bull",3,-23.16,30.94,289106.1,7437276.58
"314279",314279,1991,53,"bb","Buffalo bull",1,-23.14,30.94,289074.77,7439491.61
"314373",314373,1991,53,"bb","Buffalo bull",4,-23.16,31.01,296274.43,7437376.26
"314394",314394,1991,53,"bb","Buffalo bull",4,-23.15,31.02,297283.41,7438497.7
"314398",314398,1991,53,"bb","Buffalo bull",2,-23.13,31.02,297253.32,7440712.65
"314418",314418,1991,53,"bb","Buffalo bull",2,-23.14,31.04,299316.71,7439632.86
"314436",314436,1991,53,"bb","Buffalo bull",1,-23.15,31.05,300355.7,7438539.14
"314438",314438,1991,53,"bb","Buffalo bull",8,-23.17,31.06,301409.3,7436337.89
"314445",314445,1991,53,"bb","Buffalo bull",4,-23.16,31.06,301394.54,7437445.35
"314553",314553,1991,53,"bb","Buffalo bull",2,-23.19,31.17,312700.19,7434268.91
"314626",314626,1991,53,"bb","Buffalo bull",3,-23.07,30.9,284866.32,7447185.85
"314798",314798,1991,53,"bb","Buffalo bull",6,-23.04,31.13,308392.29,7450828.19
"314911",314911,1991,53,"bb","Buffalo bull",1,-23,31.02,297058.32,7455109.73
"314991",314991,1991,54,"bb","Buffalo bull",3,-23,31.08,303209.7,7455191.57
"315021",315021,1991,54,"bb","Buffalo bull",4,-22.99,31.08,303195.2,7456299
"315022",315022,1991,54,"bb","Buffalo bull",2,-23,31.08,303209.7,7455191.57
"315078",315078,1991,54,"bb","Buffalo bull",2,-22.9,31.01,295883.03,7466170.43
"315128",315128,1991,54,"bb","Buffalo bull",2,-22.88,30.97,291748.44,7468329.32
"315130",315130,1991,54,"bb","Buffalo bull",3,-22.88,30.97,291748.44,7468329.32
"315135",315135,1991,54,"bb","Buffalo bull",1,-22.88,30.96,290722.27,7468315.14
"315215",315215,1991,54,"bb","Buffalo bull",3,-22.98,30.93,287799.68,7457197.25
"315357",315357,1991,54,"bb","Buffalo bull",1,-22.99,31.25,320624.6,7456517.09
"315604",315604,1991,54,"bb","Buffalo bull",2,-22.94,31.16,311328.01,7461941.11
"315627",315627,1991,54,"bb","Buffalo bull",4,-22.93,31.13,308236.99,7463009.67
"315717",315717,1991,54,"bb","Buffalo bull",5,-22.9,31.09,304090.91,7466279.17
"315721",315721,1991,54,"bb","Buffalo bull",2,-22.9,31.08,303064.94,7466265.82
"315728",315728,1991,55,"bb","Buffalo bull",3,-22.67,31.1,304789.66,7491762.57
"315735",315735,1991,55,"bb","Buffalo bull",4,-22.71,31.06,300736.75,7487279.84
"315737",315737,1991,55,"bb","Buffalo bull",3,-22.68,31.1,304803.82,7490655.18
"315740",315740,1991,55,"bb","Buffalo bull",1,-22.74,31.1,304888.92,7484010.86
"315741",315741,1991,55,"bb","Buffalo bull",5,-22.75,31.1,304903.12,7482903.47
"315784",315784,1991,55,"bb","Buffalo bull",1,-22.75,31.02,296686.25,7482795.84
"315786",315786,1991,55,"bb","Buffalo bull",2,-22.77,31,294661.92,7480553.36
"315788",315788,1991,55,"bb","Buffalo bull",1,-22.76,31.01,295674.01,7481674.64
"315793",315793,1991,55,"bb","Buffalo bull",1,-22.78,30.99,293649.98,7479431.99
"315794",315794,1991,55,"bb","Buffalo bull",3,-22.87,30.96,290706.94,7469422.62
"315809",315809,1991,55,"bb","Buffalo bull",1,-22.88,30.98,292774.61,7468343.43
"315874",315874,1991,55,"bb","Buffalo bull",2,-22.86,31.06,300954.65,7470668.62
"316084",316084,1991,47,"bb","Buffalo bull",2,-22.71,31.13,307928.5,7487372.19
"316188",316188,1991,47,"bb","Buffalo bull",11,-22.72,31.27,322324.31,7486439.38
"316280",316280,1991,48,"bb","Buffalo bull",2,-22.78,31.34,329589.41,7479877.82
"316288",316288,1991,48,"bb","Buffalo bull",1,-22.78,31.33,328562.63,7479866.26
"316290",316290,1991,48,"bb","Buffalo bull",3,-22.77,31.32,327523.28,7480961.94
"316291",316291,1991,48,"bb","Buffalo bull",4,-22.79,31.33,328575.13,7478758.97
"316398",316398,1991,48,"bb","Buffalo bull",1,-22.82,31.22,317321.21,7475305.18
"316408",316408,1991,48,"bb","Buffalo bull",3,-22.85,31.24,319413.85,7472007.76
"316429",316429,1991,48,"bb","Buffalo bull",1,-22.88,31.23,318427.46,7468673.43
"316440",316440,1991,49,"bb","Buffalo bull",2,-22.95,31.48,344157.95,7461209.03
"316464",316464,1991,49,"bb","Buffalo bull",4,-22.98,31.45,341116.67,7457855.05
"316470",316470,1991,49,"bb","Buffalo bull",7,-22.98,31.43,339066.21,7457833.25
"316473",316473,1991,49,"bb","Buffalo bull",3,-22.98,31.46,342141.9,7457865.85
"316476",316476,1991,49,"bb","Buffalo bull",2,-22.97,31.46,342130.28,7458973.12
"316489",316489,1991,49,"bb","Buffalo bull",2,-22.96,31.41,336991.74,7460025.75
"316503",316503,1991,49,"bb","Buffalo bull",5,-22.95,31.41,336979.75,7461133.04
"316530",316530,1991,49,"bb","Buffalo bull",1,-22.92,31.46,342072.25,7464509.47
"316531",316531,1991,49,"bb","Buffalo bull",9,-22.91,31.45,341034.91,7465605.97
"316540",316540,1991,49,"bb","Buffalo bull",5,-22.91,31.41,336931.85,7465562.19
"316543",316543,1991,49,"bb","Buffalo bull",1,-22.9,31.44,339997.41,7466702.4
"316544",316544,1991,49,"bb","Buffalo bull",2,-22.9,31.42,337945.73,7466680.52
"316659",316659,1991,49,"bb","Buffalo bull",1,-22.97,31.27,322648.93,7458756.12
"316677",316677,1991,49,"bb","Buffalo bull",1,-22.96,31.4,335966.34,7460014.62
"316773",316773,1991,50,"bb","Buffalo bull",2,-23.03,31.37,332976.3,7452229.61
"316780",316780,1991,50,"bb","Buffalo bull",1,-23.03,31.5,346299.43,7452372.02
"316794",316794,1991,50,"bb","Buffalo bull",1,-23.04,31.4,336063.02,7451156.22
"316817",316817,1991,50,"bb","Buffalo bull",2,-23.05,31.4,336075.13,7450048.92
"316834",316834,1991,50,"bb","Buffalo bull",2,-23.06,31.5,346333.48,7449050.21
"316849",316849,1991,50,"bb","Buffalo bull",2,-23.06,31.4,336087.24,7448941.61
"316874",316874,1991,50,"bb","Buffalo bull",5,-23.07,31.5,346344.84,7447942.94
"316893",316893,1991,50,"bb","Buffalo bull",1,-23.08,31.4,336111.49,7446727
"316894",316894,1991,50,"bb","Buffalo bull",3,-23.08,31.41,337135.97,7446738.18
"316908",316908,1991,50,"bb","Buffalo bull",3,-23.09,31.49,345343.19,7445717.84
"316909",316909,1991,50,"bb","Buffalo bull",3,-23.09,31.48,344318.81,7445707.22
"316912",316912,1991,50,"bb","Buffalo bull",3,-23.09,31.46,342270.03,7445685.75
"316916",316916,1991,50,"bb","Buffalo bull",1,-23.08,31.42,338160.46,7446749.29
"316949",316949,1991,50,"bb","Buffalo bull",1,-23.1,31.43,339208.74,7444545.74
"317010",317010,1991,50,"bb","Buffalo bull",1,-23.15,31.51,347459.81,7439095.23
"317024",317024,1991,50,"bb","Buffalo bull",3,-23.17,31.53,349529.99,7436901.49
"317174",317174,1991,6,"bb","Buffalo bull",1,-23.73,31.41,337929.61,7374760.56
"317326",317326,1991,6,"bb","Buffalo bull",4,-23.55,31.4,336686.86,7394682.02
"317506",317506,1991,7,"bb","Buffalo bull",4,-23.58,31.26,322434.42,7391193.24
"317794",317794,1991,8,"bb","Buffalo bull",1,-23.51,31.37,333573.85,7399077.04
"317821",317821,1991,8,"bb","Buffalo bull",1,-23.48,31.37,333536.16,7402399.16
"317826",317826,1991,8,"bb","Buffalo bull",2,-23.47,31.32,328415.98,7403447.76
"317845",317845,1991,8,"bb","Buffalo bull",1,-23.44,31.25,321224.75,7406684.73
"317870",317870,1991,8,"bb","Buffalo bull",7,-23.41,31.27,323228.43,7410031.64
"317878",317878,1991,8,"bb","Buffalo bull",1,-23.44,31.23,319181.16,7406659.76
"317909",317909,1991,8,"bb","Buffalo bull",3,-23.5,31.29,325390.89,7400089.43
"317950",317950,1991,8,"bb","Buffalo bull",1,-23.55,31.34,330561.46,7394612.38
"317986",317986,1991,9,"bb","Buffalo bull",2,-23.43,31.17,313036.22,7407690.56
"318002",318002,1991,9,"bb","Buffalo bull",1,-23.52,31.21,317247.87,7397775
"318005",318005,1991,9,"bb","Buffalo bull",4,-23.5,31.2,316198.91,7399977.12
"318176",318176,1991,9,"bb","Buffalo bull",2,-23.49,31.09,304949.12,7400939.52
"318204",318204,1991,9,"bb","Buffalo bull",1,-23.5,31.07,302921.06,7399804.72
"318311",318311,1991,9,"bb","Buffalo bull",4,-23.61,31.13,309208.33,7387703.51
"318332",318332,1991,9,"bb","Buffalo bull",2,-23.62,31.12,308202.37,7386582.64
"318348",318348,1991,10,"bb","Buffalo bull",1,-23.29,31.2,315908.71,7423233.14
"318506",318506,1991,10,"bb","Buffalo bull",4,-23.37,31.03,298638.47,7414146.87
"318563",318563,1991,10,"bb","Buffalo bull",1,-23.36,31.17,312937.88,7415442.65
"318567",318567,1991,10,"bb","Buffalo bull",1,-23.37,31.16,311929.55,7414322.22
"318575",318575,1991,10,"bb","Buffalo bull",2,-23.41,31.17,313008.1,7409905.45
"318582",318582,1991,10,"bb","Buffalo bull",4,-23.39,31.16,311957.78,7412107.33
"318588",318588,1991,10,"bb","Buffalo bull",2,-23.38,31.16,311943.66,7413214.78
"318590",318590,1991,10,"bb","Buffalo bull",1,-23.36,31.15,310892.99,7415416.61
"318614",318614,1991,10,"bb","Buffalo bull",1,-23.39,31.15,310935.57,7412094.26
"318765",318765,1991,11,"bb","Buffalo bull",3,-23.36,31.29,325206.85,7415592.99
"318777",318777,1991,11,"bb","Buffalo bull",2,-23.35,31.31,327238.67,7416724.43
"318790",318790,1991,11,"bb","Buffalo bull",3,-23.33,31.3,326190.17,7418927.2
"318791",318791,1991,11,"bb","Buffalo bull",1,-23.33,31.28,324144.92,7418903.02
"318881",318881,1991,11,"bb","Buffalo bull",1,-23.24,31.22,317886.66,7428795.44
"319129",319129,1991,12,"bb","Buffalo bull",7,-23.24,31.08,303559.56,7428612.84
"319144",319144,1991,12,"bb","Buffalo bull",1,-23.19,31.05,300415.05,7434109.27
"319147",319147,1991,12,"bb","Buffalo bull",7,-23.18,31.04,299376.34,7435202.98
"319149",319149,1991,12,"bb","Buffalo bull",1,-23.17,31.04,299361.42,7436310.46
"319187",319187,1991,12,"bb","Buffalo bull",1,-23.22,31.08,303530.27,7430827.76
"319399",319399,1991,12,"bb","Buffalo bull",2,-23.27,31.15,310765.58,7425383.57
"319434",319434,1991,12,"bb","Buffalo bull",1,-23.22,31.16,311718.51,7430933.73
"319484",319484,1991,12,"bb","Buffalo bull",1,-23.27,31.19,314858.09,7425435.23
"319496",319496,1991,12,"bb","Buffalo bull",1,-23.21,31.2,315798.81,7432092.42
"319523",319523,1991,13,"bb","Buffalo bull",2,-23.76,31.52,349178.35,7371559.43
"319534",319534,1991,13,"bb","Buffalo bull",1,-23.74,31.52,349155.3,7373774.14
"319542",319542,1991,13,"bb","Buffalo bull",1,-23.74,31.51,348135.93,7373763.5
"319601",319601,1991,13,"bb","Buffalo bull",9,-23.61,31.47,343903.99,7388115.93
"319719",319719,1991,13,"bb","Buffalo bull",5,-23.68,31.6,357244.91,7380500.61
"319722",319722,1991,13,"bb","Buffalo bull",1,-23.68,31.62,359284.54,7380520.49
"319737",319737,1991,13,"bb","Buffalo bull",3,-23.66,31.64,361303.05,7382754.69
"319738",319738,1991,13,"bb","Buffalo bull",2,-23.66,31.64,361303.05,7382754.69
"319803",319803,1991,14,"bb","Buffalo bull",1,-23.54,31.42,338716.43,7395812.03
"319805",319805,1991,14,"bb","Buffalo bull",1,-23.54,31.42,338716.43,7395812.03
"319810",319810,1991,14,"bb","Buffalo bull",2,-23.51,31.48,344806.94,7399200.25
"319836",319836,1991,14,"bb","Buffalo bull",1,-23.48,31.41,337621.9,7402444.92
"319929",319929,1991,14,"bb","Buffalo bull",2,-23.45,31.53,349844.83,7405897.29
"319997",319997,1991,14,"bb","Buffalo bull",1,-23.54,31.42,338716.43,7395812.03
"319999",319999,1991,14,"bb","Buffalo bull",1,-23.54,31.42,338716.43,7395812.03
"320004",320004,1991,14,"bb","Buffalo bull",2,-23.51,31.48,344806.94,7399200.25
"320030",320030,1991,14,"bb","Buffalo bull",1,-23.48,31.41,337621.9,7402444.92
"320123",320123,1991,14,"bb","Buffalo bull",2,-23.45,31.53,349844.83,7405897.29
"320214",320214,1991,15,"bb","Buffalo bull",1,-23.3,31.4,336379.44,7422365.88
"320219",320219,1991,15,"bb","Buffalo bull",2,-23.3,31.38,334333.81,7422343.13
"320281",320281,1991,15,"bb","Buffalo bull",3,-23.27,31.38,334296.67,7425665.16
"320282",320282,1991,15,"bb","Buffalo bull",3,-23.27,31.37,333273.62,7425653.7
"320416",320416,1991,18,"bb","Buffalo bull",1,-23.24,31.32,328119.84,7428917.4
"320418",320418,1991,18,"bb","Buffalo bull",2,-23.25,31.32,328132.66,7427810.04
"320437",320437,1991,18,"bb","Buffalo bull",4,-23.26,31.32,328145.48,7426702.67
"320474",320474,1991,18,"bb","Buffalo bull",1,-23.28,31.54,350676.17,7424731.73
"320500",320500,1991,18,"bb","Buffalo bull",2,-23.17,31.48,344411.14,7436848.92
"320575",320575,1991,18,"bb","Buffalo bull",4,-23.23,31.51,347550.54,7430236.96
"320612",320612,1991,18,"bb","Buffalo bull",1,-23.29,31.52,348641.63,7423603.69
"320642",320642,1991,18,"bb","Buffalo bull",4,-23.16,31.45,341328.01,7437923.84
"320673",320673,1991,18,"bb","Buffalo bull",4,-23.25,31.44,340411.08,7427947.11
"320681",320681,1991,18,"bb","Buffalo bull",2,-23.28,31.4,336354.98,7424580.55
"320736",320736,1991,19,"bb","Buffalo bull",3,-23.77,31.68,365495.76,7370612.7
"320764",320764,1991,19,"bb","Buffalo bull",8,-23.53,31.58,355040.4,7397090.17
"320767",320767,1991,19,"bb","Buffalo bull",3,-23.32,31.54,350720.82,7420302.58
"320933",320933,1991,19,"bb","Buffalo bull",3,-23.88,31.67,364590.89,7358422.72
"321411",321411,1991,1,"bb","Buffalo bull",1,-23.97,31.64,361632.12,7348427.63
"321505",321505,1991,2,"bb","Buffalo bull",1,-23.91,31.55,352405.9,7354980.6
"321509",321509,1991,2,"bb","Buffalo bull",1,-23.9,31.55,352394.54,7356087.97
"321546",321546,1991,2,"bb","Buffalo bull",1,-23.93,31.53,350392.86,7352744.82
"321561",321561,1991,2,"bb","Buffalo bull",1,-23.91,31.51,348333.73,7354938.25
"321571",321571,1991,2,"bb","Buffalo bull",1,-23.88,31.5,347280.44,7358249.62
"321574",321574,1991,2,"bb","Buffalo bull",5,-23.89,31.5,347292.18,7357142.24
"321591",321591,1991,2,"bb","Buffalo bull",1,-23.89,31.48,345255.75,7357120.5
"321632",321632,1991,2,"bb","Buffalo bull",5,-23.87,31.42,339121.67,7359268.37
"321634",321634,1991,2,"bb","Buffalo bull",1,-23.88,31.42,339134.03,7358160.96
"321645",321645,1991,2,"bb","Buffalo bull",3,-23.87,31.4,337084.88,7359245.49
"321659",321659,1991,2,"bb","Buffalo bull",1,-23.88,31.37,334042.42,7358103.21
"321660",321660,1991,2,"bb","Buffalo bull",3,-23.88,31.37,334042.42,7358103.21
"321671",321671,1991,2,"bb","Buffalo bull",2,-23.99,31.58,355549.14,7346152.72
"321800",321800,1991,2,"bb","Buffalo bull",1,-23.99,31.46,343340.12,7346024.47
"321890",321890,1991,3,"bb","Buffalo bull",1,-23.9,31.16,312685.51,7355625.95
"321897",321897,1991,3,"bb","Buffalo bull",5,-23.87,31.16,312642.29,7358948.47
"321917",321917,1991,3,"bb","Buffalo bull",1,-23.88,31.17,313675.1,7357854.17
"321963",321963,1991,3,"bb","Buffalo bull",1,-23.91,31.19,315754.43,7354557.88
"321967",321967,1991,3,"bb","Buffalo bull",1,-23.9,31.19,315740.24,7355665.38
"321970",321970,1991,3,"bb","Buffalo bull",1,-23.86,31.18,314665.02,7360082.31
"322016",322016,1991,3,"bb","Buffalo bull",2,-23.9,31.21,317776.71,7355691.31
"322060",322060,1991,3,"bb","Buffalo bull",1,-23.88,31.24,320803.83,7357944.61
"322117",322117,1991,3,"bb","Buffalo bull",1,-23.89,31.35,332018.67,7356972.17
"322234",322234,1991,3,"bb","Buffalo bull",3,-23.94,31.26,322922.39,7351324.98
"322273",322273,1991,3,"bb","Buffalo bull",1,-24.05,31.21,317987.67,7339078.81
"322315",322315,1991,3,"bb","Buffalo bull",1,-24.06,31.23,320035.72,7337997.07
"322602",322602,1991,3,"bb","Buffalo bull",1,-23.78,31.32,328819.49,7369118.02
"322726",322726,1991,3,"bb","Buffalo bull",4,-23.84,31.3,326860.84,7362449.12
"322991",322991,1991,3,"bb","Buffalo bull",6,-23.77,31.21,317594.89,7370088.57
"323148",323148,1991,3,"bb","Buffalo bull",1,-23.69,31.16,312384.06,7378883.39
"323410",323410,1991,5,"bb","Buffalo bull",2,-23.79,31.5,347174.98,7368215.98
"323420",323420,1991,5,"bb","Buffalo bull",1,-23.84,31.48,345196.31,7362657.42
"323492",323492,1991,5,"bb","Buffalo bull",3,-23.85,31.41,338078.41,7361471.78
"323919",323919,1991,20,"bb","Buffalo bull",5,-24.1,31.52,349572.93,7333908.56
"323936",323936,1991,20,"bb","Buffalo bull",3,-24.1,31.52,349572.93,7333908.56
"324033",324033,1991,20,"bb","Buffalo bull",2,-24.04,31.66,363740.96,7340695.71
"324039",324039,1991,20,"bb","Buffalo bull",1,-24.04,31.67,364757.94,7340705.37
"324124",324124,1991,21,"bb","Buffalo bull",1,-24.12,31.49,346547.11,7331661.23
"324135",324135,1991,21,"bb","Buffalo bull",2,-24.11,31.48,345518.7,7332757.66
"324137",324137,1991,21,"bb","Buffalo bull",1,-24.1,31.49,346523.26,7333876.06
"324143",324143,1991,21,"bb","Buffalo bull",20,-24.25,31.64,361932.82,7317421.43
"324248",324248,1991,21,"bb","Buffalo bull",3,-24.18,31.62,359825.56,7325153.18
"324288",324288,1991,21,"bb","Buffalo bull",2,-24.15,31.61,358776.67,7328465.26
"324354",324354,1991,22,"bb","Buffalo bull",1,-24.32,31.57,354905.05,7309598.47
"324356",324356,1991,22,"bb","Buffalo bull",3,-24.32,31.56,353890.25,7309588
"324358",324358,1991,22,"bb","Buffalo bull",4,-24.32,31.55,352875.46,7309577.46
"324360",324360,1991,22,"bb","Buffalo bull",5,-24.32,31.53,350845.86,7309556.16
"324411",324411,1991,22,"bb","Buffalo bull",3,-24.29,31.49,346750.58,7312834.99
"324412",324412,1991,22,"bb","Buffalo bull",1,-24.29,31.5,347765.63,7312845.96
"324428",324428,1991,22,"bb","Buffalo bull",3,-24.28,31.49,346738.58,7313942.43
"324437",324437,1991,22,"bb","Buffalo bull",2,-24.25,31.5,347717.95,7317275.69
"324440",324440,1991,22,"bb","Buffalo bull",3,-24.25,31.52,349748.68,7317297.38
"324456",324456,1991,22,"bb","Buffalo bull",1,-24.33,31.44,341724.94,7308349.22
"324472",324472,1991,22,"bb","Buffalo bull",313,-24.38,31.58,355987.75,7302964.37
"324532",324532,1991,22,"bb","Buffalo bull",1,-24.38,31.54,351930.49,7302922.27
"324533",324533,1991,22,"bb","Buffalo bull",4,-24.37,31.54,351918.84,7304029.71
"324693",324693,1991,22,"bb","Buffalo bull",1,-24.44,31.45,342875.79,7296178.46
"324845",324845,1991,22,"bb","Buffalo bull",4,-24.44,31.41,338820.29,7296132.47
"324894",324894,1991,22,"bb","Buffalo bull",2,-24.46,31.44,341886.88,7293952.12
"324900",324900,1991,22,"bb","Buffalo bull",5,-24.47,31.43,340885.74,7292833.17
"324916",324916,1991,22,"bb","Buffalo bull",2,-24.46,31.4,337832.01,7293905.81
"325242",325242,1991,23,"bb","Buffalo bull",1,-24.14,31.68,365879.07,7329641.45
"325266",325266,1991,23,"bb","Buffalo bull",2,-24.15,31.71,368937.82,7328562.51
"325332",325332,1991,23,"bb","Buffalo bull",1,-24.18,31.73,371000.17,7325259.05
"325364",325364,1991,23,"bb","Buffalo bull",11,-24.23,31.66,363942.2,7319655.84
"326981",326981,1991,27,"bb","Buffalo bull",2,-24.34,31.96,394496.39,7307735.22
"327076",327076,1991,27,"bb","Buffalo bull",4,-24.37,31.95,393506.97,7304405.65
"327078",327078,1991,27,"bb","Buffalo bull",1,-24.37,31.95,393506.97,7304405.65
"327079",327079,1991,27,"bb","Buffalo bull",3,-24.38,31.95,393515.34,7303298.33
"327233",327233,1991,28,"bb","Buffalo bull",7,-24.55,31.89,387581.07,7284426.12
"327246",327246,1991,28,"bb","Buffalo bull",4,-24.53,31.93,391615.34,7286672.84
"327278",327278,1991,28,"bb","Buffalo bull",1,-24.5,31.95,393616.11,7290010.42
"327862",327862,1991,29,"bb","Buffalo bull",1,-24.53,31.79,377432.86,7286555.67
"327969",327969,1991,29,"bb","Buffalo bull",1,-24.48,31.78,376370.9,7292083.64
"327987",327987,1991,29,"bb","Buffalo bull",2,-24.65,31.87,385646.26,7273335.99
"328183",328183,1991,29,"bb","Buffalo bull",6,-24.78,31.86,384753.97,7258931.59
"328184",328184,1991,29,"bb","Buffalo bull",1,-24.78,31.86,384753.97,7258931.59
"328239",328239,1991,30,"bb","Buffalo bull",2,-24.79,31.9,388806.93,7257857.34
"328287",328287,1991,30,"bb","Buffalo bull",3,-24.72,31.91,389756.1,7265617.11
"328783",328783,1991,31,"bb","Buffalo bull",9,-24.56,31.77,375436.38,7283215.6
"328808",328808,1991,31,"bb","Buffalo bull",7,-24.56,31.76,374423.57,7283206.52
"328810",328810,1991,31,"bb","Buffalo bull",1,-24.47,31.75,373320.51,7293163.87
"328811",328811,1991,31,"bb","Buffalo bull",6,-24.46,31.75,373310.5,7294271.25
"328846",328846,1991,31,"bb","Buffalo bull",3,-24.48,31.74,372317.06,7292047.28
"329094",329094,1991,31,"bb","Buffalo bull",4,-24.55,31.7,368336.17,7284257.93
"329153",329153,1991,31,"bb","Buffalo bull",1,-24.51,31.68,366267.96,7288668.33
"329155",329155,1991,31,"bb","Buffalo bull",1,-24.52,31.68,366278.55,7287560.92
"329411",329411,1991,31,"bb","Buffalo bull",1,-24.46,31.66,364187.8,7294185.86
"329562",329562,1991,32,"bb","Buffalo bull",1,-24.45,31.56,354039.67,7295191.45
"329619",329619,1991,32,"bb","Buffalo bull",1,-24.47,31.54,352035.53,7292955.32
"329620",329620,1991,32,"bb","Buffalo bull",2,-24.46,31.53,351010.16,7294052.03
"329758",329758,1991,32,"bb","Buffalo bull",2,-24.5,31.46,343963.65,7289544.94
"329781",329781,1991,32,"bb","Buffalo bull",5,-24.47,31.62,360144.24,7293038.58
"329872",329872,1991,32,"bb","Buffalo bull",4,-24.55,31.59,357193.96,7284148.43
"329955",329955,1991,33,"bb","Buffalo bull",6,-24.58,31.62,360266.05,7280856.88
"330042",330042,1991,33,"bb","Buffalo bull",10,-24.59,31.53,351163.52,7279655.1
"330057",330057,1991,33,"bb","Buffalo bull",5,-24.78,31.61,359477.77,7258697.65
"330085",330085,1991,33,"bb","Buffalo bull",4,-24.75,31.69,367534.5,7262099.87
"330276",330276,1991,34,"bb","Buffalo bull",6,-24.76,31.7,368556.32,7261002.08
"330277",330277,1991,34,"bb","Buffalo bull",5,-24.75,31.69,367534.5,7262099.87
"330369",330369,1991,34,"bb","Buffalo bull",3,-24.72,31.81,379641.07,7265532.93
"330542",330542,1991,34,"bb","Buffalo bull",4,-24.63,31.7,368419.83,7275398.63
"330679",330679,1991,35,"bb","Buffalo bull",3,-24.96,31.59,357661.96,7238742.21
"330814",330814,1991,35,"bb","Buffalo bull",4,-24.9,31.62,360623.34,7245418.24
"330815",330815,1991,35,"bb","Buffalo bull",5,-24.9,31.62,360623.34,7245418.24
"330851",330851,1991,35,"bb","Buffalo bull",3,-24.83,31.63,361555.48,7253180.75
"330853",330853,1991,35,"bb","Buffalo bull",5,-24.83,31.66,364587.48,7253210.87
"330855",330855,1991,35,"bb","Buffalo bull",5,-24.82,31.67,365587.34,7254328.21
"330864",330864,1991,35,"bb","Buffalo bull",2,-24.84,31.6,358534.83,7252042.49
"331252",331252,1991,36,"bb","Buffalo bull",3,-24.82,31.77,375694.61,7254423.01
"331332",331332,1991,36,"bb","Buffalo bull",4,-24.77,31.74,372611.38,7259932.5
"331374",331374,1991,37,"bb","Buffalo bull",6,-24.81,32,398932.31,7255720.3
"331395",331395,1991,37,"bb","Buffalo bull",4,-24.86,32,398972.9,7250183.44
"331523",331523,1991,37,"bb","Buffalo bull",7,-24.88,31.9,388887.31,7247890.79
"331882",331882,1991,37,"bb","Buffalo bull",1,-25.18,32.02,401249.95,7214761.53
"333072",333072,1991,40,"bb","Buffalo bull",5,-25.3,31.26,324828.63,7200696.06
"333272",333272,1991,41,"bb","Buffalo bull",5,-25.33,31.4,338965.01,7197548.87
"333322",333322,1991,41,"bb","Buffalo bull",3,-25.28,31.35,333863.6,7203025.91
"333336",333336,1991,41,"bb","Buffalo bull",7,-25.28,31.39,337891.84,7203074.86
"333461",333461,1991,41,"bb","Buffalo bull",6,-25.21,31.4,338806.52,7210840.1
"333463",333463,1991,41,"bb","Buffalo bull",2,-25.21,31.41,339814.15,7210852.05
"333652",333652,1991,41,"bb","Buffalo bull",5,-25.12,31.45,343729.92,7220867.25
"333950",333950,1991,42,"bb","Buffalo bull",6,-25.18,31.6,358923.9,7214387.45
"334087",334087,1991,42,"bb","Buffalo bull",8,-25.23,31.54,352937.06,7208785.49
"334112",334112,1991,42,"bb","Buffalo bull",2,-25.2,31.55,353908.65,7212119.03
"334176",334176,1991,42,"bb","Buffalo bull",2,-25.29,31.59,358043.92,7202194.04
"334362",334362,1991,43,"bb","Buffalo bull",1,-25,31.41,339540.22,7234111.16
"334378",334378,1991,43,"bb","Buffalo bull",2,-25.02,31.42,340575.4,7231907.84
"334383",334383,1991,43,"bb","Buffalo bull",1,-25.01,31.42,340562.48,7233015.4
"334387",334387,1991,43,"bb","Buffalo bull",1,-24.98,31.42,340523.76,7236338.07
"334400",334400,1991,43,"bb","Buffalo bull",7,-25.04,31.42,340601.25,7229692.71
"334471",334471,1991,43,"bb","Buffalo bull",3,-25,31.45,343577.59,7234157.92
"334546",334546,1991,43,"bb","Buffalo bull",5,-25,31.51,349633.56,7234225.83
"334600",334600,1991,43,"bb","Buffalo bull",2,-24.96,31.56,354633.08,7238710.42
"334656",334656,1991,43,"bb","Buffalo bull",7,-25.06,31.41,339618.27,7227465.76
"334740",334740,1991,43,"bb","Buffalo bull",1,-25.09,31.47,345708.97,7224212.93
"334795",334795,1991,43,"bb","Buffalo bull",3,-25.06,31.5,348697.86,7227569.49
"334813",334813,1991,43,"bb","Buffalo bull",2,-25.07,31.51,349718.89,7226473.1
"335008",335008,1991,44,"bb","Buffalo bull",8,-25.28,31.65,364074.19,7203363.74
"335172",335172,1991,44,"bb","Buffalo bull",6,-25.32,31.79,378211.61,7199068.3
"335198",335198,1991,44,"bb","Buffalo bull",2,-25.33,31.78,377215.08,7197951.68
"335450",335450,1991,44,"bb","Buffalo bull",4,-25.25,31.68,367062.43,7206716.34
"335489",335489,1991,44,"bb","Buffalo bull",5,-25.25,31.67,366055.22,7206706.41
"336434",336434,1991,46,"bb","Buffalo bull",3,-25.32,31.9,389284.19,7199163.77
"336435",336435,1991,46,"bb","Buffalo bull",2,-25.33,31.9,389293.29,7198056.31
"336437",336437,1991,46,"bb","Buffalo bull",1,-25.33,31.91,390299.79,7198064.54
"336438",336438,1991,46,"bb","Buffalo bull",2,-25.33,31.91,390299.79,7198064.54
"336448",336448,1991,46,"bb","Buffalo bull",1,-25.35,31.94,393336.82,7195873.87
"336689",336689,1991,46,"bb","Buffalo bull",5,-25.44,31.32,331065.02,7185266.11
"336706",336706,1991,46,"bb","Buffalo bull",3,-25.48,31.33,332126.3,7180848.13
"336726",336726,1991,46,"bb","Buffalo bull",1,-25.52,31.37,336202.2,7176467.39
"336728",336728,1991,46,"bb","Buffalo bull",1,-25.51,31.38,337193.77,7177587.32
"336810",336810,1991,46,"bb","Buffalo bull",2,-25.47,31.51,350210.82,7182170.47
"336821",336821,1991,46,"bb","Buffalo bull",6,-25.45,31.51,350186.05,7184385.66
"336835",336835,1991,46,"bb","Buffalo bull",1,-25.43,31.53,352172.84,7186623.15
"336840",336840,1991,46,"bb","Buffalo bull",2,-25.42,31.55,354172.33,7187752.74
"336916",336916,1991,46,"bb","Buffalo bull",2,-25.41,31.55,354160.3,7188860.32
"336932",336932,1991,46,"bb","Buffalo bull",4,-25.4,31.55,354148.27,7189967.89
"337164",337164,1991,46,"bb","Buffalo bull",1,-25.33,31.45,343998.15,7197608.08
"337179",337179,1991,57,"bb","Buffalo bull",2,-25.17,31.66,364959.72,7215556.49
"337423",337423,1991,57,"bb","Buffalo bull",5,-25.08,31.81,379989.74,7225665.59
"337464",337464,1991,57,"bb","Buffalo bull",6,-25.07,31.82,380988.66,7226781.88
"337502",337502,1991,57,"bb","Buffalo bull",2,-25.07,31.83,381997.32,7226790.65
"337618",337618,1991,58,"bb","Buffalo bull",3,-25.06,31.74,372908.96,7227816.54
"337852",337852,1991,58,"bb","Buffalo bull",3,-25.17,31.64,362943.95,7215536.28
"337894",337894,1991,60,"bb","Buffalo bull",4,-25,31.75,373856.38,7234470.66
"337896",337896,1991,60,"bb","Buffalo bull",4,-25,31.75,373856.38,7234470.66
"337914",337914,1991,60,"bb","Buffalo bull",2,-24.96,31.74,372805.98,7238891.14
"337933",337933,1991,60,"bb","Buffalo bull",3,-24.97,31.72,370797.26,7237764.79
"337946",337946,1991,60,"bb","Buffalo bull",2,-24.97,31.71,369787.75,7237755.23
"337966",337966,1991,60,"bb","Buffalo bull",5,-24.97,31.69,367768.73,7237735.89
"337983",337983,1991,60,"bb","Buffalo bull",3,-24.98,31.67,365760.55,7236608.78
"338059",338059,1991,61,"bb","Buffalo bull",2,-22.71,30.89,283270.18,7487041.41
"338072",338072,1991,61,"bb","Buffalo bull",5,-22.71,31,294572.22,7487197.98
"338080",338080,1991,61,"bb","Buffalo bull",1,-22.69,30.99,293514.79,7489398.97
"338086",338086,1991,61,"bb","Buffalo bull",6,-22.68,31.01,295555.12,7490534.08
"338094",338094,1991,61,"bb","Buffalo bull",4,-22.66,30.97,291414.21,7492693.34
"338172",338172,1991,61,"bb","Buffalo bull",4,-22.55,31.06,300505.82,7504998.17
"338175",338175,1991,61,"bb","Buffalo bull",1,-22.54,31.05,299462.76,7506092.16
"338177",338177,1991,61,"bb","Buffalo bull",3,-22.54,31.04,298434.08,7506078.7
"338213",338213,1991,61,"bb","Buffalo bull",4,-22.71,31.02,296627.08,7487225.54
"338217",338217,1991,61,"bb","Buffalo bull",7,-22.69,31.05,299680.24,7489481.19
"338222",338222,1991,61,"bb","Buffalo bull",5,-22.68,31.05,299665.69,7490588.59
"338233",338233,1991,61,"bb","Buffalo bull",7,-22.63,31.11,305761.06,7496205.17
"338244",338244,1991,61,"bb","Buffalo bull",11,-22.6,31.06,300577.81,7499461.23
"338260",338260,1991,62,"bb","Buffalo bull",5,-22.63,31.14,308844.99,7496244.02
"338289",338289,1991,62,"bb","Buffalo bull",3,-22.46,31.07,301405.86,7514977.88
"338300",338300,1991,62,"bb","Buffalo bull",3,-22.46,31.15,309639.83,7515081.68
"338301",338301,1991,62,"bb","Buffalo bull",3,-22.46,31.13,307581.36,7515056.14
"338315",338315,1991,62,"bb","Buffalo bull",4,-22.47,31.16,310682.65,7513987.02
"338316",338316,1991,62,"bb","Buffalo bull",1,-22.47,31.16,310682.65,7513987.02
"338317",338317,1991,62,"bb","Buffalo bull",4,-22.47,31.17,311711.8,7513999.62
"338322",338322,1991,62,"bb","Buffalo bull",3,-22.48,31.16,310696.25,7512879.69
"338330",338330,1991,62,"bb","Buffalo bull",4,-22.48,31.08,302463.5,7512776.36
"338331",338331,1991,62,"bb","Buffalo bull",2,-22.48,31.08,302463.5,7512776.36
"338332",338332,1991,62,"bb","Buffalo bull",2,-22.48,31.06,300405.27,7512749.84
"338382",338382,1991,62,"bb","Buffalo bull",4,-22.57,31.16,310818.9,7502913.65
"338538",338538,1991,63,"bb","Buffalo bull",2,-22.47,31.25,319944.84,7514097.96
"338547",338547,1991,63,"bb","Buffalo bull",6,-22.49,31.3,325115.5,7511942.64
"338559",338559,1991,63,"bb","Buffalo bull",2,-22.51,31.2,314852.46,7509607.75
"338587",338587,1991,64,"bb","Buffalo bull",1,-22.42,31.3,325027.63,7519693.53
"338609",338609,1991,64,"bb","Buffalo bull",1,-22.41,31.27,321926.47,7520765.53
