"","ID","Year","Cenb","Sp","Description","No","Lat","Long","X.coord","Y.coord"
"205574",205574,1987,5,"bs","Bushbuck",2,-23.85,31.57,354374.82,7361645.48
"207316",207316,1987,9,"bs","Bushbuck",1,-23.45,31.14,309999.12,7405436.37
"213247",213247,1987,24,"bs","Bushbuck",2,-24.35,31.58,355953.77,7306286.63
"221544",221544,1987,39,"bs","Bushbuck",1,-24.97,31.31,329405.17,7237311.81
"221993",221993,1987,39,"bs","Bushbuck",2,-25.1,31.2,318490.56,7222769.6
"224535",224535,1987,44,"bs","Bushbuck",1,-25.29,31.66,365092.23,7202266.31
"227026",227026,1987,50,"bs","Bushbuck",1,-23.18,31.53,349541.17,7435794.21
"228053",228053,1987,53,"bs","Bushbuck",1,-23.16,31.01,296274.43,7437376.26
"228380",228380,1987,54,"bs","Bushbuck",1,-22.88,31.05,299957.67,7468440.22
"228465",228465,1987,54,"bs","Bushbuck",1,-23,31.06,301159.26,7455164.57
"228468",228468,1987,54,"bs","Bushbuck",1,-23.01,31.08,303224.21,7454084.13
"229613",229613,1987,56,"bs","Bushbuck",2,-25.36,31.57,356112.88,7194419.83
"229634",229634,1987,57,"bs","Bushbuck",1,-25.11,31.84,383044.01,7222369.56
"229704",229704,1987,57,"bs","Bushbuck",1,-25.06,31.8,378961.5,7227871.58
"230666",230666,1987,63,"bs","Bushbuck",1,-22.42,31.22,316791.79,7519598.1
"230841",230841,1987,63,"bs","Bushbuck",1,-22.47,31.3,325090.37,7514157.19
"230912",230912,1987,64,"bs","Bushbuck",1,-22.43,31.1,304451.56,7518339.38
"230996",230996,1987,64,"bs","Bushbuck",1,-22.42,31.17,311644.26,7519536.24
"231044",231044,1987,64,"bs","Bushbuck",1,-22.37,31.22,316726.24,7525134.58
