"","ID","Year","Cenb","Sp","Description","No","Lat","Long","X.coord","Y.coord"
"260848",260848,1989,52,"wb","Waterbuck",9,-23.19,31.21,316795.11,7434319.87
"260866",260866,1989,52,"wb","Waterbuck",1,-23.18,31.21,316781.49,7435427.27
"260868",260868,1989,52,"wb","Waterbuck",5,-23.2,31.21,316808.74,7433212.47
"260873",260873,1989,52,"wb","Waterbuck",4,-23.19,31.22,317818.83,7434332.43
"261004",261004,1989,52,"wb","Waterbuck",3,-23.13,31.34,330027.45,7441121.75
"261012",261012,1989,52,"wb","Waterbuck",1,-23.1,31.34,329989.66,7444443.76
"261109",261109,1989,52,"wb","Waterbuck",1,-23.07,31.34,329951.91,7447765.76
"261117",261117,1989,52,"wb","Waterbuck",1,-23.05,31.35,330951.51,7449992.01
"261127",261127,1989,52,"wb","Waterbuck",12,-23.05,31.17,312505.69,7449772.61
"261182",261182,1989,52,"wb","Waterbuck",5,-23.07,31.21,316631.98,7447608.57
"261245",261245,1989,52,"wb","Waterbuck",1,-23.04,31.26,321715.58,7450992.51
"261284",261284,1989,53,"wb","Waterbuck",18,-23.13,30.94,289059.12,7440599.12
"261301",261301,1989,53,"wb","Waterbuck",2,-23.11,30.95,290052.28,7442828.58
"261306",261306,1989,53,"wb","Waterbuck",3,-23.12,30.95,290067.84,7441721.07
"261309",261309,1989,53,"wb","Waterbuck",1,-23.14,30.96,291123.2,7439520.42
"261310",261310,1989,53,"wb","Waterbuck",5,-23.15,30.96,291138.7,7438412.92
"261318",261318,1989,53,"wb","Waterbuck",2,-23.15,30.97,292162.83,7438427.22
"261319",261319,1989,53,"wb","Waterbuck",1,-23.15,30.97,292162.83,7438427.22
"261323",261323,1989,53,"wb","Waterbuck",9,-23.12,30.96,291092.2,7441735.43
"261348",261348,1989,53,"wb","Waterbuck",2,-23.16,30.99,294226.36,7437348.13
"261362",261362,1989,53,"wb","Waterbuck",2,-23.13,30.98,293156.25,7440656.45
"261391",261391,1989,53,"wb","Waterbuck",1,-23.13,31,295204.79,7440684.69
"261415",261415,1989,53,"wb","Waterbuck",1,-23.14,31.02,297268.36,7439605.18
"261422",261422,1989,53,"wb","Waterbuck",4,-23.15,31.04,299331.61,7438525.4
"261423",261423,1989,53,"wb","Waterbuck",4,-23.14,31.03,298292.54,7439619.06
"261523",261523,1989,53,"wb","Waterbuck",2,-23.16,31.13,308562.52,7437539.12
"261562",261562,1989,53,"wb","Waterbuck",1,-23.19,31.18,313723.93,7434281.76
"261628",261628,1989,53,"wb","Waterbuck",3,-23.03,31.12,307353.17,7451922.47
"261757",261757,1989,53,"wb","Waterbuck",2,-23.02,31.05,300163.51,7452936.07
"261781",261781,1989,53,"wb","Waterbuck",15,-23.02,31.02,297088.25,7452894.81
"262005",262005,1989,53,"wb","Waterbuck",13,-23.02,31,295038.06,7452866.95
"262033",262033,1989,53,"wb","Waterbuck",5,-23.02,31.01,296063.16,7452880.92
"262140",262140,1989,54,"wb","Waterbuck",12,-22.88,30.98,292774.61,7468343.43
"262161",262161,1989,54,"wb","Waterbuck",1,-22.92,30.98,292835.41,7463913.56
"262182",262182,1989,54,"wb","Waterbuck",15,-22.87,31.03,297890.59,7469520.36
"262217",262217,1989,54,"wb","Waterbuck",1,-22.99,31.01,296018.04,7456203.31
"262279",262279,1989,54,"wb","Waterbuck",6,-22.89,31.06,300998.4,7467346.34
"262489",262489,1989,54,"wb","Waterbuck",2,-22.94,31.22,317481.77,7462016.91
"262490",262490,1989,54,"wb","Waterbuck",3,-22.94,31.22,317481.77,7462016.91
"262498",262498,1989,54,"wb","Waterbuck",1,-22.93,31.21,316442.67,7463111.82
"262501",262501,1989,54,"wb","Waterbuck",2,-22.96,31.22,317508.61,7459802.18
"262502",262502,1989,54,"wb","Waterbuck",12,-22.96,31.22,317508.61,7459802.18
"262505",262505,1989,54,"wb","Waterbuck",4,-22.97,31.22,317522.04,7458694.81
"262509",262509,1989,54,"wb","Waterbuck",3,-22.98,31.23,318560.78,7457599.85
"262550",262550,1989,54,"wb","Waterbuck",4,-22.95,31.21,316469.65,7460897.08
"262618",262618,1989,54,"wb","Waterbuck",1,-22.93,31.19,314391.27,7463086.7
"262703",262703,1989,54,"wb","Waterbuck",1,-22.9,31.16,311272.59,7466370.66
"262709",262709,1989,54,"wb","Waterbuck",2,-22.91,31.16,311286.44,7465263.27
"262742",262742,1989,54,"wb","Waterbuck",9,-23.03,31.19,314527.89,7452012.89
"262744",262744,1989,54,"wb","Waterbuck",3,-23.03,31.19,314527.89,7452012.89
"262777",262777,1989,54,"wb","Waterbuck",8,-22.91,31.16,311286.44,7465263.27
"262779",262779,1989,54,"wb","Waterbuck",1,-22.9,31.16,311272.59,7466370.66
"262786",262786,1989,54,"wb","Waterbuck",1,-22.89,31.15,310232.74,7467465.18
"262787",262787,1989,54,"wb","Waterbuck",4,-22.9,31.15,310246.65,7466357.8
"262790",262790,1989,54,"wb","Waterbuck",1,-22.91,31.15,310260.57,7465250.41
"262807",262807,1989,54,"wb","Waterbuck",6,-23.03,31.18,313502.95,7452000.18
"262821",262821,1989,54,"wb","Waterbuck",1,-22.93,31.15,310288.43,7463035.63
"262826",262826,1989,54,"wb","Waterbuck",3,-22.91,31.15,310260.57,7465250.41
"262905",262905,1989,55,"wb","Waterbuck",2,-22.87,31.07,301995.43,7469574.67
"262922",262922,1989,55,"wb","Waterbuck",9,-22.87,31.11,306100.21,7469627.87
"262926",262926,1989,55,"wb","Waterbuck",1,-22.86,31.1,305059.75,7470722.08
"262930",262930,1989,55,"wb","Waterbuck",6,-22.87,31.11,306100.21,7469627.87
"262933",262933,1989,55,"wb","Waterbuck",2,-22.88,31.11,306114.42,7468520.47
"262957",262957,1989,55,"wb","Waterbuck",3,-22.89,31.15,310232.74,7467465.18
"262980",262980,1989,55,"wb","Waterbuck",3,-22.88,31.17,312271.01,7468598.2
"263048",263048,1989,55,"wb","Waterbuck",3,-22.92,31.21,316429.19,7464219.18
"263051",263051,1989,55,"wb","Waterbuck",2,-22.91,31.22,317441.56,7465338.99
"263059",263059,1989,55,"wb","Waterbuck",11,-22.84,31.22,317347.92,7473090.48
"263142",263142,1989,55,"wb","Waterbuck",1,-22.88,31,294826.94,7468371.43
"263146",263146,1989,55,"wb","Waterbuck",5,-22.88,31.04,298931.54,7468426.6
"263153",263153,1989,55,"wb","Waterbuck",12,-22.86,31.01,295823.18,7470600.23
"263170",263170,1989,55,"wb","Waterbuck",19,-22.85,31.02,296834.62,7471721.49
"263177",263177,1989,55,"wb","Waterbuck",1,-22.84,31.02,296819.75,7472828.93
"263491",263491,1989,48,"wb","Waterbuck",1,-22.8,31.23,318321.19,7477532.2
"263621",263621,1989,48,"wb","Waterbuck",1,-22.89,31.21,316388.78,7467541.27
"263903",263903,1989,49,"wb","Waterbuck",1,-22.95,31.25,320571.79,7460946.51
"263936",263936,1989,49,"wb","Waterbuck",4,-22.96,31.26,321610.43,7459851.34
"264024",264024,1989,50,"wb","Waterbuck",10,-23.05,31.47,343248.06,7450125.65
"264030",264030,1989,50,"wb","Waterbuck",1,-23.05,31.51,347346.81,7450167.95
"264047",264047,1989,50,"wb","Waterbuck",5,-23.1,31.47,343306.02,7444589.23
"264089",264089,1989,50,"wb","Waterbuck",3,-23.07,31.43,339173.04,7447867.63
"264103",264103,1989,50,"wb","Waterbuck",4,-23.1,31.45,341257.39,7444567.63
"264104",264104,1989,50,"wb","Waterbuck",9,-23.09,31.46,342270.03,7445685.75
"264106",264106,1989,50,"wb","Waterbuck",8,-23.1,31.45,341257.39,7444567.63
"264122",264122,1989,50,"wb","Waterbuck",7,-23.12,31.49,345377.55,7442396
"264142",264142,1989,50,"wb","Waterbuck",2,-23.15,31.48,344388.03,7439063.5
"264154",264154,1989,50,"wb","Waterbuck",3,-23.15,31.53,349507.64,7439116.03
"264221",264221,1989,6,"wb","Waterbuck",4,-23.7,31.49,346050.19,7378171.45
"264225",264225,1989,6,"wb","Waterbuck",5,-23.71,31.49,346061.93,7377064.1
"264229",264229,1989,6,"wb","Waterbuck",6,-23.7,31.48,345030.5,7378160.61
"264230",264230,1989,6,"wb","Waterbuck",2,-23.69,31.48,345018.69,7379267.97
"264235",264235,1989,6,"wb","Waterbuck",3,-23.66,31.47,343963.28,7382579.15
"264246",264246,1989,6,"wb","Waterbuck",4,-23.69,31.48,345018.69,7379267.97
"264251",264251,1989,6,"wb","Waterbuck",6,-23.71,31.48,345042.31,7377053.25
"264272",264272,1989,6,"wb","Waterbuck",1,-23.71,31.48,345042.31,7377053.25
"264284",264284,1989,6,"wb","Waterbuck",5,-23.66,31.46,342943.26,7382568.18
"264327",264327,1989,6,"wb","Waterbuck",3,-23.72,31.46,343015.03,7375923.98
"264385",264385,1989,6,"wb","Waterbuck",1,-23.75,31.42,338973.69,7372557.14
"264408",264408,1989,6,"wb","Waterbuck",1,-23.72,31.41,337917.24,7375867.95
"264474",264474,1989,6,"wb","Waterbuck",1,-23.57,31.45,341815.22,7392523.39
"264486",264486,1989,6,"wb","Waterbuck",3,-23.53,31.41,337683.19,7396908.11
"264488",264488,1989,6,"wb","Waterbuck",1,-23.55,31.41,337707.75,7394693.38
"264495",264495,1989,6,"wb","Waterbuck",67,-23.61,31.45,341863.18,7388093.96
"264512",264512,1989,6,"wb","Waterbuck",4,-23.55,31.37,333624.18,7394647.52
"264560",264560,1989,7,"wb","Waterbuck",3,-23.64,31.15,311292.38,7384407.62
"264578",264578,1989,7,"wb","Waterbuck",12,-23.68,31.17,313389.74,7380004
"264579",264579,1989,7,"wb","Waterbuck",3,-23.67,31.17,313375.53,7381111.48
"264589",264589,1989,7,"wb","Waterbuck",2,-23.64,31.17,313332.94,7384433.9
"264596",264596,1989,7,"wb","Waterbuck",1,-23.65,31.18,314367.32,7383339.47
"264600",264600,1989,7,"wb","Waterbuck",2,-23.66,31.18,314381.44,7382232
"264601",264601,1989,7,"wb","Waterbuck",5,-23.67,31.18,314395.57,7381124.53
"264603",264603,1989,7,"wb","Waterbuck",2,-23.68,31.18,314409.7,7380017.05
"264605",264605,1989,7,"wb","Waterbuck",4,-23.68,31.18,314409.7,7380017.05
"264608",264608,1989,7,"wb","Waterbuck",3,-23.69,31.18,314423.84,7378909.58
"264638",264638,1989,7,"wb","Waterbuck",5,-23.69,31.21,317483.47,7378948.32
"264647",264647,1989,7,"wb","Waterbuck",9,-23.67,31.22,318475.69,7381176
"264653",264653,1989,7,"wb","Waterbuck",2,-23.65,31.21,317427.89,7383378.16
"264673",264673,1989,7,"wb","Waterbuck",3,-23.7,31.22,318517.17,7377853.63
"264699",264699,1989,7,"wb","Waterbuck",1,-23.61,31.24,320433.86,7387845.98
"264714",264714,1989,7,"wb","Waterbuck",5,-23.71,31.25,321590.12,7376784.07
"264730",264730,1989,7,"wb","Waterbuck",1,-23.61,31.24,320433.86,7387845.98
"264744",264744,1989,7,"wb","Waterbuck",3,-23.7,31.26,322596.3,7377904.01
"264793",264793,1989,7,"wb","Waterbuck",1,-23.71,31.32,328727.94,7376870.01
"264795",264795,1989,7,"wb","Waterbuck",1,-23.71,31.31,327708.26,7376857.95
"264807",264807,1989,7,"wb","Waterbuck",7,-23.68,31.32,328688.78,7380192.27
"264813",264813,1989,7,"wb","Waterbuck",5,-23.69,31.33,329721.66,7379096.83
"264820",264820,1989,7,"wb","Waterbuck",1,-23.72,31.35,331799.78,7375798.35
"264828",264828,1989,7,"wb","Waterbuck",2,-23.74,31.36,332844.89,7373595.31
"264829",264829,1989,7,"wb","Waterbuck",1,-23.74,31.36,332844.89,7373595.31
"264835",264835,1989,7,"wb","Waterbuck",1,-23.72,31.36,332819.37,7375810.13
"264840",264840,1989,8,"wb","Waterbuck",3,-23.52,31.41,337670.92,7398015.47
"264845",264845,1989,8,"wb","Waterbuck",4,-23.53,31.38,334620.06,7396873.84
"264864",264864,1989,8,"wb","Waterbuck",1,-23.53,31.37,333599,7396862.28
"264870",264870,1989,8,"wb","Waterbuck",4,-23.52,31.41,337670.92,7398015.47
"264871",264871,1989,8,"wb","Waterbuck",4,-23.51,31.4,336637.46,7399111.49
"264872",264872,1989,8,"wb","Waterbuck",3,-23.51,31.4,336637.46,7399111.49
"264904",264904,1989,8,"wb","Waterbuck",6,-23.51,31.39,335616.26,7399100.08
"264907",264907,1989,8,"wb","Waterbuck",7,-23.5,31.4,336625.13,7400218.86
"264913",264913,1989,8,"wb","Waterbuck",1,-23.5,31.39,335603.85,7400207.45
"264936",264936,1989,8,"wb","Waterbuck",3,-23.5,31.36,332540,7400172.79
"264937",264937,1989,8,"wb","Waterbuck",4,-23.5,31.36,332540,7400172.79
"264945",264945,1989,8,"wb","Waterbuck",14,-23.49,31.38,334570.08,7401303.34
"264950",264950,1989,8,"wb","Waterbuck",6,-23.5,31.36,332540,7400172.79
"265005",265005,1989,8,"wb","Waterbuck",2,-23.48,31.32,328428.92,7402340.37
"265021",265021,1989,8,"wb","Waterbuck",1,-23.47,31.33,329437.52,7403459.65
"265026",265026,1989,8,"wb","Waterbuck",2,-23.46,31.33,329424.66,7404567.04
"265071",265071,1989,8,"wb","Waterbuck",2,-23.43,31.33,329386.12,7407889.19
"265150",265150,1989,9,"wb","Waterbuck",5,-23.63,31.15,311278.04,7385515.1
"265162",265162,1989,9,"wb","Waterbuck",2,-23.57,31.13,309150.45,7392133.45
"265282",265282,1989,9,"wb","Waterbuck",9,-23.5,31.1,305985.24,7399845.57
"266000",266000,1989,11,"wb","Waterbuck",2,-23.25,31.3,326086.21,7427786.2
"266003",266003,1989,11,"wb","Waterbuck",24,-23.24,31.31,327096.54,7428905.52
"266015",266015,1989,11,"wb","Waterbuck",10,-23.18,31.3,325995.52,7435537.76
"266031",266031,1989,11,"wb","Waterbuck",1,-23.21,31.28,323987.28,7432191.59
"266094",266094,1989,11,"wb","Waterbuck",3,-23.23,31.22,317873.09,7429902.84
"266101",266101,1989,11,"wb","Waterbuck",10,-23.22,31.21,316836.02,7430997.66
"266102",266102,1989,11,"wb","Waterbuck",4,-23.22,31.21,316836.02,7430997.66
"266164",266164,1989,12,"wb","Waterbuck",2,-23.18,30.98,293233.05,7435118.96
"266239",266239,1989,12,"wb","Waterbuck",1,-23.18,31.02,297328.59,7435175.26
"266299",266299,1989,12,"wb","Waterbuck",4,-23.21,31.07,302492.01,7431921.66
"266398",266398,1989,12,"wb","Waterbuck",1,-23.19,31.15,310652.71,7434243.01
"266429",266429,1989,12,"wb","Waterbuck",7,-23.24,31.17,312769.93,7428731.81
"266432",266432,1989,12,"wb","Waterbuck",1,-23.25,31.16,311760.61,7427611.45
"266466",266466,1989,13,"wb","Waterbuck",3,-23.84,31.6,357419.37,7362783.34
"266491",266491,1989,13,"wb","Waterbuck",1,-23.83,31.64,361483.01,7363930.34
"266513",266513,1989,13,"wb","Waterbuck",7,-23.8,31.62,359413.42,7367232.64
"266515",266515,1989,13,"wb","Waterbuck",10,-23.81,31.64,361461.77,7366144.98
"266573",266573,1989,13,"wb","Waterbuck",2,-23.76,31.63,360389.58,7371671.8
"266774",266774,1989,13,"wb","Waterbuck",5,-23.71,31.51,348101.16,7377085.57
"266777",266777,1989,13,"wb","Waterbuck",5,-23.71,31.49,346061.93,7377064.1
"266779",266779,1989,13,"wb","Waterbuck",5,-23.71,31.5,347081.55,7377074.87
"266791",266791,1989,13,"wb","Waterbuck",11,-23.7,31.52,349109.27,7378203.54
"266792",266792,1989,13,"wb","Waterbuck",3,-23.7,31.51,348089.58,7378192.92
"266794",266794,1989,13,"wb","Waterbuck",5,-23.7,31.5,347069.89,7378182.22
"266801",266801,1989,13,"wb","Waterbuck",1,-23.69,31.51,348078,7379300.27
"266802",266802,1989,13,"wb","Waterbuck",4,-23.69,31.5,347058.24,7379289.58
"266837",266837,1989,13,"wb","Waterbuck",1,-23.63,31.52,349028.88,7385954.95
"266941",266941,1989,14,"wb","Waterbuck",1,-23.6,31.45,341851.18,7389201.32
"266942",266942,1989,14,"wb","Waterbuck",9,-23.6,31.45,341851.18,7389201.32
"266984",266984,1989,14,"wb","Waterbuck",5,-23.5,31.48,344795.22,7400307.58
"266987",266987,1989,14,"wb","Waterbuck",5,-23.51,31.47,343785.77,7399189.4
"267113",267113,1989,15,"wb","Waterbuck",7,-23.33,31.5,346641.82,7419153.44
"267173",267173,1989,15,"wb","Waterbuck",2,-23.42,31.33,329373.29,7408996.57
"267175",267175,1989,15,"wb","Waterbuck",3,-23.41,31.35,331404.44,7410127.49
"267178",267178,1989,15,"wb","Waterbuck",5,-23.4,31.36,332413.83,7411246.51
"267180",267180,1989,15,"wb","Waterbuck",3,-23.4,31.34,330369.7,7411223.13
"267267",267267,1989,18,"wb","Waterbuck",12,-23.12,31.38,334111.65,7442275.14
"267546",267546,1989,18,"wb","Waterbuck",2,-23.21,31.52,348551.29,7432461.99
"267579",267579,1989,18,"wb","Waterbuck",1,-23.3,31.53,349675.72,7422506.81
"267588",267588,1989,18,"wb","Waterbuck",1,-23.23,31.55,351643.76,7430278.39
"267597",267597,1989,18,"wb","Waterbuck",1,-23.11,31.44,340244.9,7443449.42
"267619",267619,1989,18,"wb","Waterbuck",4,-23.11,31.44,340244.9,7443449.42
"267631",267631,1989,18,"wb","Waterbuck",7,-23.15,31.44,340292.28,7439020.21
"267645",267645,1989,18,"wb","Waterbuck",2,-23.14,31.45,341304.45,7440138.44
"267669",267669,1989,18,"wb","Waterbuck",6,-23.16,31.46,342351.87,7437934.7
"267676",267676,1989,18,"wb","Waterbuck",5,-23.16,31.47,343375.73,7437945.49
"267694",267694,1989,18,"wb","Waterbuck",3,-23.17,31.47,343387.36,7436838.2
"267696",267696,1989,18,"wb","Waterbuck",10,-23.17,31.48,344411.14,7436848.92
"267698",267698,1989,18,"wb","Waterbuck",1,-23.16,31.48,344399.58,7437956.21
"267699",267699,1989,18,"wb","Waterbuck",10,-23.17,31.48,344411.14,7436848.92
"267707",267707,1989,18,"wb","Waterbuck",3,-23.17,31.49,345434.92,7436859.58
"267708",267708,1989,18,"wb","Waterbuck",2,-23.16,31.49,345423.44,7437966.86
"267711",267711,1989,18,"wb","Waterbuck",5,-23.17,31.5,346458.69,7436870.16
"267713",267713,1989,18,"wb","Waterbuck",6,-23.18,31.5,346470.1,7435762.88
"267718",267718,1989,18,"wb","Waterbuck",2,-23.18,31.5,346470.1,7435762.88
"267725",267725,1989,18,"wb","Waterbuck",3,-23.19,31.51,347505.14,7434666.11
"267733",267733,1989,18,"wb","Waterbuck",9,-23.18,31.52,348517.49,7435783.84
"267739",267739,1989,18,"wb","Waterbuck",2,-23.2,31.53,349563.55,7433579.66
"267790",267790,1989,19,"wb","Waterbuck",4,-23.92,31.81,378883.23,7354120.5
"267796",267796,1989,19,"wb","Waterbuck",2,-23.89,31.76,373764.62,7357398.64
"267804",267804,1989,19,"wb","Waterbuck",2,-23.91,31.79,376837.97,7355210.51
"267806",267806,1989,19,"wb","Waterbuck",8,-23.93,31.81,378892.55,7353013.21
"267825",267825,1989,19,"wb","Waterbuck",2,-23.94,31.83,380937.34,7351922.94
"267835",267835,1989,19,"wb","Waterbuck",3,-23.92,31.8,377865.34,7354111.89
"267839",267839,1989,19,"wb","Waterbuck",2,-23.91,31.78,375820,7355201.76
"267848",267848,1989,19,"wb","Waterbuck",1,-23.9,31.75,372756.27,7356282.38
"267877",267877,1989,19,"wb","Waterbuck",4,-23.96,31.82,379938.13,7349699.88
"267882",267882,1989,19,"wb","Waterbuck",1,-23.95,31.8,377893.57,7350790.01
"267899",267899,1989,19,"wb","Waterbuck",1,-23.96,31.8,377902.99,7349682.72
"267902",267902,1989,19,"wb","Waterbuck",3,-23.97,31.81,378929.9,7348584.04
"267907",267907,1989,19,"wb","Waterbuck",2,-23.97,31.81,378929.9,7348584.04
"267972",267972,1989,19,"wb","Waterbuck",2,-23.88,31.7,367645.59,7358451.11
"267989",267989,1989,19,"wb","Waterbuck",3,-23.9,31.71,368684.02,7356245.8
"268002",268002,1989,19,"wb","Waterbuck",4,-23.91,31.7,367676.13,7355129.16
"268178",268178,1989,1,"wb","Waterbuck",1,-23.86,31.58,355404.43,7360548.37
"268236",268236,1989,1,"wb","Waterbuck",5,-23.98,31.63,360625.34,7347310.44
"268254",268254,1989,1,"wb","Waterbuck",2,-23.99,31.65,362670.87,7346222.73
"268260",268260,1989,1,"wb","Waterbuck",2,-24,31.63,360646.88,7345095.73
"268363",268363,1989,1,"wb","Waterbuck",1,-23.98,31.67,364695.17,7347349.42
"268441",268441,1989,1,"wb","Waterbuck",1,-23.92,31.68,365650.48,7354002.96
"268486",268486,1989,1,"wb","Waterbuck",3,-23.9,31.65,362575.55,7356188.77
"268501",268501,1989,1,"wb","Waterbuck",2,-23.88,31.64,361536.17,7358393.69
"268536",268536,1989,1,"wb","Waterbuck",2,-23.83,31.63,360464.37,7363920.53
"268538",268538,1989,1,"wb","Waterbuck",7,-23.83,31.63,360464.37,7363920.53
"268539",268539,1989,1,"wb","Waterbuck",6,-23.84,31.63,360475.07,7362813.2
"268675",268675,1989,2,"wb","Waterbuck",1,-23.92,31.5,347327.43,7353820.1
"268740",268740,1989,2,"wb","Waterbuck",2,-23.89,31.53,350346.79,7357174.31
"268751",268751,1989,2,"wb","Waterbuck",2,-23.89,31.54,351364.99,7357184.86
"268763",268763,1989,2,"wb","Waterbuck",1,-23.87,31.55,352360.49,7359410.06
"268791",268791,1989,2,"wb","Waterbuck",3,-24.03,31.57,354576.73,7341712.94
"268793",268793,1989,2,"wb","Waterbuck",3,-24.02,31.56,353548.31,7342809.94
"268795",268795,1989,2,"wb","Waterbuck",3,-24.02,31.56,353548.31,7342809.94
"268796",268796,1989,2,"wb","Waterbuck",2,-24.01,31.56,353536.98,7343917.32
"268798",268798,1989,2,"wb","Waterbuck",2,-24.01,31.56,353536.98,7343917.32
"268815",268815,1989,2,"wb","Waterbuck",3,-24.01,31.54,351502.48,7343896.36
"268831",268831,1989,2,"wb","Waterbuck",3,-24.01,31.53,350485.22,7343885.78
"268854",268854,1989,2,"wb","Waterbuck",1,-24.03,31.52,349491.26,7341660.34
"268873",268873,1989,2,"wb","Waterbuck",3,-24.03,31.5,347457.04,7341638.79
"268874",268874,1989,2,"wb","Waterbuck",1,-24.01,31.5,347433.44,7343853.58
"268880",268880,1989,2,"wb","Waterbuck",5,-24,31.48,345386.94,7344939.16
"268887",268887,1989,2,"wb","Waterbuck",2,-24,31.46,343352.23,7344917.06
"268889",268889,1989,2,"wb","Waterbuck",1,-24.02,31.46,343376.46,7342702.24
"268897",268897,1989,2,"wb","Waterbuck",1,-24,31.43,340300.14,7344883.36
"268902",268902,1989,2,"wb","Waterbuck",4,-24.01,31.44,341329.78,7343787.25
"268903",268903,1989,2,"wb","Waterbuck",1,-24.02,31.43,340324.84,7342668.52
"268904",268904,1989,2,"wb","Waterbuck",5,-24.02,31.43,340324.84,7342668.52
"268920",268920,1989,2,"wb","Waterbuck",1,-24.04,31.43,340349.56,7340453.67
"268927",268927,1989,2,"wb","Waterbuck",4,-24.05,31.41,338327.98,7339323.38
"268932",268932,1989,2,"wb","Waterbuck",4,-24.03,31.39,336268.65,7341515.11
"269094",269094,1989,3,"wb","Waterbuck",2,-23.9,31.28,324904.24,7355779.79
"269407",269407,1989,3,"wb","Waterbuck",4,-23.96,31.31,328038.36,7349171.9
"269408",269408,1989,3,"wb","Waterbuck",3,-23.96,31.32,329056.09,7349184.05
"269421",269421,1989,3,"wb","Waterbuck",2,-23.96,31.36,333126.94,7349231.96
"269425",269425,1989,3,"wb","Waterbuck",1,-24.04,31.21,317973.57,7340186.32
"269430",269430,1989,3,"wb","Waterbuck",3,-24.03,31.21,317959.47,7341293.82
"269432",269432,1989,3,"wb","Waterbuck",1,-24.02,31.21,317945.38,7342401.33
"269438",269438,1989,3,"wb","Waterbuck",2,-24.04,31.22,318990.7,7340199.23
"269506",269506,1989,3,"wb","Waterbuck",5,-24.06,31.3,327154.38,7338084.98
"270048",270048,1989,4,"wb","Waterbuck",30,-23.79,31.33,329851.64,7368022.61
"270076",270076,1989,4,"wb","Waterbuck",1,-23.75,31.36,332857.65,7372487.9
"270093",270093,1989,4,"wb","Waterbuck",1,-23.77,31.34,330844.81,7370249.41
"270097",270097,1989,4,"wb","Waterbuck",1,-23.74,31.33,329786.59,7373559.74
"270157",270157,1989,4,"wb","Waterbuck",1,-23.71,31.27,323629.52,7376808.98
"270195",270195,1989,4,"wb","Waterbuck",1,-23.71,31.21,317511.29,7376733.39
"270525",270525,1989,5,"wb","Waterbuck",12,-23.81,31.57,354330.15,7366074.87
"270529",270529,1989,5,"wb","Waterbuck",2,-23.82,31.59,356378.78,7364987.92
"270547",270547,1989,5,"wb","Waterbuck",1,-23.76,31.38,334908.96,7371403.86
"270558",270558,1989,5,"wb","Waterbuck",2,-23.75,31.39,335915.69,7372522.84
"270574",270574,1989,5,"wb","Waterbuck",3,-23.77,31.46,343074.97,7370387.11
"270575",270575,1989,5,"wb","Waterbuck",1,-23.75,31.46,343050.98,7372601.86
"270603",270603,1989,20,"wb","Waterbuck",1,-24.12,31.26,323168.99,7331390.21
"270611",270611,1989,20,"wb","Waterbuck",4,-24.11,31.27,324171.8,7332510.28
"270635",270635,1989,20,"wb","Waterbuck",2,-24.11,31.3,327221.45,7332547.58
"270637",270637,1989,20,"wb","Waterbuck",1,-24.12,31.3,327234.88,7331440.1
"270639",270639,1989,20,"wb","Waterbuck",3,-24.12,31.31,328251.34,7331452.39
"270640",270640,1989,20,"wb","Waterbuck",1,-24.12,31.31,328251.34,7331452.39
"270651",270651,1989,20,"wb","Waterbuck",3,-24.1,31.32,329241.27,7333679.56
"270667",270667,1989,20,"wb","Waterbuck",7,-24.11,31.32,329254.53,7332572.09
"270668",270668,1989,20,"wb","Waterbuck",1,-24.11,31.32,329254.53,7332572.09
"270674",270674,1989,20,"wb","Waterbuck",2,-24.11,31.33,330271.07,7332584.23
"270677",270677,1989,20,"wb","Waterbuck",1,-24.11,31.33,330271.07,7332584.23
"270691",270691,1989,20,"wb","Waterbuck",1,-24.09,31.35,332278.08,7334823.22
"270697",270697,1989,20,"wb","Waterbuck",1,-24.11,31.35,332304.13,7332608.3
"270730",270730,1989,20,"wb","Waterbuck",1,-24.11,31.37,334337.18,7332632.08
"270758",270758,1989,20,"wb","Waterbuck",4,-24.08,31.38,335315.33,7335966.21
"270792",270792,1989,20,"wb","Waterbuck",7,-24.11,31.39,336370.21,7332655.56
"270794",270794,1989,20,"wb","Waterbuck",7,-24.1,31.39,336357.5,7333763.01
"270801",270801,1989,20,"wb","Waterbuck",3,-24.09,31.4,337361.46,7334882.08
"270855",270855,1989,20,"wb","Waterbuck",1,-24.08,31.42,339382.32,7336012.56
"270860",270860,1989,20,"wb","Waterbuck",2,-24.07,31.43,340386.68,7337131.39
"270861",270861,1989,20,"wb","Waterbuck",1,-24.08,31.43,340399.06,7336023.96
"270936",270936,1989,20,"wb","Waterbuck",1,-24.04,31.48,345434.79,7340509.55
"270968",270968,1989,20,"wb","Waterbuck",3,-24.06,31.49,346475.62,7338305.7
"270973",270973,1989,20,"wb","Waterbuck",2,-24.08,31.48,345482.71,7336079.91
"271016",271016,1989,20,"wb","Waterbuck",2,-24.07,31.52,349537.9,7337230.76
"271036",271036,1989,20,"wb","Waterbuck",2,-24.05,31.54,351548.45,7339466.82
"271041",271041,1989,20,"wb","Waterbuck",5,-24.05,31.55,352565.39,7339477.35
"271042",271042,1989,20,"wb","Waterbuck",3,-24.06,31.55,352576.82,7338369.96
"271050",271050,1989,20,"wb","Waterbuck",2,-24.06,31.55,352576.82,7338369.96
"271054",271054,1989,20,"wb","Waterbuck",2,-24.05,31.56,353582.33,7339487.8
"271057",271057,1989,20,"wb","Waterbuck",1,-24.04,31.56,353570.98,7340595.18
"271063",271063,1989,20,"wb","Waterbuck",5,-24.05,31.56,353582.33,7339487.8
"271064",271064,1989,20,"wb","Waterbuck",1,-24.06,31.56,353593.67,7338380.42
"271073",271073,1989,20,"wb","Waterbuck",7,-24.06,31.57,354610.53,7338390.8
"271074",271074,1989,20,"wb","Waterbuck",8,-24.05,31.57,354599.26,7339498.18
"271076",271076,1989,20,"wb","Waterbuck",1,-24.04,31.57,354587.99,7340605.56
"271078",271078,1989,20,"wb","Waterbuck",5,-24.05,31.58,355616.19,7339508.49
"271080",271080,1989,20,"wb","Waterbuck",13,-24.06,31.58,355627.38,7338401.12
"271091",271091,1989,20,"wb","Waterbuck",7,-24.07,31.59,356655.34,7337303.98
"271109",271109,1989,20,"wb","Waterbuck",3,-24.04,31.61,358656.01,7340646.35
"271119",271119,1989,20,"wb","Waterbuck",2,-24.02,31.62,359651.28,7342871.09
"271128",271128,1989,20,"wb","Waterbuck",2,-24.04,31.63,360690,7340666.31
"271133",271133,1989,20,"wb","Waterbuck",2,-24.03,31.63,360679.21,7341773.67
"271134",271134,1989,20,"wb","Waterbuck",5,-24.02,31.63,360668.43,7342881.03
"271136",271136,1989,20,"wb","Waterbuck",4,-24.03,31.64,361696.28,7341783.54
"271139",271139,1989,20,"wb","Waterbuck",4,-24.05,31.63,360700.79,7339558.95
"271159",271159,1989,20,"wb","Waterbuck",15,-24.09,31.64,361760.59,7335139.39
"271161",271161,1989,20,"wb","Waterbuck",2,-24.09,31.65,362777.18,7335149.21
"271173",271173,1989,20,"wb","Waterbuck",1,-24.03,31.66,363730.41,7341803.06
"271175",271175,1989,20,"wb","Waterbuck",3,-24.02,31.67,364737,7342920.06
"271185",271185,1989,20,"wb","Waterbuck",7,-24.09,31.66,363793.77,7335158.95
"271352",271352,1989,21,"wb","Waterbuck",3,-24.21,31.55,352748.74,7321759.02
"271376",271376,1989,21,"wb","Waterbuck",3,-24.22,31.6,357838.16,7320703.43
"272013",272013,1989,22,"wb","Waterbuck",3,-24.37,31.48,345832.38,7303964.38
"272014",272014,1989,22,"wb","Waterbuck",5,-24.37,31.48,345832.38,7303964.38
"272026",272026,1989,22,"wb","Waterbuck",3,-24.39,31.48,345856.64,7301749.47
"272195",272195,1989,22,"wb","Waterbuck",2,-24.35,31.57,354939.22,7306276.22
"272198",272198,1989,22,"wb","Waterbuck",6,-24.37,31.57,354962.03,7304061.38
"272223",272223,1989,23,"wb","Waterbuck",7,-24.05,31.66,363751.51,7339588.36
"272227",272227,1989,23,"wb","Waterbuck",4,-24.05,31.67,364768.42,7339598.02
"272264",272264,1989,23,"wb","Waterbuck",1,-24.08,31.7,367849.85,7336304.54
"272273",272273,1989,23,"wb","Waterbuck",2,-24.08,31.68,365816.53,7336285.57
"272316",272316,1989,23,"wb","Waterbuck",2,-24.1,31.65,362787.83,7334041.85
"272337",272337,1989,23,"wb","Waterbuck",2,-24.11,31.71,368897.04,7332991.89
"272541",272541,1989,23,"wb","Waterbuck",2,-24.24,31.68,365983.63,7318567.82
"272562",272562,1989,23,"wb","Waterbuck",1,-24.25,31.71,369040.04,7317488.95
"272587",272587,1989,24,"wb","Waterbuck",12,-24.39,31.71,369183.81,7301985.74
"272588",272588,1989,24,"wb","Waterbuck",5,-24.39,31.7,368169.62,7301976.27
"272599",272599,1989,24,"wb","Waterbuck",1,-24.39,31.67,365127.02,7301947.43
"272616",272616,1989,24,"wb","Waterbuck",1,-24.39,31.59,357013.31,7301867.3
"272626",272626,1989,24,"wb","Waterbuck",5,-24.38,31.7,368159.25,7303083.65
"272629",272629,1989,24,"wb","Waterbuck",3,-24.38,31.71,369173.52,7303093.12
"272630",272630,1989,24,"wb","Waterbuck",3,-24.38,31.71,369173.52,7303093.12
"272681",272681,1989,24,"wb","Waterbuck",1,-24.37,31.67,365105.8,7304162.21
"272682",272682,1989,24,"wb","Waterbuck",1,-24.37,31.67,365105.8,7304162.21
"272729",272729,1989,24,"wb","Waterbuck",2,-24.35,31.68,366099.11,7306386.67
"272734",272734,1989,24,"wb","Waterbuck",3,-24.35,31.68,366099.11,7306386.67
"272740",272740,1989,24,"wb","Waterbuck",1,-24.35,31.66,364070.06,7306367.24
"272783",272783,1989,24,"wb","Waterbuck",4,-24.32,31.6,357949.4,7309629.44
"272841",272841,1989,24,"wb","Waterbuck",1,-24.31,31.58,355908.53,7310716.28
"272982",272982,1989,25,"wb","Waterbuck",1,-23.96,31.88,386043.51,7349749.66
"272983",272983,1989,25,"wb","Waterbuck",5,-23.97,31.88,386052.3,7348642.38
"272986",272986,1989,25,"wb","Waterbuck",4,-23.99,31.88,386069.9,7346427.82
"272989",272989,1989,25,"wb","Waterbuck",1,-24.01,31.88,386087.51,7344213.26
"272995",272995,1989,25,"wb","Waterbuck",2,-24.05,31.89,387139.62,7339792.18
"272997",272997,1989,25,"wb","Waterbuck",1,-24.06,31.89,387148.36,7338684.89
"273066",273066,1989,25,"wb","Waterbuck",9,-24.02,31.87,385079.23,7343097.84
"273069",273069,1989,25,"wb","Waterbuck",3,-24.01,31.87,385070.35,7344205.13
"273071",273071,1989,25,"wb","Waterbuck",3,-24,31.87,385061.46,7345312.41
"273074",273074,1989,25,"wb","Waterbuck",6,-23.99,31.87,385052.58,7346419.7
"273077",273077,1989,25,"wb","Waterbuck",4,-23.98,31.87,385043.7,7347526.98
"273083",273083,1989,25,"wb","Waterbuck",4,-24.01,31.87,385070.35,7344205.13
"273084",273084,1989,25,"wb","Waterbuck",2,-24.01,31.87,385070.35,7344205.13
"273088",273088,1989,25,"wb","Waterbuck",4,-24.03,31.87,385088.13,7341990.56
"273089",273089,1989,25,"wb","Waterbuck",7,-24.04,31.87,385097.02,7340883.27
"273332",273332,1989,25,"wb","Waterbuck",5,-24,31.75,372854.36,7345209.28
"273334",273334,1989,25,"wb","Waterbuck",2,-24.01,31.76,373881.38,7344110.96
"273358",273358,1989,25,"wb","Waterbuck",4,-24.02,31.74,371856.9,7342985.57
"273644",273644,1989,26,"wb","Waterbuck",13,-24.3,31.77,375180.71,7312007.24
"273658",273658,1989,26,"wb","Waterbuck",6,-24.4,31.77,375278.74,7300933.64
"273689",273689,1989,26,"wb","Waterbuck",3,-24.32,31.77,375200.29,7309792.53
"273705",273705,1989,26,"wb","Waterbuck",3,-24.41,31.8,378330.61,7299852.94
"273706",273706,1989,26,"wb","Waterbuck",2,-24.4,31.8,378321.02,7300960.3
"273711",273711,1989,26,"wb","Waterbuck",6,-24.4,31.79,377306.93,7300951.48
"273712",273712,1989,26,"wb","Waterbuck",6,-24.4,31.79,377306.93,7300951.48
"273739",273739,1989,26,"wb","Waterbuck",2,-24.35,31.79,377258.67,7306488.27
"273746",273746,1989,26,"wb","Waterbuck",1,-24.38,31.79,377287.62,7303166.2
"273748",273748,1989,26,"wb","Waterbuck",1,-24.38,31.8,378301.87,7303175.01
"273749",273749,1989,26,"wb","Waterbuck",2,-24.38,31.8,378301.87,7303175.01
"273753",273753,1989,26,"wb","Waterbuck",3,-24.39,31.8,378311.44,7302067.65
"273770",273770,1989,26,"wb","Waterbuck",5,-24.37,31.81,379306.62,7304291.1
"273773",273773,1989,26,"wb","Waterbuck",14,-24.38,31.81,379316.12,7303183.74
"273783",273783,1989,26,"wb","Waterbuck",3,-24.38,31.82,380330.36,7303192.4
"273792",273792,1989,26,"wb","Waterbuck",6,-24.32,31.81,379259.21,7309827.84
"273795",273795,1989,26,"wb","Waterbuck",15,-24.31,31.81,379249.74,7310935.18
"273893",273893,1989,26,"wb","Waterbuck",4,-24.31,31.81,379249.74,7310935.18
"273898",273898,1989,26,"wb","Waterbuck",3,-24.28,31.84,382266.47,7314282.88
"273906",273906,1989,26,"wb","Waterbuck",9,-24.28,31.84,382266.47,7314282.88
"273927",273927,1989,26,"wb","Waterbuck",2,-24.31,31.84,382294.14,7310960.88
"273933",273933,1989,26,"wb","Waterbuck",14,-24.31,31.84,382294.14,7310960.88
"273938",273938,1989,26,"wb","Waterbuck",2,-24.3,31.87,385329.54,7312093.26
"273941",273941,1989,26,"wb","Waterbuck",3,-24.3,31.87,385329.54,7312093.26
"273944",273944,1989,26,"wb","Waterbuck",8,-24.31,31.86,384323.74,7310977.66
"273952",273952,1989,26,"wb","Waterbuck",9,-24.33,31.85,383327.25,7308754.64
"273968",273968,1989,26,"wb","Waterbuck",3,-24.31,31.88,386353.32,7310994.14
"273969",273969,1989,26,"wb","Waterbuck",2,-24.31,31.88,386353.32,7310994.14
"274004",274004,1989,26,"wb","Waterbuck",1,-24.35,31.88,386388.99,7306564.83
"274005",274005,1989,26,"wb","Waterbuck",1,-24.35,31.88,386388.99,7306564.83
"274012",274012,1989,26,"wb","Waterbuck",8,-24.37,31.87,385392.54,7304341.94
"274105",274105,1989,27,"wb","Waterbuck",2,-24.29,31.96,394455.01,7313271.75
"274135",274135,1989,27,"wb","Waterbuck",1,-24.23,31.92,390343.81,7319884.7
"274150",274150,1989,27,"wb","Waterbuck",6,-24.3,31.97,395478.13,7312171.99
"274151",274151,1989,27,"wb","Waterbuck",2,-24.31,31.97,395486.32,7311064.69
"274208",274208,1989,27,"wb","Waterbuck",2,-24.27,31.92,390378.1,7315455.47
"274308",274308,1989,27,"wb","Waterbuck",2,-24.33,31.94,392458.88,7308827.21
"274326",274326,1989,27,"wb","Waterbuck",9,-24.3,31.91,389389,7312125.63
"274388",274388,1989,27,"wb","Waterbuck",1,-24.34,31.93,391452.79,7307712.12
"274395",274395,1989,27,"wb","Waterbuck",17,-24.36,31.92,390455.46,7305489.63
"274398",274398,1989,27,"wb","Waterbuck",8,-24.36,31.92,390455.46,7305489.63
"274420",274420,1989,27,"wb","Waterbuck",10,-24.3,31.88,386344.41,7312101.46
"274424",274424,1989,27,"wb","Waterbuck",7,-24.29,31.87,385320.55,7313200.59
"274441",274441,1989,27,"wb","Waterbuck",1,-24.32,31.98,396509.21,7309964.86
"274510",274510,1989,27,"wb","Waterbuck",6,-24.35,31.97,395519.13,7306635.46
"274511",274511,1989,27,"wb","Waterbuck",1,-24.35,31.97,395519.13,7306635.46
"274514",274514,1989,27,"wb","Waterbuck",1,-24.37,31.98,396549.84,7304428.33
"274521",274521,1989,27,"wb","Waterbuck",1,-24.42,31.98,396590.56,7298891.77
"274534",274534,1989,27,"wb","Waterbuck",3,-24.41,31.97,395568.44,7299991.59
"274546",274546,1989,27,"wb","Waterbuck",1,-24.33,31.97,395502.72,7308850.08
"274558",274558,1989,27,"wb","Waterbuck",2,-24.36,31.96,394512.97,7305520.6
"274569",274569,1989,27,"wb","Waterbuck",6,-24.42,31.96,394562.77,7298876.7
"274574",274574,1989,27,"wb","Waterbuck",1,-24.42,31.96,394562.77,7298876.7
"274589",274589,1989,27,"wb","Waterbuck",6,-24.36,31.95,393498.6,7305512.96
"274603",274603,1989,27,"wb","Waterbuck",6,-24.38,31.94,392501.13,7303290.62
"274607",274607,1989,27,"wb","Waterbuck",6,-24.39,31.95,393523.72,7302191.01
"274634",274634,1989,28,"wb","Waterbuck",1,-24.41,31.79,377316.6,7299844.12
"274653",274653,1989,28,"wb","Waterbuck",1,-24.42,31.8,378340.2,7298745.58
"274656",274656,1989,28,"wb","Waterbuck",1,-24.41,31.8,378330.61,7299852.94
"274657",274657,1989,28,"wb","Waterbuck",2,-24.39,31.81,379325.61,7302076.39
"274674",274674,1989,28,"wb","Waterbuck",2,-24.39,31.82,380339.78,7302085.05
"274677",274677,1989,28,"wb","Waterbuck",3,-24.39,31.82,380339.78,7302085.05
"274699",274699,1989,28,"wb","Waterbuck",4,-24.4,31.82,380349.2,7300977.7
"274756",274756,1989,28,"wb","Waterbuck",1,-24.38,31.89,387430.02,7303250.98
"274793",274793,1989,28,"wb","Waterbuck",2,-24.38,31.91,389458.47,7303267.05
"274814",274814,1989,28,"wb","Waterbuck",5,-24.4,31.93,391503.99,7301068.19
"274843",274843,1989,28,"wb","Waterbuck",2,-24.4,31.94,392518.05,7301075.98
"274860",274860,1989,28,"wb","Waterbuck",18,-24.43,31.96,394571.09,7297769.37
"274875",274875,1989,28,"wb","Waterbuck",1,-24.5,31.96,394629.36,7290018.08
"274884",274884,1989,28,"wb","Waterbuck",1,-24.49,31.96,394621.03,7291125.41
"274885",274885,1989,28,"wb","Waterbuck",5,-24.48,31.96,394612.69,7292232.74
"274887",274887,1989,28,"wb","Waterbuck",1,-24.47,31.97,395617.86,7293347.66
"274888",274888,1989,28,"wb","Waterbuck",8,-24.46,31.97,395609.61,7294454.98
"274889",274889,1989,28,"wb","Waterbuck",5,-24.46,31.97,395609.61,7294454.98
"274917",274917,1989,28,"wb","Waterbuck",2,-24.52,31.87,385528.12,7287731.75
"274937",274937,1989,28,"wb","Waterbuck",4,-24.57,31.9,388611.61,7282219.53
"274960",274960,1989,28,"wb","Waterbuck",4,-24.53,31.91,389589.3,7286656.99
"275001",275001,1989,28,"wb","Waterbuck",5,-24.51,31.92,390584.99,7288879.64
"275021",275021,1989,28,"wb","Waterbuck",1,-24.55,31.93,391632.52,7284458.15
"275027",275027,1989,28,"wb","Waterbuck",3,-24.57,31.93,391649.71,7282243.46
"275131",275131,1989,28,"wb","Waterbuck",9,-24.51,31.96,394637.7,7288910.75
"275138",275138,1989,28,"wb","Waterbuck",1,-24.53,31.96,394654.38,7286696.08
"275611",275611,1989,30,"wb","Waterbuck",1,-24.47,32,398658.32,7293369.97
"275681",275681,1989,30,"wb","Waterbuck",1,-24.55,31.99,397709.63,7284503.99
"275694",275694,1989,30,"wb","Waterbuck",3,-24.49,31.99,397661.02,7291147.96
"275698",275698,1989,30,"wb","Waterbuck",3,-24.48,31.99,397652.92,7292255.28
"275703",275703,1989,30,"wb","Waterbuck",2,-24.45,31.99,397628.67,7295577.24
"275728",275728,1989,30,"wb","Waterbuck",1,-24.5,31.99,397669.11,7290040.63
"275729",275729,1989,30,"wb","Waterbuck",1,-24.5,31.99,397669.11,7290040.63
"275730",275730,1989,30,"wb","Waterbuck",1,-24.51,31.99,397677.21,7288933.31
"275742",275742,1989,30,"wb","Waterbuck",3,-24.54,31.99,397701.52,7285611.32
"275849",275849,1989,30,"wb","Waterbuck",3,-24.5,31.98,396655.86,7290033.19
"275854",275854,1989,30,"wb","Waterbuck",2,-24.49,31.98,396647.69,7291140.52
"275864",275864,1989,30,"wb","Waterbuck",1,-24.45,31.97,395601.37,7295562.31
"275866",275866,1989,30,"wb","Waterbuck",2,-24.46,31.97,395609.61,7294454.98
"275874",275874,1989,30,"wb","Waterbuck",5,-24.49,31.97,395634.36,7291133
"275877",275877,1989,30,"wb","Waterbuck",1,-24.5,31.97,395642.61,7290025.67
"275882",275882,1989,30,"wb","Waterbuck",2,-24.51,31.97,395650.87,7288918.34
"276006",276006,1989,30,"wb","Waterbuck",10,-24.5,31.97,395642.61,7290025.67
"276125",276125,1989,30,"wb","Waterbuck",1,-24.74,31.99,397864.3,7263464.41
"276129",276129,1989,30,"wb","Waterbuck",2,-24.75,31.99,397872.47,7262357.05
"276139",276139,1989,30,"wb","Waterbuck",1,-24.77,31.99,397888.82,7260142.33
"276160",276160,1989,30,"wb","Waterbuck",1,-24.71,31.98,396828.24,7266778.99
"276171",276171,1989,30,"wb","Waterbuck",2,-24.77,31.97,395866.68,7260127.24
"276172",276172,1989,30,"wb","Waterbuck",1,-24.77,31.97,395866.68,7260127.24
"276177",276177,1989,30,"wb","Waterbuck",2,-24.78,31.96,394864.03,7259012.22
"276181",276181,1989,30,"wb","Waterbuck",3,-24.77,31.96,394855.6,7260119.59
"276221",276221,1989,30,"wb","Waterbuck",1,-24.77,31.95,393844.53,7260111.86
"276224",276224,1989,30,"wb","Waterbuck",8,-24.77,31.95,393844.53,7260111.86
"276225",276225,1989,30,"wb","Waterbuck",1,-24.78,31.95,393853.03,7259004.49
"276236",276236,1989,30,"wb","Waterbuck",2,-24.78,31.95,393853.03,7259004.49
"276242",276242,1989,30,"wb","Waterbuck",2,-24.77,31.93,391822.36,7260096.18
"276245",276245,1989,30,"wb","Waterbuck",1,-24.76,31.93,391813.7,7261203.56
"276247",276247,1989,30,"wb","Waterbuck",4,-24.76,31.93,391813.7,7261203.56
"276295",276295,1989,30,"wb","Waterbuck",3,-24.78,31.91,389809.02,7258972.83
"276333",276333,1989,30,"wb","Waterbuck",5,-24.76,31.91,389791.37,7261187.59
"276334",276334,1989,30,"wb","Waterbuck",3,-24.77,31.91,389800.19,7260080.21
"276337",276337,1989,30,"wb","Waterbuck",7,-24.78,31.9,388798.02,7258964.73
"276341",276341,1989,30,"wb","Waterbuck",5,-24.78,31.91,389809.02,7258972.83
"276344",276344,1989,30,"wb","Waterbuck",12,-24.79,31.91,389817.86,7257865.44
"276347",276347,1989,30,"wb","Waterbuck",3,-24.79,31.91,389817.86,7257865.44
"276348",276348,1989,30,"wb","Waterbuck",4,-24.79,31.91,389817.86,7257865.44
"276352",276352,1989,30,"wb","Waterbuck",6,-24.77,31.9,388789.11,7260072.12
"276354",276354,1989,30,"wb","Waterbuck",6,-24.76,31.89,387769.03,7261171.33
"276356",276356,1989,30,"wb","Waterbuck",9,-24.76,31.89,387769.03,7261171.33
"276400",276400,1989,31,"wb","Waterbuck",1,-24.43,31.76,374294.37,7297602.5
"276558",276558,1989,31,"wb","Waterbuck",1,-24.48,31.71,369276.65,7292019.24
"276687",276687,1989,31,"wb","Waterbuck",4,-24.59,31.76,374453.47,7279884.34
"276706",276706,1989,31,"wb","Waterbuck",3,-24.59,31.75,373440.89,7279875.18
"277307",277307,1989,32,"wb","Waterbuck",2,-24.41,31.57,355007.69,7299631.68
"277563",277563,1989,33,"wb","Waterbuck",1,-24.63,31.67,365383.01,7275369.58
"277573",277573,1989,33,"wb","Waterbuck",1,-24.64,31.66,364381.53,7274252.32
"277594",277594,1989,33,"wb","Waterbuck",2,-24.67,31.62,360366.1,7270889.91
"277615",277615,1989,33,"wb","Waterbuck",30,-24.7,31.65,363434.69,7267597.78
"277617",277617,1989,33,"wb","Waterbuck",7,-24.7,31.64,362422.97,7267587.78
"277624",277624,1989,33,"wb","Waterbuck",2,-24.71,31.63,361422.32,7266470.25
"277627",277627,1989,33,"wb","Waterbuck",10,-24.71,31.65,363445.6,7266490.33
"277630",277630,1989,33,"wb","Waterbuck",12,-24.72,31.65,363456.51,7265382.89
"277645",277645,1989,33,"wb","Waterbuck",30,-24.72,31.64,362444.95,7265372.88
"277646",277646,1989,33,"wb","Waterbuck",3,-24.72,31.65,363456.51,7265382.89
"277648",277648,1989,33,"wb","Waterbuck",7,-24.73,31.66,364478.9,7264285.38
"277649",277649,1989,33,"wb","Waterbuck",8,-24.73,31.66,364478.9,7264285.38
"277664",277664,1989,33,"wb","Waterbuck",4,-24.74,31.65,363478.35,7263168
"277668",277668,1989,33,"wb","Waterbuck",1,-24.75,31.65,363489.27,7262060.55
"277713",277713,1989,34,"wb","Waterbuck",1,-24.62,31.68,366384.65,7276486.76
"277840",277840,1989,34,"wb","Waterbuck",1,-24.68,31.66,364424.76,7269822.58
"277858",277858,1989,34,"wb","Waterbuck",1,-24.7,31.68,366469.83,7267627.33
"277859",277859,1989,34,"wb","Waterbuck",7,-24.69,31.67,365447.38,7268724.99
"277898",277898,1989,34,"wb","Waterbuck",3,-24.73,31.73,371559.14,7264352.85
"277909",277909,1989,34,"wb","Waterbuck",5,-24.77,31.86,384744.73,7260038.99
"277943",277943,1989,34,"wb","Waterbuck",2,-24.72,31.82,380652.58,7265541.68
"277947",277947,1989,34,"wb","Waterbuck",16,-24.72,31.81,379641.07,7265532.93
"277953",277953,1989,34,"wb","Waterbuck",5,-24.75,31.83,381692.48,7262228.17
"278247",278247,1989,35,"wb","Waterbuck",7,-24.95,31.59,357650.46,7239849.71
"278251",278251,1989,35,"wb","Waterbuck",2,-24.96,31.57,355642.71,7238721.09
"278451",278451,1989,35,"wb","Waterbuck",1,-24.95,31.73,371786.04,7239989.19
"278454",278454,1989,35,"wb","Waterbuck",9,-24.94,31.72,370765.93,7241087.17
"278474",278474,1989,35,"wb","Waterbuck",2,-24.93,31.72,370755.5,7242194.62
"278484",278484,1989,35,"wb","Waterbuck",3,-24.93,31.72,370755.5,7242194.62
"278501",278501,1989,35,"wb","Waterbuck",1,-24.92,31.73,371754.99,7243311.55
"278502",278502,1989,35,"wb","Waterbuck",3,-24.92,31.73,371754.99,7243311.55
"278516",278516,1989,35,"wb","Waterbuck",1,-24.91,31.68,366694.65,7244370.91
"278518",278518,1989,35,"wb","Waterbuck",1,-24.91,31.69,367704.65,7244380.68
"278521",278521,1989,35,"wb","Waterbuck",2,-24.91,31.71,369724.65,7244399.99
"278523",278523,1989,35,"wb","Waterbuck",2,-24.91,31.73,371744.64,7244419
"278554",278554,1989,35,"wb","Waterbuck",8,-24.89,31.74,372734.12,7246643.28
"278638",278638,1989,36,"wb","Waterbuck",12,-24.84,31.75,373693.47,7252189.78
"278641",278641,1989,36,"wb","Waterbuck",12,-24.82,31.75,373673.18,7254404.65
"278644",278644,1989,36,"wb","Waterbuck",21,-24.84,31.76,374704.03,7252199.01
"278701",278701,1989,36,"wb","Waterbuck",1,-24.83,31.8,378736.48,7253342.59
"278765",278765,1989,36,"wb","Waterbuck",3,-24.8,31.84,382750.73,7256699.77
"278774",278774,1989,36,"wb","Waterbuck",8,-24.78,31.85,383742.95,7258923.12
"278791",278791,1989,36,"wb","Waterbuck",1,-24.8,31.88,386794.15,7256733.52
"278849",278849,1989,36,"wb","Waterbuck",1,-24.8,31.87,385783.3,7256725.2
"278850",278850,1989,36,"wb","Waterbuck",9,-24.8,31.87,385783.3,7256725.2
"278913",278913,1989,36,"wb","Waterbuck",11,-24.83,31.83,381768.35,7253368.92
"278995",278995,1989,37,"wb","Waterbuck",8,-24.79,32,398916.09,7257935.03
"279025",279025,1989,37,"wb","Waterbuck",5,-24.79,31.99,397905.19,7257927.59
"279027",279027,1989,37,"wb","Waterbuck",5,-24.78,31.99,397897,7259034.96
"279028",279028,1989,37,"wb","Waterbuck",6,-24.79,31.99,397905.19,7257927.59
"279063",279063,1989,37,"wb","Waterbuck",3,-24.78,31.98,396886.01,7259027.45
"279065",279065,1989,37,"wb","Waterbuck",7,-24.77,31.98,396877.75,7260134.82
"279182",279182,1989,37,"wb","Waterbuck",4,-24.79,31.93,391839.7,7257881.43
"279184",279184,1989,37,"wb","Waterbuck",6,-24.79,31.93,391839.7,7257881.43
"279243",279243,1989,37,"wb","Waterbuck",7,-24.79,31.93,391839.7,7257881.43
"279261",279261,1989,37,"wb","Waterbuck",5,-24.82,31.92,390855.06,7254551.32
"279314",279314,1989,37,"wb","Waterbuck",4,-24.77,31.91,389800.19,7260080.21
"279316",279316,1989,37,"wb","Waterbuck",5,-24.77,31.91,389800.19,7260080.21
"279319",279319,1989,37,"wb","Waterbuck",1,-24.79,31.9,388806.93,7257857.34
"279323",279323,1989,37,"wb","Waterbuck",7,-24.8,31.9,388815.85,7256749.95
"279328",279328,1989,37,"wb","Waterbuck",1,-24.82,31.91,389844.37,7254543.28
"279353",279353,1989,37,"wb","Waterbuck",3,-24.79,31.9,388806.93,7257857.34
"279466",279466,1989,37,"wb","Waterbuck",1,-24.93,31.91,389941.87,7242361.91
"279489",279489,1989,37,"wb","Waterbuck",11,-24.95,31.99,398036.56,7240209.54
"279490",279490,1989,37,"wb","Waterbuck",9,-24.95,31.99,398036.56,7240209.54
"279500",279500,1989,37,"wb","Waterbuck",9,-24.97,31.99,398053.03,7237994.76
"279501",279501,1989,37,"wb","Waterbuck",12,-24.97,31.98,397043.59,7237987.21
"279523",279523,1989,37,"wb","Waterbuck",14,-25.02,31.96,395067.16,7232434.87
"279526",279526,1989,37,"wb","Waterbuck",1,-25.02,31.98,397085.24,7232450.21
"279529",279529,1989,37,"wb","Waterbuck",14,-25.03,31.99,398102.54,7231350.37
"279532",279532,1989,37,"wb","Waterbuck",2,-25.03,31.98,397093.58,7231342.81
"279534",279534,1989,37,"wb","Waterbuck",2,-25.03,31.97,396084.63,7231335.17
"279539",279539,1989,37,"wb","Waterbuck",8,-25.04,31.96,395084.18,7230220.05
"279553",279553,1989,37,"wb","Waterbuck",6,-25.05,31.98,397110.27,7229128
"279555",279555,1989,37,"wb","Waterbuck",4,-25.05,31.96,395092.69,7229112.64
"279559",279559,1989,37,"wb","Waterbuck",4,-25.05,31.98,397110.27,7229128
"279587",279587,1989,37,"wb","Waterbuck",5,-25.1,32.02,401185.56,7223620.82
"279588",279588,1989,37,"wb","Waterbuck",4,-25.1,32.02,401185.56,7223620.82
"279602",279602,1989,37,"wb","Waterbuck",7,-25.09,32.01,400169.07,7224720.87
"279605",279605,1989,37,"wb","Waterbuck",3,-25.1,32.01,400177.19,7223613.46
"279610",279610,1989,37,"wb","Waterbuck",6,-25.12,32.01,400193.43,7221398.64
"279630",279630,1989,37,"wb","Waterbuck",4,-25.11,32,399177.01,7222498.62
"279631",279631,1989,37,"wb","Waterbuck",3,-25.11,32,399177.01,7222498.62
"279665",279665,1989,37,"wb","Waterbuck",3,-25.12,31.99,398177,7221383.7
"279677",279677,1989,37,"wb","Waterbuck",1,-25.15,31.98,397193.91,7218053.86
"279693",279693,1989,37,"wb","Waterbuck",2,-25.11,31.98,397160.42,7222483.54
"279698",279698,1989,37,"wb","Waterbuck",1,-25.08,31.98,397135.33,7225805.77
"279703",279703,1989,37,"wb","Waterbuck",3,-25.06,31.97,396109.91,7228012.95
"279709",279709,1989,37,"wb","Waterbuck",5,-25.08,31.97,396126.78,7225798.13
"279742",279742,1989,37,"wb","Waterbuck",1,-25.08,31.96,395118.24,7225790.4
"279743",279743,1989,37,"wb","Waterbuck",6,-25.08,31.96,395118.24,7225790.4
"279745",279745,1989,37,"wb","Waterbuck",12,-25.11,31.96,395143.81,7222468.15
"279780",279780,1989,38,"wb","Waterbuck",9,-24.94,31.75,373795.17,7241115.37
"279793",279793,1989,38,"wb","Waterbuck",5,-24.9,31.75,373754.45,7245545.15
"279822",279822,1989,38,"wb","Waterbuck",5,-24.9,31.75,373754.45,7245545.15
"279868",279868,1989,38,"wb","Waterbuck",2,-24.95,31.79,377843.99,7240044.5
"279993",279993,1989,38,"wb","Waterbuck",5,-24.99,31.91,389995.21,7235717.45
"280014",280014,1989,38,"wb","Waterbuck",9,-25.01,31.92,391022.15,7233510.7
"280046",280046,1989,38,"wb","Waterbuck",7,-25.01,31.8,378912.42,7233408.82
"280134",280134,1989,38,"wb","Waterbuck",17,-25.04,31.88,387013.09,7230155.65
"280140",280140,1989,38,"wb","Waterbuck",11,-25.1,31.9,389084.93,7223527.63
"280187",280187,1989,39,"wb","Waterbuck",10,-25.12,31.27,325579.06,7220646.63
"280209",280209,1989,39,"wb","Waterbuck",5,-25.09,31.27,325536.48,7223969.51
"280386",280386,1989,39,"wb","Waterbuck",2,-25,31.28,326418.42,7233950.93
"280408",280408,1989,39,"wb","Waterbuck",1,-24.99,31.28,326404.36,7235058.53
"280493",280493,1989,39,"wb","Waterbuck",6,-25.1,31.25,323533.51,7222835.89
"280539",280539,1989,40,"wb","Waterbuck",7,-25.18,31.36,334735.49,7214114.37
"280611",280611,1989,40,"wb","Waterbuck",3,-25.18,31.33,331711.81,7214077.2
"280627",280627,1989,40,"wb","Waterbuck",5,-25.19,31.32,330717.74,7212957.04
"280628",280628,1989,40,"wb","Waterbuck",2,-25.19,31.32,330717.74,7212957.04
"280630",280630,1989,40,"wb","Waterbuck",3,-25.2,31.32,330731.57,7211849.42
"280745",280745,1989,40,"wb","Waterbuck",5,-25.22,31.24,322698.57,7209531.04
"280761",280761,1989,40,"wb","Waterbuck",3,-25.2,31.22,320654.04,7211719.82
"280921",280921,1989,40,"wb","Waterbuck",8,-25.34,31.28,326899.38,7196291.44
"280929",280929,1989,40,"wb","Waterbuck",1,-25.26,31.27,325778.41,7205139.69
"280987",280987,1989,41,"wb","Waterbuck",3,-25.16,31.41,339748.73,7216389.99
"281001",281001,1989,41,"wb","Waterbuck",2,-25.14,31.41,339722.6,7218605.16
"281006",281006,1989,41,"wb","Waterbuck",7,-25.16,31.42,340756.77,7216401.85
"281069",281069,1989,41,"wb","Waterbuck",5,-25.13,31.48,346767.45,7219794.1
"281079",281079,1989,41,"wb","Waterbuck",8,-25.15,31.51,349816.69,7217612.76
"281089",281089,1989,41,"wb","Waterbuck",8,-25.11,31.48,346742.49,7222009.21
"281090",281090,1989,41,"wb","Waterbuck",15,-25.11,31.49,347750.92,7222020.53
"281096",281096,1989,41,"wb","Waterbuck",3,-25.11,31.5,348759.34,7222031.77
"281368",281368,1989,41,"wb","Waterbuck",4,-25.27,31.41,339892.81,7204206.48
"281380",281380,1989,41,"wb","Waterbuck",3,-25.28,31.43,341920.02,7203122.61
"281421",281421,1989,41,"wb","Waterbuck",1,-25.32,31.41,339958.49,7198668.47
"281422",281422,1989,41,"wb","Waterbuck",17,-25.3,31.42,340939.08,7200895.59
"281433",281433,1989,41,"wb","Waterbuck",5,-25.31,31.38,336924.94,7199739.9
"281528",281528,1989,41,"wb","Waterbuck",3,-25.33,31.39,337958.37,7197536.81
"281530",281530,1989,41,"wb","Waterbuck",11,-25.33,31.39,337958.37,7197536.81
"281577",281577,1989,42,"wb","Waterbuck",4,-25.17,31.57,355888.68,7215463.21
"281589",281589,1989,42,"wb","Waterbuck",2,-25.16,31.52,350836.94,7216516.32
"281590",281590,1989,42,"wb","Waterbuck",2,-25.16,31.55,353860.94,7216549.2
"281724",281724,1989,42,"wb","Waterbuck",1,-25.18,31.53,351869.12,7214312.26
"282394",282394,1989,43,"wb","Waterbuck",10,-24.99,31.41,339527.23,7235218.72
"282414",282414,1989,43,"wb","Waterbuck",1,-24.97,31.41,339501.27,7237433.83
"282715",282715,1989,44,"wb","Waterbuck",3,-25.18,31.72,371017.49,7214507.81
"282732",282732,1989,44,"wb","Waterbuck",1,-25.2,31.71,370030.93,7212283.2
"282740",282740,1989,44,"wb","Waterbuck",19,-25.2,31.71,370030.93,7212283.2
"282742",282742,1989,44,"wb","Waterbuck",6,-25.2,31.73,372046.17,7212302.38
"282955",282955,1989,44,"wb","Waterbuck",3,-25.37,31.85,384298.81,7193584.11
"282995",282995,1989,44,"wb","Waterbuck",1,-25.3,31.74,373157.69,7201236.9
"283068",283068,1989,44,"wb","Waterbuck",1,-25.21,31.65,363996.27,7211116.38
"283211",283211,1989,44,"wb","Waterbuck",4,-25.38,31.61,360161.24,7192247.17
"283255",283255,1989,44,"wb","Waterbuck",13,-25.43,31.62,361224.63,7186719.84
"283256",283256,1989,44,"wb","Waterbuck",3,-25.44,31.62,361236.09,7185612.29
"283383",283383,1989,44,"wb","Waterbuck",3,-25.42,31.65,364230.64,7187858.26
"283437",283437,1989,44,"wb","Waterbuck",4,-25.4,31.66,365214.22,7190083.48
"283438",283438,1989,44,"wb","Waterbuck",1,-25.4,31.66,365214.22,7190083.48
"283561",283561,1989,44,"wb","Waterbuck",2,-25.36,31.69,368188.73,7194543.53
"283593",283593,1989,44,"wb","Waterbuck",1,-25.35,31.69,368177.88,7195651.05
"283699",283699,1989,44,"wb","Waterbuck",5,-25.35,31.75,374216.16,7195708.82
"283704",283704,1989,44,"wb","Waterbuck",1,-25.33,31.74,373188.94,7197914.39
"283706",283706,1989,44,"wb","Waterbuck",5,-25.33,31.74,373188.94,7197914.39
"283707",283707,1989,44,"wb","Waterbuck",3,-25.32,31.74,373178.52,7199021.9
"283709",283709,1989,44,"wb","Waterbuck",2,-25.32,31.74,373178.52,7199021.9
"283763",283763,1989,45,"wb","Waterbuck",3,-25.16,31.89,388131.21,7216874.75
"284023",284023,1989,45,"wb","Waterbuck",2,-25.29,31.89,388250.09,7202477.86
"284029",284029,1989,45,"wb","Waterbuck",4,-25.31,31.87,386255.08,7200246.11
"284035",284035,1989,45,"wb","Waterbuck",3,-25.34,31.9,389302.38,7196948.84
"284112",284112,1989,45,"wb","Waterbuck",4,-25.15,31.89,388122.09,7217982.19
"284410",284410,1989,46,"wb","Waterbuck",2,-25.2,31.95,394213.16,7212493.49
"284412",284412,1989,46,"wb","Waterbuck",7,-25.2,31.95,394213.16,7212493.49
"284415",284415,1989,46,"wb","Waterbuck",13,-25.2,31.96,395220.72,7212501.31
"284421",284421,1989,46,"wb","Waterbuck",13,-25.21,31.95,394221.8,7211386.05
"284423",284423,1989,46,"wb","Waterbuck",1,-25.21,31.96,395229.28,7211393.88
"284515",284515,1989,46,"wb","Waterbuck",3,-25.31,31.95,394308.42,7200311.62
"284522",284522,1989,46,"wb","Waterbuck",7,-25.32,31.95,394317.09,7199204.16
"284525",284525,1989,46,"wb","Waterbuck",12,-25.31,31.93,392295.09,7200295.69
"284529",284529,1989,46,"wb","Waterbuck",1,-25.32,31.92,391297.36,7199180.16
"284533",284533,1989,46,"wb","Waterbuck",4,-25.32,31.94,393310.52,7199196.24
"284560",284560,1989,46,"wb","Waterbuck",8,-25.32,31.9,389284.19,7199163.77
"284612",284612,1989,46,"wb","Waterbuck",4,-25.18,32.02,401249.95,7214761.53
"284622",284622,1989,46,"wb","Waterbuck",4,-25.28,32.01,400323.8,7203679.9
"284635",284635,1989,46,"wb","Waterbuck",3,-25.36,32.01,400389.28,7194820.38
"284659",284659,1989,46,"wb","Waterbuck",3,-25.18,32.02,401249.95,7214761.53
"284662",284662,1989,46,"wb","Waterbuck",3,-25.19,32.01,400250.37,7213646.74
"284749",284749,1989,46,"wb","Waterbuck",4,-25.29,32,399325.16,7202564.99
"284754",284754,1989,46,"wb","Waterbuck",6,-25.28,32,399316.9,7203672.43
"284756",284756,1989,46,"wb","Waterbuck",4,-25.27,32,399308.65,7204779.86
"284822",284822,1989,46,"wb","Waterbuck",6,-25.19,31.99,398235.09,7213631.77
"284922",284922,1989,46,"wb","Waterbuck",1,-25.19,31.97,396219.81,7213616.49
"284950",284950,1989,46,"wb","Waterbuck",4,-25.17,31.96,395195.06,7215823.61
"284978",284978,1989,46,"wb","Waterbuck",1,-25.41,31.98,397412.83,7189260.43
"284998",284998,1989,46,"wb","Waterbuck",3,-25.38,31.98,397387.46,7192582.8
"284999",284999,1989,46,"wb","Waterbuck",6,-25.38,31.98,397387.46,7192582.8
"285001",285001,1989,46,"wb","Waterbuck",4,-25.37,31.99,398385.17,7193697.89
"285007",285007,1989,46,"wb","Waterbuck",6,-25.38,31.98,397387.46,7192582.8
"285021",285021,1989,56,"wb","Waterbuck",10,-25.32,31.43,341971.92,7198692.22
"285316",285316,1989,56,"wb","Waterbuck",9,-25.49,31.47,346214.49,7179909.66
"285329",285329,1989,56,"wb","Waterbuck",5,-25.5,31.43,342206.39,7178755.21
"285349",285349,1989,56,"wb","Waterbuck",5,-25.49,31.42,341188.03,7179850.94
"285433",285433,1989,56,"wb","Waterbuck",3,-25.44,31.48,347156.59,7185459.2
"285569",285569,1989,57,"wb","Waterbuck",1,-25.08,31.83,382006.91,7225683.2
"285579",285579,1989,57,"wb","Waterbuck",1,-25.07,31.8,378971.33,7226764.13
"285728",285728,1989,57,"wb","Waterbuck",2,-25.11,31.75,373968.95,7222288.55
"286297",286297,1989,60,"wb","Waterbuck",1,-24.96,31.72,370786.81,7238872.25
"286814",286814,1989,63,"wb","Waterbuck",1,-22.43,31.29,324010.78,7518574.57
"286934",286934,1989,64,"wb","Waterbuck",1,-22.42,31.26,320909.74,7519646.36
"286958",286958,1989,64,"wb","Waterbuck",1,-22.4,31.25,319854.46,7521848.97
