"","ID","Year","Cenb","Sp","Description","No","Lat","Long","X.coord","Y.coord"
"414135",414135,1997,33,"b","Buffalo",4,-25,31.27,325409.02,7233938.08
"414186",414186,1997,33,"b","Buffalo",100,-24.98,31.31,329418.96,7236204.21
"414316",414316,1997,35,"b","Buffalo",60,-25.14,31.19,317541.4,7218325.48
"414595",414595,1997,36,"b","Buffalo",200,-25.12,31.37,335663,7220772.19
"415168",415168,1997,37,"b","Buffalo",1,-25.22,31.52,350910.02,7209871.01
"415177",415177,1997,37,"b","Buffalo",25,-25.23,31.51,349914.79,7208752.32
"415733",415733,1997,33,"b","Buffalo",100,-24.98,31.36,334466.65,7236266.18
"415814",415814,1997,40,"b","Buffalo",4,-25.37,31.71,370212.02,7193455.57
"415904",415904,1997,40,"b","Buffalo",1,-25.38,31.67,366198.15,7192308.6
"416013",416013,1997,40,"b","Buffalo",120,-25.43,31.63,362230.37,7186730.21
"416066",416066,1997,40,"b","Buffalo",1,-25.37,31.6,359143.48,7193344.22
"416117",416117,1997,41,"b","Buffalo",4,-25.34,31.89,388295.96,7196940.54
"416135",416135,1997,41,"b","Buffalo",120,-25.31,31.88,387261.75,7200254.56
"416243",416243,1997,41,"b","Buffalo",180,-25.24,31.91,390218.79,7208031.65
"416674",416674,1997,41,"b","Buffalo",3,-25.1,31.9,389084.93,7223527.63
"416675",416675,1997,41,"b","Buffalo",1,-25.12,31.91,390111.21,7221320.95
"416953",416953,1997,42,"b","Buffalo",4,-25.31,31.9,389275.1,7200271.24
"416970",416970,1997,42,"b","Buffalo",3,-25.32,31.92,391297.36,7199180.16
"416974",416974,1997,42,"b","Buffalo",1,-25.28,31.93,392268.58,7203618.05
"416983",416983,1997,42,"b","Buffalo",3,-25.33,31.92,391306.29,7198072.7
"416984",416984,1997,42,"b","Buffalo",3,-25.34,31.93,392321.64,7196973.32
"416999",416999,1997,42,"b","Buffalo",3,-25.35,31.94,393336.82,7195873.87
"417019",417019,1997,42,"b","Buffalo",2,-25.33,31.97,396338.76,7198112.34
"417033",417033,1997,42,"b","Buffalo",200,-25.33,31.97,396338.76,7198112.34
"417132",417132,1997,42,"b","Buffalo",80,-25.37,31.97,396372.86,7193682.54
"417133",417133,1997,42,"b","Buffalo",2,-25.37,31.97,396372.86,7193682.54
"417135",417135,1997,42,"b","Buffalo",20,-25.38,31.97,396381.39,7192575.08
"417209",417209,1997,56,"b","Buffalo",1,-25.11,31.83,382035.68,7222360.86
"417247",417247,1997,57,"b","Buffalo",5,-25.08,31.75,373938.2,7225610.96
"417249",417249,1997,56,"b","Buffalo",3,-25.1,31.77,375975.56,7223414.54
"417359",417359,1997,57,"b","Buffalo",150,-25.03,31.77,375905.04,7231166.77
"417382",417382,1997,57,"b","Buffalo",1,-25.04,31.76,374906.18,7230050.1
"417437",417437,1997,57,"b","Buffalo",4,-25.03,31.7,368841.97,7231100.78
"417586",417586,1997,37,"b","Buffalo",100,-25.15,31.61,359897.43,7217720.45
