"","ID","Year","Cenb","Sp","Description","No","Lat","Long","X.coord","Y.coord"
"147512",147512,1985,11,"n","Nyala",2,-23.18,31.29,324971.75,7435525.76
"149187",149187,1985,14,"n","Nyala",3,-23.46,31.54,350877.68,7404800.38
"150118",150118,1985,18,"n","Nyala",2,-23.22,31.54,350609.33,7431375.42
"150144",150144,1985,19,"n","Nyala",2,-23.84,31.65,362512.19,7362832.75
"150167",150167,1985,19,"n","Nyala",3,-23.81,31.64,361461.77,7366144.98
"150205",150205,1985,19,"n","Nyala",1,-23.91,31.7,367676.13,7355129.16
"150336",150336,1985,19,"n","Nyala",2,-23.93,31.75,372785.66,7352960.46
"150370",150370,1985,19,"n","Nyala",2,-23.93,31.76,373803.48,7352969.43
"150389",150389,1985,19,"n","Nyala",12,-23.94,31.78,375848.68,7351879.86
"150427",150427,1985,19,"n","Nyala",6,-23.96,31.82,379938.13,7349699.88
"150430",150430,1985,19,"n","Nyala",1,-23.96,31.82,379938.13,7349699.88
"150434",150434,1985,19,"n","Nyala",2,-23.96,31.82,379938.13,7349699.88
"150481",150481,1985,19,"n","Nyala",6,-23.97,31.84,381982.38,7348609.48
"150485",150485,1985,19,"n","Nyala",1,-23.96,31.86,384008.39,7349733.35
"150516",150516,1985,19,"n","Nyala",1,-23.94,31.85,382972.79,7351939.66
"150525",150525,1985,19,"n","Nyala",4,-23.95,31.86,383999.45,7350840.63
"150528",150528,1985,19,"n","Nyala",3,-23.96,31.88,386043.51,7349749.66
"151024",151024,1985,20,"n","Nyala",2,-24.07,31.3,327167.78,7336977.5
"160806",160806,1985,34,"n","Nyala",5,-24.65,31.71,369452.89,7273193.33
"169868",169868,1985,48,"n","Nyala",1,-22.75,31.37,332633.13,7483233.91
"169889",169889,1985,48,"n","Nyala",3,-22.89,31.38,333830.15,7467743.21
"169941",169941,1985,48,"n","Nyala",1,-22.75,31.41,336741.04,7483278.56
"169945",169945,1985,48,"n","Nyala",2,-22.78,31.39,334723.22,7479934.56
"169946",169946,1985,48,"n","Nyala",3,-22.77,31.39,334711.17,7481041.83
"169948",169948,1985,48,"n","Nyala",1,-22.77,31.4,335738,7481052.97
"169952",169952,1985,48,"n","Nyala",1,-22.72,31.39,334651.01,7486578.18
"169954",169954,1985,48,"n","Nyala",4,-22.72,31.4,335678.21,7486589.3
"169979",169979,1985,48,"n","Nyala",3,-22.78,31.41,336776.72,7479956.77
"170020",170020,1985,49,"n","Nyala",3,-22.98,31.27,322661.98,7457648.77
"170045",170045,1985,49,"n","Nyala",1,-22.94,31.28,323635.39,7462090.19
"170217",170217,1985,49,"n","Nyala",1,-22.93,31.39,334904.54,7463325.3
"170219",170219,1985,49,"n","Nyala",1,-22.93,31.4,335930.17,7463336.49
"170231",170231,1985,49,"n","Nyala",2,-22.94,31.4,335942.22,7462229.2
"170233",170233,1985,49,"n","Nyala",2,-22.89,31.41,336907.93,7467776.75
"170237",170237,1985,49,"n","Nyala",3,-22.9,31.4,335894.04,7466658.36
"170991",170991,1985,50,"n","Nyala",2,-23.13,31.49,345389.02,7441288.72
"170996",170996,1985,50,"n","Nyala",2,-23.09,31.46,342270.03,7445685.75
"171134",171134,1985,50,"n","Nyala",1,-23.16,31.51,347471.13,7437987.95
"171241",171241,1985,51,"n","Nyala",1,-22.72,31.33,328487.73,7486510.03
"171261",171261,1985,51,"n","Nyala",1,-22.59,31.34,329354.26,7500916.18
"171262",171262,1985,51,"n","Nyala",1,-22.59,31.34,329354.26,7500916.18
"171270",171270,1985,51,"n","Nyala",1,-22.61,31.33,328350.88,7498690.15
"171271",171271,1985,51,"n","Nyala",1,-22.62,31.34,329391.27,7497594.36
"171278",171278,1985,51,"n","Nyala",2,-22.71,31.37,332584.43,7487663.02
"171285",171285,1985,52,"n","Nyala",3,-23.04,31.16,311466.96,7450867.16
"171518",171518,1985,52,"n","Nyala",1,-23.07,31.21,316631.98,7447608.57
"172658",172658,1985,54,"n","Nyala",1,-22.98,31.08,303180.7,7457406.43
"172694",172694,1985,55,"n","Nyala",1,-22.86,30.98,292744.25,7470558.35
"173015",173015,1985,55,"n","Nyala",4,-22.8,31.15,310107.76,7477431.62
"173055",173055,1985,55,"n","Nyala",1,-22.89,31.2,315362.78,7467528.76
"173134",173134,1985,55,"n","Nyala",3,-22.76,31.16,311079.35,7481873.91
"173145",173145,1985,55,"n","Nyala",1,-22.78,31.19,314187.4,7479697.18
"173147",173147,1985,55,"n","Nyala",3,-22.78,31.18,313160.57,7479684.58
"173160",173160,1985,55,"n","Nyala",2,-22.93,31.23,318494.05,7463136.65
"174496",174496,1985,62,"n","Nyala",1,-22.69,30.98,292487.2,7489385.02
"174501",174501,1985,62,"n","Nyala",2,-22.62,30.98,292381.88,7497137.08
"174502",174502,1985,62,"n","Nyala",2,-22.51,30.99,293245.94,7509332.62
"174509",174509,1985,62,"n","Nyala",1,-22.68,31.03,297610.41,7490561.47
"174510",174510,1985,62,"n","Nyala",2,-22.62,31.01,295466.21,7497178.61
"174514",174514,1985,62,"n","Nyala",1,-22.56,31,294348.97,7503809.35
"174522",174522,1985,62,"n","Nyala",1,-22.68,31.04,298638.06,7490575.07
"174531",174531,1985,62,"n","Nyala",1,-22.53,31.05,299448.31,7507199.55
"174532",174532,1985,62,"n","Nyala",4,-22.53,31.06,300477.06,7507212.94
"174534",174534,1985,62,"n","Nyala",1,-22.53,31.07,301505.8,7507226.26
"174546",174546,1985,62,"n","Nyala",3,-22.34,31.07,301235.22,7528266.23
"174551",174551,1985,62,"n","Nyala",1,-22.68,31.09,303776.2,7490642
"174559",174559,1985,62,"n","Nyala",2,-22.59,31.11,305704.86,7500634.65
"174561",174561,1985,62,"n","Nyala",1,-22.61,31.1,304704.81,7498406.84
"174564",174564,1985,62,"n","Nyala",1,-22.55,31.08,302563.01,7505024.75
"174565",174565,1985,62,"n","Nyala",1,-22.54,31.09,303577.44,7506145.31
"174570",174570,1985,62,"n","Nyala",1,-22.57,31.1,304648.37,7502836.33
"174574",174574,1985,62,"n","Nyala",1,-22.51,31.12,306621.63,7509506.52
"174575",174575,1985,62,"n","Nyala",1,-22.5,31.12,306607.72,7510613.87
"174577",174577,1985,62,"n","Nyala",2,-22.47,31.08,302449.31,7513883.73
"174578",174578,1985,62,"n","Nyala",1,-22.47,31.09,303478.49,7513896.88
"174579",174579,1985,62,"n","Nyala",2,-22.47,31.09,303478.49,7513896.88
"174581",174581,1985,62,"n","Nyala",1,-22.49,31.11,305564.79,7511708.27
"174588",174588,1985,62,"n","Nyala",3,-22.42,31.1,304437.54,7519446.74
"174593",174593,1985,62,"n","Nyala",3,-22.45,31.09,303450.28,7516111.6
"174594",174594,1985,62,"n","Nyala",1,-22.45,31.11,305508.92,7516137.68
"174595",174595,1985,62,"n","Nyala",1,-22.45,31.11,305508.92,7516137.68
"174597",174597,1985,62,"n","Nyala",3,-22.45,31.12,306538.24,7516150.62
"174622",174622,1985,62,"n","Nyala",2,-22.63,31.16,310900.92,7496269.57
"174626",174626,1985,62,"n","Nyala",3,-22.59,31.15,309817.95,7500686.24
"174630",174630,1985,62,"n","Nyala",4,-22.62,31.14,308831.15,7497351.38
"174650",174650,1985,62,"n","Nyala",2,-22.52,31.12,306635.55,7508399.16
"174654",174654,1985,62,"n","Nyala",5,-22.46,31.13,307581.36,7515056.14
"174658",174658,1985,62,"n","Nyala",2,-22.47,31.14,308624.34,7513961.61
"174660",174660,1985,62,"n","Nyala",2,-22.47,31.15,309653.5,7513974.35
"174662",174662,1985,62,"n","Nyala",1,-22.47,31.15,309653.5,7513974.35
"174668",174668,1985,62,"n","Nyala",3,-22.48,31.15,309667.17,7512867.01
"174673",174673,1985,62,"n","Nyala",5,-22.43,31.16,310628.31,7518416.33
"174675",174675,1985,62,"n","Nyala",2,-22.44,31.13,307553.75,7517270.83
"174676",174676,1985,62,"n","Nyala",4,-22.44,31.12,306524.36,7517257.96
"174677",174677,1985,62,"n","Nyala",1,-22.45,31.13,307567.55,7516163.49
"174678",174678,1985,62,"n","Nyala",2,-22.44,31.13,307553.75,7517270.83
"174679",174679,1985,62,"n","Nyala",7,-22.44,31.13,307553.75,7517270.83
"174683",174683,1985,62,"n","Nyala",2,-22.43,31.16,310628.31,7518416.33
"174696",174696,1985,62,"n","Nyala",1,-22.34,31.12,306385.91,7528331.35
"174712",174712,1985,62,"n","Nyala",1,-22.33,31.15,309462.68,7529476.92
"174713",174713,1985,62,"n","Nyala",3,-22.33,31.15,309462.68,7529476.92
"174716",174716,1985,62,"n","Nyala",2,-22.33,31.16,310492.87,7529489.53
"174768",174768,1985,62,"n","Nyala",15,-22.42,31.17,311644.26,7519536.24
"174773",174773,1985,62,"n","Nyala",5,-22.42,31.18,312673.77,7519548.75
"174774",174774,1985,62,"n","Nyala",1,-22.43,31.18,312687.2,7518441.43
"174776",174776,1985,62,"n","Nyala",3,-22.42,31.19,313703.28,7519561.19
"174777",174777,1985,62,"n","Nyala",1,-22.42,31.19,313703.28,7519561.19
"174779",174779,1985,62,"n","Nyala",1,-22.42,31.19,313703.28,7519561.19
"174783",174783,1985,62,"n","Nyala",1,-22.44,31.17,311671.26,7517321.59
"174785",174785,1985,62,"n","Nyala",3,-22.45,31.18,312714.06,7516226.79
"174786",174786,1985,62,"n","Nyala",5,-22.45,31.2,314772.63,7516251.64
"174802",174802,1985,62,"n","Nyala",2,-22.41,31.19,313689.94,7520668.5
"174809",174809,1985,62,"n","Nyala",3,-22.4,31.2,314706.26,7521788.17
"174840",174840,1985,62,"n","Nyala",1,-22.54,31.23,317978.29,7506322.65
"174855",174855,1985,62,"n","Nyala",1,-22.52,31.22,316923.31,7508525.06
"174868",174868,1985,62,"n","Nyala",1,-22.42,31.23,317821.28,7519610.27
"174882",174882,1985,62,"n","Nyala",1,-22.38,31.23,317769.13,7524039.44
"174905",174905,1985,62,"n","Nyala",1,-22.37,31.24,318785.96,7525158.8
"174919",174919,1985,62,"n","Nyala",3,-22.56,31.27,322118.32,7504156.25
"174926",174926,1985,62,"n","Nyala",1,-22.5,31.26,321012.55,7510788.07
"174932",174932,1985,62,"n","Nyala",8,-22.49,31.28,323057.6,7511919.14
"174939",174939,1985,62,"n","Nyala",2,-22.42,31.25,319880.26,7519634.4
"174940",174940,1985,62,"n","Nyala",3,-22.43,31.26,320922.57,7518539.08
"174941",174941,1985,62,"n","Nyala",2,-22.42,31.26,320909.74,7519646.36
"174942",174942,1985,62,"n","Nyala",1,-22.42,31.26,320909.74,7519646.36
"174944",174944,1985,62,"n","Nyala",2,-22.43,31.26,320922.57,7518539.08
"174948",174948,1985,62,"n","Nyala",1,-22.42,31.27,321939.22,7519658.26
"174957",174957,1985,62,"n","Nyala",2,-22.44,31.25,319906.08,7517419.83
"174961",174961,1985,62,"n","Nyala",1,-22.38,31.25,319828.69,7524063.53
"174987",174987,1985,62,"n","Nyala",2,-22.37,31.25,319815.81,7525170.81
"174993",174993,1985,62,"n","Nyala",2,-22.58,31.29,324200.57,7501965.37
"174996",174996,1985,62,"n","Nyala",4,-22.59,31.3,325241.47,7500869.84
"174997",174997,1985,62,"n","Nyala",3,-22.58,31.3,325228.85,7501977.13
"175002",175002,1985,62,"n","Nyala",2,-22.55,31.29,324162.51,7505287.24
"175009",175009,1985,62,"n","Nyala",6,-22.46,31.3,325077.81,7515264.46
"175018",175018,1985,62,"n","Nyala",2,-22.59,31.34,329354.26,7500916.18
"175019",175019,1985,62,"n","Nyala",2,-22.58,31.33,328313.67,7502011.97
"175021",175021,1985,62,"n","Nyala",1,-22.59,31.34,329354.26,7500916.18
"175022",175022,1985,62,"n","Nyala",1,-22.59,31.34,329354.26,7500916.18
"175025",175025,1985,62,"n","Nyala",2,-22.55,31.34,329305,7505345.25
"175250",175250,1985,7,"n","Nyala",3,-23.65,31.21,317427.89,7383378.16
"175317",175317,1985,7,"n","Nyala",2,-23.69,31.27,323602.63,7379023.86
"175322",175322,1985,7,"n","Nyala",2,-23.7,31.28,324635.84,7377928.77
"175397",175397,1985,7,"n","Nyala",3,-23.68,31.31,327668.87,7380180.22
