"","ID","Year","Cenb","Sp","Description","No","Lat","Long","X.coord","Y.coord"
"339009",339009,1992,52,"kb","Kudu bull",1,-23.2,31.21,316808.74,7433212.47
"339077",339077,1992,52,"kb","Kudu bull",1,-23.06,31.23,318667.83,7448740.9
"339350",339350,1992,53,"kb","Kudu bull",1,-23.03,31.05,300178.25,7451828.62
"340299",340299,1992,54,"kb","Kudu bull",1,-22.93,31.14,309262.71,7463022.68
"341603",341603,1992,51,"kb","Kudu bull",2,-22.65,31.34,329428.32,7494272.54
"341660",341660,1992,6,"kb","Kudu bull",1,-23.57,31.32,328545.6,7392373.79
"341778",341778,1992,6,"kb","Kudu bull",1,-23.68,31.44,340927.44,7380331.29
"342076",342076,1992,7,"kb","Kudu bull",1,-23.63,31.26,322501.77,7385656.09
"342353",342353,1992,9,"kb","Kudu bull",1,-23.56,31.16,312198.71,7393280.57
"342389",342389,1992,9,"kb","Kudu bull",1,-23.57,31.21,317317,7392237.78
"342502",342502,1992,9,"kb","Kudu bull",1,-23.53,31.13,309092.66,7396563.36
"343095",343095,1992,10,"kb","Kudu bull",1,-23.47,31.07,302876.44,7403127.21
"343139",343139,1992,10,"kb","Kudu bull",1,-23.48,31.06,301869.75,7402005.96
"343300",343300,1992,11,"kb","Kudu bull",1,-23.23,31.3,326060.27,7430000.94
"343366",343366,1992,11,"kb","Kudu bull",1,-23.21,31.25,320916.63,7432154.93
"343556",343556,1992,12,"kb","Kudu bull",1,-23.21,31.16,311704.48,7432041.15
"343635",343635,1992,12,"kb","Kudu bull",1,-23.23,31.09,304568.38,7429733.8
"343722",343722,1992,12,"kb","Kudu bull",1,-23.25,31,295387.55,7427394.78
"343826",343826,1992,13,"kb","Kudu bull",1,-23.63,31.63,360251.23,7386066.85
"343984",343984,1992,13,"kb","Kudu bull",1,-23.78,31.63,360410.93,7369457.16
"345396",345396,1992,19,"kb","Kudu bull",2,-23.83,31.67,364538.91,7363959.32
"345417",345417,1992,19,"kb","Kudu bull",4,-23.86,31.68,365588.48,7360646.89
"345495",345495,1992,19,"kb","Kudu bull",1,-23.92,31.81,378883.23,7354120.5
"345499",345499,1992,19,"kb","Kudu bull",1,-23.89,31.77,374782.76,7357407.53
"345511",345511,1992,19,"kb","Kudu bull",1,-23.93,31.82,379910.36,7353021.75
"345537",345537,1992,19,"kb","Kudu bull",1,-23.92,31.8,377865.34,7354111.89
"345564",345564,1992,19,"kb","Kudu bull",1,-23.97,31.82,379947.4,7348592.59
"345609",345609,1992,19,"kb","Kudu bull",1,-23.94,31.76,373813.2,7351862.13
"345618",345618,1992,19,"kb","Kudu bull",1,-23.96,31.78,375867.83,7349665.26
"345647",345647,1992,19,"kb","Kudu bull",1,-23.85,31.7,367615.09,7361773.05
"345672",345672,1992,19,"kb","Kudu bull",2,-23.83,31.67,364538.91,7363959.32
"345679",345679,1992,19,"kb","Kudu bull",4,-23.86,31.68,365588.48,7360646.89
"345762",345762,1992,19,"kb","Kudu bull",1,-23.92,31.81,378883.23,7354120.5
"345766",345766,1992,19,"kb","Kudu bull",1,-23.89,31.77,374782.76,7357407.53
"345780",345780,1992,19,"kb","Kudu bull",1,-23.93,31.82,379910.36,7353021.75
"345806",345806,1992,19,"kb","Kudu bull",1,-23.92,31.8,377865.34,7354111.89
"345889",345889,1992,19,"kb","Kudu bull",1,-23.96,31.77,374850.25,7349656.42
"346239",346239,1992,1,"kb","Kudu bull",1,-24.02,31.69,366771.27,7342939.14
"346259",346259,1992,1,"kb","Kudu bull",2,-24.02,31.7,367788.4,7342948.57
"346466",346466,1992,2,"kb","Kudu bull",1,-23.93,31.48,345303.39,7352690.94
"347167",347167,1992,3,"kb","Kudu bull",2,-24.08,31.26,323114.04,7335820.19
"347396",347396,1992,4,"kb","Kudu bull",1,-23.72,31.31,327721.41,7375750.52
"347845",347845,1992,5,"kb","Kudu bull",1,-23.78,31.55,352258.59,7369376.25
"347869",347869,1992,5,"kb","Kudu bull",2,-23.85,31.52,349282.28,7361593.18
"348204",348204,1992,61,"kb","Kudu bull",2,-22.72,30.99,293559.79,7486076.65
"348270",348270,1992,61,"kb","Kudu bull",1,-22.57,30.97,291278.36,7502660.26
"348274",348274,1992,61,"kb","Kudu bull",1,-22.54,31.05,299462.76,7506092.16
"348400",348400,1992,63,"kb","Kudu bull",1,-22.56,31.29,324175.19,7504179.95
"348571",348571,1992,63,"kb","Kudu bull",1,-22.47,31.3,325090.37,7514157.19
"349012",349012,1992,20,"kb","Kudu bull",1,-24.1,31.58,355672.18,7333971.6
"349052",349052,1992,20,"kb","Kudu bull",1,-24.05,31.63,360700.79,7339558.95
"349457",349457,1992,21,"kb","Kudu bull",1,-24.21,31.51,348686.03,7321716.26
"349459",349459,1992,21,"kb","Kudu bull",1,-24.22,31.51,348697.85,7320608.84
"349470",349470,1992,21,"kb","Kudu bull",1,-24.23,31.53,350740.71,7319522.96
"349488",349488,1992,21,"kb","Kudu bull",1,-24.19,31.51,348662.42,7323931.1
"349492",349492,1992,21,"kb","Kudu bull",2,-24.13,31.5,347575.36,7330564.73
"349546",349546,1992,21,"kb","Kudu bull",1,-24.22,31.58,355807,7320682.92
"349762",349762,1992,22,"kb","Kudu bull",1,-24.32,31.51,348816.25,7309534.56
"349873",349873,1992,22,"kb","Kudu bull",1,-24.32,31.52,349831.06,7309545.4
"349978",349978,1992,22,"kb","Kudu bull",1,-24.46,31.4,337832.01,7293905.81
"349992",349992,1992,22,"kb","Kudu bull",1,-24.45,31.45,342888.19,7295070.99
"350079",350079,1992,22,"kb","Kudu bull",1,-24.42,31.41,338794.86,7298347.44
"350189",350189,1992,22,"kb","Kudu bull",2,-24.37,31.43,340760.25,7303907.93
"350197",350197,1992,22,"kb","Kudu bull",1,-24.37,31.44,341774.68,7303919.37
"350229",350229,1992,22,"kb","Kudu bull",1,-24.36,31.44,341762.24,7305026.83
"350282",350282,1992,22,"kb","Kudu bull",2,-24.38,31.48,345844.51,7302856.93
"350334",350334,1992,22,"kb","Kudu bull",1,-24.41,31.46,343852.72,7299512.17
"350521",350521,1992,23,"kb","Kudu bull",3,-24.09,31.67,364810.36,7335168.62
"350545",350545,1992,23,"kb","Kudu bull",3,-24.11,31.66,363814.92,7332944.24
"350559",350559,1992,23,"kb","Kudu bull",3,-24.11,31.7,367880.63,7332982.51
"350569",350569,1992,23,"kb","Kudu bull",2,-24.11,31.66,363814.92,7332944.24
"350579",350579,1992,23,"kb","Kudu bull",1,-24.12,31.64,361792.8,7331817.3
"350718",350718,1992,23,"kb","Kudu bull",1,-24.17,31.71,368958.23,7326347.81
"350825",350825,1992,23,"kb","Kudu bull",1,-24.21,31.67,364936.58,7321880.29
"350929",350929,1992,23,"kb","Kudu bull",1,-24.26,31.73,371080.73,7316400.23
"351077",351077,1992,24,"kb","Kudu bull",1,-24.26,31.62,359913.12,7316294.1
"351133",351133,1992,24,"kb","Kudu bull",1,-24.3,31.68,366046.56,7311923.58
"351542",351542,1992,25,"kb","Kudu bull",1,-24,31.81,378957.95,7345262.15
"351546",351546,1992,25,"kb","Kudu bull",1,-24,31.79,376923.43,7345244.81
"351617",351617,1992,25,"kb","Kudu bull",2,-23.98,31.88,386061.1,7347535.1
"351620",351620,1992,25,"kb","Kudu bull",1,-24,31.87,385061.46,7345312.41
"351692",351692,1992,25,"kb","Kudu bull",1,-24.09,31.88,386158.09,7335354.95
"351743",351743,1992,25,"kb","Kudu bull",1,-24.1,31.87,385150.47,7334239.5
"351752",351752,1992,25,"kb","Kudu bull",1,-24.05,31.86,384089.07,7339767.77
"351755",351755,1992,25,"kb","Kudu bull",1,-24.04,31.86,384080.09,7340875.06
"352112",352112,1992,26,"kb","Kudu bull",1,-24.31,31.8,378234.93,7310926.46
"352127",352127,1992,26,"kb","Kudu bull",1,-24.38,31.82,380330.36,7303192.4
"352132",352132,1992,26,"kb","Kudu bull",1,-24.38,31.82,380330.36,7303192.4
"352155",352155,1992,26,"kb","Kudu bull",3,-24.35,31.83,381316.61,7306523.03
"352329",352329,1992,26,"kb","Kudu bull",1,-24.3,31.87,385329.54,7312093.26
"352416",352416,1992,26,"kb","Kudu bull",1,-24.22,31.77,375102.56,7320866.01
"352685",352685,1992,27,"kb","Kudu bull",1,-24.25,31.94,392391.46,7317685.66
"352977",352977,1992,28,"kb","Kudu bull",1,-24.41,31.93,391512.54,7299960.87
"353013",353013,1992,28,"kb","Kudu bull",2,-24.4,31.92,390489.93,7301060.33
"353081",353081,1992,28,"kb","Kudu bull",1,-24.39,31.89,387438.87,7302143.64
"353292",353292,1992,28,"kb","Kudu bull",1,-24.43,31.81,379363.64,7297646.96
"353512",353512,1992,29,"kb","Kudu bull",1,-24.62,31.78,376508.08,7276580.26
"353560",353560,1992,29,"kb","Kudu bull",2,-24.64,31.79,377539.9,7274374.42
"353687",353687,1992,29,"kb","Kudu bull",2,-24.67,31.87,385664.48,7271121.23
"353803",353803,1992,29,"kb","Kudu bull",2,-24.69,31.91,389729.68,7268939.23
"353997",353997,1992,30,"kb","Kudu bull",2,-24.76,31.97,395858.34,7261234.61
"354115",354115,1992,30,"kb","Kudu bull",1,-24.68,31.96,394779.93,7270085.87
"354149",354149,1992,30,"kb","Kudu bull",1,-24.67,31.97,395783.42,7271200.86
"354185",354185,1992,30,"kb","Kudu bull",2,-24.67,31.99,397807.18,7271215.89
"354230",354230,1992,30,"kb","Kudu bull",1,-24.51,31.99,397677.21,7288933.31
"354607",354607,1992,31,"kb","Kudu bull",1,-24.49,31.72,370300.38,7290921.27
"354711",354711,1992,31,"kb","Kudu bull",1,-24.43,31.63,361113.97,7297478.31
"355158",355158,1992,32,"kb","Kudu bull",1,-24.53,31.55,353118.88,7286321.31
"355198",355198,1992,32,"kb","Kudu bull",1,-24.55,31.59,357193.96,7284148.43
"355273",355273,1992,33,"kb","Kudu bull",2,-24.56,31.59,357205.29,7283040.99
"355477",355477,1992,33,"kb","Kudu bull",1,-24.74,31.66,364489.74,7263177.93
"355642",355642,1992,34,"kb","Kudu bull",1,-24.71,31.78,376596.65,7266613.65
"355657",355657,1992,34,"kb","Kudu bull",2,-24.72,31.77,375594.99,7265497.2
"355694",355694,1992,34,"kb","Kudu bull",3,-24.76,31.75,373612.38,7261049.21
"355800",355800,1992,34,"kb","Kudu bull",1,-24.68,31.67,365436.64,7269832.43
"355843",355843,1992,34,"kb","Kudu bull",1,-24.66,31.74,372499.36,7272114.11
"356003",356003,1992,35,"kb","Kudu bull",1,-24.87,31.74,372713.63,7248858.16
"356122",356122,1992,35,"kb","Kudu bull",1,-24.98,31.58,356675.51,7236516.69
"356164",356164,1992,35,"kb","Kudu bull",1,-24.97,31.57,355654.38,7237613.59
"356205",356205,1992,35,"kb","Kudu bull",1,-24.9,31.64,362643.54,7245438.58
"356215",356215,1992,35,"kb","Kudu bull",2,-24.9,31.62,360623.34,7245418.24
"356221",356221,1992,35,"kb","Kudu bull",2,-24.89,31.62,360612.11,7246525.72
"356234",356234,1992,35,"kb","Kudu bull",1,-24.87,31.64,362610.35,7248761
"356426",356426,1992,36,"kb","Kudu bull",1,-24.88,31.84,382826.09,7247840.49
"356691",356691,1992,37,"kb","Kudu bull",1,-24.81,31.97,395900.07,7255697.76
"356937",356937,1992,37,"kb","Kudu bull",1,-24.97,32.01,400071.92,7238009.63
"357005",357005,1992,37,"kb","Kudu bull",2,-24.91,31.97,395983.77,7244623.94
"357027",357027,1992,37,"kb","Kudu bull",1,-25,31.98,397068.57,7234665.02
"357137",357137,1992,37,"kb","Kudu bull",1,-24.92,31.94,392962.58,7243493.27
"358002",358002,1992,39,"kb","Kudu bull",1,-25.05,31.34,332542.6,7228488.49
"358081",358081,1992,39,"kb","Kudu bull",2,-25.1,31.33,331602.06,7222938.07
"358099",358099,1992,39,"kb","Kudu bull",1,-25.11,31.32,330607.29,7221817.95
"358135",358135,1992,39,"kb","Kudu bull",1,-25.03,31.3,328478.89,7230653.59
"358216",358216,1992,39,"kb","Kudu bull",1,-25.07,31.29,327525.76,7226210.43
"358314",358314,1992,39,"kb","Kudu bull",3,-25.13,31.27,325593.27,7219539
"358323",358323,1992,39,"kb","Kudu bull",2,-25.1,31.24,322524.93,7222822.78
"358342",358342,1992,39,"kb","Kudu bull",2,-25.08,31.22,320478.56,7225011.63
"358357",358357,1992,39,"kb","Kudu bull",2,-25.09,31.22,320493.15,7223903.98
"358387",358387,1992,39,"kb","Kudu bull",2,-25.1,31.21,319499.16,7222783.01
"358412",358412,1992,39,"kb","Kudu bull",1,-25.11,31.2,318505.33,7221661.94
"358442",358442,1992,40,"kb","Kudu bull",1,-25.37,31.3,328954.79,7192994.22
"358450",358450,1992,40,"kb","Kudu bull",1,-25.36,31.31,329947.13,7194114.62
"358485",358485,1992,40,"kb","Kudu bull",3,-25.32,31.27,325864.16,7198493.78
"358590",358590,1992,40,"kb","Kudu bull",1,-25.17,31.24,322626.13,7215069.29
"358618",358618,1992,40,"kb","Kudu bull",4,-25.2,31.26,324685.09,7211772.56
"358755",358755,1992,40,"kb","Kudu bull",1,-25.19,31.33,331725.55,7212969.58
"359007",359007,1992,41,"kb","Kudu bull",1,-25.24,31.38,336831.31,7207493.17
"359032",359032,1992,41,"kb","Kudu bull",2,-25.26,31.4,338872.47,7205302.11
"359129",359129,1992,41,"kb","Kudu bull",1,-25.21,31.5,348882.64,7210956.24
"359156",359156,1992,41,"kb","Kudu bull",2,-25.21,31.48,346867.44,7210933.61
"359175",359175,1992,41,"kb","Kudu bull",1,-25.25,31.47,345910.28,7206491.89
"359277",359277,1992,41,"kb","Kudu bull",1,-25.22,31.46,344864.92,7209803.11
"359578",359578,1992,41,"kb","Kudu bull",1,-25.16,31.39,337732.66,7216366.05
"360130",360130,1992,42,"kb","Kudu bull",1,-25.15,31.56,354857.1,7217667.54
"360132",360132,1992,42,"kb","Kudu bull",1,-25.15,31.56,354857.1,7217667.54
"360152",360152,1992,42,"kb","Kudu bull",3,-25.12,31.59,357846.57,7221022.08
"360201",360201,1992,42,"kb","Kudu bull",2,-25.17,31.52,350849.11,7215408.77
"360217",360217,1992,42,"kb","Kudu bull",1,-25.2,31.55,353908.65,7212119.03
"360442",360442,1992,43,"kb","Kudu bull",1,-25.05,31.49,347676.66,7228665.8
"360584",360584,1992,43,"kb","Kudu bull",1,-25.07,31.4,338622.52,7226346.29
"360784",360784,1992,44,"kb","Kudu bull",3,-25.38,31.69,368210.43,7192328.48
"360850",360850,1992,44,"kb","Kudu bull",1,-25.31,31.66,365114.38,7200051.27
"361237",361237,1992,44,"kb","Kudu bull",1,-25.43,31.62,361224.63,7186719.84
"361263",361263,1992,44,"kb","Kudu bull",1,-25.42,31.61,360207.35,7187816.96
"361659",361659,1992,44,"kb","Kudu bull",1,-25.22,31.67,366022.33,7210028.94
"361664",361664,1992,44,"kb","Kudu bull",1,-25.25,31.66,365048,7206696.39
"361770",361770,1992,44,"kb","Kudu bull",1,-25.21,31.62,360973.59,7211085.7
"361818",361818,1992,44,"kb","Kudu bull",1,-25.17,31.72,371006.96,7215615.3
"361848",361848,1992,44,"kb","Kudu bull",1,-25.2,31.69,368015.68,7212263.73
"361853",361853,1992,44,"kb","Kudu bull",1,-25.21,31.67,366011.37,7211136.45
"361960",361960,1992,44,"kb","Kudu bull",1,-25.22,31.7,369044.72,7210058.51
"362048",362048,1992,44,"kb","Kudu bull",3,-25.24,31.72,371080.73,7207862.84
"362107",362107,1992,44,"kb","Kudu bull",1,-25.25,31.75,374112.89,7206783.81
"362530",362530,1992,45,"kb","Kudu bull",2,-25.21,31.95,394221.8,7211386.05
"362549",362549,1992,45,"kb","Kudu bull",1,-25.22,31.86,385163.75,7210204.77
"362906",362906,1992,45,"kb","Kudu bull",2,-25.21,31.77,376086.74,7211232.34
"363620",363620,1992,58,"kb","Kudu bull",1,-25.07,31.71,369893.22,7226680.53
"363671",363671,1992,58,"kb","Kudu bull",1,-25.05,31.66,364827.8,7228846.45
"363780",363780,1992,58,"kb","Kudu bull",1,-25.13,31.67,365923.89,7219996.48
"363953",363953,1992,56,"kb","Kudu bull",1,-25.47,31.31,330101.41,7181930.43
"363970",363970,1992,56,"kb","Kudu bull",1,-25.51,31.36,335183.47,7177562.68
"364216",364216,1992,56,"kb","Kudu bull",2,-25.38,31.42,341043.69,7192034.75
"364627",364627,1992,56,"kb","Kudu bull",1,-25.31,31.44,342965.73,7199811.58
"364988",364988,1992,46,"kb","Kudu bull",1,-25.38,31.96,395375.31,7192567.29
"365100",365100,1992,46,"kb","Kudu bull",1,-25.35,32,399374.76,7195920.34
