"","ID","Year","Cenb","Sp","Description","No","Lat","Long","X.coord","Y.coord"
"98652",98652,1983,1,"hp","Hippopotamus",1,-23.97,31.61,358579.49,7348397.87
"98773",98773,1983,1,"hp","Hippopotamus",1,-24.01,31.63,360657.65,7343988.38
"99841",99841,1983,3,"hp","Hippopotamus",1,-24.08,31.3,327181.19,7335870.02
"99885",99885,1983,3,"hp","Hippopotamus",1,-24.03,31.32,329148.55,7341431.84
"101027",101027,1983,6,"hp","Hippopotamus",2,-23.72,31.48,345054.13,7375945.89
"101055",101055,1983,6,"hp","Hippopotamus",2,-23.64,31.46,342919.38,7384782.91
"101061",101061,1983,6,"hp","Hippopotamus",3,-23.66,31.46,342943.26,7382568.18
"101203",101203,1983,7,"hp","Hippopotamus",2,-23.6,31.26,322461.34,7388978.38
"101573",101573,1983,9,"hp","Hippopotamus",1,-23.62,31.11,307181.91,7386569.18
"101574",101574,1983,9,"hp","Hippopotamus",10,-23.62,31.11,307181.91,7386569.18
"102775",102775,1983,13,"hp","Hippopotamus",2,-23.74,31.53,350174.68,7373784.71
"103358",103358,1983,14,"hp","Hippopotamus",3,-23.51,31.48,344806.94,7399200.25
"104025",104025,1983,18,"hp","Hippopotamus",3,-23.14,31.44,340280.43,7440127.52
"104026",104026,1983,18,"hp","Hippopotamus",5,-23.14,31.44,340280.43,7440127.52
"104136",104136,1983,18,"hp","Hippopotamus",2,-23.14,31.46,342328.46,7440149.3
"104137",104137,1983,18,"hp","Hippopotamus",3,-23.14,31.46,342328.46,7440149.3
"104197",104197,1983,18,"hp","Hippopotamus",1,-23.18,31.53,349541.17,7435794.21
"104593",104593,1983,19,"hp","Hippopotamus",1,-23.89,31.71,368673.92,7357353.11
"104898",104898,1983,20,"hp","Hippopotamus",1,-24.1,31.42,339407.26,7333797.69
"104929",104929,1983,20,"hp","Hippopotamus",1,-24.03,31.44,341354.33,7341572.41
"105062",105062,1983,20,"hp","Hippopotamus",1,-24.08,31.59,356666.46,7336196.61
"105118",105118,1983,20,"hp","Hippopotamus",1,-24.08,31.65,362766.53,7336256.57
"105137",105137,1983,20,"hp","Hippopotamus",1,-24.03,31.65,362713.35,7341793.34
"105704",105704,1983,22,"hp","Hippopotamus",2,-24.41,31.46,343852.72,7299512.17
"105875",105875,1983,22,"hp","Hippopotamus",4,-24.39,31.59,357013.31,7301867.3
"106090",106090,1983,23,"hp","Hippopotamus",1,-24.18,31.71,368968.44,7325240.46
"106141",106141,1983,23,"hp","Hippopotamus",40,-24.08,31.71,368866.5,7336313.92
"106157",106157,1983,24,"hp","Hippopotamus",3,-24.39,31.57,354984.85,7301846.53
"106343",106343,1983,24,"hp","Hippopotamus",1,-24.39,31.71,369183.81,7301985.74
"106890",106890,1983,25,"hp","Hippopotamus",7,-24.08,31.84,382082.79,7336429.23
"107599",107599,1983,27,"hp","Hippopotamus",1,-24.37,31.92,390464.07,7304382.31
"107600",107600,1983,27,"hp","Hippopotamus",20,-24.37,31.92,390464.07,7304382.31
"107683",107683,1983,27,"hp","Hippopotamus",4,-24.43,31.96,394571.09,7297769.37
"107757",107757,1983,27,"hp","Hippopotamus",1,-24.41,31.96,394554.47,7299984.02
"108620",108620,1983,29,"hp","Hippopotamus",2,-24.81,31.88,386803.23,7255626.13
"108666",108666,1983,30,"hp","Hippopotamus",4,-24.78,31.9,388798.02,7258964.73
"108686",108686,1983,30,"hp","Hippopotamus",1,-24.81,31.92,390846.29,7255658.7
"110555",110555,1983,35,"hp","Hippopotamus",1,-24.89,31.65,363642.65,7246556.11
"110985",110985,1983,36,"hp","Hippopotamus",4,-24.83,31.84,382778.96,7253377.55
"112658",112658,1983,40,"hp","Hippopotamus",3,-25.26,31.23,321749.35,7205087.16
"115429",115429,1983,44,"hp","Hippopotamus",2,-25.35,31.88,387298.81,7195824.68
"116306",116306,1983,46,"hp","Hippopotamus",6,-25.22,31.96,395237.85,7210286.45
"117219",117219,1983,49,"hp","Hippopotamus",2,-22.97,31.26,321623.56,7458743.99
"117537",117537,1983,50,"hp","Hippopotamus",14,-23.12,31.44,340256.74,7442342.12
"117682",117682,1983,50,"hp","Hippopotamus",3,-23.2,31.55,351610.61,7433600.21
"119155",119155,1983,55,"hp","Hippopotamus",4,-22.91,31.15,310260.57,7465250.41
"119199",119199,1983,55,"hp","Hippopotamus",6,-22.93,31.19,314391.27,7463086.7
