"","ID","Year","Cenb","Sp","Description","No","Lat","Long","X.coord","Y.coord"
"287252",287252,1990,52,"ob","Elephant bull",1,-23.07,31.39,335074.8,7447823.06
"287256",287256,1990,52,"ob","Elephant bull",1,-23.08,31.38,334062.5,7446704.42
"287271",287271,1990,52,"ob","Elephant bull",5,-23.13,31.36,332075.71,7441144.92
"287277",287277,1990,52,"ob","Elephant bull",2,-23.11,31.36,332050.81,7443359.58
"287290",287290,1990,52,"ob","Elephant bull",1,-23.11,31.33,328977.97,7443324.74
"287349",287349,1990,52,"ob","Elephant bull",3,-23.11,31.28,323856.49,7443265.25
"287390",287390,1990,52,"ob","Elephant bull",1,-23.18,31.27,322924.21,7435501.56
"287391",287391,1990,52,"ob","Elephant bull",1,-23.18,31.27,322924.21,7435501.56
"287393",287393,1990,52,"ob","Elephant bull",2,-23.18,31.27,322924.21,7435501.56
"287423",287423,1990,52,"ob","Elephant bull",1,-23.13,31.23,318761.8,7440989.24
"287435",287435,1990,52,"ob","Elephant bull",1,-23.19,31.24,319866.26,7434357.34
"287449",287449,1990,52,"ob","Elephant bull",3,-23.19,31.22,317818.83,7434332.43
"287501",287501,1990,53,"ob","Elephant bull",2,-23.11,30.92,286978.94,7442785.08
"287502",287502,1990,53,"ob","Elephant bull",10,-23.11,30.92,286978.94,7442785.08
"287515",287515,1990,53,"ob","Elephant bull",4,-23.1,30.93,287987.68,7443907.16
"287519",287519,1990,53,"ob","Elephant bull",3,-23.1,30.93,287987.68,7443907.16
"287520",287520,1990,53,"ob","Elephant bull",2,-23.11,30.94,289027.84,7442814.15
"287521",287521,1990,53,"ob","Elephant bull",6,-23.11,30.94,289027.84,7442814.15
"287531",287531,1990,53,"ob","Elephant bull",2,-23.12,30.95,290067.84,7441721.07
"287536",287536,1990,53,"ob","Elephant bull",1,-23.08,30.93,287956.28,7446122.19
"287537",287537,1990,53,"ob","Elephant bull",5,-23.1,30.95,290036.72,7443936.08
"287583",287583,1990,53,"ob","Elephant bull",1,-23.13,30.99,294180.53,7440670.61
"287590",287590,1990,53,"ob","Elephant bull",2,-23.08,30.98,293079.61,7446193.91
"287627",287627,1990,53,"ob","Elephant bull",1,-23.17,31.03,298337.47,7436296.63
"287640",287640,1990,53,"ob","Elephant bull",1,-23.1,31.03,298232.71,7444048.93
"287645",287645,1990,53,"ob","Elephant bull",1,-23.17,31.05,300385.36,7436324.21
"287784",287784,1990,53,"ob","Elephant bull",2,-23.08,30.91,285906.92,7446093.01
"287785",287785,1990,53,"ob","Elephant bull",3,-23.07,30.91,285891.08,7447200.54
"287787",287787,1990,53,"ob","Elephant bull",1,-23.06,30.91,285875.25,7448308.06
"287795",287795,1990,53,"ob","Elephant bull",4,-23.07,30.93,287940.59,7447229.7
"287802",287802,1990,53,"ob","Elephant bull",1,-23.03,30.92,286852.84,7451645.21
"287812",287812,1990,53,"ob","Elephant bull",1,-23.04,30.93,287893.56,7450552.23
"287817",287817,1990,53,"ob","Elephant bull",3,-23.07,30.95,289990.09,7447258.59
"287818",287818,1990,53,"ob","Elephant bull",3,-23.07,30.95,289990.09,7447258.59
"287824",287824,1990,53,"ob","Elephant bull",1,-23.03,30.94,288902.96,7451674.2
"287844",287844,1990,53,"ob","Elephant bull",2,-23.04,30.95,289943.52,7450581.09
"287850",287850,1990,53,"ob","Elephant bull",1,-23.07,30.96,291014.83,7447272.93
"287851",287851,1990,53,"ob","Elephant bull",3,-23.07,30.96,291014.83,7447272.93
"287892",287892,1990,53,"ob","Elephant bull",2,-23.07,30.98,293064.3,7447301.4
"287895",287895,1990,53,"ob","Elephant bull",2,-23.08,30.98,293079.61,7446193.91
"287902",287902,1990,53,"ob","Elephant bull",5,-23.06,30.98,293049,7448408.88
"287914",287914,1990,53,"ob","Elephant bull",3,-23,30.96,290906.78,7455025.38
"287915",287915,1990,53,"ob","Elephant bull",1,-22.99,30.96,290891.37,7456132.86
"287958",287958,1990,53,"ob","Elephant bull",3,-23.01,31,295022.94,7453974.42
"287972",287972,1990,53,"ob","Elephant bull",1,-23.04,30.99,294043.37,7450637.96
"287990",287990,1990,53,"ob","Elephant bull",1,-23.1,31.03,298232.71,7444048.93
"288051",288051,1990,53,"ob","Elephant bull",1,-23.1,31.07,302330.6,7444103.67
"288344",288344,1990,54,"ob","Elephant bull",1,-22.88,30.98,292774.61,7468343.43
"288345",288345,1990,54,"ob","Elephant bull",2,-22.88,30.97,291748.44,7468329.32
"288349",288349,1990,54,"ob","Elephant bull",1,-22.94,30.96,290814.41,7461670.28
"288398",288398,1990,54,"ob","Elephant bull",1,-22.92,31,294887.13,7463941.61
"288399",288399,1990,54,"ob","Elephant bull",1,-22.88,31,294826.94,7468371.43
"288401",288401,1990,54,"ob","Elephant bull",1,-22.88,31.01,295853.09,7468385.33
"288420",288420,1990,54,"ob","Elephant bull",11,-22.96,31,294947.43,7459511.76
"288565",288565,1990,54,"ob","Elephant bull",1,-23,31.1,305260.13,7455218.28
"288692",288692,1990,54,"ob","Elephant bull",1,-22.93,31.15,310288.43,7463035.63
"289087",289087,1990,55,"ob","Elephant bull",2,-22.75,31.05,299767.61,7482836.72
"289094",289094,1990,55,"ob","Elephant bull",1,-22.75,31.04,298740.5,7482823.16
"289097",289097,1990,55,"ob","Elephant bull",3,-22.77,31.05,299796.78,7480621.89
"289099",289099,1990,55,"ob","Elephant bull",2,-22.75,31.02,296686.25,7482795.84
"289110",289110,1990,55,"ob","Elephant bull",4,-22.78,31,294676.89,7479445.91
"289189",289189,1990,55,"ob","Elephant bull",1,-22.87,30.98,292759.43,7469450.89
"289190",289190,1990,55,"ob","Elephant bull",4,-22.87,30.97,291733.19,7469436.79
"289192",289192,1990,55,"ob","Elephant bull",6,-22.87,30.97,291733.19,7469436.79
"289198",289198,1990,55,"ob","Elephant bull",2,-22.69,31.07,301735.35,7489508.04
"289199",289199,1990,55,"ob","Elephant bull",3,-22.7,31.07,301749.75,7488400.64
"289460",289460,1990,47,"ob","Elephant bull",5,-22.64,31.19,313998.26,7495200.04
"289465",289465,1990,47,"ob","Elephant bull",3,-22.63,31.24,319124.5,7496369.01
"289471",289471,1990,47,"ob","Elephant bull",1,-22.66,31.15,309914.27,7492934.76
"289480",289480,1990,47,"ob","Elephant bull",1,-22.64,31.27,322221.14,7495297.86
"289501",289501,1990,47,"ob","Elephant bull",3,-22.67,31.18,313011.04,7491865.47
"289506",289506,1990,47,"ob","Elephant bull",1,-22.65,31.27,322234.02,7494190.55
"289507",289507,1990,47,"ob","Elephant bull",6,-22.66,31.25,320191.5,7493059.19
"289508",289508,1990,47,"ob","Elephant bull",6,-22.67,31.22,317121.64,7491915.26
"289522",289522,1990,47,"ob","Elephant bull",5,-22.68,31.21,316107.33,7490795.58
"289536",289536,1990,47,"ob","Elephant bull",1,-22.7,31.17,312024.32,7488530.79
"289538",289538,1990,47,"ob","Elephant bull",3,-22.71,31.16,311010.61,7487410.73
"289541",289541,1990,47,"ob","Elephant bull",1,-22.72,31.16,311024.35,7486303.37
"289546",289546,1990,47,"ob","Elephant bull",7,-22.69,31.23,318175.66,7489712.88
"289624",289624,1990,47,"ob","Elephant bull",1,-22.74,31.3,325431.43,7484260.41
"289670",289670,1990,48,"ob","Elephant bull",1,-22.76,31.36,331618.4,7482115.29
"289674",289674,1990,48,"ob","Elephant bull",5,-22.79,31.39,334735.28,7478827.28
"289704",289704,1990,48,"ob","Elephant bull",1,-22.77,31.35,330603.83,7480996.6
"289760",289760,1990,48,"ob","Elephant bull",2,-22.81,31.34,329626.71,7476555.93
"289761",289761,1990,48,"ob","Elephant bull",3,-22.81,31.33,328600.16,7476544.36
"289788",289788,1990,48,"ob","Elephant bull",7,-22.87,31.22,317388.01,7469768.42
"289828",289828,1990,48,"ob","Elephant bull",2,-22.87,31.25,320466.42,7469805.29
"289850",289850,1990,48,"ob","Elephant bull",4,-22.88,31.29,324583.76,7468746.14
"289888",289888,1990,48,"ob","Elephant bull",3,-22.88,31.39,334843.98,7468861.75
"289927",289927,1990,49,"ob","Elephant bull",1,-22.93,31.25,320545.41,7463161.21
"289930",289930,1990,49,"ob","Elephant bull",1,-22.92,31.28,323609.48,7464304.86
"289986",289986,1990,49,"ob","Elephant bull",1,-22.98,31.27,322661.98,7457648.77
"290001",290001,1990,49,"ob","Elephant bull",1,-22.96,31.37,332890.14,7459980.78
"290002",290002,1990,49,"ob","Elephant bull",1,-22.96,31.37,332890.14,7459980.78
"290005",290005,1990,49,"ob","Elephant bull",3,-22.96,31.37,332890.14,7459980.78
"290021",290021,1990,49,"ob","Elephant bull",1,-22.97,31.36,331877.1,7458862.06
"290061",290061,1990,49,"ob","Elephant bull",1,-23.02,31.37,332963.98,7453336.93
"290069",290069,1990,49,"ob","Elephant bull",1,-22.91,31.34,329751.37,7465482.89
"290074",290074,1990,49,"ob","Elephant bull",1,-22.91,31.39,334880.3,7465539.88
"290164",290164,1990,50,"ob","Elephant bull",2,-23.03,31.44,340150.37,7452307.76
"290199",290199,1990,50,"ob","Elephant bull",2,-23.08,31.42,338160.46,7446749.29
"290202",290202,1990,50,"ob","Elephant bull",1,-23.07,31.43,339173.04,7447867.63
"290205",290205,1990,50,"ob","Elephant bull",1,-23.07,31.44,340197.59,7447878.6
"290211",290211,1990,50,"ob","Elephant bull",3,-23.08,31.42,338160.46,7446749.29
"290219",290219,1990,50,"ob","Elephant bull",4,-23.08,31.45,341233.89,7446782.21
"290221",290221,1990,50,"ob","Elephant bull",1,-23.09,31.45,341245.63,7445674.92
"290227",290227,1990,50,"ob","Elephant bull",9,-23.1,31.43,339208.74,7444545.74
"290247",290247,1990,50,"ob","Elephant bull",1,-23.12,31.45,341280.91,7442353.04
"290248",290248,1990,50,"ob","Elephant bull",10,-23.12,31.46,342305.07,7442363.88
"290361",290361,1990,51,"ob","Elephant bull",1,-22.61,31.27,322182.54,7498619.76
"290387",290387,1990,6,"ob","Elephant bull",1,-23.74,31.45,342019.6,7373698.16
"290402",290402,1990,6,"ob","Elephant bull",1,-23.74,31.45,342019.6,7373698.16
"290411",290411,1990,6,"ob","Elephant bull",1,-23.75,31.38,334896.35,7372511.27
"290428",290428,1990,6,"ob","Elephant bull",1,-23.72,31.48,345054.13,7375945.89
"290433",290433,1990,6,"ob","Elephant bull",1,-23.72,31.47,344034.58,7375934.97
"290733",290733,1990,6,"ob","Elephant bull",2,-23.55,31.38,334645.07,7394659.09
"290752",290752,1990,6,"ob","Elephant bull",4,-23.54,31.38,334632.56,7395766.47
"291038",291038,1990,7,"ob","Elephant bull",1,-23.4,31.31,327303.49,7411187.52
"291161",291161,1990,7,"ob","Elephant bull",1,-23.49,31.27,323334.92,7401172.38
"291482",291482,1990,9,"ob","Elephant bull",1,-23.49,31.08,303927.65,7400925.9
"291535",291535,1990,9,"ob","Elephant bull",1,-23.58,31.25,321413.71,7391180.8
"291555",291555,1990,9,"ob","Elephant bull",1,-23.57,31.24,320379.39,7392275.73
"291806",291806,1990,10,"ob","Elephant bull",1,-23.31,31.01,296502.15,7420763.86
"291812",291812,1990,10,"ob","Elephant bull",1,-23.36,31.03,298623.36,7415254.37
"291813",291813,1990,10,"ob","Elephant bull",1,-23.35,31.03,298608.26,7416361.87
"291816",291816,1990,10,"ob","Elephant bull",1,-23.38,31.05,300698.25,7413067.13
"291834",291834,1990,10,"ob","Elephant bull",2,-23.32,31.04,299585.79,7419698.25
"291837",291837,1990,10,"ob","Elephant bull",1,-23.31,31.03,298547.91,7420791.85
"291866",291866,1990,10,"ob","Elephant bull",8,-23.31,31.05,300593.66,7420819.55
"292002",292002,1990,10,"ob","Elephant bull",1,-23.42,31.04,299736.13,7408623.28
"292098",292098,1990,10,"ob","Elephant bull",1,-23.42,31.1,305868.23,7408705.42
"292104",292104,1990,10,"ob","Elephant bull",1,-23.44,31.12,307941.14,7406517.29
"292114",292114,1990,10,"ob","Elephant bull",1,-23.42,31.12,307912.23,7408732.23
"292268",292268,1990,11,"ob","Elephant bull",1,-23.36,31.26,322139.66,7415556.36
"292494",292494,1990,11,"ob","Elephant bull",4,-23.21,31.28,323987.28,7432191.59
"292522",292522,1990,11,"ob","Elephant bull",4,-23.21,31.24,319893.07,7432142.57
"292546",292546,1990,11,"ob","Elephant bull",1,-23.21,31.22,317845.95,7432117.64
"292572",292572,1990,11,"ob","Elephant bull",1,-23.19,30.96,291200.79,7433982.88
"292613",292613,1990,11,"ob","Elephant bull",1,-23.19,30.98,293248.43,7434011.46
"292614",292614,1990,11,"ob","Elephant bull",3,-23.18,30.97,292209.16,7435104.71
"292627",292627,1990,11,"ob","Elephant bull",4,-23.18,30.98,293233.05,7435118.96
"292636",292636,1990,11,"ob","Elephant bull",2,-23.25,31.02,297434.24,7427422.86
"292642",292642,1990,11,"ob","Elephant bull",1,-23.21,31,295326.53,7431824.77
"292657",292657,1990,11,"ob","Elephant bull",1,-23.2,31,295311.29,7432932.27
"293112",293112,1990,11,"ob","Elephant bull",1,-23.21,31.16,311704.48,7432041.15
"293180",293180,1990,11,"ob","Elephant bull",1,-23.24,31.18,313793.28,7428744.68
"293261",293261,1990,13,"ob","Elephant bull",1,-23.71,31.5,347081.55,7377074.87
"293295",293295,1990,13,"ob","Elephant bull",1,-23.76,31.52,349178.35,7371559.43
"293301",293301,1990,13,"ob","Elephant bull",2,-23.77,31.56,353266.42,7370493.96
"293306",293306,1990,13,"ob","Elephant bull",1,-23.79,31.57,354307.84,7368289.56
"293309",293309,1990,13,"ob","Elephant bull",1,-23.8,31.57,354318.99,7367182.22
"293310",293310,1990,13,"ob","Elephant bull",4,-23.8,31.57,354318.99,7367182.22
"293313",293313,1990,13,"ob","Elephant bull",2,-23.84,31.59,356400.8,7362773.24
"293316",293316,1990,13,"ob","Elephant bull",1,-23.82,31.63,360453.67,7365027.86
"293318",293318,1990,13,"ob","Elephant bull",1,-23.83,31.61,358427.09,7363900.7
"293325",293325,1990,13,"ob","Elephant bull",4,-23.81,31.62,359424.18,7366125.31
"293352",293352,1990,13,"ob","Elephant bull",1,-23.8,31.57,354318.99,7367182.22
"293365",293365,1990,13,"ob","Elephant bull",1,-23.79,31.65,362459.51,7368369.35
"293375",293375,1990,13,"ob","Elephant bull",2,-23.79,31.58,355326.81,7368299.79
"293378",293378,1990,13,"ob","Elephant bull",1,-23.78,31.61,358372.86,7369437.36
"293381",293381,1990,13,"ob","Elephant bull",1,-23.78,31.63,360410.93,7369457.16
"293386",293386,1990,13,"ob","Elephant bull",1,-23.77,31.59,356323.79,7370524.61
"293406",293406,1990,13,"ob","Elephant bull",2,-23.75,31.62,359359.64,7372769.27
"293419",293419,1990,13,"ob","Elephant bull",2,-23.74,31.63,360368.25,7373886.44
"293422",293422,1990,13,"ob","Elephant bull",3,-23.73,31.63,360357.59,7374993.75
"293466",293466,1990,13,"ob","Elephant bull",1,-23.68,31.61,358264.73,7380510.58
"293475",293475,1990,13,"ob","Elephant bull",1,-23.65,31.58,355172.22,7383802.41
"293550",293550,1990,14,"ob","Elephant bull",3,-23.53,31.48,344830.39,7396985.57
"293562",293562,1990,14,"ob","Elephant bull",1,-23.52,31.48,344818.66,7398092.91
"293588",293588,1990,14,"ob","Elephant bull",1,-23.5,31.49,345816.47,7400318.35
"293607",293607,1990,14,"ob","Elephant bull",1,-23.49,31.41,337634.15,7401337.56
"293609",293609,1990,14,"ob","Elephant bull",5,-23.49,31.43,339676.84,7401360.01
"293682",293682,1990,15,"ob","Elephant bull",1,-23.24,31.36,332213.01,7428964.2
"293688",293688,1990,15,"ob","Elephant bull",2,-23.24,31.32,328119.84,7428917.4
"293691",293691,1990,15,"ob","Elephant bull",1,-23.25,31.33,329155.88,7427821.85
"293705",293705,1990,15,"ob","Elephant bull",5,-23.29,31.35,331252.72,7423415.85
"293742",293742,1990,15,"ob","Elephant bull",1,-23.42,31.42,338570.39,7409100.28
"293751",293751,1990,15,"ob","Elephant bull",1,-23.36,31.37,333385.87,7415687.54
"293778",293778,1990,15,"ob","Elephant bull",2,-23.4,31.5,346722.32,7411402.27
"293791",293791,1990,15,"ob","Elephant bull",1,-23.37,31.51,347710.04,7414734.79
"293806",293806,1990,15,"ob","Elephant bull",2,-23.32,31.47,343562.45,7420228.62
"293808",293808,1990,15,"ob","Elephant bull",1,-23.32,31.51,347652.97,7420271.31
"293844",293844,1990,18,"ob","Elephant bull",1,-23.21,31.32,328081.42,7432239.47
"293850",293850,1990,18,"ob","Elephant bull",1,-23.19,31.35,331126.86,7434489.34
"293868",293868,1990,18,"ob","Elephant bull",1,-23.15,31.4,336196.48,7438975.8
"293871",293871,1990,18,"ob","Elephant bull",4,-23.14,31.41,337208.36,7440094.32
"293876",293876,1990,18,"ob","Elephant bull",4,-23.14,31.37,333112.21,7440049.08
"293902",293902,1990,18,"ob","Elephant bull",2,-23.1,31.4,336135.75,7444512.38
"293904",293904,1990,18,"ob","Elephant bull",1,-23.1,31.41,337160.08,7444523.57
"293905",293905,1990,18,"ob","Elephant bull",1,-23.1,31.42,338184.41,7444534.69
"293907",293907,1990,18,"ob","Elephant bull",1,-23.1,31.42,338184.41,7444534.69
"293912",293912,1990,18,"ob","Elephant bull",10,-23.1,31.4,336135.75,7444512.38
"293927",293927,1990,18,"ob","Elephant bull",2,-23.18,31.45,341351.59,7435709.24
"293933",293933,1990,18,"ob","Elephant bull",6,-23.17,31.5,346458.69,7436870.16
"293954",293954,1990,18,"ob","Elephant bull",2,-23.15,31.46,342340.16,7439042
"293957",293957,1990,18,"ob","Elephant bull",1,-23.13,31.44,340268.58,7441234.82
"293988",293988,1990,18,"ob","Elephant bull",1,-23.21,31.44,340363.5,7432376.37
"293994",293994,1990,18,"ob","Elephant bull",1,-23.21,31.43,339340.02,7432365.35
"294003",294003,1990,18,"ob","Elephant bull",1,-23.25,31.44,340411.08,7427947.11
"294011",294011,1990,18,"ob","Elephant bull",2,-23.25,31.43,339387.9,7427936.08
"294012",294012,1990,18,"ob","Elephant bull",2,-23.26,31.44,340422.99,7426839.8
"294017",294017,1990,18,"ob","Elephant bull",3,-23.26,31.44,340422.99,7426839.8
"294019",294019,1990,18,"ob","Elephant bull",3,-23.24,31.42,338352.66,7429032.3
"294066",294066,1990,18,"ob","Elephant bull",4,-23.3,31.49,345584.62,7422464.72
"294104",294104,1990,18,"ob","Elephant bull",1,-23.26,31.51,347584.64,7426915.09
"294184",294184,1990,18,"ob","Elephant bull",1,-23.21,31.32,328081.42,7432239.47
"294187",294187,1990,18,"ob","Elephant bull",1,-23.19,31.35,331126.86,7434489.34
"294203",294203,1990,18,"ob","Elephant bull",1,-23.15,31.4,336196.48,7438975.8
"294209",294209,1990,18,"ob","Elephant bull",4,-23.14,31.37,333112.21,7440049.08
"294214",294214,1990,18,"ob","Elephant bull",4,-23.14,31.42,338232.38,7440105.46
"294231",294231,1990,18,"ob","Elephant bull",2,-23.11,31.37,333075.08,7443371.06
"294239",294239,1990,18,"ob","Elephant bull",1,-23.1,31.42,338184.41,7444534.69
"294241",294241,1990,18,"ob","Elephant bull",1,-23.1,31.41,337160.08,7444523.57
"294242",294242,1990,18,"ob","Elephant bull",1,-23.1,31.41,337160.08,7444523.57
"294244",294244,1990,18,"ob","Elephant bull",2,-23.1,31.4,336135.75,7444512.38
"294247",294247,1990,18,"ob","Elephant bull",10,-23.1,31.4,336135.75,7444512.38
"294255",294255,1990,18,"ob","Elephant bull",1,-23.13,31.44,340268.58,7441234.82
"294264",294264,1990,18,"ob","Elephant bull",2,-23.14,31.46,342328.46,7440149.3
"294265",294265,1990,18,"ob","Elephant bull",6,-23.15,31.47,343364.1,7439052.79
"294277",294277,1990,18,"ob","Elephant bull",6,-23.17,31.5,346458.69,7436870.16
"294285",294285,1990,18,"ob","Elephant bull",3,-23.16,31.42,338256.4,7437890.84
"294294",294294,1990,18,"ob","Elephant bull",2,-23.18,31.45,341351.59,7435709.24
"294326",294326,1990,18,"ob","Elephant bull",1,-23.21,31.44,340363.5,7432376.37
"294332",294332,1990,18,"ob","Elephant bull",1,-23.21,31.43,339340.02,7432365.35
"294341",294341,1990,18,"ob","Elephant bull",1,-23.25,31.44,340411.08,7427947.11
"294348",294348,1990,18,"ob","Elephant bull",2,-23.26,31.44,340422.99,7426839.8
"294349",294349,1990,18,"ob","Elephant bull",2,-23.25,31.43,339387.9,7427936.08
"294360",294360,1990,18,"ob","Elephant bull",3,-23.24,31.42,338352.66,7429032.3
"294362",294362,1990,18,"ob","Elephant bull",3,-23.26,31.44,340422.99,7426839.8
"294399",294399,1990,18,"ob","Elephant bull",4,-23.3,31.49,345584.62,7422464.72
"294436",294436,1990,18,"ob","Elephant bull",1,-23.26,31.51,347584.64,7426915.09
"294660",294660,1990,19,"ob","Elephant bull",1,-23.92,31.71,368704.23,7354031.17
"294674",294674,1990,19,"ob","Elephant bull",1,-23.88,31.66,363572.65,7358413.12
"294692",294692,1990,19,"ob","Elephant bull",1,-23.84,31.64,361493.63,7362823.01
"294725",294725,1990,19,"ob","Elephant bull",1,-23.66,31.63,360283.09,7382744.93
"294833",294833,1990,19,"ob","Elephant bull",2,-23.74,31.68,365464.92,7373934.61
"294970",294970,1990,1,"ob","Elephant bull",1,-23.86,31.58,355404.43,7360548.37
"294971",294971,1990,1,"ob","Elephant bull",1,-23.86,31.58,355404.43,7360548.37
"295007",295007,1990,1,"ob","Elephant bull",4,-23.89,31.58,355437.76,7357226.32
"295008",295008,1990,1,"ob","Elephant bull",1,-23.89,31.58,355437.76,7357226.32
"295028",295028,1990,1,"ob","Elephant bull",1,-23.96,31.62,359586.2,7349515.21
"295045",295045,1990,1,"ob","Elephant bull",1,-23.97,31.6,357561.94,7348387.8
"295108",295108,1990,1,"ob","Elephant bull",1,-23.85,31.61,358448.81,7361686.03
"295140",295140,1990,1,"ob","Elephant bull",1,-23.86,31.63,360496.49,7360598.53
"295154",295154,1990,1,"ob","Elephant bull",2,-23.86,31.61,358459.67,7360578.69
"295160",295160,1990,1,"ob","Elephant bull",2,-23.86,31.6,357441.26,7360568.65
"295173",295173,1990,1,"ob","Elephant bull",1,-23.86,31.58,355404.43,7360548.37
"295178",295178,1990,1,"ob","Elephant bull",1,-23.87,31.62,359488.87,7359481.31
"295230",295230,1990,1,"ob","Elephant bull",1,-23.9,31.63,360539.37,7356169.19
"295234",295234,1990,1,"ob","Elephant bull",2,-23.9,31.64,361557.46,7356179.02
"295243",295243,1990,1,"ob","Elephant bull",3,-23.9,31.64,361557.46,7356179.02
"295392",295392,1990,1,"ob","Elephant bull",1,-23.97,31.71,368754.83,7348494.56
"295517",295517,1990,1,"ob","Elephant bull",1,-24.02,31.72,369822.66,7342967.21
"295518",295518,1990,1,"ob","Elephant bull",1,-24.02,31.71,368805.53,7342957.93
"295630",295630,1990,2,"ob","Elephant bull",1,-23.87,31.37,334029.67,7359210.63
"295637",295637,1990,2,"ob","Elephant bull",1,-23.89,31.37,334055.18,7356995.78
"295669",295669,1990,2,"ob","Elephant bull",1,-23.87,31.49,346250.33,7359346.17
"295690",295690,1990,2,"ob","Elephant bull",1,-23.88,31.51,348298.72,7358260.38
"295712",295712,1990,2,"ob","Elephant bull",1,-23.87,31.55,352360.49,7359410.06
"295713",295713,1990,2,"ob","Elephant bull",2,-23.87,31.55,352360.49,7359410.06
"295716",295716,1990,2,"ob","Elephant bull",5,-23.86,31.56,353367.58,7360527.81
"295750",295750,1990,2,"ob","Elephant bull",1,-23.93,31.5,347339.19,7352712.71
"295751",295751,1990,2,"ob","Elephant bull",1,-23.92,31.5,347327.43,7353820.1
"295776",295776,1990,2,"ob","Elephant bull",1,-23.93,31.46,343267.58,7352668.89
"295846",295846,1990,2,"ob","Elephant bull",3,-24.04,31.52,349502.91,7340552.94
"295860",295860,1990,2,"ob","Elephant bull",1,-24.04,31.51,348485.88,7340542.2
"295861",295861,1990,2,"ob","Elephant bull",1,-24.03,31.51,348474.15,7341649.6
"295927",295927,1990,2,"ob","Elephant bull",1,-23.99,31.37,334183.06,7345921.45
"295931",295931,1990,3,"ob","Elephant bull",1,-23.96,31.36,333126.94,7349231.96
"296006",296006,1990,3,"ob","Elephant bull",1,-23.93,31.22,318836.8,7352381.7
"296044",296044,1990,3,"ob","Elephant bull",1,-23.96,31.21,317860.95,7349046.34
"296131",296131,1990,3,"ob","Elephant bull",1,-23.98,31.36,333152.7,7347017.08
"296150",296150,1990,3,"ob","Elephant bull",3,-23.99,31.35,332148.12,7345897.76
"296238",296238,1990,3,"ob","Elephant bull",1,-24,31.3,327074.07,7344729.81
"296284",296284,1990,3,"ob","Elephant bull",1,-24.01,31.27,324035.43,7343585.16
"296309",296309,1990,3,"ob","Elephant bull",1,-24,31.27,324021.82,7344692.64
"296315",296315,1990,3,"ob","Elephant bull",1,-24,31.26,323004.39,7344680.1
"296316",296316,1990,3,"ob","Elephant bull",1,-24.01,31.26,323018.08,7343572.62
"296317",296317,1990,3,"ob","Elephant bull",1,-24.01,31.26,323018.08,7343572.62
"296343",296343,1990,3,"ob","Elephant bull",1,-24.02,31.25,322014.5,7342452.52
"296379",296379,1990,3,"ob","Elephant bull",1,-24.03,31.23,319993.88,7341319.57
"296390",296390,1990,3,"ob","Elephant bull",1,-24.05,31.23,320021.77,7339104.57
"296478",296478,1990,3,"ob","Elephant bull",2,-23.9,31.19,315740.24,7355665.38
"296510",296510,1990,3,"ob","Elephant bull",1,-23.9,31.21,317776.71,7355691.31
"296605",296605,1990,3,"ob","Elephant bull",3,-23.88,31.31,327932.38,7358031.52
"296614",296614,1990,3,"ob","Elephant bull",3,-23.87,31.34,330974.42,7359175.12
"296617",296617,1990,3,"ob","Elephant bull",2,-23.89,31.34,331000.41,7356960.25
"296633",296633,1990,4,"ob","Elephant bull",3,-23.84,31.35,331954.14,7362509.32
"296635",296635,1990,4,"ob","Elephant bull",1,-23.79,31.35,331889.73,7368046.44
"296640",296640,1990,4,"ob","Elephant bull",1,-23.8,31.34,330883.64,7366927.14
"296641",296641,1990,4,"ob","Elephant bull",1,-23.81,31.34,330896.59,7365819.71
"296651",296651,1990,4,"ob","Elephant bull",1,-23.85,31.33,329929.88,7361378.02
"296652",296652,1990,4,"ob","Elephant bull",1,-23.85,31.33,329929.88,7361378.02
"296689",296689,1990,4,"ob","Elephant bull",1,-23.8,31.32,328845.7,7366903.16
"296740",296740,1990,4,"ob","Elephant bull",2,-23.81,31.3,326821.01,7365771.45
"296741",296741,1990,4,"ob","Elephant bull",6,-23.8,31.3,326807.74,7366878.9
"296787",296787,1990,4,"ob","Elephant bull",1,-23.76,31.28,324716.14,7371284.13
"296802",296802,1990,4,"ob","Elephant bull",1,-23.82,31.28,324796.63,7364639.44
"296813",296813,1990,4,"ob","Elephant bull",2,-23.85,31.27,323818.34,7361304.68
"297226",297226,1990,4,"ob","Elephant bull",1,-23.81,31.18,314593.91,7365619.78
"297310",297310,1990,4,"ob","Elephant bull",3,-23.69,31.16,312384.06,7378883.39
"297524",297524,1990,5,"ob","Elephant bull",2,-23.81,31.36,332934.36,7365843.41
"297548",297548,1990,5,"ob","Elephant bull",1,-23.83,31.37,333978.7,7363640.32
"297575",297575,1990,5,"ob","Elephant bull",1,-23.8,31.38,334959.48,7366974.23
"297577",297577,1990,5,"ob","Elephant bull",1,-23.82,31.38,334984.77,7364759.41
"297578",297578,1990,5,"ob","Elephant bull",1,-23.83,31.38,334997.42,7363651.99
"297583",297583,1990,5,"ob","Elephant bull",1,-23.87,31.39,336066.48,7359233.94
"297587",297587,1990,5,"ob","Elephant bull",1,-23.84,31.4,337047.35,7362567.72
"297589",297589,1990,5,"ob","Elephant bull",1,-23.81,31.4,337009.86,7365889.94
"297618",297618,1990,5,"ob","Elephant bull",1,-23.81,31.41,338028.73,7365901.39
"297631",297631,1990,5,"ob","Elephant bull",2,-23.83,31.4,337034.85,7363675.13
"297633",297633,1990,5,"ob","Elephant bull",1,-23.81,31.4,337009.86,7365889.94
"297655",297655,1990,5,"ob","Elephant bull",1,-23.8,31.41,338016.32,7367008.79
"297656",297656,1990,5,"ob","Elephant bull",2,-23.8,31.41,338016.32,7367008.79
"297657",297657,1990,5,"ob","Elephant bull",1,-23.81,31.42,339047.59,7365912.78
"297661",297661,1990,5,"ob","Elephant bull",1,-23.83,31.41,338053.56,7363686.59
"297662",297662,1990,5,"ob","Elephant bull",2,-23.83,31.41,338053.56,7363686.59
"297665",297665,1990,5,"ob","Elephant bull",8,-23.86,31.41,338090.84,7360364.37
"297675",297675,1990,5,"ob","Elephant bull",1,-23.77,31.43,340017.48,7370353.65
"297679",297679,1990,5,"ob","Elephant bull",1,-23.77,31.44,341036.65,7370364.87
"297685",297685,1990,5,"ob","Elephant bull",1,-23.78,31.43,340029.71,7369246.26
"297694",297694,1990,5,"ob","Elephant bull",2,-23.81,31.42,339047.59,7365912.78
"297696",297696,1990,5,"ob","Elephant bull",1,-23.82,31.42,339059.93,7364805.38
"297698",297698,1990,5,"ob","Elephant bull",1,-23.83,31.42,339072.27,7363697.98
"297705",297705,1990,5,"ob","Elephant bull",2,-23.86,31.43,340127.78,7360387.1
"297706",297706,1990,5,"ob","Elephant bull",5,-23.85,31.45,342152.59,7361516.93
"297722",297722,1990,5,"ob","Elephant bull",2,-23.78,31.45,342067.89,7369268.64
"297725",297725,1990,5,"ob","Elephant bull",1,-23.78,31.45,342067.89,7369268.64
"297729",297729,1990,5,"ob","Elephant bull",2,-23.8,31.45,342092.07,7367053.88
"297739",297739,1990,5,"ob","Elephant bull",1,-23.84,31.45,342140.47,7362624.32
"297742",297742,1990,5,"ob","Elephant bull",4,-23.86,31.46,343183.17,7360420.65
"297753",297753,1990,5,"ob","Elephant bull",1,-23.8,31.45,342092.07,7367053.88
"297768",297768,1990,5,"ob","Elephant bull",3,-23.82,31.47,344153.8,7364861.22
"297813",297813,1990,5,"ob","Elephant bull",1,-23.8,31.49,346167.76,7367097.81
"297818",297818,1990,5,"ob","Elephant bull",1,-23.82,31.48,345172.57,7364872.18
"297819",297819,1990,5,"ob","Elephant bull",1,-23.83,31.49,346203.12,7363775.69
"297820",297820,1990,5,"ob","Elephant bull",2,-23.83,31.49,346203.12,7363775.69
"297823",297823,1990,5,"ob","Elephant bull",2,-23.84,31.5,347233.52,7362679.13
"297830",297830,1990,5,"ob","Elephant bull",2,-23.83,31.51,348240.48,7363797.24
"297837",297837,1990,5,"ob","Elephant bull",1,-23.81,31.51,348217.21,7366011.97
"297841",297841,1990,5,"ob","Elephant bull",1,-23.78,31.51,348182.35,7369334.07
"297885",297885,1990,5,"ob","Elephant bull",1,-23.84,31.53,350289.31,7362711.14
"297934",297934,1990,5,"ob","Elephant bull",4,-23.84,31.57,354363.65,7362752.83
"297948",297948,1990,5,"ob","Elephant bull",1,-23.81,31.58,355348.96,7366085.1
"297949",297949,1990,5,"ob","Elephant bull",2,-23.81,31.59,356367.77,7366095.26
"297970",297970,1990,20,"ob","Elephant bull",2,-24.03,31.65,362713.35,7341793.34
"297973",297973,1990,20,"ob","Elephant bull",1,-24.02,31.65,362702.72,7342900.69
"298133",298133,1990,20,"ob","Elephant bull",4,-24.04,31.55,352553.97,7340584.73
"298193",298193,1990,20,"ob","Elephant bull",1,-24.05,31.48,345446.76,7339402.14
"298195",298195,1990,20,"ob","Elephant bull",1,-24.05,31.49,346463.72,7339413.1
"298198",298198,1990,20,"ob","Elephant bull",1,-24.03,31.49,346439.93,7341627.91
"298203",298203,1990,20,"ob","Elephant bull",1,-24.04,31.48,345434.79,7340509.55
"298404",298404,1990,21,"ob","Elephant bull",1,-24.25,31.47,344671.84,7317242.6
"298405",298405,1990,21,"ob","Elephant bull",1,-24.23,31.47,344647.55,7319457.47
"298479",298479,1990,21,"ob","Elephant bull",1,-24.17,31.53,350670.81,7326167.43
"298522",298522,1990,21,"ob","Elephant bull",1,-24.14,31.62,359781.89,7329582.69
"298544",298544,1990,21,"ob","Elephant bull",3,-24.15,31.6,357760.54,7328455.14
"298755",298755,1990,22,"ob","Elephant bull",1,-24.32,31.5,347801.44,7309523.65
"298759",298759,1990,22,"ob","Elephant bull",2,-24.33,31.47,344769.18,7308383.05
"298762",298762,1990,22,"ob","Elephant bull",1,-24.31,31.5,347789.5,7310631.09
"298768",298768,1990,22,"ob","Elephant bull",1,-24.31,31.5,347789.5,7310631.09
"298771",298771,1990,22,"ob","Elephant bull",1,-24.32,31.46,343742.17,7309479.29
"298791",298791,1990,22,"ob","Elephant bull",3,-24.3,31.46,343717.66,7311694.2
"298852",298852,1990,22,"ob","Elephant bull",2,-24.29,31.56,353855.88,7312910.25
"299389",299389,1990,22,"ob","Elephant bull",1,-24.44,31.41,338820.29,7296132.47
"299425",299425,1990,22,"ob","Elephant bull",1,-24.42,31.4,337780.82,7298335.77
"299568",299568,1990,23,"ob","Elephant bull",1,-24.24,31.67,364968.23,7318558.18
"299650",299650,1990,23,"ob","Elephant bull",1,-24.16,31.63,360819.76,7327377.92
"299744",299744,1990,23,"ob","Elephant bull",1,-24.1,31.71,368886.86,7334099.23
"299766",299766,1990,23,"ob","Elephant bull",1,-24.08,31.71,368866.5,7336313.92
"300281",300281,1990,24,"ob","Elephant bull",1,-24.35,31.75,373200.68,7306452.35
"300302",300302,1990,24,"ob","Elephant bull",2,-24.33,31.76,374195.43,7308676.16
"300303",300303,1990,24,"ob","Elephant bull",2,-24.33,31.76,374195.43,7308676.16
"300310",300310,1990,24,"ob","Elephant bull",1,-24.32,31.71,369111.83,7309737.38
"300318",300318,1990,24,"ob","Elephant bull",1,-24.31,31.72,370116.39,7310854.12
"300348",300348,1990,24,"ob","Elephant bull",2,-24.31,31.76,374175.68,7310890.88
"300650",300650,1990,25,"ob","Elephant bull",2,-24.09,31.8,378025.75,7335287.74
"300837",300837,1990,25,"ob","Elephant bull",1,-24.04,31.86,384080.09,7340875.06
"300920",300920,1990,25,"ob","Elephant bull",2,-24.05,31.84,382055.36,7339751.13
"301015",301015,1990,25,"ob","Elephant bull",1,-24.11,31.84,382110.25,7333107.31
"301129",301129,1990,26,"ob","Elephant bull",1,-24.28,31.76,374146.1,7314212.94
"301134",301134,1990,26,"ob","Elephant bull",1,-24.28,31.76,374146.1,7314212.94
"301286",301286,1990,26,"ob","Elephant bull",2,-24.37,31.92,390464.07,7304382.31
"301367",301367,1990,26,"ob","Elephant bull",2,-24.32,31.86,384332.81,7309870.33
"301388",301388,1990,26,"ob","Elephant bull",1,-24.31,31.83,381279.34,7310952.39
"301395",301395,1990,26,"ob","Elephant bull",1,-24.31,31.86,384323.74,7310977.66
"301397",301397,1990,26,"ob","Elephant bull",1,-24.31,31.87,385338.53,7310985.93
"301409",301409,1990,26,"ob","Elephant bull",4,-24.3,31.85,383299.79,7312076.64
"301471",301471,1990,26,"ob","Elephant bull",1,-24.27,31.83,381242.13,7315381.73
"301480",301480,1990,26,"ob","Elephant bull",1,-24.26,31.83,381232.84,7316489.06
"301488",301488,1990,26,"ob","Elephant bull",1,-24.38,31.85,383373.08,7303217.94
"301489",301489,1990,26,"ob","Elephant bull",1,-24.38,31.85,383373.08,7303217.94
"301523",301523,1990,26,"ob","Elephant bull",2,-24.38,31.8,378301.87,7303175.01
"301526",301526,1990,26,"ob","Elephant bull",1,-24.38,31.78,376273.36,7303157.32
"301556",301556,1990,26,"ob","Elephant bull",1,-24.33,31.79,377239.39,7308702.98
"301558",301558,1990,26,"ob","Elephant bull",2,-24.33,31.76,374195.43,7308676.16
"301571",301571,1990,26,"ob","Elephant bull",2,-24.32,31.82,380273.93,7309836.48
"301588",301588,1990,26,"ob","Elephant bull",1,-24.31,31.8,378234.93,7310926.46
"302122",302122,1990,28,"ob","Elephant bull",1,-24.43,31.8,378349.79,7297638.21
"302140",302140,1990,28,"ob","Elephant bull",1,-24.42,31.82,380368.05,7298762.99
"302184",302184,1990,28,"ob","Elephant bull",1,-24.47,31.85,383455.81,7293251.81
"302202",302202,1990,28,"ob","Elephant bull",1,-24.4,31.84,382377.36,7300994.81
"302206",302206,1990,28,"ob","Elephant bull",1,-24.45,31.85,383437.4,7295466.51
"302309",302309,1990,28,"ob","Elephant bull",4,-24.44,31.9,388496.96,7296615.05
"302344",302344,1990,28,"ob","Elephant bull",1,-24.45,31.9,388505.76,7295507.71
"302346",302346,1990,28,"ob","Elephant bull",1,-24.46,31.9,388514.56,7294400.37
"302353",302353,1990,28,"ob","Elephant bull",1,-24.47,31.9,388523.37,7293293.03
"302366",302366,1990,28,"ob","Elephant bull",2,-24.4,31.91,389475.87,7301052.4
"302393",302393,1990,28,"ob","Elephant bull",1,-24.45,31.91,389519.43,7295515.73
"302537",302537,1990,28,"ob","Elephant bull",1,-24.49,31.89,387527.64,7291070.24
"302539",302539,1990,28,"ob","Elephant bull",2,-24.49,31.9,388540.99,7291078.34
"302561",302561,1990,28,"ob","Elephant bull",2,-24.5,31.92,390576.33,7289986.98
"302581",302581,1990,28,"ob","Elephant bull",1,-24.52,31.88,386541.23,7287740
"302604",302604,1990,28,"ob","Elephant bull",2,-24.52,31.87,385528.12,7287731.75
"302630",302630,1990,28,"ob","Elephant bull",1,-24.53,31.88,386550.22,7286632.65
"302635",302635,1990,28,"ob","Elephant bull",1,-24.54,31.88,386559.21,7285525.29
"302847",302847,1990,28,"ob","Elephant bull",7,-24.5,31.76,374363.86,7289850.85
"302959",302959,1990,28,"ob","Elephant bull",4,-24.69,31.82,380623.98,7268863.87
"302962",302962,1990,28,"ob","Elephant bull",1,-24.68,31.86,384661.78,7270005.48
"302966",302966,1990,28,"ob","Elephant bull",1,-24.67,31.85,383640.67,7271104.42
"302968",302968,1990,28,"ob","Elephant bull",1,-24.67,31.84,382628.76,7271095.91
"303017",303017,1990,28,"ob","Elephant bull",5,-24.65,31.88,386658.32,7273344.28
"303020",303020,1990,28,"ob","Elephant bull",1,-24.64,31.84,382600.7,7274418.06
"303110",303110,1990,28,"ob","Elephant bull",2,-24.6,31.8,378513.41,7278812.85
"303119",303119,1990,28,"ob","Elephant bull",1,-24.57,31.86,384560.78,7282186.6
"303144",303144,1990,28,"ob","Elephant bull",1,-24.71,31.89,387724.14,7266708.24
"303163",303163,1990,28,"ob","Elephant bull",1,-24.74,31.88,386739.73,7263377.86
"303178",303178,1990,28,"ob","Elephant bull",1,-24.71,31.85,383677.81,7266674.88
"303212",303212,1990,28,"ob","Elephant bull",1,-24.7,31.84,382656.85,7267773.74
"303221",303221,1990,28,"ob","Elephant bull",1,-24.71,31.83,381654.64,7266657.75
"303225",303225,1990,28,"ob","Elephant bull",1,-24.78,31.86,384753.97,7258931.59
"303227",303227,1990,28,"ob","Elephant bull",1,-24.78,31.86,384753.97,7258931.59
"303238",303238,1990,28,"ob","Elephant bull",1,-24.71,31.82,380643.04,7266649.08
"303261",303261,1990,30,"ob","Elephant bull",1,-24.73,31.98,396844.73,7264564.27
"303338",303338,1990,30,"ob","Elephant bull",1,-24.69,31.97,395800.05,7268986.14
"303447",303447,1990,30,"ob","Elephant bull",1,-24.77,31.93,391822.36,7260096.18
"303499",303499,1990,30,"ob","Elephant bull",1,-24.76,31.91,389791.37,7261187.59
"303731",303731,1990,31,"ob","Elephant bull",2,-24.49,31.67,365233.4,7290873.42
"303808",303808,1990,31,"ob","Elephant bull",2,-24.53,31.66,364262.98,7286433.98
"303847",303847,1990,31,"ob","Elephant bull",1,-24.57,31.66,364306.03,7282004.3
"303989",303989,1990,31,"ob","Elephant bull",1,-24.5,31.69,367270.7,7289785.38
"304029",304029,1990,31,"ob","Elephant bull",2,-24.4,31.77,375278.74,7300933.64
"304152",304152,1990,31,"ob","Elephant bull",4,-24.45,31.71,369245.67,7295341.42
"304602",304602,1990,32,"ob","Elephant bull",1,-24.63,31.66,364370.73,7275359.75
"304609",304609,1990,32,"ob","Elephant bull",1,-24.63,31.66,364370.73,7275359.75
"304634",304634,1990,32,"ob","Elephant bull",1,-24.63,31.64,362346.17,7275339.86
"304637",304637,1990,32,"ob","Elephant bull",2,-24.63,31.66,364370.73,7275359.75
"304665",304665,1990,32,"ob","Elephant bull",3,-24.64,31.6,358308.29,7274191.76
"304736",304736,1990,32,"ob","Elephant bull",1,-24.59,31.56,354201.42,7279687.21
"304773",304773,1990,32,"ob","Elephant bull",5,-24.58,31.47,345075.32,7280696.38
"304795",304795,1990,32,"ob","Elephant bull",1,-24.55,31.63,361245.71,7284189.28
"305037",305037,1990,34,"ob","Elephant bull",1,-24.62,31.7,368409.36,7276506.05
"305039",305039,1990,34,"ob","Elephant bull",2,-24.62,31.7,368409.36,7276506.05
"305042",305042,1990,34,"ob","Elephant bull",4,-24.61,31.7,368398.89,7277613.47
"305104",305104,1990,34,"ob","Elephant bull",2,-24.64,31.69,367418.12,7274281.6
"305111",305111,1990,34,"ob","Elephant bull",3,-24.67,31.69,367449.81,7270959.33
"305122",305122,1990,34,"ob","Elephant bull",4,-24.63,31.68,366395.29,7275379.34
"305284",305284,1990,34,"ob","Elephant bull",1,-24.71,31.78,376596.65,7266613.65
"305300",305300,1990,34,"ob","Elephant bull",4,-24.72,31.77,375594.99,7265497.2
"305660",305660,1990,35,"ob","Elephant bull",1,-24.91,31.68,366694.65,7244370.91
"305868",305868,1990,35,"ob","Elephant bull",1,-24.94,31.67,365717.15,7241038.67
"306117",306117,1990,36,"ob","Elephant bull",1,-24.81,31.81,379727.79,7255566.27
"306323",306323,1990,36,"ob","Elephant bull",1,-24.86,31.83,381796.85,7250046.68
"306324",306324,1990,36,"ob","Elephant bull",3,-24.87,31.83,381806.36,7248939.27
"306377",306377,1990,36,"ob","Elephant bull",1,-24.88,31.81,379795.45,7247814.34
"306434",306434,1990,36,"ob","Elephant bull",1,-24.87,31.8,378775.47,7248912.9
"306450",306450,1990,36,"ob","Elephant bull",3,-24.86,31.79,377755.34,7250011.39
"306531",306531,1990,37,"ob","Elephant bull",1,-24.81,31.98,396910.82,7255705.34
"306542",306542,1990,37,"ob","Elephant bull",1,-24.83,31.99,397937.96,7253498.11
"306617",306617,1990,37,"ob","Elephant bull",1,-24.88,31.97,395958.63,7247946.1
"306956",306956,1990,37,"ob","Elephant bull",2,-25.12,31.93,392127.67,7221337.08
"306959",306959,1990,37,"ob","Elephant bull",1,-25.12,31.95,394144.12,7221352.92
"306974",306974,1990,37,"ob","Elephant bull",5,-25.11,31.96,395143.81,7222468.15
"306976",306976,1990,37,"ob","Elephant bull",1,-25.11,31.96,395143.81,7222468.15
"306978",306978,1990,37,"ob","Elephant bull",1,-25.11,31.95,394135.51,7222460.34
"307031",307031,1990,37,"ob","Elephant bull",1,-25.08,31.97,396126.78,7225798.13
"307071",307071,1990,37,"ob","Elephant bull",1,-25.12,31.99,398177,7221383.7
"307143",307143,1990,37,"ob","Elephant bull",1,-25.06,32,399136.04,7228035.66
"307157",307157,1990,37,"ob","Elephant bull",1,-25.1,32.01,400177.19,7223613.46
"307163",307163,1990,37,"ob","Elephant bull",1,-25.11,32,399177.01,7222498.62
"307164",307164,1990,37,"ob","Elephant bull",1,-25.12,32,399185.22,7221391.21
"307221",307221,1990,37,"ob","Elephant bull",1,-25.06,32,399136.04,7228035.66
"307713",307713,1990,38,"ob","Elephant bull",1,-24.98,31.85,383930,7236774.86
"307744",307744,1990,38,"ob","Elephant bull",1,-24.97,31.83,381901.66,7237865.03
"307821",307821,1990,38,"ob","Elephant bull",1,-24.95,31.77,375824.68,7240026.36
"307888",307888,1990,38,"ob","Elephant bull",9,-24.99,31.78,376874.16,7235605.69
"308009",308009,1990,38,"ob","Elephant bull",1,-25.1,31.9,389084.93,7223527.63
"308024",308024,1990,38,"ob","Elephant bull",3,-25.05,31.92,391057.49,7229081.03
"308038",308038,1990,38,"ob","Elephant bull",3,-25.08,31.94,393101.13,7225774.73
"308141",308141,1990,39,"ob","Elephant bull",1,-25.08,31.35,333592.11,7225178.06
"308190",308190,1990,39,"ob","Elephant bull",1,-25.07,31.34,332569.79,7226273.3
"308262",308262,1990,39,"ob","Elephant bull",1,-25.07,31.32,330552.19,7226248.38
"308304",308304,1990,39,"ob","Elephant bull",3,-25.05,31.3,328506.72,7228438.37
"308481",308481,1990,39,"ob","Elephant bull",1,-25.01,31.34,332488.27,7232918.86
"308484",308484,1990,39,"ob","Elephant bull",1,-25,31.34,332474.71,7234026.44
"308498",308498,1990,39,"ob","Elephant bull",1,-25.01,31.33,331478.98,7232906.45
"308511",308511,1990,39,"ob","Elephant bull",2,-25,31.32,330455.96,7234001.57
"308512",308512,1990,39,"ob","Elephant bull",2,-25.01,31.32,330469.69,7232893.97
"308513",308513,1990,39,"ob","Elephant bull",1,-25.01,31.32,330469.69,7232893.97
"308517",308517,1990,39,"ob","Elephant bull",2,-25,31.32,330455.96,7234001.57
"308643",308643,1990,39,"ob","Elephant bull",1,-24.98,31.25,323361.63,7236127.4
"308646",308646,1990,39,"ob","Elephant bull",3,-24.99,31.25,323375.93,7235019.78
"308655",308655,1990,40,"ob","Elephant bull",2,-25.19,31.37,335756.79,7213019.01
"308657",308657,1990,40,"ob","Elephant bull",1,-25.18,31.37,335743.37,7214126.61
"308678",308678,1990,40,"ob","Elephant bull",3,-25.22,31.37,335797.05,7209696.2
"308721",308721,1990,40,"ob","Elephant bull",1,-25.16,31.33,331684.34,7216292.43
"309043",309043,1990,40,"ob","Elephant bull",1,-25.35,31.28,326913.62,7195183.79
"309157",309157,1990,41,"ob","Elephant bull",1,-25.32,31.34,332911.41,7198582.97
"309226",309226,1990,41,"ob","Elephant bull",2,-25.25,31.38,336844.67,7206385.56
"309287",309287,1990,41,"ob","Elephant bull",1,-25.3,31.38,336911.55,7200847.51
"309288",309288,1990,41,"ob","Elephant bull",1,-25.28,31.37,335877.72,7203050.53
"309320",309320,1990,41,"ob","Elephant bull",1,-25.28,31.32,330842.39,7202988.4
"309748",309748,1990,41,"ob","Elephant bull",2,-25.11,31.49,347750.92,7222020.53
"310184",310184,1990,42,"ob","Elephant bull",1,-25.12,31.53,351796.65,7220957.52
"310197",310197,1990,42,"ob","Elephant bull",1,-25.1,31.58,356814.95,7223226.55
"310286",310286,1990,42,"ob","Elephant bull",1,-25.06,31.56,354750.78,7227635.28
"310299",310299,1990,43,"ob","Elephant bull",3,-24.96,31.57,355642.71,7238721.09
"310399",310399,1990,43,"ob","Elephant bull",2,-24.99,31.43,341546.09,7235242.24
"310437",310437,1990,43,"ob","Elephant bull",2,-24.99,31.38,336498.93,7235182.87
"310450",310450,1990,43,"ob","Elephant bull",2,-25.01,31.36,334506.85,7232943.44
"310679",310679,1990,43,"ob","Elephant bull",1,-25.02,31.53,351676.22,7232032.83
"310768",310768,1990,44,"ob","Elephant bull",2,-25.36,31.59,358125.55,7194441.2
"310893",310893,1990,44,"ob","Elephant bull",3,-25.28,31.65,364074.19,7203363.74
"311099",311099,1990,44,"ob","Elephant bull",2,-25.28,31.68,367095.11,7203393.8
"311102",311102,1990,44,"ob","Elephant bull",1,-25.29,31.69,368112.9,7202296.16
"311127",311127,1990,44,"ob","Elephant bull",3,-25.27,31.63,362048.92,7204450.85
"311348",311348,1990,44,"ob","Elephant bull",1,-25.29,31.82,381202.18,7202417.69
"311353",311353,1990,44,"ob","Elephant bull",2,-25.31,31.82,381221.67,7200202.72
"311606",311606,1990,45,"ob","Elephant bull",8,-25.35,31.88,387298.81,7195824.68
"311832",311832,1990,45,"ob","Elephant bull",4,-25.2,31.92,391190.45,7212469.56
"311954",311954,1990,45,"ob","Elephant bull",2,-25.12,31.9,389102.98,7221312.76
"311963",311963,1990,45,"ob","Elephant bull",2,-25.11,31.9,389093.95,7222420.2
"312014",312014,1990,46,"ob","Elephant bull",1,-25.41,31.98,397412.83,7189260.43
"312080",312080,1990,46,"ob","Elephant bull",1,-25.36,32,399383.04,7194812.9
"312252",312252,1990,46,"ob","Elephant bull",1,-25.33,31.96,395332.27,7198104.57
"312267",312267,1990,46,"ob","Elephant bull",1,-25.32,31.97,396330.24,7199219.79
"312319",312319,1990,46,"ob","Elephant bull",1,-25.29,31.95,394291.07,7202526.51
"312339",312339,1990,46,"ob","Elephant bull",3,-25.28,31.93,392268.58,7203618.05
"312387",312387,1990,46,"ob","Elephant bull",1,-25.24,31.99,398276.68,7208094.62
"312448",312448,1990,46,"ob","Elephant bull",3,-25.2,31.96,395220.72,7212501.31
"312452",312452,1990,46,"ob","Elephant bull",1,-25.19,31.97,396219.81,7213616.49
"312704",312704,1990,56,"ob","Elephant bull",1,-25.35,31.57,356101.04,7195527.39
"312742",312742,1990,56,"ob","Elephant bull",1,-25.39,31.55,354136.25,7191075.46
"312793",312793,1990,56,"ob","Elephant bull",1,-25.44,31.51,350173.67,7185493.25
"312905",312905,1990,56,"ob","Elephant bull",3,-25.48,31.46,345196.39,7181005.68
"312931",312931,1990,56,"ob","Elephant bull",1,-25.46,31.45,344165.24,7183209.24
"313040",313040,1990,56,"ob","Elephant bull",1,-25.52,31.37,336202.2,7176467.39
"313103",313103,1990,56,"ob","Elephant bull",1,-25.44,31.32,331065.02,7185266.11
"313340",313340,1990,57,"ob","Elephant bull",1,-25.12,31.82,381037.03,7221244.63
"313371",313371,1990,57,"ob","Elephant bull",1,-25.08,31.79,377972.57,7225647.68
"313475",313475,1990,58,"ob","Elephant bull",1,-25.06,31.64,362821.19,7227718.82
"313614",313614,1990,58,"ob","Elephant bull",1,-25.05,31.75,373907.49,7228933.36
"313702",313702,1990,58,"ob","Elephant bull",1,-25.03,31.79,377923.04,7231184.95
"313777",313777,1990,60,"ob","Elephant bull",1,-24.97,31.66,364740.18,7237706.32
"313817",313817,1990,60,"ob","Elephant bull",1,-24.98,31.62,360713.34,7236558.36
