"","ID","Year","Cenb","Sp","Description","No","Lat","Long","X.coord","Y.coord"
"375907",375907,1993,26,"sr","Black rhino",1,-24.21,31.79,377124.02,7321991.09
"376276",376276,1993,27,"sr","Black rhino",1,-24.32,31.98,396509.21,7309964.86
"376644",376644,1993,28,"sr","Black rhino",2,-24.61,31.92,390671.76,7277806.14
"376751",376751,1993,28,"sr","Black rhino",1,-24.6,31.87,385600.75,7278872.85
"376756",376756,1993,29,"sr","Black rhino",1,-24.51,31.85,383492.67,7288822.38
"376811",376811,1993,29,"sr","Black rhino",1,-24.6,31.88,386613.22,7278881.12
"376824",376824,1993,29,"sr","Black rhino",1,-24.56,31.85,383538.82,7283285.55
"376828",376828,1993,29,"sr","Black rhino",1,-24.62,31.86,384606.63,7276649.75
"376831",376831,1993,29,"sr","Black rhino",1,-24.66,31.87,385655.37,7272228.61
"376856",376856,1993,29,"sr","Black rhino",1,-24.66,31.84,382619.4,7272203.29
"376879",376879,1993,29,"sr","Black rhino",1,-24.67,31.83,381616.85,7271087.32
"377664",377664,1993,31,"sr","Black rhino",1,-24.61,31.74,372448.59,7277651.15
"377828",377828,1993,31,"sr","Black rhino",3,-24.52,31.65,363239.06,7287531.52
"377829",377829,1993,31,"sr","Black rhino",2,-24.52,31.65,363239.06,7287531.52
"378941",378941,1993,33,"sr","Black rhino",1,-24.76,31.64,362488.96,7260943.08
"378953",378953,1993,33,"sr","Black rhino",1,-24.77,31.65,363511.13,7259845.64
"381186",381186,1993,38,"sr","Black rhino",3,-24.92,31.76,374784.71,7243339.51
"381232",381232,1993,38,"sr","Black rhino",3,-25.04,31.82,380959.68,7230104.22
"381647",381647,1993,39,"sr","Black rhino",2,-25.07,31.31,329543.38,7226235.8
"381723",381723,1993,39,"sr","Black rhino",3,-25.11,31.29,327581.84,7221779.96
"382441",382441,1993,41,"sr","Black rhino",1,-25.29,31.45,343946.9,7202038.45
"382451",382451,1993,41,"sr","Black rhino",2,-25.26,31.49,347937.28,7205407.12
"382603",382603,1993,41,"sr","Black rhino",1,-25.38,31.38,337018.8,7191986.56
"382717",382717,1993,42,"sr","Black rhino",1,-25.07,31.58,356780.03,7226549.1
"383007",383007,1993,42,"sr","Black rhino",3,-25.17,31.51,349841.19,7215397.66
"383215",383215,1993,43,"sr","Black rhino",2,-24.97,31.49,347577.92,7237526.09
"383219",383219,1993,43,"sr","Black rhino",2,-25,31.5,348624.24,7234214.7
"383249",383249,1993,43,"sr","Black rhino",1,-24.99,31.52,350630.78,7235344.42
"383365",383365,1993,43,"sr","Black rhino",2,-25.06,31.52,350715.51,7227591.72
"383483",383483,1993,44,"sr","Black rhino",2,-25.41,31.63,362207.63,7188945.31
"383690",383690,1993,44,"sr","Black rhino",1,-25.28,31.66,365081.17,7203373.84
"383702",383702,1993,44,"sr","Black rhino",1,-25.33,31.61,360103.7,7197784.9
"383923",383923,1993,44,"sr","Black rhino",1,-25.23,31.75,374092.28,7208998.79
"384575",384575,1993,45,"sr","Black rhino",1,-25.2,31.86,385144.98,7212419.69
"384713",384713,1993,45,"sr","Black rhino",1,-25.22,31.78,377104.31,7210134.04
"385588",385588,1993,57,"sr","Black rhino",1,-25.17,31.74,373022.69,7215634.31
"385683",385683,1993,58,"sr","Black rhino",1,-25.03,31.71,369850.99,7231110.43
"385731",385731,1993,58,"sr","Black rhino",5,-25.05,31.68,366845.52,7228866.29
"385776",385776,1993,58,"sr","Black rhino",1,-25.11,31.65,363885.31,7222191.45
"385784",385784,1993,58,"sr","Black rhino",2,-25.08,31.61,359817.58,7225473.04
"385980",385980,1993,60,"sr","Black rhino",1,-24.98,31.74,372826.55,7236676.23
"386290",386290,1993,46,"sr","Black rhino",1,-25.21,31.98,397244.24,7211409.31
