"","ID","Year","Cenb","Sp","Description","No","Lat","Long","X.coord","Y.coord"
"25545",25545,1980,26,"hp","Hippopotamus",1,-24.31,31.78,376205.31,7310908.82
"25546",25546,1980,39,"hp","Hippopotamus",1,-25.01,31.32,330469.69,7232893.97
"25547",25547,1980,54,"hp","Hippopotamus",1,-22.95,31.21,316469.65,7460897.08
"25548",25548,1980,21,"hp","Hippopotamus",2,-24.18,31.63,360841.45,7325163.17
"25549",25549,1980,26,"hp","Hippopotamus",2,-24.37,31.9,388435.47,7304366.38
"25550",25550,1980,37,"hp","Hippopotamus",2,-24.93,31.9,388932.08,7242353.77
"25551",25551,1980,29,"hp","Hippopotamus",3,-24.78,31.86,384753.97,7258931.59
"25552",25552,1980,54,"hp","Hippopotamus",3,-22.93,31.19,314391.27,7463086.7
"25553",25553,1980,54,"hp","Hippopotamus",3,-22.95,31.21,316469.65,7460897.08
"25554",25554,1980,25,"hp","Hippopotamus",4,-24.06,31.84,382064.5,7338643.83
"25555",25555,1980,27,"hp","Hippopotamus",7,-24.43,31.96,394571.09,7297769.37
"25556",25556,1980,27,"hp","Hippopotamus",8,-24.37,31.92,390464.07,7304382.31
"25557",25557,1980,46,"hp","Hippopotamus",8,-25.22,31.96,395237.85,7210286.45
"25558",25558,1980,38,"hp","Hippopotamus",21,-25.03,31.92,391039.81,7231295.87
