"","ID","Year","Cenb","Sp","Description","No","Lat","Long","X.coord","Y.coord"
"146130",146130,1985,1,"o","Elephant",11,-23.96,31.6,357550.95,7349495.16
"146214",146214,1985,1,"o","Elephant",3,-23.84,31.62,359456.51,7362803.32
"146353",146353,1985,1,"o","Elephant",82,-23.89,31.64,361546.81,7357286.35
"146367",146367,1985,1,"o","Elephant",15,-23.9,31.63,360539.37,7356169.19
"146502",146502,1985,1,"o","Elephant",19,-23.98,31.68,365712.63,7347358.98
"146583",146583,1985,1,"o","Elephant",25,-24.01,31.71,368795.38,7344065.26
"146586",146586,1985,1,"o","Elephant",25,-24,31.71,368785.24,7345172.59
"146593",146593,1985,1,"o","Elephant",4,-24.01,31.72,369812.59,7344074.54
"146597",146597,1985,1,"o","Elephant",10,-24.01,31.73,370829.79,7344083.75
"146598",146598,1985,1,"o","Elephant",7,-24,31.73,370819.8,7345191.08
"146641",146641,1985,1,"o","Elephant",18,-23.96,31.73,370779.9,7349620.36
"146749",146749,1985,10,"o","Elephant",3,-23.3,31,295463.96,7421857.27
"147107",147107,1985,10,"o","Elephant",18,-23.38,31.17,312965.95,7413227.78
"147801",147801,1985,12,"o","Elephant",4,-23.24,31.1,305606.34,7428639.77
"147877",147877,1985,12,"o","Elephant",24,-23.21,31.12,307610.09,7431988.75
"148280",148280,1985,13,"o","Elephant",4,-23.8,31.61,358394.54,7367222.7
"150450",150450,1985,19,"o","Elephant",10,-23.93,31.81,378892.55,7353013.21
"150605",150605,1985,2,"o","Elephant",5,-23.92,31.43,340201.53,7353742.67
"150674",150674,1985,2,"o","Elephant",10,-23.93,31.46,343267.58,7352668.89
"150675",150675,1985,2,"o","Elephant",16,-23.92,31.46,343255.51,7353776.29
"150692",150692,1985,2,"o","Elephant",8,-23.95,31.46,343291.74,7350454.09
"150699",150699,1985,2,"o","Elephant",16,-23.88,31.46,343207.26,7358205.87
"150701",150701,1985,2,"o","Elephant",4,-23.88,31.47,344225.56,7358216.91
"150750",150750,1985,2,"o","Elephant",29,-24.03,31.5,347457.04,7341638.79
"150877",150877,1985,2,"o","Elephant",25,-24,31.55,352508.33,7345014.25
"150892",150892,1985,2,"o","Elephant",15,-24.02,31.54,351513.97,7342788.98
"150902",150902,1985,2,"o","Elephant",10,-24.03,31.57,354576.73,7341712.94
"150984",150984,1985,20,"o","Elephant",12,-24.05,31.22,319004.72,7339091.72
"151029",151029,1985,20,"o","Elephant",15,-24.09,31.34,331261.39,7334811.23
"151076",151076,1985,20,"o","Elephant",20,-24.1,31.41,338390.68,7333786.2
"151116",151116,1985,20,"o","Elephant",12,-24.09,31.42,339394.79,7334905.12
"151153",151153,1985,20,"o","Elephant",6,-24.07,31.44,341403.5,7337142.72
"151242",151242,1985,20,"o","Elephant",33,-24.1,31.51,348556.37,7333897.8
"151253",151253,1985,20,"o","Elephant",20,-24.08,31.53,350566.28,7336134.04
"151393",151393,1985,20,"o","Elephant",100,-24.07,31.61,358688.86,7337324.25
"151434",151434,1985,20,"o","Elephant",28,-24.03,31.63,360679.21,7341773.67
"151447",151447,1985,20,"o","Elephant",17,-24.02,31.66,363719.86,7342910.41
"151625",151625,1985,21,"o","Elephant",3,-24.23,31.57,354802.76,7319565.15
"151676",151676,1985,21,"o","Elephant",30,-24.18,31.61,358809.67,7325143.12
"151737",151737,1985,21,"o","Elephant",5,-24.23,31.63,360895.74,7319626.27
"152362",152362,1985,22,"o","Elephant",8,-24.3,31.49,346762.59,7311727.55
"152363",152363,1985,22,"o","Elephant",10,-24.29,31.49,346750.58,7312834.99
"152364",152364,1985,22,"o","Elephant",15,-24.29,31.49,346750.58,7312834.99
"152398",152398,1985,22,"o","Elephant",25,-24.27,31.47,344696.14,7315027.72
"152399",152399,1985,22,"o","Elephant",10,-24.27,31.49,346726.57,7315049.86
"152576",152576,1985,22,"o","Elephant",4,-24.28,31.5,347753.71,7313953.4
"152693",152693,1985,22,"o","Elephant",12,-24.3,31.55,352852.38,7311792.3
"152694",152694,1985,22,"o","Elephant",25,-24.3,31.55,352852.38,7311792.3
"152709",152709,1985,22,"o","Elephant",25,-24.3,31.56,353867.33,7311802.84
"152710",152710,1985,22,"o","Elephant",18,-24.3,31.56,353867.33,7311802.84
"152716",152716,1985,22,"o","Elephant",1,-24.31,31.56,353878.79,7310695.42
"152939",152939,1985,23,"o","Elephant",5,-24.15,31.68,365889.51,7328534.1
"152962",152962,1985,23,"o","Elephant",13,-24.08,31.68,365816.53,7336285.57
"153038",153038,1985,23,"o","Elephant",12,-24.07,31.68,365806.12,7337392.91
"153136",153136,1985,23,"o","Elephant",6,-24.12,31.71,368907.23,7331884.55
"153193",153193,1985,24,"o","Elephant",40,-24.31,31.58,355908.53,7310716.28
"153274",153274,1985,24,"o","Elephant",7,-24.32,31.59,356934.62,7309619.19
"153316",153316,1985,24,"o","Elephant",6,-24.25,31.6,357871.49,7317381.25
"153383",153383,1985,24,"o","Elephant",7,-24.29,31.63,360961.03,7312981.94
"153676",153676,1985,25,"o","Elephant",2,-24.09,31.73,370909.83,7335225.12
"153683",153683,1985,25,"o","Elephant",24,-24.09,31.74,371926.39,7335234.28
"153686",153686,1985,25,"o","Elephant",10,-24.11,31.73,370929.87,7333010.45
"153766",153766,1985,25,"o","Elephant",16,-24.13,31.77,375014.93,7330832.03
"153909",153909,1985,25,"o","Elephant",11,-24.01,31.78,375915.76,7344128.73
"153963",153963,1985,25,"o","Elephant",8,-24.02,31.77,374908.25,7343012.56
"153979",153979,1985,25,"o","Elephant",15,-23.96,31.75,372815.08,7349638.53
"154041",154041,1985,25,"o","Elephant",35,-24.15,31.82,380114.77,7328661.09
"154207",154207,1985,25,"o","Elephant",32,-24.03,31.8,377969.01,7341931.6
"154248",154248,1985,25,"o","Elephant",4,-23.98,31.79,376904.41,7347459.42
"154278",154278,1985,25,"o","Elephant",11,-24.13,31.87,385177.24,7330917.6
"154280",154280,1985,25,"o","Elephant",23,-24.16,31.83,381140.1,7327562.3
"154281",154281,1985,25,"o","Elephant",7,-24.15,31.83,381130.84,7328669.62
"154283",154283,1985,25,"o","Elephant",4,-24.15,31.84,382146.91,7328678.07
"154284",154284,1985,25,"o","Elephant",13,-24.14,31.84,382137.74,7329785.38
"154286",154286,1985,25,"o","Elephant",4,-24.15,31.85,383162.98,7328686.45
"154287",154287,1985,25,"o","Elephant",21,-24.16,31.85,383172.08,7327579.14
"154361",154361,1985,25,"o","Elephant",2,-24.05,31.84,382055.36,7339751.13
"154504",154504,1985,25,"o","Elephant",20,-24.11,31.87,385159.39,7333132.2
"154528",154528,1985,25,"o","Elephant",23,-24.11,31.9,388208.51,7333156.45
"156334",156334,1985,28,"o","Elephant",35,-24.55,31.9,388593.93,7284434.24
"157009",157009,1985,29,"o","Elephant",22,-24.59,31.81,379516.32,7279929.02
"157333",157333,1985,29,"o","Elephant",30,-24.77,31.89,387778.02,7260063.94
"157599",157599,1985,3,"o","Elephant",23,-24.01,31.23,319966.02,7343534.57
"157600",157600,1985,3,"o","Elephant",15,-24.01,31.24,320983.38,7343547.32
"157603",157603,1985,3,"o","Elephant",6,-24.01,31.24,320983.38,7343547.32
"157613",157613,1985,3,"o","Elephant",20,-24.02,31.22,318962.67,7342414.24
"157616",157616,1985,3,"o","Elephant",14,-24.03,31.23,319993.88,7341319.57
"157622",157622,1985,3,"o","Elephant",25,-24.03,31.24,321011.08,7341332.33
"157625",157625,1985,3,"o","Elephant",9,-24.03,31.24,321011.08,7341332.33
"157794",157794,1985,3,"o","Elephant",12,-24.01,31.28,325052.77,7343597.62
"157801",157801,1985,3,"o","Elephant",4,-24.03,31.25,322028.28,7341345.03
"157805",157805,1985,3,"o","Elephant",8,-24.02,31.25,322014.5,7342452.52
"157821",157821,1985,3,"o","Elephant",11,-24.02,31.28,325066.3,7342490.15
"157833",157833,1985,3,"o","Elephant",10,-23.98,31.25,321959.45,7346882.46
"157865",157865,1985,3,"o","Elephant",11,-23.95,31.27,323953.86,7350230.02
"157991",157991,1985,3,"o","Elephant",3,-23.98,31.29,326029.77,7346932.43
"158016",158016,1985,3,"o","Elephant",2,-23.95,31.29,325989.49,7350254.83
"158017",158017,1985,3,"o","Elephant",10,-23.95,31.29,325989.49,7350254.83
"158091",158091,1985,3,"o","Elephant",3,-24.01,31.33,330139.43,7343658.87
"158141",158141,1985,3,"o","Elephant",25,-23.96,31.35,332109.23,7349220.1
"158194",158194,1985,30,"o","Elephant",30,-24.76,31.89,387769.03,7261171.33
"158246",158246,1985,30,"o","Elephant",6,-24.75,31.91,389782.55,7262294.97
"158360",158360,1985,30,"o","Elephant",25,-24.71,31.93,391770.43,7266740.43
"158745",158745,1985,30,"o","Elephant",7,-24.6,31.96,394712.88,7278944.69
"159025",159025,1985,31,"o","Elephant",25,-24.59,31.63,361289.76,7279759.56
"159668",159668,1985,31,"o","Elephant",7,-24.44,31.71,369235.35,7296448.81
"159834",159834,1985,31,"o","Elephant",18,-24.45,31.78,376341.6,7295405.76
"159978",159978,1985,32,"o","Elephant",9,-24.5,31.52,350043.9,7289611.41
"160060",160060,1985,32,"o","Elephant",18,-24.55,31.55,353142.16,7284106.4
"160068",160068,1985,32,"o","Elephant",6,-24.55,31.57,355168.07,7284127.56
"160102",160102,1985,32,"o","Elephant",49,-24.49,31.55,353072.36,7290751.1
"160168",160168,1985,32,"o","Elephant",20,-24.55,31.58,356181.02,7284138.03
"160179",160179,1985,32,"o","Elephant",17,-24.5,31.61,359164.07,7289706.15
"160232",160232,1985,32,"o","Elephant",16,-24.49,31.62,360166.35,7290823.74
"160478",160478,1985,33,"o","Elephant",7,-24.75,31.63,361466.64,7262040.44
"160482",160482,1985,33,"o","Elephant",7,-24.76,31.65,363500.2,7260953.1
"160490",160490,1985,33,"o","Elephant",15,-24.77,31.65,363511.13,7259845.64
"160556",160556,1985,33,"o","Elephant",10,-24.58,31.63,361278.74,7280866.99
"160557",160557,1985,33,"o","Elephant",7,-24.58,31.63,361278.74,7280866.99
"160623",160623,1985,34,"o","Elephant",12,-24.69,31.7,368482.74,7268754.1
"160702",160702,1985,34,"o","Elephant",12,-24.72,31.71,369525.8,7265441.37
"160727",160727,1985,34,"o","Elephant",10,-24.73,31.71,369536.23,7264333.94
"160746",160746,1985,34,"o","Elephant",2,-24.69,31.71,369494.53,7268763.65
"160898",160898,1985,34,"o","Elephant",7,-24.73,31.76,374593.49,7264380.66
"160916",160916,1985,34,"o","Elephant",6,-24.69,31.75,373541.64,7268801.13
"160945",160945,1985,34,"o","Elephant",17,-24.63,31.76,374493.4,7275454.75
"160968",160968,1985,34,"o","Elephant",9,-24.66,31.75,373511.37,7272123.36
"161168",161168,1985,35,"o","Elephant",7,-24.8,31.62,360511.22,7256492.97
"161387",161387,1985,35,"o","Elephant",6,-24.78,31.66,364533.14,7258748.14
"161530",161530,1985,35,"o","Elephant",16,-24.86,31.69,367651.37,7249917.96
"161605",161605,1985,36,"o","Elephant",5,-24.79,31.74,372631.8,7257717.65
"161616",161616,1985,36,"o","Elephant",18,-24.78,31.73,371610.54,7258815.72
"161622",161622,1985,36,"o","Elephant",8,-24.78,31.74,372621.59,7258825.07
"161624",161624,1985,36,"o","Elephant",25,-24.87,31.78,376754.87,7248894.95
"161826",161826,1985,36,"o","Elephant",3,-24.79,31.86,384763.2,7257824.2
"162296",162296,1985,37,"o","Elephant",8,-25.15,31.98,397193.91,7218053.86
"162299",162299,1985,37,"o","Elephant",4,-25.15,31.98,397193.91,7218053.86
"162305",162305,1985,37,"o","Elephant",17,-25.15,31.98,397193.91,7218053.86
"162363",162363,1985,37,"o","Elephant",18,-25.07,31.96,395109.72,7226897.82
"162688",162688,1985,37,"o","Elephant",11,-25.17,32,399226.29,7215854.13
"162689",162689,1985,37,"o","Elephant",13,-25.16,32,399218.07,7216961.55
"162887",162887,1985,37,"o","Elephant",35,-24.94,32.01,400047.69,7241331.79
"162996",162996,1985,38,"o","Elephant",11,-25.04,31.81,379950.77,7230095.39
"162997",162997,1985,38,"o","Elephant",18,-25.04,31.82,380959.68,7230104.22
"163014",163014,1985,38,"o","Elephant",6,-25.03,31.81,379941.03,7231202.83
"163156",163156,1985,38,"o","Elephant",18,-25.09,31.88,387058.95,7224618.49
"163191",163191,1985,38,"o","Elephant",21,-24.98,31.89,387967.55,7236808.49
"163220",163220,1985,38,"o","Elephant",13,-25.04,31.94,393066.42,7230204.4
"163554",163554,1985,39,"o","Elephant",20,-25.09,31.36,334614.26,7224082.75
"163649",163649,1985,39,"o","Elephant",15,-25.07,31.37,335596.17,7226310.13
"163683",163683,1985,4,"o","Elephant",10,-23.71,31.16,312412.66,7376668.42
"163708",163708,1985,4,"o","Elephant",26,-23.67,31.15,311335.43,7381085.17
"163725",163725,1985,4,"o","Elephant",85,-23.68,31.15,311349.8,7379977.68
"165249",165249,1985,41,"o","Elephant",4,-25.16,31.4,338740.7,7216378.06
"165294",165294,1985,41,"o","Elephant",22,-25.32,31.42,340965.2,7198680.39
"165319",165319,1985,41,"o","Elephant",11,-25.22,31.42,340834.79,7209756.34
"165506",165506,1985,41,"o","Elephant",10,-25.24,31.49,347912.37,7207622.26
"165554",165554,1985,41,"o","Elephant",25,-25.19,31.49,347850.18,7213160.09
"165595",165595,1985,41,"o","Elephant",10,-25.16,31.48,346804.91,7216471.43
"165966",165966,1985,42,"o","Elephant",5,-25.21,31.55,353920.59,7211011.49
"166333",166333,1985,42,"o","Elephant",40,-25.25,31.58,356990.13,7206613.59
"166436",166436,1985,42,"o","Elephant",50,-25.24,31.59,357985.75,7207731.74
"167228",167228,1985,44,"o","Elephant",3,-25.37,31.56,355118.47,7193301.47
"167340",167340,1985,44,"o","Elephant",17,-25.38,31.65,364185.86,7192288.43
"167343",167343,1985,44,"o","Elephant",30,-25.38,31.65,364185.86,7192288.43
"167345",167345,1985,44,"o","Elephant",3,-25.39,31.66,365203.11,7191191.02
"167352",167352,1985,44,"o","Elephant",7,-25.4,31.65,364208.24,7190073.35
"167523",167523,1985,44,"o","Elephant",23,-25.21,31.66,365003.82,7211126.45
"167524",167524,1985,44,"o","Elephant",5,-25.21,31.66,365003.82,7211126.45
"167807",167807,1985,44,"o","Elephant",13,-25.2,31.66,364992.79,7212233.96
"167811",167811,1985,44,"o","Elephant",7,-25.19,31.67,365989.48,7213351.47
"167834",167834,1985,44,"o","Elephant",15,-25.34,31.72,371186.44,7196787.79
"167868",167868,1985,44,"o","Elephant",10,-25.31,31.71,370147.97,7200100.66
"167891",167891,1985,44,"o","Elephant",2,-25.32,31.73,372171.9,7199012.39
"167892",167892,1985,44,"o","Elephant",9,-25.33,31.73,372182.4,7197904.88
"167924",167924,1985,44,"o","Elephant",23,-25.28,31.71,370116.01,7203423.19
"167929",167929,1985,44,"o","Elephant",8,-25.28,31.74,373136.88,7203451.9
"168829",168829,1985,45,"o","Elephant",15,-25.12,31.91,390111.21,7221320.95
"168937",168937,1985,45,"o","Elephant",12,-25.14,31.93,392145.24,7219122.22
"169380",169380,1985,47,"o","Elephant",8,-22.68,31.13,307886.65,7490694.3
"169662",169662,1985,48,"o","Elephant",15,-22.9,31.21,316402.24,7466433.91
"169729",169729,1985,48,"o","Elephant",10,-22.82,31.27,322453.75,7475366.17
"169811",169811,1985,48,"o","Elephant",10,-22.88,31.34,329713.92,7468804.82
"170082",170082,1985,49,"o","Elephant",100,-22.99,31.3,325750.68,7456577.39
"170086",170086,1985,49,"o","Elephant",5,-22.99,31.32,327801.08,7456601.02
"170695",170695,1985,5,"o","Elephant",15,-23.76,31.49,346120.68,7371527.28
"170872",170872,1985,5,"o","Elephant",9,-23.82,31.57,354341.31,7364967.53
"171255",171255,1985,51,"o","Elephant",7,-22.7,31.36,331544.91,7488758.97
"171334",171334,1985,52,"o","Elephant",26,-23.05,31.16,311480.89,7449759.76
"171338",171338,1985,52,"o","Elephant",56,-23.05,31.17,312505.69,7449772.61
"171344",171344,1985,52,"o","Elephant",25,-23.06,31.19,314568.99,7448690.72
"171364",171364,1985,52,"o","Elephant",17,-23.08,31.19,314596.42,7446475.94
"171368",171368,1985,52,"o","Elephant",24,-23.07,31.2,315607.34,7447595.98
"171369",171369,1985,52,"o","Elephant",20,-23.07,31.2,315607.34,7447595.98
"171371",171371,1985,52,"o","Elephant",10,-23.08,31.2,315620.98,7446488.59
"171372",171372,1985,52,"o","Elephant",35,-23.06,31.2,315593.71,7448703.37
"171437",171437,1985,52,"o","Elephant",9,-23.13,31.21,316713.45,7440964.24
"171586",171586,1985,52,"o","Elephant",21,-23.08,31.26,321768.29,7446563.06
"171615",171615,1985,52,"o","Elephant",9,-23.03,31.28,323752.25,7452124.09
"172377",172377,1985,53,"o","Elephant",90,-23.03,31.14,309403.11,7451948.66
"172561",172561,1985,54,"o","Elephant",9,-22.94,31,294917.27,7461726.68
"172728",172728,1985,55,"o","Elephant",40,-22.85,31.03,297860.99,7471735.23
"172795",172795,1985,55,"o","Elephant",7,-22.78,31.03,297757.6,7479487.26
"172820",172820,1985,55,"o","Elephant",7,-22.85,31.04,298887.36,7471748.91
"172847",172847,1985,55,"o","Elephant",8,-22.79,31.04,298799.17,7478393.47
"172860",172860,1985,55,"o","Elephant",25,-22.81,31.04,298828.54,7476178.62
"172875",172875,1985,55,"o","Elephant",11,-22.78,31.04,298784.49,7479500.9
"172976",172976,1985,55,"o","Elephant",9,-22.87,31.14,309178.75,7469667.04
"172982",172982,1985,55,"o","Elephant",9,-22.88,31.15,310218.83,7468572.57
"172983",172983,1985,55,"o","Elephant",5,-22.88,31.16,311244.92,7468585.42
"173008",173008,1985,55,"o","Elephant",50,-22.87,31.15,310204.92,7469679.96
"173091",173091,1985,55,"o","Elephant",17,-22.87,31.17,312257.25,7469705.58
"173224",173224,1985,56,"o","Elephant",9,-25.35,31.44,343017.35,7195381.19
"173226",173226,1985,56,"o","Elephant",10,-25.35,31.44,343017.35,7195381.19
"173330",173330,1985,56,"o","Elephant",13,-25.38,31.51,350099.5,7192138.76
"173427",173427,1985,56,"o","Elephant",45,-25.42,31.56,355178.17,7187763.63
"173487",173487,1985,56,"o","Elephant",25,-25.41,31.56,355166.23,7188871.2
"173680",173680,1985,57,"o","Elephant",11,-25.1,31.83,382026.09,7223468.31
"173696",173696,1985,57,"o","Elephant",11,-25.09,31.84,383024.99,7224584.45
"173698",173698,1985,57,"o","Elephant",2,-25.08,31.84,383015.48,7225691.9
"173702",173702,1985,57,"o","Elephant",8,-25.1,31.85,384042.91,7223485.63
"173703",173703,1985,57,"o","Elephant",35,-25.09,31.85,384033.48,7224593.07
"173704",173704,1985,57,"o","Elephant",5,-25.1,31.86,385051.32,7223494.18
"173712",173712,1985,57,"o","Elephant",7,-25.1,31.87,386059.73,7223502.66
"173714",173714,1985,57,"o","Elephant",40,-25.09,31.87,386050.46,7224610.09
"173723",173723,1985,57,"o","Elephant",15,-25.11,31.85,384052.34,7222378.19
"173919",173919,1985,58,"o","Elephant",8,-25.04,31.71,369861.54,7230002.96
"173945",173945,1985,58,"o","Elephant",50,-25.08,31.77,375955.39,7225629.47
"173948",173948,1985,58,"o","Elephant",9,-25.05,31.77,375925.17,7228951.85
"173952",173952,1985,58,"o","Elephant",9,-25.05,31.78,376934.01,7228960.99
"173962",173962,1985,58,"o","Elephant",20,-25.07,31.76,374936.64,7226727.72
"173973",173973,1985,58,"o","Elephant",2,-25.07,31.77,375945.32,7226736.93
"173995",173995,1985,6,"o","Elephant",10,-23.59,31.3,326530.37,7390134.88
"174198",174198,1985,6,"o","Elephant",20,-23.68,31.44,340927.44,7380331.29
"174202",174202,1985,6,"o","Elephant",3,-23.69,31.45,341959.34,7379235.04
"174255",174255,1985,6,"o","Elephant",2,-23.56,31.42,338740.84,7393597.3
"174269",174269,1985,6,"o","Elephant",35,-23.71,31.46,343003.06,7377031.35
"174270",174270,1985,6,"o","Elephant",10,-23.71,31.46,343003.06,7377031.35
"174284",174284,1985,6,"o","Elephant",20,-23.73,31.46,343027.01,7374816.61
"174292",174292,1985,6,"o","Elephant",45,-23.74,31.48,345077.78,7373731.16
"174298",174298,1985,6,"o","Elephant",60,-23.67,31.46,342955.21,7381460.82
"174306",174306,1985,6,"o","Elephant",4,-23.7,31.46,342991.09,7378138.72
"174310",174310,1985,6,"o","Elephant",25,-23.69,31.46,342979.13,7379246.09
"174321",174321,1985,6,"o","Elephant",30,-23.66,31.46,342943.26,7382568.18
"174322",174322,1985,6,"o","Elephant",14,-23.65,31.46,342931.32,7383675.55
"174484",174484,1985,60,"o","Elephant",7,-25.02,31.74,372867.72,7232246.39
"175165",175165,1985,7,"o","Elephant",60,-23.63,31.18,314339.1,7385554.41
"175184",175184,1985,7,"o","Elephant",45,-23.65,31.17,313347.13,7383326.43
"175272",175272,1985,7,"o","Elephant",10,-23.61,31.24,320433.86,7387845.98
"175273",175273,1985,7,"o","Elephant",35,-23.62,31.24,320447.49,7386738.54
"175274",175274,1985,7,"o","Elephant",2,-23.62,31.24,320447.49,7386738.54
"175326",175326,1985,7,"o","Elephant",100,-23.62,31.26,322488.29,7386763.52
"175364",175364,1985,7,"o","Elephant",10,-23.61,31.27,323495.29,7387883.33
"175366",175366,1985,7,"o","Elephant",30,-23.6,31.27,323481.89,7388990.76
"175368",175368,1985,7,"o","Elephant",13,-23.61,31.27,323495.29,7387883.33
"175369",175369,1985,7,"o","Elephant",5,-23.61,31.27,323495.29,7387883.33
"175370",175370,1985,7,"o","Elephant",50,-23.62,31.27,323508.69,7386775.9
"175371",175371,1985,7,"o","Elephant",15,-23.6,31.28,324502.44,7389003.07
"175426",175426,1985,7,"o","Elephant",10,-23.61,31.29,325536.22,7387907.88
"175456",175456,1985,8,"o","Elephant",2,-23.46,31.24,320230.04,7404457.44
"175482",175482,1985,8,"o","Elephant",24,-23.54,31.28,324422.66,7395647.58
"175553",175553,1985,8,"o","Elephant",30,-23.55,31.3,326477.79,7394564.52
"175556",175556,1985,8,"o","Elephant",27,-23.54,31.3,326464.67,7395671.93
"175584",175584,1985,8,"o","Elephant",35,-23.53,31.29,325430.46,7396767.2
"175588",175588,1985,8,"o","Elephant",17,-23.53,31.3,326451.54,7396779.34
"175649",175649,1985,8,"o","Elephant",21,-23.38,31.29,325233.08,7413378.21
"175650",175650,1985,8,"o","Elephant",9,-23.38,31.3,326255.31,7413390.28
"175791",175791,1985,8,"o","Elephant",6,-23.53,31.37,333599,7396862.28
"175868",175868,1985,9,"o","Elephant",90,-23.51,31.12,308042.5,7398764.97
"176010",176010,1985,9,"o","Elephant",30,-23.5,31.12,308028,7399872.45
"176011",176011,1985,9,"o","Elephant",1,-23.51,31.13,309063.8,7398778.31
"176012",176012,1985,9,"o","Elephant",25,-23.51,31.13,309063.8,7398778.31
"176013",176013,1985,9,"o","Elephant",6,-23.5,31.13,309049.38,7399885.78
"176014",176014,1985,9,"o","Elephant",50,-23.51,31.13,309063.8,7398778.31
"176085",176085,1985,9,"o","Elephant",80,-23.49,31.13,309034.96,7400993.26
"176217",176217,1985,9,"o","Elephant",6,-23.46,31.17,313078.46,7404368.21
"176379",176379,1985,9,"o","Elephant",25,-23.55,31.25,321373.13,7394503.1
"176384",176384,1985,9,"o","Elephant",40,-23.53,31.25,321346.1,7396717.95
"176385",176385,1985,9,"o","Elephant",18,-23.53,31.25,321346.1,7396717.95
