"","ID","Year","Cenb","Sp","Description","No","Lat","Long","X.coord","Y.coord"
"400004",400004,1995,66,"rk","Roan antelope calf",2,-23.48,31.24,320257.14,7402242.6
"401602",401602,1995,8,"rk","Roan antelope calf",3,-23.19,31.34,330103.18,7434477.69
