"","ID","Year","Cenb","Sp","Description","No","Lat","Long","X.coord","Y.coord"
"7479",7479,1978,1,"k","Zebra",77,-23.93,31.57,354464.39,7352786.63
"7483",7483,1978,1,"k","Zebra",70,-23.89,31.57,354419.57,7357216.06
"7490",7490,1978,2,"k","Zebra",6,-23.87,31.53,350323.79,7359389.05
"7492",7492,1978,2,"k","Zebra",6,-24.06,31.57,354610.53,7338390.8
"7497",7497,1978,2,"k","Zebra",2,-24.03,31.55,352542.55,7341692.11
"7514",7514,1978,2,"k","Zebra",4,-23.91,31.55,352405.9,7354980.6
"7516",7516,1978,2,"k","Zebra",16,-23.87,31.55,352360.49,7359410.06
"7527",7527,1978,3,"k","Zebra",16,-23.93,31.17,313746.79,7352316.64
"7532",7532,1978,3,"k","Zebra",8,-23.93,31.19,315782.81,7352342.88
"7540",7540,1978,3,"k","Zebra",29,-23.95,31.19,315811.21,7350127.87
"7548",7548,1978,3,"k","Zebra",8,-23.91,31.17,313718.1,7354531.65
"7570",7570,1978,3,"k","Zebra",3,-24.01,31.21,317931.29,7343508.84
"7574",7574,1978,3,"k","Zebra",4,-24.01,31.23,319966.02,7343534.57
"7578",7578,1978,3,"k","Zebra",5,-24.03,31.21,317959.47,7341293.82
"7582",7582,1978,3,"k","Zebra",2,-24.03,31.23,319993.88,7341319.57
"7586",7586,1978,3,"k","Zebra",6,-23.97,31.21,317875.01,7347938.84
"7590",7590,1978,3,"k","Zebra",7,-23.97,31.23,319910.36,7347964.54
"7593",7593,1978,3,"k","Zebra",2,-23.99,31.21,317903.14,7345723.84
"7600",7600,1978,3,"k","Zebra",5,-23.99,31.23,319938.18,7345749.56
"7603",7603,1978,3,"k","Zebra",4,-23.93,31.21,317818.81,7352368.83
"7610",7610,1978,3,"k","Zebra",2,-23.95,31.21,317846.9,7350153.84
"7616",7616,1978,3,"k","Zebra",3,-23.89,31.21,317762.69,7356798.8
"7625",7625,1978,3,"k","Zebra",5,-23.91,31.23,319827.04,7354609.46
"7628",7628,1978,3,"k","Zebra",3,-23.87,31.21,317734.67,7359013.77
"7646",7646,1978,3,"k","Zebra",4,-24.01,31.26,323018.08,7343572.62
"7650",7650,1978,3,"k","Zebra",12,-24.01,31.28,325052.77,7343597.62
"7654",7654,1978,3,"k","Zebra",3,-24.03,31.26,323045.47,7341357.64
"7659",7659,1978,3,"k","Zebra",15,-24.03,31.28,325079.84,7341382.67
"7662",7662,1978,3,"k","Zebra",3,-23.97,31.26,322963.37,7348002.54
"7665",7665,1978,3,"k","Zebra",11,-23.97,31.28,324998.69,7348027.52
"7674",7674,1978,3,"k","Zebra",3,-23.95,31.28,324971.67,7350242.46
"7677",7677,1978,3,"k","Zebra",16,-23.89,31.26,322854.2,7356862.34
"7682",7682,1978,3,"k","Zebra",3,-23.89,31.28,324890.77,7356887.25
"7685",7685,1978,3,"k","Zebra",6,-23.91,31.26,322881.46,7354647.4
"7711",7711,1978,3,"k","Zebra",11,-24.03,31.3,327114.2,7341407.4
"7717",7717,1978,3,"k","Zebra",10,-24.03,31.32,329148.55,7341431.84
"7727",7727,1978,3,"k","Zebra",4,-23.93,31.32,329016.54,7352506.41
"7729",7729,1978,3,"k","Zebra",2,-23.95,31.32,329042.9,7350291.51
"7732",7732,1978,3,"k","Zebra",1,-23.89,31.3,326927.33,7356911.87
"7735",7735,1978,3,"k","Zebra",8,-23.89,31.32,328963.88,7356936.2
"7741",7741,1978,3,"k","Zebra",7,-23.91,31.3,326953.96,7354696.96
"7744",7744,1978,3,"k","Zebra",11,-23.91,31.32,328990.2,7354721.31
"7747",7747,1978,3,"k","Zebra",8,-23.87,31.32,328937.58,7359151.09
"7753",7753,1978,3,"k","Zebra",3,-24.06,31.36,333255.96,7338157.5
"7768",7768,1978,3,"k","Zebra",10,-24.01,31.36,333191.38,7343694.75
"7771",7771,1978,3,"k","Zebra",7,-24.03,31.34,331182.88,7341455.99
"7773",7773,1978,3,"k","Zebra",8,-24.03,31.36,333217.2,7341479.86
"7779",7779,1978,3,"k","Zebra",4,-23.97,31.36,333139.82,7348124.52
"7781",7781,1978,3,"k","Zebra",4,-23.99,31.34,331130.64,7345885.81
"7787",7787,1978,3,"k","Zebra",3,-23.93,31.34,331052.44,7352530.49
"7792",7792,1978,3,"k","Zebra",4,-23.89,31.34,331000.41,7356960.25
"7795",7795,1978,3,"k","Zebra",4,-23.91,31.34,331026.42,7354745.37
"7797",7797,1978,3,"k","Zebra",9,-23.87,31.34,330974.42,7359175.12
"7800",7800,1978,1,"k","Zebra",16,-23.91,31.57,354441.97,7355001.35
"7802",7802,1978,1,"k","Zebra",4,-23.87,31.57,354397.19,7359430.77
"7819",7819,1978,1,"k","Zebra",11,-23.93,31.59,356500.13,7352807.09
"7834",7834,1978,1,"k","Zebra",12,-23.91,31.59,356478.03,7355021.8
"7840",7840,1978,1,"k","Zebra",4,-23.85,31.59,356411.82,7361665.9
"7844",7844,1978,1,"k","Zebra",10,-23.85,31.61,358448.81,7361686.03
"7849",7849,1978,1,"k","Zebra",12,-23.87,31.59,356433.87,7359451.2
"7853",7853,1978,1,"k","Zebra",10,-24.01,31.63,360657.65,7343988.38
"7860",7860,1978,1,"k","Zebra",2,-24.01,31.65,362692.1,7344008.03
"7866",7866,1978,1,"k","Zebra",7,-23.99,31.63,360636.11,7346203.09
"7870",7870,1978,1,"k","Zebra",7,-23.93,31.63,360571.58,7352847.17
"7873",7873,1978,1,"k","Zebra",14,-23.93,31.65,362607.29,7352866.77
"7878",7878,1978,1,"k","Zebra",2,-23.95,31.63,360593.07,7350632.48
"7883",7883,1978,1,"k","Zebra",1,-23.89,31.65,362564.98,7357296.11
"7890",7890,1978,1,"k","Zebra",4,-23.91,31.65,362586.12,7355081.44
"7895",7895,1978,1,"k","Zebra",2,-23.85,31.63,360485.78,7361705.87
"7901",7901,1978,1,"k","Zebra",2,-24.06,31.67,364778.9,7338490.67
"7905",7905,1978,1,"k","Zebra",2,-24.06,31.69,366812.54,7338509.78
"7919",7919,1978,1,"k","Zebra",10,-24.03,31.69,366781.58,7341831.8
"7923",7923,1978,1,"k","Zebra",6,-23.97,31.67,364684.73,7348456.75
"7929",7929,1978,1,"k","Zebra",6,-23.97,31.69,366719.78,7348475.8
"7933",7933,1978,1,"k","Zebra",15,-23.99,31.67,364705.63,7346242.08
"7937",7937,1978,1,"k","Zebra",1,-23.99,31.69,366740.37,7346261.14
"7940",7940,1978,1,"k","Zebra",16,-23.93,31.67,364642.98,7352886.09
"7947",7947,1978,1,"k","Zebra",7,-23.95,31.67,364663.85,7350671.42
"7954",7954,1978,1,"k","Zebra",4,-23.91,31.67,364622.13,7355100.74
"7960",7960,1978,1,"k","Zebra",31,-24.01,31.71,368795.38,7344065.26
"7964",7964,1978,1,"k","Zebra",100,-24.01,31.73,370829.79,7344083.75
"7969",7969,1978,1,"k","Zebra",7,-24.03,31.71,368815.68,7341850.6
"7977",7977,1978,1,"k","Zebra",53,-24.03,31.73,370849.78,7341869.1
"7985",7985,1978,1,"k","Zebra",11,-23.97,31.73,370789.87,7348513.04
"7992",7992,1978,1,"k","Zebra",25,-23.99,31.73,370809.82,7346298.4
"8001",8001,1978,1,"k","Zebra",5,-23.95,31.71,368734.58,7350709.21
"8004",8004,1978,1,"k","Zebra",5,-23.95,31.73,370769.93,7350727.67
"8009",8009,1978,1,"k","Zebra",41,-23.97,31.76,373842.4,7348540.21
"8018",8018,1978,1,"k","Zebra",14,-23.99,31.76,373861.88,7346325.58
"8027",8027,1978,1,"k","Zebra",4,-23.99,31.8,377931.26,7346360.82
"8035",8035,1978,2,"k","Zebra",9,-23.93,31.36,333088.33,7352554.28
"8039",8039,1978,2,"k","Zebra",11,-23.89,31.36,333036.93,7356984.01
"8043",8043,1978,2,"k","Zebra",5,-23.91,31.36,333062.62,7354769.15
"8046",8046,1978,2,"k","Zebra",21,-23.87,31.36,333011.26,7359198.87
"8057",8057,1978,2,"k","Zebra",1,-24.01,31.4,337260.61,7343741.58
"8065",8065,1978,2,"k","Zebra",1,-23.95,31.38,335149.63,7350362.92
"8067",8067,1978,2,"k","Zebra",5,-23.95,31.4,337185.18,7350386.14
"8070",8070,1978,2,"k","Zebra",21,-23.89,31.38,335073.43,7357007.48
"8076",8076,1978,2,"k","Zebra",1,-23.89,31.4,337109.92,7357030.66
"8082",8082,1978,2,"k","Zebra",17,-23.91,31.38,335098.81,7354792.63
"8085",8085,1978,2,"k","Zebra",26,-23.87,31.38,335048.07,7359222.32
"8096",8096,1978,2,"k","Zebra",19,-23.91,31.42,339171.15,7354838.73
"8097",8097,1978,2,"k","Zebra",5,-23.91,31.44,341207.3,7354861.35
"8099",8099,1978,2,"k","Zebra",7,-24.01,31.46,343364.34,7343809.65
"8109",8109,1978,2,"k","Zebra",7,-23.99,31.48,345374.99,7346046.57
"8111",8111,1978,2,"k","Zebra",1,-23.93,31.48,345303.39,7352690.94
"8119",8119,1978,2,"k","Zebra",9,-23.89,31.46,343219.32,7357098.47
"8121",8121,1978,2,"k","Zebra",23,-23.89,31.48,345255.75,7357120.5
"8124",8124,1978,2,"k","Zebra",4,-23.91,31.46,343243.44,7354883.68
"8129",8129,1978,2,"k","Zebra",14,-23.87,31.46,343195.21,7359313.26
"8134",8134,1978,2,"k","Zebra",41,-23.87,31.48,345231.96,7359335.27
"8137",8137,1978,2,"k","Zebra",3,-24.06,31.51,348509.36,7338327.41
"8141",8141,1978,2,"k","Zebra",2,-24.01,31.51,348450.7,7343864.39
"8149",8149,1978,2,"k","Zebra",16,-23.99,31.51,348427.27,7346079.17
"8162",8162,1978,4,"k","Zebra",6,-23.81,31.15,311537.05,7365580.24
"8164",8164,1978,4,"k","Zebra",3,-23.83,31.15,311565.95,7363365.23
"8186",8186,1978,4,"k","Zebra",5,-23.66,31.15,311321.08,7382192.65
"8191",8191,1978,4,"k","Zebra",35,-23.81,31.17,313574.96,7365606.67
"8208",8208,1978,4,"k","Zebra",13,-23.76,31.19,315542.28,7371170.23
"8210",8210,1978,4,"k","Zebra",6,-23.78,31.17,313532.13,7368929.15
"8214",8214,1978,4,"k","Zebra",9,-23.78,31.19,315570.5,7368955.27
"8221",8221,1978,4,"k","Zebra",5,-23.72,31.19,315485.93,7375600.14
"8222",8222,1978,4,"k","Zebra",4,-23.74,31.17,313475.11,7373359.11
"8243",8243,1978,4,"k","Zebra",4,-23.83,31.21,317678.69,7363443.71
"8247",8247,1978,4,"k","Zebra",11,-23.76,31.23,319619.59,7371221.57
"8249",8249,1978,4,"k","Zebra",4,-23.78,31.21,317608.85,7368981.1
"8251",8251,1978,4,"k","Zebra",14,-23.78,31.23,319647.18,7369006.64
"8252",8252,1978,4,"k","Zebra",4,-23.72,31.21,317525.21,7375625.92
"8260",8260,1978,4,"k","Zebra",16,-23.74,31.23,319592.02,7373436.5
"8269",8269,1978,4,"k","Zebra",13,-23.85,31.28,324836.94,7361317.08
"8272",8272,1978,4,"k","Zebra",17,-23.81,31.26,322745.37,7365722.05
"8280",8280,1978,4,"k","Zebra",10,-23.83,31.28,324810.06,7363531.99
"8282",8282,1978,4,"k","Zebra",30,-23.76,31.26,322677.53,7371259.32
"8286",8286,1978,4,"k","Zebra",56,-23.76,31.28,324716.14,7371284.13
"8291",8291,1978,4,"k","Zebra",12,-23.78,31.26,322704.65,7369044.41
"8293",8293,1978,4,"k","Zebra",28,-23.78,31.28,324742.95,7369069.24
"8301",8301,1978,4,"k","Zebra",15,-23.74,31.26,322650.43,7373474.22
"8305",8305,1978,4,"k","Zebra",13,-23.74,31.28,324689.35,7373499.01
"8307",8307,1978,4,"k","Zebra",10,-23.85,31.32,328911.3,7361365.98
"8314",8314,1978,4,"k","Zebra",11,-23.81,31.32,328858.81,7365795.73
"8317",8317,1978,4,"k","Zebra",37,-23.83,31.32,328885.05,7363580.85
"8321",8321,1978,4,"k","Zebra",16,-23.76,31.3,326754.73,7371308.65
"8323",8323,1978,4,"k","Zebra",7,-23.76,31.32,328793.31,7371332.88
"8333",8333,1978,4,"k","Zebra",2,-23.72,31.3,326701.8,7375738.38
"8339",8339,1978,4,"k","Zebra",19,-23.74,31.3,326728.26,7373523.52
"8341",8341,1978,4,"k","Zebra",5,-23.74,31.32,328767.15,7373547.74
"8346",8346,1978,4,"k","Zebra",39,-23.85,31.34,330948.46,7361389.99
"8351",8351,1978,4,"k","Zebra",5,-23.81,31.34,330896.59,7365819.71
"8356",8356,1978,4,"k","Zebra",23,-23.83,31.34,330922.52,7363604.85
"8360",8360,1978,4,"k","Zebra",3,-23.76,31.36,332870.43,7371380.49
"8372",8372,1978,5,"k","Zebra",33,-23.85,31.36,332985.61,7361413.72
"8377",8377,1978,5,"k","Zebra",4,-23.81,31.36,332934.36,7365843.41
"8381",8381,1978,5,"k","Zebra",27,-23.83,31.36,332959.97,7363628.57
"8382",8382,1978,5,"k","Zebra",48,-23.85,31.38,335022.74,7361437.16
"8387",8387,1978,5,"k","Zebra",52,-23.85,31.4,337059.85,7361460.31
"8389",8389,1978,5,"k","Zebra",29,-23.87,31.4,337084.88,7359245.49
"8393",8393,1978,5,"k","Zebra",26,-23.81,31.38,334972.12,7365866.82
"8395",8395,1978,5,"k","Zebra",2,-23.81,31.4,337009.86,7365889.94
"8398",8398,1978,5,"k","Zebra",18,-23.83,31.38,334997.42,7363651.99
"8401",8401,1978,5,"k","Zebra",7,-23.83,31.4,337034.85,7363675.13
"8409",8409,1978,5,"k","Zebra",5,-23.78,31.38,334934.21,7369189.05
"8413",8413,1978,5,"k","Zebra",17,-23.85,31.42,339096.96,7361483.17
"8416",8416,1978,5,"k","Zebra",26,-23.85,31.44,341134.05,7361505.75
"8419",8419,1978,5,"k","Zebra",42,-23.87,31.42,339121.67,7359268.37
"8422",8422,1978,5,"k","Zebra",25,-23.87,31.44,341158.45,7359290.96
"8427",8427,1978,5,"k","Zebra",9,-23.81,31.44,341085.31,7365935.32
"8430",8430,1978,5,"k","Zebra",21,-23.83,31.42,339072.27,7363697.98
"8432",8432,1978,5,"k","Zebra",53,-23.83,31.44,341109.67,7363720.54
"8442",8442,1978,5,"k","Zebra",12,-23.78,31.42,339010.62,7369234.96
"8449",8449,1978,5,"k","Zebra",59,-23.85,31.46,343171.13,7361528.04
"8453",8453,1978,5,"k","Zebra",11,-23.85,31.48,345208.19,7361550.04
"8460",8460,1978,5,"k","Zebra",63,-23.83,31.46,343147.06,7363742.81
"8462",8462,1978,5,"k","Zebra",10,-23.83,31.48,345184.44,7363764.8
"8489",8489,1978,5,"k","Zebra",4,-23.81,31.53,350254.87,7366033.23
"8495",8495,1978,5,"k","Zebra",7,-23.78,31.51,348182.35,7369334.07
"8502",8502,1978,5,"k","Zebra",8,-23.85,31.55,352337.82,7361624.77
"8530",8530,1978,6,"k","Zebra",4,-23.6,31.32,328584.59,7389051.57
"8532",8532,1978,6,"k","Zebra",7,-23.62,31.32,328610.61,7386836.75
"8538",8538,1978,6,"k","Zebra",1,-23.58,31.32,328558.59,7391266.38
"8544",8544,1978,6,"k","Zebra",9,-23.68,31.36,332768.39,7380239.75
"8548",8548,1978,6,"k","Zebra",5,-23.64,31.34,330677.08,7384645.78
"8553",8553,1978,6,"k","Zebra",6,-23.66,31.36,332742.93,7382454.56
"8561",8561,1978,6,"k","Zebra",6,-23.62,31.36,332692.08,7386884.15
"8570",8570,1978,6,"k","Zebra",4,-23.72,31.4,336897.67,7375856.53
"8583",8583,1978,6,"k","Zebra",22,-23.68,31.4,336847.94,7380286.09
"8599",8599,1978,6,"k","Zebra",5,-23.6,31.4,336748.71,7389145.15
"8609",8609,1978,6,"k","Zebra",2,-23.58,31.38,334682.64,7391336.95
"8619",8619,1978,6,"k","Zebra",7,-23.68,31.44,340927.44,7380331.29
"8628",8628,1978,6,"k","Zebra",9,-23.6,31.44,340830.7,7389190.23
"8632",8632,1978,6,"k","Zebra",13,-23.58,31.42,338765.26,7391382.57
"8635",8635,1978,6,"k","Zebra",5,-23.53,31.42,338704.23,7396919.39
"8647",8647,1978,6,"k","Zebra",6,-23.68,31.48,345006.88,7380375.33
"8652",8652,1978,6,"k","Zebra",9,-23.7,31.51,348089.58,7378192.92
"8654",8654,1978,7,"k","Zebra",5,-23.64,31.15,311292.38,7384407.62
"8655",8655,1978,7,"k","Zebra",5,-23.68,31.17,313389.74,7380004
"8675",8675,1978,7,"k","Zebra",5,-23.62,31.23,319427.08,7386725.94
"8684",8684,1978,7,"k","Zebra",5,-23.6,31.26,322461.34,7388978.38
"8687",8687,1978,7,"k","Zebra",3,-23.62,31.26,322488.29,7386763.52
"8694",8694,1978,7,"k","Zebra",5,-23.7,31.3,326675.37,7377953.24
"8697",8697,1978,7,"k","Zebra",1,-23.7,31.32,328714.88,7377977.43
"8700",8700,1978,7,"k","Zebra",5,-23.66,31.3,326622.57,7382382.95
"8712",8712,1978,8,"k","Zebra",12,-23.51,31.28,324382.83,7398969.82
"8717",8717,1978,8,"k","Zebra",6,-23.47,31.26,322286.71,7403374.88
"8721",8721,1978,8,"k","Zebra",4,-23.49,31.28,324356.31,7401184.64
"8724",8724,1978,8,"k","Zebra",6,-23.45,31.28,324303.34,7405614.27
"8732",8732,1978,8,"k","Zebra",1,-23.51,31.32,328467.77,7399018.18
"8736",8736,1978,8,"k","Zebra",4,-23.53,31.32,328493.69,7396803.39
"8739",8739,1978,8,"k","Zebra",10,-23.45,31.3,326346.74,7405638.54
"8743",8743,1978,8,"k","Zebra",4,-23.41,31.3,326294.46,7410068.12
"8746",8746,1978,8,"k","Zebra",10,-23.51,31.36,332552.64,7399065.41
"8763",8763,1978,8,"k","Zebra",6,-23.45,31.34,330433.49,7405686.24
"8766",8766,1978,8,"k","Zebra",4,-23.51,31.38,334595.06,7399088.59
"8775",8775,1978,9,"k","Zebra",8,-23.6,31.11,307152.64,7388784.17
"8781",8781,1978,9,"k","Zebra",7,-23.62,31.11,307181.91,7386569.18
"8790",8790,1978,9,"k","Zebra",10,-23.51,31.11,307021.2,7398751.57
"8801",8801,1978,9,"k","Zebra",13,-23.49,31.11,306992.05,7400966.53
"8807",8807,1978,9,"k","Zebra",8,-23.62,31.15,311263.7,7386622.58
"8810",8810,1978,9,"k","Zebra",12,-23.56,31.13,309135.99,7393240.93
"8814",8814,1978,9,"k","Zebra",4,-23.56,31.15,311177.81,7393267.43
"8816",8816,1978,9,"k","Zebra",5,-23.58,31.13,309164.91,7391025.96
"8825",8825,1978,9,"k","Zebra",8,-23.51,31.15,311106.39,7398804.77
"8830",8830,1978,9,"k","Zebra",4,-23.53,31.15,311134.94,7396589.84
"8833",8833,1978,9,"k","Zebra",6,-23.49,31.13,309034.96,7400993.26
"8838",8838,1978,9,"k","Zebra",6,-23.6,31.17,313276.23,7388863.79
"8849",8849,1978,9,"k","Zebra",7,-23.47,31.17,313092.55,7403260.76
"8870",8870,1978,9,"k","Zebra",29,-23.47,31.21,317178.88,7403312.19
"8871",8871,1978,9,"k","Zebra",3,-23.49,31.21,317206.46,7401097.32
"8878",8878,1978,10,"k","Zebra",8,-23.35,31.01,296563.11,7416333.84
"8881",8881,1978,10,"k","Zebra",13,-23.35,31.03,298608.26,7416361.87
"8886",8886,1978,10,"k","Zebra",6,-23.31,31.01,296502.15,7420763.86
"8889",8889,1978,10,"k","Zebra",18,-23.33,31.01,296532.61,7418548.86
"8892",8892,1978,10,"k","Zebra",88,-23.33,31.03,298578.07,7418576.86
"8898",8898,1978,10,"k","Zebra",8,-23.47,31.07,302876.44,7403127.21
"8902",8902,1978,10,"k","Zebra",4,-23.43,31.07,302817.03,7407557.18
"8907",8907,1978,10,"k","Zebra",3,-23.39,31.05,300713.22,7411959.64
"8913",8913,1978,10,"k","Zebra",4,-23.35,31.05,300653.39,7416389.61
"8925",8925,1978,10,"k","Zebra",5,-23.31,31.05,300593.66,7420819.55
"8927",8927,1978,10,"k","Zebra",5,-23.31,31.07,302639.39,7420846.97
"8936",8936,1978,10,"k","Zebra",6,-23.33,31.07,302668.94,7418632.02
"8942",8942,1978,10,"k","Zebra",5,-23.28,31.07,302595.11,7424169.39
"8954",8954,1978,10,"k","Zebra",5,-23.41,31.09,304831.54,7409799.39
"8961",8961,1978,10,"k","Zebra",15,-23.37,31.09,304772.9,7414229.29
"8963",8963,1978,10,"k","Zebra",8,-23.31,31.11,306730.8,7420900.96
"8966",8966,1978,10,"k","Zebra",3,-23.43,31.15,310992.42,7407664.45
"8974",8974,1978,10,"k","Zebra",2,-23.41,31.15,310963.98,7409879.36
"8976",8976,1978,10,"k","Zebra",11,-23.35,31.13,308833.76,7416497.73
"8981",8981,1978,10,"k","Zebra",8,-23.35,31.15,310878.81,7416524.05
"8988",8988,1978,10,"k","Zebra",11,-23.31,31.13,308776.48,7420927.53
"8992",8992,1978,10,"k","Zebra",2,-23.31,31.15,310822.15,7420953.82
"8995",8995,1978,10,"k","Zebra",8,-23.33,31.13,308805.11,7418712.63
"8998",8998,1978,10,"k","Zebra",21,-23.33,31.15,310850.47,7418738.94
"9003",9003,1978,10,"k","Zebra",5,-23.39,31.17,312979.99,7412120.34
"9011",9011,1978,10,"k","Zebra",9,-23.35,31.17,312923.85,7416550.09
"9015",9015,1978,10,"k","Zebra",6,-23.35,31.19,314968.87,7416575.85
"9020",9020,1978,10,"k","Zebra",3,-23.37,31.17,312951.91,7414335.22
"9023",9023,1978,10,"k","Zebra",7,-23.31,31.19,314913.43,7421005.55
"9027",9027,1978,10,"k","Zebra",34,-23.33,31.17,312895.81,7418764.96
"9036",9036,1978,11,"k","Zebra",5,-23.39,31.23,319113.16,7412196.85
"9045",9045,1978,11,"k","Zebra",2,-23.26,31.23,318937.01,7426593.16
"9046",9046,1978,11,"k","Zebra",7,-23.28,31.21,316917.99,7424353.22
"9051",9051,1978,11,"k","Zebra",3,-23.22,31.21,316836.02,7430997.66
"9069",9069,1978,11,"k","Zebra",5,-23.26,31.26,322006.54,7426630.3
"9072",9072,1978,11,"k","Zebra",9,-23.26,31.28,324052.87,7426654.7
"9086",9086,1978,11,"k","Zebra",8,-23.18,31.28,323947.98,7435513.7
"9087",9087,1978,11,"k","Zebra",29,-23.2,31.26,321926.93,7433274.6
"9092",9092,1978,11,"k","Zebra",3,-23.2,31.28,323974.17,7433298.96
"9115",9115,1978,11,"k","Zebra",6,-23.2,31.3,326021.4,7433323.03
"9119",9119,1978,12,"k","Zebra",4,-23.26,30.98,293356.26,7426258.92
"9126",9126,1978,12,"k","Zebra",10,-23.22,30.98,293294.61,7430688.95
"9129",9129,1978,12,"k","Zebra",5,-23.24,30.96,291278.54,7428445.31
"9140",9140,1978,12,"k","Zebra",7,-23.28,31.03,298502.72,7424114.32
"9141",9141,1978,12,"k","Zebra",7,-23.22,31.01,296365.35,7430731.34
"9144",9144,1978,12,"k","Zebra",3,-23.22,31.03,298412.49,7430759.24
"9153",9153,1978,12,"k","Zebra",3,-23.2,31.01,296335.02,7432946.32
"9158",9158,1978,12,"k","Zebra",4,-23.26,31.05,300519.13,7426356.96
"9160",9160,1978,12,"k","Zebra",5,-23.26,31.07,302565.63,7426384.33
"9164",9164,1978,12,"k","Zebra",15,-23.22,31.05,300459.62,7430786.86
"9168",9168,1978,12,"k","Zebra",5,-23.22,31.07,302506.73,7430814.2
"9175",9175,1978,12,"k","Zebra",4,-23.24,31.07,302536.16,7428599.27
"9179",9179,1978,12,"k","Zebra",6,-23.2,31.05,300429.9,7433001.8
"9184",9184,1978,12,"k","Zebra",3,-23.26,31.09,304612.11,7426411.42
"9193",9193,1978,12,"k","Zebra",20,-23.22,31.09,304553.82,7430841.25
"9199",9199,1978,12,"k","Zebra",11,-23.24,31.09,304582.95,7428626.34
"9204",9204,1978,12,"k","Zebra",6,-23.18,31.11,306543.31,7435297.8
"9208",9208,1978,12,"k","Zebra",8,-23.2,31.11,306572.09,7433082.92
"9211",9211,1978,12,"k","Zebra",6,-23.26,31.15,310751.45,7426491.01
"9222",9222,1978,12,"k","Zebra",7,-23.24,31.15,310723.21,7428705.87
"9229",9229,1978,12,"k","Zebra",5,-23.2,31.15,310666.8,7433135.58
"9241",9241,1978,12,"k","Zebra",4,-23.22,31.19,314789.03,7430972.3
"9260",9260,1978,13,"k","Zebra",3,-23.72,31.51,348112.74,7375978.21
"9266",9266,1978,13,"k","Zebra",192,-23.72,31.53,350151.81,7375999.41
"9272",9272,1978,13,"k","Zebra",5,-23.74,31.53,350174.68,7373784.71
"9274",9274,1978,13,"k","Zebra",43,-23.68,31.51,348066.43,7380407.62
"9276",9276,1978,13,"k","Zebra",11,-23.68,31.53,350106.12,7380428.78
"9278",9278,1978,13,"k","Zebra",1,-23.64,31.51,348020.2,7384837
"9282",9282,1978,13,"k","Zebra",5,-23.62,31.51,347997.11,7387051.69
"9284",9284,1978,13,"k","Zebra",9,-23.62,31.53,350037.72,7387072.81
"9289",9289,1978,13,"k","Zebra",6,-23.78,31.57,354296.69,7369396.9
"9303",9303,1978,13,"k","Zebra",9,-23.64,31.55,352100.8,7384878.99
"9304",9304,1978,13,"k","Zebra",14,-23.64,31.57,354141.08,7384899.56
"9306",9306,1978,13,"k","Zebra",15,-23.66,31.55,352123.28,7382664.33
"9308",9308,1978,13,"k","Zebra",35,-23.66,31.57,354163.25,7382684.91
"9311",9311,1978,13,"k","Zebra",17,-23.62,31.55,352078.33,7387093.65
"9314",9314,1978,13,"k","Zebra",10,-23.62,31.57,354118.92,7387114.2
"9316",9316,1978,13,"k","Zebra",3,-23.81,31.59,356367.77,7366095.26
"9320",9320,1978,13,"k","Zebra",29,-23.81,31.61,358405.38,7366115.37
"9325",9325,1978,13,"k","Zebra",5,-23.83,31.61,358427.09,7363900.7
"9329",9329,1978,13,"k","Zebra",6,-23.76,31.59,356312.81,7371631.94
"9335",9335,1978,13,"k","Zebra",3,-23.78,31.59,356334.78,7369417.28
"9337",9337,1978,13,"k","Zebra",3,-23.78,31.61,358372.86,7369437.36
"9341",9341,1978,13,"k","Zebra",7,-23.72,31.59,356268.92,7376061.26
"9352",9352,1978,13,"k","Zebra",7,-23.68,31.61,358264.73,7380510.58
"9356",9356,1978,13,"k","Zebra",12,-23.7,31.59,356247,7378275.92
"9362",9362,1978,13,"k","Zebra",29,-23.64,31.61,358221.6,7384939.83
"9374",9374,1978,13,"k","Zebra",17,-23.62,31.59,356159.49,7387134.47
"9379",9379,1978,13,"k","Zebra",13,-23.62,31.61,358200.06,7387154.45
"9381",9381,1978,13,"k","Zebra",8,-23.81,31.63,360442.98,7366135.18
"9384",9384,1978,13,"k","Zebra",24,-23.81,31.65,362480.57,7366154.71
"9393",9393,1978,13,"k","Zebra",5,-23.83,31.65,362501.64,7363940.07
"9401",9401,1978,13,"k","Zebra",2,-23.76,31.65,362427.94,7371691.3
"9405",9405,1978,13,"k","Zebra",8,-23.78,31.63,360410.93,7369457.16
"9407",9407,1978,13,"k","Zebra",14,-23.78,31.65,362448.98,7369476.67
"9409",9409,1978,13,"k","Zebra",1,-23.72,31.63,360346.93,7376101.07
"9412",9412,1978,13,"k","Zebra",17,-23.72,31.65,362385.92,7376120.54
"9413",9413,1978,13,"k","Zebra",3,-23.74,31.63,360368.25,7373886.44
"9418",9418,1978,13,"k","Zebra",2,-23.74,31.65,362406.92,7373905.92
"9427",9427,1978,13,"k","Zebra",11,-23.7,31.65,362364.94,7378335.16
"9429",9429,1978,13,"k","Zebra",14,-23.64,31.63,360261.84,7384959.54
"9436",9436,1978,13,"k","Zebra",21,-23.66,31.65,362323.01,7382764.37
"9438",9438,1978,13,"k","Zebra",8,-23.76,31.67,364466.3,7371710.51
"9444",9444,1978,14,"k","Zebra",6,-23.45,31.36,332476.85,7405709.67
"9447",9447,1978,14,"k","Zebra",2,-23.47,31.38,334545.13,7403518.07
"9450",9450,1978,14,"k","Zebra",6,-23.45,31.38,334520.19,7405732.81
"9451",9451,1978,14,"k","Zebra",48,-23.45,31.4,336563.52,7405755.66
"9454",9454,1978,14,"k","Zebra",14,-23.51,31.42,338679.85,7399134.11
"9456",9456,1978,14,"k","Zebra",16,-23.51,31.44,340722.23,7399156.44
"9459",9459,1978,14,"k","Zebra",110,-23.53,31.44,340746.3,7396941.73
"9462",9462,1978,14,"k","Zebra",10,-23.47,31.42,338631.15,7403563.53
"9465",9465,1978,14,"k","Zebra",49,-23.47,31.44,340674.15,7403585.83
"9469",9469,1978,14,"k","Zebra",45,-23.45,31.42,338606.83,7405778.23
"9472",9472,1978,14,"k","Zebra",175,-23.45,31.44,340650.13,7405800.52
"9478",9478,1978,14,"k","Zebra",16,-23.6,31.46,342871.67,7389212.34
"9484",9484,1978,14,"k","Zebra",2,-23.6,31.48,344912.62,7389234.16
"9491",9491,1978,14,"k","Zebra",64,-23.51,31.46,342764.59,7399178.48
"9498",9498,1978,14,"k","Zebra",36,-23.53,31.46,342788.35,7396963.79
"9503",9503,1978,14,"k","Zebra",8,-23.47,31.46,342717.13,7403607.85
"9508",9508,1978,14,"k","Zebra",7,-23.49,31.46,342740.85,7401393.17
"9511",9511,1978,14,"k","Zebra",40,-23.49,31.48,344783.51,7401414.92
"9516",9516,1978,14,"k","Zebra",6,-23.45,31.48,344736.7,7405844.24
"9521",9521,1978,14,"k","Zebra",4,-23.6,31.53,350014.96,7389287.48
"9538",9538,1978,14,"k","Zebra",9,-23.45,31.53,349844.83,7405897.29
"9550",9550,1978,15,"k","Zebra",8,-23.35,31.34,330306.04,7416759.98
"9551",9551,1978,15,"k","Zebra",15,-23.35,31.36,332350.93,7416783.33
"9555",9555,1978,15,"k","Zebra",6,-23.31,31.34,330255.2,7421189.44
"9557",9557,1978,15,"k","Zebra",4,-23.31,31.36,332300.71,7421212.75
"9560",9560,1978,15,"k","Zebra",2,-23.33,31.34,330280.61,7418974.71
"9563",9563,1978,15,"k","Zebra",21,-23.33,31.36,332325.81,7418998.04
"9567",9567,1978,15,"k","Zebra",5,-23.39,31.38,334445.5,7412376.97
"9572",9572,1978,15,"k","Zebra",18,-23.35,31.4,336440.68,7416829.17
"9576",9576,1978,15,"k","Zebra",5,-23.31,31.38,334346.2,7421235.79
"9579",9579,1978,15,"k","Zebra",6,-23.31,31.4,336391.68,7421258.54
"9585",9585,1978,15,"k","Zebra",2,-23.28,31.38,334309.04,7424557.82
"9590",9590,1978,15,"k","Zebra",9,-23.28,31.4,336354.98,7424580.55
"9597",9597,1978,15,"k","Zebra",7,-23.35,31.42,338485.53,7416851.67
"9598",9598,1978,15,"k","Zebra",6,-23.35,31.44,340530.37,7416873.88
"9600",9600,1978,15,"k","Zebra",6,-23.31,31.44,340482.59,7421303.19
"9606",9606,1978,15,"k","Zebra",11,-23.39,31.46,342622.43,7412466.51
"9616",9616,1978,15,"k","Zebra",18,-23.31,31.46,342528.03,7421325.09
"9618",9618,1978,15,"k","Zebra",29,-23.33,31.46,342551.6,7419110.45
"9620",9620,1978,15,"k","Zebra",4,-23.33,31.48,344596.72,7419132.09
"9625",9625,1978,15,"k","Zebra",3,-23.39,31.51,347732.9,7412520.17
"9631",9631,1978,15,"k","Zebra",4,-23.41,31.53,349799.63,7410326.53
"9639",9639,1978,15,"k","Zebra",7,-23.33,31.51,347664.37,7419164.01
"9645",9645,1978,18,"k","Zebra",11,-23.26,31.32,328145.48,7426702.67
"9653",9653,1978,18,"k","Zebra",7,-23.26,31.34,330191.77,7426726.23
"9656",9656,1978,18,"k","Zebra",18,-23.26,31.36,332238.04,7426749.51
"9658",9658,1978,18,"k","Zebra",14,-23.22,31.34,330141.12,7431155.64
"9663",9663,1978,18,"k","Zebra",1,-23.24,31.36,332213.01,7428964.2
"9667",9667,1978,18,"k","Zebra",6,-23.18,31.36,332138.04,7435608.25
"9673",9673,1978,18,"k","Zebra",7,-23.2,31.36,332163.01,7433393.57
"9676",9676,1978,18,"k","Zebra",24,-23.14,31.36,332088.16,7440037.59
"9680",9680,1978,18,"k","Zebra",22,-23.26,31.38,334284.3,7426772.51
"9683",9683,1978,18,"k","Zebra",1,-23.26,31.4,336330.54,7426795.22
"9687",9687,1978,18,"k","Zebra",4,-23.18,31.38,334185.52,7435631.19
"9690",9690,1978,18,"k","Zebra",18,-23.18,31.4,336232.98,7435653.84
"9693",9693,1978,18,"k","Zebra",7,-23.2,31.4,336257.34,7433439.19
"9700",9700,1978,18,"k","Zebra",4,-23.14,31.4,336184.33,7440083.12
"9713",9713,1978,18,"k","Zebra",8,-23.12,31.38,334111.65,7442275.14
"9718",9718,1978,18,"k","Zebra",6,-23.12,31.4,336160.03,7442297.75
"9728",9728,1978,18,"k","Zebra",25,-23.28,31.42,338400.91,7424603
"9732",9732,1978,18,"k","Zebra",11,-23.22,31.44,340375.39,7431269.06
"9734",9734,1978,18,"k","Zebra",7,-23.24,31.42,338352.66,7429032.3
"9735",9735,1978,18,"k","Zebra",4,-23.24,31.44,340399.18,7429054.43
"9740",9740,1978,18,"k","Zebra",8,-23.18,31.42,338280.44,7435676.21
"9748",9748,1978,18,"k","Zebra",1,-23.2,31.42,338304.49,7433461.58
"9756",9756,1978,18,"k","Zebra",17,-23.14,31.42,338232.38,7440105.46
"9761",9761,1978,18,"k","Zebra",23,-23.14,31.44,340280.43,7440127.52
"9768",9768,1978,18,"k","Zebra",1,-23.16,31.42,338256.4,7437890.84
"9772",9772,1978,18,"k","Zebra",17,-23.16,31.44,340304.14,7437912.91
"9780",9780,1978,18,"k","Zebra",3,-23.12,31.44,340256.74,7442342.12
"9784",9784,1978,18,"k","Zebra",4,-23.28,31.46,342492.71,7424647.04
"9788",9788,1978,18,"k","Zebra",8,-23.28,31.48,344538.6,7424668.63
"9791",9791,1978,18,"k","Zebra",3,-23.22,31.46,342422.21,7431290.89
"9794",9794,1978,18,"k","Zebra",26,-23.22,31.48,344469.01,7431312.45
"9803",9803,1978,18,"k","Zebra",1,-23.18,31.46,342375.3,7435720.11
"9812",9812,1978,18,"k","Zebra",19,-23.2,31.46,342398.74,7433505.5
"9822",9822,1978,18,"k","Zebra",4,-23.16,31.46,342351.87,7437934.7
"9827",9827,1978,18,"k","Zebra",1,-23.26,31.51,347584.64,7426915.09
"9829",9829,1978,18,"k","Zebra",6,-23.26,31.53,349630.8,7426935.97
"9840",9840,1978,18,"k","Zebra",7,-23.22,31.51,347539.18,7431344.25
"9859",9859,1978,18,"k","Zebra",7,-23.22,31.55,351632.7,7431385.67
"9861",9861,1978,18,"k","Zebra",3,-23.24,31.55,351654.81,7429171.12
"9864",9864,1978,19,"k","Zebra",22,-23.37,31.53,349754.51,7414755.74
"9871",9871,1978,19,"k","Zebra",10,-23.41,31.55,351843.48,7410347.22
"9874",9874,1978,19,"k","Zebra",5,-23.35,31.55,351776.74,7416990.99
"9885",9885,1978,19,"k","Zebra",5,-23.58,31.61,358157.03,7391583.67
"9887",9887,1978,19,"k","Zebra",2,-23.53,31.59,356061.39,7397100.24
"9889",9889,1978,19,"k","Zebra",1,-23.85,31.65,362522.74,7361725.42
"9892",9892,1978,19,"k","Zebra",10,-23.87,31.65,362543.85,7359510.77
"9897",9897,1978,19,"k","Zebra",5,-23.6,31.63,360219.4,7389388.75
"9904",9904,1978,19,"k","Zebra",23,-23.62,31.63,360240.62,7387174.15
"9909",9909,1978,19,"k","Zebra",15,-23.62,31.65,362281.16,7387193.56
"9912",9912,1978,19,"k","Zebra",1,-23.58,31.63,360198.21,7391603.34
"9914",9914,1978,19,"k","Zebra",10,-23.89,31.67,364601.3,7357315.4
"9920",9920,1978,19,"k","Zebra",5,-23.89,31.69,366637.62,7357334.4
"9922",9922,1978,19,"k","Zebra",15,-23.85,31.67,364559.69,7361744.69
"9927",9927,1978,19,"k","Zebra",6,-23.87,31.67,364580.49,7359530.04
"9930",9930,1978,19,"k","Zebra",9,-23.87,31.69,366617.11,7359549.04
"9932",9932,1978,19,"k","Zebra",18,-23.81,31.67,364518.14,7366173.96
"9934",9934,1978,19,"k","Zebra",4,-23.81,31.69,366555.71,7366192.91
"9938",9938,1978,19,"k","Zebra",12,-23.83,31.67,364538.91,7363959.32
"9941",9941,1978,19,"k","Zebra",6,-23.83,31.69,366576.16,7363978.29
"9944",9944,1978,19,"k","Zebra",5,-23.76,31.69,366504.64,7371729.43
"9945",9945,1978,19,"k","Zebra",11,-23.78,31.67,364487.02,7369495.89
"9946",9946,1978,19,"k","Zebra",13,-23.78,31.69,366525.06,7369514.83
"9950",9950,1978,19,"k","Zebra",7,-23.72,31.67,364424.9,7376139.73
"9951",9951,1978,19,"k","Zebra",1,-23.72,31.69,366463.87,7376158.63
"9955",9955,1978,19,"k","Zebra",26,-23.68,31.67,364383.57,7380568.93
"9959",9959,1978,19,"k","Zebra",14,-23.7,31.67,364404.23,7378354.33
"9963",9963,1978,19,"k","Zebra",12,-23.64,31.67,364342.3,7384998.1
"9965",9965,1978,19,"k","Zebra",5,-23.66,31.67,364362.92,7382783.52
"9968",9968,1978,19,"k","Zebra",13,-23.62,31.67,364321.69,7387212.68
"9973",9973,1978,19,"k","Zebra",7,-23.89,31.71,368673.92,7357353.11
"9975",9975,1978,19,"k","Zebra",9,-23.89,31.73,370710.21,7357371.54
"9978",9978,1978,19,"k","Zebra",4,-23.91,31.71,368694.12,7355138.48
"9981",9981,1978,19,"k","Zebra",10,-23.91,31.73,370730.1,7355156.92
"9995",9995,1978,19,"k","Zebra",2,-23.81,31.71,368593.26,7366211.58
"9997",9997,1978,19,"k","Zebra",15,-23.83,31.71,368613.4,7363996.97
"10000",10000,1978,19,"k","Zebra",8,-23.78,31.71,368563.08,7369533.48
"10001",10001,1978,19,"k","Zebra",10,-23.93,31.76,373803.48,7352969.43
"10007",10007,1978,19,"k","Zebra",9,-23.93,31.78,375839.12,7352987.16
"10013",10013,1978,19,"k","Zebra",6,-23.95,31.78,375858.26,7350772.56
"10022",10022,1978,19,"k","Zebra",3,-23.87,31.76,373745.22,7359613.23
"10026",10026,1978,19,"k","Zebra",32,-23.97,31.82,379947.4,7348592.59
"10031",10031,1978,19,"k","Zebra",4,-23.93,31.82,379910.36,7353021.75
"10032",10032,1978,19,"k","Zebra",4,-23.95,31.8,377893.57,7350790.01
"10039",10039,1978,19,"k","Zebra",3,-23.97,31.84,381982.38,7348609.48
"10044",10044,1978,19,"k","Zebra",3,-23.97,31.86,384017.34,7348626.07
"10051",10051,1978,19,"k","Zebra",5,-23.93,31.84,381945.97,7353038.62
"10053",10053,1978,19,"k","Zebra",5,-23.95,31.84,381964.16,7350824.05
"10057",10057,1978,19,"k","Zebra",5,-23.95,31.86,383999.45,7350840.63
"10058",10058,1978,19,"k","Zebra",4,-23.95,31.88,386034.72,7350856.93
"10061",10061,1978,20,"k","Zebra",3,-24.1,31.32,329241.27,7333679.56
"10065",10065,1978,20,"k","Zebra",4,-24.1,31.34,331274.49,7333703.77
"10069",10069,1978,20,"k","Zebra",9,-24.1,31.36,333307.7,7333727.68
"10072",10072,1978,20,"k","Zebra",10,-24.1,31.38,335340.9,7333751.31
"10082",10082,1978,20,"k","Zebra",1,-24.1,31.42,339407.26,7333797.69
"10088",10088,1978,20,"k","Zebra",13,-24.1,31.44,341440.42,7333820.44
"10097",10097,1978,20,"k","Zebra",4,-24.08,31.44,341415.8,7336035.3
"10110",10110,1978,20,"k","Zebra",1,-24.08,31.51,348532.86,7336112.61
"10111",10111,1978,20,"k","Zebra",11,-24.08,31.53,350566.28,7336134.04
"10114",10114,1978,20,"k","Zebra",3,-24.1,31.55,352622.56,7333940.41
"10119",10119,1978,20,"k","Zebra",10,-24.12,31.55,352645.47,7331725.62
"10122",10122,1978,20,"k","Zebra",11,-24.08,31.55,352599.68,7336155.19
"10125",10125,1978,20,"k","Zebra",7,-24.08,31.57,354633.08,7336176.04
"10129",10129,1978,20,"k","Zebra",3,-24.12,31.61,358743.71,7331787.4
"10142",10142,1978,20,"k","Zebra",4,-24.06,31.63,360711.58,7338451.59
"10146",10146,1978,20,"k","Zebra",17,-24.06,31.65,362745.24,7338471.28
"10153",10153,1978,20,"k","Zebra",7,-24.08,31.65,362766.53,7336256.57
"10161",10161,1978,20,"k","Zebra",5,-24.03,31.65,362713.35,7341793.34
"10169",10169,1978,21,"k","Zebra",3,-24.2,31.44,341563.81,7322746.08
"10173",10173,1978,21,"k","Zebra",4,-24.22,31.48,345651.02,7320576
"10176",10176,1978,21,"k","Zebra",5,-24.24,31.46,343644.23,7318338.87
"10180",10180,1978,21,"k","Zebra",3,-24.18,31.48,345602.84,7325005.72
"10184",10184,1978,21,"k","Zebra",4,-24.2,31.46,343595.37,7322768.62
"10187",10187,1978,21,"k","Zebra",11,-24.2,31.48,345626.92,7322790.86
"10191",10191,1978,21,"k","Zebra",1,-24.12,31.48,345530.71,7331650.25
"10197",10197,1978,21,"k","Zebra",10,-24.18,31.51,348650.62,7325038.52
"10204",10204,1978,21,"k","Zebra",1,-24.18,31.53,350682.45,7325060.02
"10207",10207,1978,21,"k","Zebra",5,-24.2,31.51,348674.22,7322823.68
"10209",10209,1978,21,"k","Zebra",5,-24.2,31.53,350705.74,7322845.2
"10215",10215,1978,21,"k","Zebra",5,-24.14,31.53,350635.93,7329489.64
"10224",10224,1978,21,"k","Zebra",5,-24.12,31.51,348579.91,7331682.99
"10228",10228,1978,21,"k","Zebra",2,-24.12,31.53,350612.69,7331704.45
"10240",10240,1978,21,"k","Zebra",1,-24.18,31.57,354746.09,7325102.15
"10243",10243,1978,21,"k","Zebra",3,-24.26,31.59,356867.34,7316263.62
"10251",10251,1978,21,"k","Zebra",30,-24.24,31.61,358875.79,7318498.8
"10259",10259,1978,21,"k","Zebra",20,-24.2,31.61,358831.7,7322928.35
"10269",10269,1978,21,"k","Zebra",43,-24.26,31.63,360928.37,7316304.11
"10278",10278,1978,21,"k","Zebra",8,-24.24,31.63,360906.61,7318518.88
"10284",10284,1978,21,"k","Zebra",11,-24.18,31.65,362873.22,7325182.93
"10290",10290,1978,21,"k","Zebra",9,-24.2,31.63,360863.16,7322948.41
"10293",10293,1978,21,"k","Zebra",15,-24.16,31.63,360819.76,7327377.92
"10299",10299,1978,22,"k","Zebra",8,-24.43,31.4,337793.61,7297228.28
"10306",10306,1978,22,"k","Zebra",5,-24.35,31.4,337691.41,7306088.14
"10311",10311,1978,22,"k","Zebra",14,-24.37,31.4,337716.93,7303873.18
"10321",10321,1978,22,"k","Zebra",15,-24.43,31.44,341849.44,7297274.55
"10329",10329,1978,22,"k","Zebra",28,-24.45,31.44,341874.4,7295059.6
"10351",10351,1978,22,"k","Zebra",13,-24.35,31.44,341749.8,7306134.29
"10361",10361,1978,22,"k","Zebra",8,-24.33,31.44,341724.94,7308349.22
"10368",10368,1978,22,"k","Zebra",8,-24.43,31.46,343877.34,7297297.24
"10373",10373,1978,22,"k","Zebra",14,-24.43,31.48,345905.22,7297319.65
"10388",10388,1978,22,"k","Zebra",8,-24.41,31.48,345880.92,7299534.56
"10400",10400,1978,22,"k","Zebra",5,-24.37,31.48,345832.38,7303964.38
"10405",10405,1978,22,"k","Zebra",3,-24.31,31.46,343729.91,7310586.75
"10408",10408,1978,22,"k","Zebra",4,-24.31,31.48,345759.71,7310609.07
"10417",10417,1978,22,"k","Zebra",19,-24.39,31.51,348899.41,7301782.49
"10429",10429,1978,22,"k","Zebra",17,-24.41,31.53,350951.38,7299589.25
"10444",10444,1978,22,"k","Zebra",34,-24.39,31.55,352956.38,7301825.48
"10449",10449,1978,22,"k","Zebra",19,-24.41,31.57,355007.69,7299631.68
"10453",10453,1978,22,"k","Zebra",13,-24.37,31.55,352933.24,7304040.34
"10456",10456,1978,22,"k","Zebra",6,-24.37,31.57,354962.03,7304061.38
"10468",10468,1978,22,"k","Zebra",2,-24.35,31.59,356968.32,7306296.96
"10477",10477,1978,23,"k","Zebra",2,-24.22,31.65,362916.01,7320753.43
"10485",10485,1978,23,"k","Zebra",2,-24.2,31.65,362894.6,7322968.18
"10489",10489,1978,23,"k","Zebra",4,-24.14,31.63,360798.09,7329592.67
"10493",10493,1978,23,"k","Zebra",3,-24.16,31.65,362851.85,7327397.67
"10500",10500,1978,23,"k","Zebra",23,-24.26,31.67,364989.35,7316343.43
"10506",10506,1978,23,"k","Zebra",4,-24.24,31.67,364968.23,7318558.18
"10510",10510,1978,23,"k","Zebra",3,-24.24,31.69,366999.02,7318577.39
"10511",10511,1978,23,"k","Zebra",17,-24.18,31.67,364904.97,7325202.39
"10513",10513,1978,23,"k","Zebra",12,-24.18,31.69,366936.71,7325221.57
"10517",10517,1978,23,"k","Zebra",14,-24.2,31.67,364926.04,7322987.66
"10522",10522,1978,23,"k","Zebra",7,-24.2,31.69,366957.47,7323006.85
"10525",10525,1978,23,"k","Zebra",6,-24.14,31.67,364862.88,7329631.84
"10528",10528,1978,23,"k","Zebra",16,-24.14,31.69,366895.26,7329650.99
"10532",10532,1978,23,"k","Zebra",16,-24.16,31.67,364883.92,7327417.12
"10540",10540,1978,23,"k","Zebra",14,-24.1,31.67,364820.85,7334061.27
"10547",10547,1978,23,"k","Zebra",9,-24.1,31.69,366853.86,7334080.4
"10550",10550,1978,23,"k","Zebra",62,-24.12,31.67,364841.86,7331846.56
"10555",10555,1978,23,"k","Zebra",20,-24.12,31.69,366874.55,7331865.7
"10560",10560,1978,23,"k","Zebra",12,-24.08,31.67,364799.87,7336275.97
"10568",10568,1978,23,"k","Zebra",71,-24.26,31.73,371080.73,7316400.23
"10572",10572,1978,23,"k","Zebra",200,-24.28,31.73,371100.92,7314185.51
"10576",10576,1978,23,"k","Zebra",18,-24.18,31.71,368968.44,7325240.46
"10584",10584,1978,23,"k","Zebra",13,-24.2,31.73,371020.28,7323044.35
"10586",10586,1978,23,"k","Zebra",11,-24.14,31.71,368927.62,7329669.86
"10591",10591,1978,23,"k","Zebra",2,-24.16,31.71,368948.02,7327455.16
"10597",10597,1978,23,"k","Zebra",9,-24.16,31.73,370980.06,7327473.74
"10600",10600,1978,23,"k","Zebra",4,-24.1,31.71,368886.86,7334099.23
"10606",10606,1978,23,"k","Zebra",8,-24.12,31.71,368907.23,7331884.55
"10614",10614,1978,23,"k","Zebra",8,-24.26,31.76,374126.39,7316427.64
"10617",10617,1978,24,"k","Zebra",10,-24.28,31.57,354859.54,7314028.12
"10621",10621,1978,24,"k","Zebra",5,-24.39,31.59,357013.31,7301867.3
"10625",10625,1978,24,"k","Zebra",2,-24.39,31.61,359041.75,7301887.77
"10628",10628,1978,24,"k","Zebra",5,-24.35,31.61,358997.4,7306317.41
"10632",10632,1978,24,"k","Zebra",5,-24.37,31.61,359019.57,7304102.59
"10636",10636,1978,24,"k","Zebra",4,-24.31,31.61,358953.12,7310747.02
"10646",10646,1978,24,"k","Zebra",18,-24.28,31.59,356889.75,7314048.82
"10653",10653,1978,24,"k","Zebra",3,-24.35,31.63,361026.47,7306337.56
"10658",10658,1978,24,"k","Zebra",11,-24.35,31.65,363055.54,7306357.42
"10661",10661,1978,24,"k","Zebra",4,-24.37,31.63,361048.32,7304122.76
"10676",10676,1978,24,"k","Zebra",6,-24.33,31.65,363034.02,7308572.21
"10682",10682,1978,24,"k","Zebra",18,-24.28,31.63,360950.14,7314089.33
"10685",10685,1978,24,"k","Zebra",1,-24.28,31.65,362980.32,7314109.15
"10689",10689,1978,24,"k","Zebra",4,-24.39,31.67,365127.02,7301947.43
"10701",10701,1978,24,"k","Zebra",24,-24.35,31.69,367113.63,7306396.27
"10705",10705,1978,24,"k","Zebra",3,-24.37,31.67,365105.8,7304162.21
"10712",10712,1978,24,"k","Zebra",10,-24.37,31.69,367134.52,7304181.5
"10725",10725,1978,24,"k","Zebra",20,-24.33,31.69,367092.75,7308611.03
"10729",10729,1978,24,"k","Zebra",7,-24.39,31.71,369183.81,7301985.74
"10743",10743,1978,24,"k","Zebra",8,-24.37,31.73,371191.93,7304219.2
"10746",10746,1978,24,"k","Zebra",122,-24.31,31.73,371131.22,7310863.42
"10753",10753,1978,24,"k","Zebra",43,-24.28,31.71,369070.78,7314166.86
"10757",10757,1978,24,"k","Zebra",30,-24.39,31.76,374254.75,7302031.98
"10766",10766,1978,24,"k","Zebra",2,-24.41,31.76,374274.55,7299817.24
"10771",10771,1978,24,"k","Zebra",4,-24.35,31.76,374215.18,7306461.44
"10774",10774,1978,24,"k","Zebra",154,-24.28,31.76,374146.1,7314212.94
"10777",10777,1978,25,"k","Zebra",4,-24.1,31.73,370919.85,7334117.78
"10784",10784,1978,25,"k","Zebra",4,-24.08,31.73,370899.81,7336332.45
"10789",10789,1978,25,"k","Zebra",12,-24.14,31.76,374008.49,7329715.74
"10792",10792,1978,25,"k","Zebra",3,-24.14,31.78,376040.82,7329733.59
"10795",10795,1978,25,"k","Zebra",10,-24.16,31.76,374028.1,7327501.07
"10798",10798,1978,25,"k","Zebra",3,-24.16,31.78,376060.11,7327518.93
"10801",10801,1978,25,"k","Zebra",17,-24.1,31.76,373969.31,7334145.06
"10809",10809,1978,25,"k","Zebra",71,-24.12,31.78,376021.54,7331948.24
"10813",10813,1978,25,"k","Zebra",8,-24.06,31.76,373930.19,7338574.36
"10818",10818,1978,25,"k","Zebra",5,-24.06,31.78,375963.78,7338592.16
"10826",10826,1978,25,"k","Zebra",12,-24.08,31.78,375983.02,7336377.53
"10829",10829,1978,25,"k","Zebra",4,-24.01,31.76,373881.38,7344110.96
"10833",10833,1978,25,"k","Zebra",3,-24.01,31.78,375915.76,7344128.73
"10837",10837,1978,25,"k","Zebra",14,-24.03,31.76,373900.89,7341896.32
"10842",10842,1978,25,"k","Zebra",18,-24.03,31.78,375934.96,7341914.11
"10845",10845,1978,25,"k","Zebra",54,-24.18,31.8,378111.11,7325321.84
"10846",10846,1978,25,"k","Zebra",48,-24.18,31.82,380142.78,7325339.13
"10849",10849,1978,25,"k","Zebra",113,-24.14,31.8,378073.13,7329751.14
"10856",10856,1978,25,"k","Zebra",23,-24.14,31.82,380105.44,7329768.41
"10865",10865,1978,25,"k","Zebra",5,-24.1,31.8,378035.22,7334180.42
"10876",10876,1978,25,"k","Zebra",14,-24.12,31.8,378054.17,7331965.78
"10881",10881,1978,25,"k","Zebra",46,-24.12,31.82,380086.79,7331983.04
"10889",10889,1978,25,"k","Zebra",7,-24.06,31.82,380030.94,7338626.9
"10894",10894,1978,25,"k","Zebra",10,-24.08,31.8,378016.29,7336395.05
"10898",10898,1978,25,"k","Zebra",5,-24.08,31.82,380049.54,7336412.28
"10906",10906,1978,25,"k","Zebra",14,-24.01,31.82,379984.49,7344163.41
"10909",10909,1978,25,"k","Zebra",15,-24.03,31.8,377969.01,7341931.6
"10914",10914,1978,25,"k","Zebra",45,-24.03,31.82,380003.06,7341948.81
"10918",10918,1978,25,"k","Zebra",7,-24.18,31.84,382174.45,7325356.12
"10922",10922,1978,25,"k","Zebra",6,-24.18,31.86,384206.11,7325372.83
"10925",10925,1978,25,"k","Zebra",1,-24.14,31.84,382137.74,7329785.38
"10930",10930,1978,25,"k","Zebra",1,-24.14,31.86,384170.03,7329802.07
"10933",10933,1978,25,"k","Zebra",19,-24.16,31.86,384188.06,7327587.45
"10943",10943,1978,25,"k","Zebra",31,-24.1,31.86,384134.01,7334231.28
"10946",10946,1978,25,"k","Zebra",38,-24.12,31.84,382119.41,7332000
"10950",10950,1978,25,"k","Zebra",10,-24.12,31.86,384152.02,7332016.68
"10955",10955,1978,25,"k","Zebra",6,-24.06,31.84,382064.5,7338643.83
"10960",10960,1978,25,"k","Zebra",12,-24.06,31.86,384098.05,7338660.47
"10963",10963,1978,25,"k","Zebra",5,-24.08,31.84,382082.79,7336429.23
"10968",10968,1978,25,"k","Zebra",21,-24.08,31.86,384116.03,7336445.88
"10971",10971,1978,25,"k","Zebra",11,-24.01,31.84,382018.84,7344180.31
"10979",10979,1978,25,"k","Zebra",4,-24.03,31.86,384071.12,7341982.35
"10989",10989,1978,25,"k","Zebra",1,-24.14,31.88,386202.31,7329818.46
"10992",10992,1978,25,"k","Zebra",13,-24.16,31.88,386220.02,7327603.85
"10995",10995,1978,25,"k","Zebra",10,-24.16,31.9,388251.98,7327619.97
"10998",10998,1978,25,"k","Zebra",5,-24.1,31.88,386166.93,7334247.65
"11001",11001,1978,25,"k","Zebra",37,-24.12,31.88,386184.61,7332033.06
"11005",11005,1978,25,"k","Zebra",3,-24.06,31.88,386131.59,7338676.82
"11009",11009,1978,25,"k","Zebra",11,-24.08,31.88,386149.25,7336462.24
"11012",11012,1978,25,"k","Zebra",2,-24.01,31.88,386087.51,7344213.26
"11014",11014,1978,25,"k","Zebra",2,-24.03,31.88,386105.13,7341998.69
"11021",11021,1978,26,"k","Zebra",3,-24.41,31.78,376302.58,7299835.23
"11027",11027,1978,26,"k","Zebra",3,-24.37,31.78,376263.63,7304264.68
"11030",11030,1978,26,"k","Zebra",15,-24.31,31.78,376205.31,7310908.82
"11036",11036,1978,26,"k","Zebra",6,-24.33,31.78,376224.74,7308694.11
"11040",11040,1978,26,"k","Zebra",17,-24.26,31.78,376156.82,7316445.55
"11043",11043,1978,26,"k","Zebra",9,-24.28,31.78,376176.2,7314230.86
"11045",11045,1978,26,"k","Zebra",157,-24.22,31.78,376118.09,7320874.92
"11051",11051,1978,26,"k","Zebra",33,-24.18,31.76,374047.73,7325286.4
"11056",11056,1978,26,"k","Zebra",19,-24.2,31.76,374067.37,7323071.72
"11058",11058,1978,26,"k","Zebra",100,-24.2,31.78,376098.75,7323089.6
"11061",11061,1978,26,"k","Zebra",21,-24.39,31.8,378311.44,7302067.65
"11068",11068,1978,26,"k","Zebra",5,-24.39,31.82,380339.78,7302085.05
"11073",11073,1978,26,"k","Zebra",16,-24.41,31.8,378330.61,7299852.94
"11077",11077,1978,26,"k","Zebra",13,-24.35,31.8,378273.16,7306497.07
"11081",11081,1978,26,"k","Zebra",10,-24.35,31.82,380302.13,7306514.45
"11086",11086,1978,26,"k","Zebra",5,-24.37,31.8,378292.29,7304282.36
"11091",11091,1978,26,"k","Zebra",1,-24.31,31.8,378234.93,7310926.46
"11094",11094,1978,26,"k","Zebra",11,-24.31,31.82,380264.54,7310943.82
"11096",11096,1978,26,"k","Zebra",7,-24.33,31.82,380283.33,7308729.14
"11097",11097,1978,26,"k","Zebra",9,-24.26,31.8,378187.23,7316463.18
"11099",11099,1978,26,"k","Zebra",8,-24.26,31.82,380217.64,7316480.51
"11105",11105,1978,26,"k","Zebra",11,-24.28,31.82,380236.39,7314265.84
"11107",11107,1978,26,"k","Zebra",3,-24.22,31.8,378149.14,7320892.52
"11110",11110,1978,26,"k","Zebra",13,-24.22,31.82,380180.18,7320909.83
"11115",11115,1978,26,"k","Zebra",13,-24.24,31.8,378168.18,7318677.85
"11117",11117,1978,26,"k","Zebra",8,-24.24,31.82,380198.9,7318695.17
"11120",11120,1978,26,"k","Zebra",17,-24.2,31.8,378130.12,7323107.18
"11123",11123,1978,26,"k","Zebra",2,-24.2,31.82,380161.48,7323124.48
"11127",11127,1978,26,"k","Zebra",5,-24.39,31.84,382368.1,7302102.16
"11130",11130,1978,26,"k","Zebra",32,-24.39,31.86,384396.42,7302118.97
"11134",11134,1978,26,"k","Zebra",1,-24.41,31.84,382386.63,7299887.46
"11137",11137,1978,26,"k","Zebra",9,-24.35,31.84,382331.09,7306531.53
"11140",11140,1978,26,"k","Zebra",3,-24.35,31.86,384360.05,7306548.33
"11144",11144,1978,26,"k","Zebra",24,-24.31,31.84,382294.14,7310960.88
"11148",11148,1978,26,"k","Zebra",13,-24.31,31.86,384323.74,7310977.66
"11151",11151,1978,26,"k","Zebra",7,-24.33,31.84,382312.61,7308746.21
"11161",11161,1978,26,"k","Zebra",24,-24.28,31.84,382266.47,7314282.88
"11165",11165,1978,26,"k","Zebra",1,-24.28,31.86,384296.54,7314299.64
"11168",11168,1978,26,"k","Zebra",6,-24.22,31.84,382211.21,7320926.84
"11172",11172,1978,26,"k","Zebra",5,-24.2,31.84,382192.82,7323141.49
"11194",11194,1978,26,"k","Zebra",32,-24.37,31.9,388435.47,7304366.38
"11203",11203,1978,26,"k","Zebra",19,-24.33,31.9,388400.4,7308795.68
"11215",11215,1978,26,"k","Zebra",2,-24.41,31.92,390498.56,7299953
"11223",11223,1978,27,"k","Zebra",5,-24.22,31.86,384242.24,7320943.57
"11230",11230,1978,27,"k","Zebra",5,-24.24,31.86,384260.32,7318728.93
"11235",11235,1978,27,"k","Zebra",10,-24.31,31.9,388382.89,7311010.33
"11239",11239,1978,27,"k","Zebra",3,-24.26,31.88,386308.8,7316530.74
"11243",11243,1978,27,"k","Zebra",6,-24.26,31.9,388339.17,7316546.91
"11247",11247,1978,27,"k","Zebra",1,-24.28,31.88,386326.6,7314316.11
"11250",11250,1978,27,"k","Zebra",127,-24.28,31.9,388356.65,7314332.28
"11255",11255,1978,27,"k","Zebra",5,-24.22,31.9,388304.25,7320976.15
"11261",11261,1978,27,"k","Zebra",20,-24.2,31.9,388286.81,7323190.76
"11266",11266,1978,27,"k","Zebra",26,-24.35,31.94,392475.77,7306612.58
"11273",11273,1978,27,"k","Zebra",39,-24.31,31.92,390412.45,7311026.22
"11277",11277,1978,27,"k","Zebra",58,-24.31,31.94,392442.01,7311041.83
"11282",11282,1978,27,"k","Zebra",35,-24.33,31.92,390429.65,7308811.59
"11291",11291,1978,27,"k","Zebra",6,-24.26,31.92,390369.53,7316562.78
"11294",11294,1978,27,"k","Zebra",8,-24.26,31.94,392399.88,7316578.36
"11299",11299,1978,27,"k","Zebra",22,-24.28,31.92,390386.69,7314348.16
"11312",11312,1978,27,"k","Zebra",32,-24.43,31.98,396598.71,7297784.45
"11317",11317,1978,27,"k","Zebra",2,-24.45,31.96,394587.72,7295554.73
"11323",11323,1978,27,"k","Zebra",27,-24.45,31.98,396615.02,7295569.81
"11332",11332,1978,27,"k","Zebra",15,-24.39,31.98,396566.12,7302213.71
"11335",11335,1978,27,"k","Zebra",22,-24.41,31.96,394554.47,7299984.02
"11342",11342,1978,27,"k","Zebra",13,-24.41,31.98,396582.41,7299999.08
"11346",11346,1978,27,"k","Zebra",18,-24.35,31.96,394504.68,7306627.91
"11351",11351,1978,27,"k","Zebra",25,-24.35,31.98,396533.58,7306642.95
"11355",11355,1978,27,"k","Zebra",15,-24.37,31.96,394521.26,7304413.28
"11361",11361,1978,27,"k","Zebra",12,-24.31,31.96,394471.55,7311057.14
"11365",11365,1978,27,"k","Zebra",80,-24.33,31.96,394488.11,7308842.53
"11369",11369,1978,27,"k","Zebra",4,-24.33,31.98,396517.33,7308857.56
"11371",11371,1978,27,"k","Zebra",41,-24.28,31.96,394446.74,7314379.05
"11376",11376,1978,27,"k","Zebra",4,-24.43,32.01,399640.13,7297806.52
"11379",11379,1978,28,"k","Zebra",40,-24.47,31.78,376361.13,7293191.02
"11396",11396,1978,28,"k","Zebra",7,-24.49,31.82,380434.15,7291011.47
"11401",11401,1978,28,"k","Zebra",7,-24.43,31.82,380377.48,7297655.63
"11422",11422,1978,28,"k","Zebra",5,-24.41,31.86,384414.62,7299904.29
"11428",11428,1978,28,"k","Zebra",6,-24.66,31.9,388691.32,7272253.26
"11440",11440,1978,28,"k","Zebra",5,-24.51,31.88,386532.25,7288847.36
"11456",11456,1978,28,"k","Zebra",7,-24.49,31.88,386514.29,7291062.06
"11462",11462,1978,28,"k","Zebra",6,-24.49,31.9,388540.99,7291078.34
"11468",11468,1978,28,"k","Zebra",4,-24.43,31.9,388488.17,7297722.39
"11473",11473,1978,28,"k","Zebra",4,-24.45,31.9,388505.76,7295507.71
"11477",11477,1978,28,"k","Zebra",21,-24.41,31.88,386442.61,7299920.82
"11482",11482,1978,28,"k","Zebra",14,-24.41,31.9,388470.59,7299937.06
"11485",11485,1978,28,"k","Zebra",4,-24.64,31.92,390697.86,7274484.06
"11488",11488,1978,28,"k","Zebra",13,-24.64,31.94,392722.12,7274499.82
"11495",11495,1978,28,"k","Zebra",13,-24.6,31.94,392687.98,7278929.24
"11499",11499,1978,28,"k","Zebra",33,-24.62,31.92,390680.45,7276698.78
"11515",11515,1978,28,"k","Zebra",3,-24.58,31.94,392670.93,7281143.94
"11523",11523,1978,28,"k","Zebra",4,-24.51,31.94,392611.35,7288895.34
"11526",11526,1978,28,"k","Zebra",20,-24.53,31.92,390602.32,7286664.95
"11531",11531,1978,28,"k","Zebra",5,-24.53,31.94,392628.36,7286680.66
"11542",11542,1978,28,"k","Zebra",4,-24.47,31.94,392577.38,7293324.68
"11547",11547,1978,28,"k","Zebra",6,-24.49,31.92,390567.68,7291094.32
"11551",11551,1978,28,"k","Zebra",25,-24.49,31.94,392594.36,7291110.02
"11567",11567,1978,28,"k","Zebra",14,-24.45,31.94,392560.41,7295539.35
"11570",11570,1978,28,"k","Zebra",6,-24.56,31.96,394679.44,7283374.06
"11575",11575,1978,28,"k","Zebra",10,-24.58,31.96,394696.15,7281159.38
"11581",11581,1978,28,"k","Zebra",6,-24.51,31.96,394637.7,7288910.75
"11587",11587,1978,28,"k","Zebra",37,-24.53,31.96,394654.38,7286696.08
"11592",11592,1978,28,"k","Zebra",4,-24.47,31.96,394604.37,7293340.07
"11594",11594,1978,28,"k","Zebra",6,-24.49,31.96,394621.03,7291125.41
"11602",11602,1978,29,"k","Zebra",52,-24.6,31.78,376488.43,7278795.04
"11608",11608,1978,29,"k","Zebra",52,-24.51,31.76,374373.8,7288743.46
"11611",11611,1978,29,"k","Zebra",4,-24.51,31.78,376400.23,7288761.51
"11617",11617,1978,29,"k","Zebra",3,-24.72,31.82,380652.58,7265541.68
"11627",11627,1978,29,"k","Zebra",2,-24.64,31.82,380576.39,7274400.82
"11653",11653,1978,29,"k","Zebra",8,-24.51,31.8,378426.65,7288779.27
"11657",11657,1978,29,"k","Zebra",3,-24.51,31.82,380453.07,7288796.73
"11661",11661,1978,29,"k","Zebra",8,-24.53,31.8,378445.91,7286564.52
"11665",11665,1978,29,"k","Zebra",27,-24.53,31.82,380472,7286581.99
"11668",11668,1978,29,"k","Zebra",20,-24.49,31.8,378407.41,7290994.01
"11677",11677,1978,29,"k","Zebra",3,-24.76,31.84,382713.14,7261129.38
"11692",11692,1978,29,"k","Zebra",4,-24.72,31.84,382675.6,7265558.96
"11699",11699,1978,29,"k","Zebra",8,-24.74,31.84,382694.36,7263344.17
"11709",11709,1978,29,"k","Zebra",1,-24.7,31.86,384680.19,7267790.72
"11737",11737,1978,29,"k","Zebra",37,-24.51,31.84,382479.47,7288813.9
"11741",11741,1978,29,"k","Zebra",23,-24.51,31.86,384505.86,7288830.78
"11748",11748,1978,29,"k","Zebra",8,-24.78,31.88,386776,7258948.31
"11750",11750,1978,29,"k","Zebra",4,-24.72,31.88,386721.61,7265592.63
"11752",11752,1978,29,"k","Zebra",8,-24.74,31.88,386739.73,7263377.86
"11766",11766,1978,29,"k","Zebra",3,-24.7,31.92,390750.14,7267839.86
"11785",11785,1978,30,"k","Zebra",8,-24.81,31.92,390846.29,7255658.7
"11805",11805,1978,30,"k","Zebra",15,-24.72,31.94,392790.56,7265640.92
"11813",11813,1978,30,"k","Zebra",6,-24.74,31.94,392807.71,7263426.18
"11830",11830,1978,30,"k","Zebra",7,-24.76,31.98,396869.49,7261242.19
"11832",11832,1978,30,"k","Zebra",8,-24.78,31.96,394864.03,7259012.22
"11838",11838,1978,30,"k","Zebra",8,-24.72,31.96,394813.53,7265656.42
"11842",11842,1978,30,"k","Zebra",6,-24.74,31.96,394830.35,7263441.69
"11846",11846,1978,30,"k","Zebra",4,-24.74,31.98,396852.98,7263456.91
"11854",11854,1978,30,"k","Zebra",5,-24.68,31.98,396803.53,7270101.06
"11858",11858,1978,30,"k","Zebra",10,-24.7,31.96,394796.72,7267871.15
"11865",11865,1978,30,"k","Zebra",5,-24.64,31.96,394746.38,7274515.29
"11871",11871,1978,30,"k","Zebra",3,-24.64,31.98,396770.63,7274530.46
"11878",11878,1978,30,"k","Zebra",5,-24.66,31.98,396787.08,7272315.76
"11881",11881,1978,30,"k","Zebra",15,-24.6,31.96,394712.88,7278944.69
"11884",11884,1978,30,"k","Zebra",12,-24.6,31.98,396737.78,7278959.84
"11887",11887,1978,30,"k","Zebra",3,-24.62,31.96,394729.62,7276729.99
"11894",11894,1978,30,"k","Zebra",37,-24.56,31.98,396704.97,7283389.2
"11896",11896,1978,30,"k","Zebra",22,-24.58,31.98,396721.37,7281174.52
"11900",11900,1978,30,"k","Zebra",17,-24.51,31.98,396664.04,7288925.86
"11903",11903,1978,30,"k","Zebra",4,-24.53,31.98,396680.4,7286711.2
"11907",11907,1978,30,"k","Zebra",8,-24.47,31.98,396631.35,7293355.17
"11911",11911,1978,30,"k","Zebra",22,-24.49,31.98,396647.69,7291140.52
"11914",11914,1978,30,"k","Zebra",9,-24.56,32.01,399743.26,7283411.35
"11919",11919,1978,30,"k","Zebra",2,-24.51,32.01,399703.53,7288947.98
"11923",11923,1978,30,"k","Zebra",4,-24.47,32.01,399671.81,7293377.26
"11926",11926,1978,30,"k","Zebra",13,-24.49,32.01,399687.66,7291162.62
"11928",11928,1978,31,"k","Zebra",5,-24.43,31.61,359086.17,7297458.11
"11931",11931,1978,31,"k","Zebra",4,-24.41,31.61,359063.95,7299672.94
"11942",11942,1978,31,"k","Zebra",8,-24.62,31.65,363347.58,7276457.27
"11949",11949,1978,31,"k","Zebra",8,-24.56,31.65,363282.42,7283101.84
"11960",11960,1978,31,"k","Zebra",3,-24.51,31.65,363228.23,7288638.94
"11963",11963,1978,31,"k","Zebra",1,-24.53,31.63,361223.71,7286404.13
"11968",11968,1978,31,"k","Zebra",2,-24.47,31.63,361157.81,7293048.66
"11974",11974,1978,31,"k","Zebra",2,-24.47,31.65,363184.96,7293068.59
"11979",11979,1978,31,"k","Zebra",7,-24.49,31.65,363206.59,7290853.77
"11985",11985,1978,31,"k","Zebra",8,-24.45,31.65,363163.35,7295283.41
"11996",11996,1978,31,"k","Zebra",37,-24.6,31.67,365350.88,7278691.85
"12003",12003,1978,31,"k","Zebra",11,-24.62,31.67,365372.3,7276477.01
"12009",12009,1978,31,"k","Zebra",7,-24.62,31.69,367397.01,7276496.44
"12014",12014,1978,31,"k","Zebra",3,-24.56,31.67,365308.1,7283121.53
"12018",12018,1978,31,"k","Zebra",28,-24.56,31.69,367333.78,7283140.94
"12026",12026,1978,31,"k","Zebra",4,-24.58,31.69,367354.84,7280926.11
"12032",12032,1978,31,"k","Zebra",2,-24.51,31.69,367281.2,7288677.98
"12036",12036,1978,31,"k","Zebra",5,-24.53,31.69,367302.22,7286463.16
"12038",12038,1978,31,"k","Zebra",20,-24.47,31.67,365212.09,7293088.23
"12041",12041,1978,31,"k","Zebra",4,-24.47,31.69,367239.21,7293107.58
"12048",12048,1978,31,"k","Zebra",9,-24.49,31.69,367260.2,7290892.78
"12069",12069,1978,31,"k","Zebra",8,-24.6,31.71,369400.94,7278730.41
"12074",12074,1978,31,"k","Zebra",2,-24.6,31.73,371425.95,7278749.24
"12088",12088,1978,31,"k","Zebra",16,-24.56,31.71,369359.45,7283160.04
"12091",12091,1978,31,"k","Zebra",12,-24.56,31.73,371385.1,7283178.85
"12095",12095,1978,31,"k","Zebra",8,-24.58,31.73,371405.52,7280964.05
"12102",12102,1978,31,"k","Zebra",6,-24.51,31.71,369307.67,7288697.05
"12106",12106,1978,31,"k","Zebra",2,-24.53,31.71,369328.37,7286482.25
"12109",12109,1978,31,"k","Zebra",7,-24.53,31.73,371354.51,7286501.05
"12118",12118,1978,31,"k","Zebra",20,-24.47,31.73,371293.42,7293145.4
"12122",12122,1978,31,"k","Zebra",11,-24.49,31.73,371313.77,7290930.62
"12127",12127,1978,31,"k","Zebra",5,-24.43,31.73,371252.78,7297574.94
"12135",12135,1978,31,"k","Zebra",28,-24.45,31.73,371273.09,7295360.17
"12140",12140,1978,31,"k","Zebra",7,-24.41,31.73,371232.48,7299789.7
"12141",12141,1978,31,"k","Zebra",16,-24.6,31.76,374463.45,7278776.94
"12145",12145,1978,31,"k","Zebra",5,-24.62,31.78,376508.08,7276580.26
"12152",12152,1978,31,"k","Zebra",4,-24.53,31.76,374393.69,7286528.69
"12159",12159,1978,31,"k","Zebra",9,-24.43,31.76,374294.37,7297602.5
"12165",12165,1978,31,"k","Zebra",16,-24.45,31.76,374314.2,7295387.75
"12170",12170,1978,32,"k","Zebra",12,-24.47,31.4,337844.82,7292798.32
"12185",12185,1978,32,"k","Zebra",3,-24.47,31.42,339872.11,7292821.63
"12204",12204,1978,32,"k","Zebra",6,-24.47,31.46,343926.63,7292867.37
"12208",12208,1978,32,"k","Zebra",8,-24.47,31.48,345953.87,7292889.8
"12220",12220,1978,32,"k","Zebra",37,-24.45,31.46,343901.97,7295082.31
"12224",12224,1978,32,"k","Zebra",9,-24.45,31.48,345929.54,7295104.72
"12233",12233,1978,32,"k","Zebra",23,-24.58,31.51,349126.25,7280740.8
"12250",12250,1978,32,"k","Zebra",9,-24.49,31.51,349018.59,7290707.98
"12258",12258,1978,32,"k","Zebra",50,-24.43,31.51,348947.02,7297352.7
"12264",12264,1978,32,"k","Zebra",34,-24.43,31.53,350974.88,7297374.37
"12295",12295,1978,32,"k","Zebra",38,-24.43,31.55,353002.72,7297395.74
"12300",12300,1978,32,"k","Zebra",11,-24.43,31.57,355030.55,7297416.83
"12305",12305,1978,32,"k","Zebra",11,-24.41,31.55,352979.54,7299610.61
"12340",12340,1978,32,"k","Zebra",15,-24.41,31.59,357035.83,7299652.46
"12345",12345,1978,33,"k","Zebra",7,-24.6,31.53,351175.34,7278547.64
"12353",12353,1978,33,"k","Zebra",4,-24.58,31.55,353177.13,7280784.04
"12364",12364,1978,33,"k","Zebra",4,-24.78,31.61,359477.77,7258697.65
"12368",12368,1978,33,"k","Zebra",15,-24.72,31.61,359410.26,7265342.42
"12394",12394,1978,33,"k","Zebra",6,-24.62,31.61,359298.1,7276416.93
"12419",12419,1978,33,"k","Zebra",17,-24.68,31.63,361389.12,7269792.6
"12429",12429,1978,33,"k","Zebra",2,-24.64,31.63,361344.92,7274222.37
"12432",12432,1978,33,"k","Zebra",55,-24.64,31.65,363369.33,7274242.41
"12438",12438,1978,33,"k","Zebra",3,-24.66,31.65,363391.1,7272027.54
"12444",12444,1978,33,"k","Zebra",1,-24.78,31.67,365544.2,7258758.02
"12451",12451,1978,33,"k","Zebra",9,-24.64,31.67,365393.73,7274262.15
"12471",12471,1978,34,"k","Zebra",33,-24.64,31.69,367418.12,7274281.6
"12490",12490,1978,34,"k","Zebra",3,-24.72,31.73,371548.87,7265460.28
"12493",12493,1978,34,"k","Zebra",47,-24.74,31.71,369546.66,7263226.51
"12526",12526,1978,34,"k","Zebra",6,-24.72,31.76,374583.46,7265488.08
"12535",12535,1978,34,"k","Zebra",9,-24.74,31.76,374603.52,7263273.25
"12539",12539,1978,34,"k","Zebra",5,-24.74,31.78,376626.24,7263291.42
"12554",12554,1978,34,"k","Zebra",5,-24.64,31.76,374503.39,7274347.34
"12561",12561,1978,34,"k","Zebra",5,-24.62,31.76,374483.41,7276562.15
"12578",12578,1978,34,"k","Zebra",17,-24.78,31.84,382731.93,7258914.58
"12594",12594,1978,35,"k","Zebra",14,-24.91,31.61,359624.55,7244300.48
"12597",12597,1978,35,"k","Zebra",4,-24.87,31.61,359579.31,7248730.4
"12600",12600,1978,35,"k","Zebra",20,-24.83,31.61,359534.14,7253160.3
"12610",12610,1978,35,"k","Zebra",10,-24.93,31.65,363686.62,7242126.22
"12623",12623,1978,35,"k","Zebra",3,-24.89,31.65,363642.65,7246556.11
"12625",12625,1978,35,"k","Zebra",2,-24.91,31.63,361644.59,7244320.97
"12651",12651,1978,35,"k","Zebra",1,-24.93,31.67,365706.31,7242146.14
"12655",12655,1978,35,"k","Zebra",5,-24.93,31.69,367726,7242165.75
"12667",12667,1978,35,"k","Zebra",13,-24.89,31.67,365662.99,7246576
"12670",12670,1978,35,"k","Zebra",12,-24.89,31.69,367683.33,7246595.6
"12675",12675,1978,35,"k","Zebra",10,-24.91,31.67,365684.64,7244361.07
"12680",12680,1978,35,"k","Zebra",6,-24.91,31.69,367704.65,7244380.68
"12692",12692,1978,35,"k","Zebra",7,-24.81,31.67,365576.55,7255435.67
"12698",12698,1978,35,"k","Zebra",4,-24.93,31.71,369745.67,7242185.07
"12713",12713,1978,35,"k","Zebra",6,-24.89,31.73,371723.97,7246633.89
"12716",12716,1978,35,"k","Zebra",4,-24.91,31.71,369724.65,7244399.99
"12722",12722,1978,35,"k","Zebra",10,-24.85,31.71,369661.7,7251044.69
"12724",12724,1978,35,"k","Zebra",9,-24.85,31.73,371682.67,7251063.67
"12739",12739,1978,36,"k","Zebra",6,-24.81,31.73,371641.43,7255493.42
"12744",12744,1978,36,"k","Zebra",3,-24.78,31.71,369588.44,7258796.78
"12754",12754,1978,36,"k","Zebra",5,-24.85,31.76,374714.1,7251091.57
"12768",12768,1978,36,"k","Zebra",1,-24.78,31.76,374643.68,7258843.57
"12773",12773,1978,36,"k","Zebra",2,-24.78,31.78,376665.75,7258861.76
"12786",12786,1978,36,"k","Zebra",10,-24.85,31.82,380776.89,7251145.39
"12803",12803,1978,36,"k","Zebra",8,-24.78,31.8,378687.82,7258879.67
"12809",12809,1978,36,"k","Zebra",12,-24.78,31.82,380709.88,7258897.27
"12816",12816,1978,36,"k","Zebra",5,-24.85,31.84,382797.8,7251162.73
"12820",12820,1978,36,"k","Zebra",2,-24.87,31.84,382816.66,7248947.91
"12828",12828,1978,36,"k","Zebra",16,-24.81,31.84,382760.14,7255592.37
"12841",12841,1978,36,"k","Zebra",3,-24.85,31.88,386839.6,7251196.53
"12853",12853,1978,36,"k","Zebra",1,-24.83,31.88,386821.41,7253411.33
"12858",12858,1978,37,"k","Zebra",161,-24.93,31.9,388932.08,7242353.77
"12862",12862,1978,37,"k","Zebra",1,-24.89,31.9,388896.25,7246783.39
"12865",12865,1978,37,"k","Zebra",62,-24.91,31.9,388914.16,7244568.59
"12889",12889,1978,37,"k","Zebra",35,-25.01,31.94,393040.41,7233526.64
"12895",12895,1978,37,"k","Zebra",64,-24.97,31.92,390986.88,7237940.35
"12900",12900,1978,37,"k","Zebra",79,-24.97,31.94,393005.79,7237956.26
"12907",12907,1978,37,"k","Zebra",26,-24.99,31.94,393023.09,7235741.45
"12912",12912,1978,37,"k","Zebra",30,-24.93,31.92,390951.65,7242369.97
"12917",12917,1978,37,"k","Zebra",6,-24.93,31.94,392971.22,7242385.87
"12919",12919,1978,37,"k","Zebra",102,-24.95,31.92,390969.26,7240155.16
"12923",12923,1978,37,"k","Zebra",2,-24.95,31.94,392988.5,7240171.07
"12926",12926,1978,37,"k","Zebra",30,-24.89,31.92,390916.48,7246799.57
"12930",12930,1978,37,"k","Zebra",22,-24.89,31.94,392936.7,7246815.45
"12933",12933,1978,37,"k","Zebra",240,-24.91,31.92,390934.06,7244584.77
"12939",12939,1978,37,"k","Zebra",58,-24.91,31.94,392953.95,7244600.66
"12941",12941,1978,37,"k","Zebra",7,-24.85,31.92,390881.36,7251229.15
"12948",12948,1978,37,"k","Zebra",1,-24.87,31.92,390898.91,7249014.36
"12952",12952,1978,37,"k","Zebra",5,-24.87,31.94,392919.45,7249030.23
"12956",12956,1978,37,"k","Zebra",11,-24.81,31.94,392867.81,7255674.55
"12961",12961,1978,37,"k","Zebra",5,-24.83,31.92,390863.82,7253443.93
"12966",12966,1978,37,"k","Zebra",10,-24.83,31.94,392885.01,7253459.78
"13003",13003,1978,37,"k","Zebra",7,-25.06,31.96,395101.2,7228005.23
"13009",13009,1978,37,"k","Zebra",15,-25.06,31.98,397118.62,7228020.59
"13018",13018,1978,37,"k","Zebra",23,-25.01,31.96,395058.66,7233542.27
"13024",13024,1978,37,"k","Zebra",13,-25.01,31.98,397076.91,7233557.62
"13028",13028,1978,37,"k","Zebra",3,-25.03,31.96,395075.67,7231327.46
"13034",13034,1978,37,"k","Zebra",30,-25.03,31.98,397093.58,7231342.81
"13039",13039,1978,37,"k","Zebra",110,-24.97,31.96,395024.69,7237971.88
"13043",13043,1978,37,"k","Zebra",28,-24.97,31.98,397043.59,7237987.21
"13047",13047,1978,37,"k","Zebra",57,-24.99,31.96,395041.67,7235757.08
"13052",13052,1978,37,"k","Zebra",31,-24.99,31.98,397060.24,7235772.41
"13056",13056,1978,37,"k","Zebra",8,-24.93,31.96,394990.77,7242401.47
"13060",13060,1978,37,"k","Zebra",8,-24.93,31.98,397010.32,7242416.78
"13063",13063,1978,37,"k","Zebra",43,-24.95,31.96,395007.73,7240186.68
"13064",13064,1978,37,"k","Zebra",6,-24.95,31.98,397026.95,7240201.99
"13067",13067,1978,37,"k","Zebra",8,-24.89,31.98,396977.1,7246846.32
"13073",13073,1978,37,"k","Zebra",18,-24.91,31.96,394973.83,7244616.26
"13077",13077,1978,37,"k","Zebra",8,-24.91,31.98,396993.71,7244631.55
"13087",13087,1978,37,"k","Zebra",7,-24.87,31.98,396960.51,7249061.09
"13102",13102,1978,37,"k","Zebra",10,-25.18,32.01,400242.23,7214754.16
"13110",13110,1978,37,"k","Zebra",4,-25.14,32.03,402225.78,7219198.47
"13121",13121,1978,37,"k","Zebra",4,-25.1,32.03,402193.94,7223628.1
"13126",13126,1978,37,"k","Zebra",14,-25.06,32.01,400144.74,7228043.08
"13133",13133,1978,37,"k","Zebra",31,-25.08,32.03,402178.04,7225842.9
"13138",13138,1978,37,"k","Zebra",30,-25.03,32.01,400120.44,7231365.28
"13139",13139,1978,37,"k","Zebra",4,-24.97,32.01,400071.92,7238009.63
"13144",13144,1978,37,"k","Zebra",15,-24.93,32.01,400039.63,7242439.18
"13149",13149,1978,37,"k","Zebra",12,-24.91,32.01,400023.5,7244653.94
"13155",13155,1978,37,"k","Zebra",1,-24.87,32.01,399991.29,7249083.45
"13162",13162,1978,38,"k","Zebra",4,-24.97,31.78,376854.24,7237820.58
"13166",13166,1978,38,"k","Zebra",3,-24.99,31.78,376874.16,7235605.69
"13169",13169,1978,38,"k","Zebra",3,-24.93,31.76,374794.81,7242232.07
"13172",13172,1978,38,"k","Zebra",6,-24.93,31.78,376814.45,7242250.35
"13176",13176,1978,38,"k","Zebra",26,-24.91,31.76,374774.61,7244446.95
"13178",13178,1978,38,"k","Zebra",3,-24.91,31.78,376794.57,7244465.22
"13185",13185,1978,38,"k","Zebra",9,-25.01,31.82,380930.73,7233426.54
"13189",13189,1978,38,"k","Zebra",40,-24.97,31.8,378873.22,7237838.59
"13192",13192,1978,38,"k","Zebra",4,-24.97,31.82,380892.18,7237856.29
"13195",13195,1978,38,"k","Zebra",52,-24.99,31.8,378892.81,7235623.71
"13199",13199,1978,38,"k","Zebra",26,-24.99,31.82,380911.45,7235641.42
"13203",13203,1978,38,"k","Zebra",13,-24.93,31.8,378834.08,7242268.33
"13207",13207,1978,38,"k","Zebra",16,-24.95,31.8,378853.64,7240053.46
"13211",13211,1978,38,"k","Zebra",8,-24.95,31.82,380872.93,7240071.15
"13212",13212,1978,38,"k","Zebra",4,-24.91,31.8,378814.53,7244483.19
"13217",13217,1978,38,"k","Zebra",1,-24.91,31.82,380834.47,7244500.87
"13234",13234,1978,38,"k","Zebra",3,-25.01,31.84,382949.03,7233443.97
"13243",13243,1978,38,"k","Zebra",3,-25.03,31.84,382968,7231229.1
"13255",13255,1978,38,"k","Zebra",6,-24.99,31.84,382930.08,7235658.84
"13264",13264,1978,38,"k","Zebra",1,-24.93,31.86,384892.9,7242320.49
"13265",13265,1978,38,"k","Zebra",5,-24.95,31.84,382892.22,7240088.55
"13276",13276,1978,38,"k","Zebra",18,-24.91,31.86,384874.33,7244535.32
"13294",13294,1978,38,"k","Zebra",2,-25.08,31.9,389066.9,7225742.49
"13298",13298,1978,38,"k","Zebra",45,-25.01,31.88,386985.61,7233477.93
"13305",13305,1978,38,"k","Zebra",3,-25.03,31.9,389021.87,7231279.62
"13310",13310,1978,38,"k","Zebra",5,-24.97,31.88,386949.03,7237907.62
"13312",13312,1978,38,"k","Zebra",15,-24.97,31.9,388967.96,7237924.13
"13317",13317,1978,38,"k","Zebra",40,-24.93,31.88,386912.5,7242337.28
"13319",13319,1978,38,"k","Zebra",6,-24.95,31.88,386930.75,7240122.45
"13322",13322,1978,38,"k","Zebra",28,-24.95,31.9,388950.01,7240138.95
"13328",13328,1978,38,"k","Zebra",25,-24.91,31.88,386894.25,7244552.1
"13350",13350,1978,38,"k","Zebra",7,-25.03,31.92,391039.81,7231295.87
"13355",13355,1978,39,"k","Zebra",22,-25.14,31.21,319557.94,7218352.4
"13366",13366,1978,39,"k","Zebra",15,-25.16,31.23,321603.56,7216163.73
"13370",13370,1978,39,"k","Zebra",4,-25.1,31.21,319499.16,7222783.01
"13377",13377,1978,39,"k","Zebra",6,-25.1,31.23,321516.34,7222809.6
"13381",13381,1978,39,"k","Zebra",10,-25.12,31.21,319528.54,7220567.71
"13387",13387,1978,39,"k","Zebra",5,-25.12,31.23,321545.39,7220594.31
"13400",13400,1978,39,"k","Zebra",13,-25.14,31.26,324599.23,7218418.4
"13403",13403,1978,39,"k","Zebra",8,-25.14,31.28,326615.72,7218444.27
"13408",13408,1978,39,"k","Zebra",5,-25.16,31.26,324627.83,7216203.12
"13413",13413,1978,39,"k","Zebra",11,-25.16,31.28,326643.99,7216229.01
"13415",13415,1978,39,"k","Zebra",5,-25.1,31.26,324542.09,7222848.93
"13423",13423,1978,39,"k","Zebra",4,-25.1,31.28,326559.24,7222874.77
"13429",13429,1978,39,"k","Zebra",17,-25.12,31.26,324570.65,7220633.66
"13433",13433,1978,39,"k","Zebra",9,-25.12,31.28,326587.47,7220659.52
"13441",13441,1978,39,"k","Zebra",2,-25.06,31.26,324485.04,7227279.44
"13450",13450,1978,39,"k","Zebra",1,-25.01,31.26,324413.85,7232817.54
"13453",13453,1978,39,"k","Zebra",5,-25.01,31.28,326432.48,7232843.32
"13465",13465,1978,39,"k","Zebra",4,-25.14,31.3,328632.2,7218469.85
"13471",13471,1978,39,"k","Zebra",1,-25.1,31.3,328576.38,7222900.32
"13484",13484,1978,39,"k","Zebra",2,-25.06,31.3,328520.64,7227330.76
"13488",13488,1978,39,"k","Zebra",1,-25.06,31.32,330538.42,7227355.98
"13491",13491,1978,39,"k","Zebra",1,-25.08,31.3,328548.5,7225115.54
"13492",13492,1978,39,"k","Zebra",3,-25.08,31.32,330565.95,7225140.77
"13504",13504,1978,39,"k","Zebra",4,-25.03,31.32,330497.17,7230678.78
"13509",13509,1978,39,"k","Zebra",5,-24.99,31.3,328423.3,7235084
"13578",13578,1978,40,"k","Zebra",11,-25.35,31.28,326913.62,7195183.79
"13588",13588,1978,40,"k","Zebra",6,-25.33,31.28,326885.15,7197399.1
"13591",13591,1978,40,"k","Zebra",6,-25.26,31.26,324771.15,7205126.67
"13596",13596,1978,40,"k","Zebra",2,-25.26,31.28,326785.67,7205152.64
"13609",13609,1978,40,"k","Zebra",15,-25.22,31.28,326728.93,7209583.2
"13616",13616,1978,40,"k","Zebra",5,-25.24,31.28,326757.29,7207367.92
"13629",13629,1978,40,"k","Zebra",8,-25.2,31.26,324685.09,7211772.56
"13633",13633,1978,40,"k","Zebra",3,-25.2,31.28,326700.6,7211798.48
"13638",13638,1978,40,"k","Zebra",8,-25.35,31.3,328926.63,7195209.52
"13650",13650,1978,40,"k","Zebra",23,-25.31,31.32,330884.03,7199665.5
"13666",13666,1978,40,"k","Zebra",7,-25.26,31.32,330814.65,7205203.67
"13671",13671,1978,40,"k","Zebra",2,-25.28,31.3,328828.23,7202963.03
"13679",13679,1978,40,"k","Zebra",9,-25.22,31.3,328744.09,7209608.84
"13685",13685,1978,40,"k","Zebra",16,-25.22,31.32,330759.24,7209634.17
"13692",13692,1978,40,"k","Zebra",13,-25.24,31.3,328772.12,7207393.57
"13699",13699,1978,40,"k","Zebra",6,-25.24,31.32,330786.94,7207418.92
"13706",13706,1978,40,"k","Zebra",11,-25.18,31.32,330703.91,7214064.66
"13716",13716,1978,40,"k","Zebra",9,-25.16,31.3,328660.14,7216254.6
"13719",13719,1978,40,"k","Zebra",14,-25.16,31.32,330676.28,7216279.89
"13726",13726,1978,40,"k","Zebra",5,-25.22,31.34,332774.38,7209659.21
"13740",13740,1978,40,"k","Zebra",3,-25.2,31.34,332747.03,7211874.44
"13754",13754,1978,41,"k","Zebra",3,-25.31,31.34,332897.68,7199690.6
"13774",13774,1978,41,"k","Zebra",13,-25.12,31.36,334654.63,7220759.97
"13802",13802,1978,41,"k","Zebra",21,-25.24,31.4,338846.08,7207517.31
"13819",13819,1978,41,"k","Zebra",2,-25.14,31.38,336697.99,7218569.15
"13829",13829,1978,41,"k","Zebra",2,-25.12,31.38,336671.38,7220784.33
"13837",13837,1978,41,"k","Zebra",5,-25.33,31.42,340978.27,7197572.78
"13848",13848,1978,41,"k","Zebra",12,-25.28,31.44,342927.06,7203134.36
"13851",13851,1978,41,"k","Zebra",12,-25.22,31.42,340834.79,7209756.34
"13854",13854,1978,41,"k","Zebra",7,-25.22,31.44,342849.86,7209779.88
"13856",13856,1978,41,"k","Zebra",7,-25.24,31.42,340860.83,7207541.16
"13868",13868,1978,41,"k","Zebra",5,-25.2,31.44,342824.16,7211995.04
"13880",13880,1978,41,"k","Zebra",3,-25.16,31.44,342772.83,7216425.34
"13889",13889,1978,41,"k","Zebra",7,-25.12,31.44,342721.57,7220855.62
"13907",13907,1978,41,"k","Zebra",7,-25.22,31.48,346879.96,7209826.04
"13922",13922,1978,41,"k","Zebra",4,-25.2,31.48,346854.93,7212041.18
"13945",13945,1978,41,"k","Zebra",9,-25.26,31.51,349951.65,7205429.63
"13955",13955,1978,41,"k","Zebra",2,-25.2,31.51,349877.97,7212074.99
"13960",13960,1978,41,"k","Zebra",6,-25.14,31.53,351820.79,7218742.44
"13964",13964,1978,41,"k","Zebra",4,-25.16,31.53,351844.94,7216527.35
"13968",13968,1978,41,"k","Zebra",3,-25.1,31.51,349755.53,7223150.48
"13984",13984,1978,42,"k","Zebra",10,-25.22,31.53,351917.53,7209882.06
"13993",13993,1978,42,"k","Zebra",4,-25.24,31.53,351941.76,7207666.95
"13998",13998,1978,42,"k","Zebra",2,-25.18,31.53,351869.12,7214312.26
"14003",14003,1978,42,"k","Zebra",3,-25.1,31.53,351772.52,7223172.59
"14044",14044,1978,42,"k","Zebra",5,-25.18,31.55,353884.79,7214334.12
"14055",14055,1978,42,"k","Zebra",24,-25.2,31.55,353908.65,7212119.03
"14062",14062,1978,42,"k","Zebra",3,-25.14,31.57,355853.42,7218785.8
"14066",14066,1978,42,"k","Zebra",3,-25.16,31.55,353860.94,7216549.2
"14072",14072,1978,42,"k","Zebra",4,-25.1,31.55,353789.5,7223194.4
"14081",14081,1978,42,"k","Zebra",3,-25.12,31.55,353813.3,7220979.34
"14101",14101,1978,42,"k","Zebra",4,-25.33,31.59,358090.54,7197763.86
"14126",14126,1978,42,"k","Zebra",2,-25.14,31.59,357869.72,7218807.04
"14154",14154,1978,43,"k","Zebra",2,-25.01,31.4,338543.95,7232991.71
"14158",14158,1978,43,"k","Zebra",1,-25.03,31.4,338570.12,7230776.58
"14184",14184,1978,43,"k","Zebra",3,-25.01,31.42,340562.48,7233015.4
"14192",14192,1978,43,"k","Zebra",2,-25.03,31.42,340588.33,7230800.28
"14197",14197,1978,43,"k","Zebra",6,-25.03,31.44,342606.52,7230823.68
"14207",14207,1978,43,"k","Zebra",1,-25.06,31.46,344662.52,7227524.13
"14211",14211,1978,43,"k","Zebra",8,-25.06,31.48,346680.19,7227546.96
"14217",14217,1978,43,"k","Zebra",12,-25.08,31.46,344687.75,7225309.02
"14221",14221,1978,43,"k","Zebra",7,-25.08,31.48,346705.1,7225331.87
"14225",14225,1978,43,"k","Zebra",4,-25.01,31.46,344599.51,7233061.88
"14247",14247,1978,43,"k","Zebra",5,-25.06,31.53,351724.34,7227602.72
"14262",14262,1978,43,"k","Zebra",2,-25.03,31.51,349670.1,7230903.24
"14296",14296,1978,47,"k","Zebra",3,-22.68,31.13,307886.65,7490694.3
"14306",14306,1978,47,"k","Zebra",17,-22.66,31.15,309914.27,7492934.76
"14307",14307,1978,47,"k","Zebra",41,-22.72,31.17,312051.64,7486316.08
"14311",14311,1978,47,"k","Zebra",21,-22.74,31.17,312078.98,7484101.36
"14314",14314,1978,47,"k","Zebra",4,-22.68,31.17,311997.02,7490745.5
"14315",14315,1978,47,"k","Zebra",2,-22.7,31.19,314079.18,7488555.99
"14320",14320,1978,47,"k","Zebra",11,-22.64,31.19,313998.26,7495200.04
"14322",14322,1978,47,"k","Zebra",16,-22.66,31.17,311969.75,7492960.2
"14324",14324,1978,47,"k","Zebra",20,-22.66,31.19,314025.21,7492985.36
"14326",14326,1978,47,"k","Zebra",1,-22.81,31.21,316281.27,7476400.12
"14333",14333,1978,47,"k","Zebra",6,-22.76,31.21,316214.26,7481936.86
"14337",14337,1978,47,"k","Zebra",35,-22.78,31.21,316241.05,7479722.17
"14339",14339,1978,47,"k","Zebra",7,-22.78,31.23,318294.68,7479746.88
"14342",14342,1978,47,"k","Zebra",7,-22.72,31.23,318215.29,7486390.89
"14345",14345,1978,47,"k","Zebra",5,-22.74,31.23,318241.73,7484176.23
"14348",14348,1978,47,"k","Zebra",28,-22.68,31.23,318162.47,7490820.21
"14352",14352,1978,47,"k","Zebra",46,-22.7,31.23,318188.87,7488605.55
"14354",14354,1978,47,"k","Zebra",14,-22.64,31.21,316054,7495224.91
"14357",14357,1978,47,"k","Zebra",4,-22.66,31.21,316080.66,7493010.25
"14359",14359,1978,47,"k","Zebra",37,-22.66,31.23,318136.09,7493034.86
"14362",14362,1978,47,"k","Zebra",9,-22.76,31.28,323402.97,7482022.07
"14366",14366,1978,47,"k","Zebra",1,-22.78,31.28,323428.71,7479807.44
"14372",14372,1978,47,"k","Zebra",14,-22.68,31.26,321245.13,7490856.63
"14376",14376,1978,47,"k","Zebra",11,-22.7,31.28,323325.88,7488665.95
"14387",14387,1978,47,"k","Zebra",11,-22.72,31.3,325406.03,7486475.02
"14393",14393,1978,47,"k","Zebra",11,-22.74,31.34,329539.75,7484306.99
"14397",14397,1978,48,"k","Zebra",7,-22.89,31.21,316388.78,7467541.27
"14400",14400,1978,48,"k","Zebra",6,-22.91,31.23,318467.39,7465351.37
"14413",14413,1978,48,"k","Zebra",3,-22.89,31.28,323570.65,7467626.86
"14416",14416,1978,48,"k","Zebra",20,-22.91,31.26,321544.89,7465388.07
"14422",14422,1978,48,"k","Zebra",17,-22.85,31.26,321466.41,7472032.11
"14424",14424,1978,48,"k","Zebra",16,-22.85,31.28,323518.96,7472056.18
"14427",14427,1978,48,"k","Zebra",17,-22.87,31.26,321492.55,7469817.44
"14429",14429,1978,48,"k","Zebra",2,-22.87,31.28,323544.8,7469841.53
"14433",14433,1978,48,"k","Zebra",11,-22.81,31.28,323467.35,7476485.48
"14441",14441,1978,48,"k","Zebra",14,-22.89,31.3,325622.58,7467650.69
"14445",14445,1978,48,"k","Zebra",6,-22.85,31.32,327624.01,7472103.49
"14447",14447,1978,48,"k","Zebra",5,-22.87,31.3,325597.03,7469865.34
"14456",14456,1978,48,"k","Zebra",17,-22.81,31.32,327573.6,7476532.73
"14459",14459,1978,48,"k","Zebra",7,-22.83,31.3,325545.98,7474294.61
"14461",14461,1978,48,"k","Zebra",7,-22.83,31.32,327598.79,7474318.11
"14473",14473,1978,48,"k","Zebra",24,-22.87,31.36,331753.63,7469935.1
"14480",14480,1978,48,"k","Zebra",3,-22.83,31.36,331704.38,7474364.28
"14484",14484,1978,48,"k","Zebra",6,-22.76,31.34,329564.57,7482092.41
"14490",14490,1978,48,"k","Zebra",8,-22.89,31.38,333830.15,7467743.21
"14492",14492,1978,48,"k","Zebra",6,-22.89,31.4,335882.01,7467765.64
"14496",14496,1978,48,"k","Zebra",6,-22.85,31.38,333781.47,7472172.37
"14505",14505,1978,48,"k","Zebra",8,-22.81,31.38,333732.87,7476601.51
"14521",14521,1978,48,"k","Zebra",6,-22.89,31.42,337933.85,7467787.8
"14524",14524,1978,48,"k","Zebra",4,-22.85,31.42,337886.37,7472216.9
"14542",14542,1978,49,"k","Zebra",4,-22.97,31.28,323674.29,7458768.17
"14546",14546,1978,49,"k","Zebra",34,-22.93,31.26,321571.09,7463173.39
"14549",14549,1978,49,"k","Zebra",11,-22.93,31.28,323622.43,7463197.53
"14552",14552,1978,49,"k","Zebra",3,-22.95,31.26,321597.31,7460958.69
"14556",14556,1978,49,"k","Zebra",16,-22.97,31.3,325725.02,7458792.06
"14558",14558,1978,49,"k","Zebra",11,-22.99,31.3,325750.68,7456577.39
"14560",14560,1978,49,"k","Zebra",19,-22.99,31.32,327801.08,7456601.02
"14568",14568,1978,49,"k","Zebra",4,-23.03,31.34,329901.65,7452195.07
"14570",14570,1978,49,"k","Zebra",4,-23.03,31.36,331951.42,7452218.17
"14572",14572,1978,49,"k","Zebra",1,-22.97,31.36,331877.1,7458862.06
"14575",14575,1978,49,"k","Zebra",10,-22.99,31.34,329851.47,7456624.36
"14578",14578,1978,49,"k","Zebra",7,-22.99,31.36,331901.85,7456647.43
"14581",14581,1978,49,"k","Zebra",18,-22.93,31.34,329776.37,7463268.27
"14584",14584,1978,49,"k","Zebra",11,-22.93,31.36,331827.65,7463291.29
"14587",14587,1978,49,"k","Zebra",7,-22.95,31.34,329801.38,7461053.64
"14595",14595,1978,49,"k","Zebra",3,-23.01,31.4,336026.73,7454478.13
"14596",14596,1978,49,"k","Zebra",24,-22.97,31.38,333927.76,7458884.83
"14599",14599,1978,49,"k","Zebra",13,-22.99,31.38,333952.21,7456670.22
"14606",14606,1978,49,"k","Zebra",10,-22.95,31.4,335954.28,7461121.91
"14616",14616,1978,49,"k","Zebra",18,-22.99,31.42,338052.89,7456714.96
"14625",14625,1978,49,"k","Zebra",6,-22.93,31.44,340032.63,7463380.58
"14631",14631,1978,49,"k","Zebra",18,-23.01,31.46,342176.78,7454544.02
"14641",14641,1978,49,"k","Zebra",4,-22.95,31.46,342107.05,7461187.67
"14652",14652,1978,50,"k","Zebra",4,-23.1,31.44,340233.07,7444556.72
"14654",14654,1978,50,"k","Zebra",4,-23.06,31.42,338136.52,7448963.89
"14657",14657,1978,50,"k","Zebra",19,-23.06,31.44,340185.78,7448985.89
"14659",14659,1978,50,"k","Zebra",2,-23.08,31.42,338160.46,7446749.29
"14664",14664,1978,50,"k","Zebra",6,-23.08,31.44,340209.41,7446771.31
"14668",14668,1978,50,"k","Zebra",10,-23.01,31.44,340126.78,7454522.34
"14671",14671,1978,50,"k","Zebra",9,-23.03,31.42,338100.65,7452285.79
"14676",14676,1978,50,"k","Zebra",4,-23.1,31.46,342281.71,7444578.47
"14678",14678,1978,50,"k","Zebra",2,-23.1,31.48,344330.33,7444599.93
"14689",14689,1978,50,"k","Zebra",22,-23.06,31.46,342235.03,7449007.61
"14692",14692,1978,50,"k","Zebra",13,-23.06,31.48,344284.26,7449029.05
"14696",14696,1978,50,"k","Zebra",5,-23.08,31.46,342258.36,7446793.04
"14699",14699,1978,50,"k","Zebra",17,-23.08,31.48,344307.29,7446814.5
"14704",14704,1978,50,"k","Zebra",8,-23.03,31.46,342200.07,7452329.46
"14706",14706,1978,50,"k","Zebra",13,-23.03,31.48,344249.75,7452350.88
"14711",14711,1978,50,"k","Zebra",17,-23.18,31.53,349541.17,7435794.21
"14716",14716,1978,50,"k","Zebra",2,-23.14,31.53,349496.47,7440223.3
"14719",14719,1978,50,"k","Zebra",4,-23.16,31.51,347471.13,7437987.95
"14723",14723,1978,50,"k","Zebra",7,-23.1,31.51,347403.25,7444631.61
"14727",14727,1978,50,"k","Zebra",4,-23.1,31.53,349451.84,7444652.38
"14732",14732,1978,50,"k","Zebra",4,-23.12,31.53,349474.15,7442437.84
"14733",14733,1978,50,"k","Zebra",18,-23.06,31.51,347358.09,7449060.69
"14734",14734,1978,50,"k","Zebra",33,-23.08,31.51,347380.66,7446846.15
"14743",14743,1978,50,"k","Zebra",3,-23.2,31.55,351610.61,7433600.21
"14750",14750,1978,51,"k","Zebra",2,-22.68,31.32,327410.37,7490927.6
"14752",14752,1978,51,"k","Zebra",22,-22.7,31.32,327435.42,7488713.01
"14758",14758,1978,51,"k","Zebra",3,-22.66,31.3,325329.97,7493118.81
"14759",14759,1978,51,"k","Zebra",8,-22.66,31.32,327385.33,7493142.17
"14775",14775,1978,51,"k","Zebra",4,-22.7,31.34,329490.17,7488736.13
"14786",14786,1978,52,"k","Zebra",5,-23.1,31.19,314623.86,7444261.15
"14794",14794,1978,52,"k","Zebra",6,-23.06,31.19,314568.99,7448690.72
"14799",14799,1978,52,"k","Zebra",24,-23.08,31.17,312547.28,7446450.41
"14802",14802,1978,52,"k","Zebra",8,-23.08,31.19,314596.42,7446475.94
"14804",14804,1978,52,"k","Zebra",4,-23.18,31.21,316781.49,7435427.27
"14807",14807,1978,52,"k","Zebra",10,-23.2,31.21,316808.74,7433212.47
"14810",14810,1978,52,"k","Zebra",1,-23.2,31.23,318856.03,7433237.53
"14815",14815,1978,52,"k","Zebra",4,-23.14,31.23,318775.24,7439881.86
"14819",14819,1978,52,"k","Zebra",9,-23.1,31.21,316672.69,7444286.41
"14825",14825,1978,52,"k","Zebra",13,-23.12,31.23,318748.36,7442096.63
"14828",14828,1978,52,"k","Zebra",10,-23.08,31.21,316645.54,7446501.18
"14829",14829,1978,52,"k","Zebra",4,-23.08,31.23,318694.65,7446526.14
"14830",14830,1978,52,"k","Zebra",12,-23.18,31.26,321900.43,7435489.36
"14836",14836,1978,52,"k","Zebra",9,-23.16,31.28,323921.82,7437728.43
"14838",14838,1978,52,"k","Zebra",3,-23.1,31.28,323843.44,7444372.61
"14840",14840,1978,52,"k","Zebra",9,-23.12,31.26,321821.08,7442133.6
"14844",14844,1978,52,"k","Zebra",5,-23.08,31.26,321768.29,7446563.06
"14846",14846,1978,52,"k","Zebra",5,-23.03,31.28,323752.25,7452124.09
"14849",14849,1978,52,"k","Zebra",18,-23.14,31.3,325943.82,7439967.19
"14854",14854,1978,52,"k","Zebra",4,-23.16,31.32,328017.48,7437776.24
"14859",14859,1978,52,"k","Zebra",14,-23.1,31.32,327940.94,7444420.32
"14863",14863,1978,52,"k","Zebra",6,-23.12,31.3,325918,7442181.9
"14866",14866,1978,52,"k","Zebra",16,-23.12,31.32,327966.43,7442205.63
"14869",14869,1978,52,"k","Zebra",5,-23.06,31.3,325840.66,7448826
"14871",14871,1978,52,"k","Zebra",7,-23.08,31.3,325866.42,7446611.31
"14872",14872,1978,52,"k","Zebra",19,-23.03,31.3,325802.07,7452148.03
"14875",14875,1978,52,"k","Zebra",9,-23.14,31.34,330040.06,7440014.41
"14878",14878,1978,52,"k","Zebra",13,-23.1,31.34,329989.66,7444443.76
"14879",14879,1978,52,"k","Zebra",2,-23.1,31.36,332038.37,7444466.91
"14882",14882,1978,52,"k","Zebra",1,-23.12,31.34,330014.85,7442229.08
"14884",14884,1978,52,"k","Zebra",10,-23.12,31.36,332063.26,7442252.25
"14889",14889,1978,52,"k","Zebra",6,-23.08,31.36,332013.5,7446681.56
"14897",14897,1978,53,"k","Zebra",18,-23.08,30.9,284882.23,7446078.32
"14910",14910,1978,53,"k","Zebra",11,-23.06,30.92,286900.08,7448322.67
"14911",14911,1978,53,"k","Zebra",33,-23.06,30.94,288949.74,7448351.69
"14915",14915,1978,53,"k","Zebra",30,-23.08,30.92,286931.6,7446107.64
"14920",14920,1978,53,"k","Zebra",20,-23.08,30.94,288980.96,7446136.68
"14936",14936,1978,53,"k","Zebra",15,-23.14,30.98,293171.6,7439548.96
"14940",14940,1978,53,"k","Zebra",4,-23.16,30.98,293202.31,7437333.96
"14943",14943,1978,53,"k","Zebra",4,-23.1,30.98,293110.25,7443978.93
"14952",14952,1978,53,"k","Zebra",15,-23.06,30.98,293049,7448408.88
"14954",14954,1978,53,"k","Zebra",7,-23.08,30.96,291030.29,7446165.43
"14959",14959,1978,53,"k","Zebra",3,-23.08,30.98,293079.61,7446193.91
"14960",14960,1978,53,"k","Zebra",7,-23.01,30.96,290922.2,7453917.89
"14965",14965,1978,53,"k","Zebra",20,-23.01,30.98,292972.58,7453946.3
"14967",14967,1978,53,"k","Zebra",11,-23.03,30.96,290953.05,7451702.91
"14976",14976,1978,53,"k","Zebra",2,-23.14,31.01,296244.18,7439591.23
"14978",14978,1978,53,"k","Zebra",6,-23.14,31.03,298292.54,7439619.06
"14986",14986,1978,53,"k","Zebra",36,-23.1,31.01,296183.74,7444021.14
"14994",14994,1978,53,"k","Zebra",3,-23.12,31.03,298262.61,7441834
"14997",14997,1978,53,"k","Zebra",6,-23.06,31.01,296123.4,7448451.04
"15002",15002,1978,53,"k","Zebra",17,-23.06,31.03,298172.97,7448478.79
"15004",15004,1978,53,"k","Zebra",1,-23.08,31.01,296153.55,7446236.09
"15008",15008,1978,53,"k","Zebra",7,-23.01,31.01,296048.11,7453988.38
"15014",15014,1978,53,"k","Zebra",5,-23.03,31.01,296078.21,7451773.45
"15018",15018,1978,53,"k","Zebra",1,-23.03,31.03,298128.24,7451801.18
"15029",15029,1978,53,"k","Zebra",1,-23.14,31.05,300340.88,7439646.6
"15033",15033,1978,53,"k","Zebra",3,-23.16,31.07,302418.55,7437458.96
"15037",15037,1978,53,"k","Zebra",35,-23.1,31.05,300281.66,7444076.45
"15040",15040,1978,53,"k","Zebra",13,-23.1,31.07,302330.6,7444103.67
"15044",15044,1978,53,"k","Zebra",3,-23.12,31.07,302359.89,7441888.77
"15050",15050,1978,53,"k","Zebra",21,-23.08,31.05,300252.08,7446291.36
"15066",15066,1978,53,"k","Zebra",18,-23.14,31.11,306485.81,7439727.56
"15083",15083,1978,53,"k","Zebra",6,-23.03,31.11,306328.2,7451909.28
"15089",15089,1978,53,"k","Zebra",15,-23.14,31.13,308534.09,7439753.98
"15094",15094,1978,53,"k","Zebra",5,-23.14,31.15,310582.35,7439780.12
"15098",15098,1978,53,"k","Zebra",13,-23.16,31.13,308562.52,7437539.12
"15106",15106,1978,53,"k","Zebra",5,-23.12,31.15,310554.25,7441994.95
"15112",15112,1978,53,"k","Zebra",22,-23.08,31.15,310498.12,7446424.6
"15118",15118,1978,53,"k","Zebra",2,-23.2,31.19,314761.44,7433187.12
"15123",15123,1978,53,"k","Zebra",10,-23.1,31.17,312575.03,7444235.6
"15126",15126,1978,54,"k","Zebra",6,-22.97,30.94,288809.56,7458319.18
"15129",15129,1978,54,"k","Zebra",2,-22.93,30.94,288747.43,7462749.15
"15133",15133,1978,54,"k","Zebra",18,-22.95,30.94,288778.48,7460534.17
"15137",15137,1978,54,"k","Zebra",4,-22.91,30.94,288716.4,7464964.13
"15144",15144,1978,54,"k","Zebra",8,-22.97,30.98,292911.55,7458376.2
"15156",15156,1978,54,"k","Zebra",1,-22.95,30.98,292881.08,7460591.15
"15185",15185,1978,54,"k","Zebra",8,-22.91,31.03,297949.85,7465090.59
"15196",15196,1978,54,"k","Zebra",3,-22.93,31.05,300031.05,7462903.05
"15206",15206,1978,54,"k","Zebra",1,-22.95,31.07,302111.65,7460715.27
"15228",15228,1978,54,"k","Zebra",6,-22.99,31.11,306271.06,7456338.95
"15245",15245,1978,54,"k","Zebra",10,-22.99,31.13,308321.61,7456365.24
"15249",15249,1978,54,"k","Zebra",3,-22.93,31.13,308236.99,7463009.67
"15263",15263,1978,54,"k","Zebra",8,-23.01,31.19,314500.52,7454227.66
"15268",15268,1978,54,"k","Zebra",16,-23.03,31.19,314527.89,7452012.89
"15273",15273,1978,54,"k","Zebra",9,-22.99,31.19,314473.18,7456442.43
"15283",15283,1978,54,"k","Zebra",15,-23.06,31.21,316618.42,7448715.95
"15286",15286,1978,54,"k","Zebra",3,-23.06,31.23,318667.83,7448740.9
"15290",15290,1978,54,"k","Zebra",14,-23.01,31.21,316550.71,7454252.85
"15293",15293,1978,54,"k","Zebra",15,-23.01,31.23,318600.88,7454277.75
"15295",15295,1978,54,"k","Zebra",5,-23.03,31.21,316577.78,7452038.09
"15298",15298,1978,54,"k","Zebra",4,-23.03,31.23,318627.65,7452063.01
"15300",15300,1978,54,"k","Zebra",7,-22.97,31.21,316496.65,7458682.34
"15316",15316,1978,54,"k","Zebra",7,-23.01,31.28,323726.24,7454338.79
"15321",15321,1978,54,"k","Zebra",13,-23.03,31.26,321702.42,7452099.87
"15330",15330,1978,55,"k","Zebra",4,-22.87,30.98,292759.43,7469450.89
"15337",15337,1978,55,"k","Zebra",14,-22.83,30.98,292698.76,7473880.73
"15343",15343,1978,55,"k","Zebra",4,-22.87,31.03,297890.59,7469520.36
"15347",15347,1978,55,"k","Zebra",22,-22.81,31.01,295748.52,7476137.45
"15352",15352,1978,55,"k","Zebra",14,-22.83,31.01,295778.37,7473922.56
"15357",15357,1978,55,"k","Zebra",15,-22.83,31.03,297831.42,7473950.1
"15361",15361,1978,55,"k","Zebra",7,-22.76,31.01,295674.01,7481674.64
"15380",15380,1978,55,"k","Zebra",2,-22.87,31.05,299943.02,7469547.65
"15387",15387,1978,55,"k","Zebra",22,-22.81,31.05,299855.2,7476192.21
"15389",15389,1978,55,"k","Zebra",5,-22.81,31.07,301908.52,7476219.17
"15391",15391,1978,55,"k","Zebra",8,-22.83,31.05,299884.45,7473977.36
"15396",15396,1978,55,"k","Zebra",6,-22.83,31.07,301937.47,7474004.34
"15401",15401,1978,55,"k","Zebra",3,-22.78,31.07,301865.15,7479541.41
"15416",15416,1978,55,"k","Zebra",2,-22.81,31.09,303961.82,7476245.86
"15418",15418,1978,55,"k","Zebra",13,-22.81,31.11,306015.1,7476272.26
"15430",15430,1978,55,"k","Zebra",5,-22.74,31.09,303861.75,7483997.65
"15435",15435,1978,55,"k","Zebra",4,-22.89,31.15,310232.74,7467465.18
"15439",15439,1978,55,"k","Zebra",13,-22.85,31.15,310177.13,7471894.72
"15443",15443,1978,55,"k","Zebra",5,-22.81,31.13,308068.37,7476298.39
"15446",15446,1978,55,"k","Zebra",6,-22.83,31.13,308096.41,7474083.62
"15452",15452,1978,55,"k","Zebra",4,-22.78,31.13,308026.35,7479620.54
"15456",15456,1978,55,"k","Zebra",5,-22.89,31.19,314336.78,7467516.19
"15462",15462,1978,55,"k","Zebra",2,-22.91,31.19,314364.02,7465301.45
"15469",15469,1978,55,"k","Zebra",5,-22.87,31.17,312257.25,7469705.58
"15479",15479,1978,55,"k","Zebra",5,-22.83,31.17,312202.3,7474135.07
"15481",15481,1978,55,"k","Zebra",2,-22.83,31.19,314255.21,7474160.38
"15485",15485,1978,55,"k","Zebra",4,-22.78,31.17,312133.73,7479671.91
"15486",15486,1978,55,"k","Zebra",2,-22.93,31.21,316442.67,7463111.82
