"","ID","Year","Cenb","Sp","Description","No","Lat","Long","X.coord","Y.coord"
"261677",261677,1989,53,"wr","White rhino",3,-23.07,31.11,306385.43,7447479.58
"261689",261689,1989,53,"wr","White rhino",6,-23.06,31.1,305346.36,7448573.72
"262309",262309,1989,54,"wr","White rhino",3,-22.93,31.07,302082.56,7462930.13
"262310",262310,1989,54,"wr","White rhino",4,-22.94,31.07,302097.1,7461822.7
"262320",262320,1989,54,"wr","White rhino",1,-23,31.07,302184.48,7455178.1
"262329",262329,1989,54,"wr","White rhino",3,-22.94,31.08,303122.77,7461836.13
"262330",262330,1989,54,"wr","White rhino",2,-22.94,31.08,303122.77,7461836.13
"262540",262540,1989,54,"wr","White rhino",1,-23.01,31.23,318600.88,7454277.75
"262885",262885,1989,54,"wr","White rhino",2,-22.91,31.12,307182.95,7465211.4
"262891",262891,1989,54,"wr","White rhino",1,-22.91,31.12,307182.95,7465211.4
"262892",262892,1989,54,"wr","White rhino",2,-22.91,31.12,307182.95,7465211.4
"262894",262894,1989,54,"wr","White rhino",3,-22.9,31.12,307168.8,7466318.8
"264314",264314,1989,6,"wr","White rhino",2,-23.65,31.45,341911.22,7383664.51
"264340",264340,1989,6,"wr","White rhino",2,-23.65,31.43,339871.02,7383642.22
"264341",264341,1989,6,"wr","White rhino",2,-23.66,31.43,339883.2,7382534.85
"264399",264399,1989,6,"wr","White rhino",2,-23.66,31.41,337843.14,7382512.26
"264402",264402,1989,6,"wr","White rhino",3,-23.68,31.4,336847.94,7380286.09
"264507",264507,1989,6,"wr","White rhino",1,-23.63,31.44,340866.94,7385868.14
"264513",264513,1989,6,"wr","White rhino",2,-23.6,31.41,337769.21,7389156.53
"265007",265007,1989,8,"wr","White rhino",2,-23.48,31.32,328428.92,7402340.37
"265090",265090,1989,8,"wr","White rhino",2,-23.43,31.28,324276.88,7407829.07
"265468",265468,1989,9,"wr","White rhino",3,-23.46,31.19,315121.79,7404394.06
"265761",265761,1989,10,"wr","White rhino",1,-23.4,31.08,303794.71,7410893.29
"265852",265852,1989,10,"wr","White rhino",2,-23.39,31.18,314002.2,7412133.27
"265862",265862,1989,10,"wr","White rhino",3,-23.4,31.2,316060.41,7411051.48
"265882",265882,1989,11,"wr","White rhino",2,-23.39,31.26,322179.7,7412234.15
"265883",265883,1989,11,"wr","White rhino",4,-23.39,31.26,322179.7,7412234.15
"265886",265886,1989,11,"wr","White rhino",2,-23.38,31.25,321144.09,7413329.2
"265890",265890,1989,11,"wr","White rhino",1,-23.38,31.28,324210.84,7413366.06
"265982",265982,1989,11,"wr","White rhino",1,-23.27,31.29,325089.09,7425559.43
"266054",266054,1989,11,"wr","White rhino",2,-23.26,31.25,320983.37,7426617.99
"266056",266056,1989,11,"wr","White rhino",2,-23.27,31.24,319973.63,7425498.21
"266767",266767,1989,13,"wr","White rhino",1,-23.72,31.53,350151.81,7375999.41
"266806",266806,1989,13,"wr","White rhino",3,-23.69,31.5,347058.24,7379289.58
"266820",266820,1989,13,"wr","White rhino",2,-23.66,31.49,346003.3,7382600.88
"269419",269419,1989,3,"wr","White rhino",1,-23.93,31.35,332070.39,7352542.42
"271214",271214,1989,21,"wr","White rhino",3,-24.14,31.57,354700.83,7329531.72
"271230",271230,1989,21,"wr","White rhino",2,-24.15,31.57,354712.14,7328424.33
"271277",271277,1989,21,"wr","White rhino",1,-24.17,31.56,353718.78,7326199.13
"271565",271565,1989,22,"wr","White rhino",3,-24.29,31.52,349795.73,7312867.68
"271585",271585,1989,22,"wr","White rhino",3,-24.25,31.58,355840.8,7317360.72
"271714",271714,1989,22,"wr","White rhino",5,-24.4,31.4,337755.25,7300550.74
"272459",272459,1989,23,"wr","White rhino",4,-24.17,31.69,366926.34,7326328.93
"272817",272817,1989,24,"wr","White rhino",4,-24.32,31.68,366067.56,7309708.82
"272859",272859,1989,24,"wr","White rhino",2,-24.3,31.65,363001.79,7311894.38
"272971",272971,1989,24,"wr","White rhino",4,-24.27,31.65,362969.59,7315216.53
"273239",273239,1989,25,"wr","White rhino",1,-24.1,31.87,385150.47,7334239.5
"273700",273700,1989,26,"wr","White rhino",2,-24.38,31.78,376273.36,7303157.32
"273885",273885,1989,26,"wr","White rhino",2,-24.27,31.84,382257.25,7315390.21
"273902",273902,1989,26,"wr","White rhino",1,-24.27,31.85,383272.37,7315398.63
"274222",274222,1989,27,"wr","White rhino",4,-24.21,31.89,387279.95,7322075.42
"274238",274238,1989,27,"wr","White rhino",9,-24.26,31.91,389354.35,7316554.88
"274254",274254,1989,27,"wr","White rhino",1,-24.31,31.95,393456.78,7311049.52
"274271",274271,1989,27,"wr","White rhino",2,-24.27,31.9,388347.9,7315439.6
"274285",274285,1989,27,"wr","White rhino",2,-24.21,31.86,384233.2,7322050.89
"274337",274337,1989,27,"wr","White rhino",6,-24.28,31.89,387341.62,7314324.23
"275198",275198,1989,28,"wr","White rhino",5,-24.56,31.8,378474.81,7283242.38
"275202",275202,1989,28,"wr","White rhino",1,-24.56,31.8,378474.81,7283242.38
"275307",275307,1989,28,"wr","White rhino",1,-24.63,31.9,388664.72,7275575.37
"275317",275317,1989,28,"wr","White rhino",1,-24.66,31.91,389703.29,7272261.33
"275426",275426,1989,28,"wr","White rhino",2,-24.66,31.87,385655.37,7272228.61
"275524",275524,1989,28,"wr","White rhino",1,-24.66,31.84,382619.4,7272203.29
"275529",275529,1989,28,"wr","White rhino",3,-24.66,31.84,382619.4,7272203.29
"275644",275644,1989,30,"wr","White rhino",2,-24.63,31.99,397774.61,7275645.28
"275757",275757,1989,30,"wr","White rhino",2,-24.59,31.98,396729.57,7280067.18
"276049",276049,1989,30,"wr","White rhino",2,-24.68,31.95,393768.12,7270078.16
"276107",276107,1989,30,"wr","White rhino",5,-24.65,31.93,391718.61,7273384.62
"276194",276194,1989,30,"wr","White rhino",2,-24.71,31.96,394805.13,7266763.79
"276268",276268,1989,30,"wr","White rhino",5,-24.7,31.94,392773.43,7267855.65
"276715",276715,1989,31,"wr","White rhino",2,-24.52,31.74,372357.46,7287617.73
"276762",276762,1989,31,"wr","White rhino",2,-24.57,31.73,371395.31,7282071.45
"276770",276770,1989,31,"wr","White rhino",2,-24.53,31.73,371354.51,7286501.05
"276960",276960,1989,31,"wr","White rhino",2,-24.58,31.69,367354.84,7280926.11
"277007",277007,1989,31,"wr","White rhino",4,-24.58,31.68,366342.16,7280916.44
"277055",277055,1989,31,"wr","White rhino",2,-24.54,31.66,364273.74,7285326.56
"277200",277200,1989,32,"wr","White rhino",1,-24.54,31.57,355156.58,7285235.01
"277205",277205,1989,32,"wr","White rhino",1,-24.5,31.55,353083.98,7289643.65
"277220",277220,1989,32,"wr","White rhino",1,-24.54,31.53,351104.44,7285192.41
"277514",277514,1989,33,"wr","White rhino",1,-24.61,31.63,361311.81,7277544.69
"277517",277517,1989,33,"wr","White rhino",3,-24.62,31.64,362335.21,7276447.3
"277575",277575,1989,33,"wr","White rhino",1,-24.64,31.66,364381.53,7274252.32
"277688",277688,1989,33,"wr","White rhino",1,-24.77,31.66,364522.28,7259855.59
"277708",277708,1989,34,"wr","White rhino",3,-24.62,31.7,368409.36,7276506.05
"277723",277723,1989,34,"wr","White rhino",1,-24.63,31.71,369432.1,7275408.17
"277743",277743,1989,34,"wr","White rhino",2,-24.64,31.7,368430.31,7274291.21
"277762",277762,1989,34,"wr","White rhino",2,-24.65,31.7,368440.79,7273183.79
"277792",277792,1989,34,"wr","White rhino",3,-24.67,31.72,370485.64,7270987.97
"277818",277818,1989,34,"wr","White rhino",3,-24.68,31.69,367460.38,7269851.9
"277832",277832,1989,34,"wr","White rhino",2,-24.68,31.69,367460.38,7269851.9
"277838",277838,1989,34,"wr","White rhino",1,-24.68,31.66,364424.76,7269822.58
"277863",277863,1989,34,"wr","White rhino",2,-24.71,31.7,368503.75,7266539.24
"277969",277969,1989,34,"wr","White rhino",4,-24.73,31.81,379650.69,7264425.53
"277971",277971,1989,34,"wr","White rhino",2,-24.72,31.8,378629.55,7265524.11
"277972",277972,1989,34,"wr","White rhino",5,-24.71,31.8,378619.85,7266631.51
"278056",278056,1989,34,"wr","White rhino",4,-24.76,31.75,373612.38,7261049.21
"278096",278096,1989,34,"wr","White rhino",4,-24.64,31.77,375515.56,7274356.44
"278167",278167,1989,34,"wr","White rhino",3,-24.67,31.73,371497.58,7270997.37
"278204",278204,1989,34,"wr","White rhino",4,-24.69,31.77,375565.18,7268819.42
"278225",278225,1989,34,"wr","White rhino",2,-24.71,31.76,374573.44,7266595.49
"278639",278639,1989,36,"wr","White rhino",1,-24.77,31.72,370589.12,7259913.72
"278688",278688,1989,36,"wr","White rhino",1,-24.78,31.78,376665.75,7258861.76
"278690",278690,1989,36,"wr","White rhino",2,-24.8,31.78,376685.53,7256646.93
"278739",278739,1989,36,"wr","White rhino",3,-24.79,31.81,379708.49,7257781.09
"278824",278824,1989,36,"wr","White rhino",1,-24.87,31.87,385847.52,7248973.39
"278886",278886,1989,36,"wr","White rhino",1,-24.88,31.86,384846.5,7247857.56
"278902",278902,1989,36,"wr","White rhino",2,-24.87,31.84,382816.66,7248947.91
"278933",278933,1989,36,"wr","White rhino",3,-24.85,31.82,380776.89,7251145.39
"279166",279166,1989,37,"wr","White rhino",2,-24.83,31.95,393895.6,7253467.6
"279201",279201,1989,37,"wr","White rhino",1,-24.83,31.94,392885.01,7253459.78
"279441",279441,1989,37,"wr","White rhino",3,-24.92,31.93,391952.72,7243485.36
"279447",279447,1989,37,"wr","White rhino",2,-24.91,31.96,394973.83,7244616.26
"279454",279454,1989,37,"wr","White rhino",3,-24.92,31.96,394982.3,7243508.86
"279566",279566,1989,37,"wr","White rhino",5,-25.06,31.98,397118.62,7228020.59
"279589",279589,1989,37,"wr","White rhino",1,-25.07,32.02,401161.47,7226943.02
"279925",279925,1989,38,"wr","White rhino",1,-24.91,31.81,379824.5,7244492.07
"279947",279947,1989,38,"wr","White rhino",1,-24.93,31.85,383883.11,7242311.98
"279989",279989,1989,38,"wr","White rhino",1,-24.92,31.88,386903.37,7243444.69
"280176",280176,1989,39,"wr","White rhino",2,-25.14,31.28,326615.72,7218444.27
"280178",280178,1989,39,"wr","White rhino",7,-25.13,31.26,324584.94,7219526.03
"280180",280180,1989,39,"wr","White rhino",2,-25.13,31.26,324584.94,7219526.03
"280182",280182,1989,39,"wr","White rhino",3,-25.13,31.27,325593.27,7219539
"280183",280183,1989,39,"wr","White rhino",1,-25.13,31.3,328618.24,7219577.47
"280195",280195,1989,39,"wr","White rhino",1,-25.12,31.29,327595.88,7220672.34
"280207",280207,1989,39,"wr","White rhino",2,-25.1,31.27,325550.67,7222861.89
"280208",280208,1989,39,"wr","White rhino",2,-25.09,31.26,324527.82,7223956.56
"280211",280211,1989,39,"wr","White rhino",1,-25.09,31.28,326545.14,7223982.39
"280215",280215,1989,39,"wr","White rhino",2,-25.09,31.3,328562.44,7224007.93
"280217",280217,1989,39,"wr","White rhino",2,-25.1,31.31,329584.94,7222912.98
"280218",280218,1989,39,"wr","White rhino",3,-25.1,31.32,330593.5,7222925.56
"280222",280222,1989,39,"wr","White rhino",1,-25.09,31.33,331588.37,7224045.68
"280226",280226,1989,39,"wr","White rhino",2,-25.09,31.29,327553.79,7223995.2
"280234",280234,1989,39,"wr","White rhino",2,-25.08,31.3,328548.5,7225115.54
"280237",280237,1989,39,"wr","White rhino",2,-25.08,31.33,331574.67,7225153.28
"280240",280240,1989,39,"wr","White rhino",1,-25.08,31.36,334600.82,7225190.34
"280242",280242,1989,39,"wr","White rhino",2,-25.08,31.37,335609.52,7225202.55
"280244",280244,1989,39,"wr","White rhino",2,-25.08,31.37,335609.52,7225202.55
"280251",280251,1989,39,"wr","White rhino",4,-25.07,31.27,325508.12,7226184.76
"280254",280254,1989,39,"wr","White rhino",2,-25.07,31.32,330552.19,7226248.38
"280261",280261,1989,39,"wr","White rhino",2,-25.07,31.36,334587.38,7226297.93
"280263",280263,1989,39,"wr","White rhino",5,-25.06,31.38,336591.68,7227429.84
"280268",280268,1989,39,"wr","White rhino",3,-25.06,31.31,329529.54,7227343.41
"280271",280271,1989,39,"wr","White rhino",2,-25.06,31.31,329529.54,7227343.41
"280273",280273,1989,39,"wr","White rhino",1,-25.06,31.3,328520.64,7227330.76
"280274",280274,1989,39,"wr","White rhino",2,-25.06,31.3,328520.64,7227330.76
"280277",280277,1989,39,"wr","White rhino",1,-25.06,31.28,326502.85,7227305.25
"280282",280282,1989,39,"wr","White rhino",4,-25.05,31.28,326488.76,7228412.87
"280283",280283,1989,39,"wr","White rhino",2,-25.05,31.28,326488.76,7228412.87
"280291",280291,1989,39,"wr","White rhino",3,-25.06,31.34,332556.19,7227380.9
"280292",280292,1989,39,"wr","White rhino",3,-25.06,31.34,332556.19,7227380.9
"280295",280295,1989,39,"wr","White rhino",1,-25.06,31.35,333565.07,7227393.25
"280312",280312,1989,39,"wr","White rhino",4,-25.03,31.28,326460.61,7230628.09
"280316",280316,1989,39,"wr","White rhino",2,-25.03,31.3,328478.89,7230653.59
"280319",280319,1989,39,"wr","White rhino",2,-25.04,31.32,330510.91,7229571.18
"280333",280333,1989,39,"wr","White rhino",2,-25.04,31.38,336565.16,7229645
"280365",280365,1989,39,"wr","White rhino",2,-25.03,31.32,330497.17,7230678.78
"280406",280406,1989,39,"wr","White rhino",1,-25,31.31,329446.58,7233989.02
"280480",280480,1989,39,"wr","White rhino",2,-25.06,31.27,325493.95,7227292.38
"280536",280536,1989,40,"wr","White rhino",2,-25.22,31.37,335797.05,7209696.2
"280537",280537,1989,40,"wr","White rhino",1,-25.2,31.36,334762.48,7211899.16
"280553",280553,1989,40,"wr","White rhino",1,-25.16,31.35,333700.46,7216317.27
"280562",280562,1989,40,"wr","White rhino",2,-25.22,31.36,334789.5,7209683.94
"280593",280593,1989,40,"wr","White rhino",1,-25.22,31.36,334789.5,7209683.94
"280631",280631,1989,40,"wr","White rhino",2,-25.2,31.32,330731.57,7211849.42
"280638",280638,1989,40,"wr","White rhino",7,-25.22,31.33,331766.81,7209646.73
"280653",280653,1989,40,"wr","White rhino",2,-25.2,31.32,330731.57,7211849.42
"280669",280669,1989,40,"wr","White rhino",3,-25.24,31.31,329779.53,7207406.29
"280675",280675,1989,40,"wr","White rhino",4,-25.21,31.31,329737.75,7210729.17
"280678",280678,1989,40,"wr","White rhino",2,-25.2,31.3,328716.09,7211824.1
"280699",280699,1989,40,"wr","White rhino",1,-25.23,31.3,328758.1,7208501.21
"280705",280705,1989,40,"wr","White rhino",3,-25.17,31.28,326658.14,7215121.38
"280713",280713,1989,40,"wr","White rhino",2,-25.22,31.28,326728.93,7209583.2
"280716",280716,1989,40,"wr","White rhino",3,-25.23,31.28,326743.11,7208475.57
"280717",280717,1989,40,"wr","White rhino",2,-25.23,31.28,326743.11,7208475.57
"280724",280724,1989,40,"wr","White rhino",1,-25.2,31.27,325692.85,7211785.56
"280791",280791,1989,40,"wr","White rhino",2,-25.29,31.31,329849.27,7201868.12
"280795",280795,1989,40,"wr","White rhino",4,-25.29,31.31,329849.27,7201868.12
"280809",280809,1989,40,"wr","White rhino",4,-25.34,31.32,330925.72,7196342.59
"280810",280810,1989,40,"wr","White rhino",3,-25.34,31.32,330925.72,7196342.59
"280818",280818,1989,40,"wr","White rhino",1,-25.37,31.32,330967.46,7193019.66
"280819",280819,1989,40,"wr","White rhino",2,-25.38,31.32,330981.38,7191912.01
"280824",280824,1989,40,"wr","White rhino",1,-25.38,31.32,330981.38,7191912.01
"280842",280842,1989,40,"wr","White rhino",1,-25.35,31.31,329933.13,7195222.27
"280854",280854,1989,40,"wr","White rhino",2,-25.31,31.31,329877.2,7199652.84
"280855",280855,1989,40,"wr","White rhino",4,-25.3,31.31,329863.24,7200760.48
"280858",280858,1989,40,"wr","White rhino",1,-25.3,31.31,329863.24,7200760.48
"280859",280859,1989,40,"wr","White rhino",2,-25.3,31.3,328856.32,7200747.75
"280865",280865,1989,40,"wr","White rhino",2,-25.28,31.3,328828.23,7202963.03
"280876",280876,1989,40,"wr","White rhino",1,-25.29,31.3,328842.27,7201855.39
"280877",280877,1989,40,"wr","White rhino",3,-25.29,31.3,328842.27,7201855.39
"280890",280890,1989,40,"wr","White rhino",2,-25.36,31.3,328940.71,7194101.87
"280901",280901,1989,40,"wr","White rhino",2,-25.32,31.3,328884.43,7198532.46
"280905",280905,1989,40,"wr","White rhino",7,-25.3,31.29,327849.4,7200734.94
"280916",280916,1989,40,"wr","White rhino",1,-25.35,31.28,326913.62,7195183.79
"280936",280936,1989,41,"wr","White rhino",1,-25.13,31.35,333659.79,7219640.07
"280937",280937,1989,41,"wr","White rhino",1,-25.15,31.36,334695.03,7217437.17
"280939",280939,1989,41,"wr","White rhino",2,-25.14,31.36,334681.56,7218544.77
"280940",280940,1989,41,"wr","White rhino",1,-25.13,31.36,334668.09,7219652.37
"280950",280950,1989,41,"wr","White rhino",2,-25.15,31.38,336711.3,7217461.56
"280954",280954,1989,41,"wr","White rhino",2,-25.12,31.36,334654.63,7220759.97
"280957",280957,1989,41,"wr","White rhino",1,-25.12,31.36,334654.63,7220759.97
"280971",280971,1989,41,"wr","White rhino",2,-25.16,31.39,337732.66,7216366.05
"280981",280981,1989,41,"wr","White rhino",1,-25.12,31.38,336671.38,7220784.33
"280982",280982,1989,41,"wr","White rhino",5,-25.14,31.4,338714.4,7218593.23
"280988",280988,1989,41,"wr","White rhino",1,-25.17,31.42,340769.76,7215294.27
"280994",280994,1989,41,"wr","White rhino",2,-25.14,31.41,339722.6,7218605.16
"280996",280996,1989,41,"wr","White rhino",2,-25.13,31.4,338701.26,7219700.81
"280997",280997,1989,41,"wr","White rhino",4,-25.13,31.4,338701.26,7219700.81
"281007",281007,1989,41,"wr","White rhino",2,-25.16,31.43,341764.8,7216413.63
"281008",281008,1989,41,"wr","White rhino",6,-25.16,31.43,341764.8,7216413.63
"281009",281009,1989,41,"wr","White rhino",3,-25.15,31.43,341751.9,7217521.21
"281015",281015,1989,41,"wr","White rhino",2,-25.15,31.44,342760.01,7217532.91
"281016",281016,1989,41,"wr","White rhino",1,-25.14,31.44,342747.19,7218640.49
"281020",281020,1989,41,"wr","White rhino",3,-25.12,31.43,341713.21,7220843.93
"281026",281026,1989,41,"wr","White rhino",2,-25.16,31.47,345796.89,7216460.02
"281031",281031,1989,41,"wr","White rhino",2,-25.13,31.45,343742.65,7219759.68
"281032",281032,1989,41,"wr","White rhino",2,-25.13,31.45,343742.65,7219759.68
"281033",281033,1989,41,"wr","White rhino",2,-25.13,31.45,343742.65,7219759.68
"281047",281047,1989,41,"wr","White rhino",3,-25.16,31.47,345796.89,7216460.02
"281051",281051,1989,41,"wr","White rhino",2,-25.16,31.48,346804.91,7216471.43
"281066",281066,1989,41,"wr","White rhino",1,-25.15,31.49,347800.51,7217590.32
"281081",281081,1989,41,"wr","White rhino",5,-25.14,31.5,348796.28,7218709.13
"281103",281103,1989,41,"wr","White rhino",1,-25.18,31.51,349853.44,7214290.1
"281109",281109,1989,41,"wr","White rhino",1,-25.21,31.5,348882.64,7210956.24
"281113",281113,1989,41,"wr","White rhino",6,-25.24,31.49,347912.37,7207622.26
"281114",281114,1989,41,"wr","White rhino",1,-25.25,31.48,346917.55,7206503.33
"281120",281120,1989,41,"wr","White rhino",2,-25.2,31.49,347862.61,7212052.52
"281123",281123,1989,41,"wr","White rhino",3,-25.17,31.5,348833.27,7215386.47
"281144",281144,1989,41,"wr","White rhino",2,-25.22,31.48,346879.96,7209826.04
"281145",281145,1989,41,"wr","White rhino",3,-25.19,31.48,346842.42,7213148.74
"281148",281148,1989,41,"wr","White rhino",2,-25.17,31.49,347825.34,7215375.2
"281152",281152,1989,41,"wr","White rhino",3,-25.18,31.48,346829.91,7214256.3
"281156",281156,1989,41,"wr","White rhino",2,-25.19,31.48,346842.42,7213148.74
"281157",281157,1989,41,"wr","White rhino",4,-25.19,31.47,345834.65,7213137.32
"281159",281159,1989,41,"wr","White rhino",7,-25.2,31.47,345847.24,7212029.75
"281160",281160,1989,41,"wr","White rhino",3,-25.2,31.47,345847.24,7212029.75
"281172",281172,1989,41,"wr","White rhino",2,-25.24,31.46,344890.3,7207587.96
"281174",281174,1989,41,"wr","White rhino",2,-25.23,31.46,344877.61,7208695.53
"281181",281181,1989,41,"wr","White rhino",3,-25.2,31.47,345847.24,7212029.75
"281182",281182,1989,41,"wr","White rhino",3,-25.2,31.47,345847.24,7212029.75
"281184",281184,1989,41,"wr","White rhino",2,-25.2,31.47,345847.24,7212029.75
"281187",281187,1989,41,"wr","White rhino",3,-25.19,31.47,345834.65,7213137.32
"281193",281193,1989,41,"wr","White rhino",4,-25.17,31.47,345809.47,7215352.45
"281197",281197,1989,41,"wr","White rhino",2,-25.19,31.46,344826.87,7213125.83
"281199",281199,1989,41,"wr","White rhino",2,-25.2,31.46,344839.55,7212018.26
"281203",281203,1989,41,"wr","White rhino",1,-25.23,31.45,343870.16,7208683.95
"281208",281208,1989,41,"wr","White rhino",2,-25.2,31.45,343831.86,7212006.68
"281211",281211,1989,41,"wr","White rhino",3,-25.19,31.46,344826.87,7213125.83
"281213",281213,1989,41,"wr","White rhino",4,-25.17,31.46,344801.54,7215340.97
"281220",281220,1989,41,"wr","White rhino",3,-25.17,31.46,344801.54,7215340.97
"281221",281221,1989,41,"wr","White rhino",1,-25.18,31.46,344814.2,7214233.4
"281223",281223,1989,41,"wr","White rhino",2,-25.18,31.45,343806.35,7214221.83
"281231",281231,1989,41,"wr","White rhino",5,-25.21,31.45,343844.62,7210899.11
"281235",281235,1989,41,"wr","White rhino",3,-25.22,31.44,342849.86,7209779.88
"281240",281240,1989,41,"wr","White rhino",2,-25.19,31.44,342811.32,7213102.61
"281241",281241,1989,41,"wr","White rhino",1,-25.19,31.44,342811.32,7213102.61
"281246",281246,1989,41,"wr","White rhino",1,-25.16,31.45,343780.85,7216436.98
"281249",281249,1989,41,"wr","White rhino",2,-25.16,31.45,343780.85,7216436.98
"281257",281257,1989,41,"wr","White rhino",2,-25.18,31.44,342798.49,7214210.19
"281260",281260,1989,41,"wr","White rhino",5,-25.2,31.43,341816.46,7211983.31
"281263",281263,1989,41,"wr","White rhino",2,-25.2,31.43,341816.46,7211983.31
"281271",281271,1989,41,"wr","White rhino",2,-25.22,31.42,340834.79,7209756.34
"281273",281273,1989,41,"wr","White rhino",1,-25.21,31.42,340821.77,7210863.93
"281274",281274,1989,41,"wr","White rhino",3,-25.21,31.42,340821.77,7210863.93
"281276",281276,1989,41,"wr","White rhino",3,-25.21,31.42,340821.77,7210863.93
"281277",281277,1989,41,"wr","White rhino",2,-25.2,31.42,340808.76,7211971.52
"281278",281278,1989,41,"wr","White rhino",2,-25.2,31.42,340808.76,7211971.52
"281281",281281,1989,41,"wr","White rhino",2,-25.18,31.43,341790.62,7214198.48
"281289",281289,1989,41,"wr","White rhino",2,-25.16,31.44,342772.83,7216425.34
"281291",281291,1989,41,"wr","White rhino",1,-25.15,31.44,342760.01,7217532.91
"281294",281294,1989,41,"wr","White rhino",4,-25.18,31.43,341790.62,7214198.48
"281296",281296,1989,41,"wr","White rhino",8,-25.19,31.42,340795.76,7213079.1
"281312",281312,1989,41,"wr","White rhino",1,-25.21,31.4,338806.52,7210840.1
"281313",281313,1989,41,"wr","White rhino",1,-25.21,31.39,337798.89,7210828.08
"281314",281314,1989,41,"wr","White rhino",4,-25.2,31.39,337785.64,7211935.67
"281315",281315,1989,41,"wr","White rhino",2,-25.2,31.4,338793.35,7211947.7
"281327",281327,1989,41,"wr","White rhino",2,-25.21,31.38,336791.26,7210815.98
"281332",281332,1989,41,"wr","White rhino",1,-25.18,31.39,337759.14,7214150.86
"281333",281333,1989,41,"wr","White rhino",3,-25.18,31.39,337759.14,7214150.86
"281349",281349,1989,41,"wr","White rhino",2,-25.23,31.39,337825.42,7208612.88
"281351",281351,1989,41,"wr","White rhino",2,-25.23,31.4,338832.89,7208624.91
"281352",281352,1989,41,"wr","White rhino",2,-25.23,31.4,338832.89,7208624.91
"281355",281355,1989,41,"wr","White rhino",2,-25.24,31.4,338846.08,7207517.31
"281359",281359,1989,41,"wr","White rhino",2,-25.25,31.4,338859.27,7206409.72
"281361",281361,1989,41,"wr","White rhino",3,-25.25,31.41,339866.57,7206421.68
"281363",281363,1989,41,"wr","White rhino",2,-25.25,31.43,341881.15,7206445.38
"281366",281366,1989,41,"wr","White rhino",1,-25.26,31.42,340886.9,7205325.98
"281370",281370,1989,41,"wr","White rhino",2,-25.27,31.42,340899.94,7204218.38
"281372",281372,1989,41,"wr","White rhino",1,-25.27,31.42,340899.94,7204218.38
"281390",281390,1989,41,"wr","White rhino",2,-25.26,31.46,344915.7,7205372.8
"281393",281393,1989,41,"wr","White rhino",2,-25.26,31.47,345922.9,7205384.31
"281399",281399,1989,41,"wr","White rhino",1,-25.28,31.43,341920.02,7203122.61
"281402",281402,1989,41,"wr","White rhino",3,-25.27,31.46,344928.41,7204265.22
"281413",281413,1989,41,"wr","White rhino",2,-25.28,31.47,345948.16,7203169.16
"281424",281424,1989,41,"wr","White rhino",4,-25.32,31.41,339958.49,7198668.47
"281425",281425,1989,41,"wr","White rhino",1,-25.32,31.41,339958.49,7198668.47
"281430",281430,1989,41,"wr","White rhino",4,-25.29,31.4,338912.1,7201979.31
"281431",281431,1989,41,"wr","White rhino",2,-25.28,31.4,338898.89,7203086.91
"281434",281434,1989,41,"wr","White rhino",2,-25.28,31.38,336884.78,7203062.73
"281435",281435,1989,41,"wr","White rhino",3,-25.26,31.39,337865.26,7205290.07
"281438",281438,1989,41,"wr","White rhino",3,-25.25,31.38,336844.67,7206385.56
"281442",281442,1989,41,"wr","White rhino",2,-25.25,31.37,335837.37,7206373.37
"281443",281443,1989,41,"wr","White rhino",2,-25.26,31.37,335850.81,7205265.76
"281450",281450,1989,41,"wr","White rhino",1,-25.29,31.35,333877.23,7201918.29
"281451",281451,1989,41,"wr","White rhino",2,-25.25,31.36,334830.06,7206361.11
"281454",281454,1989,41,"wr","White rhino",2,-25.23,31.37,335810.49,7208588.59
"281456",281456,1989,41,"wr","White rhino",1,-25.27,31.35,333849.98,7204133.53
"281457",281457,1989,41,"wr","White rhino",1,-25.3,31.34,332883.96,7200798.23
"281459",281459,1989,41,"wr","White rhino",2,-25.27,31.33,331835.68,7204108.61
"281464",281464,1989,41,"wr","White rhino",2,-25.24,31.35,333809.14,7207456.38
"281465",281465,1989,41,"wr","White rhino",2,-25.25,31.34,332815.43,7206336.35
"281467",281467,1989,41,"wr","White rhino",1,-25.27,31.33,331835.68,7204108.61
"281472",281472,1989,41,"wr","White rhino",2,-25.26,31.32,330814.65,7205203.67
"281473",281473,1989,41,"wr","White rhino",2,-25.25,31.33,331808.11,7206323.86
"281494",281494,1989,41,"wr","White rhino",2,-25.34,31.37,335958.57,7196404.82
"281503",281503,1989,41,"wr","White rhino",2,-25.38,31.34,332993.87,7191937.16
"281521",281521,1989,41,"wr","White rhino",3,-25.37,31.37,335999.07,7193081.95
"281542",281542,1989,41,"wr","White rhino",2,-25.35,31.4,338991.49,7195333.65
"281562",281562,1989,42,"wr","White rhino",1,-25.19,31.59,357927.68,7213269.41
"281564",281564,1989,42,"wr","White rhino",1,-25.2,31.57,355923.97,7212140.6
"281586",281586,1989,42,"wr","White rhino",4,-25.17,31.53,351857.03,7215419.81
"281588",281588,1989,42,"wr","White rhino",1,-25.16,31.53,351844.94,7216527.35
"281603",281603,1989,42,"wr","White rhino",2,-25.14,31.54,352828.95,7218753.39
"281613",281613,1989,42,"wr","White rhino",2,-25.13,31.54,352816.96,7219860.93
"281622",281622,1989,42,"wr","White rhino",1,-25.13,31.55,353825.2,7219871.8
"281665",281665,1989,42,"wr","White rhino",2,-25.1,31.57,355806.47,7223215.91
"281703",281703,1989,42,"wr","White rhino",2,-25.07,31.56,354762.58,7226527.76
"281719",281719,1989,42,"wr","White rhino",2,-25.17,31.52,350849.11,7215408.77
"281723",281723,1989,42,"wr","White rhino",1,-25.17,31.52,350849.11,7215408.77
"281726",281726,1989,42,"wr","White rhino",1,-25.18,31.52,350861.28,7214301.22
"281727",281727,1989,42,"wr","White rhino",2,-25.18,31.52,350861.28,7214301.22
"281741",281741,1989,42,"wr","White rhino",4,-25.2,31.55,353908.65,7212119.03
"281752",281752,1989,42,"wr","White rhino",2,-25.2,31.54,352900.98,7212108.14
"281761",281761,1989,42,"wr","White rhino",2,-25.22,31.52,350910.02,7209871.01
"281771",281771,1989,42,"wr","White rhino",2,-25.21,31.6,358958.46,7211064.87
"281773",281773,1989,42,"wr","White rhino",2,-25.23,31.6,358981.53,7208849.81
"281787",281787,1989,42,"wr","White rhino",1,-25.23,31.53,351929.64,7208774.51
"281793",281793,1989,42,"wr","White rhino",4,-25.24,31.51,349927.07,7207644.76
"281812",281812,1989,42,"wr","White rhino",3,-25.25,31.55,353968.39,7206581.3
"281814",281814,1989,42,"wr","White rhino",1,-25.25,31.52,350946.62,7206548.33
"281819",281819,1989,42,"wr","White rhino",2,-25.26,31.55,353980.35,7205473.75
"281823",281823,1989,42,"wr","White rhino",2,-25.26,31.56,354987.52,7205484.59
"281827",281827,1989,42,"wr","White rhino",1,-25.25,31.6,359004.61,7206634.74
"281836",281836,1989,42,"wr","White rhino",2,-25.26,31.61,360023.32,7205537.67
"281845",281845,1989,42,"wr","White rhino",4,-25.27,31.55,353992.32,7204366.2
"281857",281857,1989,42,"wr","White rhino",1,-25.27,31.6,359027.72,7204419.67
"281858",281858,1989,42,"wr","White rhino",3,-25.27,31.6,359027.72,7204419.67
"281873",281873,1989,42,"wr","White rhino",1,-25.29,31.53,352002.41,7202129.16
"282345",282345,1989,43,"wr","White rhino",1,-25.02,31.45,343602.93,7231942.82
"282383",282383,1989,43,"wr","White rhino",7,-25.03,31.41,339579.22,7230788.46
"282384",282384,1989,43,"wr","White rhino",3,-25.03,31.41,339579.22,7230788.46
"282422",282422,1989,43,"wr","White rhino",3,-25.05,31.38,336578.42,7228537.42
"282453",282453,1989,43,"wr","White rhino",5,-25,31.35,333484.07,7234038.77
"282456",282456,1989,43,"wr","White rhino",1,-24.99,31.35,333470.59,7235146.35
"282475",282475,1989,43,"wr","White rhino",3,-25.06,31.38,336591.68,7227429.84
"282479",282479,1989,43,"wr","White rhino",2,-25.06,31.39,337600.55,7227441.89
"282481",282481,1989,43,"wr","White rhino",2,-25.06,31.39,337600.55,7227441.89
"282485",282485,1989,43,"wr","White rhino",3,-25.08,31.39,337626.93,7225226.73
"282488",282488,1989,43,"wr","White rhino",2,-25.09,31.39,337640.13,7224119.15
"282505",282505,1989,43,"wr","White rhino",4,-25.09,31.4,338648.74,7224131.13
"282512",282512,1989,43,"wr","White rhino",2,-25.06,31.41,339618.27,7227465.76
"282533",282533,1989,43,"wr","White rhino",2,-25.06,31.43,341635.98,7227489.33
"282537",282537,1989,43,"wr","White rhino",2,-25.05,31.43,341623.12,7228596.9
"282553",282553,1989,43,"wr","White rhino",1,-25.08,31.43,341661.7,7225274.2
"282562",282562,1989,43,"wr","White rhino",3,-25.06,31.44,342644.83,7227501.01
"282564",282564,1989,43,"wr","White rhino",1,-25.06,31.44,342644.83,7227501.01
"282565",282565,1989,43,"wr","White rhino",2,-25.05,31.44,342632.05,7228608.57
"282567",282567,1989,43,"wr","White rhino",2,-25.05,31.44,342632.05,7228608.57
"282593",282593,1989,43,"wr","White rhino",2,-25.07,31.46,344675.13,7226416.58
"282630",282630,1989,43,"wr","White rhino",3,-25.09,31.47,345708.97,7224212.93
"282632",282632,1989,43,"wr","White rhino",3,-25.08,31.48,346705.1,7225331.87
"282657",282657,1989,43,"wr","White rhino",2,-25.06,31.49,347689.03,7227558.26
"282679",282679,1989,43,"wr","White rhino",3,-25.03,31.51,349670.1,7230903.24
"282688",282688,1989,43,"wr","White rhino",1,-25.08,31.5,348722.44,7225354.41
"282689",282689,1989,43,"wr","White rhino",5,-25.08,31.5,348722.44,7225354.41
"282703",282703,1989,44,"wr","White rhino",2,-25.18,31.62,360939.52,7214408.26
"282706",282706,1989,44,"wr","White rhino",3,-25.18,31.63,361947.33,7214418.55
"282716",282716,1989,44,"wr","White rhino",2,-25.18,31.7,369001.91,7214488.5
"282718",282718,1989,44,"wr","White rhino",2,-25.19,31.68,366997.19,7213361.39
"282719",282719,1989,44,"wr","White rhino",2,-25.19,31.68,366997.19,7213361.39
"282721",282721,1989,44,"wr","White rhino",2,-25.19,31.67,365989.48,7213351.47
"282755",282755,1989,44,"wr","White rhino",1,-25.21,31.74,373064.16,7211204.36
"282756",282756,1989,44,"wr","White rhino",3,-25.21,31.74,373064.16,7211204.36
"282772",282772,1989,44,"wr","White rhino",6,-25.21,31.76,375079.22,7211223.09
"282824",282824,1989,44,"wr","White rhino",3,-25.26,31.76,375130.32,7205685.65
"282825",282825,1989,44,"wr","White rhino",3,-25.26,31.75,374123.2,7205676.31
"282863",282863,1989,44,"wr","White rhino",2,-25.28,31.83,382199.37,7203533.98
"282874",282874,1989,44,"wr","White rhino",1,-25.28,31.81,380185.5,7203516.27
"282876",282876,1989,44,"wr","White rhino",2,-25.28,31.83,382199.37,7203533.98
"282879",282879,1989,44,"wr","White rhino",2,-25.29,31.85,384222.72,7202443.93
"282895",282895,1989,44,"wr","White rhino",2,-25.31,31.85,384241.72,7200228.98
"282912",282912,1989,44,"wr","White rhino",2,-25.33,31.87,386273.77,7198031.17
"283055",283055,1989,44,"wr","White rhino",2,-25.29,31.69,368112.9,7202296.16
"283063",283063,1989,44,"wr","White rhino",3,-25.27,31.67,366077.16,7204491.38
"283065",283065,1989,44,"wr","White rhino",1,-25.22,31.66,365014.86,7210018.94
"283069",283069,1989,44,"wr","White rhino",2,-25.22,31.65,364007.39,7210008.86
"283070",283070,1989,44,"wr","White rhino",2,-25.22,31.66,365014.86,7210018.94
"283077",283077,1989,44,"wr","White rhino",2,-25.27,31.66,365070.11,7204481.36
"283080",283080,1989,44,"wr","White rhino",3,-25.27,31.66,365070.11,7204481.36
"283090",283090,1989,44,"wr","White rhino",3,-25.26,31.65,364051.91,7205578.79
"283097",283097,1989,44,"wr","White rhino",3,-25.26,31.64,363044.76,7205568.62
"283122",283122,1989,44,"wr","White rhino",4,-25.2,31.61,359954.59,7212182.85
"283156",283156,1989,44,"wr","White rhino",2,-25.38,31.58,357142.75,7192215.44
"283174",283174,1989,44,"wr","White rhino",2,-25.35,31.59,358113.88,7195548.75
"283181",283181,1989,44,"wr","White rhino",1,-25.38,31.59,358148.91,7192226.09
"283182",283182,1989,44,"wr","White rhino",2,-25.38,31.59,358148.91,7192226.09
"283191",283191,1989,44,"wr","White rhino",2,-25.34,31.6,359108.7,7196666.87
"283207",283207,1989,44,"wr","White rhino",2,-25.36,31.6,359131.88,7194451.77
"283223",283223,1989,44,"wr","White rhino",1,-25.34,31.61,360115.2,7196677.36
"283236",283236,1989,44,"wr","White rhino",1,-25.31,31.61,360080.71,7199999.99
"283302",283302,1989,44,"wr","White rhino",2,-25.38,31.63,362173.55,7192267.95
"283361",283361,1989,44,"wr","White rhino",1,-25.3,31.64,363089.68,7201138.51
"283373",283373,1989,44,"wr","White rhino",2,-25.35,31.64,363145.91,7195600.84
"283418",283418,1989,44,"wr","White rhino",2,-25.28,31.65,364074.19,7203363.74
"283419",283419,1989,44,"wr","White rhino",3,-25.28,31.64,363067.21,7203353.57
"283421",283421,1989,44,"wr","White rhino",2,-25.29,31.65,364085.34,7202256.22
"283443",283443,1989,44,"wr","White rhino",1,-25.38,31.66,365192.01,7192298.55
"283448",283448,1989,44,"wr","White rhino",2,-25.36,31.66,365169.8,7194513.62
"283453",283453,1989,44,"wr","White rhino",4,-25.35,31.66,365158.71,7195621.15
"283508",283508,1989,44,"wr","White rhino",2,-25.37,31.68,367193.36,7193426.11
"283510",283510,1989,44,"wr","White rhino",3,-25.36,31.67,366176.12,7194523.66
"283536",283536,1989,44,"wr","White rhino",1,-25.27,31.68,367084.21,7204501.32
"283548",283548,1989,44,"wr","White rhino",2,-25.3,31.68,367116.91,7201178.77
"283599",283599,1989,44,"wr","White rhino",2,-25.37,31.7,369205.8,7193445.82
"283627",283627,1989,44,"wr","White rhino",2,-25.35,31.7,369184.27,7195660.87
"283691",283691,1989,44,"wr","White rhino",1,-25.35,31.74,373209.79,7195699.38
"283738",283738,1989,45,"wr","White rhino",1,-25.13,31.9,389112.01,7220205.33
"283810",283810,1989,45,"wr","White rhino",2,-25.18,31.88,387141.71,7214651.51
"283815",283815,1989,45,"wr","White rhino",3,-25.18,31.88,387141.71,7214651.51
"283818",283818,1989,45,"wr","White rhino",2,-25.2,31.9,389175.3,7212453.24
"283821",283821,1989,45,"wr","White rhino",1,-25.2,31.91,390182.88,7212461.44
"283825",283825,1989,45,"wr","White rhino",1,-25.2,31.93,392198.02,7212477.61
"283872",283872,1989,45,"wr","White rhino",2,-25.22,31.89,388186,7210230.06
"283876",283876,1989,45,"wr","White rhino",2,-25.23,31.91,390209.81,7209139.1
"283877",283877,1989,45,"wr","White rhino",5,-25.23,31.91,390209.81,7209139.1
"283878",283878,1989,45,"wr","White rhino",3,-25.23,31.91,390209.81,7209139.1
"283893",283893,1989,45,"wr","White rhino",5,-25.22,31.86,385163.75,7210204.77
"283903",283903,1989,45,"wr","White rhino",3,-25.24,31.9,389211.54,7208023.44
"283906",283906,1989,45,"wr","White rhino",2,-25.24,31.91,390218.79,7208031.65
"283923",283923,1989,45,"wr","White rhino",2,-25.22,31.85,384156.33,7210196.19
"283937",283937,1989,45,"wr","White rhino",3,-25.26,31.92,391243.84,7205824.89
"283970",283970,1989,45,"wr","White rhino",2,-25.25,31.85,384184.76,7206873.8
"283991",283991,1989,45,"wr","White rhino",3,-25.27,31.88,387224.76,7204684.42
"283999",283999,1989,45,"wr","White rhino",2,-25.27,31.86,385210.75,7204667.46
"284015",284015,1989,45,"wr","White rhino",9,-25.27,31.86,385210.75,7204667.46
"284091",284091,1989,45,"wr","White rhino",2,-25.11,31.87,386068.99,7222395.22
"284133",284133,1989,45,"wr","White rhino",2,-25.11,31.84,383044.01,7222369.56
"284142",284142,1989,45,"wr","White rhino",3,-25.13,31.86,385079.38,7220171.85
"284150",284150,1989,45,"wr","White rhino",3,-25.14,31.86,385088.74,7219064.4
"284165",284165,1989,45,"wr","White rhino",2,-25.13,31.84,383063.05,7220154.66
"284173",284173,1989,45,"wr","White rhino",2,-25.15,31.86,385098.1,7217956.95
"284181",284181,1989,45,"wr","White rhino",1,-25.16,31.86,385107.47,7216849.5
"284184",284184,1989,45,"wr","White rhino",2,-25.15,31.85,384090.11,7217948.39
"284193",284193,1989,45,"wr","White rhino",2,-25.14,31.82,381056.41,7219029.71
"284212",284212,1989,45,"wr","White rhino",2,-25.2,31.86,385144.98,7212419.69
"284214",284214,1989,45,"wr","White rhino",3,-25.19,31.86,385135.6,7213527.14
"284217",284217,1989,45,"wr","White rhino",1,-25.18,31.86,385126.22,7214634.6
"284227",284227,1989,45,"wr","White rhino",2,-25.15,31.82,381066.1,7217922.26
"284250",284250,1989,45,"wr","White rhino",2,-25.17,31.83,382093.34,7215716.13
"284257",284257,1989,45,"wr","White rhino",2,-25.15,31.81,380058.09,7217913.39
"284261",284261,1989,45,"wr","White rhino",1,-25.16,31.8,379059.94,7216796.99
"284269",284269,1989,45,"wr","White rhino",2,-25.17,31.8,379069.81,7215689.53
"284270",284270,1989,45,"wr","White rhino",3,-25.17,31.8,379069.81,7215689.53
"284276",284276,1989,45,"wr","White rhino",3,-25.17,31.79,378061.96,7215680.51
"284277",284277,1989,45,"wr","White rhino",2,-25.18,31.8,379079.68,7214582.06
"284288",284288,1989,45,"wr","White rhino",2,-25.19,31.8,379089.55,7213474.59
"284293",284293,1989,45,"wr","White rhino",2,-25.19,31.78,377074.18,7213456.47
"284295",284295,1989,45,"wr","White rhino",2,-25.19,31.78,377074.18,7213456.47
"284296",284296,1989,45,"wr","White rhino",2,-25.19,31.78,377074.18,7213456.47
"284316",284316,1989,45,"wr","White rhino",2,-25.2,31.78,377084.22,7212349
"284323",284323,1989,45,"wr","White rhino",2,-25.21,31.84,383139.35,7211295
"284328",284328,1989,45,"wr","White rhino",2,-25.22,31.84,383148.9,7210187.54
"284331",284331,1989,45,"wr","White rhino",1,-25.2,31.8,379099.42,7212367.12
"284333",284333,1989,45,"wr","White rhino",1,-25.21,31.79,378101.78,7211250.62
"284338",284338,1989,45,"wr","White rhino",2,-25.22,31.83,382141.48,7210178.81
"284351",284351,1989,45,"wr","White rhino",2,-25.23,31.8,379129.07,7209044.7
"284354",284354,1989,45,"wr","White rhino",2,-25.23,31.8,379129.07,7209044.7
"284355",284355,1989,45,"wr","White rhino",3,-25.23,31.8,379129.07,7209044.7
"284358",284358,1989,45,"wr","White rhino",2,-25.23,31.81,380136.42,7209053.65
"284362",284362,1989,45,"wr","White rhino",4,-25.23,31.82,381143.77,7209062.54
"284398",284398,1989,46,"wr","White rhino",2,-25.18,31.95,394195.88,7214708.36
"284405",284405,1989,46,"wr","White rhino",2,-25.2,31.96,395220.72,7212501.31
"284438",284438,1989,46,"wr","White rhino",4,-25.25,31.98,397277.86,7206979.58
"284459",284459,1989,46,"wr","White rhino",4,-25.25,31.94,393249.25,7206948.38
"284541",284541,1989,46,"wr","White rhino",1,-25.33,31.97,396338.76,7198112.34
"284544",284544,1989,46,"wr","White rhino",2,-25.33,31.97,396338.76,7198112.34
"284860",284860,1989,46,"wr","White rhino",2,-25.29,31.98,397311.53,7202549.83
"284867",284867,1989,46,"wr","White rhino",2,-25.31,31.99,398335.03,7200342.57
"284895",284895,1989,46,"wr","White rhino",3,-25.21,31.98,397244.24,7211409.31
"284900",284900,1989,46,"wr","White rhino",3,-25.22,31.98,397252.64,7210301.88
"284904",284904,1989,46,"wr","White rhino",1,-25.23,31.98,397261.05,7209194.45
"284905",284905,1989,46,"wr","White rhino",2,-25.23,31.98,397261.05,7209194.45
"284936",284936,1989,46,"wr","White rhino",2,-25.17,31.97,396202.87,7215831.35
"284938",284938,1989,46,"wr","White rhino",3,-25.18,31.97,396211.34,7214723.92
"285028",285028,1989,56,"wr","White rhino",2,-25.28,31.48,346955.18,7203180.61
"285029",285029,1989,56,"wr","White rhino",2,-25.28,31.48,346955.18,7203180.61
"285034",285034,1989,56,"wr","White rhino",2,-25.29,31.48,346967.74,7202073.03
"285036",285036,1989,56,"wr","White rhino",2,-25.3,31.48,346980.29,7200965.45
"285039",285039,1989,56,"wr","White rhino",2,-25.31,31.46,344979.3,7199834.88
"285043",285043,1989,56,"wr","White rhino",2,-25.33,31.45,343998.15,7197608.08
"285052",285052,1989,56,"wr","White rhino",1,-25.33,31.46,345004.77,7197619.7
"285053",285053,1989,56,"wr","White rhino",2,-25.33,31.46,345004.77,7197619.7
"285059",285059,1989,56,"wr","White rhino",2,-25.33,31.49,348024.6,7197654.09
"285061",285061,1989,56,"wr","White rhino",2,-25.32,31.5,349018.81,7198772.98
"285070",285070,1989,56,"wr","White rhino",2,-25.3,31.52,351007.71,7201010.52
"285076",285076,1989,56,"wr","White rhino",1,-25.32,31.49,348012.12,7198761.67
"285088",285088,1989,56,"wr","White rhino",6,-25.35,31.5,349056.04,7195450.25
"285093",285093,1989,56,"wr","White rhino",2,-25.31,31.54,353033.46,7199925.04
"285094",285094,1989,56,"wr","White rhino",2,-25.31,31.55,354040.22,7199935.97
"285104",285104,1989,56,"wr","White rhino",2,-25.33,31.52,351044.42,7197687.81
"285152",285152,1989,56,"wr","White rhino",2,-25.38,31.54,353118.05,7192172.07
"285171",285171,1989,56,"wr","White rhino",1,-25.41,31.31,330017.18,7188576.37
"285195",285195,1989,56,"wr","White rhino",1,-25.42,31.34,333048.94,7187506.6
"285217",285217,1989,56,"wr","White rhino",3,-25.36,31.4,339004.74,7194226.03
"285233",285233,1989,56,"wr","White rhino",4,-25.36,31.41,340011.12,7194238.04
"285234",285234,1989,56,"wr","White rhino",2,-25.37,31.41,340024.3,7193130.42
"285236",285236,1989,56,"wr","White rhino",2,-25.4,31.4,339057.78,7189795.56
"285248",285248,1989,56,"wr","White rhino",1,-25.4,31.42,341069.89,7189819.52
"285268",285268,1989,56,"wr","White rhino",2,-25.44,31.33,332070.77,7185278.75
"285306",285306,1989,56,"wr","White rhino",1,-25.5,31.37,336175.05,7178682.68
"285343",285343,1989,56,"wr","White rhino",2,-25.5,31.39,338185.51,7178707.16
"285347",285347,1989,56,"wr","White rhino",1,-25.5,31.38,337180.28,7178694.96
"285380",285380,1989,56,"wr","White rhino",1,-25.49,31.41,340182.72,7179838.97
"285462",285462,1989,56,"wr","White rhino",1,-25.4,31.45,344088.02,7189854.89
"285510",285510,1989,56,"wr","White rhino",2,-25.36,31.48,347055.74,7194319.95
"285553",285553,1989,57,"wr","White rhino",2,-25.07,31.82,380988.66,7226781.88
"285575",285575,1989,57,"wr","White rhino",3,-25.07,31.8,378971.33,7226764.13
"285586",285586,1989,57,"wr","White rhino",3,-25.09,31.82,381008,7224566.99
"285595",285595,1989,57,"wr","White rhino",1,-25.09,31.82,381008,7224566.99
"285615",285615,1989,57,"wr","White rhino",1,-25.1,31.82,381017.67,7223459.53
"285618",285618,1989,57,"wr","White rhino",4,-25.11,31.83,382035.68,7222360.86
"285619",285619,1989,57,"wr","White rhino",2,-25.11,31.83,382035.68,7222360.86
"285620",285620,1989,57,"wr","White rhino",3,-25.11,31.84,383044.01,7222369.56
"285621",285621,1989,57,"wr","White rhino",1,-25.11,31.84,383044.01,7222369.56
"285643",285643,1989,57,"wr","White rhino",1,-25.11,31.81,380019.01,7222343.23
"285670",285670,1989,57,"wr","White rhino",2,-25.09,31.77,375965.47,7224522.01
"285672",285672,1989,57,"wr","White rhino",4,-25.1,31.77,375975.56,7223414.54
"285677",285677,1989,57,"wr","White rhino",2,-25.12,31.81,380028.78,7221235.77
"285678",285678,1989,57,"wr","White rhino",4,-25.12,31.8,379020.52,7221226.84
"285686",285686,1989,57,"wr","White rhino",2,-25.1,31.77,375975.56,7223414.54
"285699",285699,1989,57,"wr","White rhino",2,-25.13,31.8,379030.37,7220119.38
"285702",285702,1989,57,"wr","White rhino",2,-25.11,31.77,375985.65,7222307.08
"285711",285711,1989,57,"wr","White rhino",3,-25.09,31.74,372939.93,7224494.13
"285725",285725,1989,57,"wr","White rhino",2,-25.12,31.77,375995.74,7221199.61
"285727",285727,1989,57,"wr","White rhino",2,-25.11,31.76,374977.3,7222297.85
"285740",285740,1989,57,"wr","White rhino",1,-25.13,31.77,376005.84,7220092.14
"285770",285770,1989,57,"wr","White rhino",3,-25.15,31.74,373001.97,7217849.27
"285807",285807,1989,57,"wr","White rhino",2,-25.17,31.66,364959.72,7215556.49
"285840",285840,1989,58,"wr","White rhino",2,-25.05,31.75,373907.49,7228933.36
"285857",285857,1989,58,"wr","White rhino",2,-25.03,31.73,371869.02,7231129.51
"285859",285859,1989,58,"wr","White rhino",1,-25.03,31.71,369850.99,7231110.43
"285861",285861,1989,58,"wr","White rhino",3,-25.06,31.73,371900.2,7227807.1
"285864",285864,1989,58,"wr","White rhino",2,-25.07,31.73,371910.6,7226699.63
"285888",285888,1989,58,"wr","White rhino",1,-25.05,31.67,365836.66,7228856.41
"285892",285892,1989,58,"wr","White rhino",2,-25.06,31.67,365847.55,7227748.92
"285897",285897,1989,58,"wr","White rhino",3,-25.07,31.67,365858.44,7226641.43
"285910",285910,1989,58,"wr","White rhino",3,-25.11,31.67,365902.06,7222211.47
"285931",285931,1989,58,"wr","White rhino",1,-25.13,31.65,363907.47,7219976.44
"285940",285940,1989,58,"wr","White rhino",1,-25.12,31.64,362888.09,7221073.82
"285953",285953,1989,58,"wr","White rhino",2,-25.16,31.63,361924.8,7216633.58
"285957",285957,1989,58,"wr","White rhino",3,-25.14,31.63,361902.29,7218848.61
"285980",285980,1989,58,"wr","White rhino",1,-25.16,31.63,361924.8,7216633.58
"286139",286139,1989,60,"wr","White rhino",1,-25.03,31.63,361778.76,7231031.13
"286148",286148,1989,60,"wr","White rhino",4,-25.05,31.63,361801.18,7228816.14
"286290",286290,1989,60,"wr","White rhino",3,-25.02,31.71,369840.44,7232217.9
"286322",286322,1989,60,"wr","White rhino",1,-24.99,31.73,371827.5,7235559.36
