"","ID","Year","Cenb","Sp","Description","No","Lat","Long","X.coord","Y.coord"
"388663",388663,1994,64,"rk","Roan antelope calf",1,-23.72,31.32,328741,7375762.59
"396517",396517,1994,43,"rk","Roan antelope calf",1,-22.75,31.17,312092.66,7482994
"396565",396565,1994,44,"rk","Roan antelope calf",1,-22.82,31.24,319374.24,7475329.78
