"","ID","Year","Cenb","Sp","Description","No","Lat","Long","X.coord","Y.coord"
"338903",338903,1992,52,"e","Eland",1,-23.13,31.26,321834.29,7441026.23
"338921",338921,1992,52,"e","Eland",9,-23.13,31.24,319785.97,7441001.64
"338929",338929,1992,52,"e","Eland",1,-23.18,31.25,320876.65,7435477.08
"338966",338966,1992,52,"e","Eland",6,-23.14,31.2,315702.94,7439844.23
"339001",339001,1992,52,"e","Eland",7,-23.13,31.2,315689.26,7440951.63
"339046",339046,1992,52,"e","Eland",3,-23.04,31.28,323765.26,7451016.74
"339062",339062,1992,52,"e","Eland",2,-23.08,31.28,323817.36,7446587.32
"339115",339115,1992,52,"e","Eland",10,-23.12,31.19,314651.34,7442046.35
"339398",339398,1992,53,"e","Eland",1,-23.05,30.97,292008.82,7449502.18
"339402",339402,1992,53,"e","Eland",16,-23.02,30.98,292987.85,7452838.82
"339409",339409,1992,53,"e","Eland",1,-23.03,30.97,291978.09,7451717.15
"339415",339415,1992,53,"e","Eland",6,-23.02,30.96,290937.62,7452810.4
"339421",339421,1992,53,"e","Eland",28,-23.04,30.94,288918.54,7450566.7
"339515",339515,1992,53,"e","Eland",1,-23.15,31.14,309572.36,7438659.66
"339527",339527,1992,53,"e","Eland",1,-23.15,31.13,308548.3,7438646.55
"339544",339544,1992,53,"e","Eland",3,-23.12,31.11,306457.1,7441942.43
"339582",339582,1992,53,"e","Eland",3,-23.17,31.08,303457.16,7436365.04
"339631",339631,1992,53,"e","Eland",1,-23.12,31.05,300311.26,7441861.53
"339798",339798,1992,54,"e","Eland",1,-22.96,31.11,306228.27,7459661.2
"339812",339812,1992,54,"e","Eland",9,-22.94,31.1,305174.11,7461862.8
"339818",339818,1992,54,"e","Eland",10,-22.95,31.09,304162.84,7460742.08
"339819",339819,1992,54,"e","Eland",1,-22.95,31.08,303137.25,7460728.71
"339827",339827,1992,54,"e","Eland",3,-22.93,31.08,303108.31,7462943.56
"339834",339834,1992,54,"e","Eland",3,-22.93,31.07,302082.56,7462930.13
"339840",339840,1992,54,"e","Eland",1,-22.91,31.07,302053.49,7465144.98
"339865",339865,1992,54,"e","Eland",5,-22.95,31.04,299034.83,7460674.53
"339869",339869,1992,54,"e","Eland",1,-22.94,31.03,297994.37,7461768.25
"339906",339906,1992,54,"e","Eland",14,-22.91,30.98,292820.2,7465021.03
"339933",339933,1992,54,"e","Eland",3,-22.93,30.95,289773.24,7462763.49
"340127",340127,1992,54,"e","Eland",2,-23.01,31.18,313475.43,7454214.96
"340142",340142,1992,54,"e","Eland",3,-23.02,31.16,311439.12,7453081.96
"340148",340148,1992,54,"e","Eland",3,-23,31.18,313461.67,7455322.35
"340166",340166,1992,54,"e","Eland",14,-22.97,31.21,316496.65,7458682.34
"340171",340171,1992,54,"e","Eland",9,-22.98,31.19,314459.51,7457549.81
"340175",340175,1992,54,"e","Eland",2,-22.99,31.18,313447.93,7456429.74
"340214",340214,1992,54,"e","Eland",12,-22.97,31.17,312395.05,7458631.76
"340244",340244,1992,54,"e","Eland",3,-22.96,31.16,311355.76,7459726.33
"340257",340257,1992,54,"e","Eland",8,-22.93,31.18,313365.57,7463074.04
"340259",340259,1992,54,"e","Eland",5,-22.93,31.18,313365.57,7463074.04
"340262",340262,1992,54,"e","Eland",1,-22.94,31.17,312353.65,7461953.92
"340263",340263,1992,54,"e","Eland",17,-22.94,31.17,312353.65,7461953.92
"340264",340264,1992,54,"e","Eland",8,-22.94,31.16,311328.01,7461941.11
"340280",340280,1992,54,"e","Eland",8,-22.93,31.17,312339.86,7463061.3
"340317",340317,1992,54,"e","Eland",1,-22.94,31.11,306199.77,7461876.03
"340321",340321,1992,54,"e","Eland",3,-22.93,31.13,308236.99,7463009.67
"340352",340352,1992,54,"e","Eland",15,-22.89,31.13,308180.69,7467439.26
"340430",340430,1992,55,"e","Eland",10,-22.87,31.15,310204.92,7469679.96
"340506",340506,1992,55,"e","Eland",4,-22.81,31.15,310121.62,7476324.24
"340570",340570,1992,55,"e","Eland",3,-22.78,31.09,303918.9,7479568.06
"340581",340581,1992,55,"e","Eland",2,-22.76,31.12,306971.35,7481822.3
"340586",340586,1992,55,"e","Eland",9,-22.78,31.15,310080.05,7479646.37
"340613",340613,1992,55,"e","Eland",1,-22.79,31.07,301879.6,7478434
"340680",340680,1992,47,"e","Eland",4,-22.72,31.3,325406.03,7486475.02
"340689",340689,1992,47,"e","Eland",1,-22.7,31.27,322298.48,7488654.01
"340705",340705,1992,47,"e","Eland",4,-22.66,31.28,323274.6,7493095.17
"340737",340737,1992,47,"e","Eland",1,-22.64,31.22,317081.87,7495237.24
"340764",340764,1992,47,"e","Eland",2,-22.77,31.23,318281.44,7480854.22
"341034",341034,1992,48,"e","Eland",3,-22.88,31.45,340999.94,7468927.77
"341062",341062,1992,49,"e","Eland",2,-22.91,31.22,317441.56,7465338.99
"341069",341069,1992,49,"e","Eland",5,-22.91,31.24,319493.23,7465363.67
"341128",341128,1992,49,"e","Eland",5,-22.98,31.26,321636.69,7457636.64
"341157",341157,1992,49,"e","Eland",2,-23.02,31.36,331939.02,7453325.49
"341438",341438,1992,50,"e","Eland",9,-23.12,31.47,343329.24,7442374.66
"341448",341448,1992,50,"e","Eland",2,-23.13,31.51,347437.17,7441309.79
"341475",341475,1992,50,"e","Eland",2,-23.15,31.5,346435.88,7439084.73
"341585",341585,1992,51,"e","Eland",8,-22.61,31.28,323210.61,7498631.67
"341592",341592,1992,51,"e","Eland",1,-22.65,31.31,326345.07,7494237.82
"341752",341752,1992,6,"e","Eland",3,-23.66,31.41,337843.14,7382512.26
"341760",341760,1992,6,"e","Eland",3,-23.67,31.44,340915.33,7381438.66
"341779",341779,1992,6,"e","Eland",1,-23.68,31.45,341947.31,7380342.41
"342234",342234,1992,8,"e","Eland",3,-23.51,31.37,333573.85,7399077.04
"342266",342266,1992,8,"e","Eland",4,-23.56,31.28,324449.23,7393432.75
"342304",342304,1992,8,"e","Eland",1,-23.46,31.25,321251.68,7404469.9
"342561",342561,1992,9,"e","Eland",1,-23.47,31.16,312070.95,7403247.73
"342581",342581,1992,9,"e","Eland",5,-23.49,31.18,314142.18,7401058.83
"342585",342585,1992,9,"e","Eland",12,-23.53,31.19,315219.45,7396641.94
"342588",342588,1992,9,"e","Eland",7,-23.53,31.2,316240.57,7396654.79
"342594",342594,1992,9,"e","Eland",5,-23.48,31.18,314128.15,7402166.28
"342669",342669,1992,10,"e","Eland",8,-23.37,31.01,296593.62,7414118.83
"342712",342712,1992,10,"e","Eland",3,-23.34,31.06,301661.09,7417510.85
"342730",342730,1992,10,"e","Eland",3,-23.34,31.1,305751.6,7417565.18
"342750",342750,1992,10,"e","Eland",1,-23.35,31.15,310878.81,7416524.05
"342831",342831,1992,10,"e","Eland",1,-23.42,31.17,313022.16,7408798.01
"342858",342858,1992,10,"e","Eland",7,-23.4,31.15,310949.77,7410986.81
"342882",342882,1992,10,"e","Eland",1,-23.43,31.15,310992.42,7407664.45
"342914",342914,1992,10,"e","Eland",6,-23.44,31.13,308962.98,7406530.6
"343049",343049,1992,10,"e","Eland",2,-23.4,31.06,301750.37,7410865.93
"343068",343068,1992,10,"e","Eland",2,-23.44,31.07,302831.87,7406449.69
"343080",343080,1992,10,"e","Eland",2,-23.45,31.07,302846.72,7405342.2
"343125",343125,1992,10,"e","Eland",7,-23.44,31.04,299766.27,7406408.28
"343151",343151,1992,11,"e","Eland",7,-23.37,31.22,318063.66,7414399.12
"343200",343200,1992,11,"e","Eland",7,-23.36,31.27,323162.06,7415568.64
"343264",343264,1992,11,"e","Eland",5,-23.25,31.3,326086.21,7427786.2
"343305",343305,1992,11,"e","Eland",3,-23.24,31.29,325049.93,7428881.55
"343308",343308,1992,11,"e","Eland",2,-23.23,31.3,326060.27,7430000.94
"343309",343309,1992,11,"e","Eland",9,-23.23,31.3,326060.27,7430000.94
"343321",343321,1992,11,"e","Eland",6,-23.2,31.29,324997.79,7433311.03
"343667",343667,1992,12,"e","Eland",8,-23.22,31.06,301483.17,7430800.56
"343717",343717,1992,12,"e","Eland",2,-23.21,31.02,297373.83,7431852.81
"343739",343739,1992,12,"e","Eland",2,-23.23,31,295357.02,7429609.78
"343809",343809,1992,13,"e","Eland",1,-23.62,31.61,358200.06,7387154.45
"344356",344356,1992,14,"e","Eland",6,-23.45,31.35,331455.17,7405697.99
"344387",344387,1992,14,"e","Eland",4,-23.45,31.41,337585.18,7405766.98
"344508",344508,1992,14,"e","Eland",11,-23.59,31.47,343880.31,7390330.64
"344568",344568,1992,15,"e","Eland",5,-23.39,31.49,345688.72,7412498.92
"344587",344587,1992,15,"e","Eland",5,-23.41,31.47,343668.02,7410262.73
"344790",344790,1992,15,"e","Eland",6,-23.38,31.36,332388.65,7413461.24
"345065",345065,1992,18,"e","Eland",1,-23.14,31.43,339256.41,7440116.52
"345374",345374,1992,19,"e","Eland",4,-23.85,31.72,369652.02,7361791.59
"345636",345636,1992,19,"e","Eland",4,-23.85,31.71,368633.56,7361782.36
"345895",345895,1992,1,"e","Eland",2,-23.88,31.57,354408.38,7358323.42
"346315",346315,1992,2,"e","Eland",2,-23.89,31.53,350346.79,7357174.31
"346379",346379,1992,2,"e","Eland",14,-23.87,31.5,347268.7,7359357
"346408",346408,1992,2,"e","Eland",4,-23.96,31.5,347374.5,7349390.55
"346548",346548,1992,2,"e","Eland",1,-23.89,31.43,340164.63,7357064.89
"346592",346592,1992,2,"e","Eland",2,-23.94,31.41,338190.47,7351505.07
"346724",346724,1992,3,"e","Eland",2,-23.87,31.37,334029.67,7359210.63
"348644",348644,1992,64,"e","Eland",20,-22.37,31.24,318785.96,7525158.8
"348669",348669,1992,64,"e","Eland",2,-22.37,31.23,317756.1,7525146.73
"348699",348699,1992,64,"e","Eland",2,-22.38,31.2,314679.75,7524002.78
"348798",348798,1992,64,"e","Eland",4,-22.41,31.15,309571.58,7520618.34
"348813",348813,1992,64,"e","Eland",2,-22.38,31.13,307471.05,7523914.85
"348816",348816,1992,64,"e","Eland",24,-22.4,31.13,307498.59,7521700.18
"348817",348817,1992,64,"e","Eland",5,-22.4,31.13,307498.59,7521700.18
"349489",349489,1992,21,"e","Eland",3,-24.17,31.5,347622.82,7326135.07
"349789",349789,1992,22,"e","Eland",1,-24.27,31.51,348756.99,7315071.72
"358623",358623,1992,40,"e","Eland",8,-25.23,31.27,325735.61,7208462.63
"359072",359072,1992,41,"e","Eland",1,-25.23,31.4,338832.89,7208624.91
