"","ID","Year","Cenb","Sp","Description","No","Lat","Long","X.coord","Y.coord"
"176550",176550,1986,48,"kk","Giraffe calf",1,-22.79,31.4,335761.95,7478838.43
"177110",177110,1986,3,"kk","Giraffe calf",1,-24,31.36,333178.48,7344802.2
"177443",177443,1986,35,"kk","Giraffe calf",1,-24.9,31.61,359613.23,7245407.96
"177677",177677,1986,32,"kk","Giraffe calf",1,-24.5,31.48,345990.41,7289567.39
"177685",177685,1986,32,"kk","Giraffe calf",1,-24.53,31.49,347040.13,7286256.1
"177689",177689,1986,32,"kk","Giraffe calf",2,-24.54,31.5,348065.3,7285159.69
"177754",177754,1986,32,"kk","Giraffe calf",3,-24.56,31.5,348089.4,7282944.75
"177791",177791,1986,32,"kk","Giraffe calf",2,-24.45,31.52,349984.63,7295148.67
"177955",177955,1986,32,"kk","Giraffe calf",2,-24.49,31.58,356112.66,7290782.67
"178069",178069,1986,36,"kk","Giraffe calf",1,-24.78,31.78,376665.75,7258861.76
"178102",178102,1986,36,"kk","Giraffe calf",1,-24.82,31.8,378726.74,7254450.01
"178176",178176,1986,36,"kk","Giraffe calf",1,-24.79,31.81,379708.49,7257781.09
"178192",178192,1986,36,"kk","Giraffe calf",4,-24.78,31.84,382731.93,7258914.58
"178194",178194,1986,36,"kk","Giraffe calf",1,-24.79,31.84,382741.33,7257807.18
"178210",178210,1986,36,"kk","Giraffe calf",1,-24.86,31.84,382807.23,7250055.32
"178215",178215,1986,36,"kk","Giraffe calf",1,-24.88,31.86,384846.5,7247857.56
"178216",178216,1986,36,"kk","Giraffe calf",1,-24.87,31.86,384837.23,7248964.97
"178246",178246,1986,36,"kk","Giraffe calf",1,-24.81,31.85,383770.92,7255600.92
"178264",178264,1986,36,"kk","Giraffe calf",2,-24.79,31.88,386785.07,7257840.92
"178380",178380,1986,29,"kk","Giraffe calf",3,-24.52,31.84,382488.77,7287706.54
"178383",178383,1986,29,"kk","Giraffe calf",1,-24.53,31.84,382498.08,7286599.17
"178431",178431,1986,29,"kk","Giraffe calf",1,-24.56,31.85,383538.82,7283285.55
"178573",178573,1986,29,"kk","Giraffe calf",1,-24.68,31.85,383649.95,7269997.04
"178580",178580,1986,29,"kk","Giraffe calf",2,-24.67,31.83,381616.85,7271087.32
"178618",178618,1986,29,"kk","Giraffe calf",1,-24.66,31.91,389703.29,7272261.33
"178656",178656,1986,29,"kk","Giraffe calf",1,-24.72,31.87,385710.11,7265584.32
"178665",178665,1986,29,"kk","Giraffe calf",1,-24.7,31.86,384680.19,7267790.72
"178677",178677,1986,29,"kk","Giraffe calf",1,-24.7,31.82,380633.51,7267756.48
"178695",178695,1986,29,"kk","Giraffe calf",1,-24.73,31.85,383696.41,7264460.1
"178733",178733,1986,29,"kk","Giraffe calf",1,-24.78,31.86,384753.97,7258931.59
"178819",178819,1986,42,"kk","Giraffe calf",1,-25.28,31.61,360046.26,7203322.6
"178986",178986,1986,42,"kk","Giraffe calf",1,-25.26,31.5,348944.47,7205418.42
"179705",179705,1986,37,"kk","Giraffe calf",1,-24.79,31.96,394872.45,7257904.84
"179709",179709,1986,37,"kk","Giraffe calf",1,-24.8,31.96,394880.88,7256797.47
"179790",179790,1986,37,"kk","Giraffe calf",1,-24.87,31.91,389888.64,7249006.32
"179804",179804,1986,37,"kk","Giraffe calf",1,-24.84,31.92,390872.59,7252336.54
"179812",179812,1986,37,"kk","Giraffe calf",1,-24.83,31.92,390863.82,7253443.93
"179816",179816,1986,37,"kk","Giraffe calf",1,-24.82,31.92,390855.06,7254551.32
"179858",179858,1986,37,"kk","Giraffe calf",2,-24.85,31.91,389870.92,7251221.11
"179873",179873,1986,37,"kk","Giraffe calf",1,-24.87,31.89,387868.08,7248990
"179894",179894,1986,37,"kk","Giraffe calf",2,-24.86,31.88,386848.7,7250089.13
"179905",179905,1986,37,"kk","Giraffe calf",3,-24.82,31.9,388833.69,7254535.17
"179911",179911,1986,37,"kk","Giraffe calf",1,-24.81,31.91,389835.53,7255650.67
"179946",179946,1986,37,"kk","Giraffe calf",1,-25.18,32.02,401249.95,7214761.53
"179992",179992,1986,37,"kk","Giraffe calf",1,-25.06,32,399136.04,7228035.66
"180008",180008,1986,37,"kk","Giraffe calf",1,-25.08,32.01,400160.96,7225828.27
"180054",180054,1986,37,"kk","Giraffe calf",1,-25.14,32,399201.64,7219176.38
"180075",180075,1986,37,"kk","Giraffe calf",1,-25.16,32,399218.07,7216961.55
"180110",180110,1986,37,"kk","Giraffe calf",1,-24.93,32,399029.86,7242431.78
"180207",180207,1986,37,"kk","Giraffe calf",1,-25.07,31.99,398135.6,7226920.76
"180245",180245,1986,37,"kk","Giraffe calf",1,-25.1,31.97,396143.67,7223583.3
"180289",180289,1986,37,"kk","Giraffe calf",1,-25.13,31.99,398185.29,7220276.29
"180529",180529,1986,39,"kk","Giraffe calf",2,-24.98,31.31,329418.96,7236204.21
"180564",180564,1986,39,"kk","Giraffe calf",3,-25.01,31.27,325423.16,7232830.47
"180646",180646,1986,39,"kk","Giraffe calf",1,-25.02,31.33,331492.64,7231798.86
"180733",180733,1986,39,"kk","Giraffe calf",1,-25.05,31.23,321443.81,7228347.79
"180902",180902,1986,39,"kk","Giraffe calf",1,-25.13,31.22,320551.58,7219473.4
"180904",180904,1986,39,"kk","Giraffe calf",1,-25.14,31.2,318549.67,7218338.98
"181043",181043,1986,33,"kk","Giraffe calf",1,-24.69,31.6,358364.76,7268654.5
"181165",181165,1986,33,"kk","Giraffe calf",4,-24.58,31.53,351151.69,7280762.57
"181225",181225,1986,33,"kk","Giraffe calf",1,-24.58,31.62,360266.05,7280856.88
"181244",181244,1986,33,"kk","Giraffe calf",1,-24.61,31.65,363336.71,7277564.71
"181354",181354,1986,38,"kk","Giraffe calf",2,-24.97,31.8,378873.22,7237838.59
"181440",181440,1986,38,"kk","Giraffe calf",1,-24.96,31.88,386939.89,7239015.03
"181468",181468,1986,38,"kk","Giraffe calf",2,-24.91,31.89,387904.21,7244560.38
"181489",181489,1986,38,"kk","Giraffe calf",1,-25.1,31.92,391101.72,7223543.91
"181507",181507,1986,38,"kk","Giraffe calf",2,-25.08,31.91,390075.46,7225750.67
"181523",181523,1986,38,"kk","Giraffe calf",3,-25.07,31.87,386031.94,7226824.97
"181557",181557,1986,38,"kk","Giraffe calf",1,-25,31.89,387985.68,7234593.66
"181616",181616,1986,38,"kk","Giraffe calf",2,-25,31.8,378902.61,7234516.26
"181624",181624,1986,38,"kk","Giraffe calf",1,-24.99,31.8,378892.81,7235623.71
"181639",181639,1986,34,"kk","Giraffe calf",1,-24.77,31.86,384744.73,7260038.99
"181643",181643,1986,34,"kk","Giraffe calf",1,-24.76,31.86,384735.5,7261146.38
"181647",181647,1986,34,"kk","Giraffe calf",2,-24.76,31.86,384735.5,7261146.38
"181661",181661,1986,34,"kk","Giraffe calf",3,-24.76,31.85,383724.32,7261137.92
"181680",181680,1986,34,"kk","Giraffe calf",3,-24.7,31.81,379621.83,7267747.73
"181839",181839,1986,34,"kk","Giraffe calf",1,-24.66,31.72,370475.32,7272095.39
"181845",181845,1986,34,"kk","Giraffe calf",2,-24.66,31.73,371487.34,7272104.79
"181878",181878,1986,34,"kk","Giraffe calf",1,-24.64,31.78,376527.73,7274365.47
"181880",181880,1986,34,"kk","Giraffe calf",1,-24.64,31.78,376527.73,7274365.47
"181980",181980,1986,34,"kk","Giraffe calf",2,-24.68,31.69,367460.38,7269851.9
"181988",181988,1986,34,"kk","Giraffe calf",1,-24.68,31.68,366448.51,7269842.2
"182006",182006,1986,34,"kk","Giraffe calf",1,-24.7,31.72,370516.65,7267665.71
"182037",182037,1986,34,"kk","Giraffe calf",1,-24.71,31.75,373561.83,7266586.3
"182061",182061,1986,34,"kk","Giraffe calf",1,-24.71,31.73,371538.61,7266567.7
"182084",182084,1986,34,"kk","Giraffe calf",1,-24.72,31.71,369525.8,7265441.37
"182239",182239,1986,40,"kk","Giraffe calf",2,-25.17,31.25,323634.13,7215082.42
"182268",182268,1986,40,"kk","Giraffe calf",1,-25.18,31.25,323648.53,7213974.78
"182371",182371,1986,40,"kk","Giraffe calf",1,-25.21,31.25,323691.75,7210651.84
"182406",182406,1986,40,"kk","Giraffe calf",2,-25.23,31.29,327750.61,7208488.42
"182437",182437,1986,40,"kk","Giraffe calf",1,-25.24,31.26,324742.44,7207341.98
"182480",182480,1986,40,"kk","Giraffe calf",1,-25.29,31.29,327835.27,7201842.58
"182608",182608,1986,57,"kk","Giraffe calf",1,-25.13,31.73,371973.09,7220054.77
"182617",182617,1986,57,"kk","Giraffe calf",1,-25.11,31.72,370943.88,7222260.21
"183223",183223,1986,31,"kk","Giraffe calf",1,-24.4,31.76,374264.65,7300924.61
"183356",183356,1986,31,"kk","Giraffe calf",1,-24.42,31.73,371242.63,7298682.32
"183438",183438,1986,31,"kk","Giraffe calf",2,-24.44,31.69,367207.76,7296429.77
"183508",183508,1986,31,"kk","Giraffe calf",1,-24.46,31.7,368242.36,7294224.54
"183703",183703,1986,31,"kk","Giraffe calf",3,-24.5,31.73,371323.95,7289823.23
"183755",183755,1986,31,"kk","Giraffe calf",1,-24.56,31.72,370372.28,7283169.49
"183796",183796,1986,31,"kk","Giraffe calf",1,-24.56,31.65,363282.42,7283101.84
"183866",183866,1986,31,"kk","Giraffe calf",2,-24.6,31.78,376488.43,7278795.04
"183891",183891,1986,25,"kk","Giraffe calf",1,-24.16,31.75,373012.09,7327492.03
"183896",183896,1986,25,"kk","Giraffe calf",1,-24.16,31.79,377076.11,7327527.75
"183906",183906,1986,25,"kk","Giraffe calf",2,-24.15,31.77,375034.38,7328617.37
"183972",183972,1986,25,"kk","Giraffe calf",3,-24.1,31.8,378035.22,7334180.42
"183974",183974,1986,25,"kk","Giraffe calf",1,-24.1,31.8,378035.22,7334180.42
"184119",184119,1986,25,"kk","Giraffe calf",1,-24.02,31.82,379993.77,7343056.11
"184177",184177,1986,25,"kk","Giraffe calf",1,-24.01,31.81,378967.31,7344154.85
"184190",184190,1986,25,"kk","Giraffe calf",1,-24.02,31.79,376942.46,7343030.2
"184194",184194,1986,25,"kk","Giraffe calf",1,-24.03,31.79,376951.99,7341922.89
"184198",184198,1986,25,"kk","Giraffe calf",3,-24.03,31.78,375934.96,7341914.11
"184207",184207,1986,25,"kk","Giraffe calf",1,-24.04,31.77,374927.61,7340797.93
"184245",184245,1986,25,"kk","Giraffe calf",1,-24.02,31.77,374908.25,7343012.56
"184255",184255,1986,25,"kk","Giraffe calf",1,-24.01,31.78,375915.76,7344128.73
"184259",184259,1986,25,"kk","Giraffe calf",6,-24.01,31.79,376932.95,7344137.51
"184261",184261,1986,25,"kk","Giraffe calf",1,-24.01,31.8,377950.13,7344146.21
"184285",184285,1986,25,"kk","Giraffe calf",2,-24,31.78,375906.17,7345236.04
"184513",184513,1986,25,"kk","Giraffe calf",2,-24.13,31.87,385177.24,7330917.6
"184628",184628,1986,25,"kk","Giraffe calf",1,-24.12,31.89,387200.91,7332041.14
"184637",184637,1986,25,"kk","Giraffe calf",3,-24.14,31.89,387218.45,7329826.55
"184639",184639,1986,25,"kk","Giraffe calf",1,-24.15,31.9,388243.28,7328727.27
"184641",184641,1986,25,"kk","Giraffe calf",1,-24.15,31.9,388243.28,7328727.27
"184644",184644,1986,25,"kk","Giraffe calf",1,-24.16,31.9,388251.98,7327619.97
"184657",184657,1986,26,"kk","Giraffe calf",1,-24.17,31.75,373021.98,7326384.69
"184665",184665,1986,26,"kk","Giraffe calf",1,-24.18,31.83,381158.62,7325347.66
"184686",184686,1986,26,"kk","Giraffe calf",3,-24.19,31.77,375073.32,7324188.03
"184691",184691,1986,26,"kk","Giraffe calf",1,-24.19,31.79,377104.85,7324205.76
"184693",184693,1986,26,"kk","Giraffe calf",4,-24.2,31.8,378130.12,7323107.18
"184700",184700,1986,26,"kk","Giraffe calf",1,-24.2,31.81,379145.8,7323115.87
"184708",184708,1986,26,"kk","Giraffe calf",1,-24.2,31.78,376098.75,7323089.6
"184810",184810,1986,26,"kk","Giraffe calf",1,-24.27,31.77,375151.38,7315329.29
"184824",184824,1986,26,"kk","Giraffe calf",2,-24.29,31.84,382275.69,7313175.55
"184828",184828,1986,26,"kk","Giraffe calf",1,-24.28,31.85,383281.5,7314291.3
"184943",184943,1986,26,"kk","Giraffe calf",1,-24.33,31.77,375210.08,7308685.17
"185033",185033,1986,26,"kk","Giraffe calf",1,-24.36,31.78,376253.9,7305372.04
"185042",185042,1986,26,"kk","Giraffe calf",4,-24.37,31.77,375249.29,7304255.73
"185218",185218,1986,24,"kk","Giraffe calf",3,-24.36,31.76,374225.07,7305354.08
"185230",185230,1986,24,"kk","Giraffe calf",2,-24.38,31.72,370187.79,7303102.51
"185233",185233,1986,24,"kk","Giraffe calf",2,-24.37,31.72,370177.58,7304209.89
"185292",185292,1986,24,"kk","Giraffe calf",1,-24.35,31.59,356968.32,7306296.96
"185358",185358,1986,24,"kk","Giraffe calf",1,-24.36,31.72,370167.37,7305317.26
"185365",185365,1986,24,"kk","Giraffe calf",1,-24.34,31.75,373190.72,7307559.71
"185376",185376,1986,24,"kk","Giraffe calf",3,-24.35,31.72,370157.17,7306424.64
"185414",185414,1986,24,"kk","Giraffe calf",1,-24.33,31.63,361004.64,7308552.36
"185422",185422,1986,24,"kk","Giraffe calf",2,-24.33,31.6,357960.55,7308522.04
"185477",185477,1986,24,"kk","Giraffe calf",2,-24.32,31.7,368097.08,7309727.93
"185515",185515,1986,24,"kk","Giraffe calf",2,-24.29,31.67,365021.06,7313021.3
"185552",185552,1986,24,"kk","Giraffe calf",2,-24.28,31.56,353844.43,7314017.67
"185577",185577,1986,24,"kk","Giraffe calf",5,-24.27,31.6,357893.73,7315166.45
"185581",185581,1986,24,"kk","Giraffe calf",2,-24.27,31.61,358908.91,7315176.62
"185640",185640,1986,24,"kk","Giraffe calf",1,-24.26,31.64,361943.62,7316314.05
"185658",185658,1986,24,"kk","Giraffe calf",2,-24.26,31.6,357882.6,7316273.85
"185662",185662,1986,24,"kk","Giraffe calf",1,-24.26,31.6,357882.6,7316273.85
"185773",185773,1986,24,"kk","Giraffe calf",1,-22.8,31.16,311134.45,7477444.43
"185932",185932,1986,24,"kk","Giraffe calf",2,-22.79,31.13,308040.35,7478513.16
"186761",186761,1986,22,"kk","Giraffe calf",1,-24.31,31.47,344744.81,7310597.94
"186765",186765,1986,22,"kk","Giraffe calf",1,-24.31,31.51,348804.39,7310642
"186940",186940,1986,22,"kk","Giraffe calf",2,-24.47,31.43,340885.74,7292833.17
"187027",187027,1986,22,"kk","Giraffe calf",2,-24.44,31.48,345917.38,7296212.18
"187080",187080,1986,22,"kk","Giraffe calf",1,-24.45,31.51,348970.86,7295137.8
"187134",187134,1986,22,"kk","Giraffe calf",6,-24.42,31.54,351977.13,7298492.53
"187149",187149,1986,22,"kk","Giraffe calf",3,-24.4,31.55,352967.96,7300718.05
"187411",187411,1986,22,"kk","Giraffe calf",1,-24.37,31.46,343803.54,7303942.02
"187461",187461,1986,22,"kk","Giraffe calf",2,-24.39,31.4,337742.47,7301658.22
"187504",187504,1986,22,"kk","Giraffe calf",1,-24.39,31.42,339771.03,7301681.47
"188249",188249,1986,9,"kk","Giraffe calf",1,-23.62,31.13,309222.81,7386596.02
"189044",189044,1986,30,"kk","Giraffe calf",1,-24.59,31.97,395717.04,7280059.64
"189054",189054,1986,30,"kk","Giraffe calf",3,-24.6,31.99,397750.22,7278967.31
"189090",189090,1986,30,"kk","Giraffe calf",3,-24.63,31.98,396762.41,7275637.81
"189161",189161,1986,30,"kk","Giraffe calf",1,-24.66,31.95,393751.18,7272292.88
"189195",189195,1986,30,"kk","Giraffe calf",1,-24.65,31.98,396778.85,7273423.11
"189208",189208,1986,30,"kk","Giraffe calf",2,-24.68,31.99,397815.33,7270108.54
"189226",189226,1986,30,"kk","Giraffe calf",2,-24.68,31.96,394779.93,7270085.87
"189555",189555,1986,30,"kk","Giraffe calf",1,-24.77,31.91,389800.19,7260080.21
"189586",189586,1986,30,"kk","Giraffe calf",1,-24.59,31.99,397742.1,7280074.65
"189612",189612,1986,30,"kk","Giraffe calf",1,-24.55,31.99,397709.63,7284503.99
"189626",189626,1986,30,"kk","Giraffe calf",1,-24.54,31.98,396688.59,7285603.87
"189651",189651,1986,30,"kk","Giraffe calf",3,-24.5,31.98,396655.86,7290033.19
"189662",189662,1986,30,"kk","Giraffe calf",3,-24.5,31.99,397669.11,7290040.63
"189675",189675,1986,30,"kk","Giraffe calf",1,-24.47,31.97,395617.86,7293347.66
"189680",189680,1986,30,"kk","Giraffe calf",1,-24.46,31.98,396623.18,7294462.49
"189701",189701,1986,30,"kk","Giraffe calf",2,-24.49,31.99,397661.02,7291147.96
"189846",189846,1986,46,"kk","Giraffe calf",3,-25.24,32.01,400291.13,7208109.62
"189911",189911,1986,46,"kk","Giraffe calf",1,-25.17,31.95,394187.25,7215815.79
"190137",190137,1986,46,"kk","Giraffe calf",2,-25.29,31.93,392277.42,7202510.6
"190166",190166,1986,46,"kk","Giraffe calf",1,-25.32,31.93,392303.94,7199188.23
"190314",190314,1986,27,"kk","Giraffe calf",1,-24.43,32,398626.32,7297799.23
"190331",190331,1986,27,"kk","Giraffe calf",2,-24.38,31.98,396557.98,7303321.02
"190336",190336,1986,27,"kk","Giraffe calf",1,-24.37,31.98,396549.84,7304428.33
"190343",190343,1986,27,"kk","Giraffe calf",1,-24.36,31.97,395527.34,7305528.16
"190345",190345,1986,27,"kk","Giraffe calf",1,-24.36,31.97,395527.34,7305528.16
"190355",190355,1986,27,"kk","Giraffe calf",2,-24.33,31.98,396517.33,7308857.56
"190360",190360,1986,27,"kk","Giraffe calf",1,-24.32,31.98,396509.21,7309964.86
"190413",190413,1986,27,"kk","Giraffe calf",2,-24.37,31.94,392492.67,7304397.94
"190415",190415,1986,27,"kk","Giraffe calf",2,-24.37,31.94,392492.67,7304397.94
"190417",190417,1986,27,"kk","Giraffe calf",1,-24.37,31.95,393506.97,7304405.65
"190424",190424,1986,27,"kk","Giraffe calf",1,-24.37,31.95,393506.97,7304405.65
"190512",190512,1986,27,"kk","Giraffe calf",1,-24.32,31.93,391435.75,7309926.75
"190537",190537,1986,27,"kk","Giraffe calf",1,-24.31,31.92,390412.45,7311026.22
"190591",190591,1986,27,"kk","Giraffe calf",1,-24.28,31.92,390386.69,7314348.16
"190615",190615,1986,27,"kk","Giraffe calf",1,-24.27,31.86,384287.48,7315406.97
"190731",190731,1986,27,"kk","Giraffe calf",2,-24.19,31.87,385230.88,7324273.76
"190798",190798,1986,28,"kk","Giraffe calf",1,-24.58,31.91,389633.07,7281120.23
"190873",190873,1986,28,"kk","Giraffe calf",3,-24.56,31.89,387589.99,7283318.77
"190887",190887,1986,28,"kk","Giraffe calf",2,-24.56,31.94,392653.89,7283358.63
"190939",190939,1986,28,"kk","Giraffe calf",1,-24.55,31.95,393658.23,7284473.73
"191122",191122,1986,28,"kk","Giraffe calf",2,-24.42,31.78,376312.33,7298727.87
"191194",191194,1986,28,"kk","Giraffe calf",1,-24.43,31.84,382405.17,7297672.76
"191223",191223,1986,28,"kk","Giraffe calf",1,-24.4,31.84,382377.36,7300994.81
"191276",191276,1986,28,"kk","Giraffe calf",1,-24.4,31.85,383391.44,7301003.26
"191289",191289,1986,28,"kk","Giraffe calf",3,-24.42,31.87,385437.65,7298805.25
"191376",191376,1986,28,"kk","Giraffe calf",2,-24.47,31.92,390550.38,7293309
"191386",191386,1986,28,"kk","Giraffe calf",1,-24.46,31.92,390541.73,7294416.34
"191417",191417,1986,28,"kk","Giraffe calf",1,-24.48,31.94,392585.86,7292217.35
"191447",191447,1986,28,"kk","Giraffe calf",2,-24.46,31.95,393582.47,7294439.74
"191449",191449,1986,28,"kk","Giraffe calf",1,-24.46,31.94,392568.89,7294432.02
"191468",191468,1986,28,"kk","Giraffe calf",2,-24.5,31.96,394629.36,7290018.08
"192530",192530,1986,45,"kk","Giraffe calf",1,-25.12,31.89,388094.74,7221304.51
"192584",192584,1986,45,"kk","Giraffe calf",1,-25.12,31.87,386078.27,7221287.77
"192590",192590,1986,45,"kk","Giraffe calf",1,-25.12,31.87,386078.27,7221287.77
"192674",192674,1986,45,"kk","Giraffe calf",2,-25.15,31.9,389130.07,7217990.45
"192741",192741,1986,45,"kk","Giraffe calf",2,-25.16,31.92,391154.92,7216899.32
"192935",192935,1986,45,"kk","Giraffe calf",1,-25.2,31.84,383129.8,7212402.47
"193103",193103,1986,45,"kk","Giraffe calf",1,-25.26,31.81,380165.86,7205731.23
"193260",193260,1986,41,"kk","Giraffe calf",2,-25.1,31.5,348747.03,7223139.32
"193283",193283,1986,41,"kk","Giraffe calf",1,-25.24,31.48,346905.02,7207610.9
"193329",193329,1986,41,"kk","Giraffe calf",1,-25.18,31.49,347837.76,7214267.65
"193337",193337,1986,41,"kk","Giraffe calf",1,-25.22,31.48,346879.96,7209826.04
"193443",193443,1986,41,"kk","Giraffe calf",1,-25.2,31.44,342824.16,7211995.04
"193660",193660,1986,41,"kk","Giraffe calf",1,-25.24,31.41,339853.46,7207529.28
"193665",193665,1986,41,"kk","Giraffe calf",1,-25.25,31.43,341881.15,7206445.38
"193856",193856,1986,41,"kk","Giraffe calf",1,-25.3,31.34,332883.96,7200798.23
"193912",193912,1986,41,"kk","Giraffe calf",1,-25.37,31.38,337005.38,7193094.18
"193955",193955,1986,43,"kk","Giraffe calf",1,-25.02,31.36,334520.25,7231835.86
"194054",194054,1986,43,"kk","Giraffe calf",1,-25.08,31.41,339644.32,7225250.62
"194265",194265,1986,43,"kk","Giraffe calf",1,-25.08,31.5,348722.44,7225354.41
"194470",194470,1986,43,"kk","Giraffe calf",1,-25,31.51,349633.56,7234225.83
"194555",194555,1986,20,"kk","Giraffe calf",1,-24.09,31.36,333294.76,7334835.14
"194718",194718,1986,20,"kk","Giraffe calf",1,-24.08,31.52,349549.57,7336123.36
"194749",194749,1986,20,"kk","Giraffe calf",2,-24.08,31.54,351582.98,7336144.65
"194942",194942,1986,19,"kk","Giraffe calf",2,-23.63,31.68,365352.18,7386114.85
"195101",195101,1986,19,"kk","Giraffe calf",1,-23.57,31.61,358146.29,7392690.97
"195846",195846,1986,44,"kk","Giraffe calf",1,-25.3,31.82,381211.92,7201310.21
"195865",195865,1986,44,"kk","Giraffe calf",1,-25.3,31.83,382218.69,7201319.03
"195889",195889,1986,44,"kk","Giraffe calf",1,-25.31,31.86,385248.4,7200237.58
"196260",196260,1986,2,"kk","Giraffe calf",1,-24.01,31.47,344381.62,7343820.74
"196264",196264,1986,2,"kk","Giraffe calf",1,-24,31.46,343352.23,7344917.06
"196685",196685,1986,13,"kk","Giraffe calf",1,-23.73,31.58,355260.45,7374943.8
"196701",196701,1986,13,"kk","Giraffe calf",1,-23.71,31.64,361355.86,7377218.15
"196723",196723,1986,13,"kk","Giraffe calf",1,-23.74,31.64,361387.59,7373896.22
"196775",196775,1986,13,"kk","Giraffe calf",1,-23.8,31.59,356356.77,7367202.6
"196777",196777,1986,13,"kk","Giraffe calf",3,-23.8,31.6,357375.66,7367212.69
"197243",197243,1986,51,"kk","Giraffe calf",1,-22.7,31.31,326408.04,7488701.35
"197284",197284,1986,56,"kk","Giraffe calf",1,-25.32,31.5,349018.81,7198772.98
"197792",197792,1986,4,"kk","Giraffe calf",2,-23.73,31.28,324675.97,7374606.46
"197799",197799,1986,4,"kk","Giraffe calf",1,-23.75,31.28,324702.74,7372391.57
"198140",198140,1986,21,"kk","Giraffe calf",2,-24.21,31.44,341576.18,7321638.64
"199297",199297,1986,23,"kk","Giraffe calf",1,-24.21,31.65,362905.3,7321860.81
"199311",199311,1986,23,"kk","Giraffe calf",2,-24.2,31.69,366957.47,7323006.85
"199316",199316,1986,23,"kk","Giraffe calf",2,-24.19,31.67,364915.5,7324095.03
"199404",199404,1986,23,"kk","Giraffe calf",2,-24.15,31.66,363857.28,7328514.79
"199477",199477,1986,23,"kk","Giraffe calf",2,-24.11,31.65,362798.49,7332934.49
"199531",199531,1986,23,"kk","Giraffe calf",2,-24.07,31.67,364789.38,7337383.32
"199746",199746,1986,60,"kk","Giraffe calf",1,-25,31.66,364773,7234383.88
"199851",199851,1986,60,"kk","Giraffe calf",1,-24.98,31.72,370807.7,7236657.33
"201556",201556,1986,5,"kk","Giraffe calf",1,-23.82,31.51,348228.84,7364904.61
"201583",201583,1986,5,"kk","Giraffe calf",2,-23.77,31.43,340017.48,7370353.65
"201638",201638,1986,5,"kk","Giraffe calf",1,-23.79,31.46,343098.98,7368172.35
"201691",201691,1986,5,"kk","Giraffe calf",1,-23.86,31.41,338090.84,7360364.37
"201706",201706,1986,5,"kk","Giraffe calf",1,-23.79,31.4,336984.9,7368104.75
"201859",201859,1986,1,"kk","Giraffe calf",1,-23.87,31.61,358470.54,7359471.35
"201861",201861,1986,1,"kk","Giraffe calf",1,-23.86,31.61,358459.67,7360578.69
"201893",201893,1986,1,"kk","Giraffe calf",2,-23.87,31.63,360507.2,7359491.2
"201894",201894,1986,1,"kk","Giraffe calf",1,-23.88,31.63,360517.92,7358383.86
"202026",202026,1986,1,"kk","Giraffe calf",4,-23.98,31.74,371817.28,7347414.85
"202181",202181,1986,1,"kk","Giraffe calf",2,-23.99,31.71,368775.1,7346279.91
"202203",202203,1986,1,"kk","Giraffe calf",1,-24,31.68,365733.37,7345144.31
"202251",202251,1986,1,"kk","Giraffe calf",1,-24.02,31.72,369822.66,7342967.21
"202367",202367,1986,1,"kk","Giraffe calf",1,-24.04,31.7,367808.87,7340733.9
"202634",202634,1986,54,"kk","Giraffe calf",1,-22.98,31.2,315484.84,7457562.42
"202642",202642,1986,54,"kk","Giraffe calf",1,-22.99,31.21,316523.67,7456467.6
"202759",202759,1986,54,"kk","Giraffe calf",2,-23.03,31.21,316577.78,7452038.09
"202762",202762,1986,54,"kk","Giraffe calf",1,-23.02,31.21,316564.24,7453145.47
"202796",202796,1986,54,"kk","Giraffe calf",1,-23.02,31.18,313489.18,7453107.57
