"","ID","Year","Cenb","Sp","Description","No","Lat","Long","X.coord","Y.coord"
"46206",46206,1981,1,"w","Blue wildebeest",21,-23.99,31.65,362670.87,7346222.73
"46428",46428,1981,1,"w","Blue wildebeest",4,-23.99,31.69,366740.37,7346261.14
"46555",46555,1981,1,"w","Blue wildebeest",4,-23.97,31.71,368754.83,7348494.56
"46577",46577,1981,1,"w","Blue wildebeest",7,-23.99,31.71,368775.1,7346279.91
"46622",46622,1981,1,"w","Blue wildebeest",2,-23.99,31.76,373861.88,7346325.58
"46892",46892,1981,2,"w","Blue wildebeest",6,-23.89,31.53,350346.79,7357174.31
"46901",46901,1981,2,"w","Blue wildebeest",5,-23.91,31.51,348333.73,7354938.25
"46977",46977,1981,2,"w","Blue wildebeest",1,-23.89,31.55,352383.19,7357195.33
"46998",46998,1981,2,"w","Blue wildebeest",11,-23.87,31.55,352360.49,7359410.06
"46999",46999,1981,2,"w","Blue wildebeest",14,-23.87,31.55,352360.49,7359410.06
"47092",47092,1981,3,"w","Blue wildebeest",9,-23.91,31.17,313718.1,7354531.65
"47117",47117,1981,3,"w","Blue wildebeest",7,-23.87,31.17,313660.78,7358961.68
"47118",47118,1981,3,"w","Blue wildebeest",20,-23.87,31.17,313660.78,7358961.68
"47128",47128,1981,3,"w","Blue wildebeest",1,-24.06,31.23,320035.72,7337997.07
"47129",47129,1981,3,"w","Blue wildebeest",2,-24.06,31.23,320035.72,7337997.07
"47273",47273,1981,3,"w","Blue wildebeest",2,-24.06,31.26,323086.6,7338035.18
"47274",47274,1981,3,"w","Blue wildebeest",18,-24.06,31.26,323086.6,7338035.18
"47332",47332,1981,3,"w","Blue wildebeest",1,-24.03,31.28,325079.84,7341382.67
"47333",47333,1981,3,"w","Blue wildebeest",3,-24.03,31.28,325079.84,7341382.67
"47395",47395,1981,3,"w","Blue wildebeest",7,-23.89,31.28,324890.77,7356887.25
"47411",47411,1981,3,"w","Blue wildebeest",16,-23.91,31.28,324917.72,7354672.32
"47479",47479,1981,3,"w","Blue wildebeest",15,-24.03,31.3,327114.2,7341407.4
"47492",47492,1981,3,"w","Blue wildebeest",7,-24.03,31.32,329148.55,7341431.84
"47549",47549,1981,3,"w","Blue wildebeest",9,-24.06,31.34,331222.11,7338133.62
"47695",47695,1981,4,"w","Blue wildebeest",7,-23.78,31.15,311493.75,7368902.75
"47890",47890,1981,4,"w","Blue wildebeest",9,-23.74,31.19,315514.09,7373385.19
"48091",48091,1981,4,"w","Blue wildebeest",9,-23.74,31.23,319592.02,7373436.5
"48180",48180,1981,4,"w","Blue wildebeest",5,-23.78,31.26,322704.65,7369044.41
"48244",48244,1981,4,"w","Blue wildebeest",5,-23.85,31.3,326874.13,7361341.67
"48484",48484,1981,5,"w","Blue wildebeest",8,-23.83,31.44,341109.67,7363720.54
"48533",48533,1981,5,"w","Blue wildebeest",7,-23.81,31.46,343123.01,7365957.58
"48561",48561,1981,5,"w","Blue wildebeest",6,-23.83,31.48,345184.44,7363764.8
"48606",48606,1981,5,"w","Blue wildebeest",21,-23.85,31.51,348263.76,7361582.5
"48686",48686,1981,5,"w","Blue wildebeest",7,-23.85,31.55,352337.82,7361624.77
"48703",48703,1981,5,"w","Blue wildebeest",10,-23.87,31.55,352360.49,7359410.06
"49228",49228,1981,7,"w","Blue wildebeest",3,-23.7,31.32,328714.88,7377977.43
"49229",49229,1981,7,"w","Blue wildebeest",8,-23.7,31.32,328714.88,7377977.43
"49812",49812,1981,10,"w","Blue wildebeest",8,-23.35,31.01,296563.11,7416333.84
"49961",49961,1981,10,"w","Blue wildebeest",10,-23.41,31.05,300743.17,7409744.65
"50000",50000,1981,10,"w","Blue wildebeest",9,-23.31,31.07,302639.39,7420846.97
"50116",50116,1981,10,"w","Blue wildebeest",15,-23.31,31.09,304685.1,7420874.11
"50190",50190,1981,10,"w","Blue wildebeest",8,-23.31,31.15,310822.15,7420953.82
"50447",50447,1981,11,"w","Blue wildebeest",12,-23.35,31.32,328261.13,7416736.35
"50748",50748,1981,12,"w","Blue wildebeest",5,-23.24,31.09,304582.95,7428626.34
"50779",50779,1981,12,"w","Blue wildebeest",10,-23.28,31.13,308733.59,7424249.87
"50894",50894,1981,13,"w","Blue wildebeest",41,-23.66,31.48,344983.29,7382590.05
"50963",50963,1981,13,"w","Blue wildebeest",3,-23.64,31.51,348020.2,7384837
"51010",51010,1981,13,"w","Blue wildebeest",6,-23.72,31.55,352190.86,7376020.31
"51014",51014,1981,13,"w","Blue wildebeest",22,-23.72,31.57,354229.89,7376040.93
"51040",51040,1981,13,"w","Blue wildebeest",25,-23.7,31.55,352168.31,7378234.99
"51046",51046,1981,13,"w","Blue wildebeest",11,-23.7,31.57,354207.66,7378255.6
"51201",51201,1981,13,"w","Blue wildebeest",5,-23.72,31.59,356268.92,7376061.26
"51213",51213,1981,13,"w","Blue wildebeest",5,-23.72,31.61,358307.93,7376081.31
"51232",51232,1981,13,"w","Blue wildebeest",22,-23.68,31.61,358264.73,7380510.58
"51247",51247,1981,13,"w","Blue wildebeest",18,-23.64,31.59,356181.34,7384919.84
"51250",51250,1981,13,"w","Blue wildebeest",19,-23.64,31.61,358221.6,7384939.83
"51389",51389,1981,13,"w","Blue wildebeest",15,-23.64,31.63,360261.84,7384959.54
"51475",51475,1981,14,"w","Blue wildebeest",3,-23.53,31.44,340746.3,7396941.73
"51480",51480,1981,14,"w","Blue wildebeest",27,-23.47,31.44,340674.15,7403585.83
"51489",51489,1981,14,"w","Blue wildebeest",47,-23.49,31.44,340698.18,7401371.14
"51496",51496,1981,14,"w","Blue wildebeest",5,-23.45,31.44,340650.13,7405800.52
"51497",51497,1981,14,"w","Blue wildebeest",60,-23.45,31.44,340650.13,7405800.52
"51534",51534,1981,14,"w","Blue wildebeest",6,-23.51,31.46,342764.59,7399178.48
"51778",51778,1981,15,"w","Blue wildebeest",32,-23.43,31.44,340626.14,7408015.2
"51779",51779,1981,15,"w","Blue wildebeest",37,-23.43,31.44,340626.14,7408015.2
"51817",51817,1981,15,"w","Blue wildebeest",3,-23.43,31.48,344713.32,7408058.89
"51831",51831,1981,15,"w","Blue wildebeest",11,-23.35,31.48,344620,7416917.46
"51886",51886,1981,15,"w","Blue wildebeest",8,-23.33,31.53,349709.46,7419184.93
"51926",51926,1981,18,"w","Blue wildebeest",7,-23.22,31.34,330141.12,7431155.64
"52019",52019,1981,18,"w","Blue wildebeest",6,-23.2,31.4,336257.34,7433439.19
"52031",52031,1981,18,"w","Blue wildebeest",21,-23.14,31.38,334136.25,7440060.5
"52039",52039,1981,18,"w","Blue wildebeest",26,-23.14,31.4,336184.33,7440083.12
"52080",52080,1981,18,"w","Blue wildebeest",14,-23.12,31.4,336160.03,7442297.75
"52081",52081,1981,18,"w","Blue wildebeest",37,-23.12,31.4,336160.03,7442297.75
"52112",52112,1981,18,"w","Blue wildebeest",5,-23.22,31.42,338328.56,7431246.94
"52157",52157,1981,18,"w","Blue wildebeest",15,-23.2,31.44,340351.62,7433483.68
"52171",52171,1981,18,"w","Blue wildebeest",15,-23.14,31.44,340280.43,7440127.52
"52205",52205,1981,18,"w","Blue wildebeest",19,-23.12,31.42,338208.39,7442320.07
"52232",52232,1981,18,"w","Blue wildebeest",40,-23.28,31.46,342492.71,7424647.04
"52426",52426,1981,19,"w","Blue wildebeest",21,-23.56,31.61,358135.55,7393798.27
"52537",52537,1981,19,"w","Blue wildebeest",28,-23.58,31.63,360198.21,7391603.34
"53338",53338,1981,20,"w","Blue wildebeest",8,-24.08,31.57,354633.08,7336176.04
"53379",53379,1981,20,"w","Blue wildebeest",5,-24.08,31.59,356666.46,7336196.61
"53551",53551,1981,21,"w","Blue wildebeest",8,-24.24,31.53,350752.38,7318415.54
"53692",53692,1981,21,"w","Blue wildebeest",8,-24.24,31.63,360906.61,7318518.88
"53712",53712,1981,21,"w","Blue wildebeest",8,-24.16,31.63,360819.76,7327377.92
"53728",53728,1981,22,"w","Blue wildebeest",25,-24.47,31.4,337844.82,7292798.32
"53782",53782,1981,22,"w","Blue wildebeest",16,-24.35,31.4,337691.41,7306088.14
"53834",53834,1981,22,"w","Blue wildebeest",13,-24.47,31.44,341899.37,7292844.64
"53835",53835,1981,22,"w","Blue wildebeest",22,-24.47,31.44,341899.37,7292844.64
"53865",53865,1981,22,"w","Blue wildebeest",3,-24.43,31.44,341849.44,7297274.55
"53866",53866,1981,22,"w","Blue wildebeest",10,-24.43,31.44,341849.44,7297274.55
"53867",53867,1981,22,"w","Blue wildebeest",13,-24.43,31.44,341849.44,7297274.55
"53878",53878,1981,22,"w","Blue wildebeest",9,-24.45,31.42,339846.81,7295036.6
"53898",53898,1981,22,"w","Blue wildebeest",13,-24.39,31.44,341799.58,7301704.43
"53899",53899,1981,22,"w","Blue wildebeest",24,-24.39,31.44,341799.58,7301704.43
"53932",53932,1981,22,"w","Blue wildebeest",4,-24.35,31.42,339720.61,7306111.36
"53933",53933,1981,22,"w","Blue wildebeest",23,-24.35,31.42,339720.61,7306111.36
"53964",53964,1981,22,"w","Blue wildebeest",17,-24.37,31.42,339745.81,7303896.42
"54029",54029,1981,22,"w","Blue wildebeest",12,-24.43,31.48,345905.22,7297319.65
"54047",54047,1981,22,"w","Blue wildebeest",45,-24.45,31.46,343901.97,7295082.31
"54096",54096,1981,22,"w","Blue wildebeest",4,-24.39,31.48,345856.64,7301749.47
"54097",54097,1981,22,"w","Blue wildebeest",9,-24.39,31.48,345856.64,7301749.47
"54098",54098,1981,22,"w","Blue wildebeest",10,-24.39,31.48,345856.64,7301749.47
"54116",54116,1981,22,"w","Blue wildebeest",16,-24.41,31.48,345880.92,7299534.56
"54147",54147,1981,22,"w","Blue wildebeest",10,-24.37,31.46,343803.54,7303942.02
"54148",54148,1981,22,"w","Blue wildebeest",35,-24.37,31.46,343803.54,7303942.02
"54167",54167,1981,22,"w","Blue wildebeest",4,-24.37,31.48,345832.38,7303964.38
"54168",54168,1981,22,"w","Blue wildebeest",14,-24.37,31.48,345832.38,7303964.38
"54169",54169,1981,22,"w","Blue wildebeest",27,-24.37,31.48,345832.38,7303964.38
"54220",54220,1981,22,"w","Blue wildebeest",21,-24.43,31.51,348947.02,7297352.7
"54245",54245,1981,22,"w","Blue wildebeest",5,-24.43,31.53,350974.88,7297374.37
"54246",54246,1981,22,"w","Blue wildebeest",5,-24.43,31.53,350974.88,7297374.37
"54247",54247,1981,22,"w","Blue wildebeest",7,-24.43,31.53,350974.88,7297374.37
"54270",54270,1981,22,"w","Blue wildebeest",5,-24.45,31.51,348970.86,7295137.8
"54340",54340,1981,22,"w","Blue wildebeest",7,-24.37,31.51,348875.62,7303997.37
"54341",54341,1981,22,"w","Blue wildebeest",36,-24.37,31.51,348875.62,7303997.37
"54479",54479,1981,23,"w","Blue wildebeest",5,-24.24,31.65,362937.43,7318538.68
"54493",54493,1981,23,"w","Blue wildebeest",6,-24.2,31.65,362894.6,7322968.18
"54512",54512,1981,23,"w","Blue wildebeest",10,-24.14,31.65,362830.49,7329612.4
"54595",54595,1981,23,"w","Blue wildebeest",4,-24.2,31.67,364926.04,7322987.66
"54618",54618,1981,23,"w","Blue wildebeest",7,-24.14,31.69,366895.26,7329650.99
"54664",54664,1981,23,"w","Blue wildebeest",6,-24.1,31.67,364820.85,7334061.27
"54708",54708,1981,23,"w","Blue wildebeest",15,-24.12,31.67,364841.86,7331846.56
"54813",54813,1981,23,"w","Blue wildebeest",23,-24.26,31.73,371080.73,7316400.23
"54823",54823,1981,23,"w","Blue wildebeest",22,-24.22,31.73,371040.42,7320829.65
"54837",54837,1981,23,"w","Blue wildebeest",3,-24.18,31.71,368968.44,7325240.46
"54855",54855,1981,23,"w","Blue wildebeest",11,-24.14,31.71,368927.62,7329669.86
"54912",54912,1981,23,"w","Blue wildebeest",6,-24.08,31.71,368866.5,7336313.92
"54913",54913,1981,23,"w","Blue wildebeest",12,-24.08,31.71,368866.5,7336313.92
"55039",55039,1981,24,"w","Blue wildebeest",30,-24.26,31.59,356867.34,7316263.62
"55088",55088,1981,24,"w","Blue wildebeest",12,-24.35,31.63,361026.47,7306337.56
"55202",55202,1981,24,"w","Blue wildebeest",7,-24.39,31.67,365127.02,7301947.43
"55230",55230,1981,24,"w","Blue wildebeest",4,-24.35,31.69,367113.63,7306396.27
"55265",55265,1981,24,"w","Blue wildebeest",17,-24.31,31.69,367071.9,7310825.79
"55309",55309,1981,24,"w","Blue wildebeest",9,-24.31,31.73,371131.22,7310863.42
"55333",55333,1981,24,"w","Blue wildebeest",52,-24.28,31.73,371100.92,7314185.51
"55347",55347,1981,24,"w","Blue wildebeest",9,-24.39,31.76,374254.75,7302031.98
"55348",55348,1981,24,"w","Blue wildebeest",9,-24.39,31.76,374254.75,7302031.98
"55366",55366,1981,24,"w","Blue wildebeest",7,-24.31,31.76,374175.68,7310890.88
"55369",55369,1981,24,"w","Blue wildebeest",20,-24.33,31.76,374195.43,7308676.16
"55457",55457,1981,25,"w","Blue wildebeest",6,-24.08,31.73,370899.81,7336332.45
"55458",55458,1981,25,"w","Blue wildebeest",8,-24.08,31.73,370899.81,7336332.45
"55462",55462,1981,25,"w","Blue wildebeest",1,-24.01,31.73,370829.79,7344083.75
"55560",55560,1981,25,"w","Blue wildebeest",5,-24.08,31.76,373949.74,7336359.71
"55621",55621,1981,25,"w","Blue wildebeest",11,-24.03,31.76,373900.89,7341896.32
"55622",55622,1981,25,"w","Blue wildebeest",17,-24.03,31.76,373900.89,7341896.32
"55674",55674,1981,25,"w","Blue wildebeest",10,-24.14,31.8,378073.13,7329751.14
"55688",55688,1981,25,"w","Blue wildebeest",10,-24.1,31.8,378035.22,7334180.42
"55711",55711,1981,25,"w","Blue wildebeest",3,-24.12,31.8,378054.17,7331965.78
"55721",55721,1981,25,"w","Blue wildebeest",5,-24.12,31.82,380086.79,7331983.04
"55722",55722,1981,25,"w","Blue wildebeest",12,-24.12,31.82,380086.79,7331983.04
"55774",55774,1981,25,"w","Blue wildebeest",8,-24.01,31.82,379984.49,7344163.41
"55797",55797,1981,25,"w","Blue wildebeest",16,-24.03,31.8,377969.01,7341931.6
"55924",55924,1981,25,"w","Blue wildebeest",12,-24.08,31.86,384116.03,7336445.88
"56015",56015,1981,25,"w","Blue wildebeest",7,-24.12,31.88,386184.61,7332033.06
"56042",56042,1981,26,"w","Blue wildebeest",15,-24.39,31.78,376283.1,7302049.96
"56045",56045,1981,26,"w","Blue wildebeest",15,-24.41,31.78,376302.58,7299835.23
"56069",56069,1981,26,"w","Blue wildebeest",28,-24.37,31.78,376263.63,7304264.68
"56072",56072,1981,26,"w","Blue wildebeest",5,-24.31,31.76,374175.68,7310890.88
"56076",56076,1981,26,"w","Blue wildebeest",14,-24.31,31.78,376205.31,7310908.82
"56081",56081,1981,26,"w","Blue wildebeest",55,-24.33,31.76,374195.43,7308676.16
"56114",56114,1981,26,"w","Blue wildebeest",30,-24.28,31.78,376176.2,7314230.86
"56144",56144,1981,26,"w","Blue wildebeest",1,-24.39,31.82,380339.78,7302085.05
"56145",56145,1981,26,"w","Blue wildebeest",6,-24.39,31.82,380339.78,7302085.05
"56146",56146,1981,26,"w","Blue wildebeest",22,-24.39,31.82,380339.78,7302085.05
"56147",56147,1981,26,"w","Blue wildebeest",25,-24.39,31.82,380339.78,7302085.05
"56172",56172,1981,26,"w","Blue wildebeest",13,-24.35,31.8,378273.16,7306497.07
"56179",56179,1981,26,"w","Blue wildebeest",16,-24.35,31.82,380302.13,7306514.45
"56190",56190,1981,26,"w","Blue wildebeest",7,-24.37,31.8,378292.29,7304282.36
"56191",56191,1981,26,"w","Blue wildebeest",12,-24.37,31.8,378292.29,7304282.36
"56207",56207,1981,26,"w","Blue wildebeest",3,-24.37,31.82,380320.95,7304299.75
"56208",56208,1981,26,"w","Blue wildebeest",12,-24.37,31.82,380320.95,7304299.75
"56209",56209,1981,26,"w","Blue wildebeest",19,-24.37,31.82,380320.95,7304299.75
"56218",56218,1981,26,"w","Blue wildebeest",13,-24.31,31.82,380264.54,7310943.82
"56253",56253,1981,26,"w","Blue wildebeest",8,-24.28,31.8,378206.3,7314248.5
"56313",56313,1981,26,"w","Blue wildebeest",8,-24.39,31.84,382368.1,7302102.16
"56314",56314,1981,26,"w","Blue wildebeest",9,-24.39,31.84,382368.1,7302102.16
"56315",56315,1981,26,"w","Blue wildebeest",20,-24.39,31.84,382368.1,7302102.16
"56316",56316,1981,26,"w","Blue wildebeest",26,-24.39,31.84,382368.1,7302102.16
"56317",56317,1981,26,"w","Blue wildebeest",28,-24.39,31.84,382368.1,7302102.16
"56318",56318,1981,26,"w","Blue wildebeest",40,-24.39,31.84,382368.1,7302102.16
"56348",56348,1981,26,"w","Blue wildebeest",3,-24.39,31.86,384396.42,7302118.97
"56349",56349,1981,26,"w","Blue wildebeest",11,-24.39,31.86,384396.42,7302118.97
"56350",56350,1981,26,"w","Blue wildebeest",16,-24.39,31.86,384396.42,7302118.97
"56366",56366,1981,26,"w","Blue wildebeest",24,-24.35,31.86,384360.05,7306548.33
"56379",56379,1981,26,"w","Blue wildebeest",11,-24.37,31.84,382349.59,7304316.85
"56392",56392,1981,26,"w","Blue wildebeest",4,-24.37,31.86,384378.23,7304333.65
"56393",56393,1981,26,"w","Blue wildebeest",32,-24.37,31.86,384378.23,7304333.65
"56401",56401,1981,26,"w","Blue wildebeest",6,-24.31,31.84,382294.14,7310960.88
"56419",56419,1981,26,"w","Blue wildebeest",9,-24.33,31.84,382312.61,7308746.21
"56420",56420,1981,26,"w","Blue wildebeest",51,-24.33,31.84,382312.61,7308746.21
"56433",56433,1981,26,"w","Blue wildebeest",1,-24.33,31.86,384341.88,7308762.99
"56434",56434,1981,26,"w","Blue wildebeest",20,-24.33,31.86,384341.88,7308762.99
"56435",56435,1981,26,"w","Blue wildebeest",22,-24.33,31.86,384341.88,7308762.99
"56436",56436,1981,26,"w","Blue wildebeest",37,-24.33,31.86,384341.88,7308762.99
"56447",56447,1981,26,"w","Blue wildebeest",12,-24.28,31.84,382266.47,7314282.88
"56467",56467,1981,26,"w","Blue wildebeest",6,-24.39,31.88,386424.72,7302135.49
"56468",56468,1981,26,"w","Blue wildebeest",7,-24.39,31.88,386424.72,7302135.49
"56469",56469,1981,26,"w","Blue wildebeest",19,-24.39,31.88,386424.72,7302135.49
"56481",56481,1981,26,"w","Blue wildebeest",11,-24.39,31.9,388453.02,7302151.72
"56482",56482,1981,26,"w","Blue wildebeest",15,-24.39,31.9,388453.02,7302151.72
"56492",56492,1981,26,"w","Blue wildebeest",5,-24.35,31.88,386388.99,7306564.83
"56493",56493,1981,26,"w","Blue wildebeest",6,-24.35,31.88,386388.99,7306564.83
"56494",56494,1981,26,"w","Blue wildebeest",8,-24.35,31.88,386388.99,7306564.83
"56495",56495,1981,26,"w","Blue wildebeest",66,-24.35,31.88,386388.99,7306564.83
"56517",56517,1981,26,"w","Blue wildebeest",11,-24.37,31.88,386406.85,7304350.16
"56518",56518,1981,26,"w","Blue wildebeest",21,-24.37,31.88,386406.85,7304350.16
"56519",56519,1981,26,"w","Blue wildebeest",37,-24.37,31.88,386406.85,7304350.16
"56532",56532,1981,26,"w","Blue wildebeest",24,-24.37,31.9,388435.47,7304366.38
"56545",56545,1981,26,"w","Blue wildebeest",7,-24.33,31.88,386371.15,7308779.48
"56561",56561,1981,26,"w","Blue wildebeest",13,-24.39,31.92,390481.31,7302167.66
"56571",56571,1981,27,"w","Blue wildebeest",12,-24.26,31.86,384278.42,7316514.29
"56587",56587,1981,27,"w","Blue wildebeest",10,-24.24,31.84,382229.62,7318712.2
"56591",56591,1981,27,"w","Blue wildebeest",3,-24.24,31.86,384260.32,7318728.93
"56592",56592,1981,27,"w","Blue wildebeest",39,-24.24,31.86,384260.32,7318728.93
"56603",56603,1981,27,"w","Blue wildebeest",2,-24.2,31.84,382192.82,7323141.49
"56630",56630,1981,27,"w","Blue wildebeest",12,-24.31,31.88,386353.32,7310994.14
"56631",56631,1981,27,"w","Blue wildebeest",54,-24.31,31.88,386353.32,7310994.14
"56632",56632,1981,27,"w","Blue wildebeest",58,-24.31,31.88,386353.32,7310994.14
"56652",56652,1981,27,"w","Blue wildebeest",17,-24.31,31.9,388382.89,7311010.33
"56673",56673,1981,27,"w","Blue wildebeest",5,-24.26,31.88,386308.8,7316530.74
"56681",56681,1981,27,"w","Blue wildebeest",14,-24.28,31.88,386326.6,7314316.11
"56695",56695,1981,27,"w","Blue wildebeest",5,-24.22,31.88,386273.25,7320960.01
"56723",56723,1981,27,"w","Blue wildebeest",43,-24.24,31.88,386291.02,7318745.38
"56762",56762,1981,27,"w","Blue wildebeest",6,-24.35,31.92,390446.85,7306596.95
"56774",56774,1981,27,"w","Blue wildebeest",29,-24.35,31.94,392475.77,7306612.58
"56784",56784,1981,27,"w","Blue wildebeest",6,-24.37,31.92,390464.07,7304382.31
"56785",56785,1981,27,"w","Blue wildebeest",10,-24.37,31.92,390464.07,7304382.31
"56800",56800,1981,27,"w","Blue wildebeest",8,-24.37,31.94,392492.67,7304397.94
"56831",56831,1981,27,"w","Blue wildebeest",3,-24.31,31.94,392442.01,7311041.83
"56832",56832,1981,27,"w","Blue wildebeest",35,-24.31,31.94,392442.01,7311041.83
"56837",56837,1981,27,"w","Blue wildebeest",10,-24.33,31.92,390429.65,7308811.59
"56858",56858,1981,27,"w","Blue wildebeest",9,-24.28,31.92,390386.69,7314348.16
"56950",56950,1981,27,"w","Blue wildebeest",9,-24.41,31.98,396582.41,7299999.08
"57025",57025,1981,28,"w","Blue wildebeest",9,-24.49,31.82,380434.15,7291011.47
"57026",57026,1981,28,"w","Blue wildebeest",26,-24.49,31.82,380434.15,7291011.47
"57071",57071,1981,28,"w","Blue wildebeest",5,-24.47,31.84,382442.29,7293243.34
"57079",57079,1981,28,"w","Blue wildebeest",6,-24.49,31.84,382460.87,7291028.62
"57080",57080,1981,28,"w","Blue wildebeest",21,-24.49,31.84,382460.87,7291028.62
"57086",57086,1981,28,"w","Blue wildebeest",7,-24.49,31.86,384487.59,7291045.49
"57087",57087,1981,28,"w","Blue wildebeest",18,-24.49,31.86,384487.59,7291045.49
"57115",57115,1981,28,"w","Blue wildebeest",19,-24.41,31.84,382386.63,7299887.46
"57131",57131,1981,28,"w","Blue wildebeest",2,-24.64,31.9,388673.58,7274468
"57132",57132,1981,28,"w","Blue wildebeest",7,-24.64,31.9,388673.58,7274468
"57133",57133,1981,28,"w","Blue wildebeest",8,-24.64,31.9,388673.58,7274468
"57134",57134,1981,28,"w","Blue wildebeest",9,-24.64,31.9,388673.58,7274468
"57135",57135,1981,28,"w","Blue wildebeest",12,-24.64,31.9,388673.58,7274468
"57145",57145,1981,28,"w","Blue wildebeest",3,-24.66,31.9,388691.32,7272253.26
"57146",57146,1981,28,"w","Blue wildebeest",16,-24.66,31.9,388691.32,7272253.26
"57155",57155,1981,28,"w","Blue wildebeest",53,-24.6,31.88,386613.22,7278881.12
"57156",57156,1981,28,"w","Blue wildebeest",114,-24.6,31.88,386613.22,7278881.12
"57165",57165,1981,28,"w","Blue wildebeest",3,-24.62,31.88,386631.25,7276666.39
"57166",57166,1981,28,"w","Blue wildebeest",4,-24.62,31.88,386631.25,7276666.39
"57170",57170,1981,28,"w","Blue wildebeest",2,-24.62,31.9,388655.86,7276682.73
"57171",57171,1981,28,"w","Blue wildebeest",11,-24.62,31.9,388655.86,7276682.73
"57172",57172,1981,28,"w","Blue wildebeest",13,-24.62,31.9,388655.86,7276682.73
"57184",57184,1981,28,"w","Blue wildebeest",11,-24.56,31.88,386577.2,7283310.57
"57185",57185,1981,28,"w","Blue wildebeest",50,-24.56,31.88,386577.2,7283310.57
"57193",57193,1981,28,"w","Blue wildebeest",2,-24.56,31.9,388602.77,7283326.89
"57194",57194,1981,28,"w","Blue wildebeest",6,-24.56,31.9,388602.77,7283326.89
"57195",57195,1981,28,"w","Blue wildebeest",14,-24.56,31.9,388602.77,7283326.89
"57204",57204,1981,28,"w","Blue wildebeest",5,-24.58,31.88,386595.2,7281095.85
"57205",57205,1981,28,"w","Blue wildebeest",11,-24.58,31.88,386595.2,7281095.85
"57206",57206,1981,28,"w","Blue wildebeest",12,-24.58,31.88,386595.2,7281095.85
"57207",57207,1981,28,"w","Blue wildebeest",17,-24.58,31.88,386595.2,7281095.85
"57208",57208,1981,28,"w","Blue wildebeest",19,-24.58,31.88,386595.2,7281095.85
"57209",57209,1981,28,"w","Blue wildebeest",42,-24.58,31.88,386595.2,7281095.85
"57232",57232,1981,28,"w","Blue wildebeest",4,-24.53,31.88,386550.22,7286632.65
"57233",57233,1981,28,"w","Blue wildebeest",58,-24.53,31.88,386550.22,7286632.65
"57238",57238,1981,28,"w","Blue wildebeest",12,-24.53,31.9,388576.27,7286648.95
"57245",57245,1981,28,"w","Blue wildebeest",28,-24.47,31.88,386496.35,7293276.76
"57256",57256,1981,28,"w","Blue wildebeest",24,-24.49,31.88,386514.29,7291062.06
"57268",57268,1981,28,"w","Blue wildebeest",27,-24.49,31.9,388540.99,7291078.34
"57279",57279,1981,28,"w","Blue wildebeest",20,-24.45,31.9,388505.76,7295507.71
"57296",57296,1981,28,"w","Blue wildebeest",6,-24.39,31.9,388453.02,7302151.72
"57301",57301,1981,28,"w","Blue wildebeest",4,-24.41,31.88,386442.61,7299920.82
"57322",57322,1981,28,"w","Blue wildebeest",2,-24.64,31.92,390697.86,7274484.06
"57323",57323,1981,28,"w","Blue wildebeest",3,-24.64,31.92,390697.86,7274484.06
"57324",57324,1981,28,"w","Blue wildebeest",13,-24.64,31.92,390697.86,7274484.06
"57325",57325,1981,28,"w","Blue wildebeest",20,-24.64,31.92,390697.86,7274484.06
"57338",57338,1981,28,"w","Blue wildebeest",8,-24.6,31.92,390663.07,7278913.49
"57339",57339,1981,28,"w","Blue wildebeest",13,-24.6,31.92,390663.07,7278913.49
"57340",57340,1981,28,"w","Blue wildebeest",15,-24.6,31.92,390663.07,7278913.49
"57341",57341,1981,28,"w","Blue wildebeest",17,-24.6,31.92,390663.07,7278913.49
"57352",57352,1981,28,"w","Blue wildebeest",5,-24.6,31.94,392687.98,7278929.24
"57353",57353,1981,28,"w","Blue wildebeest",6,-24.6,31.94,392687.98,7278929.24
"57354",57354,1981,28,"w","Blue wildebeest",9,-24.6,31.94,392687.98,7278929.24
"57355",57355,1981,28,"w","Blue wildebeest",30,-24.6,31.94,392687.98,7278929.24
"57377",57377,1981,28,"w","Blue wildebeest",18,-24.62,31.94,392705.04,7276714.53
"57391",57391,1981,28,"w","Blue wildebeest",3,-24.56,31.92,390628.33,7283342.91
"57404",57404,1981,28,"w","Blue wildebeest",2,-24.56,31.94,392653.89,7283358.63
"57410",57410,1981,28,"w","Blue wildebeest",4,-24.58,31.92,390645.69,7281128.2
"57434",57434,1981,28,"w","Blue wildebeest",26,-24.51,31.92,390584.99,7288879.64
"57443",57443,1981,28,"w","Blue wildebeest",23,-24.51,31.94,392611.35,7288895.34
"57444",57444,1981,28,"w","Blue wildebeest",36,-24.51,31.94,392611.35,7288895.34
"57454",57454,1981,28,"w","Blue wildebeest",16,-24.53,31.92,390602.32,7286664.95
"57466",57466,1981,28,"w","Blue wildebeest",4,-24.53,31.94,392628.36,7286680.66
"57476",57476,1981,28,"w","Blue wildebeest",5,-24.47,31.92,390550.38,7293309
"57477",57477,1981,28,"w","Blue wildebeest",7,-24.47,31.92,390550.38,7293309
"57478",57478,1981,28,"w","Blue wildebeest",7,-24.47,31.92,390550.38,7293309
"57479",57479,1981,28,"w","Blue wildebeest",8,-24.47,31.92,390550.38,7293309
"57480",57480,1981,28,"w","Blue wildebeest",11,-24.47,31.92,390550.38,7293309
"57504",57504,1981,28,"w","Blue wildebeest",7,-24.49,31.92,390567.68,7291094.32
"57505",57505,1981,28,"w","Blue wildebeest",8,-24.49,31.92,390567.68,7291094.32
"57506",57506,1981,28,"w","Blue wildebeest",12,-24.49,31.92,390567.68,7291094.32
"57507",57507,1981,28,"w","Blue wildebeest",21,-24.49,31.92,390567.68,7291094.32
"57508",57508,1981,28,"w","Blue wildebeest",32,-24.49,31.92,390567.68,7291094.32
"57528",57528,1981,28,"w","Blue wildebeest",18,-24.49,31.94,392594.36,7291110.02
"57529",57529,1981,28,"w","Blue wildebeest",35,-24.49,31.94,392594.36,7291110.02
"57530",57530,1981,28,"w","Blue wildebeest",38,-24.49,31.94,392594.36,7291110.02
"57554",57554,1981,28,"w","Blue wildebeest",16,-24.45,31.92,390533.09,7295523.67
"57555",57555,1981,28,"w","Blue wildebeest",22,-24.45,31.92,390533.09,7295523.67
"57581",57581,1981,28,"w","Blue wildebeest",18,-24.56,31.96,394679.44,7283374.06
"57582",57582,1981,28,"w","Blue wildebeest",45,-24.56,31.96,394679.44,7283374.06
"57586",57586,1981,28,"w","Blue wildebeest",36,-24.58,31.96,394696.15,7281159.38
"57611",57611,1981,28,"w","Blue wildebeest",11,-24.53,31.96,394654.38,7286696.08
"57612",57612,1981,28,"w","Blue wildebeest",23,-24.53,31.96,394654.38,7286696.08
"57659",57659,1981,29,"w","Blue wildebeest",15,-24.49,31.78,376380.67,7290976.27
"57729",57729,1981,29,"w","Blue wildebeest",4,-24.6,31.8,378513.41,7278812.85
"57736",57736,1981,29,"w","Blue wildebeest",3,-24.6,31.82,380538.38,7278830.36
"57745",57745,1981,29,"w","Blue wildebeest",5,-24.62,31.8,378532.73,7276598.07
"57746",57746,1981,29,"w","Blue wildebeest",12,-24.62,31.8,378532.73,7276598.07
"57769",57769,1981,29,"w","Blue wildebeest",5,-24.58,31.82,380519.39,7281045.12
"57770",57770,1981,29,"w","Blue wildebeest",7,-24.58,31.82,380519.39,7281045.12
"57771",57771,1981,29,"w","Blue wildebeest",16,-24.58,31.82,380519.39,7281045.12
"57793",57793,1981,29,"w","Blue wildebeest",8,-24.51,31.82,380453.07,7288796.73
"57797",57797,1981,29,"w","Blue wildebeest",32,-24.53,31.82,380472,7286581.99
"57803",57803,1981,29,"w","Blue wildebeest",12,-24.49,31.8,378407.41,7290994.01
"57813",57813,1981,29,"w","Blue wildebeest",12,-24.49,31.82,380434.15,7291011.47
"57814",57814,1981,29,"w","Blue wildebeest",16,-24.49,31.82,380434.15,7291011.47
"57851",57851,1981,29,"w","Blue wildebeest",3,-24.7,31.86,384680.19,7267790.72
"57945",57945,1981,29,"w","Blue wildebeest",8,-24.78,31.88,386776,7258948.31
"57957",57957,1981,29,"w","Blue wildebeest",3,-24.68,31.9,388709.07,7270038.52
"57959",57959,1981,29,"w","Blue wildebeest",4,-24.7,31.88,386703.51,7267807.39
"57972",57972,1981,29,"w","Blue wildebeest",3,-24.66,31.88,386667.35,7272236.9
"57973",57973,1981,29,"w","Blue wildebeest",6,-24.66,31.88,386667.35,7272236.9
"57974",57974,1981,29,"w","Blue wildebeest",8,-24.66,31.88,386667.35,7272236.9
"57980",57980,1981,29,"w","Blue wildebeest",7,-24.66,31.9,388691.32,7272253.26
"57981",57981,1981,29,"w","Blue wildebeest",16,-24.66,31.9,388691.32,7272253.26
"57989",57989,1981,29,"w","Blue wildebeest",10,-24.7,31.92,390750.14,7267839.86
"57990",57990,1981,29,"w","Blue wildebeest",17,-24.7,31.92,390750.14,7267839.86
"57993",57993,1981,29,"w","Blue wildebeest",2,-24.66,31.92,390715.27,7272269.33
"57994",57994,1981,29,"w","Blue wildebeest",25,-24.66,31.92,390715.27,7272269.33
"57995",57995,1981,29,"w","Blue wildebeest",32,-24.66,31.92,390715.27,7272269.33
"58078",58078,1981,30,"w","Blue wildebeest",5,-24.74,31.94,392807.71,7263426.18
"58084",58084,1981,30,"w","Blue wildebeest",2,-24.68,31.94,392756.32,7270070.38
"58085",58085,1981,30,"w","Blue wildebeest",3,-24.68,31.94,392756.32,7270070.38
"58086",58086,1981,30,"w","Blue wildebeest",6,-24.68,31.94,392756.32,7270070.38
"58087",58087,1981,30,"w","Blue wildebeest",35,-24.68,31.94,392756.32,7270070.38
"58104",58104,1981,30,"w","Blue wildebeest",3,-24.64,31.92,390697.86,7274484.06
"58105",58105,1981,30,"w","Blue wildebeest",5,-24.64,31.92,390697.86,7274484.06
"58106",58106,1981,30,"w","Blue wildebeest",7,-24.64,31.92,390697.86,7274484.06
"58107",58107,1981,30,"w","Blue wildebeest",8,-24.64,31.92,390697.86,7274484.06
"58108",58108,1981,30,"w","Blue wildebeest",8,-24.64,31.92,390697.86,7274484.06
"58109",58109,1981,30,"w","Blue wildebeest",16,-24.64,31.92,390697.86,7274484.06
"58110",58110,1981,30,"w","Blue wildebeest",24,-24.64,31.92,390697.86,7274484.06
"58111",58111,1981,30,"w","Blue wildebeest",28,-24.64,31.92,390697.86,7274484.06
"58118",58118,1981,30,"w","Blue wildebeest",2,-24.64,31.94,392722.12,7274499.82
"58119",58119,1981,30,"w","Blue wildebeest",6,-24.64,31.94,392722.12,7274499.82
"58120",58120,1981,30,"w","Blue wildebeest",13,-24.64,31.94,392722.12,7274499.82
"58121",58121,1981,30,"w","Blue wildebeest",15,-24.64,31.94,392722.12,7274499.82
"58122",58122,1981,30,"w","Blue wildebeest",16,-24.64,31.94,392722.12,7274499.82
"58123",58123,1981,30,"w","Blue wildebeest",25,-24.64,31.94,392722.12,7274499.82
"58132",58132,1981,30,"w","Blue wildebeest",4,-24.66,31.92,390715.27,7272269.33
"58133",58133,1981,30,"w","Blue wildebeest",4,-24.66,31.92,390715.27,7272269.33
"58134",58134,1981,30,"w","Blue wildebeest",6,-24.66,31.92,390715.27,7272269.33
"58135",58135,1981,30,"w","Blue wildebeest",16,-24.66,31.92,390715.27,7272269.33
"58136",58136,1981,30,"w","Blue wildebeest",25,-24.66,31.92,390715.27,7272269.33
"58150",58150,1981,30,"w","Blue wildebeest",1,-24.66,31.94,392739.21,7272285.1
"58151",58151,1981,30,"w","Blue wildebeest",5,-24.66,31.94,392739.21,7272285.1
"58152",58152,1981,30,"w","Blue wildebeest",9,-24.66,31.94,392739.21,7272285.1
"58153",58153,1981,30,"w","Blue wildebeest",12,-24.66,31.94,392739.21,7272285.1
"58154",58154,1981,30,"w","Blue wildebeest",13,-24.66,31.94,392739.21,7272285.1
"58243",58243,1981,30,"w","Blue wildebeest",3,-24.64,31.96,394746.38,7274515.29
"58244",58244,1981,30,"w","Blue wildebeest",4,-24.64,31.96,394746.38,7274515.29
"58255",58255,1981,30,"w","Blue wildebeest",25,-24.64,31.98,396770.63,7274530.46
"58290",58290,1981,30,"w","Blue wildebeest",19,-24.6,31.96,394712.88,7278944.69
"58328",58328,1981,30,"w","Blue wildebeest",9,-24.62,31.96,394729.62,7276729.99
"58378",58378,1981,30,"w","Blue wildebeest",9,-24.58,31.96,394696.15,7281159.38
"58489",58489,1981,31,"w","Blue wildebeest",5,-24.41,31.61,359063.95,7299672.94
"58598",58598,1981,31,"w","Blue wildebeest",43,-24.62,31.69,367397.01,7276496.44
"58627",58627,1981,31,"w","Blue wildebeest",33,-24.51,31.69,367281.2,7288677.98
"58643",58643,1981,31,"w","Blue wildebeest",12,-24.47,31.69,367239.21,7293107.58
"58669",58669,1981,31,"w","Blue wildebeest",2,-24.49,31.69,367260.2,7290892.78
"58670",58670,1981,31,"w","Blue wildebeest",6,-24.49,31.69,367260.2,7290892.78
"58687",58687,1981,31,"w","Blue wildebeest",18,-24.43,31.69,367197.29,7297537.17
"58701",58701,1981,31,"w","Blue wildebeest",26,-24.45,31.69,367218.24,7295322.38
"58737",58737,1981,31,"w","Blue wildebeest",5,-24.41,31.69,367176.35,7299751.95
"58767",58767,1981,31,"w","Blue wildebeest",4,-24.6,31.73,371425.95,7278749.24
"58857",58857,1981,31,"w","Blue wildebeest",8,-24.53,31.73,371354.51,7286501.05
"58877",58877,1981,31,"w","Blue wildebeest",10,-24.47,31.71,369266.32,7293126.64
"58878",58878,1981,31,"w","Blue wildebeest",18,-24.47,31.71,369266.32,7293126.64
"58904",58904,1981,31,"w","Blue wildebeest",5,-24.49,31.71,369286.99,7290911.85
"58905",58905,1981,31,"w","Blue wildebeest",10,-24.49,31.71,369286.99,7290911.85
"58906",58906,1981,31,"w","Blue wildebeest",21,-24.49,31.71,369286.99,7290911.85
"58921",58921,1981,31,"w","Blue wildebeest",6,-24.49,31.73,371313.77,7290930.62
"58922",58922,1981,31,"w","Blue wildebeest",11,-24.49,31.73,371313.77,7290930.62
"58923",58923,1981,31,"w","Blue wildebeest",17,-24.49,31.73,371313.77,7290930.62
"58944",58944,1981,31,"w","Blue wildebeest",21,-24.43,31.73,371252.78,7297574.94
"58959",58959,1981,31,"w","Blue wildebeest",10,-24.45,31.73,371273.09,7295360.17
"59011",59011,1981,31,"w","Blue wildebeest",10,-24.56,31.76,374423.57,7283206.52
"59032",59032,1981,31,"w","Blue wildebeest",7,-24.58,31.76,374443.5,7280991.74
"59033",59033,1981,31,"w","Blue wildebeest",16,-24.58,31.76,374443.5,7280991.74
"59048",59048,1981,31,"w","Blue wildebeest",4,-24.51,31.76,374373.8,7288743.46
"59053",59053,1981,31,"w","Blue wildebeest",4,-24.53,31.76,374393.69,7286528.69
"59056",59056,1981,31,"w","Blue wildebeest",4,-24.47,31.78,376361.13,7293191.02
"59069",59069,1981,31,"w","Blue wildebeest",6,-24.49,31.76,374353.92,7290958.23
"59082",59082,1981,31,"w","Blue wildebeest",6,-24.43,31.78,376322.08,7297620.5
"59090",59090,1981,31,"w","Blue wildebeest",14,-24.45,31.76,374314.2,7295387.75
"59104",59104,1981,31,"w","Blue wildebeest",11,-24.41,31.76,374274.55,7299817.24
"59105",59105,1981,31,"w","Blue wildebeest",17,-24.41,31.76,374274.55,7299817.24
"59300",59300,1981,32,"w","Blue wildebeest",7,-24.45,31.55,353025.92,7295180.87
"59318",59318,1981,32,"w","Blue wildebeest",19,-24.41,31.57,355007.69,7299631.68
"59345",59345,1981,32,"w","Blue wildebeest",4,-24.49,31.59,357126.09,7290793.05
"59378",59378,1981,32,"w","Blue wildebeest",12,-24.45,31.61,359108.41,7295243.27
"59416",59416,1981,33,"w","Blue wildebeest",18,-24.6,31.53,351175.34,7278547.64
"59446",59446,1981,33,"w","Blue wildebeest",13,-24.58,31.55,353177.13,7280784.04
"59470",59470,1981,33,"w","Blue wildebeest",10,-24.74,31.61,359432.75,7263127.5
"59474",59474,1981,33,"w","Blue wildebeest",8,-24.68,31.59,357341.56,7269751.59
"59587",59587,1981,33,"w","Blue wildebeest",33,-24.72,31.65,363456.51,7265382.89
"59606",59606,1981,33,"w","Blue wildebeest",33,-24.74,31.65,363478.35,7263168
"59789",59789,1981,34,"w","Blue wildebeest",6,-24.62,31.69,367397.01,7276496.44
"59825",59825,1981,34,"w","Blue wildebeest",12,-24.74,31.71,369546.66,7263226.51
"59833",59833,1981,34,"w","Blue wildebeest",5,-24.74,31.73,371569.41,7263245.43
"59834",59834,1981,34,"w","Blue wildebeest",8,-24.74,31.73,371569.41,7263245.43
"59835",59835,1981,34,"w","Blue wildebeest",36,-24.74,31.73,371569.41,7263245.43
"59841",59841,1981,34,"w","Blue wildebeest",11,-24.68,31.71,369484.11,7269871.07
"59924",59924,1981,34,"w","Blue wildebeest",7,-24.76,31.78,376645.99,7261076.6
"59942",59942,1981,34,"w","Blue wildebeest",14,-24.74,31.76,374603.52,7263273.25
"59983",59983,1981,34,"w","Blue wildebeest",3,-24.7,31.78,376586.79,7267721.06
"60304",60304,1981,35,"w","Blue wildebeest",40,-24.85,31.65,363598.74,7250985.98
"60321",60321,1981,35,"w","Blue wildebeest",9,-24.87,31.65,363620.69,7248771.05
"60409",60409,1981,35,"w","Blue wildebeest",5,-24.95,31.67,365728,7239931.2
"60511",60511,1981,35,"w","Blue wildebeest",8,-24.89,31.71,369703.65,7246614.89
"60584",60584,1981,36,"w","Blue wildebeest",12,-24.89,31.78,376774.71,7246680.09
"60671",60671,1981,36,"w","Blue wildebeest",22,-24.85,31.8,378755.97,7251127.75
"60686",60686,1981,36,"w","Blue wildebeest",13,-24.87,31.8,378775.47,7248912.9
"60701",60701,1981,36,"w","Blue wildebeest",21,-24.81,31.8,378717.01,7255557.42
"60750",60750,1981,36,"w","Blue wildebeest",6,-24.89,31.84,382835.53,7246733.08
"60812",60812,1981,36,"w","Blue wildebeest",7,-24.83,31.86,384800.19,7253394.59
"60813",60813,1981,36,"w","Blue wildebeest",15,-24.83,31.86,384800.19,7253394.59
"60820",60820,1981,36,"w","Blue wildebeest",17,-24.78,31.84,382731.93,7258914.58
"60853",60853,1981,36,"w","Blue wildebeest",7,-24.83,31.88,386821.41,7253411.33
"60870",60870,1981,37,"w","Blue wildebeest",17,-24.89,31.9,388896.25,7246783.39
"61251",61251,1981,38,"w","Blue wildebeest",6,-24.91,31.78,376794.57,7244465.22
"61301",61301,1981,38,"w","Blue wildebeest",6,-24.97,31.8,378873.22,7237838.59
"61316",61316,1981,38,"w","Blue wildebeest",14,-24.99,31.8,378892.81,7235623.71
"61360",61360,1981,38,"w","Blue wildebeest",6,-24.91,31.8,378814.53,7244483.19
"61363",61363,1981,38,"w","Blue wildebeest",5,-24.91,31.82,380834.47,7244500.87
"61553",61553,1981,38,"w","Blue wildebeest",9,-24.93,31.9,388932.08,7242353.77
"61554",61554,1981,38,"w","Blue wildebeest",11,-24.93,31.9,388932.08,7242353.77
"61555",61555,1981,38,"w","Blue wildebeest",90,-24.93,31.9,388932.08,7242353.77
"61579",61579,1981,38,"w","Blue wildebeest",3,-24.91,31.9,388914.16,7244568.59
"61580",61580,1981,38,"w","Blue wildebeest",5,-24.91,31.9,388914.16,7244568.59
"61581",61581,1981,38,"w","Blue wildebeest",15,-24.91,31.9,388914.16,7244568.59
"61658",61658,1981,38,"w","Blue wildebeest",8,-24.97,31.94,393005.79,7237956.26
"61659",61659,1981,38,"w","Blue wildebeest",20,-24.97,31.94,393005.79,7237956.26
"61660",61660,1981,38,"w","Blue wildebeest",29,-24.97,31.94,393005.79,7237956.26
"61678",61678,1981,38,"w","Blue wildebeest",22,-24.93,31.92,390951.65,7242369.97
"61688",61688,1981,38,"w","Blue wildebeest",53,-24.93,31.94,392971.22,7242385.87
"61698",61698,1981,38,"w","Blue wildebeest",3,-24.95,31.92,390969.26,7240155.16
"61699",61699,1981,38,"w","Blue wildebeest",4,-24.95,31.92,390969.26,7240155.16
"61700",61700,1981,38,"w","Blue wildebeest",50,-24.95,31.92,390969.26,7240155.16
"61707",61707,1981,38,"w","Blue wildebeest",29,-24.95,31.94,392988.5,7240171.07
"61786",61786,1981,38,"w","Blue wildebeest",19,-25.1,31.98,397152.05,7223590.95
"61826",61826,1981,38,"w","Blue wildebeest",12,-25.06,31.96,395101.2,7228005.23
"61827",61827,1981,38,"w","Blue wildebeest",15,-25.06,31.96,395101.2,7228005.23
"61844",61844,1981,38,"w","Blue wildebeest",7,-25.06,31.98,397118.62,7228020.59
"61884",61884,1981,38,"w","Blue wildebeest",10,-25.01,31.96,395058.66,7233542.27
"61885",61885,1981,38,"w","Blue wildebeest",11,-25.01,31.96,395058.66,7233542.27
"61898",61898,1981,38,"w","Blue wildebeest",7,-25.01,31.98,397076.91,7233557.62
"61913",61913,1981,38,"w","Blue wildebeest",14,-25.03,31.96,395075.67,7231327.46
"61927",61927,1981,38,"w","Blue wildebeest",25,-25.03,31.98,397093.58,7231342.81
"61949",61949,1981,38,"w","Blue wildebeest",9,-24.99,31.96,395041.67,7235757.08
"62047",62047,1981,38,"w","Blue wildebeest",12,-25.1,32.01,400177.19,7223613.46
"62213",62213,1981,39,"w","Blue wildebeest",6,-25.14,31.21,319557.94,7218352.4
"62214",62214,1981,39,"w","Blue wildebeest",7,-25.14,31.21,319557.94,7218352.4
"62215",62215,1981,39,"w","Blue wildebeest",12,-25.14,31.21,319557.94,7218352.4
"62231",62231,1981,39,"w","Blue wildebeest",6,-25.14,31.23,321574.47,7218379.02
"62245",62245,1981,39,"w","Blue wildebeest",7,-25.16,31.23,321603.56,7216163.73
"62387",62387,1981,39,"w","Blue wildebeest",14,-25.06,31.28,326502.85,7227305.25
"62422",62422,1981,39,"w","Blue wildebeest",10,-25.01,31.26,324413.85,7232817.54
"62631",62631,1981,39,"w","Blue wildebeest",6,-24.97,31.34,332434.03,7237349.2
"62774",62774,1981,40,"w","Blue wildebeest",18,-25.22,31.26,324713.76,7209557.27
"62787",62787,1981,40,"w","Blue wildebeest",8,-25.22,31.28,326728.93,7209583.2
"62804",62804,1981,40,"w","Blue wildebeest",7,-25.24,31.28,326757.29,7207367.92
"62853",62853,1981,40,"w","Blue wildebeest",5,-25.2,31.28,326700.6,7211798.48
"62854",62854,1981,40,"w","Blue wildebeest",10,-25.2,31.28,326700.6,7211798.48
"62901",62901,1981,40,"w","Blue wildebeest",15,-25.33,31.3,328898.49,7197424.81
"62902",62902,1981,40,"w","Blue wildebeest",15,-25.33,31.3,328898.49,7197424.81
"62929",62929,1981,40,"w","Blue wildebeest",17,-25.28,31.32,330842.39,7202988.4
"62953",62953,1981,40,"w","Blue wildebeest",14,-25.24,31.3,328772.12,7207393.57
"62979",62979,1981,40,"w","Blue wildebeest",27,-25.18,31.3,328688.11,7214039.35
"63010",63010,1981,40,"w","Blue wildebeest",2,-25.2,31.32,330731.57,7211849.42
"63233",63233,1981,41,"w","Blue wildebeest",8,-25.16,31.4,338740.7,7216378.06
"63271",63271,1981,41,"w","Blue wildebeest",4,-25.28,31.44,342927.06,7203134.36
"63276",63276,1981,41,"w","Blue wildebeest",5,-25.22,31.42,340834.79,7209756.34
"63367",63367,1981,41,"w","Blue wildebeest",7,-25.26,31.46,344915.7,7205372.8
"63502",63502,1981,41,"w","Blue wildebeest",10,-25.12,31.51,349779.98,7220935.4
"63639",63639,1981,42,"w","Blue wildebeest",6,-25.12,31.53,351796.65,7220957.52
"63640",63640,1981,42,"w","Blue wildebeest",7,-25.12,31.53,351796.65,7220957.52
"63641",63641,1981,42,"w","Blue wildebeest",12,-25.12,31.53,351796.65,7220957.52
"63803",63803,1981,42,"w","Blue wildebeest",7,-25.24,31.57,355971.1,7207710.45
"63844",63844,1981,42,"w","Blue wildebeest",24,-25.2,31.57,355923.97,7212140.6
"63860",63860,1981,42,"w","Blue wildebeest",20,-25.14,31.55,353837.11,7218764.27
"63888",63888,1981,42,"w","Blue wildebeest",10,-25.1,31.55,353789.5,7223194.4
"63915",63915,1981,42,"w","Blue wildebeest",16,-25.12,31.57,355829.94,7221000.86
"64083",64083,1981,42,"w","Blue wildebeest",6,-25.22,31.61,359977.48,7209967.79
"64152",64152,1981,42,"w","Blue wildebeest",6,-25.2,31.59,357939.29,7212161.88
"64347",64347,1981,43,"w","Blue wildebeest",9,-25.08,31.42,340653.01,7225262.45
"64368",64368,1981,43,"w","Blue wildebeest",4,-25.01,31.42,340562.48,7233015.4
"64492",64492,1981,43,"w","Blue wildebeest",15,-25.01,31.46,344599.51,7233061.88
"65428",65428,1981,44,"w","Blue wildebeest",7,-25.35,31.86,385286.12,7195807.68
"65457",65457,1981,44,"w","Blue wildebeest",13,-25.31,31.84,383235.04,7200220.3
"65579",65579,1981,45,"w","Blue wildebeest",11,-25.26,31.82,381172.96,7205740.12
"65615",65615,1981,45,"w","Blue wildebeest",17,-25.24,31.82,381153.5,7207955.06
"65640",65640,1981,45,"w","Blue wildebeest",15,-25.18,31.82,381095.2,7214599.87
"65669",65669,1981,45,"w","Blue wildebeest",5,-25.16,31.8,379059.94,7216796.99
"65727",65727,1981,45,"w","Blue wildebeest",9,-25.24,31.84,383168.02,7207972.61
"65947",65947,1981,46,"w","Blue wildebeest",4,-25.26,31.84,383187.15,7205757.67
"65964",65964,1981,46,"w","Blue wildebeest",29,-25.26,31.86,385201.34,7205774.93
"66227",66227,1981,46,"w","Blue wildebeest",15,-25.26,31.92,391243.84,7205824.89
"66228",66228,1981,46,"w","Blue wildebeest",19,-25.26,31.92,391243.84,7205824.89
"66239",66239,1981,46,"w","Blue wildebeest",9,-25.26,31.94,393258,7205840.94
"66240",66240,1981,46,"w","Blue wildebeest",18,-25.26,31.94,393258,7205840.94
"66265",66265,1981,46,"w","Blue wildebeest",3,-25.22,31.92,391208.24,7210254.68
"66266",66266,1981,46,"w","Blue wildebeest",5,-25.22,31.92,391208.24,7210254.68
"66267",66267,1981,46,"w","Blue wildebeest",11,-25.22,31.92,391208.24,7210254.68
"66268",66268,1981,46,"w","Blue wildebeest",27,-25.22,31.92,391208.24,7210254.68
"66300",66300,1981,46,"w","Blue wildebeest",3,-25.24,31.92,391226.03,7208039.78
"66301",66301,1981,46,"w","Blue wildebeest",38,-25.24,31.92,391226.03,7208039.78
"66323",66323,1981,46,"w","Blue wildebeest",3,-25.24,31.94,393240.51,7208055.83
"66364",66364,1981,46,"w","Blue wildebeest",14,-25.18,31.94,393188.15,7214700.46
"66378",66378,1981,46,"w","Blue wildebeest",8,-25.2,31.92,391190.45,7212469.56
"66389",66389,1981,46,"w","Blue wildebeest",9,-25.2,31.94,393205.59,7212485.59
"66528",66528,1981,46,"w","Blue wildebeest",14,-25.35,31.98,397362.12,7195905.15
"66580",66580,1981,46,"w","Blue wildebeest",8,-25.31,31.96,395315.07,7200319.47
"66635",66635,1981,46,"w","Blue wildebeest",16,-25.26,31.96,395272.14,7205856.69
"66663",66663,1981,46,"w","Blue wildebeest",9,-25.28,31.98,397303.11,7203657.27
"66679",66679,1981,46,"w","Blue wildebeest",15,-25.22,31.96,395237.85,7210286.45
"66680",66680,1981,46,"w","Blue wildebeest",29,-25.22,31.96,395237.85,7210286.45
"66714",66714,1981,46,"w","Blue wildebeest",4,-25.24,31.96,395254.99,7208071.57
"66715",66715,1981,46,"w","Blue wildebeest",7,-25.24,31.96,395254.99,7208071.57
"66716",66716,1981,46,"w","Blue wildebeest",12,-25.24,31.96,395254.99,7208071.57
"66717",66717,1981,46,"w","Blue wildebeest",76,-25.24,31.96,395254.99,7208071.57
"66734",66734,1981,46,"w","Blue wildebeest",16,-25.24,31.98,397269.45,7208087.01
"66735",66735,1981,46,"w","Blue wildebeest",27,-25.24,31.98,397269.45,7208087.01
"66995",66995,1981,47,"w","Blue wildebeest",8,-22.72,31.15,309997.05,7486290.58
"67054",67054,1981,47,"w","Blue wildebeest",4,-22.74,31.19,314133.25,7484126.59
"67102",67102,1981,47,"w","Blue wildebeest",13,-22.72,31.21,316160.75,7486366.23
"67107",67107,1981,47,"w","Blue wildebeest",17,-22.72,31.23,318215.29,7486390.89
"67126",67126,1981,47,"w","Blue wildebeest",7,-22.7,31.23,318188.87,7488605.55
"67176",67176,1981,47,"w","Blue wildebeest",9,-22.78,31.26,321375.11,7479783.42
"67194",67194,1981,47,"w","Blue wildebeest",37,-22.74,31.28,323377.25,7484236.7
"67217",67217,1981,47,"w","Blue wildebeest",5,-22.64,31.26,321193.3,7495285.87
"67227",67227,1981,47,"w","Blue wildebeest",9,-22.66,31.26,321219.2,7493071.25
"67228",67228,1981,47,"w","Blue wildebeest",42,-22.66,31.26,321219.2,7493071.25
"67239",67239,1981,47,"w","Blue wildebeest",22,-22.76,31.3,325456.85,7482045.8
"67343",67343,1981,48,"w","Blue wildebeest",1,-22.83,31.23,318361,7474210.17
"67366",67366,1981,48,"w","Blue wildebeest",19,-22.85,31.26,321466.41,7472032.11
"67430",67430,1981,48,"w","Blue wildebeest",14,-22.87,31.32,327649.24,7469888.87
"67486",67486,1981,48,"w","Blue wildebeest",7,-22.87,31.36,331753.63,7469935.1
"67530",67530,1981,48,"w","Blue wildebeest",7,-22.87,31.38,333805.8,7469957.79
"67637",67637,1981,49,"w","Blue wildebeest",18,-22.99,31.32,327801.08,7456601.02
"67739",67739,1981,49,"w","Blue wildebeest",31,-22.99,31.42,338052.89,7456714.96
"67866",67866,1981,50,"w","Blue wildebeest",16,-23.03,31.42,338100.65,7452285.79
"67953",67953,1981,50,"w","Blue wildebeest",4,-23.12,31.51,347425.86,7442417.06
"68014",68014,1981,52,"w","Blue wildebeest",7,-23.08,31.19,314596.42,7446475.94
"68033",68033,1981,52,"w","Blue wildebeest",6,-23.18,31.23,318829.08,7435452.31
"68058",68058,1981,52,"w","Blue wildebeest",24,-23.14,31.21,316727.04,7439856.85
"68094",68094,1981,52,"w","Blue wildebeest",6,-23.1,31.21,316672.69,7444286.41
"68125",68125,1981,52,"w","Blue wildebeest",11,-23.14,31.26,321847.51,7439918.85
"68126",68126,1981,52,"w","Blue wildebeest",23,-23.14,31.26,321847.51,7439918.85
"68127",68127,1981,52,"w","Blue wildebeest",24,-23.14,31.26,321847.51,7439918.85
"68133",68133,1981,52,"w","Blue wildebeest",4,-23.16,31.26,321873.96,7437704.11
"68134",68134,1981,52,"w","Blue wildebeest",10,-23.16,31.26,321873.96,7437704.11
"68150",68150,1981,52,"w","Blue wildebeest",25,-23.12,31.28,323869.55,7442157.89
"68193",68193,1981,52,"w","Blue wildebeest",31,-23.1,31.3,325892.2,7444396.61
"68195",68195,1981,52,"w","Blue wildebeest",14,-23.1,31.32,327940.94,7444420.32
"68201",68201,1981,52,"w","Blue wildebeest",12,-23.12,31.3,325918,7442181.9
"68208",68208,1981,52,"w","Blue wildebeest",31,-23.12,31.32,327966.43,7442205.63
"68312",68312,1981,52,"w","Blue wildebeest",7,-23.06,31.38,334037.96,7448919.05
"68340",68340,1981,53,"w","Blue wildebeest",7,-23.14,30.94,289074.77,7439491.61
"68433",68433,1981,53,"w","Blue wildebeest",13,-23.1,30.98,293110.25,7443978.93
"68537",68537,1981,53,"w","Blue wildebeest",4,-23.06,31.01,296123.4,7448451.04
"68546",68546,1981,53,"w","Blue wildebeest",2,-23.06,31.03,298172.97,7448478.79
"68551",68551,1981,53,"w","Blue wildebeest",3,-23.08,31.01,296153.55,7446236.09
"68579",68579,1981,53,"w","Blue wildebeest",10,-23.03,31.03,298128.24,7451801.18
"68580",68580,1981,53,"w","Blue wildebeest",12,-23.03,31.03,298128.24,7451801.18
"68727",68727,1981,53,"w","Blue wildebeest",16,-23.12,31.13,308505.69,7441968.83
"68735",68735,1981,53,"w","Blue wildebeest",21,-23.08,31.15,310498.12,7446424.6
"68808",68808,1981,53,"w","Blue wildebeest",14,-23.14,31.17,312630.6,7439805.97
"68809",68809,1981,53,"w","Blue wildebeest",32,-23.14,31.17,312630.6,7439805.97
"68891",68891,1981,54,"w","Blue wildebeest",8,-22.95,30.98,292881.08,7460591.15
"69158",69158,1981,54,"w","Blue wildebeest",16,-22.99,31.13,308321.61,7456365.24
"69210",69210,1981,54,"w","Blue wildebeest",11,-23.03,31.19,314527.89,7452012.89
"69254",69254,1981,54,"w","Blue wildebeest",40,-23.06,31.21,316618.42,7448715.95
"69459",69459,1981,55,"w","Blue wildebeest",13,-22.87,31.05,299943.02,7469547.65
"69477",69477,1981,55,"w","Blue wildebeest",15,-22.87,31.07,301995.43,7469574.67
"69542",69542,1981,55,"w","Blue wildebeest",16,-22.89,31.11,306128.63,7467413.06
"69552",69552,1981,55,"w","Blue wildebeest",2,-22.85,31.11,306071.82,7471842.67
"69775",69775,1981,56,"w","Blue wildebeest",20,-25.35,31.42,341004.42,7195357.57
"69791",69791,1981,56,"w","Blue wildebeest",12,-25.37,31.44,343043.18,7193165.99
"69806",69806,1981,56,"w","Blue wildebeest",4,-25.33,31.44,342991.53,7197596.39
"69850",69850,1981,56,"w","Blue wildebeest",2,-25.31,31.48,346992.86,7199857.87
"70085",70085,1981,56,"w","Blue wildebeest",8,-25.35,31.57,356101.04,7195527.39
"70086",70086,1981,56,"w","Blue wildebeest",9,-25.35,31.57,356101.04,7195527.39
"70819",70819,1981,58,"w","Blue wildebeest",6,-25.18,31.67,365978.54,7214458.97
"71115",71115,1981,58,"w","Blue wildebeest",12,-25.14,31.76,375007.83,7218975.44
