"","ID","Year","Cenb","Sp","Description","No","Lat","Long","X.coord","Y.coord"
"386881",386881,1994,1,"rb","Reedbuck",3,-23.98,31.61,358590.41,7347290.51
"390670",390670,1994,6,"rb","Reedbuck",2,-23.51,31.48,344806.94,7399200.25
"390672",390672,1994,6,"rb","Reedbuck",2,-23.5,31.48,344795.22,7400307.58
"391087",391087,1994,7,"rb","Reedbuck",1,-23.28,31.39,335332.02,7424569.22
