"","ID","Year","Cenb","Sp","Description","No","Lat","Long","X.coord","Y.coord"
"287188",287188,1990,52,"b","Buffalo",3,-23.03,31.28,323752.25,7452124.09
"287350",287350,1990,52,"b","Buffalo",250,-23.12,31.28,323869.55,7442157.89
"287493",287493,1990,52,"b","Buffalo",4,-23.16,31.19,314706.35,7437616.75
"287614",287614,1990,53,"b","Buffalo",80,-23.1,31,295159.24,7444007.14
"287618",287618,1990,53,"b","Buffalo",100,-23.12,31.01,296213.94,7441806.19
"287638",287638,1990,53,"b","Buffalo",400,-23.11,31.02,297223.25,7442927.6
"287660",287660,1990,53,"b","Buffalo",5,-23.11,31.06,301320.85,7442982.64
"287664",287664,1990,53,"b","Buffalo",5,-23.15,31.07,302403.88,7438566.41
"287674",287674,1990,53,"b","Buffalo",4,-23.17,31.08,303457.16,7436365.04
"287832",287832,1990,53,"b","Buffalo",11,-22.98,30.94,288825.11,7457211.69
"287853",287853,1990,53,"b","Buffalo",400,-23.08,30.97,292054.95,7446179.71
"287855",287855,1990,53,"b","Buffalo",4,-23.07,30.97,292039.57,7447287.2
"287897",287897,1990,53,"b","Buffalo",30,-23.07,30.98,293064.3,7447301.4
"288014",288014,1990,53,"b","Buffalo",250,-23.01,31.02,297073.28,7454002.27
"288112",288112,1990,53,"b","Buffalo",150,-23.11,31.08,303369.63,7443009.74
"288236",288236,1990,53,"b","Buffalo",400,-23.06,31.12,307395.86,7448600.21
"288419",288419,1990,54,"b","Buffalo",1,-22.97,31,294962.52,7458404.29
"288625",288625,1990,54,"b","Buffalo",200,-22.9,31.12,307168.8,7466318.8
"289132",289132,1990,55,"b","Buffalo",27,-22.8,30.98,292653.32,7477203.1
"289248",289248,1990,55,"b","Buffalo",250,-22.91,31.2,315389.87,7465314.03
"289324",289324,1990,55,"b","Buffalo",2,-22.83,31.2,315281.67,7474172.93
"289442",289442,1990,47,"b","Buffalo",16,-22.63,31.18,312956.84,7496294.84
"289455",289455,1990,47,"b","Buffalo",4,-22.64,31.17,311942.5,7495174.9
"289542",289542,1990,47,"b","Buffalo",9,-22.71,31.19,314092.69,7487448.64
"289646",289646,1990,48,"b","Buffalo",120,-22.87,31.43,338936.17,7470013.31
"289672",289672,1990,48,"b","Buffalo",6,-22.76,31.36,331618.4,7482115.29
"289747",289747,1990,48,"b","Buffalo",150,-22.83,31.24,319387.44,7474222.44
"289748",289748,1990,48,"b","Buffalo",500,-22.84,31.24,319400.64,7473115.1
"289853",289853,1990,48,"b","Buffalo",9,-22.9,31.24,319479.99,7466471.02
"289951",289951,1990,49,"b","Buffalo",200,-22.95,31.29,324673.87,7460994.82
"289982",289982,1990,49,"b","Buffalo",3,-22.98,31.25,320611.39,7457624.45
"289999",289999,1990,49,"b","Buffalo",4,-22.96,31.36,331864.73,7459969.37
"290070",290070,1990,49,"b","Buffalo",7,-22.91,31.36,331802.95,7465505.9
"290152",290152,1990,50,"b","Buffalo",4,-23.03,31.38,334001.18,7452240.99
"290252",290252,1990,50,"b","Buffalo",40,-23.12,31.5,346401.71,7442406.57
"290285",290285,1990,50,"b","Buffalo",14,-23.17,31.53,349529.99,7436901.49
"290291",290291,1990,50,"b","Buffalo",3,-23.04,31.5,346310.77,7451264.75
"290323",290323,1990,50,"b","Buffalo",500,-23.02,31.46,342188.42,7453436.74
"290407",290407,1990,6,"b","Buffalo",2,-23.75,31.41,337954.36,7372545.78
"290574",290574,1990,6,"b","Buffalo",200,-23.64,31.47,343939.55,7384793.87
"290601",290601,1990,6,"b","Buffalo",3,-23.64,31.43,339858.85,7384749.59
"290634",290634,1990,6,"b","Buffalo",140,-23.62,31.46,342895.51,7386997.63
"290705",290705,1990,6,"b","Buffalo",150,-23.6,31.31,327564.06,7389039.55
"290706",290706,1990,6,"b","Buffalo",150,-23.6,31.32,328584.59,7389051.57
"291080",291080,1990,7,"b","Buffalo",250,-23.45,31.24,320216.5,7405564.86
"291087",291087,1990,7,"b","Buffalo",50,-23.44,31.27,323268.33,7406709.43
"291095",291095,1990,7,"b","Buffalo",150,-23.43,31.32,328364.28,7407877.31
"291157",291157,1990,7,"b","Buffalo",300,-23.49,31.25,321292.11,7401147.65
"291240",291240,1990,7,"b","Buffalo",300,-23.53,31.32,328493.69,7396803.39
"291382",291382,1990,9,"b","Buffalo",150,-23.48,31.14,310042.08,7402113.98
"291393",291393,1990,9,"b","Buffalo",120,-23.49,31.14,310056.42,7401006.51
"291709",291709,1990,9,"b","Buffalo",200,-23.6,31.16,312255.64,7388850.7
"292113",292113,1990,10,"b","Buffalo",250,-23.44,31.13,308962.98,7406530.6
"292481",292481,1990,11,"b","Buffalo",200,-23.23,31.27,322990.1,7429964.68
"292600",292600,1990,11,"b","Buffalo",2,-23.18,30.97,292209.16,7435104.71
"292612",292612,1990,11,"b","Buffalo",150,-23.19,30.98,293248.43,7434011.46
"293231",293231,1990,13,"b","Buffalo",200,-23.63,31.5,346988.42,7385933.67
"293278",293278,1990,13,"b","Buffalo",100,-23.74,31.57,354252.14,7373826.26
"293293",293293,1990,13,"b","Buffalo",100,-23.76,31.54,351216.78,7371580.51
"293364",293364,1990,13,"b","Buffalo",2,-23.79,31.65,362459.51,7368369.35
"293379",293379,1990,13,"b","Buffalo",100,-23.78,31.62,359391.89,7369447.3
"293540",293540,1990,14,"b","Buffalo",150,-23.55,31.45,341791.26,7394738.1
"293792",293792,1990,15,"b","Buffalo",200,-23.37,31.52,348732.27,7414745.3
"293820",293820,1990,15,"b","Buffalo",9,-23.31,31.52,348664.27,7421389.1
"293851",293851,1990,18,"b","Buffalo",200,-23.18,31.37,333161.78,7435619.75
"293852",293852,1990,18,"b","Buffalo",300,-23.18,31.35,331114.3,7435596.68
"293916",293916,1990,18,"b","Buffalo",80,-23.19,31.52,348528.75,7434676.56
"293920",293920,1990,18,"b","Buffalo",80,-23.18,31.52,348517.49,7435783.84
"294092",294092,1990,18,"b","Buffalo",100,-23.28,31.51,347607.4,7424700.5
"294168",294168,1990,18,"b","Buffalo",150,-23.27,31.53,349642.02,7425828.68
"294192",294192,1990,18,"b","Buffalo",300,-23.17,31.35,331101.74,7436704.02
"294193",294193,1990,18,"b","Buffalo",200,-23.18,31.37,333161.78,7435619.75
"294278",294278,1990,18,"b","Buffalo",80,-23.18,31.53,349541.17,7435794.21
"294288",294288,1990,18,"b","Buffalo",80,-23.19,31.52,348528.75,7434676.56
"294424",294424,1990,18,"b","Buffalo",100,-23.27,31.51,347596.02,7425807.8
"294432",294432,1990,18,"b","Buffalo",100,-23.26,31.52,348607.72,7426925.56
"294489",294489,1990,18,"b","Buffalo",150,-23.27,31.53,349642.02,7425828.68
"294687",294687,1990,19,"b","Buffalo",4,-23.81,31.64,361461.77,7366144.98
"294688",294688,1990,19,"b","Buffalo",30,-23.81,31.64,361461.77,7366144.98
"294751",294751,1990,19,"b","Buffalo",2,-23.64,31.65,362302.08,7384978.97
"295039",295039,1990,1,"b","Buffalo",200,-23.97,31.64,361632.12,7348427.63
"295079",295079,1990,1,"b","Buffalo",12,-24,31.62,359629.57,7345085.8
"295330",295330,1990,1,"b","Buffalo",200,-23.93,31.7,367696.51,7352914.52
"295418",295418,1990,1,"b","Buffalo",40,-23.98,31.69,366730.07,7347368.47
"295627",295627,1990,2,"b","Buffalo",3,-23.9,31.36,333049.77,7355876.58
"295660",295660,1990,2,"b","Buffalo",80,-23.91,31.48,345279.56,7354905.73
"295722",295722,1990,2,"b","Buffalo",2,-23.96,31.56,353480.4,7349454.18
"295723",295723,1990,2,"b","Buffalo",200,-23.95,31.55,352451.38,7350551.13
"295724",295724,1990,2,"b","Buffalo",1,-23.92,31.55,352417.26,7353873.24
"295765",295765,1990,2,"b","Buffalo",1,-23.94,31.47,344297.49,7351572.56
"295771",295771,1990,2,"b","Buffalo",1,-23.94,31.47,344297.49,7351572.56
"295797",295797,1990,2,"b","Buffalo",2,-23.97,31.56,353491.71,7348346.81
"295819",295819,1990,2,"b","Buffalo",2,-24.02,31.55,352531.14,7342799.5
"295936",295936,1990,3,"b","Buffalo",300,-23.96,31.35,332109.23,7349220.1
"296118",296118,1990,3,"b","Buffalo",15,-23.96,31.17,313789.88,7348994.1
"296444",296444,1990,3,"b","Buffalo",9,-23.92,31.18,314750.53,7353437.3
"296608",296608,1990,3,"b","Buffalo",50,-23.89,31.32,328963.88,7356936.2
"296708",296708,1990,4,"b","Buffalo",40,-23.81,31.31,327839.91,7365783.63
"297525",297525,1990,5,"b","Buffalo",80,-23.82,31.36,332947.17,7364735.99
"297549",297549,1990,5,"b","Buffalo",200,-23.83,31.37,333978.7,7363640.32
"297550",297550,1990,5,"b","Buffalo",3,-23.85,31.37,334004.17,7361425.48
"297658",297658,1990,5,"b","Buffalo",17,-23.81,31.41,338028.73,7365901.39
"297797",297797,1990,5,"b","Buffalo",5,-23.82,31.49,346191.33,7364883.06
"297931",297931,1990,5,"b","Buffalo",100,-23.81,31.56,353311.34,7366064.57
"298030",298030,1990,20,"b","Buffalo",6,-24.07,31.63,360722.38,7337344.23
"298450",298450,1990,21,"b","Buffalo",200,-24.11,31.52,349584.61,7332801.16
"298478",298478,1990,21,"b","Buffalo",55,-24.16,31.52,349643.11,7327264.13
"298543",298543,1990,21,"b","Buffalo",3,-24.16,31.61,358787.67,7327357.88
"298691",298691,1990,21,"b","Buffalo",1,-24.24,31.59,356844.95,7318478.42
"298820",298820,1990,22,"b","Buffalo",2,-24.25,31.54,351779.4,7317318.79
"298867",298867,1990,22,"b","Buffalo",2,-24.31,31.56,353878.79,7310695.42
"299556",299556,1990,23,"b","Buffalo",22,-24.25,31.66,363963.47,7317441.09
"299974",299974,1990,24,"b","Buffalo",80,-24.35,31.66,364070.06,7306367.24
"300696",300696,1990,25,"b","Buffalo",40,-24.14,31.75,372992.32,7329706.71
"300925",300925,1990,25,"b","Buffalo",150,-24.06,31.82,380030.94,7338626.9
"301114",301114,1990,26,"b","Buffalo",150,-24.3,31.78,376195.61,7312016.17
"301261",301261,1990,26,"b","Buffalo",120,-24.18,31.74,372016.02,7325268.24
"301262",301262,1990,26,"b","Buffalo",200,-24.4,31.93,391503.99,7301068.19
"301627",301627,1990,27,"b","Buffalo",200,-24.25,31.92,390360.95,7317670.09
"302509",302509,1990,28,"b","Buffalo",400,-24.44,31.95,393565.67,7296654.4
"302793",302793,1990,28,"b","Buffalo",50,-24.49,31.8,378407.41,7290994.01
"303006",303006,1990,28,"b","Buffalo",120,-24.65,31.81,379573.82,7273284.7
"303587",303587,1990,31,"b","Buffalo",2,-24.59,31.78,376478.62,7279902.43
"304273",304273,1990,32,"b","Buffalo",150,-24.46,31.5,347969.09,7294019.39
"304496",304496,1990,32,"b","Buffalo",400,-24.76,31.64,362488.96,7260943.08
"304604",304604,1990,32,"b","Buffalo",4,-24.62,31.69,367397.01,7276496.44
"304766",304766,1990,32,"b","Buffalo",20,-24.58,31.5,348113.52,7280729.8
"304811",304811,1990,34,"b","Buffalo",450,-24.64,31.78,376527.73,7274365.47
"304930",304930,1990,34,"b","Buffalo",20,-24.65,31.74,372489.2,7273221.52
"306056",306056,1990,36,"b","Buffalo",50,-24.76,31.75,373612.38,7261049.21
"306059",306059,1990,36,"b","Buffalo",4,-24.85,31.77,375724.57,7251100.73
"306127",306127,1990,36,"b","Buffalo",2,-24.77,31.8,378678.1,7259987.08
"307254",307254,1990,37,"b","Buffalo",50,-25.17,32.02,401241.89,7215868.94
"307578",307578,1990,37,"b","Buffalo",4,-24.91,31.91,389924.11,7244576.72
"307606",307606,1990,37,"b","Buffalo",3,-24.96,32.02,401073.36,7239124.34
"307836",307836,1990,38,"b","Buffalo",200,-24.95,31.76,374815.02,7240017.18
"307851",307851,1990,38,"b","Buffalo",80,-24.92,31.75,373774.8,7243330.27
"307926",307926,1990,38,"b","Buffalo",150,-25.02,31.82,380940.38,7232319.1
"307999",307999,1990,38,"b","Buffalo",200,-25.1,31.89,388076.53,7223519.38
"308387",308387,1990,39,"b","Buffalo",160,-25.07,31.27,325508.12,7226184.76
"308952",308952,1990,40,"b","Buffalo",90,-25.19,31.24,322655.09,7212853.99
"308959",308959,1990,40,"b","Buffalo",27,-25.22,31.25,323706.17,7209544.19
"309029",309029,1990,40,"b","Buffalo",250,-25.37,31.3,328954.79,7192994.22
"309529",309529,1990,41,"b","Buffalo",150,-25.16,31.49,347812.92,7216482.76
"310015",310015,1990,42,"b","Buffalo",3,-25.17,31.57,355888.68,7215463.21
"310196",310196,1990,42,"b","Buffalo",3,-25.1,31.59,357823.43,7223237.11
"310911",310911,1990,44,"b","Buffalo",40,-25.4,31.65,364208.24,7190073.35
"310918",310918,1990,44,"b","Buffalo",100,-25.4,31.67,366220.2,7190093.53
"311064",311064,1990,44,"b","Buffalo",300,-25.3,31.73,372150.9,7201227.4
"311139",311139,1990,44,"b","Buffalo",3,-25.19,31.62,360950.87,7213300.74
"311327",311327,1990,44,"b","Buffalo",7,-25.31,31.8,379208.3,7200184.84
"311914",311914,1990,45,"b","Buffalo",400,-25.15,31.91,390138.06,7217998.64
"312257",312257,1990,46,"b","Buffalo",400,-25.32,31.91,390290.77,7199172
"312736",312736,1990,56,"b","Buffalo",15,-25.38,31.56,355130.4,7192193.91
"312756",312756,1990,56,"b","Buffalo",150,-25.42,31.51,350148.93,7187708.42
"312898",312898,1990,56,"b","Buffalo",60,-25.5,31.41,340195.96,7178731.34
"313330",313330,1990,57,"b","Buffalo",20,-25.09,31.76,374956.96,7224512.79
"313621",313621,1990,58,"b","Buffalo",30,-25.07,31.77,375945.32,7226736.93
"313835",313835,1990,60,"b","Buffalo",50,-24.99,31.6,358705.86,7235430.17
