"","ID","Year","Cenb","Sp","Description","No","Lat","Long","X.coord","Y.coord"
"287299",287299,1990,52,"wb","Waterbuck",1,-23.13,31.33,329003.32,7441110.05
"287432",287432,1990,52,"wb","Waterbuck",4,-23.19,31.24,319866.26,7434357.34
"287434",287434,1990,52,"wb","Waterbuck",2,-23.19,31.24,319866.26,7434357.34
"287436",287436,1990,52,"wb","Waterbuck",1,-23.18,31.23,318829.08,7435452.31
"287438",287438,1990,52,"wb","Waterbuck",1,-23.17,31.24,319839.48,7436572.12
"287450",287450,1990,52,"wb","Waterbuck",4,-23.19,31.23,318842.55,7434344.92
"287539",287539,1990,53,"wb","Waterbuck",3,-23.13,30.96,291107.7,7440627.93
"287540",287540,1990,53,"wb","Waterbuck",12,-23.14,30.97,292147.4,7439534.72
"287546",287546,1990,53,"wb","Waterbuck",2,-23.13,30.97,292131.98,7440642.22
"287616",287616,1990,53,"wb","Waterbuck",3,-23.11,31.01,296198.84,7442913.67
"287629",287629,1990,53,"wb","Waterbuck",1,-23.17,31.03,298337.47,7436296.63
"287646",287646,1990,53,"wb","Waterbuck",2,-23.15,31.05,300355.7,7438539.14
"287761",287761,1990,53,"wb","Waterbuck",1,-23.19,31.17,312700.19,7434268.91
"288011",288011,1990,53,"wb","Waterbuck",5,-23.02,31.02,297088.25,7452894.81
"288026",288026,1990,53,"wb","Waterbuck",1,-23.02,31.03,298113.34,7452908.63
"288031",288031,1990,53,"wb","Waterbuck",8,-23,31.04,299108.8,7455137.29
"288032",288032,1990,53,"wb","Waterbuck",8,-23.01,31.04,299123.61,7454029.84
"288256",288256,1990,53,"wb","Waterbuck",3,-23.03,31.13,308378.15,7451935.6
"288310",288310,1990,54,"wb","Waterbuck",1,-22.98,30.92,286774.24,7457182.75
"288333",288333,1990,54,"wb","Waterbuck",2,-22.97,30.94,288809.56,7458319.18
"288335",288335,1990,54,"wb","Waterbuck",2,-22.96,30.94,288794.02,7459426.68
"288337",288337,1990,54,"wb","Waterbuck",1,-22.96,30.94,288794.02,7459426.68
"288422",288422,1990,54,"wb","Waterbuck",1,-22.94,31.01,295942.97,7461740.61
"288429",288429,1990,54,"wb","Waterbuck",5,-22.88,31.02,296879.25,7468399.16
"288431",288431,1990,54,"wb","Waterbuck",4,-22.88,31.03,297905.39,7468412.92
"288432",288432,1990,54,"wb","Waterbuck",1,-22.88,31.03,297905.39,7468412.92
"288433",288433,1990,54,"wb","Waterbuck",2,-22.89,31.02,296894.13,7467291.71
"288450",288450,1990,54,"wb","Waterbuck",6,-22.88,31.04,298931.54,7468426.6
"288455",288455,1990,54,"wb","Waterbuck",5,-22.88,31.05,299957.67,7468440.22
"288458",288458,1990,54,"wb","Waterbuck",1,-22.9,31.04,298961.02,7466211.73
"288476",288476,1990,54,"wb","Waterbuck",9,-22.88,31.06,300983.81,7468453.77
"288477",288477,1990,54,"wb","Waterbuck",22,-22.89,31.06,300998.4,7467346.34
"288478",288478,1990,54,"wb","Waterbuck",16,-22.89,31.06,300998.4,7467346.34
"288597",288597,1990,54,"wb","Waterbuck",5,-22.89,31.11,306128.63,7467413.06
"288613",288613,1990,54,"wb","Waterbuck",5,-22.88,31.13,308166.63,7468546.66
"288614",288614,1990,54,"wb","Waterbuck",4,-22.88,31.13,308166.63,7468546.66
"288617",288617,1990,54,"wb","Waterbuck",8,-22.88,31.14,309192.73,7468559.65
"288618",288618,1990,54,"wb","Waterbuck",5,-22.88,31.14,309192.73,7468559.65
"288626",288626,1990,54,"wb","Waterbuck",3,-22.9,31.12,307168.8,7466318.8
"288639",288639,1990,54,"wb","Waterbuck",1,-22.9,31.13,308194.76,7466331.87
"288651",288651,1990,54,"wb","Waterbuck",3,-22.9,31.16,311272.59,7466370.66
"288668",288668,1990,54,"wb","Waterbuck",1,-22.92,31.13,308222.91,7464117.07
"288671",288671,1990,54,"wb","Waterbuck",1,-22.92,31.16,311300.29,7464155.89
"288700",288700,1990,54,"wb","Waterbuck",3,-22.92,31.19,314377.64,7464194.07
"288709",288709,1990,54,"wb","Waterbuck",7,-22.93,31.2,315416.97,7463099.29
"288755",288755,1990,54,"wb","Waterbuck",6,-22.94,31.2,315430.53,7461991.92
"288776",288776,1990,54,"wb","Waterbuck",9,-22.95,31.21,316469.65,7460897.08
"288779",288779,1990,54,"wb","Waterbuck",5,-22.95,31.22,317495.19,7460909.54
"288784",288784,1990,54,"wb","Waterbuck",3,-22.95,31.23,318520.72,7460921.94
"288834",288834,1990,54,"wb","Waterbuck",5,-22.96,31.23,318534.07,7459814.57
"288893",288893,1990,54,"wb","Waterbuck",6,-22.99,31.17,312422.67,7456416.98
"288895",288895,1990,54,"wb","Waterbuck",1,-23,31.17,312436.49,7455309.59
"288905",288905,1990,54,"wb","Waterbuck",2,-23.01,31.17,312450.32,7454202.2
"288939",288939,1990,54,"wb","Waterbuck",3,-23,31.28,323713.25,7455446.13
"288960",288960,1990,54,"wb","Waterbuck",10,-23.02,31.17,312464.16,7453094.8
"288963",288963,1990,54,"wb","Waterbuck",2,-23.03,31.15,310428.08,7451961.64
"288967",288967,1990,54,"wb","Waterbuck",5,-23.03,31.15,310428.08,7451961.64
"288970",288970,1990,54,"wb","Waterbuck",8,-23.03,31.17,312477.99,7451987.41
"289163",289163,1990,55,"wb","Waterbuck",1,-22.85,31.02,296834.62,7471721.49
"289180",289180,1990,55,"wb","Waterbuck",14,-22.87,31.03,297890.59,7469520.36
"289181",289181,1990,55,"wb","Waterbuck",4,-22.87,31.04,298916.8,7469534.04
"289182",289182,1990,55,"wb","Waterbuck",12,-22.87,31.04,298916.8,7469534.04
"289229",289229,1990,55,"wb","Waterbuck",5,-22.93,31.22,317468.36,7463124.27
"289231",289231,1990,55,"wb","Waterbuck",14,-22.92,31.21,316429.19,7464219.18
"289235",289235,1990,55,"wb","Waterbuck",5,-22.91,31.21,316415.71,7465326.55
"289242",289242,1990,55,"wb","Waterbuck",3,-22.92,31.2,315403.42,7464206.66
"289263",289263,1990,55,"wb","Waterbuck",6,-22.89,31.2,315362.78,7467528.76
"289268",289268,1990,55,"wb","Waterbuck",6,-22.89,31.19,314336.78,7467516.19
"289277",289277,1990,55,"wb","Waterbuck",3,-22.85,31.23,318387.57,7471995.48
"289280",289280,1990,55,"wb","Waterbuck",2,-22.83,31.23,318361,7474210.17
"289311",289311,1990,55,"wb","Waterbuck",2,-22.87,31.18,313283.41,7469718.29
"289371",289371,1990,55,"wb","Waterbuck",1,-22.87,31.08,303021.63,7469588.08
"289372",289372,1990,55,"wb","Waterbuck",4,-22.87,31.08,303021.63,7469588.08
"289378",289378,1990,55,"wb","Waterbuck",7,-22.85,31.09,304019.14,7471816.23
"289400",289400,1990,55,"wb","Waterbuck",1,-22.87,31.13,308152.57,7469654.05
"289403",289403,1990,55,"wb","Waterbuck",1,-22.85,31.15,310177.13,7471894.72
"289416",289416,1990,55,"wb","Waterbuck",4,-22.89,31.16,311258.75,7467478.04
"289661",289661,1990,48,"wb","Waterbuck",1,-22.88,31.41,336895.98,7468884.03
"289764",289764,1990,48,"wb","Waterbuck",1,-22.84,31.26,321453.35,7473139.44
"289781",289781,1990,48,"wb","Waterbuck",1,-22.86,31.25,320453.28,7470912.63
"289862",289862,1990,48,"wb","Waterbuck",1,-22.86,31.38,333793.63,7471065.08
"289864",289864,1990,48,"wb","Waterbuck",1,-22.85,31.39,334807.7,7472183.61
"289868",289868,1990,48,"wb","Waterbuck",2,-22.86,31.39,334819.79,7471076.32
"289872",289872,1990,48,"wb","Waterbuck",5,-22.87,31.38,333805.8,7469957.79
"289915",289915,1990,49,"wb","Waterbuck",1,-22.92,31.25,320532.23,7464268.56
"289917",289917,1990,49,"wb","Waterbuck",4,-22.93,31.24,319519.73,7463148.97
"290170",290170,1990,50,"wb","Waterbuck",6,-23.04,31.46,342211.72,7451222.18
"290172",290172,1990,50,"wb","Waterbuck",17,-23.05,31.45,341198.67,7450104.08
"290176",290176,1990,50,"wb","Waterbuck",15,-23.06,31.41,337111.88,7448952.79
"290177",290177,1990,50,"wb","Waterbuck",4,-23.05,31.4,336075.13,7450048.92
"290180",290180,1990,50,"wb","Waterbuck",3,-23.07,31.4,336099.36,7447834.31
"290183",290183,1990,50,"wb","Waterbuck",1,-23.06,31.42,338136.52,7448963.89
"290185",290185,1990,50,"wb","Waterbuck",1,-23.05,31.45,341198.67,7450104.08
"290196",290196,1990,50,"wb","Waterbuck",4,-23.08,31.4,336111.49,7446727
"290206",290206,1990,50,"wb","Waterbuck",1,-23.07,31.46,342246.69,7447900.33
"290231",290231,1990,50,"wb","Waterbuck",5,-23.1,31.45,341257.39,7444567.63
"290243",290243,1990,50,"wb","Waterbuck",3,-23.12,31.46,342305.07,7442363.88
"290245",290245,1990,50,"wb","Waterbuck",7,-23.12,31.46,342305.07,7442363.88
"290259",290259,1990,50,"wb","Waterbuck",5,-23.13,31.46,342316.77,7441256.59
"290260",290260,1990,50,"wb","Waterbuck",2,-23.13,31.45,341292.68,7441245.74
"290278",290278,1990,50,"wb","Waterbuck",5,-23.21,31.55,351621.66,7432492.94
"290380",290380,1990,6,"wb","Waterbuck",2,-23.74,31.47,344058.39,7373720.23
"290384",290384,1990,6,"wb","Waterbuck",2,-23.75,31.43,339993.02,7372568.43
"290386",290386,1990,6,"wb","Waterbuck",1,-23.75,31.42,338973.69,7372557.14
"290408",290408,1990,6,"wb","Waterbuck",8,-23.75,31.41,337954.36,7372545.78
"290409",290409,1990,6,"wb","Waterbuck",1,-23.75,31.4,336935.03,7372534.35
"290410",290410,1990,6,"wb","Waterbuck",4,-23.75,31.39,335915.69,7372522.84
"290412",290412,1990,6,"wb","Waterbuck",2,-23.75,31.38,334896.35,7372511.27
"290414",290414,1990,6,"wb","Waterbuck",1,-23.75,31.37,333877,7372499.62
"290423",290423,1990,6,"wb","Waterbuck",1,-23.74,31.43,339980.8,7373675.81
"290442",290442,1990,6,"wb","Waterbuck",3,-23.74,31.38,334883.74,7373618.67
"290446",290446,1990,6,"wb","Waterbuck",2,-23.74,31.38,334883.74,7373618.67
"290509",290509,1990,6,"wb","Waterbuck",2,-23.66,31.47,343963.28,7382579.15
"290511",290511,1990,6,"wb","Waterbuck",1,-23.67,31.47,343975.15,7381471.79
"290657",290657,1990,6,"wb","Waterbuck",1,-23.6,31.44,340830.7,7389190.23
"290722",290722,1990,6,"wb","Waterbuck",2,-23.56,31.42,338740.84,7393597.3
"290737",290737,1990,6,"wb","Waterbuck",1,-23.54,31.41,337695.47,7395800.75
"290739",290739,1990,6,"wb","Waterbuck",4,-23.54,31.42,338716.43,7395812.03
"290754",290754,1990,6,"wb","Waterbuck",6,-23.54,31.39,335653.53,7395777.97
"290755",290755,1990,6,"wb","Waterbuck",1,-23.54,31.4,336674.5,7395789.39
"290766",290766,1990,7,"wb","Waterbuck",8,-23.66,31.16,312341.2,7382205.84
"290782",290782,1990,7,"wb","Waterbuck",3,-23.69,31.17,313403.95,7378896.52
"290784",290784,1990,7,"wb","Waterbuck",2,-23.68,31.18,314409.7,7380017.05
"290796",290796,1990,7,"wb","Waterbuck",3,-23.67,31.19,315415.6,7381137.5
"290797",290797,1990,7,"wb","Waterbuck",1,-23.68,31.19,315429.66,7380030.03
"290806",290806,1990,7,"wb","Waterbuck",1,-23.68,31.21,317469.56,7380055.78
"290828",290828,1990,7,"wb","Waterbuck",1,-23.67,31.23,319495.71,7381188.69
"290854",290854,1990,7,"wb","Waterbuck",2,-23.7,31.26,322596.3,7377904.01
"290862",290862,1990,7,"wb","Waterbuck",7,-23.74,31.36,332844.89,7373595.31
"290878",290878,1990,7,"wb","Waterbuck",3,-23.72,31.36,332819.37,7375810.13
"290976",290976,1990,7,"wb","Waterbuck",9,-23.58,31.25,321413.71,7391180.8
"290992",290992,1990,7,"wb","Waterbuck",2,-23.6,31.24,320420.23,7388953.42
"291043",291043,1990,7,"wb","Waterbuck",1,-23.4,31.28,324237.24,7411151.27
"291048",291048,1990,7,"wb","Waterbuck",1,-23.41,31.25,321184.4,7410006.97
"291052",291052,1990,7,"wb","Waterbuck",1,-23.42,31.26,322219.79,7408911.94
"291141",291141,1990,7,"wb","Waterbuck",1,-23.46,31.32,328403.05,7404555.15
"291143",291143,1990,7,"wb","Waterbuck",1,-23.46,31.33,329424.66,7404567.04
"291145",291145,1990,7,"wb","Waterbuck",2,-23.45,31.34,330433.49,7405686.24
"291147",291147,1990,7,"wb","Waterbuck",7,-23.47,31.32,328415.98,7403447.76
"291171",291171,1990,7,"wb","Waterbuck",4,-23.48,31.33,329450.38,7402352.27
"291176",291176,1990,7,"wb","Waterbuck",4,-23.48,31.35,331493.28,7402375.86
"291178",291178,1990,7,"wb","Waterbuck",13,-23.48,31.34,330471.83,7402364.1
"291180",291180,1990,7,"wb","Waterbuck",2,-23.48,31.33,329450.38,7402352.27
"291181",291181,1990,7,"wb","Waterbuck",4,-23.48,31.33,329450.38,7402352.27
"291183",291183,1990,7,"wb","Waterbuck",2,-23.5,31.26,322326.93,7400052.63
"291191",291191,1990,7,"wb","Waterbuck",1,-23.49,31.36,332527.36,7401280.17
"291192",291192,1990,7,"wb","Waterbuck",5,-23.5,31.36,332540,7400172.79
"291197",291197,1990,7,"wb","Waterbuck",1,-23.5,31.34,330497.41,7400149.33
"291216",291216,1990,7,"wb","Waterbuck",1,-23.5,31.4,336625.13,7400218.86
"291217",291217,1990,7,"wb","Waterbuck",1,-23.5,31.39,335603.85,7400207.45
"291247",291247,1990,7,"wb","Waterbuck",5,-23.52,31.35,331544.16,7397946.32
"291258",291258,1990,7,"wb","Waterbuck",6,-23.51,31.38,334595.06,7399088.59
"291404",291404,1990,9,"wb","Waterbuck",1,-23.53,31.15,311134.94,7396589.84
"291469",291469,1990,9,"wb","Waterbuck",4,-23.55,31.11,307079.56,7394321.63
"291472",291472,1990,9,"wb","Waterbuck",2,-23.52,31.1,306014.55,7397630.6
"291531",291531,1990,9,"wb","Waterbuck",2,-23.57,31.25,321400.18,7392288.24
"291536",291536,1990,9,"wb","Waterbuck",19,-23.58,31.25,321413.71,7391180.8
"291557",291557,1990,9,"wb","Waterbuck",2,-23.58,31.24,320393,7391168.29
"291565",291565,1990,9,"wb","Waterbuck",3,-23.57,31.23,319358.59,7392263.15
"291737",291737,1990,9,"wb","Waterbuck",1,-23.63,31.15,311278.04,7385515.1
"291762",291762,1990,9,"wb","Waterbuck",14,-23.57,31.12,308129.61,7392120.08
"291782",291782,1990,9,"wb","Waterbuck",3,-23.59,31.11,307138.01,7389891.66
"291826",291826,1990,10,"wb","Waterbuck",1,-23.34,31.04,299615.81,7417483.26
"292415",292415,1990,11,"wb","Waterbuck",1,-23.26,31.29,325076.03,7426666.8
"292438",292438,1990,11,"wb","Waterbuck",22,-23.24,31.3,326073.24,7428893.57
"292456",292456,1990,11,"wb","Waterbuck",8,-23.23,31.29,325036.89,7429988.92
"292515",292515,1990,11,"wb","Waterbuck",1,-23.19,31.29,324984.77,7434418.4
"292517",292517,1990,11,"wb","Waterbuck",1,-23.18,31.31,327019.28,7435549.68
"292520",292520,1990,11,"wb","Waterbuck",3,-23.22,31.22,317859.51,7431010.24
"292521",292521,1990,11,"wb","Waterbuck",2,-23.21,31.24,319893.07,7432142.57
"292524",292524,1990,11,"wb","Waterbuck",5,-23.21,31.25,320916.63,7432154.93
"292533",292533,1990,11,"wb","Waterbuck",3,-23.19,31.27,322937.38,7434394.19
"292543",292543,1990,11,"wb","Waterbuck",4,-23.18,31.3,325995.52,7435537.76
"292596",292596,1990,11,"wb","Waterbuck",8,-23.19,30.97,292224.61,7433997.21
"292618",292618,1990,11,"wb","Waterbuck",8,-23.17,30.97,292193.71,7436212.22
"292735",292735,1990,11,"wb","Waterbuck",3,-23.2,31.06,301453.61,7433015.5
"292789",292789,1990,11,"wb","Waterbuck",2,-23.22,31.09,304553.82,7430841.25
"293113",293113,1990,11,"wb","Waterbuck",1,-23.21,31.16,311704.48,7432041.15
"293215",293215,1990,11,"wb","Waterbuck",1,-23.23,31.19,314802.83,7429864.89
"293220",293220,1990,11,"wb","Waterbuck",1,-23.21,31.19,314775.23,7432079.71
"293225",293225,1990,13,"wb","Waterbuck",2,-23.61,31.47,343903.99,7388115.93
"293265",293265,1990,13,"wb","Waterbuck",8,-23.72,31.51,348112.74,7375978.21
"293308",293308,1990,13,"wb","Waterbuck",5,-23.79,31.57,354307.84,7368289.56
"293311",293311,1990,13,"wb","Waterbuck",1,-23.8,31.57,354318.99,7367182.22
"293317",293317,1990,13,"wb","Waterbuck",4,-23.82,31.63,360453.67,7365027.86
"293328",293328,1990,13,"wb","Waterbuck",8,-23.81,31.64,361461.77,7366144.98
"293342",293342,1990,13,"wb","Waterbuck",6,-23.8,31.62,359413.42,7367232.64
"293399",293399,1990,13,"wb","Waterbuck",2,-23.75,31.62,359359.64,7372769.27
"293404",293404,1990,13,"wb","Waterbuck",3,-23.75,31.63,360378.91,7372779.12
"293453",293453,1990,13,"wb","Waterbuck",1,-23.7,31.61,358286.32,7378295.95
"293454",293454,1990,13,"wb","Waterbuck",2,-23.7,31.61,358286.32,7378295.95
"293509",293509,1990,14,"wb","Waterbuck",2,-23.6,31.46,342871.67,7389212.34
"293511",293511,1990,14,"wb","Waterbuck",1,-23.6,31.46,342871.67,7389212.34
"293517",293517,1990,14,"wb","Waterbuck",5,-23.59,31.46,342859.75,7390319.69
"293519",293519,1990,14,"wb","Waterbuck",5,-23.58,31.45,341827.2,7391416.03
"293541",293541,1990,14,"wb","Waterbuck",7,-23.55,31.45,341791.26,7394738.1
"293563",293563,1990,14,"wb","Waterbuck",19,-23.52,31.48,344818.66,7398092.91
"293568",293568,1990,14,"wb","Waterbuck",2,-23.53,31.43,339725.27,7396930.6
"293572",293572,1990,14,"wb","Waterbuck",3,-23.52,31.48,344818.66,7398092.91
"293576",293576,1990,14,"wb","Waterbuck",1,-23.51,31.48,344806.94,7399200.25
"293647",293647,1990,14,"wb","Waterbuck",5,-23.44,31.35,331442.48,7406805.37
"293650",293650,1990,14,"wb","Waterbuck",2,-23.45,31.36,332476.85,7405709.67
"293732",293732,1990,15,"wb","Waterbuck",9,-23.41,31.35,331404.44,7410127.49
"293733",293733,1990,15,"wb","Waterbuck",3,-23.41,31.34,330382.45,7410115.75
"293734",293734,1990,15,"wb","Waterbuck",4,-23.41,31.34,330382.45,7410115.75
"293889",293889,1990,18,"wb","Waterbuck",3,-23.12,31.39,335135.84,7442286.48
"293911",293911,1990,18,"wb","Waterbuck",1,-23.1,31.41,337160.08,7444523.57
"293922",293922,1990,18,"wb","Waterbuck",3,-23.18,31.51,347493.8,7435773.39
"293948",293948,1990,18,"wb","Waterbuck",5,-23.14,31.43,339256.41,7440116.52
"293950",293950,1990,18,"wb","Waterbuck",2,-23.14,31.44,340280.43,7440127.52
"293951",293951,1990,18,"wb","Waterbuck",5,-23.14,31.45,341304.45,7440138.44
"294228",294228,1990,18,"wb","Waterbuck",3,-23.11,31.39,335123.62,7443393.8
"294248",294248,1990,18,"wb","Waterbuck",1,-23.1,31.41,337160.08,7444523.57
"294258",294258,1990,18,"wb","Waterbuck",5,-23.14,31.43,339256.41,7440116.52
"294260",294260,1990,18,"wb","Waterbuck",2,-23.14,31.44,340280.43,7440127.52
"294261",294261,1990,18,"wb","Waterbuck",5,-23.14,31.45,341304.45,7440138.44
"294557",294557,1990,19,"wb","Waterbuck",1,-23.93,31.8,377874.74,7353004.6
"294558",294558,1990,19,"wb","Waterbuck",1,-23.94,31.8,377884.16,7351897.31
"294566",294566,1990,19,"wb","Waterbuck",1,-23.98,31.85,383008.89,7347510.52
"294588",294588,1990,19,"wb","Waterbuck",1,-23.93,31.78,375839.12,7352987.16
"294602",294602,1990,19,"wb","Waterbuck",4,-23.93,31.76,373803.48,7352969.43
"294609",294609,1990,19,"wb","Waterbuck",4,-23.95,31.79,376875.91,7350781.32
"294610",294610,1990,19,"wb","Waterbuck",3,-23.95,31.79,376875.91,7350781.32
"294612",294612,1990,19,"wb","Waterbuck",3,-23.95,31.8,377893.57,7350790.01
"294618",294618,1990,19,"wb","Waterbuck",2,-23.97,31.81,378929.9,7348584.04
"294626",294626,1990,19,"wb","Waterbuck",5,-23.93,31.75,372785.66,7352960.46
"294632",294632,1990,19,"wb","Waterbuck",3,-23.86,31.75,372717.15,7360711.58
"294641",294641,1990,19,"wb","Waterbuck",2,-23.86,31.74,371698.78,7360702.55
"294659",294659,1990,19,"wb","Waterbuck",1,-23.91,31.71,368694.12,7355138.48
"294671",294671,1990,19,"wb","Waterbuck",10,-23.89,31.67,364601.3,7357315.4
"294880",294880,1990,19,"wb","Waterbuck",6,-23.37,31.53,349754.51,7414755.74
"294886",294886,1990,19,"wb","Waterbuck",2,-23.34,31.53,349720.71,7418077.64
"294962",294962,1990,1,"wb","Waterbuck",1,-23.86,31.58,355404.43,7360548.37
"294965",294965,1990,1,"wb","Waterbuck",3,-23.86,31.57,354386,7360538.13
"294967",294967,1990,1,"wb","Waterbuck",2,-23.86,31.56,353367.58,7360527.81
"294992",294992,1990,1,"wb","Waterbuck",1,-23.87,31.57,354397.19,7359430.77
"295074",295074,1990,1,"wb","Waterbuck",2,-24,31.64,361664.18,7345105.59
"295090",295090,1990,1,"wb","Waterbuck",3,-24.01,31.63,360657.65,7343988.38
"295091",295091,1990,1,"wb","Waterbuck",5,-24.01,31.66,363709.32,7344017.75
"295098",295098,1990,1,"wb","Waterbuck",2,-24.03,31.6,357627.99,7341743.63
"295102",295102,1990,1,"wb","Waterbuck",5,-23.83,31.62,359445.73,7363910.65
"295146",295146,1990,1,"wb","Waterbuck",5,-23.86,31.64,361514.89,7360608.35
"295147",295147,1990,1,"wb","Waterbuck",2,-23.87,31.64,361525.53,7359501.02
"295213",295213,1990,1,"wb","Waterbuck",1,-23.88,31.65,362554.41,7358403.44
"295229",295229,1990,1,"wb","Waterbuck",4,-23.9,31.63,360539.37,7356169.19
"295237",295237,1990,1,"wb","Waterbuck",4,-23.9,31.65,362575.55,7356188.77
"295277",295277,1990,1,"wb","Waterbuck",4,-23.91,31.68,365640.14,7355110.29
"295310",295310,1990,1,"wb","Waterbuck",3,-23.92,31.66,363614.63,7353983.8
"295327",295327,1990,1,"wb","Waterbuck",1,-23.92,31.68,365650.48,7354002.96
"295329",295329,1990,1,"wb","Waterbuck",1,-23.92,31.69,366668.4,7354012.44
"295355",295355,1990,1,"wb","Waterbuck",3,-23.95,31.72,369752.25,7350718.48
"295470",295470,1990,1,"wb","Waterbuck",3,-24.01,31.67,364726.54,7344027.4
"295471",295471,1990,1,"wb","Waterbuck",5,-24.01,31.66,363709.32,7344017.75
"295482",295482,1990,1,"wb","Waterbuck",1,-24.01,31.73,370829.79,7344083.75
"295500",295500,1990,1,"wb","Waterbuck",1,-24.02,31.67,364737,7342920.06
"295547",295547,1990,1,"wb","Waterbuck",1,-24,31.73,370819.8,7345191.08
"295567",295567,1990,1,"wb","Waterbuck",5,-24,31.75,372854.36,7345209.28
"295590",295590,1990,1,"wb","Waterbuck",5,-23.99,31.75,372844.53,7346316.59
"295591",295591,1990,1,"wb","Waterbuck",3,-23.99,31.75,372844.53,7346316.59
"295607",295607,1990,1,"wb","Waterbuck",7,-23.95,31.76,373822.93,7350754.82
"295792",295792,1990,2,"wb","Waterbuck",2,-24.04,31.58,355605,7340615.87
"295806",295806,1990,2,"wb","Waterbuck",4,-24.03,31.56,353559.65,7341702.56
"295878",295878,1990,2,"wb","Waterbuck",1,-24.02,31.47,344393.66,7342713.34
"295896",295896,1990,2,"wb","Waterbuck",10,-24.05,31.42,339344.96,7339334.85
"295898",295898,1990,2,"wb","Waterbuck",1,-24.04,31.42,339332.51,7340442.28
"295916",295916,1990,2,"wb","Waterbuck",4,-24.05,31.39,336294.01,7339300.23
"295923",295923,1990,2,"wb","Waterbuck",1,-24.04,31.39,336281.33,7340407.67
"295945",295945,1990,3,"wb","Waterbuck",3,-23.97,31.32,329069.28,7348076.6
"295946",295946,1990,3,"wb","Waterbuck",4,-23.97,31.33,330086.92,7348088.69
"296129",296129,1990,3,"wb","Waterbuck",2,-24.05,31.37,334260.03,7339276.79
"296141",296141,1990,3,"wb","Waterbuck",3,-24.06,31.35,332239.04,7338145.6
"296155",296155,1990,3,"wb","Waterbuck",1,-24.06,31.34,331222.11,7338133.62
"296157",296157,1990,3,"wb","Waterbuck",3,-24.07,31.34,331235.2,7337026.16
"296158",296158,1990,3,"wb","Waterbuck",1,-24.06,31.33,330205.18,7338121.57
"296163",296163,1990,3,"wb","Waterbuck",3,-23.98,31.33,330100.04,7346981.24
"296171",296171,1990,3,"wb","Waterbuck",3,-24.06,31.32,329188.25,7338109.44
"296183",296183,1990,3,"wb","Waterbuck",2,-23.98,31.32,329082.48,7346969.14
"296242",296242,1990,3,"wb","Waterbuck",3,-24.05,31.3,327140.98,7339192.45
"296275",296275,1990,3,"wb","Waterbuck",1,-24.07,31.28,325134.06,7336952.74
"296276",296276,1990,3,"wb","Waterbuck",5,-24.08,31.28,325147.62,7335845.25
"296326",296326,1990,3,"wb","Waterbuck",1,-24.09,31.26,323127.77,7334712.7
"296360",296360,1990,3,"wb","Waterbuck",1,-24.06,31.25,322069.64,7338022.55
"296392",296392,1990,3,"wb","Waterbuck",1,-24.04,31.23,320007.82,7340212.07
"296401",296401,1990,3,"wb","Waterbuck",4,-24.03,31.21,317959.47,7341293.82
"296661",296661,1990,4,"wb","Waterbuck",3,-23.78,31.33,329838.62,7369130.04
"296662",296662,1990,4,"wb","Waterbuck",7,-23.79,31.33,329851.64,7368022.61
"296702",296702,1990,4,"wb","Waterbuck",17,-23.8,31.31,327826.72,7366891.06
"296714",296714,1990,4,"wb","Waterbuck",2,-23.82,31.31,327853.11,7364676.19
"297343",297343,1990,4,"wb","Waterbuck",2,-23.69,31.17,313403.95,7378896.52
"297386",297386,1990,4,"wb","Waterbuck",3,-23.71,31.21,317511.29,7376733.39
"297409",297409,1990,4,"wb","Waterbuck",1,-23.71,31.23,319550.71,7376758.87
"297411",297411,1990,4,"wb","Waterbuck",3,-23.72,31.23,319564.48,7375651.42
"297423",297423,1990,4,"wb","Waterbuck",1,-23.72,31.25,321603.73,7375676.62
"297425",297425,1990,4,"wb","Waterbuck",4,-23.72,31.25,321603.73,7375676.62
"297508",297508,1990,4,"wb","Waterbuck",1,-23.75,31.36,332857.65,7372487.9
"297534",297534,1990,5,"wb","Waterbuck",10,-23.76,31.37,333889.7,7371392.21
"297565",297565,1990,5,"wb","Waterbuck",1,-23.76,31.39,335928.23,7371415.44
"297566",297566,1990,5,"wb","Waterbuck",6,-23.76,31.39,335928.23,7371415.44
"297567",297567,1990,5,"wb","Waterbuck",3,-23.76,31.38,334908.96,7371403.86
"297601",297601,1990,5,"wb","Waterbuck",8,-23.76,31.4,336947.49,7371426.95
"297602",297602,1990,5,"wb","Waterbuck",2,-23.75,31.41,337954.36,7372545.78
"297896",297896,1990,5,"wb","Waterbuck",1,-23.77,31.53,350209.02,7370462.65
"297950",297950,1990,20,"wb","Waterbuck",2,-24.05,31.67,364768.42,7339598.02
"297959",297959,1990,20,"wb","Waterbuck",1,-24.03,31.66,363730.41,7341803.06
"297964",297964,1990,20,"wb","Waterbuck",8,-24.07,31.66,363772.63,7337373.66
"297966",297966,1990,20,"wb","Waterbuck",8,-24.05,31.65,362734.61,7339578.63
"297977",297977,1990,20,"wb","Waterbuck",4,-24.03,31.65,362713.35,7341793.34
"297983",297983,1990,20,"wb","Waterbuck",1,-24.09,31.65,362777.18,7335149.21
"298000",298000,1990,20,"wb","Waterbuck",5,-24.01,31.64,361674.88,7343998.24
"298020",298020,1990,20,"wb","Waterbuck",1,-24.08,31.64,361749.86,7336246.75
"298021",298021,1990,20,"wb","Waterbuck",1,-24.09,31.64,361760.59,7335139.39
"298037",298037,1990,20,"wb","Waterbuck",2,-24.02,31.63,360668.43,7342881.03
"298064",298064,1990,20,"wb","Waterbuck",5,-24.04,31.61,358656.01,7340646.35
"298067",298067,1990,20,"wb","Waterbuck",4,-24.04,31.61,358656.01,7340646.35
"298068",298068,1990,20,"wb","Waterbuck",3,-24.05,31.61,358666.96,7339538.99
"298083",298083,1990,20,"wb","Waterbuck",1,-24.11,31.6,357716.29,7332884.66
"298095",298095,1990,20,"wb","Waterbuck",2,-24.05,31.61,358666.96,7339538.99
"298103",298103,1990,20,"wb","Waterbuck",3,-24.06,31.58,355627.38,7338401.12
"298107",298107,1990,20,"wb","Waterbuck",1,-24.06,31.59,356644.22,7338411.36
"298114",298114,1990,20,"wb","Waterbuck",3,-24.04,31.57,354587.99,7340605.56
"298115",298115,1990,20,"wb","Waterbuck",2,-24.04,31.57,354587.99,7340605.56
"298125",298125,1990,20,"wb","Waterbuck",1,-24.07,31.57,354621.8,7337283.42
"298155",298155,1990,20,"wb","Waterbuck",2,-24.05,31.53,350531.51,7339456.22
"298170",298170,1990,20,"wb","Waterbuck",1,-24.05,31.52,349514.57,7339445.55
"298188",298188,1990,20,"wb","Waterbuck",1,-24.06,31.49,346475.62,7338305.7
"298222",298222,1990,20,"wb","Waterbuck",1,-24.07,31.43,340386.68,7337131.39
"298240",298240,1990,20,"wb","Waterbuck",2,-24.1,31.42,339407.26,7333797.69
"298250",298250,1990,20,"wb","Waterbuck",2,-24.09,31.41,338378.13,7334893.64
"298268",298268,1990,20,"wb","Waterbuck",3,-24.09,31.39,336344.79,7334870.46
"298285",298285,1990,20,"wb","Waterbuck",4,-24.07,31.38,335302.56,7337073.65
"298288",298288,1990,20,"wb","Waterbuck",2,-24.07,31.38,335302.56,7337073.65
"298291",298291,1990,20,"wb","Waterbuck",4,-24.08,31.39,336332.09,7335977.9
"298305",298305,1990,20,"wb","Waterbuck",4,-24.08,31.37,334298.58,7335954.44
"298345",298345,1990,20,"wb","Waterbuck",1,-24.09,31.34,331261.39,7334811.23
"298360",298360,1990,20,"wb","Waterbuck",5,-24.1,31.31,328224.65,7333667.35
"298373",298373,1990,20,"wb","Waterbuck",5,-24.09,31.3,327194.61,7334762.55
"298375",298375,1990,20,"wb","Waterbuck",5,-24.1,31.29,326191.4,7333642.71
"298672",298672,1990,21,"wb","Waterbuck",4,-24.24,31.63,360906.61,7318518.88
"298890",298890,1990,22,"wb","Waterbuck",1,-24.33,31.57,354916.43,7308491.06
"298905",298905,1990,22,"wb","Waterbuck",3,-24.33,31.55,352887.01,7308470.04
"298935",298935,1990,22,"wb","Waterbuck",4,-24.39,31.58,355999.08,7301856.95
"298946",298946,1990,22,"wb","Waterbuck",13,-24.37,31.58,355976.42,7304071.79
"298947",298947,1990,22,"wb","Waterbuck",4,-24.36,31.58,355965.09,7305179.21
"298950",298950,1990,22,"wb","Waterbuck",7,-24.35,31.57,354939.22,7306276.22
"298953",298953,1990,22,"wb","Waterbuck",3,-24.35,31.57,354939.22,7306276.22
"298962",298962,1990,22,"wb","Waterbuck",4,-24.4,31.56,353982.11,7300728.61
"298967",298967,1990,22,"wb","Waterbuck",4,-24.38,31.56,353959.12,7302943.47
"298982",298982,1990,22,"wb","Waterbuck",6,-24.39,31.56,353970.62,7301836.04
"298987",298987,1990,22,"wb","Waterbuck",3,-24.39,31.56,353970.62,7301836.04
"298989",298989,1990,22,"wb","Waterbuck",6,-24.4,31.56,353982.11,7300728.61
"298995",298995,1990,22,"wb","Waterbuck",3,-24.41,31.55,352979.54,7299610.61
"299013",299013,1990,22,"wb","Waterbuck",7,-24.38,31.54,351930.49,7302922.27
"299577",299577,1990,23,"wb","Waterbuck",7,-24.24,31.64,361922.02,7318528.82
"299738",299738,1990,23,"wb","Waterbuck",9,-24.11,31.64,361782.06,7332924.67
"299773",299773,1990,23,"wb","Waterbuck",5,-24.07,31.69,366822.86,7337402.43
"299777",299777,1990,23,"wb","Waterbuck",5,-24.08,31.67,364799.87,7336275.97
"299800",299800,1990,23,"wb","Waterbuck",9,-24.06,31.67,364778.9,7338490.67
"299840",299840,1990,24,"wb","Waterbuck",4,-24.39,31.71,369183.81,7301985.74
"299875",299875,1990,24,"wb","Waterbuck",2,-24.38,31.69,367144.97,7303074.12
"299876",299876,1990,24,"wb","Waterbuck",3,-24.38,31.69,367144.97,7303074.12
"299877",299877,1990,24,"wb","Waterbuck",1,-24.38,31.69,367144.97,7303074.12
"299892",299892,1990,24,"wb","Waterbuck",2,-24.38,31.67,365116.41,7303054.82
"299911",299911,1990,24,"wb","Waterbuck",2,-24.36,31.7,368138.51,7305298.42
"300222",300222,1990,24,"wb","Waterbuck",4,-24.39,31.76,374254.75,7302031.98
"300269",300269,1990,24,"wb","Waterbuck",4,-24.36,31.7,368138.51,7305298.42
"300404",300404,1990,25,"wb","Waterbuck",5,-23.99,31.75,372844.53,7346316.59
"300410",300410,1990,25,"wb","Waterbuck",5,-24,31.75,372854.36,7345209.28
"300414",300414,1990,25,"wb","Waterbuck",5,-24,31.77,374888.9,7345227.19
"300771",300771,1990,25,"wb","Waterbuck",8,-23.97,31.88,386052.3,7348642.38
"300820",300820,1990,25,"wb","Waterbuck",1,-24.01,31.87,385070.35,7344205.13
"300836",300836,1990,25,"wb","Waterbuck",1,-24.05,31.86,384089.07,7339767.77
"300842",300842,1990,25,"wb","Waterbuck",2,-24.02,31.86,384062.15,7343089.64
"300843",300843,1990,25,"wb","Waterbuck",6,-24.01,31.86,384053.18,7344196.93
"300844",300844,1990,25,"wb","Waterbuck",2,-24.01,31.86,384053.18,7344196.93
"300846",300846,1990,25,"wb","Waterbuck",12,-24,31.86,384044.22,7345304.22
"300898",300898,1990,25,"wb","Waterbuck",1,-24.04,31.85,383063.16,7340866.78
"300923",300923,1990,25,"wb","Waterbuck",13,-24.06,31.83,381047.72,7338635.4
"301120",301120,1990,26,"wb","Waterbuck",31,-24.29,31.77,375170.93,7313114.59
"301188",301188,1990,26,"wb","Waterbuck",15,-24.21,31.83,381186.42,7322025.7
"301211",301211,1990,26,"wb","Waterbuck",4,-24.2,31.8,378130.12,7323107.18
"301272",301272,1990,26,"wb","Waterbuck",9,-24.38,31.93,391486.91,7303282.84
"301274",301274,1990,26,"wb","Waterbuck",9,-24.38,31.93,391486.91,7303282.84
"301283",301283,1990,26,"wb","Waterbuck",15,-24.38,31.92,390472.69,7303274.98
"301324",301324,1990,26,"wb","Waterbuck",1,-24.35,31.91,389432.39,7306589.03
"301328",301328,1990,26,"wb","Waterbuck",7,-24.35,31.9,388417.93,7306581.04
"301352",301352,1990,26,"wb","Waterbuck",5,-24.33,31.89,387385.78,7308787.62
"301361",301361,1990,26,"wb","Waterbuck",20,-24.34,31.86,384350.96,7307655.66
"301392",301392,1990,26,"wb","Waterbuck",8,-24.31,31.86,384323.74,7310977.66
"301413",301413,1990,26,"wb","Waterbuck",8,-24.31,31.84,382294.14,7310960.88
"301415",301415,1990,26,"wb","Waterbuck",6,-24.3,31.82,380255.16,7312051.16
"301430",301430,1990,26,"wb","Waterbuck",9,-24.29,31.86,384305.6,7313192.31
"301455",301455,1990,26,"wb","Waterbuck",1,-24.28,31.83,381251.43,7314274.4
"301475",301475,1990,26,"wb","Waterbuck",2,-24.27,31.85,383272.37,7315398.63
"301484",301484,1990,26,"wb","Waterbuck",6,-24.4,31.79,377306.93,7300951.48
"301485",301485,1990,26,"wb","Waterbuck",1,-24.41,31.8,378330.61,7299852.94
"301576",301576,1990,26,"wb","Waterbuck",2,-24.32,31.82,380273.93,7309836.48
"301748",301748,1990,27,"wb","Waterbuck",4,-24.31,31.9,388382.89,7311010.33
"301857",301857,1990,27,"wb","Waterbuck",7,-24.41,31.98,396582.41,7299999.08
"301863",301863,1990,27,"wb","Waterbuck",6,-24.4,31.98,396574.26,7301106.4
"301931",301931,1990,27,"wb","Waterbuck",3,-24.42,31.98,396590.56,7298891.77
"301934",301934,1990,27,"wb","Waterbuck",3,-24.43,31.97,395584.9,7297776.95
"301936",301936,1990,27,"wb","Waterbuck",4,-24.43,31.97,395584.9,7297776.95
"301937",301937,1990,27,"wb","Waterbuck",3,-24.43,31.98,396598.71,7297784.45
"301943",301943,1990,27,"wb","Waterbuck",3,-24.44,31.97,395593.13,7296669.63
"301953",301953,1990,27,"wb","Waterbuck",7,-24.4,31.96,394546.16,7301091.33
"301954",301954,1990,27,"wb","Waterbuck",2,-24.39,31.97,395551.99,7302206.22
"301955",301955,1990,27,"wb","Waterbuck",4,-24.39,31.96,394537.86,7302198.65
"301999",301999,1990,27,"wb","Waterbuck",2,-24.39,31.95,393523.72,7302191.01
"302006",302006,1990,27,"wb","Waterbuck",6,-24.41,31.96,394554.47,7299984.02
"302028",302028,1990,27,"wb","Waterbuck",5,-24.37,31.94,392492.67,7304397.94
"302032",302032,1990,27,"wb","Waterbuck",4,-24.36,31.94,392484.22,7305505.26
"302034",302034,1990,27,"wb","Waterbuck",7,-24.36,31.94,392484.22,7305505.26
"302065",302065,1990,27,"wb","Waterbuck",2,-24.33,31.92,390429.65,7308811.59
"302078",302078,1990,27,"wb","Waterbuck",7,-24.37,31.92,390464.07,7304382.31
"302094",302094,1990,27,"wb","Waterbuck",5,-24.32,31.9,388391.64,7309903.01
"302104",302104,1990,28,"wb","Waterbuck",4,-24.45,31.79,377355.29,7295414.66
"302158",302158,1990,28,"wb","Waterbuck",5,-24.41,31.82,380358.62,7299870.35
"302201",302201,1990,28,"wb","Waterbuck",3,-24.4,31.84,382377.36,7300994.81
"302232",302232,1990,28,"wb","Waterbuck",20,-24.4,31.85,383391.44,7301003.26
"302267",302267,1990,28,"wb","Waterbuck",6,-24.48,31.88,386505.32,7292169.41
"302328",302328,1990,28,"wb","Waterbuck",4,-24.4,31.9,388461.8,7301044.39
"302355",302355,1990,28,"wb","Waterbuck",7,-24.48,31.9,388532.18,7292185.68
"302377",302377,1990,28,"wb","Waterbuck",11,-24.39,31.91,389467.17,7302159.73
"302428",302428,1990,28,"wb","Waterbuck",15,-24.41,31.93,391512.54,7299960.87
"302429",302429,1990,28,"wb","Waterbuck",3,-24.41,31.93,391512.54,7299960.87
"302458",302458,1990,28,"wb","Waterbuck",4,-24.46,31.94,392568.89,7294432.02
"302464",302464,1990,28,"wb","Waterbuck",1,-24.43,31.94,392543.46,7297754
"302465",302465,1990,28,"wb","Waterbuck",4,-24.43,31.94,392543.46,7297754
"302500",302500,1990,28,"wb","Waterbuck",5,-24.48,31.96,394612.69,7292232.74
"302505",302505,1990,28,"wb","Waterbuck",8,-24.47,31.96,394604.37,7293340.07
"302530",302530,1990,28,"wb","Waterbuck",4,-24.47,31.97,395617.86,7293347.66
"302552",302552,1990,28,"wb","Waterbuck",8,-24.5,31.89,387536.54,7289962.89
"302597",302597,1990,28,"wb","Waterbuck",3,-24.52,31.92,390593.65,7287772.3
"302615",302615,1990,28,"wb","Waterbuck",2,-24.53,31.95,393641.37,7286688.41
"302657",302657,1990,28,"wb","Waterbuck",15,-24.55,31.9,388593.93,7284434.24
"302768",302768,1990,28,"wb","Waterbuck",10,-24.48,31.81,379411.25,7292110.14
"302769",302769,1990,28,"wb","Waterbuck",2,-24.48,31.81,379411.25,7292110.14
"302775",302775,1990,28,"wb","Waterbuck",3,-24.49,31.86,384487.59,7291045.49
"302794",302794,1990,28,"wb","Waterbuck",5,-24.49,31.79,377394.04,7290985.18
"302840",302840,1990,28,"wb","Waterbuck",2,-24.5,31.78,376390.45,7289868.89
"302999",302999,1990,28,"wb","Waterbuck",1,-24.66,31.79,377559.41,7272159.62
"303000",303000,1990,28,"wb","Waterbuck",4,-24.66,31.79,377559.41,7272159.62
"303089",303089,1990,28,"wb","Waterbuck",6,-24.61,31.79,377510.66,7277696.59
"303222",303222,1990,28,"wb","Waterbuck",1,-24.79,31.86,384763.2,7257824.2
"303241",303241,1990,30,"wb","Waterbuck",2,-24.78,32,398907.99,7259042.39
"303242",303242,1990,30,"wb","Waterbuck",10,-24.76,32,398891.79,7261257.12
"303272",303272,1990,30,"wb","Waterbuck",14,-24.78,31.99,397897,7259034.96
"303274",303274,1990,30,"wb","Waterbuck",4,-24.78,31.99,397897,7259034.96
"303277",303277,1990,30,"wb","Waterbuck",1,-24.78,31.99,397897,7259034.96
"303278",303278,1990,30,"wb","Waterbuck",1,-24.77,31.98,396877.75,7260134.82
"303279",303279,1990,30,"wb","Waterbuck",4,-24.77,31.98,396877.75,7260134.82
"303316",303316,1990,30,"wb","Waterbuck",13,-24.78,31.97,395875.02,7259019.87
"303319",303319,1990,30,"wb","Waterbuck",5,-24.77,31.97,395866.68,7260127.24
"303362",303362,1990,30,"wb","Waterbuck",3,-24.78,31.96,394864.03,7259012.22
"303364",303364,1990,30,"wb","Waterbuck",13,-24.78,31.96,394864.03,7259012.22
"303409",303409,1990,30,"wb","Waterbuck",10,-24.79,31.94,392850.62,7257889.31
"303416",303416,1990,30,"wb","Waterbuck",10,-24.77,31.94,392833.45,7260104.06
"303460",303460,1990,30,"wb","Waterbuck",4,-24.74,31.92,390785.06,7263410.37
"303475",303475,1990,30,"wb","Waterbuck",3,-24.79,31.92,390828.78,7257873.47
"303476",303476,1990,30,"wb","Waterbuck",9,-24.79,31.91,389817.86,7257865.44
"303479",303479,1990,30,"wb","Waterbuck",8,-24.78,31.91,389809.02,7258972.83
"303505",303505,1990,30,"wb","Waterbuck",5,-24.79,31.91,389817.86,7257865.44
"303510",303510,1990,30,"wb","Waterbuck",7,-24.79,31.9,388806.93,7257857.34
"303515",303515,1990,30,"wb","Waterbuck",15,-24.77,31.9,388789.11,7260072.12
"303833",303833,1990,31,"wb","Waterbuck",1,-24.56,31.65,363282.42,7283101.84
"303908",303908,1990,31,"wb","Waterbuck",1,-24.6,31.67,365350.88,7278691.85
"304021",304021,1990,31,"wb","Waterbuck",21,-24.42,31.78,376312.33,7298727.87
"304027",304027,1990,31,"wb","Waterbuck",4,-24.41,31.77,375288.57,7299826.27
"304134",304134,1990,31,"wb","Waterbuck",6,-24.39,31.71,369183.81,7301985.74
"304137",304137,1990,31,"wb","Waterbuck",2,-24.4,31.71,369194.11,7300878.35
"304408",304408,1990,32,"wb","Waterbuck",10,-24.56,31.52,350115.18,7282966.65
"304544",304544,1990,32,"wb","Waterbuck",5,-24.72,31.67,365479.62,7265402.68
"304546",304546,1990,32,"wb","Waterbuck",25,-24.71,31.67,365468.87,7266510.12
"304552",304552,1990,32,"wb","Waterbuck",4,-24.71,31.63,361422.32,7266470.25
"304553",304553,1990,32,"wb","Waterbuck",1,-24.71,31.63,361422.32,7266470.25
"305133",305133,1990,34,"wb","Waterbuck",9,-24.6,31.67,365350.88,7278691.85
"305159",305159,1990,34,"wb","Waterbuck",8,-24.7,31.65,363434.69,7267597.78
"305174",305174,1990,34,"wb","Waterbuck",4,-24.78,31.86,384753.97,7258931.59
"305175",305175,1990,34,"wb","Waterbuck",12,-24.77,31.85,383733.63,7260030.52
"305187",305187,1990,34,"wb","Waterbuck",7,-24.73,31.83,381673.55,7264442.96
"305200",305200,1990,34,"wb","Waterbuck",15,-24.75,31.83,381692.48,7262228.17
"305497",305497,1990,35,"wb","Waterbuck",4,-24.87,31.65,363620.69,7248771.05
"305561",305561,1990,35,"wb","Waterbuck",1,-24.94,31.73,371775.68,7241096.64
"305562",305562,1990,35,"wb","Waterbuck",6,-24.94,31.72,370765.93,7241087.17
"305563",305563,1990,35,"wb","Waterbuck",3,-24.94,31.72,370765.93,7241087.17
"305566",305566,1990,35,"wb","Waterbuck",1,-24.94,31.71,369756.18,7241077.62
"305595",305595,1990,35,"wb","Waterbuck",7,-24.93,31.73,371765.33,7242204.1
"305596",305596,1990,35,"wb","Waterbuck",3,-24.93,31.73,371765.33,7242204.1
"305616",305616,1990,35,"wb","Waterbuck",5,-24.92,31.69,367715.32,7243273.22
"305762",305762,1990,35,"wb","Waterbuck",1,-24.87,31.67,365641.36,7248790.93
"305769",305769,1990,35,"wb","Waterbuck",2,-24.86,31.74,372703.39,7249965.6
"305774",305774,1990,35,"wb","Waterbuck",28,-24.86,31.67,365630.55,7249898.39
"305876",305876,1990,35,"wb","Waterbuck",5,-24.96,31.57,355642.71,7238721.09
"305904",305904,1990,35,"wb","Waterbuck",14,-24.95,31.72,370776.37,7239979.71
"305905",305905,1990,35,"wb","Waterbuck",1,-24.95,31.72,370776.37,7239979.71
"305906",305906,1990,35,"wb","Waterbuck",11,-24.95,31.72,370776.37,7239979.71
"305929",305929,1990,35,"wb","Waterbuck",7,-24.96,31.58,356652.34,7238731.69
"306159",306159,1990,36,"wb","Waterbuck",11,-24.8,31.85,383761.59,7256708.32
"306160",306160,1990,36,"wb","Waterbuck",7,-24.78,31.84,382731.93,7258914.58
"306161",306161,1990,36,"wb","Waterbuck",9,-24.78,31.84,382731.93,7258914.58
"306176",306176,1990,36,"wb","Waterbuck",3,-24.79,31.85,383752.27,7257815.72
"306178",306178,1990,36,"wb","Waterbuck",1,-24.78,31.85,383742.95,7258923.12
"306180",306180,1990,36,"wb","Waterbuck",8,-24.78,31.85,383742.95,7258923.12
"306183",306183,1990,36,"wb","Waterbuck",8,-24.78,31.85,383742.95,7258923.12
"306189",306189,1990,36,"wb","Waterbuck",5,-24.8,31.85,383761.59,7256708.32
"306209",306209,1990,36,"wb","Waterbuck",1,-24.81,31.86,384781.69,7255609.4
"306218",306218,1990,36,"wb","Waterbuck",5,-24.79,31.86,384763.2,7257824.2
"306222",306222,1990,36,"wb","Waterbuck",3,-24.8,31.86,384772.45,7256716.8
"306226",306226,1990,36,"wb","Waterbuck",1,-24.8,31.87,385783.3,7256725.2
"306260",306260,1990,36,"wb","Waterbuck",1,-24.83,31.85,383789.58,7253386.11
"306263",306263,1990,36,"wb","Waterbuck",1,-24.82,31.85,383780.25,7254493.52
"306359",306359,1990,36,"wb","Waterbuck",6,-24.84,31.82,380767.31,7252252.81
"306519",306519,1990,37,"wb","Waterbuck",2,-24.78,31.99,397897,7259034.96
"306520",306520,1990,37,"wb","Waterbuck",1,-24.78,31.98,396886.01,7259027.45
"306521",306521,1990,37,"wb","Waterbuck",3,-24.79,31.98,396894.28,7257920.08
"306526",306526,1990,37,"wb","Waterbuck",3,-24.8,31.98,396902.55,7256812.71
"306586",306586,1990,37,"wb","Waterbuck",3,-24.78,31.97,395875.02,7259019.87
"306593",306593,1990,37,"wb","Waterbuck",2,-24.78,31.97,395875.02,7259019.87
"306595",306595,1990,37,"wb","Waterbuck",6,-24.78,31.97,395875.02,7259019.87
"306663",306663,1990,37,"wb","Waterbuck",6,-24.79,31.96,394872.45,7257904.84
"306668",306668,1990,37,"wb","Waterbuck",1,-24.8,31.95,393870.05,7256789.73
"306669",306669,1990,37,"wb","Waterbuck",1,-24.8,31.95,393870.05,7256789.73
"306673",306673,1990,37,"wb","Waterbuck",2,-24.8,31.94,392859.21,7256781.93
"306685",306685,1990,37,"wb","Waterbuck",5,-24.82,31.95,393887.08,7254574.98
"306732",306732,1990,37,"wb","Waterbuck",2,-24.78,31.94,392842.03,7258996.68
"306734",306734,1990,37,"wb","Waterbuck",1,-24.79,31.92,390828.78,7257873.47
"306735",306735,1990,37,"wb","Waterbuck",10,-24.8,31.92,390837.54,7256766.09
"306738",306738,1990,37,"wb","Waterbuck",1,-24.8,31.91,389826.69,7256758.06
"306785",306785,1990,37,"wb","Waterbuck",8,-24.8,31.9,388815.85,7256749.95
"306787",306787,1990,37,"wb","Waterbuck",1,-24.8,31.9,388815.85,7256749.95
"306818",306818,1990,37,"wb","Waterbuck",2,-24.81,31.89,387814,7255634.38
"306819",306819,1990,37,"wb","Waterbuck",1,-24.8,31.9,388815.85,7256749.95
"306821",306821,1990,37,"wb","Waterbuck",6,-24.8,31.89,387805,7256741.78
"306825",306825,1990,37,"wb","Waterbuck",4,-24.8,31.89,387805,7256741.78
"306841",306841,1990,37,"wb","Waterbuck",2,-24.81,31.88,386803.23,7255626.13
"306843",306843,1990,37,"wb","Waterbuck",5,-24.8,31.88,386794.15,7256733.52
"306881",306881,1990,37,"wb","Waterbuck",4,-25.15,31.98,397193.91,7218053.86
"306893",306893,1990,37,"wb","Waterbuck",8,-25.15,31.94,393162.01,7218022.76
"306910",306910,1990,37,"wb","Waterbuck",3,-25.14,31.97,396177.48,7219153.62
"306936",306936,1990,37,"wb","Waterbuck",2,-25.13,31.98,397177.16,7220268.7
"306939",306939,1990,37,"wb","Waterbuck",4,-25.12,31.97,396160.57,7221368.46
"306943",306943,1990,37,"wb","Waterbuck",4,-25.13,31.96,395160.88,7220253.31
"306968",306968,1990,37,"wb","Waterbuck",3,-25.12,31.98,397168.79,7221376.12
"306972",306972,1990,37,"wb","Waterbuck",4,-25.11,31.97,396152.12,7222475.88
"306987",306987,1990,37,"wb","Waterbuck",2,-25.1,31.97,396143.67,7223583.3
"307005",307005,1990,37,"wb","Waterbuck",4,-25.1,31.98,397152.05,7223590.95
"307008",307008,1990,37,"wb","Waterbuck",1,-25.09,31.98,397143.69,7224698.36
"307026",307026,1990,37,"wb","Waterbuck",2,-25.09,31.99,398152.15,7224705.94
"307067",307067,1990,37,"wb","Waterbuck",5,-25.13,31.99,398185.29,7220276.29
"307068",307068,1990,37,"wb","Waterbuck",10,-25.13,31.99,398185.29,7220276.29
"307092",307092,1990,37,"wb","Waterbuck",4,-25.15,31.99,398201.88,7218061.45
"307103",307103,1990,37,"wb","Waterbuck",2,-25.16,31.99,398210.18,7216954.03
"307104",307104,1990,37,"wb","Waterbuck",2,-25.15,31.99,398201.88,7218061.45
"307105",307105,1990,37,"wb","Waterbuck",1,-25.16,31.99,398210.18,7216954.03
"307109",307109,1990,37,"wb","Waterbuck",1,-25.16,31.99,398210.18,7216954.03
"307113",307113,1990,37,"wb","Waterbuck",3,-25.16,32,399218.07,7216961.55
"307116",307116,1990,37,"wb","Waterbuck",2,-25.15,32,399209.85,7218068.97
"307117",307117,1990,37,"wb","Waterbuck",2,-25.14,32,399201.64,7219176.38
"307120",307120,1990,37,"wb","Waterbuck",2,-25.13,32,399193.43,7220283.8
"307122",307122,1990,37,"wb","Waterbuck",13,-25.12,32,399185.22,7221391.21
"307127",307127,1990,37,"wb","Waterbuck",8,-25.11,32,399177.01,7222498.62
"307135",307135,1990,37,"wb","Waterbuck",5,-25.08,32,399152.42,7225820.85
"307139",307139,1990,37,"wb","Waterbuck",1,-25.07,32,399144.23,7226928.25
"307153",307153,1990,37,"wb","Waterbuck",6,-25.08,32,399152.42,7225820.85
"307161",307161,1990,37,"wb","Waterbuck",1,-25.11,32,399177.01,7222498.62
"307169",307169,1990,37,"wb","Waterbuck",1,-25.13,32,399193.43,7220283.8
"307190",307190,1990,37,"wb","Waterbuck",1,-25.17,32,399226.29,7215854.13
"307226",307226,1990,37,"wb","Waterbuck",1,-25.07,32.01,400152.85,7226935.68
"307231",307231,1990,37,"wb","Waterbuck",13,-25.08,32.02,401169.5,7225835.62
"307261",307261,1990,37,"wb","Waterbuck",1,-25.14,32.02,401217.73,7219191.18
"307347",307347,1990,37,"wb","Waterbuck",6,-24.98,32,399070.64,7236894.84
"307348",307348,1990,37,"wb","Waterbuck",3,-24.98,32,399070.64,7236894.84
"307376",307376,1990,37,"wb","Waterbuck",5,-24.97,32,399062.47,7238002.23
"307381",307381,1990,37,"wb","Waterbuck",3,-24.96,32,399054.32,7239109.62
"307409",307409,1990,37,"wb","Waterbuck",1,-24.96,31.98,397035.27,7239094.6
"307443",307443,1990,37,"wb","Waterbuck",10,-24.94,32,399038.01,7241324.4
"307477",307477,1990,37,"wb","Waterbuck",5,-24.94,31.98,397018.63,7241309.39
"307480",307480,1990,37,"wb","Waterbuck",3,-24.93,31.99,398020.09,7242424.32
"307490",307490,1990,37,"wb","Waterbuck",10,-24.93,31.98,397010.32,7242416.78
"307492",307492,1990,37,"wb","Waterbuck",10,-24.93,31.97,396000.55,7242409.16
"307653",307653,1990,37,"wb","Waterbuck",25,-24.98,32.01,400080,7236902.24
"307654",307654,1990,37,"wb","Waterbuck",4,-24.98,32.01,400080,7236902.24
"307658",307658,1990,37,"wb","Waterbuck",1,-24.97,32.01,400071.92,7238009.63
"307663",307663,1990,37,"wb","Waterbuck",10,-24.95,32.01,400055.77,7240224.41
"307831",307831,1990,38,"wb","Waterbuck",12,-24.96,31.76,374825.14,7238909.73
"307901",307901,1990,38,"wb","Waterbuck",9,-25,31.79,377893.37,7234507.29
"307922",307922,1990,38,"wb","Waterbuck",8,-25.01,31.8,378912.42,7233408.82
"307993",307993,1990,38,"wb","Waterbuck",4,-25.09,31.88,387058.95,7224618.49
"308016",308016,1990,38,"wb","Waterbuck",4,-25.11,31.91,390102.27,7222428.38
"308018",308018,1990,38,"wb","Waterbuck",2,-25.11,31.91,390102.27,7222428.38
"308063",308063,1990,38,"wb","Waterbuck",12,-25.11,31.93,392118.89,7222444.51
"308406",308406,1990,39,"wb","Waterbuck",8,-25.1,31.25,323533.51,7222835.89
"308411",308411,1990,39,"wb","Waterbuck",6,-25.08,31.26,324513.56,7225064.18
"308412",308412,1990,39,"wb","Waterbuck",7,-25.08,31.26,324513.56,7225064.18
"308450",308450,1990,39,"wb","Waterbuck",4,-25.11,31.22,320522.36,7221688.69
"308456",308456,1990,39,"wb","Waterbuck",6,-25.11,31.21,319513.84,7221675.36
"308458",308458,1990,39,"wb","Waterbuck",3,-25.13,31.21,319543.23,7219460.05
"308469",308469,1990,39,"wb","Waterbuck",1,-25.1,31.2,318490.56,7222769.6
"308763",308763,1990,40,"wb","Waterbuck",7,-25.18,31.33,331711.81,7214077.2
"308766",308766,1990,40,"wb","Waterbuck",4,-25.17,31.32,330690.09,7215172.28
"308779",308779,1990,40,"wb","Waterbuck",5,-25.18,31.32,330703.91,7214064.66
"308851",308851,1990,40,"wb","Waterbuck",1,-25.16,31.27,325635.91,7216216.11
"308856",308856,1990,40,"wb","Waterbuck",1,-25.16,31.27,325635.91,7216216.11
"308857",308857,1990,40,"wb","Waterbuck",2,-25.16,31.26,324627.83,7216203.12
"308982",308982,1990,40,"wb","Waterbuck",3,-25.21,31.23,321676.39,7210625.46
"309045",309045,1990,40,"wb","Waterbuck",7,-25.35,31.27,325907.11,7195170.81
"309148",309148,1990,41,"wb","Waterbuck",8,-25.33,31.39,337958.37,7197536.81
"309232",309232,1990,41,"wb","Waterbuck",3,-25.3,31.43,341945.96,7200907.42
"309234",309234,1990,41,"wb","Waterbuck",1,-25.31,31.42,340952.14,7199787.99
"309236",309236,1990,41,"wb","Waterbuck",4,-25.3,31.42,340939.08,7200895.59
"309264",309264,1990,41,"wb","Waterbuck",10,-25.3,31.41,339932.2,7200883.68
"309302",309302,1990,41,"wb","Waterbuck",2,-25.31,31.38,336924.94,7199739.9
"309357",309357,1990,41,"wb","Waterbuck",6,-25.28,31.43,341920.02,7203122.61
"309396",309396,1990,41,"wb","Waterbuck",4,-25.27,31.42,340899.94,7204218.38
"309407",309407,1990,41,"wb","Waterbuck",2,-25.25,31.43,341881.15,7206445.38
"309496",309496,1990,41,"wb","Waterbuck",3,-25.17,31.43,341777.71,7215306.05
"309535",309535,1990,41,"wb","Waterbuck",6,-25.15,31.5,348808.6,7217601.57
"309725",309725,1990,41,"wb","Waterbuck",1,-25.13,31.48,346767.45,7219794.1
"309734",309734,1990,41,"wb","Waterbuck",4,-25.12,31.49,347763.31,7220912.98
"309744",309744,1990,41,"wb","Waterbuck",3,-25.12,31.5,348771.65,7220924.23
"310066",310066,1990,42,"wb","Waterbuck",3,-25.16,31.53,351844.94,7216527.35
"310068",310068,1990,42,"wb","Waterbuck",7,-25.16,31.53,351844.94,7216527.35
"310147",310147,1990,42,"wb","Waterbuck",2,-25.14,31.53,351820.79,7218742.44
"310748",310748,1990,44,"wb","Waterbuck",7,-25.4,31.58,357166.29,7190000.32
"310809",310809,1990,44,"wb","Waterbuck",2,-25.43,31.61,360218.89,7186709.4
"310817",310817,1990,44,"wb","Waterbuck",4,-25.43,31.62,361224.63,7186719.84
"310818",310818,1990,44,"wb","Waterbuck",5,-25.42,31.62,361213.18,7187827.4
"310860",310860,1990,44,"wb","Waterbuck",11,-25.43,31.63,362230.37,7186730.21
"310867",310867,1990,44,"wb","Waterbuck",4,-25.41,31.64,363213.54,7188955.6
"311040",311040,1990,44,"wb","Waterbuck",3,-25.33,31.74,373188.94,7197914.39
"311047",311047,1990,44,"wb","Waterbuck",1,-25.36,31.75,374226.51,7194601.31
"311051",311051,1990,44,"wb","Waterbuck",1,-25.37,31.75,374236.87,7193493.8
"311060",311060,1990,44,"wb","Waterbuck",1,-25.3,31.76,375171.26,7201255.68
"311067",311067,1990,44,"wb","Waterbuck",9,-25.31,31.74,373168.1,7200129.4
"311082",311082,1990,44,"wb","Waterbuck",1,-25.29,31.71,370126.66,7202315.68
"311217",311217,1990,44,"wb","Waterbuck",6,-25.22,31.7,369044.72,7210058.51
"311224",311224,1990,44,"wb","Waterbuck",1,-25.2,31.71,370030.93,7212283.2
"311225",311225,1990,44,"wb","Waterbuck",1,-25.2,31.71,370030.93,7212283.2
"311235",311235,1990,44,"wb","Waterbuck",5,-25.18,31.73,372025.27,7214517.35
"311249",311249,1990,44,"wb","Waterbuck",4,-25.18,31.73,372025.27,7214517.35
"311281",311281,1990,44,"wb","Waterbuck",7,-25.29,31.78,377174.75,7202381.65
"311297",311297,1990,44,"wb","Waterbuck",2,-25.33,31.78,377215.08,7197951.68
"311472",311472,1990,44,"wb","Waterbuck",3,-25.37,31.87,386311.18,7193601.26
"311485",311485,1990,44,"wb","Waterbuck",2,-25.36,31.88,387308.08,7194717.21
"311945",311945,1990,45,"wb","Waterbuck",4,-25.13,31.93,392136.45,7220229.65
"311986",311986,1990,46,"wb","Waterbuck",4,-25.41,31.99,398418.66,7189268.07
"312071",312071,1990,46,"wb","Waterbuck",4,-25.35,31.99,398368.45,7195912.79
"312143",312143,1990,46,"wb","Waterbuck",20,-25.2,32.02,401266.07,7212546.69
"312261",312261,1990,46,"wb","Waterbuck",4,-25.33,31.94,393319.28,7198088.78
"312310",312310,1990,46,"wb","Waterbuck",2,-25.3,31.95,394299.74,7201419.07
"312482",312482,1990,56,"wb","Waterbuck",2,-25.31,31.46,344979.3,7199834.88
"312555",312555,1990,56,"wb","Waterbuck",5,-25.34,31.47,346024.04,7196523.65
"312558",312558,1990,56,"wb","Waterbuck",1,-25.32,31.49,348012.12,7198761.67
"312586",312586,1990,56,"wb","Waterbuck",8,-25.35,31.48,347043.15,7195427.53
"312650",312650,1990,56,"wb","Waterbuck",1,-25.35,31.52,351068.91,7195472.67
"312710",312710,1990,56,"wb","Waterbuck",4,-25.38,31.53,352111.87,7192161.04
"312769",312769,1990,56,"wb","Waterbuck",3,-25.41,31.55,354160.3,7188860.32
"312780",312780,1990,56,"wb","Waterbuck",1,-25.43,31.51,350161.3,7186600.84
"312786",312786,1990,56,"wb","Waterbuck",6,-25.42,31.53,352160.64,7187730.73
"312787",312787,1990,56,"wb","Waterbuck",1,-25.42,31.55,354172.33,7187752.74
"312804",312804,1990,56,"wb","Waterbuck",1,-25.44,31.51,350173.67,7185493.25
"312876",312876,1990,56,"wb","Waterbuck",1,-25.5,31.45,344216.81,7178778.78
"312957",312957,1990,56,"wb","Waterbuck",1,-25.44,31.49,348162.29,7185470.62
"313030",313030,1990,56,"wb","Waterbuck",7,-25.42,31.42,341096.11,7187604.29
"313072",313072,1990,56,"wb","Waterbuck",1,-25.46,31.32,331092.94,7183050.8
"313073",313073,1990,56,"wb","Waterbuck",6,-25.48,31.33,332126.3,7180848.13
"313124",313124,1990,56,"wb","Waterbuck",4,-25.4,31.3,328997.07,7189671.25
"313694",313694,1990,58,"wb","Waterbuck",3,-25.03,31.78,376914.04,7231175.89
"313721",313721,1990,60,"wb","Waterbuck",3,-24.96,31.74,372805.98,7238891.14
