"","ID","Year","Cenb","Sp","Description","No","Lat","Long","X.coord","Y.coord"
"265963",265963,1989,11,"bg","Roan antelope bull",1,-23.3,31.28,324105.44,7422225.18
"266005",266005,1989,11,"bg","Roan antelope bull",1,-23.24,31.3,326073.24,7428893.57
"266650",266650,1989,13,"bg","Roan antelope bull",1,-23.66,31.63,360283.09,7382744.93
"266875",266875,1989,14,"bg","Roan antelope bull",1,-23.53,31.56,352998.43,7397069.82
"268632",268632,1989,2,"bg","Roan antelope bull",1,-23.89,31.44,341182.86,7357076.16
