"","ID","Year","Cenb","Sp","Description","No","Lat","Long","X.coord","Y.coord"
"232678",232678,1988,3,"e","Eland",1,-23.92,31.2,316786.69,7353463.39
"233111",233111,1988,4,"e","Eland",4,-23.84,31.2,316673.98,7362323.32
"233758",233758,1988,5,"e","Eland",8,-23.76,31.45,342043.74,7371483.41
"233994",233994,1988,6,"e","Eland",1,-23.65,31.33,329669.81,7383526.48
"233999",233999,1988,6,"e","Eland",1,-23.61,31.32,328597.59,7387944.16
"234028",234028,1988,6,"e","Eland",5,-23.63,31.38,334745.34,7385800.03
"234029",234029,1988,6,"e","Eland",6,-23.64,31.38,334757.9,7384692.64
"234068",234068,1988,6,"e","Eland",2,-23.63,31.42,338826.42,7385845.72
"234134",234134,1988,6,"e","Eland",14,-23.64,31.46,342919.38,7384782.91
"234283",234283,1988,6,"e","Eland",18,-23.67,31.43,339895.38,7381427.47
"234603",234603,1988,7,"e","Eland",1,-23.67,31.26,322555.75,7381226.34
"234842",234842,1988,8,"e","Eland",2,-23.51,31.32,328467.77,7399018.18
"234950",234950,1988,8,"e","Eland",1,-23.48,31.29,325364.53,7402304.24
"235026",235026,1988,8,"e","Eland",2,-23.42,31.23,319153.94,7408874.6
"235115",235115,1988,9,"e","Eland",2,-23.52,31.14,310099.45,7397684.11
"235133",235133,1988,9,"e","Eland",1,-23.52,31.15,311120.66,7397697.31
"235186",235186,1988,9,"e","Eland",1,-23.53,31.19,315219.45,7396641.94
"235189",235189,1988,9,"e","Eland",4,-23.47,31.17,313092.55,7403260.76
"235215",235215,1988,9,"e","Eland",1,-23.44,31.2,316115.75,7406621.75
"235235",235235,1988,9,"e","Eland",4,-23.45,31.21,317151.32,7405527.06
"235306",235306,1988,9,"e","Eland",3,-23.59,31.17,313262.06,7389971.25
"235399",235399,1988,10,"e","Eland",11,-23.39,31.04,299690.96,7411945.79
"235432",235432,1988,10,"e","Eland",2,-23.38,31.05,300698.25,7413067.13
"235435",235435,1988,10,"e","Eland",2,-23.38,31.06,301720.58,7413080.91
"235443",235443,1988,10,"e","Eland",2,-23.28,31.02,297479.61,7424100.38
"235635",235635,1988,10,"e","Eland",3,-23.32,31.18,313904.55,7419885.29
"235647",235647,1988,10,"e","Eland",10,-23.34,31.2,315977.58,7417696.04
"235658",235658,1988,10,"e","Eland",2,-23.32,31.21,316972.75,7419923.57
"235692",235692,1988,10,"e","Eland",3,-23.45,31.06,301824.94,7405328.46
"235704",235704,1988,10,"e","Eland",12,-23.45,31.07,302846.72,7405342.2
"235743",235743,1988,10,"e","Eland",1,-23.43,31.06,301795.09,7407543.45
"235744",235744,1988,10,"e","Eland",60,-23.43,31.06,301795.09,7407543.45
"235811",235811,1988,10,"e","Eland",1,-23.42,31.08,303824.21,7408678.32
"235834",235834,1988,10,"e","Eland",2,-23.4,31.09,304816.87,7410906.86
"235956",235956,1988,10,"e","Eland",1,-23.38,31.16,311943.66,7413214.78
"235984",235984,1988,10,"e","Eland",8,-23.38,31.19,315010.51,7413253.56
"236056",236056,1988,11,"e","Eland",3,-23.37,31.21,317041.32,7414386.48
"236100",236100,1988,11,"e","Eland",1,-23.36,31.3,326229.24,7415605.05
"236112",236112,1988,11,"e","Eland",3,-23.36,31.24,320094.84,7415531.59
"236130",236130,1988,11,"e","Eland",1,-23.35,31.24,320081.35,7416639
"236137",236137,1988,11,"e","Eland",1,-23.35,31.29,325193.74,7416700.37
"236148",236148,1988,11,"e","Eland",2,-23.33,31.24,320054.39,7418853.81
"236159",236159,1988,11,"e","Eland",1,-23.3,31.26,322059.72,7422200.74
"236291",236291,1988,11,"e","Eland",1,-23.2,31.27,322950.55,7433286.81
"236492",236492,1988,12,"e","Eland",2,-23.24,31.04,299465.95,7428558.13
"236504",236504,1988,12,"e","Eland",1,-23.2,31.04,299406.18,7432988.04
"236538",236538,1988,12,"e","Eland",1,-23.27,31.03,298487.66,7425221.81
"236636",236636,1988,12,"e","Eland",2,-23.24,31.02,297419.13,7428530.35
"236657",236657,1988,12,"e","Eland",2,-23.26,31.02,297449.35,7426315.37
"236775",236775,1988,12,"e","Eland",1,-23.28,31,295433.37,7424072.28
"236800",236800,1988,12,"e","Eland",3,-23.19,30.98,293248.43,7434011.46
"237048",237048,1988,13,"e","Eland",2,-23.59,31.57,354085.71,7390436.16
"237425",237425,1988,14,"e","Eland",1,-23.53,31.54,350956.44,7397049.19
"237440",237440,1988,14,"e","Eland",2,-23.42,31.33,329373.29,7408996.57
"237519",237519,1988,14,"e","Eland",1,-23.51,31.43,339701.04,7399145.31
"237560",237560,1988,14,"e","Eland",5,-23.57,31.47,343856.64,7392545.34
"237591",237591,1988,15,"e","Eland",2,-23.27,31.33,329181.38,7425607.13
"237635",237635,1988,15,"e","Eland",1,-23.33,31.35,331303.21,7418986.41
"237641",237641,1988,15,"e","Eland",20,-23.35,31.35,331328.49,7416771.69
"237673",237673,1988,15,"e","Eland",1,-23.41,31.34,330382.45,7410115.75
"237728",237728,1988,15,"e","Eland",1,-23.36,31.44,340542.32,7415766.55
"237732",237732,1988,15,"e","Eland",1,-23.36,31.42,338497.64,7415744.33
"237734",237734,1988,15,"e","Eland",4,-23.36,31.41,337475.29,7415733.11
"237882",237882,1988,15,"e","Eland",4,-23.26,31.32,328145.48,7426702.67
"237918",237918,1988,15,"e","Eland",3,-23.19,31.32,328055.83,7434454.18
"238418",238418,1988,19,"e","Eland",1,-23.77,31.7,367533.94,7370631.49
"238741",238741,1988,19,"e","Eland",4,-23.86,31.71,368643.64,7360675.05
"239924",239924,1988,22,"e","Eland",7,-24.26,31.56,353821.55,7316232.49
"239925",239925,1988,22,"e","Eland",1,-24.26,31.56,353821.55,7316232.49
"250915",250915,1988,40,"e","Eland",10,-25.16,31.29,327652.07,7216241.84
"251002",251002,1988,40,"e","Eland",3,-25.2,31.33,331739.3,7211861.97
"255419",255419,1988,47,"e","Eland",5,-22.63,31.2,315012.74,7496319.84
"255439",255439,1988,47,"e","Eland",33,-22.64,31.21,316054,7495224.91
"255451",255451,1988,47,"e","Eland",4,-22.65,31.23,318122.91,7494142.18
"255459",255459,1988,47,"e","Eland",5,-22.65,31.25,320178.47,7494166.5
"255471",255471,1988,47,"e","Eland",4,-22.66,31.2,315052.94,7492997.84
"255473",255473,1988,47,"e","Eland",2,-22.67,31.18,313011.04,7491865.47
"255485",255485,1988,47,"e","Eland",4,-22.67,31.2,315066.35,7491890.5
"255490",255490,1988,47,"e","Eland",8,-22.66,31.25,320191.5,7493059.19
"255499",255499,1988,47,"e","Eland",9,-22.68,31.18,313024.61,7490758.12
"255503",255503,1988,47,"e","Eland",8,-22.7,31.13,307914.54,7488479.56
"255518",255518,1988,47,"e","Eland",1,-22.68,31.27,322272.68,7490868.63
"255519",255519,1988,47,"e","Eland",4,-22.69,31.25,320230.63,7489737.24
"255541",255541,1988,47,"e","Eland",1,-22.7,31.27,322298.48,7488654.01
"255549",255549,1988,47,"e","Eland",1,-22.73,31.16,311038.09,7485196
"255554",255554,1988,47,"e","Eland",3,-22.72,31.25,320269.81,7486415.27
"255557",255557,1988,47,"e","Eland",1,-22.71,31.29,324366.03,7487570.51
"255567",255567,1988,47,"e","Eland",15,-22.73,31.26,321310.05,7485320.04
"255589",255589,1988,47,"e","Eland",8,-22.77,31.23,318281.44,7480854.22
"255592",255592,1988,47,"e","Eland",1,-22.77,31.27,322388.96,7480902.79
"255610",255610,1988,48,"e","Eland",1,-22.76,31.34,329564.57,7482092.41
"255710",255710,1988,48,"e","Eland",1,-22.82,31.26,321427.25,7475354.11
"255752",255752,1988,48,"e","Eland",4,-22.8,31.37,332694.12,7477697.51
"255754",255754,1988,48,"e","Eland",6,-22.8,31.37,332694.12,7477697.51
"255758",255758,1988,48,"e","Eland",4,-22.81,31.36,331679.79,7476578.86
"255980",255980,1988,49,"e","Eland",6,-22.92,31.24,319506.48,7464256.32
"256013",256013,1988,49,"e","Eland",7,-22.95,31.29,324673.87,7460994.82
"256019",256019,1988,49,"e","Eland",5,-22.93,31.36,331827.65,7463291.29
"256068",256068,1988,49,"e","Eland",4,-22.96,31.35,330839.31,7459957.88
"256162",256162,1988,49,"e","Eland",9,-22.95,31.42,338005.22,7461144.11
"256170",256170,1988,49,"e","Eland",5,-22.96,31.41,336991.74,7460025.75
"256266",256266,1988,49,"e","Eland",3,-23.01,31.41,337051.75,7454489.29
"256348",256348,1988,50,"e","Eland",3,-23.04,31.49,345286.01,7451254.21
"256868",256868,1988,52,"e","Eland",2,-23.07,31.28,323804.33,7447694.68
"256896",256896,1988,52,"e","Eland",8,-23.05,31.31,326852.54,7449945.22
"256904",256904,1988,52,"e","Eland",16,-23.07,31.33,328927.32,7447754.09
"256920",256920,1988,52,"e","Eland",22,-23.05,31.34,329926.77,7449980.42
"257205",257205,1988,53,"e","Eland",1,-23.13,31.09,304423.01,7440808.3
"257213",257213,1988,53,"e","Eland",1,-23.16,31.12,307538.54,7437525.94
"257232",257232,1988,53,"e","Eland",1,-23.16,31.13,308562.52,7437539.12
"257378",257378,1988,53,"e","Eland",4,-23.07,30.98,293064.3,7447301.4
"257379",257379,1988,53,"e","Eland",3,-23.08,30.99,294104.26,7446208.04
"257405",257405,1988,53,"e","Eland",1,-23.08,31.01,296153.55,7446236.09
"257612",257612,1988,54,"e","Eland",2,-22.95,30.97,291855.43,7460577.01
"257632",257632,1988,54,"e","Eland",3,-22.91,30.99,293846.14,7465035.08
"257790",257790,1988,54,"e","Eland",2,-22.96,31.08,303151.73,7459621.28
"257796",257796,1988,54,"e","Eland",1,-22.98,31.07,302155.33,7457392.97
"257816",257816,1988,54,"e","Eland",3,-22.99,31.09,304220.49,7456312.39
"257837",257837,1988,54,"e","Eland",11,-22.99,31.11,306271.06,7456338.95
"257844",257844,1988,54,"e","Eland",7,-23,31.11,306285.34,7455231.54
"257946",257946,1988,54,"e","Eland",2,-22.92,31.17,312326.08,7464168.68
"257995",257995,1988,54,"e","Eland",7,-22.93,31.2,315416.97,7463099.29
"258005",258005,1988,54,"e","Eland",2,-22.98,31.15,310358.18,7457498.65
"258021",258021,1988,54,"e","Eland",1,-22.97,31.17,312395.05,7458631.76
"258022",258022,1988,54,"e","Eland",2,-22.97,31.17,312395.05,7458631.76
"258044",258044,1988,54,"e","Eland",26,-22.98,31.17,312408.86,7457524.37
"258067",258067,1988,54,"e","Eland",1,-22.97,31.2,315471.25,7458669.8
"258106",258106,1988,54,"e","Eland",2,-22.97,31.21,316496.65,7458682.34
"258107",258107,1988,54,"e","Eland",4,-22.97,31.22,317522.04,7458694.81
"258122",258122,1988,54,"e","Eland",2,-22.99,31.21,316523.67,7456467.6
"258130",258130,1988,54,"e","Eland",1,-23.01,31.18,313475.43,7454214.96
"258148",258148,1988,54,"e","Eland",22,-22.99,31.21,316523.67,7456467.6
"258169",258169,1988,54,"e","Eland",3,-23.04,31.19,314541.59,7450905.5
"258170",258170,1988,54,"e","Eland",3,-23.03,31.2,315552.84,7452025.52
"258209",258209,1988,54,"e","Eland",6,-23.01,31.27,322701.18,7454326.72
"258347",258347,1988,55,"e","Eland",1,-22.82,31.06,300896.41,7475098.31
"258358",258358,1988,55,"e","Eland",1,-22.81,31.05,299855.2,7476192.21
"258359",258359,1988,55,"e","Eland",1,-22.81,31.06,300881.86,7476205.73
"258472",258472,1988,55,"e","Eland",4,-22.7,31.11,305859.63,7488453.53
"258554",258554,1988,55,"e","Eland",5,-22.85,31.15,310177.13,7471894.72
"258576",258576,1988,55,"e","Eland",1,-22.81,31.17,312174.85,7476349.81
"258603",258603,1988,55,"e","Eland",3,-22.83,31.19,314255.21,7474160.38
"258632",258632,1988,55,"e","Eland",5,-22.88,31.2,315349.25,7468636.13
"258634",258634,1988,55,"e","Eland",1,-22.89,31.2,315362.78,7467528.76
"258639",258639,1988,55,"e","Eland",1,-22.91,31.2,315389.87,7465314.03
"259747",259747,1988,61,"e","Eland",2,-22.55,30.98,292276.88,7504889.07
"259816",259816,1988,61,"e","Eland",2,-22.64,31.04,298579.65,7495004.7
"260036",260036,1988,62,"e","Eland",1,-22.57,31.17,311847.3,7502926.3
"260421",260421,1988,63,"e","Eland",1,-22.55,31.22,316962.88,7505203.12
"260449",260449,1988,63,"e","Eland",1,-22.59,31.35,330382.45,7500927.59
"260450",260450,1988,63,"e","Eland",2,-22.58,31.35,330370.2,7502034.86
"260451",260451,1988,63,"e","Eland",3,-22.58,31.35,330370.2,7502034.86
"260549",260549,1988,64,"e","Eland",37,-22.37,31.25,319815.81,7525170.81
"260626",260626,1988,64,"e","Eland",1,-22.39,31.2,314693,7522895.48
"260668",260668,1988,64,"e","Eland",1,-22.38,31.17,311590.33,7523965.51
"260720",260720,1988,64,"e","Eland",9,-22.36,31.15,309503.47,7526154.96
"260721",260721,1988,64,"e","Eland",3,-22.37,31.15,309517.08,7525047.64
"260765",260765,1988,64,"e","Eland",4,-22.37,31.08,302307.73,7524957.33
"260811",260811,1988,64,"e","Eland",1,-22.42,31.17,311644.26,7519536.24
