"","ID","Year","Cenb","Sp","Description","No","Lat","Long","X.coord","Y.coord"
"366109",366109,1993,53,"wr","White rhino",3,-23.08,31.15,310498.12,7446424.6
"366162",366162,1993,54,"wr","White rhino",2,-22.91,31.07,302053.49,7465144.98
"366693",366693,1993,54,"wr","White rhino",2,-22.9,31.09,304090.91,7466279.17
"367901",367901,1993,51,"wr","White rhino",2,-22.7,31.37,332572.27,7488770.29
"367982",367982,1993,6,"wr","White rhino",3,-23.63,31.44,340866.94,7385868.14
"368210",368210,1993,6,"wr","White rhino",1,-23.65,31.43,339871.02,7383642.22
"368576",368576,1993,8,"wr","White rhino",6,-23.39,31.31,327290.51,7412294.9
"368811",368811,1993,9,"wr","White rhino",1,-23.47,31.12,307984.54,7403194.88
"368863",368863,1993,9,"wr","White rhino",3,-23.48,31.24,320257.14,7402242.6
"368975",368975,1993,10,"wr","White rhino",2,-23.28,31.05,300548.92,7424142
"369372",369372,1993,11,"wr","White rhino",4,-23.32,31.27,323109.05,7419998.21
"369396",369396,1993,11,"wr","White rhino",1,-23.32,31.25,321063.63,7419973.62
"369494",369494,1993,12,"wr","White rhino",1,-23.27,31.01,296441.29,7425193.86
"369498",369498,1993,12,"wr","White rhino",2,-23.28,31.02,297479.61,7424100.38
"369797",369797,1993,13,"wr","White rhino",6,-23.69,31.5,347058.24,7379289.58
"369866",369866,1993,13,"wr","White rhino",4,-23.63,31.62,359231.03,7386057.03
"370158",370158,1993,14,"wr","White rhino",3,-23.5,31.49,345816.47,7400318.35
"370533",370533,1993,18,"wr","White rhino",1,-23.2,31.47,343422.3,7433516.31
"370569",370569,1993,18,"wr","White rhino",2,-23.24,31.49,345515.43,7429108.53
"370582",370582,1993,18,"wr","White rhino",2,-23.26,31.49,345538.47,7426893.93
"370599",370599,1993,18,"wr","White rhino",1,-23.29,31.5,346595.93,7423582.65
"371518",371518,1993,2,"wr","White rhino",1,-23.91,31.51,348333.73,7354938.25
"371610",371610,1993,2,"wr","White rhino",2,-23.96,31.46,343303.83,7349346.68
"371689",371689,1993,2,"wr","White rhino",1,-23.99,31.54,351479.52,7346111.13
"371827",371827,1993,2,"wr","White rhino",3,-23.98,31.4,337222.87,7347063.87
"372814",372814,1993,20,"wr","White rhino",1,-24.1,31.57,354655.64,7333961.27
"372828",372828,1993,20,"wr","White rhino",2,-24.06,31.54,351559.96,7338359.43
"372975",372975,1993,21,"wr","White rhino",2,-24.22,31.57,354791.42,7320672.56
"373058",373058,1993,21,"wr","White rhino",2,-24.17,31.61,358798.67,7326250.5
"373063",373063,1993,21,"wr","White rhino",2,-24.17,31.59,356766.72,7326230.17
"373076",373076,1993,21,"wr","White rhino",1,-24.15,31.57,354712.14,7328424.33
"373087",373087,1993,21,"wr","White rhino",1,-24.15,31.56,353696,7328413.92
"373175",373175,1993,21,"wr","White rhino",1,-24.47,31.42,339872.11,7292821.63
"373371",373371,1993,21,"wr","White rhino",1,-24.4,31.39,336741.04,7300539
"373407",373407,1993,21,"wr","White rhino",2,-24.37,31.41,338731.37,7303884.84
"373518",373518,1993,21,"wr","White rhino",3,-24.37,31.47,344817.96,7303953.24
"373531",373531,1993,21,"wr","White rhino",3,-24.37,31.53,350904.44,7304019
"373535",373535,1993,21,"wr","White rhino",4,-24.38,31.53,350916.17,7302911.57
"373624",373624,1993,21,"wr","White rhino",3,-24.37,31.53,350904.44,7304019
"373628",373628,1993,21,"wr","White rhino",4,-24.38,31.53,350916.17,7302911.57
"373775",373775,1993,21,"wr","White rhino",3,-24.37,31.47,344817.96,7303953.24
"373791",373791,1993,21,"wr","White rhino",1,-24.47,31.42,339872.11,7292821.63
"373993",373993,1993,21,"wr","White rhino",1,-24.4,31.39,336741.04,7300539
"374029",374029,1993,21,"wr","White rhino",2,-24.37,31.41,338731.37,7303884.84
"374191",374191,1993,22,"wr","White rhino",2,-24.32,31.53,350845.86,7309556.16
"374208",374208,1993,22,"wr","White rhino",3,-24.29,31.53,350810.77,7312878.44
"374661",374661,1993,24,"wr","White rhino",1,-24.38,31.65,363087.84,7303035.23
"374675",374675,1993,24,"wr","White rhino",4,-24.36,31.62,360022.94,7305220.12
"374694",374694,1993,24,"wr","White rhino",2,-24.35,31.6,357982.86,7306307.22
"374856",374856,1993,24,"wr","White rhino",2,-24.29,31.58,355885.94,7312931.1
"374880",374880,1993,24,"wr","White rhino",4,-24.28,31.58,355874.65,7314038.51
"374893",374893,1993,24,"wr","White rhino",1,-24.28,31.63,360950.14,7314089.33
"375393",375393,1993,25,"wr","White rhino",1,-24.11,31.8,378044.69,7333073.1
"375581",375581,1993,26,"wr","White rhino",1,-24.38,31.9,388444.24,7303259.05
"375729",375729,1993,26,"wr","White rhino",1,-24.33,31.88,386371.15,7308779.48
"375741",375741,1993,26,"wr","White rhino",4,-24.32,31.87,385347.52,7309878.61
"375742",375742,1993,26,"wr","White rhino",2,-24.32,31.87,385347.52,7309878.61
"375753",375753,1993,26,"wr","White rhino",4,-24.3,31.87,385329.54,7312093.26
"375754",375754,1993,26,"wr","White rhino",1,-24.3,31.86,384314.67,7312084.99
"375768",375768,1993,26,"wr","White rhino",4,-24.3,31.87,385329.54,7312093.26
"375778",375778,1993,26,"wr","White rhino",1,-24.28,31.8,378206.3,7314248.5
"375786",375786,1993,26,"wr","White rhino",3,-24.27,31.82,380227.01,7315373.17
"375831",375831,1993,26,"wr","White rhino",6,-24.27,31.77,375151.38,7315329.29
"375849",375849,1993,26,"wr","White rhino",4,-24.25,31.8,378177.71,7317570.51
"375863",375863,1993,26,"wr","White rhino",3,-24.24,31.82,380198.9,7318695.17
"375940",375940,1993,27,"wr","White rhino",2,-24.3,31.88,386344.41,7312101.46
"375946",375946,1993,27,"wr","White rhino",4,-24.23,31.85,383235.85,7319827.92
"375950",375950,1993,27,"wr","White rhino",2,-24.28,31.88,386326.6,7314316.11
"375957",375957,1993,27,"wr","White rhino",4,-24.26,31.88,386308.8,7316530.74
"375960",375960,1993,27,"wr","White rhino",2,-24.25,31.87,385284.64,7317629.87
"375984",375984,1993,27,"wr","White rhino",1,-24.28,31.91,389371.67,7314340.26
"376075",376075,1993,27,"wr","White rhino",1,-24.35,31.93,391461.31,7306604.8
"376082",376082,1993,27,"wr","White rhino",3,-24.32,31.93,391435.75,7309926.75
"376084",376084,1993,27,"wr","White rhino",3,-24.31,31.92,390412.45,7311026.22
"376087",376087,1993,27,"wr","White rhino",3,-24.3,31.92,390403.86,7312133.54
"376088",376088,1993,27,"wr","White rhino",3,-24.29,31.92,390395.27,7313240.85
"376135",376135,1993,27,"wr","White rhino",2,-24.3,31.93,391418.72,7312141.37
"376147",376147,1993,27,"wr","White rhino",2,-24.27,31.94,392408.3,7315471.06
"376368",376368,1993,28,"wr","White rhino",1,-24.43,31.89,387474.34,7297714.3
"376410",376410,1993,28,"wr","White rhino",2,-24.4,31.92,390489.93,7301060.33
"376514",376514,1993,28,"wr","White rhino",1,-24.47,31.86,384469.33,7293260.2
"376531",376531,1993,28,"wr","White rhino",1,-24.46,31.82,380405.8,7294333.56
"376600",376600,1993,28,"wr","White rhino",2,-24.57,31.93,391649.71,7282243.46
"376642",376642,1993,28,"wr","White rhino",2,-24.62,31.93,391692.75,7276706.69
"376723",376723,1993,28,"wr","White rhino",1,-24.58,31.89,387607.83,7281104.05
"376759",376759,1993,29,"wr","White rhino",1,-24.52,31.84,382488.77,7287706.54
"376788",376788,1993,29,"wr","White rhino",2,-24.57,31.8,378484.46,7282135
"376791",376791,1993,29,"wr","White rhino",2,-24.56,31.79,377462.01,7283233.53
"376822",376822,1993,29,"wr","White rhino",4,-24.59,31.86,384579.11,7279971.87
"376838",376838,1993,29,"wr","White rhino",2,-24.6,31.85,383575.81,7278856.07
"376857",376857,1993,29,"wr","White rhino",1,-24.64,31.83,381588.54,7274409.48
"376866",376866,1993,29,"wr","White rhino",3,-24.58,31.81,379506.75,7281036.41
"376870",376870,1993,29,"wr","White rhino",4,-24.6,31.82,380538.38,7278830.36
"376882",376882,1993,29,"wr","White rhino",2,-24.68,31.84,382638.12,7269988.52
"376883",376883,1993,29,"wr","White rhino",2,-24.68,31.84,382638.12,7269988.52
"376886",376886,1993,29,"wr","White rhino",2,-24.65,31.82,380585.9,7273293.44
"376969",376969,1993,29,"wr","White rhino",1,-24.67,31.9,388700.19,7271145.89
"376978",376978,1993,29,"wr","White rhino",1,-24.71,31.9,388735.72,7266716.4
"377112",377112,1993,30,"wr","White rhino",1,-24.69,31.98,396811.77,7268993.7
"377156",377156,1993,30,"wr","White rhino",2,-24.73,31.96,394821.94,7264549.06
"377188",377188,1993,30,"wr","White rhino",1,-24.71,31.96,394805.13,7266763.79
"377223",377223,1993,30,"wr","White rhino",1,-24.76,31.94,392824.86,7261211.43
"377355",377355,1993,30,"wr","White rhino",1,-24.66,31.99,397799.04,7272323.24
"377599",377599,1993,31,"wr","White rhino",2,-24.56,31.76,374423.57,7283206.52
"377619",377619,1993,31,"wr","White rhino",3,-24.53,31.75,373380.63,7286519.55
"377620",377620,1993,31,"wr","White rhino",2,-24.54,31.75,373390.67,7285412.16
"377621",377621,1993,31,"wr","White rhino",3,-24.54,31.75,373390.67,7285412.16
"377630",377630,1993,31,"wr","White rhino",3,-24.59,31.77,375466.05,7279893.42
"377835",377835,1993,31,"wr","White rhino",3,-24.57,31.66,364306.03,7282004.3
"377876",377876,1993,31,"wr","White rhino",3,-24.57,31.63,361267.73,7281974.42
"378310",378310,1993,31,"wr","White rhino",1,-24.4,31.63,361081.13,7300800.54
"378315",378315,1993,31,"wr","White rhino",1,-24.41,31.63,361092.07,7299693.13
"378367",378367,1993,32,"wr","White rhino",5,-24.54,31.44,341986.94,7285092.26
"378370",378370,1993,32,"wr","White rhino",6,-24.51,31.44,341949.39,7288414.72
"378519",378519,1993,32,"wr","White rhino",1,-24.52,31.53,351080.84,7287407.32
"378579",378579,1993,32,"wr","White rhino",7,-24.55,31.59,357193.96,7284148.43
"378581",378581,1993,32,"wr","White rhino",2,-24.51,31.58,356135.43,7288567.8
"378609",378609,1993,32,"wr","White rhino",2,-24.47,31.59,357103.5,7293007.91
"378683",378683,1993,33,"wr","White rhino",7,-24.58,31.58,356215.25,7280815.7
"378775",378775,1993,33,"wr","White rhino",2,-24.61,31.64,362324.26,7277554.73
"378807",378807,1993,33,"wr","White rhino",2,-24.65,31.64,362368.09,7273124.99
"378825",378825,1993,33,"wr","White rhino",1,-24.68,31.63,361389.12,7269792.6
"378841",378841,1993,33,"wr","White rhino",1,-24.69,31.63,361400.18,7268685.15
"378957",378957,1993,33,"wr","White rhino",2,-24.78,31.6,358466.68,7258687.33
"378964",378964,1993,34,"wr","White rhino",1,-24.69,31.79,377588.7,7268837.42
"378966",378966,1993,34,"wr","White rhino",2,-24.64,31.79,377539.9,7274374.42
"378991",378991,1993,34,"wr","White rhino",2,-24.62,31.77,375495.75,7276571.24
"379006",379006,1993,34,"wr","White rhino",2,-24.67,31.77,375545.32,7271034.24
"379048",379048,1993,34,"wr","White rhino",4,-24.69,31.77,375565.18,7268819.42
"379061",379061,1993,34,"wr","White rhino",3,-24.66,31.75,373511.37,7272123.36
"379084",379084,1993,34,"wr","White rhino",2,-24.68,31.74,372519.69,7269899.28
"379120",379120,1993,34,"wr","White rhino",1,-24.72,31.8,378629.55,7265524.11
"379137",379137,1993,34,"wr","White rhino",2,-24.74,31.78,376626.24,7263291.42
"379152",379152,1993,34,"wr","White rhino",2,-24.75,31.76,374613.55,7262165.83
"379212",379212,1993,34,"wr","White rhino",1,-24.64,31.67,365393.73,7274262.15
"379233",379233,1993,34,"wr","White rhino",3,-24.66,31.71,369463.3,7272085.92
"379249",379249,1993,34,"wr","White rhino",4,-24.67,31.7,368461.76,7270968.95
"379250",379250,1993,34,"wr","White rhino",2,-24.67,31.71,369473.7,7270978.5
"379252",379252,1993,34,"wr","White rhino",2,-24.67,31.71,369473.7,7270978.5
"379254",379254,1993,34,"wr","White rhino",4,-24.68,31.71,369484.11,7269871.07
"379270",379270,1993,34,"wr","White rhino",2,-24.7,31.68,366469.83,7267627.33
"379274",379274,1993,34,"wr","White rhino",2,-24.75,31.67,365511.89,7262080.35
"379305",379305,1993,34,"wr","White rhino",1,-24.75,31.69,367534.5,7262099.87
"379306",379306,1993,34,"wr","White rhino",2,-24.75,31.68,366523.2,7262090.15
"379336",379336,1993,34,"wr","White rhino",1,-24.71,31.69,367492.12,7266529.61
"379412",379412,1993,35,"wr","White rhino",2,-24.81,31.6,358500.74,7255364.92
"379425",379425,1993,35,"wr","White rhino",3,-24.82,31.62,360533.61,7254278.03
"379427",379427,1993,35,"wr","White rhino",3,-24.82,31.62,360533.61,7254278.03
"379476",379476,1993,35,"wr","White rhino",1,-24.89,31.61,359601.92,7246515.44
"379503",379503,1993,35,"wr","White rhino",2,-24.89,31.61,359601.92,7246515.44
"379653",379653,1993,35,"wr","White rhino",1,-24.79,31.67,365554.98,7257650.57
"379659",379659,1993,35,"wr","White rhino",2,-24.8,31.67,365565.76,7256543.12
"379661",379661,1993,35,"wr","White rhino",6,-24.81,31.69,367598.19,7255455.21
"379665",379665,1993,35,"wr","White rhino",2,-24.81,31.67,365576.55,7255435.67
"379677",379677,1993,35,"wr","White rhino",1,-24.82,31.67,365587.34,7254328.21
"379678",379678,1993,35,"wr","White rhino",2,-24.82,31.67,365587.34,7254328.21
"379682",379682,1993,35,"wr","White rhino",3,-24.83,31.67,365598.14,7253220.76
"379687",379687,1993,35,"wr","White rhino",3,-24.83,31.68,366608.79,7253230.57
"379692",379692,1993,35,"wr","White rhino",3,-24.84,31.67,365608.94,7252113.3
"379712",379712,1993,35,"wr","White rhino",4,-24.85,31.67,365619.74,7251005.85
"379717",379717,1993,35,"wr","White rhino",1,-24.86,31.71,369672.18,7249937.24
"379718",379718,1993,35,"wr","White rhino",2,-24.86,31.72,370682.59,7249946.77
"379722",379722,1993,35,"wr","White rhino",2,-24.86,31.72,370682.59,7249946.77
"379846",379846,1993,36,"wr","White rhino",3,-24.78,31.8,378687.82,7258879.67
"379898",379898,1993,36,"wr","White rhino",2,-24.8,31.78,376685.53,7256646.93
"379909",379909,1993,36,"wr","White rhino",2,-24.79,31.77,375664.68,7257745.28
"379913",379913,1993,36,"wr","White rhino",2,-24.81,31.77,375684.63,7255530.44
"379930",379930,1993,36,"wr","White rhino",3,-24.8,31.76,374663.78,7256628.72
"379945",379945,1993,36,"wr","White rhino",2,-24.79,31.76,374653.72,7257736.14
"379953",379953,1993,36,"wr","White rhino",2,-24.82,31.75,373673.18,7254404.65
"380107",380107,1993,36,"wr","White rhino",1,-24.85,31.83,381787.35,7251154.1
"380110",380110,1993,36,"wr","White rhino",3,-24.86,31.84,382807.23,7250055.32
"380121",380121,1993,36,"wr","White rhino",1,-24.85,31.83,381787.35,7251154.1
"380153",380153,1993,36,"wr","White rhino",2,-24.86,31.82,380786.48,7250037.97
"380166",380166,1993,36,"wr","White rhino",2,-24.86,31.8,378765.72,7250020.33
"380291",380291,1993,37,"wr","White rhino",2,-24.87,31.96,394939.99,7249045.81
"380404",380404,1993,37,"wr","White rhino",1,-24.85,31.92,390881.36,7251229.15
"380506",380506,1993,37,"wr","White rhino",1,-24.85,31.89,387850.04,7251204.8
"380582",380582,1993,37,"wr","White rhino",1,-24.95,31.92,390969.26,7240155.16
"380607",380607,1993,37,"wr","White rhino",2,-24.96,31.97,396025.74,7239086.98
"380608",380608,1993,37,"wr","White rhino",2,-24.95,31.96,395007.73,7240186.68
"380619",380619,1993,37,"wr","White rhino",2,-24.93,31.97,396000.55,7242409.16
"380620",380620,1993,37,"wr","White rhino",1,-24.95,31.98,397026.95,7240201.99
"380631",380631,1993,37,"wr","White rhino",1,-24.93,31.98,397010.32,7242416.78
"380658",380658,1993,37,"wr","White rhino",2,-24.98,31.98,397051.91,7236879.81
"380662",380662,1993,37,"wr","White rhino",1,-24.97,31.95,394015.24,7237964.11
"380693",380693,1993,37,"wr","White rhino",1,-25,31.97,396059.37,7234657.38
"380697",380697,1993,37,"wr","White rhino",2,-25,31.98,397068.57,7234665.02
"380699",380699,1993,37,"wr","White rhino",1,-25,31.97,396059.37,7234657.38
"380704",380704,1993,37,"wr","White rhino",2,-25.02,31.98,397085.24,7232450.21
"380719",380719,1993,37,"wr","White rhino",3,-25.03,31.99,398102.54,7231350.37
"380765",380765,1993,37,"wr","White rhino",2,-25.07,31.99,398135.6,7226920.76
"380807",380807,1993,37,"wr","White rhino",2,-25.1,31.96,395135.29,7223575.57
"380916",380916,1993,37,"wr","White rhino",5,-25.14,31.94,393153.3,7219130.19
"380942",380942,1993,38,"wr","White rhino",1,-25.08,31.94,393101.13,7225774.73
"380967",380967,1993,38,"wr","White rhino",2,-24.94,31.88,386921.62,7241229.87
"381055",381055,1993,38,"wr","White rhino",2,-24.9,31.84,382844.96,7245625.66
"381076",381076,1993,38,"wr","White rhino",2,-24.92,31.83,381853.97,7243402.17
"381094",381094,1993,38,"wr","White rhino",1,-24.92,31.81,379834.19,7243384.64
"381103",381103,1993,38,"wr","White rhino",2,-24.93,31.8,378834.08,7242268.33
"381105",381105,1993,38,"wr","White rhino",1,-24.94,31.8,378843.86,7241160.9
"381185",381185,1993,38,"wr","White rhino",2,-24.93,31.76,374794.81,7242232.07
"381194",381194,1993,38,"wr","White rhino",1,-24.9,31.76,374764.51,7245554.4
"381196",381196,1993,38,"wr","White rhino",2,-24.91,31.75,373764.62,7244437.71
"381198",381198,1993,38,"wr","White rhino",1,-24.92,31.75,373774.8,7243330.27
"381200",381200,1993,38,"wr","White rhino",1,-24.93,31.75,373784.99,7242222.82
"381209",381209,1993,38,"wr","White rhino",1,-25,31.78,376884.13,7234498.25
"381264",381264,1993,38,"wr","White rhino",1,-25.03,31.83,381959.01,7231220.42
"381325",381325,1993,38,"wr","White rhino",2,-25.03,31.86,384985.97,7231246.24
"381336",381336,1993,38,"wr","White rhino",1,-25.06,31.87,386022.69,7227932.4
"381421",381421,1993,39,"wr","White rhino",2,-25,31.31,329446.58,7233989.02
"381422",381422,1993,39,"wr","White rhino",2,-25,31.31,329446.58,7233989.02
"381427",381427,1993,39,"wr","White rhino",2,-25.01,31.31,329460.39,7232881.42
"381428",381428,1993,39,"wr","White rhino",1,-25,31.29,327427.81,7233963.7
"381436",381436,1993,39,"wr","White rhino",1,-25.01,31.29,327441.78,7232856.09
"381439",381439,1993,39,"wr","White rhino",1,-25.02,31.29,327455.77,7231748.49
"381441",381441,1993,39,"wr","White rhino",2,-25.01,31.28,326432.48,7232843.32
"381462",381462,1993,39,"wr","White rhino",1,-25.04,31.26,324456.55,7229494.68
"381493",381493,1993,39,"wr","White rhino",3,-25.08,31.25,323504.81,7225051.16
"381499",381499,1993,39,"wr","White rhino",1,-25.08,31.23,321487.31,7225024.88
"381506",381506,1993,39,"wr","White rhino",2,-25.09,31.23,321501.83,7223917.24
"381509",381509,1993,39,"wr","White rhino",1,-25.1,31.24,322524.93,7222822.78
"381515",381515,1993,39,"wr","White rhino",1,-25.1,31.23,321516.34,7222809.6
"381521",381521,1993,39,"wr","White rhino",2,-25.11,31.25,323547.87,7221728.26
"381522",381522,1993,39,"wr","White rhino",2,-25.11,31.26,324556.37,7221741.3
"381524",381524,1993,39,"wr","White rhino",1,-25.12,31.26,324570.65,7220633.66
"381525",381525,1993,39,"wr","White rhino",1,-25.12,31.24,322553.82,7220607.51
"381527",381527,1993,39,"wr","White rhino",2,-25.12,31.26,324570.65,7220633.66
"381545",381545,1993,39,"wr","White rhino",1,-25.14,31.21,319557.94,7218352.4
"381547",381547,1993,39,"wr","White rhino",1,-25.14,31.23,321574.47,7218379.02
"381549",381549,1993,39,"wr","White rhino",3,-25.15,31.27,325621.69,7217323.74
"381574",381574,1993,39,"wr","White rhino",1,-25.02,31.31,329474.21,7231773.82
"381584",381584,1993,39,"wr","White rhino",2,-25.03,31.34,332515.42,7230703.68
"381593",381593,1993,39,"wr","White rhino",2,-25.05,31.36,334560.51,7228513.11
"381599",381599,1993,39,"wr","White rhino",4,-25.04,31.32,330510.91,7229571.18
"381600",381600,1993,39,"wr","White rhino",2,-25.04,31.32,330510.91,7229571.18
"381602",381602,1993,39,"wr","White rhino",2,-25.04,31.32,330510.91,7229571.18
"381605",381605,1993,39,"wr","White rhino",2,-25.04,31.31,329501.86,7229558.62
"381607",381607,1993,39,"wr","White rhino",2,-25.04,31.32,330510.91,7229571.18
"381608",381608,1993,39,"wr","White rhino",5,-25.05,31.32,330524.67,7228463.58
"381613",381613,1993,39,"wr","White rhino",1,-25.06,31.37,335582.81,7227417.72
"381625",381625,1993,39,"wr","White rhino",1,-25.06,31.33,331547.31,7227368.48
"381626",381626,1993,39,"wr","White rhino",3,-25.05,31.31,329515.7,7228451.02
"381636",381636,1993,39,"wr","White rhino",2,-25.08,31.37,335609.52,7225202.55
"381643",381643,1993,39,"wr","White rhino",2,-25.08,31.32,330565.95,7225140.77
"381657",381657,1993,39,"wr","White rhino",2,-25.09,31.34,332597,7224058.11
"381660",381660,1993,39,"wr","White rhino",2,-25.09,31.35,333605.63,7224070.47
"381662",381662,1993,39,"wr","White rhino",1,-25.09,31.35,333605.63,7224070.47
"381675",381675,1993,39,"wr","White rhino",2,-25.08,31.28,326531.04,7225090.01
"381679",381679,1993,39,"wr","White rhino",1,-25.08,31.27,325522.3,7225077.14
"381680",381680,1993,39,"wr","White rhino",2,-25.09,31.28,326545.14,7223982.39
"381681",381681,1993,39,"wr","White rhino",3,-25.09,31.29,327553.79,7223995.2
"381685",381685,1993,39,"wr","White rhino",3,-25.11,31.33,331615.76,7221830.47
"381687",381687,1993,39,"wr","White rhino",2,-25.1,31.31,329584.94,7222912.98
"381688",381688,1993,39,"wr","White rhino",2,-25.1,31.31,329584.94,7222912.98
"381691",381691,1993,39,"wr","White rhino",2,-25.09,31.27,325536.48,7223969.51
"381695",381695,1993,39,"wr","White rhino",2,-25.1,31.28,326559.24,7222874.77
"381701",381701,1993,39,"wr","White rhino",2,-25.11,31.31,329598.81,7221805.36
"381704",381704,1993,39,"wr","White rhino",3,-25.11,31.33,331615.76,7221830.47
"381705",381705,1993,39,"wr","White rhino",2,-25.11,31.33,331615.76,7221830.47
"381713",381713,1993,39,"wr","White rhino",1,-25.12,31.33,331629.47,7220722.86
"381714",381714,1993,39,"wr","White rhino",3,-25.12,31.32,330621.08,7220710.34
"381725",381725,1993,39,"wr","White rhino",3,-25.11,31.28,326573.36,7221767.15
"381728",381728,1993,39,"wr","White rhino",3,-25.11,31.3,328590.33,7221792.7
"381730",381730,1993,39,"wr","White rhino",2,-25.11,31.31,329598.81,7221805.36
"381733",381733,1993,39,"wr","White rhino",2,-25.12,31.32,330621.08,7220710.34
"381735",381735,1993,39,"wr","White rhino",1,-25.12,31.31,329612.68,7220697.75
"381740",381740,1993,39,"wr","White rhino",1,-25.12,31.28,326587.47,7220659.52
"381744",381744,1993,39,"wr","White rhino",3,-25.12,31.29,327595.88,7220672.34
"381752",381752,1993,39,"wr","White rhino",1,-25.13,31.31,329626.56,7219590.14
"381755",381755,1993,39,"wr","White rhino",1,-25.13,31.28,326601.6,7219551.9
"381770",381770,1993,40,"wr","White rhino",2,-25.38,31.31,329975.13,7191899.33
"381772",381772,1993,40,"wr","White rhino",2,-25.37,31.3,328954.79,7192994.22
"381782",381782,1993,40,"wr","White rhino",2,-25.36,31.29,327934.29,7194089.04
"381802",381802,1993,40,"wr","White rhino",2,-25.35,31.28,326913.62,7195183.79
"381811",381811,1993,40,"wr","White rhino",2,-25.35,31.32,330939.63,7195234.95
"381814",381814,1993,40,"wr","White rhino",1,-25.34,31.32,330925.72,7196342.59
"381825",381825,1993,40,"wr","White rhino",6,-25.34,31.27,325892.79,7196278.47
"381840",381840,1993,40,"wr","White rhino",2,-25.33,31.32,330911.82,7197450.23
"381869",381869,1993,40,"wr","White rhino",2,-25.32,31.29,327877.68,7198519.64
"381875",381875,1993,40,"wr","White rhino",2,-25.32,31.31,329891.18,7198545.2
"381878",381878,1993,40,"wr","White rhino",3,-25.32,31.32,330897.92,7198557.87
"381880",381880,1993,40,"wr","White rhino",2,-25.32,31.31,329891.18,7198545.2
"381883",381883,1993,40,"wr","White rhino",2,-25.31,31.3,328870.37,7199640.1
"381885",381885,1993,40,"wr","White rhino",2,-25.31,31.29,327863.54,7199627.29
"381891",381891,1993,40,"wr","White rhino",2,-25.31,31.31,329877.2,7199652.84
"381905",381905,1993,40,"wr","White rhino",2,-25.29,31.31,329849.27,7201868.12
"381907",381907,1993,40,"wr","White rhino",2,-25.29,31.3,328842.27,7201855.39
"381921",381921,1993,40,"wr","White rhino",1,-25.26,31.3,328800.17,7205178.3
"381922",381922,1993,40,"wr","White rhino",1,-25.26,31.32,330814.65,7205203.67
"381938",381938,1993,40,"wr","White rhino",2,-25.25,31.31,329793.47,7206298.65
"381943",381943,1993,40,"wr","White rhino",2,-25.25,31.32,330800.79,7206311.3
"381945",381945,1993,40,"wr","White rhino",2,-25.24,31.3,328772.12,7207393.57
"381948",381948,1993,40,"wr","White rhino",2,-25.24,31.28,326757.29,7207367.92
"381950",381950,1993,40,"wr","White rhino",4,-25.23,31.28,326743.11,7208475.57
"381952",381952,1993,40,"wr","White rhino",2,-25.23,31.31,329765.6,7208513.92
"381954",381954,1993,40,"wr","White rhino",2,-25.23,31.32,330773.09,7208526.55
"381955",381955,1993,40,"wr","White rhino",2,-25.23,31.33,331780.57,7208539.11
"381956",381956,1993,40,"wr","White rhino",2,-25.23,31.33,331780.57,7208539.11
"381960",381960,1993,40,"wr","White rhino",2,-25.23,31.33,331780.57,7208539.11
"381963",381963,1993,40,"wr","White rhino",2,-25.23,31.32,330773.09,7208526.55
"381964",381964,1993,40,"wr","White rhino",1,-25.23,31.31,329765.6,7208513.92
"381972",381972,1993,40,"wr","White rhino",1,-25.22,31.3,328744.09,7209608.84
"381974",381974,1993,40,"wr","White rhino",2,-25.22,31.34,332774.38,7209659.21
"381977",381977,1993,40,"wr","White rhino",3,-25.22,31.35,333781.94,7209671.61
"381981",381981,1993,40,"wr","White rhino",2,-25.22,31.33,331766.81,7209646.73
"381995",381995,1993,40,"wr","White rhino",1,-25.21,31.36,334775.99,7210791.55
"382011",382011,1993,40,"wr","White rhino",2,-25.15,31.35,333686.9,7217424.87
"382012",382012,1993,40,"wr","White rhino",1,-25.16,31.35,333700.46,7216317.27
"382013",382013,1993,40,"wr","White rhino",2,-25.16,31.35,333700.46,7216317.27
"382014",382014,1993,40,"wr","White rhino",4,-25.17,31.36,334722,7215221.97
"382019",382019,1993,40,"wr","White rhino",2,-25.18,31.36,334735.49,7214114.37
"382037",382037,1993,40,"wr","White rhino",1,-25.17,31.34,332706.05,7215197.27
"382047",382047,1993,40,"wr","White rhino",2,-25.17,31.33,331698.08,7215184.81
"382050",382050,1993,40,"wr","White rhino",2,-25.18,31.32,330703.91,7214064.66
"382052",382052,1993,40,"wr","White rhino",5,-25.17,31.32,330690.09,7215172.28
"382054",382054,1993,40,"wr","White rhino",2,-25.16,31.32,330676.28,7216279.89
"382056",382056,1993,40,"wr","White rhino",1,-25.17,31.31,329682.11,7215159.66
"382059",382059,1993,40,"wr","White rhino",2,-25.19,31.32,330717.74,7212957.04
"382060",382060,1993,40,"wr","White rhino",2,-25.2,31.32,330731.57,7211849.42
"382069",382069,1993,40,"wr","White rhino",2,-25.17,31.29,327666.13,7215134.22
"382097",382097,1993,40,"wr","White rhino",1,-25.2,31.25,323677.34,7211759.49
"382104",382104,1993,40,"wr","White rhino",2,-25.2,31.24,322669.58,7211746.34
"382105",382105,1993,40,"wr","White rhino",1,-25.21,31.24,322684.07,7210638.69
"382121",382121,1993,41,"wr","White rhino",1,-25.14,31.36,334681.56,7218544.77
"382122",382122,1993,41,"wr","White rhino",2,-25.15,31.36,334695.03,7217437.17
"382128",382128,1993,41,"wr","White rhino",3,-25.14,31.36,334681.56,7218544.77
"382129",382129,1993,41,"wr","White rhino",4,-25.11,31.36,334641.17,7221867.56
"382130",382130,1993,41,"wr","White rhino",4,-25.12,31.36,334654.63,7220759.97
"382135",382135,1993,41,"wr","White rhino",2,-25.14,31.37,335689.77,7218557
"382143",382143,1993,41,"wr","White rhino",3,-25.14,31.38,336697.99,7218569.15
"382146",382146,1993,41,"wr","White rhino",4,-25.13,31.38,336684.68,7219676.74
"382148",382148,1993,41,"wr","White rhino",5,-25.13,31.38,336684.68,7219676.74
"382155",382155,1993,41,"wr","White rhino",2,-25.11,31.38,336658.09,7221891.92
"382166",382166,1993,41,"wr","White rhino",4,-25.11,31.4,338674.99,7221915.98
"382194",382194,1993,41,"wr","White rhino",7,-25.13,31.46,344750.92,7219771.23
"382196",382196,1993,41,"wr","White rhino",4,-25.13,31.46,344750.92,7219771.23
"382199",382199,1993,41,"wr","White rhino",2,-25.12,31.46,344738.27,7220878.79
"382201",382201,1993,41,"wr","White rhino",1,-25.11,31.46,344725.64,7221986.35
"382204",382204,1993,41,"wr","White rhino",2,-25.11,31.47,345734.07,7221997.82
"382230",382230,1993,41,"wr","White rhino",2,-25.14,31.5,348796.28,7218709.13
"382232",382232,1993,41,"wr","White rhino",2,-25.13,31.5,348783.96,7219816.68
"382233",382233,1993,41,"wr","White rhino",2,-25.12,31.5,348771.65,7220924.23
"382235",382235,1993,41,"wr","White rhino",2,-25.12,31.5,348771.65,7220924.23
"382237",382237,1993,41,"wr","White rhino",1,-25.12,31.5,348771.65,7220924.23
"382242",382242,1993,41,"wr","White rhino",2,-25.11,31.5,348759.34,7222031.77
"382249",382249,1993,41,"wr","White rhino",2,-25.13,31.5,348783.96,7219816.68
"382251",382251,1993,41,"wr","White rhino",1,-25.14,31.5,348796.28,7218709.13
"382253",382253,1993,41,"wr","White rhino",2,-25.15,31.51,349816.69,7217612.76
"382255",382255,1993,41,"wr","White rhino",3,-25.15,31.51,349816.69,7217612.76
"382259",382259,1993,41,"wr","White rhino",3,-25.12,31.51,349779.98,7220935.4
"382262",382262,1993,41,"wr","White rhino",3,-25.22,31.49,347887.48,7209837.4
"382269",382269,1993,41,"wr","White rhino",2,-25.22,31.48,346879.96,7209826.04
"382271",382271,1993,41,"wr","White rhino",2,-25.2,31.48,346854.93,7212041.18
"382274",382274,1993,41,"wr","White rhino",4,-25.18,31.49,347837.76,7214267.65
"382279",382279,1993,41,"wr","White rhino",3,-25.16,31.48,346804.91,7216471.43
"382280",382280,1993,41,"wr","White rhino",3,-25.17,31.48,346817.41,7215363.87
"382281",382281,1993,41,"wr","White rhino",4,-25.19,31.48,346842.42,7213148.74
"382282",382282,1993,41,"wr","White rhino",5,-25.19,31.48,346842.42,7213148.74
"382283",382283,1993,41,"wr","White rhino",2,-25.2,31.48,346854.93,7212041.18
"382285",382285,1993,41,"wr","White rhino",2,-25.22,31.47,345872.44,7209814.61
"382287",382287,1993,41,"wr","White rhino",2,-25.23,31.47,345885.05,7208707.04
"382289",382289,1993,41,"wr","White rhino",1,-25.23,31.47,345885.05,7208707.04
"382292",382292,1993,41,"wr","White rhino",1,-25.22,31.46,344864.92,7209803.11
"382293",382293,1993,41,"wr","White rhino",1,-25.21,31.46,344852.23,7210910.68
"382294",382294,1993,41,"wr","White rhino",2,-25.19,31.46,344826.87,7213125.83
"382298",382298,1993,41,"wr","White rhino",10,-25.16,31.47,345796.89,7216460.02
"382304",382304,1993,41,"wr","White rhino",2,-25.17,31.46,344801.54,7215340.97
"382305",382305,1993,41,"wr","White rhino",4,-25.17,31.46,344801.54,7215340.97
"382308",382308,1993,41,"wr","White rhino",2,-25.22,31.44,342849.86,7209779.88
"382309",382309,1993,41,"wr","White rhino",2,-25.22,31.44,342849.86,7209779.88
"382310",382310,1993,41,"wr","White rhino",2,-25.23,31.44,342862.71,7208672.29
"382311",382311,1993,41,"wr","White rhino",1,-25.23,31.44,342862.71,7208672.29
"382312",382312,1993,41,"wr","White rhino",1,-25.23,31.44,342862.71,7208672.29
"382316",382316,1993,41,"wr","White rhino",7,-25.21,31.44,342837.01,7210887.46
"382318",382318,1993,41,"wr","White rhino",3,-25.2,31.45,343831.86,7212006.68
"382320",382320,1993,41,"wr","White rhino",2,-25.2,31.45,343831.86,7212006.68
"382321",382321,1993,41,"wr","White rhino",3,-25.18,31.45,343806.35,7214221.83
"382323",382323,1993,41,"wr","White rhino",2,-25.16,31.46,344788.87,7216448.53
"382328",382328,1993,41,"wr","White rhino",2,-25.18,31.45,343806.35,7214221.83
"382330",382330,1993,41,"wr","White rhino",4,-25.19,31.44,342811.32,7213102.61
"382331",382331,1993,41,"wr","White rhino",4,-25.19,31.44,342811.32,7213102.61
"382332",382332,1993,41,"wr","White rhino",3,-25.2,31.44,342824.16,7211995.04
"382335",382335,1993,41,"wr","White rhino",2,-25.22,31.42,340834.79,7209756.34
"382336",382336,1993,41,"wr","White rhino",1,-25.19,31.43,341803.54,7213090.9
"382338",382338,1993,41,"wr","White rhino",2,-25.18,31.43,341790.62,7214198.48
"382342",382342,1993,41,"wr","White rhino",3,-25.16,31.44,342772.83,7216425.34
"382344",382344,1993,41,"wr","White rhino",2,-25.15,31.44,342760.01,7217532.91
"382346",382346,1993,41,"wr","White rhino",3,-25.19,31.44,342811.32,7213102.61
"382353",382353,1993,41,"wr","White rhino",2,-25.16,31.44,342772.83,7216425.34
"382356",382356,1993,41,"wr","White rhino",3,-25.18,31.42,340782.75,7214186.69
"382359",382359,1993,41,"wr","White rhino",2,-25.19,31.4,338780.18,7213055.29
"382361",382361,1993,41,"wr","White rhino",3,-25.17,31.41,339761.81,7215282.41
"382363",382363,1993,41,"wr","White rhino",3,-25.17,31.4,338753.85,7215270.47
"382365",382365,1993,41,"wr","White rhino",3,-25.21,31.39,337798.89,7210828.08
"382367",382367,1993,41,"wr","White rhino",2,-25.19,31.38,336764.59,7213031.18
"382368",382368,1993,41,"wr","White rhino",3,-25.18,31.38,336751.26,7214138.77
"382373",382373,1993,41,"wr","White rhino",1,-25.17,31.39,337745.89,7215258.46
"382377",382377,1993,41,"wr","White rhino",4,-25.22,31.38,336804.61,7209708.37
"382380",382380,1993,41,"wr","White rhino",2,-25.23,31.38,336817.96,7208600.77
"382381",382381,1993,41,"wr","White rhino",2,-25.23,31.38,336817.96,7208600.77
"382383",382383,1993,41,"wr","White rhino",8,-25.23,31.38,336817.96,7208600.77
"382385",382385,1993,41,"wr","White rhino",2,-25.22,31.38,336804.61,7209708.37
"382387",382387,1993,41,"wr","White rhino",2,-25.22,31.38,336804.61,7209708.37
"382395",382395,1993,41,"wr","White rhino",1,-25.23,31.4,338832.89,7208624.91
"382398",382398,1993,41,"wr","White rhino",2,-25.26,31.41,339879.69,7205314.08
"382399",382399,1993,41,"wr","White rhino",3,-25.26,31.41,339879.69,7205314.08
"382401",382401,1993,41,"wr","White rhino",3,-25.26,31.4,338872.47,7205302.11
"382402",382402,1993,41,"wr","White rhino",1,-25.27,31.41,339892.81,7204206.48
"382404",382404,1993,41,"wr","White rhino",2,-25.27,31.41,339892.81,7204206.48
"382408",382408,1993,41,"wr","White rhino",1,-25.27,31.42,340899.94,7204218.38
"382411",382411,1993,41,"wr","White rhino",3,-25.24,31.43,341868.2,7207552.97
"382415",382415,1993,41,"wr","White rhino",4,-25.26,31.43,341894.1,7205337.79
"382416",382416,1993,41,"wr","White rhino",2,-25.27,31.43,341907.06,7204230.2
"382419",382419,1993,41,"wr","White rhino",2,-25.27,31.42,340899.94,7204218.38
"382421",382421,1993,41,"wr","White rhino",5,-25.28,31.42,340912.98,7203110.78
"382424",382424,1993,41,"wr","White rhino",5,-25.29,31.43,341932.99,7202015.01
"382426",382426,1993,41,"wr","White rhino",2,-25.28,31.43,341920.02,7203122.61
"382427",382427,1993,41,"wr","White rhino",2,-25.28,31.43,341920.02,7203122.61
"382428",382428,1993,41,"wr","White rhino",3,-25.27,31.43,341907.06,7204230.2
"382431",382431,1993,41,"wr","White rhino",4,-25.25,31.45,343895.72,7206468.79
"382432",382432,1993,41,"wr","White rhino",4,-25.29,31.44,342939.94,7202026.77
"382444",382444,1993,41,"wr","White rhino",2,-25.26,31.47,345922.9,7205384.31
"382464",382464,1993,41,"wr","White rhino",3,-25.32,31.4,338951.77,7198656.48
"382481",382481,1993,41,"wr","White rhino",2,-25.3,31.4,338925.32,7200871.7
"382487",382487,1993,41,"wr","White rhino",3,-25.28,31.4,338898.89,7203086.91
"382488",382488,1993,41,"wr","White rhino",1,-25.28,31.4,338898.89,7203086.91
"382492",382492,1993,41,"wr","White rhino",4,-25.28,31.39,337891.84,7203074.86
"382493",382493,1993,41,"wr","White rhino",4,-25.28,31.39,337891.84,7203074.86
"382494",382494,1993,41,"wr","White rhino",3,-25.27,31.39,337878.54,7204182.47
"382497",382497,1993,41,"wr","White rhino",2,-25.28,31.38,336884.78,7203062.73
"382498",382498,1993,41,"wr","White rhino",4,-25.31,31.36,334911.31,7199715.4
"382504",382504,1993,41,"wr","White rhino",3,-25.31,31.35,333904.5,7199703.04
"382511",382511,1993,41,"wr","White rhino",2,-25.28,31.36,334870.66,7203038.26
"382513",382513,1993,41,"wr","White rhino",1,-25.27,31.36,334857.12,7204145.88
"382517",382517,1993,41,"wr","White rhino",4,-25.3,31.34,332883.96,7200798.23
"382518",382518,1993,41,"wr","White rhino",1,-25.3,31.33,331877.05,7200785.72
"382521",382521,1993,41,"wr","White rhino",2,-25.31,31.33,331890.86,7199678.09
"382523",382523,1993,41,"wr","White rhino",2,-25.26,31.34,332829.13,7205228.73
"382525",382525,1993,41,"wr","White rhino",4,-25.26,31.35,333836.36,7205241.15
"382529",382529,1993,41,"wr","White rhino",2,-25.25,31.35,333822.75,7206348.77
"382531",382531,1993,41,"wr","White rhino",3,-25.26,31.33,331821.89,7205216.24
"382532",382532,1993,41,"wr","White rhino",2,-25.27,31.33,331835.68,7204108.61
"382536",382536,1993,41,"wr","White rhino",1,-25.28,31.32,330842.39,7202988.4
"382538",382538,1993,41,"wr","White rhino",5,-25.29,31.32,330856.27,7201880.77
"382540",382540,1993,41,"wr","White rhino",3,-25.28,31.32,330842.39,7202988.4
"382547",382547,1993,41,"wr","White rhino",2,-25.26,31.32,330814.65,7205203.67
"382549",382549,1993,41,"wr","White rhino",3,-25.26,31.33,331821.89,7205216.24
"382551",382551,1993,41,"wr","White rhino",1,-25.25,31.33,331808.11,7206323.86
"382552",382552,1993,41,"wr","White rhino",2,-25.25,31.33,331808.11,7206323.86
"382554",382554,1993,41,"wr","White rhino",5,-25.25,31.33,331808.11,7206323.86
"382555",382555,1993,41,"wr","White rhino",2,-25.23,31.35,333795.54,7208564
"382560",382560,1993,41,"wr","White rhino",5,-25.26,31.32,330814.65,7205203.67
"382562",382562,1993,41,"wr","White rhino",2,-25.27,31.32,330828.52,7204096.04
"382563",382563,1993,41,"wr","White rhino",4,-25.23,31.34,332788.06,7208551.59
"382566",382566,1993,41,"wr","White rhino",2,-25.22,31.34,332774.38,7209659.21
"382567",382567,1993,41,"wr","White rhino",1,-25.34,31.41,339984.8,7196453.26
"382606",382606,1993,41,"wr","White rhino",2,-25.37,31.38,337005.38,7193094.18
"382608",382608,1993,41,"wr","White rhino",2,-25.36,31.38,336991.96,7194201.8
"382610",382610,1993,41,"wr","White rhino",2,-25.36,31.38,336991.96,7194201.8
"382624",382624,1993,41,"wr","White rhino",2,-25.37,31.37,335999.07,7193081.95
"382628",382628,1993,41,"wr","White rhino",2,-25.38,31.37,336012.57,7191974.32
"382633",382633,1993,41,"wr","White rhino",3,-25.39,31.36,335019.94,7190854.38
"382636",382636,1993,41,"wr","White rhino",2,-25.35,31.37,335972.07,7195297.2
"382638",382638,1993,41,"wr","White rhino",3,-25.34,31.37,335958.57,7196404.82
"382645",382645,1993,41,"wr","White rhino",2,-25.34,31.36,334952.01,7196392.53
"382652",382652,1993,41,"wr","White rhino",2,-25.37,31.36,334992.75,7193069.64
"382655",382655,1993,41,"wr","White rhino",2,-25.38,31.35,334000.11,7191949.63
"382669",382669,1993,41,"wr","White rhino",1,-25.35,31.35,333959.1,7195272.52
"382693",382693,1993,41,"wr","White rhino",1,-25.32,31.33,331904.67,7198570.46
"382700",382700,1993,41,"wr","White rhino",2,-25.36,31.33,331959.95,7194139.91
"382746",382746,1993,42,"wr","White rhino",2,-25.17,31.6,358912.38,7215494.98
"382753",382753,1993,42,"wr","White rhino",4,-25.15,31.59,357881.3,7217699.51
"382773",382773,1993,42,"wr","White rhino",3,-25.17,31.57,355888.68,7215463.21
"382775",382775,1993,42,"wr","White rhino",2,-25.15,31.57,355865.17,7217678.27
"382777",382777,1993,42,"wr","White rhino",8,-25.14,31.57,355853.42,7218785.8
"382779",382779,1993,42,"wr","White rhino",2,-25.15,31.56,354857.1,7217667.54
"382799",382799,1993,42,"wr","White rhino",1,-25.15,31.55,353849.02,7217656.73
"382802",382802,1993,42,"wr","White rhino",1,-25.13,31.54,352816.96,7219860.93
"382806",382806,1993,42,"wr","White rhino",4,-25.15,31.53,351832.86,7217634.89
"382808",382808,1993,42,"wr","White rhino",2,-25.14,31.53,351820.79,7218742.44
"382829",382829,1993,42,"wr","White rhino",1,-25.21,31.61,359966.03,7211075.32
"382832",382832,1993,42,"wr","White rhino",2,-25.23,31.61,359988.93,7208860.27
"382834",382834,1993,42,"wr","White rhino",2,-25.21,31.61,359966.03,7211075.32
"382838",382838,1993,42,"wr","White rhino",2,-25.21,31.6,358958.46,7211064.87
"382839",382839,1993,42,"wr","White rhino",2,-25.22,31.6,358970,7209957.34
"382850",382850,1993,42,"wr","White rhino",2,-25.24,31.59,357985.75,7207731.74
"382871",382871,1993,42,"wr","White rhino",2,-25.25,31.56,354975.64,7206592.14
"382872",382872,1993,42,"wr","White rhino",2,-25.25,31.56,354975.64,7206592.14
"382874",382874,1993,42,"wr","White rhino",1,-25.24,31.56,354963.77,7207699.69
"382877",382877,1993,42,"wr","White rhino",5,-25.25,31.55,353968.39,7206581.3
"382885",382885,1993,42,"wr","White rhino",2,-25.25,31.55,353968.39,7206581.3
"382894",382894,1993,42,"wr","White rhino",3,-25.28,31.6,359039.27,7203312.13
"382904",382904,1993,42,"wr","White rhino",2,-25.3,31.58,357048.74,7201075.87
"382906",382906,1993,42,"wr","White rhino",3,-25.3,31.59,358055.57,7201086.5
"382907",382907,1993,42,"wr","White rhino",2,-25.3,31.58,357048.74,7201075.87
"382908",382908,1993,42,"wr","White rhino",2,-25.29,31.58,357037.01,7202183.42
"382922",382922,1993,42,"wr","White rhino",1,-25.29,31.56,355023.18,7202161.94
"382930",382930,1993,42,"wr","White rhino",1,-25.23,31.5,348907.36,7208741.11
"382931",382931,1993,42,"wr","White rhino",2,-25.24,31.5,348919.72,7207633.55
"382935",382935,1993,42,"wr","White rhino",3,-25.26,31.52,350958.83,7205440.77
"382936",382936,1993,42,"wr","White rhino",2,-25.25,31.53,351953.88,7206559.4
"382940",382940,1993,42,"wr","White rhino",4,-25.23,31.51,349914.79,7208752.32
"382942",382942,1993,42,"wr","White rhino",3,-25.23,31.51,349914.79,7208752.32
"382951",382951,1993,42,"wr","White rhino",4,-25.22,31.52,350910.02,7209871.01
"382953",382953,1993,42,"wr","White rhino",4,-25.21,31.51,349890.24,7210967.44
"382957",382957,1993,42,"wr","White rhino",2,-25.2,31.51,349877.97,7212074.99
"382959",382959,1993,42,"wr","White rhino",3,-25.21,31.53,351905.42,7210989.61
"382962",382962,1993,42,"wr","White rhino",2,-25.22,31.54,352925.03,7209893.04
"382968",382968,1993,42,"wr","White rhino",2,-25.21,31.54,352913,7211000.59
"382971",382971,1993,42,"wr","White rhino",2,-25.19,31.52,350873.46,7213193.67
"382974",382974,1993,42,"wr","White rhino",1,-25.18,31.51,349853.44,7214290.1
"382975",382975,1993,42,"wr","White rhino",3,-25.18,31.51,349853.44,7214290.1
"382993",382993,1993,42,"wr","White rhino",2,-25.19,31.55,353896.72,7213226.58
"382994",382994,1993,42,"wr","White rhino",4,-25.19,31.55,353896.72,7213226.58
"383011",383011,1993,42,"wr","White rhino",4,-25.17,31.51,349841.19,7215397.66
"383016",383016,1993,42,"wr","White rhino",2,-25.17,31.51,349841.19,7215397.66
"383018",383018,1993,42,"wr","White rhino",1,-25.17,31.52,350849.11,7215408.77
"383020",383020,1993,42,"wr","White rhino",3,-25.18,31.53,351869.12,7214312.26
"383028",383028,1993,42,"wr","White rhino",2,-25.18,31.54,352876.95,7214323.23
"383037",383037,1993,43,"wr","White rhino",2,-25.01,31.35,333497.56,7232931.19
"383070",383070,1993,43,"wr","White rhino",3,-25.04,31.38,336565.16,7229645
"383091",383091,1993,43,"wr","White rhino",4,-25.03,31.4,338570.12,7230776.58
"383092",383092,1993,43,"wr","White rhino",2,-25.03,31.4,338570.12,7230776.58
"383116",383116,1993,43,"wr","White rhino",2,-25.05,31.4,338596.31,7228561.43
"383121",383121,1993,43,"wr","White rhino",2,-25.04,31.41,339592.23,7229680.9
"383136",383136,1993,43,"wr","White rhino",1,-25,31.42,340549.57,7234122.96
"383146",383146,1993,43,"wr","White rhino",4,-25.04,31.42,340601.25,7229692.71
"383149",383149,1993,43,"wr","White rhino",3,-25.05,31.42,340614.19,7228585.15
"383182",383182,1993,43,"wr","White rhino",4,-25.03,31.46,344624.7,7230846.79
"383266",383266,1993,43,"wr","White rhino",1,-24.98,31.53,351628.17,7236462.92
"383281",383281,1993,43,"wr","White rhino",3,-24.97,31.56,354644.83,7237602.91
"383296",383296,1993,43,"wr","White rhino",2,-25.1,31.38,336644.79,7222999.51
"383297",383297,1993,43,"wr","White rhino",2,-25.1,31.4,338661.87,7223023.56
"383299",383299,1993,43,"wr","White rhino",2,-25.09,31.39,337640.13,7224119.15
"383300",383300,1993,43,"wr","White rhino",2,-25.08,31.4,338635.63,7225238.71
"383302",383302,1993,43,"wr","White rhino",3,-25.07,31.4,338622.52,7226346.29
"383333",383333,1993,43,"wr","White rhino",1,-25.06,31.49,347689.03,7227558.26
"383334",383334,1993,43,"wr","White rhino",1,-25.07,31.49,347701.4,7226450.72
"383373",383373,1993,43,"wr","White rhino",3,-25.09,31.52,350751.89,7224269.11
"383378",383378,1993,43,"wr","White rhino",1,-25.07,31.53,351736.38,7226495.19
"383385",383385,1993,43,"wr","White rhino",3,-25.05,31.55,353730.1,7228732.03
"383403",383403,1993,43,"wr","White rhino",1,-25.04,31.56,354727.21,7229850.32
"383421",383421,1993,43,"wr","White rhino",2,-25.03,31.58,356733.54,7230979.15
"383428",383428,1993,44,"wr","White rhino",2,-25.38,31.57,356136.58,7192204.71
"383456",383456,1993,44,"wr","White rhino",1,-25.38,31.6,359155.08,7192236.67
"383467",383467,1993,44,"wr","White rhino",1,-25.4,31.62,361190.28,7190042.5
"383477",383477,1993,44,"wr","White rhino",2,-25.43,31.62,361224.63,7186719.84
"383497",383497,1993,44,"wr","White rhino",3,-25.42,31.64,363224.82,7187848.05
"383505",383505,1993,44,"wr","White rhino",4,-25.39,31.66,365203.11,7191191.02
"383558",383558,1993,44,"wr","White rhino",2,-25.37,31.7,369205.8,7193445.82
"383566",383566,1993,44,"wr","White rhino",1,-25.32,31.7,369152.01,7198983.42
"383574",383574,1993,44,"wr","White rhino",2,-25.38,31.69,368210.43,7192328.48
"383581",383581,1993,44,"wr","White rhino",1,-25.32,31.69,368145.37,7198973.61
"383611",383611,1993,44,"wr","White rhino",3,-25.34,31.65,364141.14,7196718.57
"383632",383632,1993,44,"wr","White rhino",2,-25.32,31.65,364118.81,7198933.63
"383664",383664,1993,44,"wr","White rhino",3,-25.38,31.62,361167.4,7192257.6
"383669",383669,1993,44,"wr","White rhino",3,-25.37,31.61,360149.72,7193354.72
"383673",383673,1993,44,"wr","White rhino",3,-25.34,31.62,361121.69,7196687.78
"383679",383679,1993,44,"wr","White rhino",2,-25.32,31.63,362105.51,7198913.19
"383698",383698,1993,44,"wr","White rhino",2,-25.31,31.63,362094.18,7200020.72
"383708",383708,1993,44,"wr","White rhino",3,-25.35,31.61,360126.7,7195569.82
"383712",383712,1993,44,"wr","White rhino",2,-25.34,31.6,359108.7,7196666.87
"383726",383726,1993,44,"wr","White rhino",1,-25.31,31.61,360080.71,7199999.99
"383727",383727,1993,44,"wr","White rhino",1,-25.31,31.61,360080.71,7199999.99
"383733",383733,1993,44,"wr","White rhino",1,-25.34,31.6,359108.7,7196666.87
"383734",383734,1993,44,"wr","White rhino",1,-25.34,31.6,359108.7,7196666.87
"383735",383735,1993,44,"wr","White rhino",2,-25.35,31.6,359120.29,7195559.32
"383742",383742,1993,44,"wr","White rhino",3,-25.35,31.58,357107.46,7195538.11
"383744",383744,1993,44,"wr","White rhino",1,-25.32,31.6,359085.54,7198881.96
"383746",383746,1993,44,"wr","White rhino",2,-25.3,31.61,360069.22,7201107.53
"383749",383749,1993,44,"wr","White rhino",2,-25.18,31.62,360939.52,7214408.26
"383752",383752,1993,44,"wr","White rhino",1,-25.19,31.62,360950.87,7213300.74
"383756",383756,1993,44,"wr","White rhino",1,-25.19,31.63,361958.6,7213311.04
"383757",383757,1993,44,"wr","White rhino",1,-25.19,31.63,361958.6,7213311.04
"383760",383760,1993,44,"wr","White rhino",7,-25.19,31.67,365989.48,7213351.47
"383764",383764,1993,44,"wr","White rhino",1,-25.18,31.67,365978.54,7214458.97
"383769",383769,1993,44,"wr","White rhino",2,-25.17,31.69,367983.35,7215586.23
"383774",383774,1993,44,"wr","White rhino",3,-25.17,31.71,369999.09,7215605.69
"383776",383776,1993,44,"wr","White rhino",4,-25.17,31.71,369999.09,7215605.69
"383777",383777,1993,44,"wr","White rhino",4,-25.17,31.72,371006.96,7215615.3
"383798",383798,1993,44,"wr","White rhino",2,-25.19,31.68,366997.19,7213361.39
"383801",383801,1993,44,"wr","White rhino",2,-25.19,31.68,366997.19,7213361.39
"383802",383802,1993,44,"wr","White rhino",2,-25.19,31.67,365989.48,7213351.47
"383804",383804,1993,44,"wr","White rhino",2,-25.2,31.66,364992.79,7212233.96
"383844",383844,1993,44,"wr","White rhino",3,-25.19,31.76,375058.8,7213438.05
"383884",383884,1993,44,"wr","White rhino",1,-25.21,31.68,367018.92,7211146.38
"383905",383905,1993,44,"wr","White rhino",3,-25.23,31.7,369055.43,7208951
"383913",383913,1993,44,"wr","White rhino",4,-25.23,31.72,371070.18,7208970.34
"383914",383914,1993,44,"wr","White rhino",2,-25.25,31.71,370084.07,7206745.71
"383922",383922,1993,44,"wr","White rhino",1,-25.23,31.75,374092.28,7208998.79
"383952",383952,1993,44,"wr","White rhino",1,-25.27,31.8,379168.65,7204614.78
"383962",383962,1993,44,"wr","White rhino",2,-25.28,31.8,379178.56,7203507.3
"384009",384009,1993,44,"wr","White rhino",4,-25.3,31.83,382218.69,7201319.03
"384016",384016,1993,44,"wr","White rhino",4,-25.31,31.84,383235.04,7200220.3
"384045",384045,1993,44,"wr","White rhino",2,-25.31,31.85,384241.72,7200228.98
"384055",384055,1993,44,"wr","White rhino",1,-25.32,31.85,384251.23,7199121.51
"384105",384105,1993,44,"wr","White rhino",1,-25.35,31.86,385286.12,7195807.68
"384106",384106,1993,44,"wr","White rhino",1,-25.35,31.87,386292.46,7195816.22
"384135",384135,1993,44,"wr","White rhino",2,-25.21,31.63,361981.16,7211096
"384142",384142,1993,44,"wr","White rhino",7,-25.22,31.62,360984.96,7209978.17
"384156",384156,1993,44,"wr","White rhino",2,-25.23,31.62,360996.33,7208870.65
"384166",384166,1993,44,"wr","White rhino",2,-25.23,31.63,362003.73,7208880.95
"384170",384170,1993,44,"wr","White rhino",4,-25.22,31.64,362999.92,7209998.71
"384179",384179,1993,44,"wr","White rhino",1,-25.22,31.65,364007.39,7210008.86
"384181",384181,1993,44,"wr","White rhino",2,-25.22,31.66,365014.86,7210018.94
"384185",384185,1993,44,"wr","White rhino",1,-25.22,31.66,365014.86,7210018.94
"384189",384189,1993,44,"wr","White rhino",4,-25.23,31.65,364018.51,7208901.34
"384194",384194,1993,44,"wr","White rhino",2,-25.24,31.63,362015.02,7207773.43
"384196",384196,1993,44,"wr","White rhino",1,-25.24,31.62,361007.71,7207763.12
"384218",384218,1993,44,"wr","White rhino",2,-25.25,31.65,364040.77,7206686.31
"384228",384228,1993,44,"wr","White rhino",2,-25.24,31.68,367051.55,7207823.86
"384234",384234,1993,44,"wr","White rhino",2,-25.25,31.65,364040.77,7206686.31
"384244",384244,1993,44,"wr","White rhino",2,-25.27,31.63,362048.92,7204450.85
"384262",384262,1993,44,"wr","White rhino",1,-25.26,31.66,365059.05,7205588.88
"384274",384274,1993,44,"wr","White rhino",2,-25.28,31.63,362060.23,7203343.32
"384294",384294,1993,44,"wr","White rhino",2,-25.29,31.68,367106.01,7202286.29
"384353",384353,1993,45,"wr","White rhino",5,-25.11,31.88,387077.32,7222403.62
"384362",384362,1993,45,"wr","White rhino",2,-25.12,31.88,387086.51,7221296.18
"384364",384364,1993,45,"wr","White rhino",1,-25.12,31.88,387086.51,7221296.18
"384383",384383,1993,45,"wr","White rhino",1,-25.12,31.88,387086.51,7221296.18
"384385",384385,1993,45,"wr","White rhino",2,-25.13,31.88,387095.7,7220188.74
"384386",384386,1993,45,"wr","White rhino",2,-25.13,31.89,388103.85,7220197.07
"384392",384392,1993,45,"wr","White rhino",1,-25.14,31.88,387104.89,7219081.3
"384394",384394,1993,45,"wr","White rhino",1,-25.13,31.88,387095.7,7220188.74
"384417",384417,1993,45,"wr","White rhino",1,-25.14,31.87,386096.82,7219072.89
"384418",384418,1993,45,"wr","White rhino",1,-25.14,31.88,387104.89,7219081.3
"384422",384422,1993,45,"wr","White rhino",3,-25.15,31.88,387114.09,7217973.85
"384449",384449,1993,45,"wr","White rhino",2,-25.16,31.87,386115.39,7216857.99
"384450",384450,1993,45,"wr","White rhino",2,-25.16,31.87,386115.39,7216857.99
"384452",384452,1993,45,"wr","White rhino",2,-25.16,31.86,385107.47,7216849.5
"384508",384508,1993,45,"wr","White rhino",2,-25.16,31.82,381075.8,7216814.8
"384548",384548,1993,45,"wr","White rhino",2,-25.16,31.81,380067.87,7216805.93
"384549",384549,1993,45,"wr","White rhino",3,-25.16,31.81,380067.87,7216805.93
"384553",384553,1993,45,"wr","White rhino",2,-25.17,31.82,381085.5,7215707.33
"384568",384568,1993,45,"wr","White rhino",1,-25.19,31.87,386143.26,7213535.64
"384569",384569,1993,45,"wr","White rhino",3,-25.19,31.87,386143.26,7213535.64
"384570",384570,1993,45,"wr","White rhino",3,-25.19,31.87,386143.26,7213535.64
"384606",384606,1993,45,"wr","White rhino",1,-25.19,31.83,382112.58,7213501.2
"384616",384616,1993,45,"wr","White rhino",2,-25.21,31.86,385154.36,7211312.23
"384633",384633,1993,45,"wr","White rhino",4,-25.17,31.78,377054.11,7215671.42
"384634",384634,1993,45,"wr","White rhino",2,-25.18,31.78,377064.14,7214563.95
"384654",384654,1993,45,"wr","White rhino",2,-25.2,31.81,380107.02,7212376.07
"384657",384657,1993,45,"wr","White rhino",2,-25.19,31.8,379089.55,7213474.59
"384662",384662,1993,45,"wr","White rhino",2,-25.19,31.78,377074.18,7213456.47
"384664",384664,1993,45,"wr","White rhino",2,-25.18,31.78,377064.14,7214563.95
"384667",384667,1993,45,"wr","White rhino",2,-25.18,31.78,377064.14,7214563.95
"384669",384669,1993,45,"wr","White rhino",3,-25.18,31.78,377064.14,7214563.95
"384672",384672,1993,45,"wr","White rhino",3,-25.2,31.77,376076.61,7212339.82
"384677",384677,1993,45,"wr","White rhino",1,-25.21,31.8,379109.3,7211259.65
"384683",384683,1993,45,"wr","White rhino",3,-25.23,31.83,382151.12,7209071.34
"384691",384691,1993,45,"wr","White rhino",2,-25.23,31.83,382151.12,7209071.34
"384700",384700,1993,45,"wr","White rhino",2,-25.21,31.79,378101.78,7211250.62
"384703",384703,1993,45,"wr","White rhino",2,-25.21,31.79,378101.78,7211250.62
"384704",384704,1993,45,"wr","White rhino",2,-25.21,31.78,377094.26,7211241.52
"384721",384721,1993,45,"wr","White rhino",4,-25.24,31.82,381153.5,7207955.06
"384733",384733,1993,45,"wr","White rhino",2,-25.23,31.78,377114.36,7209026.56
"384740",384740,1993,45,"wr","White rhino",1,-25.24,31.78,377124.42,7207919.08
"384742",384742,1993,45,"wr","White rhino",1,-25.24,31.79,378131.69,7207928.19
"384754",384754,1993,45,"wr","White rhino",2,-25.33,31.88,387280.27,7198039.62
"384760",384760,1993,45,"wr","White rhino",1,-25.33,31.88,387280.27,7198039.62
"384765",384765,1993,45,"wr","White rhino",3,-25.32,31.89,388277.6,7199155.47
"384767",384767,1993,45,"wr","White rhino",1,-25.32,31.88,387271.01,7199147.09
"384794",384794,1993,45,"wr","White rhino",3,-25.27,31.86,385210.75,7204667.46
"384801",384801,1993,45,"wr","White rhino",2,-25.26,31.85,384194.25,7205766.34
"384803",384803,1993,45,"wr","White rhino",1,-25.26,31.88,387215.52,7205791.88
"384808",384808,1993,45,"wr","White rhino",1,-25.26,31.92,391243.84,7205824.89
"384813",384813,1993,45,"wr","White rhino",1,-25.26,31.93,392250.92,7205832.95
"384814",384814,1993,45,"wr","White rhino",1,-25.25,31.93,392242.1,7206940.4
"384815",384815,1993,45,"wr","White rhino",1,-25.25,31.92,391234.94,7206932.34
"384818",384818,1993,45,"wr","White rhino",2,-25.25,31.91,390227.78,7206924.2
"384820",384820,1993,45,"wr","White rhino",3,-25.25,31.9,389220.61,7206915.99
"384833",384833,1993,45,"wr","White rhino",2,-25.25,31.85,384184.76,7206873.8
"384844",384844,1993,45,"wr","White rhino",4,-25.24,31.9,389211.54,7208023.44
"384845",384845,1993,45,"wr","White rhino",3,-25.24,31.93,392233.28,7208047.84
"384848",384848,1993,45,"wr","White rhino",2,-25.23,31.89,388195.15,7209122.61
"384850",384850,1993,45,"wr","White rhino",2,-25.23,31.91,390209.81,7209139.1
"384851",384851,1993,45,"wr","White rhino",5,-25.23,31.92,391217.13,7209147.23
"384852",384852,1993,45,"wr","White rhino",3,-25.23,31.93,392224.46,7209155.29
"384853",384853,1993,45,"wr","White rhino",13,-25.23,31.93,392224.46,7209155.29
"384855",384855,1993,45,"wr","White rhino",3,-25.23,31.94,393231.78,7209163.27
"384856",384856,1993,45,"wr","White rhino",5,-25.23,31.94,393231.78,7209163.27
"384868",384868,1993,45,"wr","White rhino",4,-25.22,31.91,390200.83,7210246.55
"384870",384870,1993,45,"wr","White rhino",1,-25.22,31.91,390200.83,7210246.55
"384871",384871,1993,45,"wr","White rhino",2,-25.22,31.9,389193.42,7210238.34
"384888",384888,1993,45,"wr","White rhino",2,-25.21,31.9,389184.36,7211345.79
"384889",384889,1993,45,"wr","White rhino",1,-25.21,31.91,390191.85,7211353.99
"384894",384894,1993,45,"wr","White rhino",3,-25.21,31.92,391199.34,7211362.12
"384906",384906,1993,45,"wr","White rhino",3,-25.21,31.9,389184.36,7211345.79
"384912",384912,1993,45,"wr","White rhino",1,-25.21,31.88,387169.36,7211329.16
"384916",384916,1993,45,"wr","White rhino",7,-25.2,31.93,392198.02,7212477.61
"384925",384925,1993,45,"wr","White rhino",1,-25.2,31.91,390182.88,7212461.44
"384927",384927,1993,45,"wr","White rhino",3,-25.2,31.9,389175.3,7212453.24
"384938",384938,1993,45,"wr","White rhino",1,-25.19,31.93,392189.22,7213585.05
"384953",384953,1993,45,"wr","White rhino",1,-25.17,31.92,391163.8,7215791.88
"384956",384956,1993,45,"wr","White rhino",3,-25.16,31.91,390147.02,7216891.2
"384961",384961,1993,45,"wr","White rhino",3,-25.16,31.91,390147.02,7216891.2
"384975",384975,1993,45,"wr","White rhino",6,-25.14,31.93,392145.24,7219122.22
"384992",384992,1993,56,"wr","White rhino",3,-25.36,31.56,355106.55,7194409.04
"385002",385002,1993,56,"wr","White rhino",1,-25.33,31.55,354064.2,7197720.85
"385010",385010,1993,56,"wr","White rhino",6,-25.35,31.53,352075.34,7195483.76
"385019",385019,1993,56,"wr","White rhino",1,-25.32,31.53,352038.86,7198806.47
"385020",385020,1993,56,"wr","White rhino",4,-25.31,31.53,352026.7,7199914.03
"385027",385027,1993,56,"wr","White rhino",2,-25.32,31.52,351032.18,7198795.38
"385040",385040,1993,56,"wr","White rhino",2,-25.31,31.51,350013.17,7199891.79
"385044",385044,1993,56,"wr","White rhino",1,-25.31,31.5,349006.4,7199880.56
"385045",385045,1993,56,"wr","White rhino",3,-25.32,31.5,349018.81,7198772.98
"385050",385050,1993,56,"wr","White rhino",1,-25.35,31.49,348049.6,7195438.93
"385052",385052,1993,56,"wr","White rhino",1,-25.33,31.49,348024.6,7197654.09
"385053",385053,1993,56,"wr","White rhino",4,-25.33,31.49,348024.6,7197654.09
"385054",385054,1993,56,"wr","White rhino",2,-25.32,31.49,348012.12,7198761.67
"385057",385057,1993,56,"wr","White rhino",1,-25.31,31.49,347999.63,7199869.25
"385059",385059,1993,56,"wr","White rhino",2,-25.31,31.49,347999.63,7199869.25
"385064",385064,1993,56,"wr","White rhino",2,-25.29,31.48,346967.74,7202073.03
"385066",385066,1993,56,"wr","White rhino",2,-25.31,31.48,346992.86,7199857.87
"385067",385067,1993,56,"wr","White rhino",2,-25.32,31.48,347005.42,7198750.29
"385069",385069,1993,56,"wr","White rhino",3,-25.32,31.48,347005.42,7198750.29
"385071",385071,1993,56,"wr","White rhino",2,-25.33,31.48,347017.99,7197642.7
"385073",385073,1993,56,"wr","White rhino",2,-25.33,31.48,347017.99,7197642.7
"385075",385075,1993,56,"wr","White rhino",1,-25.33,31.48,347017.99,7197642.7
"385076",385076,1993,56,"wr","White rhino",3,-25.34,31.48,347030.57,7196535.12
"385078",385078,1993,56,"wr","White rhino",5,-25.34,31.48,347030.57,7196535.12
"385086",385086,1993,56,"wr","White rhino",1,-25.33,31.47,346011.38,7197631.24
"385090",385090,1993,56,"wr","White rhino",2,-25.32,31.47,345998.73,7198738.82
"385092",385092,1993,56,"wr","White rhino",3,-25.31,31.47,345986.08,7199846.41
"385096",385096,1993,56,"wr","White rhino",2,-25.3,31.46,344966.57,7200942.46
"385099",385099,1993,56,"wr","White rhino",4,-25.31,31.46,344979.3,7199834.88
"385101",385101,1993,56,"wr","White rhino",2,-25.32,31.46,344992.03,7198727.29
"385105",385105,1993,56,"wr","White rhino",2,-25.34,31.46,345017.51,7196512.11
"385107",385107,1993,56,"wr","White rhino",2,-25.32,31.45,343985.33,7198715.67
"385123",385123,1993,56,"wr","White rhino",2,-25.35,31.41,339997.96,7195345.65
"385124",385124,1993,56,"wr","White rhino",2,-25.35,31.41,339997.96,7195345.65
"385126",385126,1993,56,"wr","White rhino",3,-25.37,31.39,338011.69,7193106.34
"385127",385127,1993,56,"wr","White rhino",1,-25.38,31.4,339031.25,7192010.8
"385128",385128,1993,56,"wr","White rhino",2,-25.38,31.4,339031.25,7192010.8
"385131",385131,1993,56,"wr","White rhino",2,-25.36,31.41,340011.12,7194238.04
"385136",385136,1993,56,"wr","White rhino",4,-25.33,31.43,341984.9,7197584.62
"385137",385137,1993,56,"wr","White rhino",2,-25.34,31.43,341997.89,7196477.02
"385140",385140,1993,56,"wr","White rhino",2,-25.35,31.42,341004.42,7195357.57
"385141",385141,1993,56,"wr","White rhino",2,-25.36,31.42,341017.51,7194249.96
"385144",385144,1993,56,"wr","White rhino",3,-25.36,31.43,342023.89,7194261.82
"385145",385145,1993,56,"wr","White rhino",5,-25.36,31.43,342023.89,7194261.82
"385153",385153,1993,56,"wr","White rhino",2,-25.34,31.45,344010.97,7196500.49
"385154",385154,1993,56,"wr","White rhino",1,-25.34,31.44,343004.43,7196488.79
"385156",385156,1993,56,"wr","White rhino",2,-25.35,31.45,344023.8,7195392.89
"385157",385157,1993,56,"wr","White rhino",3,-25.35,31.45,344023.8,7195392.89
"385160",385160,1993,56,"wr","White rhino",2,-25.36,31.44,343030.26,7194273.59
"385161",385161,1993,56,"wr","White rhino",1,-25.38,31.42,341043.69,7192034.75
"385162",385162,1993,56,"wr","White rhino",2,-25.38,31.41,340037.47,7192022.81
"385163",385163,1993,56,"wr","White rhino",2,-25.39,31.41,340050.65,7190915.2
"385169",385169,1993,56,"wr","White rhino",2,-25.38,31.43,342049.9,7192046.6
"385172",385172,1993,56,"wr","White rhino",3,-25.37,31.44,343043.18,7193165.99
"385180",385180,1993,56,"wr","White rhino",3,-25.37,31.47,346062.05,7193200.88
"385187",385187,1993,56,"wr","White rhino",2,-25.38,31.5,349093.31,7192127.5
"385188",385188,1993,56,"wr","White rhino",7,-25.38,31.5,349093.31,7192127.5
"385203",385203,1993,56,"wr","White rhino",3,-25.38,31.53,352111.87,7192161.04
"385210",385210,1993,56,"wr","White rhino",4,-25.4,31.54,353142.26,7189956.93
"385248",385248,1993,56,"wr","White rhino",2,-25.39,31.43,342062.92,7190939
"385250",385250,1993,56,"wr","White rhino",2,-25.38,31.43,342049.9,7192046.6
"385253",385253,1993,56,"wr","White rhino",1,-25.41,31.42,341082.99,7188711.91
"385267",385267,1993,56,"wr","White rhino",5,-25.42,31.45,344113.74,7187639.68
"385274",385274,1993,56,"wr","White rhino",1,-25.41,31.42,341082.99,7188711.91
"385275",385275,1993,56,"wr","White rhino",2,-25.41,31.42,341082.99,7188711.91
"385281",385281,1993,56,"wr","White rhino",2,-25.43,31.48,347143.97,7186566.79
"385286",385286,1993,56,"wr","White rhino",1,-25.43,31.5,349155.53,7186589.56
"385291",385291,1993,56,"wr","White rhino",1,-25.43,31.47,346138.18,7186555.3
"385312",385312,1993,56,"wr","White rhino",1,-25.44,31.49,348162.29,7185470.62
"385364",385364,1993,56,"wr","White rhino",1,-25.47,31.45,344178.13,7182101.63
"385368",385368,1993,56,"wr","White rhino",2,-25.48,31.46,345196.39,7181005.68
"385375",385375,1993,56,"wr","White rhino",1,-25.49,31.45,344203.91,7179886.4
"385387",385387,1993,56,"wr","White rhino",3,-25.49,31.43,342193.32,7179862.84
"385397",385397,1993,56,"wr","White rhino",1,-25.47,31.37,336134.36,7182005.61
"385442",385442,1993,56,"wr","White rhino",2,-25.43,31.31,330045.23,7186361.06
"385485",385485,1993,57,"wr","White rhino",2,-25.11,31.8,379010.68,7222334.3
"385494",385494,1993,57,"wr","White rhino",2,-25.12,31.78,377004,7221208.76
"385500",385500,1993,57,"wr","White rhino",2,-25.14,31.8,379040.23,7219011.92
"385503",385503,1993,57,"wr","White rhino",2,-25.12,31.77,375995.74,7221199.61
"385507",385507,1993,57,"wr","White rhino",2,-25.1,31.76,374967.13,7223405.32
"385556",385556,1993,57,"wr","White rhino",2,-25.18,31.76,375048.6,7214545.53
"385562",385562,1993,57,"wr","White rhino",3,-25.16,31.73,372004.38,7216732.33
"385592",385592,1993,57,"wr","White rhino",2,-25.18,31.74,373033.05,7214526.82
"385597",385597,1993,57,"wr","White rhino",1,-25.16,31.71,369988.49,7216713.18
"385615",385615,1993,57,"wr","White rhino",5,-25.17,31.66,364959.72,7215556.49
"385660",385660,1993,58,"wr","White rhino",2,-25.06,31.77,375935.24,7227844.39
"385664",385664,1993,58,"wr","White rhino",1,-25.03,31.74,372878.03,7231138.93
"385673",385673,1993,58,"wr","White rhino",3,-25.07,31.74,372919.28,7226709.07
"385687",385687,1993,58,"wr","White rhino",2,-25.04,31.71,369861.54,7230002.96
"385708",385708,1993,58,"wr","White rhino",3,-25.03,31.7,368841.97,7231100.78
"385727",385727,1993,58,"wr","White rhino",2,-25.05,31.69,367854.38,7228876.09
"385738",385738,1993,58,"wr","White rhino",2,-25.07,31.67,365858.44,7226641.43
"385746",385746,1993,58,"wr","White rhino",2,-25.07,31.66,364849.74,7226631.47
"385755",385755,1993,58,"wr","White rhino",1,-25.08,31.66,364860.72,7225523.98
"385756",385756,1993,58,"wr","White rhino",2,-25.07,31.65,363841.04,7226621.44
"385792",385792,1993,58,"wr","White rhino",9,-25.16,31.65,363940.74,7216653.93
"385800",385800,1993,58,"wr","White rhino",6,-25.17,31.64,362943.95,7215536.28
"386009",386009,1993,46,"wr","White rhino",1,-25.27,32.01,400315.63,7204787.33
"386213",386213,1993,46,"wr","White rhino",1,-25.3,31.98,397319.95,7201442.38
"386217",386217,1993,46,"wr","White rhino",1,-25.28,31.98,397303.11,7203657.27
"386232",386232,1993,46,"wr","White rhino",4,-25.33,31.96,395332.27,7198104.57
"386252",386252,1993,46,"wr","White rhino",2,-25.32,31.95,394317.09,7199204.16
"386262",386262,1993,46,"wr","White rhino",1,-25.33,31.93,392312.79,7198080.78
"386279",386279,1993,46,"wr","White rhino",1,-25.27,31.98,397294.69,7204764.71
"386283",386283,1993,46,"wr","White rhino",2,-25.25,31.98,397277.86,7206979.58
"386299",386299,1993,46,"wr","White rhino",1,-25.2,31.97,396228.29,7212509.06
"386308",386308,1993,46,"wr","White rhino",3,-25.25,31.97,396270.71,7206971.89
"386310",386310,1993,46,"wr","White rhino",5,-25.25,31.97,396270.71,7206971.89
"386314",386314,1993,46,"wr","White rhino",3,-25.27,31.97,396287.71,7204757.01
"386318",386318,1993,46,"wr","White rhino",1,-25.28,31.96,395289.3,7203641.81
"386321",386321,1993,46,"wr","White rhino",2,-25.26,31.96,395272.14,7205856.69
"386327",386327,1993,46,"wr","White rhino",3,-25.24,31.96,395254.99,7208071.57
"386335",386335,1993,46,"wr","White rhino",1,-25.2,31.97,396228.29,7212509.06
"386336",386336,1993,46,"wr","White rhino",3,-25.19,31.97,396219.81,7213616.49
"386353",386353,1993,46,"wr","White rhino",9,-25.26,31.95,394265.07,7205848.85
"386357",386357,1993,46,"wr","White rhino",1,-25.28,31.95,394282.4,7203633.96
"386374",386374,1993,46,"wr","White rhino",2,-25.27,31.94,393266.74,7204733.49
"386375",386375,1993,46,"wr","White rhino",1,-25.27,31.93,392259.75,7204725.5
"386459",386459,1993,61,"wr","White rhino",1,-22.62,31.06,300606.66,7497246.44
"386535",386535,1993,62,"wr","White rhino",4,-22.47,31.18,312740.94,7514012.15
