"","ID","Year","Cenb","Sp","Description","No","Lat","Long","X.coord","Y.coord"
"146318",146318,1985,1,"e","Eland",3,-23.95,31.62,359575.37,7350622.56
"146791",146791,1985,10,"e","Eland",10,-23.42,31.05,300758.15,7408637.15
"146797",146797,1985,10,"e","Eland",3,-23.43,31.06,301795.09,7407543.45
"146832",146832,1985,10,"e","Eland",10,-23.41,31.05,300743.17,7409744.65
"146847",146847,1985,10,"e","Eland",4,-23.34,31.05,300638.45,7417497.09
"146937",146937,1985,10,"e","Eland",30,-23.39,31.09,304802.21,7412014.34
"146972",146972,1985,10,"e","Eland",4,-23.37,31.11,306817.67,7414256.2
"146982",146982,1985,10,"e","Eland",3,-23.32,31.08,303676.94,7419753.11
"147055",147055,1985,10,"e","Eland",1,-23.4,31.14,309927.63,7410973.66
"147168",147168,1985,11,"e","Eland",1,-23.39,31.23,319113.16,7412196.85
"147211",147211,1985,11,"e","Eland",1,-23.32,31.22,317995.48,7419936.19
"147216",147216,1985,11,"e","Eland",1,-23.32,31.24,320040.92,7419961.21
"147324",147324,1985,11,"e","Eland",4,-23.36,31.25,321117.25,7415544.01
"147332",147332,1985,11,"e","Eland",2,-23.36,31.28,324184.45,7415580.85
"147336",147336,1985,11,"e","Eland",1,-23.29,31.25,321023.48,7423295.81
"147341",147341,1985,11,"e","Eland",1,-23.32,31.25,321063.63,7419973.62
"147464",147464,1985,11,"e","Eland",2,-23.36,31.3,326229.24,7415605.05
"147548",147548,1985,12,"e","Eland",1,-23.25,30.99,294364.19,7427380.64
"147619",147619,1985,12,"e","Eland",4,-23.26,31.02,297449.35,7426315.37
"147627",147627,1985,12,"e","Eland",5,-23.28,31.01,296456.49,7424086.37
"147657",147657,1985,12,"e","Eland",15,-23.23,31.02,297404.02,7429637.84
"147658",147658,1985,12,"e","Eland",1,-23.24,31.03,298442.54,7428544.27
"147684",147684,1985,12,"e","Eland",4,-23.26,31.07,302565.63,7426384.33
"147707",147707,1985,12,"e","Eland",2,-23.21,31.07,302492.01,7431921.66
"147711",147711,1985,12,"e","Eland",1,-23.23,31.04,299451,7429665.61
"147732",147732,1985,12,"e","Eland",4,-23.25,31.09,304597.53,7427518.88
"147738",147738,1985,12,"e","Eland",21,-23.26,31.09,304612.11,7426411.42
"147778",147778,1985,12,"e","Eland",1,-23.21,31.1,305562.87,7431962.13
"147797",147797,1985,12,"e","Eland",1,-23.23,31.1,305591.84,7429747.23
"147806",147806,1985,12,"e","Eland",1,-23.23,31.11,306615.3,7429760.58
"147913",147913,1985,12,"e","Eland",1,-23.24,31.16,311746.57,7428718.88
"148432",148432,1985,13,"e","Eland",8,-23.68,31.61,358264.73,7380510.58
"148473",148473,1985,13,"e","Eland",1,-23.63,31.61,358210.83,7386047.14
"148812",148812,1985,14,"e","Eland",3,-23.46,31.4,336575.83,7404648.3
"148947",148947,1985,14,"e","Eland",42,-23.44,31.42,338594.68,7406885.58
"149117",149117,1985,14,"e","Eland",6,-23.57,31.51,347939.46,7392588.37
"149149",149149,1985,14,"e","Eland",1,-23.53,31.53,349935.44,7397038.76
"149167",149167,1985,14,"e","Eland",1,-23.58,31.55,352033.44,7391522.95
"149169",149169,1985,14,"e","Eland",3,-23.56,31.54,350990.26,7393727.22
"149173",149173,1985,14,"e","Eland",3,-23.56,31.54,350990.26,7393727.22
"149177",149177,1985,14,"e","Eland",2,-23.57,31.55,352022.23,7392630.27
"149178",149178,1985,14,"e","Eland",1,-23.57,31.56,353042.91,7392640.56
"149181",149181,1985,14,"e","Eland",2,-23.51,31.54,350933.91,7399263.82
"149194",149194,1985,15,"e","Eland",2,-23.33,31.32,328235.39,7418951.1
"149200",149200,1985,15,"e","Eland",3,-23.28,31.31,327148.15,7424476.05
"149213",149213,1985,15,"e","Eland",15,-23.39,31.35,331379.1,7412342.23
"149250",149250,1985,15,"e","Eland",4,-23.33,31.35,331303.21,7418986.41
"149649",149649,1985,18,"e","Eland",1,-23.26,31.41,337353.66,7426806.47
"150637",150637,1985,2,"e","Eland",3,-23.9,31.43,340176.93,7355957.49
"150650",150650,1985,2,"e","Eland",1,-24.01,31.49,346416.17,7343842.71
"150651",150651,1985,2,"e","Eland",5,-24.01,31.49,346416.17,7343842.71
"150653",150653,1985,2,"e","Eland",1,-24,31.49,346404.29,7344950.11
"150666",150666,1985,2,"e","Eland",2,-23.98,31.46,343328.02,7347131.87
"150731",150731,1985,2,"e","Eland",2,-23.9,31.48,345267.66,7356013.11
"150956",150956,1985,2,"e","Eland",3,-23.88,31.56,353390.11,7358313.09
"151470",151470,1985,21,"e","Eland",1,-24.23,31.44,341600.92,7319423.75
"152069",152069,1985,22,"e","Eland",3,-24.33,31.43,340710.19,7308337.79
"152139",152139,1985,22,"e","Eland",1,-24.27,31.44,341650.47,7314993.95
"152603",152603,1985,22,"e","Eland",2,-24.38,31.56,353959.12,7302943.47
"152690",152690,1985,22,"e","Eland",1,-24.29,31.54,351825.81,7312889.11
"157458",157458,1985,3,"e","Eland",1,-23.96,31.18,314807.65,7349007.27
"157459",157459,1985,3,"e","Eland",8,-23.97,31.19,315839.64,7347912.86
"157506",157506,1985,3,"e","Eland",4,-23.94,31.18,314779.08,7351222.29
"157568",157568,1985,3,"e","Eland",1,-23.86,31.17,313646.46,7360069.18
"157654",157654,1985,3,"e","Eland",4,-23.98,31.21,317889.07,7346831.34
"157658",157658,1985,3,"e","Eland",1,-23.99,31.22,318920.66,7345736.74
"158121",158121,1985,3,"e","Eland",1,-24.02,31.33,330152.57,7342551.41
"158160",158160,1985,3,"e","Eland",1,-23.92,31.33,330021.4,7353625.93
"162353",162353,1985,37,"e","Eland",1,-25.04,31.98,397101.93,7230235.41
"164000",164000,1985,4,"e","Eland",1,-23.83,31.21,317678.69,7363443.71
"164877",164877,1985,40,"e","Eland",7,-25.15,31.32,330662.47,7217387.51
"164913",164913,1985,40,"e","Eland",6,-25.17,31.36,334722,7215221.97
"169377",169377,1985,47,"e","Eland",51,-22.71,31.15,309983.24,7487397.95
"169386",169386,1985,47,"e","Eland",1,-22.69,31.15,309955.64,7489612.68
"169407",169407,1985,47,"e","Eland",2,-22.72,31.19,314106.2,7486341.29
"169487",169487,1985,47,"e","Eland",64,-22.78,31.22,317267.87,7479734.56
"169490",169490,1985,47,"e","Eland",3,-22.77,31.23,318281.44,7480854.22
"169505",169505,1985,47,"e","Eland",2,-22.67,31.21,316093.99,7491902.91
"169521",169521,1985,47,"e","Eland",6,-22.7,31.22,317161.45,7488593.26
"169526",169526,1985,47,"e","Eland",8,-22.7,31.24,319216.28,7488617.77
"169541",169541,1985,47,"e","Eland",1,-22.63,31.23,318096.56,7496356.82
"169551",169551,1985,47,"e","Eland",9,-22.66,31.21,316080.66,7493010.25
"169560",169560,1985,47,"e","Eland",1,-22.65,31.23,318122.91,7494142.18
"169587",169587,1985,47,"e","Eland",1,-22.72,31.27,322324.31,7486439.38
"169589",169589,1985,47,"e","Eland",2,-22.72,31.28,323351.55,7486451.33
"169594",169594,1985,47,"e","Eland",4,-22.74,31.28,323377.25,7484236.7
"169614",169614,1985,47,"e","Eland",5,-22.7,31.28,323325.88,7488665.95
"169615",169615,1985,47,"e","Eland",4,-22.69,31.28,323313.05,7489773.25
"169634",169634,1985,47,"e","Eland",3,-22.72,31.29,324378.8,7486463.21
"169644",169644,1985,47,"e","Eland",2,-22.74,31.3,325431.43,7484260.41
"169647",169647,1985,47,"e","Eland",1,-22.74,31.32,327485.6,7484283.84
"169665",169665,1985,48,"e","Eland",4,-22.9,31.23,318454.08,7466458.72
"169708",169708,1985,48,"e","Eland",2,-22.83,31.27,322466.73,7474258.84
"169748",169748,1985,48,"e","Eland",2,-22.88,31.29,324583.76,7468746.14
"169755",169755,1985,48,"e","Eland",4,-22.88,31.31,326635.84,7468769.82
"169760",169760,1985,48,"e","Eland",1,-22.88,31.32,327661.87,7468781.55
"169767",169767,1985,48,"e","Eland",5,-22.83,31.31,326572.39,7474306.4
"169773",169773,1985,48,"e","Eland",20,-22.86,31.3,325584.26,7470972.66
"169790",169790,1985,48,"e","Eland",1,-22.76,31.29,324429.91,7482033.97
"169809",169809,1985,48,"e","Eland",3,-22.88,31.33,328687.89,7468793.22
"169817",169817,1985,48,"e","Eland",2,-22.87,31.35,330727.54,7469923.64
"169885",169885,1985,48,"e","Eland",4,-22.89,31.37,332804.22,7467731.89
"169935",169935,1985,48,"e","Eland",1,-22.81,31.4,335785.92,7476623.88
"170011",170011,1985,49,"e","Eland",4,-22.97,31.27,322648.93,7458756.12
"170181",170181,1985,49,"e","Eland",1,-22.93,31.37,332853.28,7463302.69
"170183",170183,1985,49,"e","Eland",4,-22.95,31.33,328775.89,7461042.01
"170200",170200,1985,49,"e","Eland",5,-22.91,31.34,329751.37,7465482.89
"170252",170252,1985,49,"e","Eland",23,-22.97,31.42,338029.05,7458929.54
"170261",170261,1985,49,"e","Eland",1,-22.99,31.42,338052.89,7456714.96
"170279",170279,1985,49,"e","Eland",2,-22.9,31.44,339997.41,7466702.4
"170565",170565,1985,5,"e","Eland",1,-23.78,31.45,342067.89,7369268.64
"170601",170601,1985,5,"e","Eland",2,-23.86,31.47,344201.62,7360431.69
"170615",170615,1985,5,"e","Eland",5,-23.86,31.49,346238.52,7360453.55
"171236",171236,1985,51,"e","Eland",1,-22.62,31.31,326307.35,7497559.68
"171298",171298,1985,52,"e","Eland",2,-23.14,31.19,314678.83,7439831.55
"171342",171342,1985,52,"e","Eland",55,-23.05,31.18,313530.49,7449785.4
"171355",171355,1985,52,"e","Eland",1,-23.07,31.17,312533.41,7447557.81
"171533",171533,1985,52,"e","Eland",1,-23.08,31.24,319719.2,7446538.52
"171966",171966,1985,53,"e","Eland",1,-23.08,30.99,294104.26,7446208.04
"172181",172181,1985,53,"e","Eland",1,-23.1,31.05,300281.66,7444076.45
"172195",172195,1985,53,"e","Eland",1,-23.05,31.05,300207.77,7449613.72
"172200",172200,1985,53,"e","Eland",2,-23.05,31.07,302257.46,7449640.9
"172270",172270,1985,53,"e","Eland",3,-23.09,31.09,304365.03,7445238.06
"172297",172297,1985,53,"e","Eland",2,-23.07,31.09,304336.07,7447452.94
"172303",172303,1985,53,"e","Eland",1,-23.03,31.09,304278.23,7451882.67
"172362",172362,1985,53,"e","Eland",53,-23.05,31.16,311480.89,7449759.76
"172456",172456,1985,54,"e","Eland",1,-22.96,30.99,293921.87,7459497.75
"172481",172481,1985,54,"e","Eland",11,-22.93,30.99,293876.41,7462820.15
"172496",172496,1985,54,"e","Eland",1,-22.95,30.99,293906.71,7460605.22
"172585",172585,1985,54,"e","Eland",1,-22.91,31.03,297949.85,7465090.59
"172588",172588,1985,54,"e","Eland",1,-22.9,31.02,296909.03,7466184.27
"172604",172604,1985,54,"e","Eland",11,-22.96,31.07,302126.2,7459607.84
"172635",172635,1985,54,"e","Eland",2,-22.9,31.06,301012.99,7466238.92
"172644",172644,1985,54,"e","Eland",2,-23.01,31.11,306299.62,7454124.12
"172648",172648,1985,54,"e","Eland",1,-23,31.11,306285.34,7455231.54
"172776",172776,1985,55,"e","Eland",1,-22.83,31.03,297831.42,7473950.1
"172873",172873,1985,55,"e","Eland",1,-22.76,31.06,300809.23,7481742.8
"172902",172902,1985,55,"e","Eland",2,-22.87,31.08,303021.63,7469588.08
"172917",172917,1985,55,"e","Eland",2,-22.85,31.09,304019.14,7471816.23
"172932",172932,1985,55,"e","Eland",3,-22.79,31.08,302906.4,7478447.36
"172939",172939,1985,55,"e","Eland",5,-22.8,31.11,306000.94,7477379.66
"173000",173000,1985,55,"e","Eland",2,-22.86,31.13,308138.53,7470761.45
"173007",173007,1985,55,"e","Eland",6,-22.86,31.14,309164.78,7470774.43
"173059",173059,1985,55,"e","Eland",37,-22.91,31.18,313338.16,7465288.79
"173072",173072,1985,55,"e","Eland",13,-22.84,31.17,312216.03,7473027.7
"173114",173114,1985,55,"e","Eland",3,-22.82,31.17,312188.57,7475242.44
"173115",173115,1985,55,"e","Eland",1,-22.81,31.17,312174.85,7476349.81
"174092",174092,1985,6,"e","Eland",1,-23.67,31.37,333775.63,7381358.84
"174118",174118,1985,6,"e","Eland",1,-23.6,31.37,333687.19,7389110.59
"174193",174193,1985,6,"e","Eland",1,-23.69,31.43,339919.76,7379212.72
"174219",174219,1985,6,"e","Eland",9,-23.66,31.44,340903.22,7382546.03
"174548",174548,1985,62,"e","Eland",1,-22.67,31.08,302734.27,7491736.15
"174623",174623,1985,62,"e","Eland",1,-22.65,31.13,307844.85,7494016.41
"174708",174708,1985,62,"e","Eland",1,-22.33,31.15,309462.68,7529476.92
"174725",174725,1985,62,"e","Eland",3,-22.36,31.14,308473.51,7526142.27
"174733",174733,1985,62,"e","Eland",11,-22.36,31.16,310533.44,7526167.58
"174831",174831,1985,62,"e","Eland",3,-22.36,31.19,313623.31,7526205.03
"174964",174964,1985,62,"e","Eland",1,-22.38,31.26,320858.47,7524075.48
"174968",174968,1985,62,"e","Eland",2,-22.37,31.26,320845.66,7525182.76
"174970",174970,1985,62,"e","Eland",5,-22.38,31.27,321888.24,7524087.36
"174988",174988,1985,62,"e","Eland",4,-22.36,31.25,319802.94,7526278.09
"174991",174991,1985,62,"e","Eland",23,-22.37,31.26,320845.66,7525182.76
"175464",175464,1985,8,"e","Eland",1,-23.43,31.23,319167.55,7407767.18
"175465",175465,1985,8,"e","Eland",2,-23.42,31.23,319153.94,7408874.6
"175489",175489,1985,8,"e","Eland",2,-23.51,31.28,324382.83,7398969.82
"175512",175512,1985,8,"e","Eland",3,-23.49,31.27,323334.92,7401172.38
"175522",175522,1985,8,"e","Eland",2,-23.42,31.26,322219.79,7408911.94
"175541",175541,1985,8,"e","Eland",3,-23.41,31.26,322206.42,7410019.34
"175547",175547,1985,8,"e","Eland",1,-23.55,31.29,325456.87,7394552.38
"175565",175565,1985,8,"e","Eland",2,-23.54,31.32,328506.66,7395695.99
"175599",175599,1985,8,"e","Eland",1,-23.53,31.31,327472.62,7396791.4
"175720",175720,1985,8,"e","Eland",13,-23.52,31.35,331544.16,7397946.32
"175724",175724,1985,8,"e","Eland",1,-23.52,31.36,332565.29,7397958.03
"175768",175768,1985,8,"e","Eland",2,-23.51,31.37,333573.85,7399077.04
"175854",175854,1985,9,"e","Eland",6,-23.5,31.09,304963.85,7399832.03
"176066",176066,1985,9,"e","Eland",4,-23.46,31.15,311035.11,7404342.08
"176068",176068,1985,9,"e","Eland",2,-23.47,31.15,311049.36,7403234.62
"176183",176183,1985,9,"e","Eland",1,-23.5,31.19,315177.56,7399964.29
"176211",176211,1985,9,"e","Eland",1,-23.46,31.17,313078.46,7404368.21
"176249",176249,1985,9,"e","Eland",1,-23.48,31.2,316171.17,7402192
"176287",176287,1985,9,"e","Eland",1,-23.55,31.23,319331.24,7394478.03
"176288",176288,1985,9,"e","Eland",1,-23.54,31.23,319317.56,7395585.46
"176291",176291,1985,9,"e","Eland",1,-23.55,31.24,320352.18,7394490.6
"176358",176358,1985,9,"e","Eland",1,-23.48,31.21,317192.67,7402204.76
"176373",176373,1985,9,"e","Eland",1,-23.44,31.21,317137.55,7406634.49
