"","ID","Year","Cenb","Sp","Description","No","Lat","Long","X.coord","Y.coord"
"176686",176686,1986,48,"bs","Bushbuck",1,-22.88,31.4,335869.98,7468872.93
"176851",176851,1986,3,"bs","Bushbuck",1,-23.86,31.23,319757.75,7360146.87
"176919",176919,1986,3,"bs","Bushbuck",1,-23.9,31.18,314722,7355652.31
"182467",182467,1986,40,"bs","Bushbuck",1,-25.25,31.25,323749.45,7206221.23
"185979",185979,1986,24,"bs","Bushbuck",1,-22.87,31,294811.9,7469478.89
"188279",188279,1986,9,"bs","Bushbuck",2,-23.57,31.12,308129.61,7392120.08
"192084",192084,1986,53,"bs","Bushbuck",2,-25.4,31.6,359178.29,7190021.56
"192085",192085,1986,53,"bs","Bushbuck",2,-25.39,31.61,360172.76,7191139.62
"192797",192797,1986,45,"bs","Bushbuck",1,-25.17,31.88,387132.5,7215758.96
"194073",194073,1986,43,"bs","Bushbuck",1,-24.97,31.41,339501.27,7237433.83
"194415",194415,1986,43,"bs","Bushbuck",1,-24.97,31.5,348587.49,7237537.29
"194416",194416,1986,43,"bs","Bushbuck",1,-24.97,31.5,348587.49,7237537.29
"194417",194417,1986,43,"bs","Bushbuck",2,-24.97,31.51,349597.05,7237548.41
"194500",194500,1986,43,"bs","Bushbuck",2,-24.97,31.54,352625.73,7237581.33
"195916",195916,1986,44,"bs","Bushbuck",1,-25.36,31.81,380264.21,7194656.38
"197487",197487,1986,4,"bs","Bushbuck",1,-23.68,31.15,311349.8,7379977.68
"199225",199225,1986,49,"bs","Bushbuck",2,-22.9,31.39,334868.19,7466647.17
"199904",199904,1986,52,"bs","Bushbuck",1,-23.13,31.2,315689.26,7440951.63
"199989",199989,1986,52,"bs","Bushbuck",1,-23.13,31.21,316713.45,7440964.24
"200112",200112,1986,52,"bs","Bushbuck",1,-23.1,31.3,325892.2,7444396.61
"200220",200220,1986,52,"bs","Bushbuck",1,-23.11,31.33,328977.97,7443324.74
"200510",200510,1986,18,"bs","Bushbuck",1,-23.19,31.5,346481.52,7434655.59
"202416",202416,1986,54,"bs","Bushbuck",1,-22.89,31.13,308180.69,7467439.26
"202515",202515,1986,54,"bs","Bushbuck",1,-22.93,31.2,315416.97,7463099.29
