"","ID","Year","Cenb","Sp","Description","No","Lat","Long","X.coord","Y.coord"
"176401",176401,1986,48,"rb","Reedbuck",2,-22.78,31.27,322401.91,7479795.47
"176426",176426,1986,48,"rb","Reedbuck",2,-22.79,31.29,324468.3,7478712.03
"176449",176449,1986,48,"rb","Reedbuck",2,-22.82,31.25,320400.75,7475341.98
"176463",176463,1986,48,"rb","Reedbuck",2,-22.8,31.3,325507.75,7477616.56
"176465",176465,1986,48,"rb","Reedbuck",1,-22.79,31.32,327548.43,7478747.34
"176490",176490,1986,48,"rb","Reedbuck",2,-22.81,31.3,325520.49,7476509.24
"176491",176491,1986,48,"rb","Reedbuck",1,-22.81,31.3,325520.49,7476509.24
"176602",176602,1986,48,"rb","Reedbuck",1,-22.88,31.25,320479.57,7468697.94
"176637",176637,1986,48,"rb","Reedbuck",1,-22.85,31.35,330702.75,7472138.25
"176643",176643,1986,48,"rb","Reedbuck",1,-22.87,31.3,325597.03,7469865.34
"176644",176644,1986,48,"rb","Reedbuck",2,-22.88,31.31,326635.84,7468769.82
"176653",176653,1986,48,"rb","Reedbuck",1,-22.88,31.34,329713.92,7468804.82
"176689",176689,1986,48,"rb","Reedbuck",1,-22.86,31.38,333793.63,7471065.08
"176705",176705,1986,48,"rb","Reedbuck",2,-22.86,31.39,334819.79,7471076.32
"176718",176718,1986,48,"rb","Reedbuck",2,-22.86,31.4,335845.94,7471087.49
"177363",177363,1986,35,"rb","Reedbuck",1,-24.79,31.62,360500.03,7257600.43
"177408",177408,1986,35,"rb","Reedbuck",2,-24.84,31.72,370661.79,7252161.66
"177460",177460,1986,35,"rb","Reedbuck",1,-24.88,31.69,367672.67,7247703.05
"177772",177772,1986,32,"rb","Reedbuck",1,-24.48,31.52,350020.18,7291826.32
"178337",178337,1986,29,"rb","Reedbuck",1,-24.51,31.86,384505.86,7288830.78
"178339",178339,1986,29,"rb","Reedbuck",1,-24.51,31.85,383492.67,7288822.38
"178728",178728,1986,29,"rb","Reedbuck",5,-24.77,31.87,385755.83,7260047.38
"179089",179089,1986,42,"rb","Reedbuck",1,-25.24,31.5,348919.72,7207633.55
"179275",179275,1986,42,"rb","Reedbuck",1,-25.14,31.58,356861.57,7218796.46
"179657",179657,1986,37,"rb","Reedbuck",5,-24.8,32,398924.2,7256827.66
"179973",179973,1986,37,"rb","Reedbuck",1,-25.04,32.02,401137.4,7230265.22
"179996",179996,1986,37,"rb","Reedbuck",2,-25.06,32.01,400144.74,7228043.08
"180112",180112,1986,37,"rb","Reedbuck",1,-24.93,32,399029.86,7242431.78
"180138",180138,1986,37,"rb","Reedbuck",1,-24.95,32,399046.16,7240217.01
"180401",180401,1986,37,"rb","Reedbuck",1,-24.97,31.97,396034.14,7237979.58
"180402",180402,1986,37,"rb","Reedbuck",1,-24.97,31.97,396034.14,7237979.58
"180475",180475,1986,37,"rb","Reedbuck",1,-24.92,31.96,394982.3,7243508.86
"180510",180510,1986,37,"rb","Reedbuck",1,-24.92,31.92,390942.85,7243477.37
"180670",180670,1986,39,"rb","Reedbuck",2,-25.02,31.3,328464.99,7231761.19
"180671",180671,1986,39,"rb","Reedbuck",15,-25.02,31.3,328464.99,7231761.19
"180709",180709,1986,39,"rb","Reedbuck",2,-25.06,31.31,329529.54,7227343.41
"180738",180738,1986,39,"rb","Reedbuck",2,-25.07,31.25,323490.47,7226158.79
"180746",180746,1986,39,"rb","Reedbuck",2,-25.06,31.28,326502.85,7227305.25
"180823",180823,1986,39,"rb","Reedbuck",2,-25.08,31.32,330565.95,7225140.77
"180833",180833,1986,39,"rb","Reedbuck",2,-25.08,31.29,327539.77,7225102.82
"180838",180838,1986,39,"rb","Reedbuck",2,-25.09,31.28,326545.14,7223982.39
"180840",180840,1986,39,"rb","Reedbuck",2,-25.08,31.27,325522.3,7225077.14
"180856",180856,1986,39,"rb","Reedbuck",2,-25.11,31.27,325564.87,7221754.26
"180892",180892,1986,39,"rb","Reedbuck",1,-25.11,31.23,321530.87,7221701.96
"180898",180898,1986,39,"rb","Reedbuck",1,-25.12,31.21,319528.54,7220567.71
"180906",180906,1986,39,"rb","Reedbuck",1,-25.13,31.24,322568.27,7219499.86
"180911",180911,1986,39,"rb","Reedbuck",3,-25.15,31.25,323605.36,7217297.71
"181065",181065,1986,33,"rb","Reedbuck",2,-24.66,31.6,358330.86,7271976.86
"181345",181345,1986,38,"rb","Reedbuck",3,-24.95,31.79,377843.99,7240044.5
"181399",181399,1986,38,"rb","Reedbuck",3,-24.89,31.85,383845.65,7246741.65
"181441",181441,1986,38,"rb","Reedbuck",1,-24.97,31.87,385939.56,7237899.25
"181495",181495,1986,38,"rb","Reedbuck",1,-25.07,31.93,392083.81,7226874.21
"182178",182178,1986,40,"rb","Reedbuck",3,-25.14,31.32,330648.67,7218495.12
"182179",182179,1986,40,"rb","Reedbuck",2,-25.15,31.33,331670.62,7217400.04
"182188",182188,1986,40,"rb","Reedbuck",1,-25.16,31.35,333700.46,7216317.27
"182201",182201,1986,40,"rb","Reedbuck",3,-25.16,31.3,328660.14,7216254.6
"182204",182204,1986,40,"rb","Reedbuck",1,-25.16,31.26,324627.83,7216203.12
"182213",182213,1986,40,"rb","Reedbuck",3,-25.16,31.24,322611.65,7216176.93
"182214",182214,1986,40,"rb","Reedbuck",1,-25.16,31.24,322611.65,7216176.93
"182215",182215,1986,40,"rb","Reedbuck",2,-25.16,31.23,321603.56,7216163.73
"182216",182216,1986,40,"rb","Reedbuck",2,-25.16,31.23,321603.56,7216163.73
"182219",182219,1986,40,"rb","Reedbuck",1,-25.16,31.22,320595.46,7216150.45
"182221",182221,1986,40,"rb","Reedbuck",1,-25.17,31.22,320610.1,7215042.79
"182226",182226,1986,40,"rb","Reedbuck",1,-25.16,31.21,319587.36,7216137.09
"182237",182237,1986,40,"rb","Reedbuck",3,-25.17,31.24,322626.13,7215069.29
"182249",182249,1986,40,"rb","Reedbuck",1,-25.17,31.27,325650.14,7215108.47
"182257",182257,1986,40,"rb","Reedbuck",1,-25.18,31.23,321632.67,7213948.43
"182266",182266,1986,40,"rb","Reedbuck",1,-25.18,31.25,323648.53,7213974.78
"182282",182282,1986,40,"rb","Reedbuck",1,-25.17,31.3,328674.12,7215146.98
"182283",182283,1986,40,"rb","Reedbuck",1,-25.17,31.3,328674.12,7215146.98
"182284",182284,1986,40,"rb","Reedbuck",1,-25.17,31.3,328674.12,7215146.98
"182285",182285,1986,40,"rb","Reedbuck",1,-25.17,31.3,328674.12,7215146.98
"182288",182288,1986,40,"rb","Reedbuck",2,-25.17,31.31,329682.11,7215159.66
"182325",182325,1986,40,"rb","Reedbuck",1,-25.19,31.32,330717.74,7212957.04
"182330",182330,1986,40,"rb","Reedbuck",1,-25.18,31.31,329696.01,7214052.04
"182336",182336,1986,40,"rb","Reedbuck",1,-25.2,31.31,329723.83,7211836.8
"182337",182337,1986,40,"rb","Reedbuck",1,-25.21,31.32,330745.4,7210741.8
"182351",182351,1986,40,"rb","Reedbuck",1,-25.2,31.27,325692.85,7211785.56
"182355",182355,1986,40,"rb","Reedbuck",3,-25.2,31.27,325692.85,7211785.56
"182359",182359,1986,40,"rb","Reedbuck",1,-25.21,31.27,325707.1,7210677.92
"182362",182362,1986,40,"rb","Reedbuck",1,-25.2,31.26,324685.09,7211772.56
"182364",182364,1986,40,"rb","Reedbuck",2,-25.21,31.26,324699.42,7210664.92
"182365",182365,1986,40,"rb","Reedbuck",1,-25.2,31.26,324685.09,7211772.56
"182367",182367,1986,40,"rb","Reedbuck",2,-25.2,31.25,323677.34,7211759.49
"182372",182372,1986,40,"rb","Reedbuck",3,-25.2,31.25,323677.34,7211759.49
"182374",182374,1986,40,"rb","Reedbuck",1,-25.19,31.24,322655.09,7212853.99
"182375",182375,1986,40,"rb","Reedbuck",1,-25.19,31.24,322655.09,7212853.99
"182379",182379,1986,40,"rb","Reedbuck",1,-25.2,31.23,321661.81,7211733.12
"182389",182389,1986,40,"rb","Reedbuck",1,-25.2,31.22,320654.04,7211719.82
"182395",182395,1986,40,"rb","Reedbuck",2,-25.22,31.27,325721.35,7209570.28
"182398",182398,1986,40,"rb","Reedbuck",2,-25.22,31.26,324713.76,7209557.27
"182399",182399,1986,40,"rb","Reedbuck",1,-25.23,31.25,323720.59,7208436.54
"182401",182401,1986,40,"rb","Reedbuck",1,-25.23,31.26,324728.1,7208449.62
"182402",182402,1986,40,"rb","Reedbuck",1,-25.22,31.28,326728.93,7209583.2
"182403",182403,1986,40,"rb","Reedbuck",1,-25.22,31.28,326728.93,7209583.2
"182404",182404,1986,40,"rb","Reedbuck",2,-25.22,31.28,326728.93,7209583.2
"182408",182408,1986,40,"rb","Reedbuck",1,-25.22,31.29,327736.52,7209596.06
"182418",182418,1986,40,"rb","Reedbuck",1,-25.22,31.31,329751.67,7209621.54
"182421",182421,1986,40,"rb","Reedbuck",2,-25.24,31.32,330786.94,7207418.92
"182424",182424,1986,40,"rb","Reedbuck",1,-25.24,31.29,327764.71,7207380.79
"182430",182430,1986,40,"rb","Reedbuck",4,-25.24,31.27,325749.87,7207354.99
"182431",182431,1986,40,"rb","Reedbuck",1,-25.23,31.27,325735.61,7208462.63
"182432",182432,1986,40,"rb","Reedbuck",1,-25.23,31.27,325735.61,7208462.63
"182434",182434,1986,40,"rb","Reedbuck",2,-25.23,31.27,325735.61,7208462.63
"182435",182435,1986,40,"rb","Reedbuck",2,-25.24,31.27,325749.87,7207354.99
"182438",182438,1986,40,"rb","Reedbuck",1,-25.24,31.26,324742.44,7207341.98
"182439",182439,1986,40,"rb","Reedbuck",2,-25.24,31.25,323735.02,7207328.89
"182441",182441,1986,40,"rb","Reedbuck",1,-25.25,31.27,325764.14,7206247.34
"182447",182447,1986,40,"rb","Reedbuck",1,-25.25,31.33,331808.11,7206323.86
"182448",182448,1986,40,"rb","Reedbuck",3,-25.25,31.33,331808.11,7206323.86
"182453",182453,1986,40,"rb","Reedbuck",2,-25.26,31.29,327792.92,7205165.51
"182455",182455,1986,40,"rb","Reedbuck",2,-25.26,31.28,326785.67,7205152.64
"182456",182456,1986,40,"rb","Reedbuck",2,-25.26,31.27,325778.41,7205139.69
"182458",182458,1986,40,"rb","Reedbuck",2,-25.27,31.28,326799.86,7204044.99
"182459",182459,1986,40,"rb","Reedbuck",2,-25.27,31.28,326799.86,7204044.99
"182471",182471,1986,40,"rb","Reedbuck",1,-25.28,31.27,325806.97,7202924.4
"182483",182483,1986,40,"rb","Reedbuck",1,-25.29,31.3,328842.27,7201855.39
"182484",182484,1986,40,"rb","Reedbuck",2,-25.3,31.31,329863.24,7200760.48
"182489",182489,1986,40,"rb","Reedbuck",1,-25.31,31.29,327863.54,7199627.29
"182499",182499,1986,40,"rb","Reedbuck",2,-25.31,31.28,326856.7,7199614.4
"182504",182504,1986,40,"rb","Reedbuck",2,-25.33,31.27,325878.47,7197386.13
"182506",182506,1986,40,"rb","Reedbuck",1,-25.32,31.31,329891.18,7198545.2
"183809",183809,1986,31,"rb","Reedbuck",1,-24.6,31.65,363325.84,7278672.14
"188469",188469,1986,9,"rb","Reedbuck",1,-23.59,31.2,316324.04,7390010.08
"190140",190140,1986,46,"rb","Reedbuck",2,-25.28,31.93,392268.58,7203618.05
"192749",192749,1986,45,"rb","Reedbuck",1,-25.17,31.93,392171.62,7215799.93
"192927",192927,1986,45,"rb","Reedbuck",2,-25.19,31.77,376066.49,7213447.3
"193007",193007,1986,45,"rb","Reedbuck",2,-25.21,31.77,376086.74,7211232.34
"193142",193142,1986,45,"rb","Reedbuck",2,-25.25,31.91,390227.78,7206924.2
"193212",193212,1986,45,"rb","Reedbuck",5,-25.27,31.86,385210.75,7204667.46
"193342",193342,1986,41,"rb","Reedbuck",1,-25.24,31.45,343882.94,7207576.37
"193343",193343,1986,41,"rb","Reedbuck",2,-25.24,31.45,343882.94,7207576.37
"193348",193348,1986,41,"rb","Reedbuck",1,-25.24,31.45,343882.94,7207576.37
"193353",193353,1986,41,"rb","Reedbuck",2,-25.21,31.47,345859.84,7210922.18
"193381",193381,1986,41,"rb","Reedbuck",1,-25.17,31.47,345809.47,7215352.45
"193384",193384,1986,41,"rb","Reedbuck",1,-25.17,31.47,345809.47,7215352.45
"193439",193439,1986,41,"rb","Reedbuck",1,-25.22,31.45,343857.39,7209791.53
"193563",193563,1986,41,"rb","Reedbuck",1,-25.21,31.37,335783.63,7210803.8
"193723",193723,1986,41,"rb","Reedbuck",1,-25.24,31.35,333809.14,7207456.38
"193759",193759,1986,41,"rb","Reedbuck",3,-25.25,31.33,331808.11,7206323.86
"193803",193803,1986,41,"rb","Reedbuck",3,-25.28,31.32,330842.39,7202988.4
"193888",193888,1986,41,"rb","Reedbuck",1,-25.35,31.33,331946.12,7195247.55
"195444",195444,1986,44,"rb","Reedbuck",3,-25.21,31.62,360973.59,7211085.7
"195467",195467,1986,44,"rb","Reedbuck",1,-25.21,31.63,361981.16,7211096
"195539",195539,1986,44,"rb","Reedbuck",1,-25.21,31.68,367018.92,7211146.38
"196014",196014,1986,2,"rb","Reedbuck",2,-23.97,31.54,351456.58,7348325.88
"196348",196348,1986,47,"rb","Reedbuck",1,-22.63,31.18,312956.84,7496294.84
"196451",196451,1986,47,"rb","Reedbuck",3,-22.69,31.25,320230.63,7489737.24
"196452",196452,1986,47,"rb","Reedbuck",3,-22.69,31.24,319203.15,7489725.09
"196463",196463,1986,47,"rb","Reedbuck",2,-22.7,31.24,319216.28,7488617.77
"196501",196501,1986,47,"rb","Reedbuck",1,-22.74,31.2,315160.37,7484139.11
"196837",196837,1986,13,"rb","Reedbuck",5,-23.81,31.63,360442.98,7366135.18
"197279",197279,1986,56,"rb","Reedbuck",2,-25.33,31.49,348024.6,7197654.09
"198938",198938,1986,49,"rb","Reedbuck",4,-22.91,31.24,319493.23,7465363.67
"199059",199059,1986,49,"rb","Reedbuck",1,-22.96,31.36,331864.73,7459969.37
"199128",199128,1986,49,"rb","Reedbuck",1,-22.91,31.28,323596.53,7465412.2
"199135",199135,1986,49,"rb","Reedbuck",2,-22.9,31.3,325635.37,7466543.37
"199140",199140,1986,49,"rb","Reedbuck",2,-22.9,31.28,323583.59,7466519.53
"199145",199145,1986,49,"rb","Reedbuck",3,-22.9,31.28,323583.59,7466519.53
"199185",199185,1986,49,"rb","Reedbuck",1,-22.94,31.36,331840,7462183.98
"199207",199207,1986,49,"rb","Reedbuck",2,-22.91,31.39,334880.3,7465539.88
"200308",200308,1986,18,"rb","Reedbuck",1,-23.25,31.31,327109.44,7427798.15
"200309",200309,1986,18,"rb","Reedbuck",1,-23.25,31.35,331202.31,7427845.26
"200349",200349,1986,18,"rb","Reedbuck",2,-23.27,31.4,336342.76,7425687.88
"200350",200350,1986,18,"rb","Reedbuck",2,-23.27,31.4,336342.76,7425687.88
"200352",200352,1986,18,"rb","Reedbuck",1,-23.26,31.44,340422.99,7426839.8
"200361",200361,1986,18,"rb","Reedbuck",3,-23.26,31.45,341446.09,7426850.76
"200367",200367,1986,18,"rb","Reedbuck",4,-23.26,31.42,338376.77,7426817.65
"200373",200373,1986,18,"rb","Reedbuck",2,-23.25,31.44,340411.08,7427947.11
"200387",200387,1986,18,"rb","Reedbuck",1,-23.25,31.45,341434.26,7427958.08
"200952",200952,1986,50,"rb","Reedbuck",1,-23.13,31.53,349485.31,7441330.57
"201178",201178,1986,15,"rb","Reedbuck",1,-23.37,31.36,332376.07,7414568.61
"201218",201218,1986,15,"rb","Reedbuck",1,-23.41,31.45,341624.12,7410240.9
"201293",201293,1986,15,"rb","Reedbuck",2,-23.33,31.41,337438.75,7419055.13
"201372",201372,1986,15,"rb","Reedbuck",1,-23.38,31.5,346699.3,7413616.89
"201405",201405,1986,15,"rb","Reedbuck",1,-23.42,31.53,349810.92,7409219.22
"202808",202808,1986,14,"rb","Reedbuck",1,-23.42,31.37,333460.92,7409043.37
"202847",202847,1986,14,"rb","Reedbuck",1,-23.43,31.4,336538.91,7407970.37
"202907",202907,1986,14,"rb","Reedbuck",1,-23.5,31.42,338667.67,7400241.47
"202929",202929,1986,14,"rb","Reedbuck",1,-23.53,31.48,344830.39,7396985.57
"202941",202941,1986,14,"rb","Reedbuck",2,-23.54,31.43,339737.39,7395823.24
"202952",202952,1986,14,"rb","Reedbuck",1,-23.52,31.48,344818.66,7398092.91
"202960",202960,1986,14,"rb","Reedbuck",3,-23.55,31.47,343833,7394760.03
"202971",202971,1986,14,"rb","Reedbuck",1,-23.57,31.47,343856.64,7392545.34
"202972",202972,1986,14,"rb","Reedbuck",1,-23.57,31.47,343856.64,7392545.34
"202982",202982,1986,14,"rb","Reedbuck",1,-23.52,31.48,344818.66,7398092.91
"202983",202983,1986,14,"rb","Reedbuck",3,-23.52,31.48,344818.66,7398092.91
"203034",203034,1986,14,"rb","Reedbuck",1,-23.48,31.49,345793.2,7402533.01
"203035",203035,1986,14,"rb","Reedbuck",2,-23.48,31.49,345793.2,7402533.01
"203036",203036,1986,14,"rb","Reedbuck",3,-23.48,31.49,345793.2,7402533.01
"203056",203056,1986,14,"rb","Reedbuck",2,-23.51,31.5,346849.28,7399221.72
"203071",203071,1986,14,"rb","Reedbuck",2,-23.53,31.52,348914.43,7397028.27
"203114",203114,1986,14,"rb","Reedbuck",2,-23.54,31.48,344842.13,7395878.23
"203125",203125,1986,14,"rb","Reedbuck",1,-23.57,31.5,346918.76,7392577.72
