"","ID","Year","Cenb","Sp","Description","No","Lat","Long","X.coord","Y.coord"
"20",20,1977,1,"o","Elephant",16,-24.01,31.61,358623.19,7343968.44
"171",171,1977,1,"o","Elephant",14,-23.97,31.69,366719.78,7348475.8
"214",214,1977,1,"o","Elephant",11,-24.01,31.71,368795.38,7344065.26
"215",215,1977,1,"o","Elephant",11,-24.01,31.71,368795.38,7344065.26
"226",226,1977,1,"o","Elephant",46,-24.03,31.71,368815.68,7341850.6
"309",309,1977,2,"o","Elephant",12,-24.01,31.38,335226,7343718.31
"325",325,1977,2,"o","Elephant",23,-23.99,31.38,335200.52,7345933.18
"415",415,1977,2,"o","Elephant",29,-24.06,31.53,350543.1,7338348.83
"416",416,1977,2,"o","Elephant",29,-24.06,31.53,350543.1,7338348.83
"421",421,1977,2,"o","Elephant",117,-24.01,31.51,348450.7,7343864.39
"422",422,1977,2,"o","Elephant",117,-24.01,31.51,348450.7,7343864.39
"524",524,1977,3,"o","Elephant",8,-23.91,31.19,315754.43,7354557.88
"533",533,1977,3,"o","Elephant",12,-23.87,31.17,313660.78,7358961.68
"534",534,1977,3,"o","Elephant",12,-23.87,31.17,313660.78,7358961.68
"560",560,1977,3,"o","Elephant",120,-24.03,31.23,319993.88,7341319.57
"561",561,1977,3,"o","Elephant",120,-24.03,31.23,319993.88,7341319.57
"562",562,1977,3,"o","Elephant",120,-24.03,31.23,319993.88,7341319.57
"601",601,1977,3,"o","Elephant",7,-24.01,31.26,323018.08,7343572.62
"606",606,1977,3,"o","Elephant",120,-24.03,31.28,325079.84,7341382.67
"607",607,1977,3,"o","Elephant",120,-24.03,31.28,325079.84,7341382.67
"689",689,1977,3,"o","Elephant",15,-23.99,31.34,331130.64,7345885.81
"713",713,1977,3,"o","Elephant",12,-24.01,31.38,335226,7343718.31
"723",723,1977,4,"o","Elephant",26,-23.68,31.15,311349.8,7379977.68
"727",727,1977,4,"o","Elephant",11,-23.7,31.15,311378.54,7377762.7
"887",887,1977,4,"o","Elephant",9,-23.76,31.34,330831.88,7371356.83
"973",973,1977,5,"o","Elephant",27,-23.83,31.42,339072.27,7363697.98
"993",993,1977,5,"o","Elephant",14,-23.78,31.44,341048.8,7369257.49
"1031",1031,1977,5,"o","Elephant",14,-23.78,31.46,343086.98,7369279.73
"1106",1106,1977,6,"o","Elephant",42,-23.6,31.3,326543.52,7389027.46
"1115",1115,1977,6,"o","Elephant",150,-23.7,31.36,332793.87,7378024.95
"1120",1120,1977,6,"o","Elephant",14,-23.6,31.36,332666.68,7389098.93
"1127",1127,1977,6,"o","Elephant",60,-23.58,31.34,330599.95,7391290.19
"1145",1145,1977,6,"o","Elephant",150,-23.7,31.38,334833.34,7378048.27
"1182",1182,1977,6,"o","Elephant",68,-23.62,31.42,338814.18,7386953.09
"1210",1210,1977,7,"o","Elephant",26,-23.68,31.15,311349.8,7379977.68
"1223",1223,1977,7,"o","Elephant",53,-23.64,31.19,315373.48,7384459.9
"1241",1241,1977,7,"o","Elephant",56,-23.64,31.21,317414.01,7384485.62
"1262",1262,1977,7,"o","Elephant",25,-23.66,31.28,324582.42,7382358.5
"1384",1384,1977,9,"o","Elephant",201,-23.53,31.15,311134.94,7396589.84
"1416",1416,1977,9,"o","Elephant",17,-23.51,31.19,315191.52,7398856.84
"1465",1465,1977,9,"o","Elephant",14,-23.58,31.26,322434.42,7391193.24
"1472",1472,1977,8,"o","Elephant",15,-23.51,31.3,326425.31,7398994.15
"1613",1613,1977,10,"o","Elephant",13,-23.35,31.05,300653.39,7416389.61
"1692",1692,1977,10,"o","Elephant",19,-23.37,31.11,306817.67,7414256.2
"1693",1693,1977,10,"o","Elephant",19,-23.37,31.11,306817.67,7414256.2
"1696",1696,1977,10,"o","Elephant",15,-23.31,31.09,304685.1,7420874.11
"1698",1698,1977,10,"o","Elephant",5,-23.33,31.09,304714.34,7418659.17
"1700",1700,1977,10,"o","Elephant",4,-23.33,31.11,306759.74,7418686.05
"1718",1718,1977,10,"o","Elephant",9,-23.39,31.13,308891.13,7412067.91
"1732",1732,1977,10,"o","Elephant",24,-23.37,31.13,308862.44,7414282.82
"1735",1735,1977,10,"o","Elephant",65,-23.37,31.15,310907.18,7414309.16
"1767",1767,1977,10,"o","Elephant",6,-23.35,31.21,317013.87,7416601.32
"1777",1777,1977,11,"o","Elephant",6,-23.35,31.21,317013.87,7416601.32
"1779",1779,1977,11,"o","Elephant",20,-23.35,31.23,319058.86,7416626.51
"1805",1805,1977,11,"o","Elephant",7,-23.39,31.26,322179.7,7412234.15
"1813",1813,1977,11,"o","Elephant",26,-23.37,31.26,322153,7414448.96
"1820",1820,1977,11,"o","Elephant",36,-23.37,31.28,324197.64,7414473.46
"1821",1821,1977,11,"o","Elephant",36,-23.37,31.28,324197.64,7414473.46
"1851",1851,1977,11,"o","Elephant",17,-23.33,31.3,326190.17,7418927.2
"1939",1939,1977,12,"o","Elephant",80,-23.26,31.07,302565.63,7426384.33
"1972",1972,1977,12,"o","Elephant",17,-23.28,31.11,306687.45,7424223.33
"1973",1973,1977,12,"o","Elephant",17,-23.28,31.11,306687.45,7424223.33
"1987",1987,1977,12,"o","Elephant",36,-23.24,31.11,306629.72,7428653.13
"1988",1988,1977,12,"o","Elephant",36,-23.24,31.11,306629.72,7428653.13
"2287",2287,1977,13,"o","Elephant",40,-23.81,31.63,360442.98,7366135.18
"2288",2288,1977,13,"o","Elephant",40,-23.81,31.63,360442.98,7366135.18
"2369",2369,1977,13,"o","Elephant",14,-23.68,31.63,360304.35,7380530.32
"2370",2370,1977,13,"o","Elephant",14,-23.68,31.63,360304.35,7380530.32
"2371",2371,1977,13,"o","Elephant",14,-23.68,31.63,360304.35,7380530.32
"2384",2384,1977,13,"o","Elephant",84,-23.7,31.63,360325.63,7378315.7
"2385",2385,1977,13,"o","Elephant",84,-23.7,31.63,360325.63,7378315.7
"2386",2386,1977,13,"o","Elephant",84,-23.7,31.63,360325.63,7378315.7
"2390",2390,1977,13,"o","Elephant",14,-23.7,31.65,362364.94,7378335.16
"2391",2391,1977,13,"o","Elephant",14,-23.7,31.65,362364.94,7378335.16
"2408",2408,1977,14,"o","Elephant",11,-23.49,31.4,336612.8,7401326.22
"2604",2604,1977,14,"o","Elephant",34,-23.45,31.53,349844.83,7405897.29
"2738",2738,1977,15,"o","Elephant",40,-23.35,31.44,340530.37,7416873.88
"2739",2739,1977,15,"o","Elephant",40,-23.35,31.44,340530.37,7416873.88
"2799",2799,1977,15,"o","Elephant",18,-23.41,31.53,349799.63,7410326.53
"2800",2800,1977,15,"o","Elephant",18,-23.41,31.53,349799.63,7410326.53
"3124",3124,1977,18,"o","Elephant",12,-23.14,31.46,342328.46,7440149.3
"3180",3180,1977,18,"o","Elephant",8,-23.18,31.51,347493.8,7435773.39
"3181",3181,1977,18,"o","Elephant",8,-23.18,31.51,347493.8,7435773.39
"3212",3212,1977,19,"o","Elephant",18,-23.41,31.53,349799.63,7410326.53
"3213",3213,1977,19,"o","Elephant",18,-23.41,31.53,349799.63,7410326.53
"3289",3289,1977,19,"o","Elephant",8,-23.89,31.69,366637.62,7357334.4
"3295",3295,1977,19,"o","Elephant",127,-23.85,31.67,364559.69,7361744.69
"3302",3302,1977,19,"o","Elephant",17,-23.87,31.69,366617.11,7359549.04
"3306",3306,1977,19,"o","Elephant",20,-23.81,31.69,366555.71,7366192.91
"3390",3390,1977,19,"o","Elephant",8,-23.87,31.73,370690.33,7359586.15
"3391",3391,1977,19,"o","Elephant",8,-23.87,31.73,370690.33,7359586.15
"3446",3446,1977,19,"o","Elephant",6,-23.87,31.76,373745.22,7359613.23
"3504",3504,1977,19,"o","Elephant",13,-23.95,31.84,381964.16,7350824.05
"3522",3522,1977,20,"o","Elephant",29,-24.06,31.53,350543.1,7338348.83
"4629",4629,1977,41,"o","Elephant",17,-25.16,31.44,342772.83,7216425.34
"4656",4656,1977,41,"o","Elephant",60,-25.22,31.46,344864.92,7209803.11
"4689",4689,1977,41,"o","Elephant",62,-25.2,31.48,346854.93,7212041.18
"4690",4690,1977,41,"o","Elephant",62,-25.2,31.48,346854.93,7212041.18
"6068",6068,1977,49,"o","Elephant",30,-22.97,31.26,321623.56,7458743.99
"6288",6288,1977,50,"o","Elephant",12,-23.14,31.46,342328.46,7440149.3
"6375",6375,1977,50,"o","Elephant",8,-23.18,31.51,347493.8,7435773.39
"6526",6526,1977,52,"o","Elephant",120,-23.12,31.21,316699.85,7442071.63
"6527",6527,1977,52,"o","Elephant",120,-23.12,31.21,316699.85,7442071.63
"6531",6531,1977,52,"o","Elephant",19,-23.12,31.23,318748.36,7442096.63
"6532",6532,1977,52,"o","Elephant",19,-23.12,31.23,318748.36,7442096.63
"6533",6533,1977,52,"o","Elephant",19,-23.12,31.23,318748.36,7442096.63
"6539",6539,1977,52,"o","Elephant",50,-23.08,31.23,318694.65,7446526.14
"6567",6567,1977,52,"o","Elephant",11,-23.06,31.26,321741.93,7448777.79
"6609",6609,1977,52,"o","Elephant",17,-23.12,31.3,325918,7442181.9
"6625",6625,1977,52,"o","Elephant",14,-23.03,31.3,325802.07,7452148.03
"6773",6773,1977,53,"o","Elephant",14,-23.01,30.96,290922.2,7453917.89
"6774",6774,1977,53,"o","Elephant",14,-23.01,30.96,290922.2,7453917.89
"6794",6794,1977,53,"o","Elephant",12,-23.03,30.98,293003.13,7451731.33
"6795",6795,1977,53,"o","Elephant",12,-23.03,30.98,293003.13,7451731.33
"6796",6796,1977,53,"o","Elephant",12,-23.03,30.98,293003.13,7451731.33
"6820",6820,1977,53,"o","Elephant",29,-23.06,31.01,296123.4,7448451.04
"6821",6821,1977,53,"o","Elephant",29,-23.06,31.01,296123.4,7448451.04
"6824",6824,1977,53,"o","Elephant",20,-23.06,31.03,298172.97,7448478.79
"6825",6825,1977,53,"o","Elephant",20,-23.06,31.03,298172.97,7448478.79
"6826",6826,1977,53,"o","Elephant",20,-23.06,31.03,298172.97,7448478.79
"6834",6834,1977,53,"o","Elephant",13,-23.08,31.03,298202.83,7446263.87
"6835",6835,1977,53,"o","Elephant",13,-23.08,31.03,298202.83,7446263.87
"6838",6838,1977,53,"o","Elephant",7,-23.01,31.01,296048.11,7453988.38
"6842",6842,1977,53,"o","Elephant",5,-23.01,31.03,298098.45,7454016.09
"6843",6843,1977,53,"o","Elephant",5,-23.01,31.03,298098.45,7454016.09
"6879",6879,1977,53,"o","Elephant",45,-23.08,31.05,300252.08,7446291.36
"6943",6943,1977,53,"o","Elephant",19,-23.12,31.11,306457.1,7441942.43
"6944",6944,1977,53,"o","Elephant",19,-23.12,31.11,306457.1,7441942.43
"6945",6945,1977,53,"o","Elephant",19,-23.12,31.11,306457.1,7441942.43
"6953",6953,1977,53,"o","Elephant",25,-23.08,31.09,304350.55,7446345.5
"7018",7018,1977,54,"o","Elephant",11,-22.95,30.94,288778.48,7460534.17
"7022",7022,1977,54,"o","Elephant",12,-22.97,30.96,290860.57,7458347.83
"7085",7085,1977,54,"o","Elephant",20,-22.99,31.07,302169.9,7456285.54
"7116",7116,1977,54,"o","Elephant",30,-22.99,31.09,304220.49,7456312.39
"7128",7128,1977,54,"o","Elephant",8,-22.89,31.09,304076.55,7467386.59
"7130",7130,1977,54,"o","Elephant",27,-22.89,31.11,306128.63,7467413.06
"7131",7131,1977,54,"o","Elephant",25,-22.91,31.09,304105.29,7465171.76
"7133",7133,1977,54,"o","Elephant",86,-22.91,31.11,306157.07,7465198.25
"7135",7135,1977,54,"o","Elephant",22,-23.01,31.15,310400.1,7454176.45
"7136",7136,1977,54,"o","Elephant",22,-23.01,31.15,310400.1,7454176.45
"7137",7137,1977,54,"o","Elephant",10,-23.03,31.15,310428.08,7451961.64
"7138",7138,1977,54,"o","Elephant",10,-23.03,31.15,310428.08,7451961.64
"7148",7148,1977,54,"o","Elephant",6,-22.93,31.13,308236.99,7463009.67
"7149",7149,1977,54,"o","Elephant",6,-22.93,31.13,308236.99,7463009.67
"7152",7152,1977,54,"o","Elephant",40,-22.93,31.15,310288.43,7463035.63
"7153",7153,1977,54,"o","Elephant",40,-22.93,31.15,310288.43,7463035.63
"7159",7159,1977,54,"o","Elephant",38,-22.91,31.13,308208.83,7465224.47
"7211",7211,1977,54,"o","Elephant",15,-22.95,31.19,314418.55,7460871.95
"7212",7212,1977,54,"o","Elephant",15,-22.95,31.19,314418.55,7460871.95
"7216",7216,1977,54,"o","Elephant",38,-23.06,31.21,316618.42,7448715.95
"7217",7217,1977,54,"o","Elephant",38,-23.06,31.21,316618.42,7448715.95
"7218",7218,1977,54,"o","Elephant",38,-23.06,31.21,316618.42,7448715.95
"7228",7228,1977,54,"o","Elephant",7,-23.01,31.23,318600.88,7454277.75
"7235",7235,1977,54,"o","Elephant",35,-22.97,31.23,318547.42,7458707.21
"7236",7236,1977,54,"o","Elephant",35,-22.97,31.23,318547.42,7458707.21
"7251",7251,1977,54,"o","Elephant",11,-23.06,31.26,321741.93,7448777.79
"7349",7349,1977,55,"o","Elephant",8,-22.89,31.09,304076.55,7467386.59
"7351",7351,1977,55,"o","Elephant",27,-22.89,31.11,306128.63,7467413.06
"7373",7373,1977,55,"o","Elephant",38,-22.91,31.13,308208.83,7465224.47
"7389",7389,1977,55,"o","Elephant",33,-22.81,31.15,310121.62,7476324.24
"7390",7390,1977,55,"o","Elephant",33,-22.81,31.15,310121.62,7476324.24
"7391",7391,1977,55,"o","Elephant",33,-22.81,31.15,310121.62,7476324.24
"7392",7392,1977,55,"o","Elephant",33,-22.81,31.15,310121.62,7476324.24
"7437",7437,1977,55,"o","Elephant",100,-22.81,31.17,312174.85,7476349.81
"7438",7438,1977,55,"o","Elephant",20,-22.81,31.19,314228.07,7476375.11
"7439",7439,1977,55,"o","Elephant",20,-22.81,31.19,314228.07,7476375.11
"7445",7445,1977,55,"o","Elephant",68,-22.83,31.19,314255.21,7474160.38
"7455",7455,1977,55,"o","Elephant",130,-22.93,31.21,316442.67,7463111.82
