"","ID","Year","Cenb","Sp","Description","No","Lat","Long","X.coord","Y.coord"
"72447",72447,1982,2,"ro","Roan antelope",9,-23.91,31.42,339171.15,7354838.73
"74740",74740,1982,6,"ro","Roan antelope",1,-23.58,31.38,334682.64,7391336.95
"74741",74741,1982,6,"ro","Roan antelope",8,-23.58,31.38,334682.64,7391336.95
"75682",75682,1982,9,"ro","Roan antelope",12,-23.47,31.23,319222.02,7403337.48
"76331",76331,1982,11,"ro","Roan antelope",2,-23.26,31.3,326099.18,7426678.83
"76341",76341,1982,11,"ro","Roan antelope",11,-23.22,31.3,326047.31,7431108.3
"76421",76421,1982,12,"ro","Roan antelope",5,-23.26,31.01,296426.09,7426301.36
"76735",76735,1982,13,"ro","Roan antelope",1,-23.7,31.53,350128.95,7378214.1
"76745",76745,1982,13,"ro","Roan antelope",12,-23.64,31.53,350060.5,7384858.14
"76752",76752,1982,13,"ro","Roan antelope",2,-23.6,31.53,350014.96,7389287.48
"76761",76761,1982,13,"ro","Roan antelope",2,-23.62,31.53,350037.72,7387072.81
"76842",76842,1982,13,"ro","Roan antelope",3,-23.62,31.57,354118.92,7387114.2
"76977",76977,1982,13,"ro","Roan antelope",6,-23.7,31.59,356247,7378275.92
"77233",77233,1982,14,"ro","Roan antelope",19,-23.56,31.55,352011.02,7393737.59
"77295",77295,1982,15,"ro","Roan antelope",8,-23.43,31.38,334495.27,7407947.53
"77322",77322,1982,15,"ro","Roan antelope",2,-23.41,31.38,334470.38,7410162.26
"77369",77369,1982,15,"ro","Roan antelope",6,-23.31,31.4,336391.68,7421258.54
"77379",77379,1982,15,"ro","Roan antelope",4,-23.33,31.4,336416.17,7419043.86
"77394",77394,1982,15,"ro","Roan antelope",2,-23.43,31.44,340626.14,7408015.2
"77634",77634,1982,18,"ro","Roan antelope",3,-23.2,31.38,334210.18,7433416.52
"89414",89414,1982,40,"ro","Roan antelope",4,-25.26,31.3,328800.17,7205178.3
"89523",89523,1982,41,"ro","Roan antelope",6,-25.26,31.32,330814.65,7205203.67
"94209",94209,1982,47,"ro","Roan antelope",14,-22.72,31.17,312051.64,7486316.08
"94306",94306,1982,47,"ro","Roan antelope",5,-22.72,31.26,321297.06,7486427.36
"94436",94436,1982,48,"ro","Roan antelope",4,-22.87,31.28,323544.8,7469841.53
"94447",94447,1982,48,"ro","Roan antelope",13,-22.83,31.26,321440.3,7474246.78
"94448",94448,1982,48,"ro","Roan antelope",18,-22.83,31.26,321440.3,7474246.78
"94504",94504,1982,48,"ro","Roan antelope",14,-22.76,31.32,327510.71,7482069.24
"94564",94564,1982,48,"ro","Roan antelope",7,-22.83,31.34,329651.6,7474341.33
"94590",94590,1982,48,"ro","Roan antelope",16,-22.89,31.38,333830.15,7467743.21
"94783",94783,1982,49,"ro","Roan antelope",8,-22.97,31.36,331877.1,7458862.06
"94868",94868,1982,49,"ro","Roan antelope",2,-22.99,31.42,338052.89,7456714.96
"94980",94980,1982,50,"ro","Roan antelope",7,-23.1,31.48,344330.33,7444599.93
"94981",94981,1982,50,"ro","Roan antelope",8,-23.1,31.48,344330.33,7444599.93
"95066",95066,1982,50,"ro","Roan antelope",7,-23.18,31.55,351588.54,7435814.75
"95451",95451,1982,52,"ro","Roan antelope",11,-23.03,31.3,325802.07,7452148.03
