"","ID","Year","Cenb","Sp","Description","No","Lat","Long","X.coord","Y.coord"
"46451",46451,1981,1,"o","Elephant",9,-23.93,31.69,366678.67,7352905.11
"46533",46533,1981,1,"o","Elephant",8,-24.03,31.71,368815.68,7341850.6
"46643",46643,1981,2,"o","Elephant",11,-24.06,31.4,337323.6,7338204.41
"46652",46652,1981,2,"o","Elephant",7,-24.01,31.38,335226,7343718.31
"46653",46653,1981,2,"o","Elephant",8,-24.01,31.38,335226,7343718.31
"46704",46704,1981,2,"o","Elephant",32,-24.06,31.42,339357.41,7338227.42
"46705",46705,1981,2,"o","Elephant",53,-24.06,31.42,339357.41,7338227.42
"46771",46771,1981,2,"o","Elephant",17,-23.97,31.46,343315.92,7348239.28
"46791",46791,1981,2,"o","Elephant",6,-23.95,31.46,343291.74,7350454.09
"46792",46792,1981,2,"o","Elephant",6,-23.95,31.46,343291.74,7350454.09
"46793",46793,1981,2,"o","Elephant",18,-23.95,31.46,343291.74,7350454.09
"46799",46799,1981,2,"o","Elephant",11,-23.95,31.48,345327.24,7350476.16
"46855",46855,1981,2,"o","Elephant",3,-23.95,31.51,348380.46,7350508.72
"47169",47169,1981,3,"o","Elephant",6,-23.97,31.23,319910.36,7347964.54
"47170",47170,1981,3,"o","Elephant",26,-23.97,31.23,319910.36,7347964.54
"47186",47186,1981,3,"o","Elephant",28,-23.99,31.23,319938.18,7345749.56
"47498",47498,1981,3,"o","Elephant",5,-23.97,31.32,329069.28,7348076.6
"47517",47517,1981,3,"o","Elephant",17,-23.95,31.32,329042.9,7350291.51
"47589",47589,1981,3,"o","Elephant",15,-24.01,31.34,331156.75,7343670.9
"47609",47609,1981,3,"o","Elephant",6,-23.97,31.34,331104.56,7348100.71
"47687",47687,1981,4,"o","Elephant",6,-23.83,31.15,311565.95,7363365.23
"47918",47918,1981,4,"o","Elephant",15,-23.85,31.23,319743.91,7361254.34
"48101",48101,1981,4,"o","Elephant",3,-23.85,31.26,322799.74,7361292.2
"48102",48102,1981,4,"o","Elephant",15,-23.85,31.26,322799.74,7361292.2
"48103",48103,1981,4,"o","Elephant",20,-23.85,31.26,322799.74,7361292.2
"48116",48116,1981,4,"o","Elephant",10,-23.87,31.28,324863.85,7359102.17
"48117",48117,1981,4,"o","Elephant",12,-23.87,31.28,324863.85,7359102.17
"48134",48134,1981,4,"o","Elephant",10,-23.83,31.26,322772.54,7363507.13
"48135",48135,1981,4,"o","Elephant",15,-23.83,31.26,322772.54,7363507.13
"48142",48142,1981,4,"o","Elephant",37,-23.83,31.28,324810.06,7363531.99
"48229",48229,1981,4,"o","Elephant",19,-23.74,31.28,324689.35,7373499.01
"48315",48315,1981,4,"o","Elephant",5,-23.74,31.32,328767.15,7373547.74
"48572",48572,1981,5,"o","Elephant",18,-23.76,31.48,345101.45,7371516.42
"48602",48602,1981,5,"o","Elephant",7,-23.85,31.51,348263.76,7361582.5
"48640",48640,1981,5,"o","Elephant",10,-23.81,31.53,350254.87,7366033.23
"48641",48641,1981,5,"o","Elephant",18,-23.81,31.53,350254.87,7366033.23
"48642",48642,1981,5,"o","Elephant",18,-23.81,31.53,350254.87,7366033.23
"48643",48643,1981,5,"o","Elephant",30,-23.81,31.53,350254.87,7366033.23
"48662",48662,1981,5,"o","Elephant",12,-23.78,31.51,348182.35,7369334.07
"48666",48666,1981,5,"o","Elephant",4,-23.78,31.53,350220.48,7369355.3
"48711",48711,1981,5,"o","Elephant",15,-23.81,31.55,352292.52,7366054.19
"48744",48744,1981,5,"o","Elephant",10,-23.83,31.59,356389.79,7363880.58
"48786",48786,1981,6,"o","Elephant",15,-23.68,31.36,332768.39,7380239.75
"48787",48787,1981,6,"o","Elephant",25,-23.68,31.36,332768.39,7380239.75
"48879",48879,1981,6,"o","Elephant",20,-23.68,31.4,336847.94,7380286.09
"48887",48887,1981,6,"o","Elephant",4,-23.7,31.4,336872.8,7378071.31
"48888",48888,1981,6,"o","Elephant",6,-23.7,31.4,336872.8,7378071.31
"48911",48911,1981,6,"o","Elephant",30,-23.66,31.4,336823.11,7382500.87
"48945",48945,1981,6,"o","Elephant",20,-23.76,31.42,338986,7371449.75
"48956",48956,1981,6,"o","Elephant",2,-23.72,31.44,340975.93,7375901.78
"48957",48957,1981,6,"o","Elephant",3,-23.72,31.44,340975.93,7375901.78
"48958",48958,1981,6,"o","Elephant",5,-23.72,31.44,340975.93,7375901.78
"48959",48959,1981,6,"o","Elephant",10,-23.72,31.44,340975.93,7375901.78
"48960",48960,1981,6,"o","Elephant",27,-23.72,31.44,340975.93,7375901.78
"48983",48983,1981,6,"o","Elephant",5,-23.68,31.42,338887.7,7380308.83
"48984",48984,1981,6,"o","Elephant",25,-23.68,31.42,338887.7,7380308.83
"48992",48992,1981,6,"o","Elephant",6,-23.7,31.42,338912.24,7378094.07
"49022",49022,1981,6,"o","Elephant",0,-23.62,31.44,340854.85,7386975.5
"49048",49048,1981,6,"o","Elephant",6,-23.74,31.46,343039,7373709.23
"49049",49049,1981,6,"o","Elephant",10,-23.74,31.46,343039,7373709.23
"49050",49050,1981,6,"o","Elephant",23,-23.74,31.46,343039,7373709.23
"49096",49096,1981,7,"o","Elephant",15,-23.66,31.17,313361.32,7382218.95
"49097",49097,1981,7,"o","Elephant",34,-23.66,31.17,313361.32,7382218.95
"49223",49223,1981,7,"o","Elephant",1,-23.7,31.32,328714.88,7377977.43
"49298",49298,1981,8,"o","Elephant",48,-23.49,31.28,324356.31,7401184.64
"49307",49307,1981,8,"o","Elephant",6,-23.43,31.28,324276.88,7407829.07
"49308",49308,1981,8,"o","Elephant",10,-23.43,31.28,324276.88,7407829.07
"49315",49315,1981,8,"o","Elephant",14,-23.45,31.28,324303.34,7405614.27
"49316",49316,1981,8,"o","Elephant",17,-23.45,31.28,324303.34,7405614.27
"49463",49463,1981,8,"o","Elephant",1,-23.49,31.34,330484.62,7401256.71
"49521",49521,1981,9,"o","Elephant",8,-23.49,31.07,302906.18,7400912.22
"49529",49529,1981,9,"o","Elephant",14,-23.6,31.11,307152.64,7388784.17
"49578",49578,1981,9,"o","Elephant",8,-23.49,31.11,306992.05,7400966.53
"49579",49579,1981,9,"o","Elephant",8,-23.49,31.11,306992.05,7400966.53
"49607",49607,1981,9,"o","Elephant",12,-23.56,31.13,309135.99,7393240.93
"49658",49658,1981,9,"o","Elephant",24,-23.47,31.15,311049.36,7403234.62
"49694",49694,1981,9,"o","Elephant",11,-23.58,31.17,313247.91,7391078.72
"49815",49815,1981,10,"o","Elephant",5,-23.35,31.03,298608.26,7416361.87
"49845",49845,1981,10,"o","Elephant",45,-23.33,31.03,298578.07,7418576.86
"50063",50063,1981,10,"o","Elephant",1,-23.45,31.11,306933.83,7405396.44
"50138",50138,1981,10,"o","Elephant",8,-23.43,31.15,310992.42,7407664.45
"50139",50139,1981,10,"o","Elephant",17,-23.43,31.15,310992.42,7407664.45
"50140",50140,1981,10,"o","Elephant",26,-23.43,31.15,310992.42,7407664.45
"50141",50141,1981,10,"o","Elephant",31,-23.43,31.15,310992.42,7407664.45
"50142",50142,1981,10,"o","Elephant",45,-23.43,31.15,310992.42,7407664.45
"50151",50151,1981,10,"o","Elephant",28,-23.39,31.13,308891.13,7412067.91
"50174",50174,1981,10,"o","Elephant",9,-23.37,31.13,308862.44,7414282.82
"50184",50184,1981,10,"o","Elephant",21,-23.31,31.13,308776.48,7420927.53
"50185",50185,1981,10,"o","Elephant",40,-23.31,31.13,308776.48,7420927.53
"50194",50194,1981,10,"o","Elephant",33,-23.33,31.13,308805.11,7418712.63
"50199",50199,1981,10,"o","Elephant",21,-23.33,31.15,310850.47,7418738.94
"50263",50263,1981,10,"o","Elephant",50,-23.33,31.17,312895.81,7418764.96
"50295",50295,1981,11,"o","Elephant",4,-23.31,31.23,319004.65,7421056.14
"50298",50298,1981,11,"o","Elephant",8,-23.33,31.21,316986.45,7418816.16
"50304",50304,1981,11,"o","Elephant",46,-23.33,31.23,319031.75,7418841.33
"50318",50318,1981,11,"o","Elephant",5,-23.28,31.21,316917.99,7424353.22
"50319",50319,1981,11,"o","Elephant",11,-23.28,31.21,316917.99,7424353.22
"50326",50326,1981,11,"o","Elephant",31,-23.28,31.23,318964.05,7424378.35
"50375",50375,1981,11,"o","Elephant",8,-23.31,31.26,322073.03,7421093.34
"50392",50392,1981,11,"o","Elephant",32,-23.33,31.26,322099.66,7418878.55
"50481",50481,1981,12,"o","Elephant",15,-23.18,30.94,289137.44,7435061.54
"50841",50841,1981,12,"o","Elephant",11,-23.26,31.19,314844.26,7426542.65
"50842",50842,1981,12,"o","Elephant",50,-23.26,31.19,314844.26,7426542.65
"50931",50931,1981,13,"o","Elephant",19,-23.74,31.51,348135.93,7373763.5
"51106",51106,1981,13,"o","Elephant",14,-23.81,31.61,358405.38,7366115.37
"51275",51275,1981,13,"o","Elephant",10,-23.81,31.63,360442.98,7366135.18
"51276",51276,1981,13,"o","Elephant",14,-23.81,31.63,360442.98,7366135.18
"51312",51312,1981,13,"o","Elephant",11,-23.76,31.65,362427.94,7371691.3
"51313",51313,1981,13,"o","Elephant",16,-23.76,31.65,362427.94,7371691.3
"51314",51314,1981,13,"o","Elephant",22,-23.76,31.65,362427.94,7371691.3
"51335",51335,1981,13,"o","Elephant",3,-23.72,31.63,360346.93,7376101.07
"51367",51367,1981,13,"o","Elephant",15,-23.74,31.65,362406.92,7373905.92
"52330",52330,1981,18,"o","Elephant",32,-23.22,31.53,349585.95,7431365.1
"52359",52359,1981,19,"o","Elephant",24,-23.51,31.57,353997.35,7399294.65
"52434",52434,1981,19,"o","Elephant",4,-23.53,31.59,356061.39,7397100.24
"52443",52443,1981,19,"o","Elephant",14,-23.85,31.65,362522.74,7361725.42
"52463",52463,1981,19,"o","Elephant",3,-23.83,31.65,362501.64,7363940.07
"52534",52534,1981,19,"o","Elephant",20,-23.58,31.63,360198.21,7391603.34
"52557",52557,1981,19,"o","Elephant",5,-23.89,31.69,366637.62,7357334.4
"52570",52570,1981,19,"o","Elephant",11,-23.91,31.69,366658.13,7355119.76
"52580",52580,1981,19,"o","Elephant",11,-23.85,31.67,364559.69,7361744.69
"52602",52602,1981,19,"o","Elephant",24,-23.81,31.69,366555.71,7366192.91
"52607",52607,1981,19,"o","Elephant",26,-23.83,31.67,364538.91,7363959.32
"52610",52610,1981,19,"o","Elephant",10,-23.83,31.69,366576.16,7363978.29
"52631",52631,1981,19,"o","Elephant",15,-23.78,31.67,364487.02,7369495.89
"52830",52830,1981,19,"o","Elephant",16,-23.93,31.78,375839.12,7352987.16
"52884",52884,1981,19,"o","Elephant",4,-23.91,31.78,375820,7355201.76
"52885",52885,1981,19,"o","Elephant",4,-23.91,31.78,375820,7355201.76
"53181",53181,1981,20,"o","Elephant",3,-24.06,31.46,343424.97,7338272.58
"53258",53258,1981,20,"o","Elephant",3,-24.06,31.53,350543.1,7338348.83
"53275",53275,1981,20,"o","Elephant",22,-24.08,31.53,350566.28,7336134.04
"53405",53405,1981,20,"o","Elephant",9,-24.1,31.65,362787.83,7334041.85
"53445",53445,1981,20,"o","Elephant",12,-24.08,31.65,362766.53,7336256.57
"53466",53466,1981,20,"o","Elephant",5,-24.03,31.65,362713.35,7341793.34
"53615",53615,1981,21,"o","Elephant",5,-24.22,31.57,354791.42,7320672.56
"53631",53631,1981,21,"o","Elephant",5,-24.2,31.57,354768.74,7322887.36
"53647",53647,1981,21,"o","Elephant",21,-24.18,31.59,356777.89,7325122.78
"53655",53655,1981,21,"o","Elephant",8,-24.2,31.59,356800.22,7322908
"53705",53705,1981,21,"o","Elephant",80,-24.14,31.63,360798.09,7329592.67
"53847",53847,1981,22,"o","Elephant",3,-24.43,31.42,339821.53,7297251.56
"53848",53848,1981,22,"o","Elephant",5,-24.43,31.42,339821.53,7297251.56
"54175",54175,1981,22,"o","Elephant",9,-24.31,31.46,343729.91,7310586.75
"54421",54421,1981,22,"o","Elephant",7,-24.31,31.55,352863.92,7310684.88
"54422",54422,1981,22,"o","Elephant",12,-24.31,31.55,352863.92,7310684.88
"54776",54776,1981,23,"o","Elephant",5,-24.08,31.69,366833.19,7336295.09
"55090",55090,1981,24,"o","Elephant",11,-24.35,31.65,363055.54,7306357.42
"55091",55091,1981,24,"o","Elephant",16,-24.35,31.65,363055.54,7306357.42
"55132",55132,1981,24,"o","Elephant",2,-24.33,31.63,361004.64,7308552.36
"55133",55133,1981,24,"o","Elephant",12,-24.33,31.63,361004.64,7308552.36
"55459",55459,1981,25,"o","Elephant",22,-24.01,31.73,370829.79,7344083.75
"55469",55469,1981,25,"o","Elephant",2,-24.03,31.73,370849.78,7341869.1
"55596",55596,1981,25,"o","Elephant",5,-24.01,31.78,375915.76,7344128.73
"55670",55670,1981,25,"o","Elephant",24,-24.14,31.8,378073.13,7329751.14
"55832",55832,1981,25,"o","Elephant",9,-24.14,31.84,382137.74,7329785.38
"55848",55848,1981,25,"o","Elephant",5,-24.16,31.86,384188.06,7327587.45
"55849",55849,1981,25,"o","Elephant",8,-24.16,31.86,384188.06,7327587.45
"55850",55850,1981,25,"o","Elephant",16,-24.16,31.86,384188.06,7327587.45
"55999",55999,1981,25,"o","Elephant",17,-24.1,31.88,386166.93,7334247.65
"56009",56009,1981,25,"o","Elephant",26,-24.12,31.88,386184.61,7332033.06
"56093",56093,1981,26,"o","Elephant",7,-24.26,31.76,374126.39,7316427.64
"56125",56125,1981,26,"o","Elephant",4,-24.2,31.76,374067.37,7323071.72
"56699",56699,1981,27,"o","Elephant",8,-24.22,31.9,388304.25,7320976.15
"56855",56855,1981,27,"o","Elephant",6,-24.26,31.94,392399.88,7316578.36
"56923",56923,1981,27,"o","Elephant",11,-24.41,31.96,394554.47,7299984.02
"56924",56924,1981,27,"o","Elephant",36,-24.41,31.96,394554.47,7299984.02
"57701",57701,1981,29,"o","Elephant",11,-24.64,31.82,380576.39,7274400.82
"57760",57760,1981,29,"o","Elephant",38,-24.58,31.8,378494.1,7281027.62
"57841",57841,1981,29,"o","Elephant",25,-24.68,31.84,382638.12,7269988.52
"57987",57987,1981,29,"o","Elephant",25,-24.7,31.92,390750.14,7267839.86
"58050",58050,1981,30,"o","Elephant",3,-24.78,31.94,392842.03,7258996.68
"58051",58051,1981,30,"o","Elephant",38,-24.78,31.94,392842.03,7258996.68
"58067",58067,1981,30,"o","Elephant",48,-24.74,31.92,390785.06,7263410.37
"58530",58530,1981,31,"o","Elephant",18,-24.43,31.63,361113.97,7297478.31
"58678",58678,1981,31,"o","Elephant",25,-24.43,31.69,367197.29,7297537.17
"58834",58834,1981,31,"o","Elephant",21,-24.53,31.71,369328.37,7286482.25
"58969",58969,1981,31,"o","Elephant",3,-24.41,31.71,369204.42,7299770.97
"58970",58970,1981,31,"o","Elephant",6,-24.41,31.71,369204.42,7299770.97
"59124",59124,1981,32,"o","Elephant",17,-24.53,31.44,341974.42,7286199.75
"59125",59125,1981,32,"o","Elephant",27,-24.53,31.44,341974.42,7286199.75
"59145",59145,1981,32,"o","Elephant",5,-24.51,31.46,343976,7288437.47
"59148",59148,1981,32,"o","Elephant",2,-24.51,31.48,346002.6,7288459.92
"59149",59149,1981,32,"o","Elephant",8,-24.51,31.48,346002.6,7288459.92
"59150",59150,1981,32,"o","Elephant",6,-24.53,31.46,344000.71,7286222.51
"59151",59151,1981,32,"o","Elephant",51,-24.53,31.46,344000.71,7286222.51
"59152",59152,1981,32,"o","Elephant",5,-24.53,31.48,346026.99,7286244.98
"59195",59195,1981,32,"o","Elephant",5,-24.51,31.51,349042.48,7288493.06
"59196",59196,1981,32,"o","Elephant",8,-24.51,31.51,349042.48,7288493.06
"59197",59197,1981,32,"o","Elephant",10,-24.51,31.51,349042.48,7288493.06
"59198",59198,1981,32,"o","Elephant",15,-24.51,31.51,349042.48,7288493.06
"59203",59203,1981,32,"o","Elephant",8,-24.53,31.51,349066.39,7286278.13
"59270",59270,1981,32,"o","Elephant",12,-24.49,31.57,355099.23,7290772.22
"59918",59918,1981,34,"o","Elephant",6,-24.76,31.78,376645.99,7261076.6
"59919",59919,1981,34,"o","Elephant",25,-24.76,31.78,376645.99,7261076.6
"59985",59985,1981,34,"o","Elephant",6,-24.64,31.76,374503.39,7274347.34
"59986",59986,1981,34,"o","Elephant",8,-24.64,31.76,374503.39,7274347.34
"59998",59998,1981,34,"o","Elephant",5,-24.64,31.78,376527.73,7274365.47
"60045",60045,1981,34,"o","Elephant",16,-24.7,31.8,378610.16,7267738.91
"60160",60160,1981,35,"o","Elephant",3,-24.85,31.61,359556.71,7250945.35
"60434",60434,1981,35,"o","Elephant",20,-24.89,31.67,365662.99,7246576
"60439",60439,1981,35,"o","Elephant",6,-24.89,31.69,367683.33,7246595.6
"60462",60462,1981,35,"o","Elephant",6,-24.87,31.69,367662.02,7248810.51
"60463",60463,1981,35,"o","Elephant",21,-24.87,31.69,367662.02,7248810.51
"60508",60508,1981,35,"o","Elephant",6,-24.89,31.71,369703.65,7246614.89
"60631",60631,1981,36,"o","Elephant",7,-24.76,31.78,376645.99,7261076.6
"60649",60649,1981,36,"o","Elephant",11,-24.89,31.8,378794.99,7246698.05
"60911",60911,1981,37,"o","Elephant",7,-24.81,31.88,386803.23,7255626.13
"60931",60931,1981,37,"o","Elephant",29,-24.83,31.9,388842.62,7253427.78
"61017",61017,1981,37,"o","Elephant",24,-24.81,31.92,390846.29,7255658.7
"61043",61043,1981,37,"o","Elephant",58,-24.83,31.92,390863.82,7253443.93
"61217",61217,1981,38,"o","Elephant",6,-24.95,31.76,374815.02,7240017.18
"61235",61235,1981,38,"o","Elephant",16,-24.91,31.76,374774.61,7244446.95
"61279",61279,1981,38,"o","Elephant",3,-25.03,31.8,378932.04,7231193.93
"61280",61280,1981,38,"o","Elephant",4,-25.03,31.8,378932.04,7231193.93
"61497",61497,1981,38,"o","Elephant",6,-25.06,31.88,387031.42,7227940.79
"61498",61498,1981,38,"o","Elephant",70,-25.06,31.88,387031.42,7227940.79
"61514",61514,1981,38,"o","Elephant",16,-25.01,31.9,389003.89,7233494.46
"61618",61618,1981,38,"o","Elephant",9,-25.01,31.92,391022.15,7233510.7
"62117",62117,1981,38,"o","Elephant",4,-25.01,32.01,400104.25,7233580.07
"63059",63059,1981,40,"o","Elephant",9,-25.2,31.36,334762.48,7211899.16
"63262",63262,1981,41,"o","Elephant",5,-25.28,31.42,340912.98,7203110.78
"63467",63467,1981,41,"o","Elephant",17,-25.18,31.51,349853.44,7214290.1
"63573",63573,1981,42,"o","Elephant",14,-25.24,31.53,351941.76,7207666.95
"63961",63961,1981,42,"o","Elephant",4,-25.26,31.59,358009.01,7205516.67
"63962",63962,1981,42,"o","Elephant",6,-25.26,31.59,358009.01,7205516.67
"63963",63963,1981,42,"o","Elephant",17,-25.26,31.59,358009.01,7205516.67
"63964",63964,1981,42,"o","Elephant",29,-25.26,31.59,358009.01,7205516.67
"64954",64954,1981,44,"o","Elephant",13,-25.31,31.69,368134.54,7200081.13
"65000",65000,1981,44,"o","Elephant",5,-25.28,31.69,368102.08,7203403.68
"65193",65193,1981,44,"o","Elephant",18,-25.24,31.73,372088.02,7207872.4
"65293",65293,1981,44,"o","Elephant",9,-25.26,31.78,377144.54,7205704.11
"65690",65690,1981,45,"o","Elephant",13,-25.22,31.84,383148.9,7210187.54
"66866",66866,1981,46,"o","Elephant",15,-25.33,32.01,400364.7,7198142.71
"67015",67015,1981,47,"o","Elephant",7,-22.64,31.15,309886.72,7495149.47
"67243",67243,1981,47,"o","Elephant",20,-22.72,31.32,327460.5,7486498.43
"67244",67244,1981,47,"o","Elephant",3,-22.74,31.3,325431.43,7484260.41
"67249",67249,1981,47,"o","Elephant",6,-22.68,31.32,327410.37,7490927.6
"67502",67502,1981,48,"o","Elephant",17,-22.76,31.34,329564.57,7482092.41
"67503",67503,1981,48,"o","Elephant",32,-22.76,31.34,329564.57,7482092.41
"67504",67504,1981,48,"o","Elephant",34,-22.76,31.34,329564.57,7482092.41
"67510",67510,1981,48,"o","Elephant",20,-22.78,31.36,331642.94,7479900.72
"67556",67556,1981,48,"o","Elephant",12,-22.78,31.4,335749.98,7479945.7
"67575",67575,1981,48,"o","Elephant",7,-22.87,31.42,337910.1,7470002.35
"67599",67599,1981,49,"o","Elephant",120,-22.99,31.28,323700.26,7456553.48
"67634",67634,1981,49,"o","Elephant",30,-22.99,31.32,327801.08,7456601.02
"67653",67653,1981,49,"o","Elephant",8,-23.01,31.34,329876.55,7454409.72
"67660",67660,1981,49,"o","Elephant",126,-22.97,31.36,331877.1,7458862.06
"67708",67708,1981,49,"o","Elephant",45,-22.91,31.38,333854.52,7465528.62
"67767",67767,1981,49,"o","Elephant",23,-22.89,31.44,339985.68,7467809.67
"67768",67768,1981,49,"o","Elephant",24,-22.89,31.44,339985.68,7467809.67
"67788",67788,1981,49,"o","Elephant",20,-22.97,31.46,342130.28,7458973.12
"67823",67823,1981,50,"o","Elephant",6,-23.06,31.4,336087.24,7448941.61
"68056",68056,1981,52,"o","Elephant",67,-23.14,31.21,316727.04,7439856.85
"68080",68080,1981,52,"o","Elephant",29,-23.16,31.23,318802.15,7437667.09
"68318",68318,1981,52,"o","Elephant",14,-23.08,31.38,334062.5,7446704.42
"68453",68453,1981,53,"o","Elephant",18,-23.06,30.98,293049,7448408.88
"68480",68480,1981,53,"o","Elephant",8,-23.01,30.98,292972.58,7453946.3
"68481",68481,1981,53,"o","Elephant",9,-23.01,30.98,292972.58,7453946.3
"68482",68482,1981,53,"o","Elephant",18,-23.01,30.98,292972.58,7453946.3
"68492",68492,1981,53,"o","Elephant",34,-23.03,30.98,293003.13,7451731.33
"68552",68552,1981,53,"o","Elephant",9,-23.08,31.03,298202.83,7446263.87
"68553",68553,1981,53,"o","Elephant",11,-23.08,31.03,298202.83,7446263.87
"68614",68614,1981,53,"o","Elephant",17,-23.01,31.05,300148.76,7454043.52
"68692",68692,1981,53,"o","Elephant",3,-23.14,31.13,308534.09,7439753.98
"68693",68693,1981,53,"o","Elephant",14,-23.14,31.13,308534.09,7439753.98
"68694",68694,1981,53,"o","Elephant",33,-23.14,31.13,308534.09,7439753.98
"68889",68889,1981,54,"o","Elephant",11,-22.95,30.98,292881.08,7460591.15
"68925",68925,1981,54,"o","Elephant",7,-22.97,31.01,295987.99,7458418.23
"68926",68926,1981,54,"o","Elephant",11,-22.97,31.01,295987.99,7458418.23
"68927",68927,1981,54,"o","Elephant",27,-22.97,31.01,295987.99,7458418.23
"68959",68959,1981,54,"o","Elephant",6,-22.93,31.03,297979.52,7462875.7
"68960",68960,1981,54,"o","Elephant",26,-22.93,31.03,297979.52,7462875.7
"68984",68984,1981,54,"o","Elephant",66,-22.89,31.03,297920.21,7467305.48
"69032",69032,1981,54,"o","Elephant",10,-22.99,31.05,300119.3,7456258.41
"69079",69079,1981,54,"o","Elephant",2,-23.01,31.09,304249.35,7454097.53
"69080",69080,1981,54,"o","Elephant",6,-23.01,31.09,304249.35,7454097.53
"69177",69177,1981,54,"o","Elephant",40,-22.91,31.13,308208.83,7465224.47
"69227",69227,1981,54,"o","Elephant",39,-22.93,31.17,312339.86,7463061.3
"69285",69285,1981,54,"o","Elephant",41,-23.03,31.21,316577.78,7452038.09
"69335",69335,1981,54,"o","Elephant",20,-22.99,31.28,323700.26,7456553.48
"69343",69343,1981,54,"o","Elephant",7,-23.01,31.3,325776.36,7454362.71
"69344",69344,1981,54,"o","Elephant",7,-23.01,31.3,325776.36,7454362.71
"69345",69345,1981,54,"o","Elephant",13,-23.01,31.3,325776.36,7454362.71
"69398",69398,1981,55,"o","Elephant",21,-22.87,31.03,297890.59,7469520.36
"69453",69453,1981,55,"o","Elephant",11,-22.85,31.07,301966.44,7471789.51
"69483",69483,1981,55,"o","Elephant",15,-22.81,31.05,299855.2,7476192.21
"69594",69594,1981,55,"o","Elephant",20,-22.72,31.11,305887.84,7486238.77
"69653",69653,1981,55,"o","Elephant",40,-22.93,31.19,314391.27,7463086.7
"69699",69699,1981,55,"o","Elephant",55,-22.87,31.17,312257.25,7469705.58
"70737",70737,1981,58,"o","Elephant",4,-25.12,31.63,361879.79,7221063.62
"71096",71096,1981,58,"o","Elephant",32,-25.08,31.73,371921,7225592.16
"71097",71097,1981,58,"o","Elephant",41,-25.08,31.73,371921,7225592.16
"71130",71130,1981,58,"o","Elephant",19,-25.1,31.76,374967.13,7223405.32
"71152",71152,1981,58,"o","Elephant",5,-25.06,31.76,374926.48,7227835.18
"71166",71166,1981,58,"o","Elephant",13,-25.06,31.78,376944,7227853.53
"71167",71167,1981,58,"o","Elephant",17,-25.06,31.78,376944,7227853.53
"71168",71168,1981,58,"o","Elephant",22,-25.06,31.78,376944,7227853.53
"71180",71180,1981,58,"o","Elephant",3,-25.08,31.76,374946.8,7225620.26
"71194",71194,1981,58,"o","Elephant",5,-25.08,31.78,376963.98,7225638.61
"71232",71232,1981,58,"o","Elephant",5,-25.1,31.8,379000.83,7223441.76
"71278",71278,1981,58,"o","Elephant",4,-25.08,31.8,378981.16,7225656.67
"71279",71279,1981,58,"o","Elephant",5,-25.08,31.8,378981.16,7225656.67
"71397",71397,1981,60,"o","Elephant",9,-24.99,31.63,361733.97,7235461.1
"71398",71398,1981,60,"o","Elephant",15,-24.99,31.63,361733.97,7235461.1
"71487",71487,1981,60,"o","Elephant",8,-25.01,31.73,371848.25,7233344.43
"71488",71488,1981,60,"o","Elephant",12,-25.01,31.73,371848.25,7233344.43
"71489",71489,1981,60,"o","Elephant",40,-25.01,31.73,371848.25,7233344.43
