"","ID","Year","Cenb","Sp","Description","No","Lat","Long","X.coord","Y.coord"
"7500",7500,1978,2,"v","Warthog",1,-24.03,31.55,352542.55,7341692.11
"7519",7519,1978,2,"v","Warthog",2,-23.87,31.55,352360.49,7359410.06
"7521",7521,1978,3,"v","Warthog",14,-23.97,31.17,313804.25,7347886.58
"7525",7525,1978,3,"v","Warthog",2,-23.97,31.19,315839.64,7347912.86
"7526",7526,1978,3,"v","Warthog",9,-23.99,31.19,315868.08,7345697.84
"7535",7535,1978,3,"v","Warthog",2,-23.93,31.19,315782.81,7352342.88
"7538",7538,1978,3,"v","Warthog",16,-23.95,31.17,313775.51,7350101.61
"7542",7542,1978,3,"v","Warthog",6,-23.95,31.19,315811.21,7350127.87
"7552",7552,1978,3,"v","Warthog",9,-23.91,31.17,313718.1,7354531.65
"7557",7557,1978,3,"v","Warthog",4,-23.91,31.19,315754.43,7354557.88
"7560",7560,1978,3,"v","Warthog",1,-23.87,31.17,313660.78,7358961.68
"7565",7565,1978,3,"v","Warthog",6,-23.87,31.19,315697.73,7358987.87
"7567",7567,1978,3,"v","Warthog",1,-24.06,31.23,320035.72,7337997.07
"7573",7573,1978,3,"v","Warthog",1,-24.01,31.21,317931.29,7343508.84
"7576",7576,1978,3,"v","Warthog",1,-24.01,31.23,319966.02,7343534.57
"7584",7584,1978,3,"v","Warthog",2,-24.03,31.23,319993.88,7341319.57
"7589",7589,1978,3,"v","Warthog",10,-23.97,31.21,317875.01,7347938.84
"7591",7591,1978,3,"v","Warthog",7,-23.97,31.23,319910.36,7347964.54
"7596",7596,1978,3,"v","Warthog",3,-23.99,31.21,317903.14,7345723.84
"7609",7609,1978,3,"v","Warthog",3,-23.93,31.23,319854.79,7352394.5
"7615",7615,1978,3,"v","Warthog",9,-23.95,31.23,319882.56,7350179.52
"7618",7618,1978,3,"v","Warthog",6,-23.89,31.21,317762.69,7356798.8
"7622",7622,1978,3,"v","Warthog",2,-23.89,31.23,319799.31,7356824.43
"7624",7624,1978,3,"v","Warthog",2,-23.91,31.21,317790.74,7354583.82
"7627",7627,1978,3,"v","Warthog",9,-23.91,31.23,319827.04,7354609.46
"7639",7639,1978,3,"v","Warthog",4,-24.1,31.28,325174.77,7333630.28
"7676",7676,1978,3,"v","Warthog",1,-23.95,31.28,324971.67,7350242.46
"7680",7680,1978,3,"v","Warthog",8,-23.89,31.26,322854.2,7356862.34
"7688",7688,1978,3,"v","Warthog",6,-23.91,31.26,322881.46,7354647.4
"7697",7697,1978,3,"v","Warthog",7,-24.08,31.3,327181.19,7335870.02
"7705",7705,1978,3,"v","Warthog",6,-24.01,31.3,327087.44,7343622.34
"7708",7708,1978,3,"v","Warthog",2,-24.01,31.32,329122.1,7343646.77
"7737",7737,1978,3,"v","Warthog",1,-23.89,31.32,328963.88,7356936.2
"7746",7746,1978,3,"v","Warthog",1,-23.91,31.32,328990.2,7354721.31
"7751",7751,1978,3,"v","Warthog",4,-24.06,31.34,331222.11,7338133.62
"7760",7760,1978,3,"v","Warthog",2,-24.08,31.34,331248.29,7335918.7
"7778",7778,1978,3,"v","Warthog",3,-23.97,31.34,331104.56,7348100.71
"7790",7790,1978,3,"v","Warthog",5,-23.95,31.34,331078.49,7350315.6
"7794",7794,1978,3,"v","Warthog",5,-23.89,31.34,331000.41,7356960.25
"7806",7806,1978,1,"v","Warthog",2,-23.87,31.57,354397.19,7359430.77
"7826",7826,1978,1,"v","Warthog",1,-23.95,31.61,358557.67,7350612.57
"7837",7837,1978,1,"v","Warthog",3,-23.91,31.59,356478.03,7355021.8
"7847",7847,1978,1,"v","Warthog",1,-23.85,31.61,358448.81,7361686.03
"7857",7857,1978,1,"v","Warthog",3,-24.01,31.63,360657.65,7343988.38
"7868",7868,1978,1,"v","Warthog",3,-23.99,31.63,360636.11,7346203.09
"7886",7886,1978,1,"v","Warthog",7,-23.89,31.65,362564.98,7357296.11
"7917",7917,1978,1,"v","Warthog",2,-24.03,31.67,364747.47,7341812.71
"7946",7946,1978,1,"v","Warthog",1,-23.93,31.69,366678.67,7352905.11
"7952",7952,1978,1,"v","Warthog",2,-23.95,31.69,366699.22,7350690.46
"7966",7966,1978,1,"v","Warthog",7,-24.01,31.73,370829.79,7344083.75
"8038",8038,1978,2,"v","Warthog",3,-23.93,31.36,333088.33,7352554.28
"8050",8050,1978,2,"v","Warthog",7,-24.06,31.38,335289.79,7338181.1
"8066",8066,1978,2,"v","Warthog",1,-23.95,31.38,335149.63,7350362.92
"8088",8088,1978,2,"v","Warthog",6,-24.06,31.42,339357.41,7338227.42
"8108",8108,1978,2,"v","Warthog",1,-23.99,31.46,343340.12,7346024.47
"8126",8126,1978,2,"v","Warthog",5,-23.91,31.46,343243.44,7354883.68
"8165",8165,1978,4,"v","Warthog",2,-23.83,31.15,311565.95,7363365.23
"8194",8194,1978,4,"v","Warthog",3,-23.81,31.17,313574.96,7365606.67
"8207",8207,1978,4,"v","Warthog",4,-23.76,31.17,313503.61,7371144.13
"8225",8225,1978,4,"v","Warthog",1,-23.7,31.17,313418.17,7377789.04
"8235",8235,1978,4,"v","Warthog",5,-23.85,31.21,317706.67,7361228.74
"8238",8238,1978,4,"v","Warthog",3,-23.85,31.23,319743.91,7361254.34
"8263",8263,1978,4,"v","Warthog",3,-23.74,31.23,319592.02,7373436.5
"8268",8268,1978,4,"v","Warthog",1,-23.85,31.26,322799.74,7361292.2
"8277",8277,1978,4,"v","Warthog",2,-23.83,31.26,322772.54,7363507.13
"8285",8285,1978,4,"v","Warthog",1,-23.76,31.26,322677.53,7371259.32
"8288",8288,1978,4,"v","Warthog",1,-23.76,31.28,324716.14,7371284.13
"8295",8295,1978,4,"v","Warthog",3,-23.78,31.28,324742.95,7369069.24
"8310",8310,1978,4,"v","Warthog",4,-23.85,31.32,328911.3,7361365.98
"8320",8320,1978,4,"v","Warthog",5,-23.83,31.32,328885.05,7363580.85
"8331",8331,1978,4,"v","Warthog",3,-23.78,31.32,328819.49,7369118.02
"8344",8344,1978,4,"v","Warthog",2,-23.74,31.32,328767.15,7373547.74
"8349",8349,1978,4,"v","Warthog",4,-23.85,31.34,330948.46,7361389.99
"8375",8375,1978,5,"v","Warthog",1,-23.85,31.36,332985.61,7361413.72
"8385",8385,1978,5,"v","Warthog",1,-23.85,31.38,335022.74,7361437.16
"8411",8411,1978,5,"v","Warthog",1,-23.78,31.38,334934.21,7369189.05
"8435",8435,1978,5,"v","Warthog",5,-23.83,31.44,341109.67,7363720.54
"8440",8440,1978,5,"v","Warthog",2,-23.76,31.44,341024.49,7371472.26
"8457",8457,1978,5,"v","Warthog",3,-23.85,31.48,345208.19,7361550.04
"8467",8467,1978,5,"v","Warthog",1,-23.83,31.48,345184.44,7363764.8
"8478",8478,1978,5,"v","Warthog",3,-23.78,31.46,343086.98,7369279.73
"8482",8482,1978,5,"v","Warthog",5,-23.78,31.48,345125.13,7369301.68
"8487",8487,1978,5,"v","Warthog",6,-23.85,31.53,350300.8,7361603.78
"8562",8562,1978,6,"v","Warthog",2,-23.62,31.36,332692.08,7386884.15
"8579",8579,1978,6,"v","Warthog",3,-23.74,31.4,336922.57,7373641.74
"8602",8602,1978,6,"v","Warthog",2,-23.6,31.4,336748.71,7389145.15
"8603",8603,1978,6,"v","Warthog",1,-23.62,31.38,334732.79,7386907.41
"8618",8618,1978,6,"v","Warthog",4,-23.68,31.42,338887.7,7380308.83
"8623",8623,1978,6,"v","Warthog",3,-23.7,31.42,338912.24,7378094.07
"8626",8626,1978,6,"v","Warthog",3,-23.66,31.42,338863.17,7382523.59
"8660",8660,1978,7,"v","Warthog",3,-23.66,31.17,313361.32,7382218.95
"8663",8663,1978,7,"v","Warthog",1,-23.68,31.21,317469.56,7380055.78
"8667",8667,1978,7,"v","Warthog",2,-23.64,31.23,319454.52,7384511.04
"8673",8673,1978,7,"v","Warthog",2,-23.66,31.23,319481.98,7382296.15
"8719",8719,1978,8,"v","Warthog",2,-23.47,31.28,324329.82,7403399.46
"8723",8723,1978,8,"v","Warthog",1,-23.45,31.26,322259.92,7405589.71
"8728",8728,1978,8,"v","Warthog",1,-23.41,31.28,324250.45,7410043.87
"8751",8751,1978,8,"v","Warthog",2,-23.53,31.34,330535.83,7396827.16
"8767",8767,1978,8,"v","Warthog",1,-23.51,31.38,334595.06,7399088.59
"8784",8784,1978,9,"v","Warthog",2,-23.62,31.11,307181.91,7386569.18
"8791",8791,1978,9,"v","Warthog",4,-23.51,31.11,307021.2,7398751.57
"8824",8824,1978,9,"v","Warthog",4,-23.51,31.13,309063.8,7398778.31
"8834",8834,1978,9,"v","Warthog",5,-23.49,31.13,309034.96,7400993.26
"8837",8837,1978,9,"v","Warthog",4,-23.45,31.15,311020.88,7405449.54
"8841",8841,1978,9,"v","Warthog",1,-23.51,31.17,313148.96,7398830.95
"8851",8851,1978,9,"v","Warthog",1,-23.47,31.17,313092.55,7403260.76
"8865",8865,1978,9,"v","Warthog",1,-23.58,31.21,317330.84,7391130.33
"8896",8896,1978,10,"v","Warthog",1,-23.47,31.05,300833.17,7403099.65
"8926",8926,1978,10,"v","Warthog",2,-23.31,31.05,300593.66,7420819.55
"8947",8947,1978,10,"v","Warthog",5,-23.43,31.09,304860.9,7407584.43
"8953",8953,1978,10,"v","Warthog",1,-23.39,31.11,306846.68,7412041.26
"8958",8958,1978,10,"v","Warthog",4,-23.41,31.11,306875.71,7409826.33
"8962",8962,1978,10,"v","Warthog",1,-23.37,31.11,306817.67,7414256.2
"8980",8980,1978,10,"v","Warthog",2,-23.35,31.13,308833.76,7416497.73
"8986",8986,1978,10,"v","Warthog",2,-23.37,31.15,310907.18,7414309.16
"8990",8990,1978,10,"v","Warthog",1,-23.31,31.13,308776.48,7420927.53
"9002",9002,1978,10,"v","Warthog",1,-23.43,31.19,315080.01,7407716.38
"9010",9010,1978,10,"v","Warthog",2,-23.41,31.19,315052.19,7409931.26
"9014",9014,1978,10,"v","Warthog",5,-23.35,31.17,312923.85,7416550.09
"9018",9018,1978,10,"v","Warthog",1,-23.35,31.19,314968.87,7416575.85
"9033",9033,1978,10,"v","Warthog",2,-23.33,31.21,316986.45,7418816.16
"9038",9038,1978,11,"v","Warthog",2,-23.39,31.23,319113.16,7412196.85
"9042",9042,1978,11,"v","Warthog",3,-23.31,31.23,319004.65,7421056.14
"9059",9059,1978,11,"v","Warthog",3,-23.24,31.21,316863.32,7428782.86
"9066",9066,1978,11,"v","Warthog",3,-23.37,31.26,322153,7414448.96
"9102",9102,1978,11,"v","Warthog",1,-23.28,31.3,326125.15,7424464.08
"9192",9192,1978,12,"v","Warthog",2,-23.28,31.11,306687.45,7424223.33
"9244",9244,1978,12,"v","Warthog",2,-23.22,31.19,314789.03,7430972.3
"9263",9263,1978,13,"v","Warthog",5,-23.72,31.51,348112.74,7375978.21
"9310",9310,1978,13,"v","Warthog",1,-23.66,31.57,354163.25,7382684.91
"9313",9313,1978,13,"v","Warthog",3,-23.62,31.55,352078.33,7387093.65
"9319",9319,1978,13,"v","Warthog",1,-23.81,31.59,356367.77,7366095.26
"9361",9361,1978,13,"v","Warthog",5,-23.64,31.59,356181.34,7384919.84
"9372",9372,1978,13,"v","Warthog",2,-23.6,31.59,356137.66,7389349.09
"9377",9377,1978,13,"v","Warthog",2,-23.62,31.59,356159.49,7387134.47
"9391",9391,1978,13,"v","Warthog",1,-23.83,31.63,360464.37,7363920.53
"9434",9434,1978,13,"v","Warthog",3,-23.66,31.63,360283.09,7382744.93
"9448",9448,1978,14,"v","Warthog",5,-23.43,31.38,334495.27,7407947.53
"9461",9461,1978,14,"v","Warthog",5,-23.53,31.44,340746.3,7396941.73
"9467",9467,1978,14,"v","Warthog",2,-23.47,31.44,340674.15,7403585.83
"9546",9546,1978,14,"v","Warthog",3,-23.47,31.55,351910.37,7403703.41
"9573",9573,1978,15,"v","Warthog",1,-23.35,31.4,336440.68,7416829.17
"9588",9588,1978,15,"v","Warthog",1,-23.28,31.38,334309.04,7424557.82
"9629",9629,1978,15,"v","Warthog",5,-23.39,31.53,349777.06,7412541.14
"9708",9708,1978,18,"v","Warthog",1,-23.16,31.38,334160.88,7437845.84
"9739",9739,1978,18,"v","Warthog",5,-23.24,31.44,340399.18,7429054.43
"9743",9743,1978,18,"v","Warthog",2,-23.18,31.42,338280.44,7435676.21
"9746",9746,1978,18,"v","Warthog",1,-23.18,31.44,340327.87,7435698.3
"9755",9755,1978,18,"v","Warthog",2,-23.2,31.44,340351.62,7433483.68
"9801",9801,1978,18,"v","Warthog",2,-23.24,31.48,344492.18,7429097.85
"9816",9816,1978,18,"v","Warthog",5,-23.2,31.46,342398.74,7433505.5
"9869",9869,1978,19,"v","Warthog",5,-23.39,31.55,351821.21,7412561.82
"9882",9882,1978,19,"v","Warthog",2,-23.33,31.55,351754.53,7419205.57
"9886",9886,1978,19,"v","Warthog",5,-23.58,31.61,358157.03,7391583.67
"9888",9888,1978,19,"v","Warthog",4,-23.53,31.59,356061.39,7397100.24
"9890",9890,1978,19,"v","Warthog",1,-23.85,31.65,362522.74,7361725.42
"9895",9895,1978,19,"v","Warthog",1,-23.87,31.65,362543.85,7359510.77
"9954",9954,1978,19,"v","Warthog",8,-23.74,31.69,366484.25,7373944.03
"9986",9986,1978,19,"v","Warthog",1,-23.85,31.71,368633.56,7361782.36
"9994",9994,1978,19,"v","Warthog",6,-23.87,31.73,370690.33,7359586.15
"9999",9999,1978,19,"v","Warthog",5,-23.83,31.71,368613.4,7363996.97
"10010",10010,1978,19,"v","Warthog",2,-23.93,31.78,375839.12,7352987.16
"10017",10017,1978,19,"v","Warthog",3,-23.95,31.78,375858.26,7350772.56
"10020",10020,1978,19,"v","Warthog",1,-23.89,31.76,373764.62,7357398.64
"10103",10103,1978,20,"v","Warthog",2,-24.06,31.48,345458.74,7338294.73
"10105",10105,1978,20,"v","Warthog",3,-24.08,31.46,343449.26,7336057.75
"10109",10109,1978,20,"v","Warthog",2,-24.1,31.53,350589.48,7333919.25
"10126",10126,1978,20,"v","Warthog",1,-24.08,31.57,354633.08,7336176.04
"10130",10130,1978,20,"v","Warthog",2,-24.12,31.61,358743.71,7331787.4
"10141",10141,1978,20,"v","Warthog",2,-24.12,31.63,360776.44,7331807.41
"10152",10152,1978,20,"v","Warthog",7,-24.08,31.63,360733.18,7336236.87
"10171",10171,1978,21,"v","Warthog",2,-24.2,31.44,341563.81,7322746.08
"10175",10175,1978,21,"v","Warthog",3,-24.22,31.48,345651.02,7320576
"10194",10194,1978,21,"v","Warthog",1,-24.24,31.51,348721.49,7318394
"10196",10196,1978,21,"v","Warthog",2,-24.24,31.53,350752.38,7318415.54
"10214",10214,1978,21,"v","Warthog",1,-24.14,31.51,348603.46,7329468.17
"10216",10216,1978,21,"v","Warthog",2,-24.14,31.53,350635.93,7329489.64
"10219",10219,1978,21,"v","Warthog",1,-24.16,31.51,348627.03,7327253.34
"10223",10223,1978,21,"v","Warthog",6,-24.16,31.53,350659.18,7327274.83
"10258",10258,1978,21,"v","Warthog",4,-24.2,31.59,356800.22,7322908
"10261",10261,1978,21,"v","Warthog",2,-24.2,31.61,358831.7,7322928.35
"10297",10297,1978,22,"v","Warthog",4,-24.43,31.38,335765.67,7297204.71
"10303",10303,1978,22,"v","Warthog",3,-24.43,31.4,337793.61,7297228.28
"10319",10319,1978,22,"v","Warthog",1,-24.43,31.42,339821.53,7297251.56
"10348",10348,1978,22,"v","Warthog",1,-24.41,31.44,341824.5,7299489.49
"10354",10354,1978,22,"v","Warthog",7,-24.35,31.44,341749.8,7306134.29
"10359",10359,1978,22,"v","Warthog",1,-24.37,31.44,341774.68,7303919.37
"10371",10371,1978,22,"v","Warthog",4,-24.43,31.46,343877.34,7297297.24
"10379",10379,1978,22,"v","Warthog",4,-24.39,31.46,343828.12,7301727.1
"10386",10386,1978,22,"v","Warthog",12,-24.41,31.46,343852.72,7299512.17
"10398",10398,1978,22,"v","Warthog",2,-24.37,31.46,343803.54,7303942.02
"10403",10403,1978,22,"v","Warthog",2,-24.37,31.48,345832.38,7303964.38
"10420",10420,1978,22,"v","Warthog",1,-24.39,31.51,348899.41,7301782.49
"10423",10423,1978,22,"v","Warthog",1,-24.39,31.53,350927.9,7301804.13
"10433",10433,1978,22,"v","Warthog",1,-24.35,31.51,348851.86,7306212.25
"10471",10471,1978,22,"v","Warthog",2,-24.35,31.59,356968.32,7306296.96
"10480",10480,1978,23,"v","Warthog",1,-24.22,31.65,362916.01,7320753.43
"10503",10503,1978,23,"v","Warthog",3,-24.22,31.67,364947.13,7320772.92
"10505",10505,1978,23,"v","Warthog",1,-24.22,31.69,366978.23,7320792.12
"10508",10508,1978,23,"v","Warthog",3,-24.24,31.67,364968.23,7318558.18
"10543",10543,1978,23,"v","Warthog",1,-24.1,31.67,364820.85,7334061.27
"10553",10553,1978,23,"v","Warthog",4,-24.12,31.67,364841.86,7331846.56
"10570",10570,1978,23,"v","Warthog",5,-24.26,31.73,371080.73,7316400.23
"10578",10578,1978,23,"v","Warthog",1,-24.18,31.71,368968.44,7325240.46
"10581",10581,1978,23,"v","Warthog",2,-24.2,31.71,368988.88,7323025.75
"10594",10594,1978,23,"v","Warthog",1,-24.16,31.71,368948.02,7327455.16
"10619",10619,1978,24,"v","Warthog",1,-24.28,31.57,354859.54,7314028.12
"10656",10656,1978,24,"v","Warthog",1,-24.35,31.63,361026.47,7306337.56
"10680",10680,1978,24,"v","Warthog",1,-24.33,31.65,363034.02,7308572.21
"10696",10696,1978,24,"v","Warthog",5,-24.39,31.69,367155.42,7301966.73
"10710",10710,1978,24,"v","Warthog",1,-24.37,31.67,365105.8,7304162.21
"10717",10717,1978,24,"v","Warthog",1,-24.31,31.67,365042.22,7310806.53
"10724",10724,1978,24,"v","Warthog",2,-24.33,31.67,365063.39,7308591.77
"10751",10751,1978,24,"v","Warthog",3,-24.33,31.73,371151.44,7308648.69
"10760",10760,1978,24,"v","Warthog",6,-24.39,31.76,374254.75,7302031.98
"10765",10765,1978,24,"v","Warthog",9,-24.39,31.78,376283.1,7302049.96
"10770",10770,1978,24,"v","Warthog",4,-24.41,31.76,374274.55,7299817.24
"10772",10772,1978,24,"v","Warthog",8,-24.35,31.76,374215.18,7306461.44
"10854",10854,1978,25,"v","Warthog",1,-24.14,31.8,378073.13,7329751.14
"10861",10861,1978,25,"v","Warthog",1,-24.14,31.82,380105.44,7329768.41
"10873",10873,1978,25,"v","Warthog",4,-24.1,31.82,380068.16,7334197.66
"10878",10878,1978,25,"v","Warthog",6,-24.12,31.8,378054.17,7331965.78
"10892",10892,1978,25,"v","Warthog",12,-24.06,31.82,380030.94,7338626.9
"10901",10901,1978,25,"v","Warthog",4,-24.08,31.82,380049.54,7336412.28
"10913",10913,1978,25,"v","Warthog",1,-24.03,31.8,377969.01,7341931.6
"10928",10928,1978,25,"v","Warthog",12,-24.14,31.84,382137.74,7329785.38
"10937",10937,1978,25,"v","Warthog",6,-24.16,31.86,384188.06,7327587.45
"10941",10941,1978,25,"v","Warthog",3,-24.1,31.84,382101.09,7334214.62
"10953",10953,1978,25,"v","Warthog",1,-24.12,31.86,384152.02,7332016.68
"10958",10958,1978,25,"v","Warthog",4,-24.06,31.84,382064.5,7338643.83
"10978",10978,1978,25,"v","Warthog",5,-24.03,31.84,382037.09,7341965.72
"10985",10985,1978,25,"v","Warthog",4,-24.18,31.88,386237.75,7325389.24
"10988",10988,1978,25,"v","Warthog",1,-24.18,31.9,388269.39,7325405.37
"11025",11025,1978,26,"v","Warthog",1,-24.41,31.78,376302.58,7299835.23
"11055",11055,1978,26,"v","Warthog",6,-24.18,31.78,376079.42,7325304.26
"11159",11159,1978,26,"v","Warthog",1,-24.26,31.84,382248.04,7316497.54
"11229",11229,1978,27,"v","Warthog",4,-24.24,31.84,382229.62,7318712.2
"11237",11237,1978,27,"v","Warthog",7,-24.31,31.9,388382.89,7311010.33
"11242",11242,1978,27,"v","Warthog",5,-24.26,31.88,386308.8,7316530.74
"11245",11245,1978,27,"v","Warthog",5,-24.26,31.9,388339.17,7316546.91
"11285",11285,1978,27,"v","Warthog",5,-24.33,31.92,390429.65,7308811.59
"11321",11321,1978,27,"v","Warthog",5,-24.45,31.96,394587.72,7295554.73
"11339",11339,1978,27,"v","Warthog",1,-24.41,31.96,394554.47,7299984.02
"11370",11370,1978,27,"v","Warthog",7,-24.33,31.98,396517.33,7308857.56
"11390",11390,1978,28,"v","Warthog",5,-24.47,31.8,378388.19,7293208.75
"11394",11394,1978,28,"v","Warthog",1,-24.47,31.82,380415.25,7293226.19
"11398",11398,1978,28,"v","Warthog",5,-24.49,31.82,380434.15,7291011.47
"11405",11405,1978,28,"v","Warthog",1,-24.53,31.86,384524.15,7286616.06
"11410",11410,1978,28,"v","Warthog",13,-24.49,31.84,382460.87,7291028.62
"11414",11414,1978,28,"v","Warthog",2,-24.49,31.86,384487.59,7291045.49
"11419",11419,1978,28,"v","Warthog",3,-24.45,31.86,384451.08,7295474.9
"11432",11432,1978,28,"v","Warthog",1,-24.6,31.9,388638.15,7278897.46
"11434",11434,1978,28,"v","Warthog",3,-24.62,31.9,388655.86,7276682.73
"11437",11437,1978,28,"v","Warthog",1,-24.56,31.9,388602.77,7283326.89
"11451",11451,1978,28,"v","Warthog",3,-24.47,31.88,386496.35,7293276.76
"11454",11454,1978,28,"v","Warthog",3,-24.47,31.9,388523.37,7293293.03
"11460",11460,1978,28,"v","Warthog",3,-24.49,31.88,386514.29,7291062.06
"11465",11465,1978,28,"v","Warthog",4,-24.49,31.9,388540.99,7291078.34
"11493",11493,1978,28,"v","Warthog",2,-24.6,31.92,390663.07,7278913.49
"11497",11497,1978,28,"v","Warthog",4,-24.6,31.94,392687.98,7278929.24
"11502",11502,1978,28,"v","Warthog",3,-24.62,31.92,390680.45,7276698.78
"11511",11511,1978,28,"v","Warthog",5,-24.56,31.94,392653.89,7283358.63
"11518",11518,1978,28,"v","Warthog",1,-24.58,31.94,392670.93,7281143.94
"11539",11539,1978,28,"v","Warthog",4,-24.47,31.92,390550.38,7293309
"11549",11549,1978,28,"v","Warthog",3,-24.49,31.92,390567.68,7291094.32
"11555",11555,1978,28,"v","Warthog",15,-24.49,31.94,392594.36,7291110.02
"11569",11569,1978,28,"v","Warthog",1,-24.45,31.94,392560.41,7295539.35
"11579",11579,1978,28,"v","Warthog",1,-24.58,31.96,394696.15,7281159.38
"11606",11606,1978,29,"v","Warthog",3,-24.56,31.78,376449.19,7283224.6
"11613",11613,1978,29,"v","Warthog",2,-24.53,31.78,376419.81,7286546.75
"11615",11615,1978,29,"v","Warthog",9,-24.49,31.78,376380.67,7290976.27
"11623",11623,1978,29,"v","Warthog",2,-24.68,31.82,380614.45,7269971.26
"11630",11630,1978,29,"v","Warthog",7,-24.64,31.82,380576.39,7274400.82
"11632",11632,1978,29,"v","Warthog",5,-24.66,31.8,378571.41,7272168.5
"11633",11633,1978,29,"v","Warthog",1,-24.66,31.82,380595.41,7272186.05
"11637",11637,1978,29,"v","Warthog",1,-24.6,31.8,378513.41,7278812.85
"11640",11640,1978,29,"v","Warthog",4,-24.6,31.82,380538.38,7278830.36
"11642",11642,1978,29,"v","Warthog",8,-24.62,31.8,378532.73,7276598.07
"11649",11649,1978,29,"v","Warthog",2,-24.56,31.82,380500.42,7283259.87
"11650",11650,1978,29,"v","Warthog",3,-24.58,31.8,378494.1,7281027.62
"11664",11664,1978,29,"v","Warthog",10,-24.53,31.8,378445.91,7286564.52
"11667",11667,1978,29,"v","Warthog",3,-24.53,31.82,380472,7286581.99
"11690",11690,1978,29,"v","Warthog",2,-24.78,31.86,384753.97,7258931.59
"11695",11695,1978,29,"v","Warthog",6,-24.72,31.84,382675.6,7265558.96
"11712",11712,1978,29,"v","Warthog",4,-24.64,31.84,382600.7,7274418.06
"11717",11717,1978,29,"v","Warthog",3,-24.66,31.84,382619.4,7272203.29
"11724",11724,1978,29,"v","Warthog",11,-24.6,31.86,384588.28,7278864.5
"11732",11732,1978,29,"v","Warthog",5,-24.56,31.84,382526.03,7283277.07
"11736",11736,1978,29,"v","Warthog",2,-24.58,31.84,382544.67,7281062.32
"11745",11745,1978,29,"v","Warthog",2,-24.53,31.84,382498.08,7286599.17
"11751",11751,1978,29,"v","Warthog",5,-24.72,31.88,386721.61,7265592.63
"11755",11755,1978,29,"v","Warthog",2,-24.74,31.88,386739.73,7263377.86
"11756",11756,1978,29,"v","Warthog",3,-24.68,31.88,386685.43,7270022.15
"11769",11769,1978,29,"v","Warthog",5,-24.7,31.92,390750.14,7267839.86
"11775",11775,1978,29,"v","Warthog",3,-24.66,31.92,390715.27,7272269.33
"11792",11792,1978,30,"v","Warthog",2,-24.76,31.92,390802.54,7261195.61
"11812",11812,1978,30,"v","Warthog",5,-24.74,31.92,390785.06,7263410.37
"11816",11816,1978,30,"v","Warthog",6,-24.74,31.94,392807.71,7263426.18
"11820",11820,1978,30,"v","Warthog",4,-24.66,31.94,392739.21,7272285.1
"11845",11845,1978,30,"v","Warthog",1,-24.74,31.96,394830.35,7263441.69
"11869",11869,1978,30,"v","Warthog",6,-24.64,31.96,394746.38,7274515.29
"11876",11876,1978,30,"v","Warthog",3,-24.66,31.96,394763.15,7272300.58
"11930",11930,1978,31,"v","Warthog",2,-24.43,31.61,359086.17,7297458.11
"11941",11941,1978,31,"v","Warthog",4,-24.62,31.63,361322.84,7276437.25
"11946",11946,1978,31,"v","Warthog",1,-24.62,31.65,363347.58,7276457.27
"11967",11967,1978,31,"v","Warthog",2,-24.53,31.65,363249.89,7286424.1
"11972",11972,1978,31,"v","Warthog",2,-24.47,31.63,361157.81,7293048.66
"11995",11995,1978,31,"v","Warthog",1,-24.41,31.65,363120.17,7299713.03
"12061",12061,1978,31,"v","Warthog",7,-24.45,31.69,367218.24,7295322.38
"12066",12066,1978,31,"v","Warthog",11,-24.41,31.67,365148.27,7299732.64
"12068",12068,1978,31,"v","Warthog",5,-24.41,31.69,367176.35,7299751.95
"12078",12078,1978,31,"v","Warthog",7,-24.6,31.73,371425.95,7278749.24
"12087",12087,1978,31,"v","Warthog",1,-24.62,31.73,371446.4,7276534.43
"12100",12100,1978,31,"v","Warthog",2,-24.58,31.73,371405.52,7280964.05
"12111",12111,1978,31,"v","Warthog",2,-24.53,31.73,371354.51,7286501.05
"12120",12120,1978,31,"v","Warthog",1,-24.47,31.73,371293.42,7293145.4
"12124",12124,1978,31,"v","Warthog",4,-24.49,31.73,371313.77,7290930.62
"12131",12131,1978,31,"v","Warthog",2,-24.43,31.73,371252.78,7297574.94
"12138",12138,1978,31,"v","Warthog",2,-24.45,31.73,371273.09,7295360.17
"12161",12161,1978,31,"v","Warthog",3,-24.43,31.76,374294.37,7297602.5
"12167",12167,1978,31,"v","Warthog",4,-24.45,31.76,374314.2,7295387.75
"12174",12174,1978,32,"v","Warthog",10,-24.47,31.4,337844.82,7292798.32
"12180",12180,1978,32,"v","Warthog",3,-24.51,31.44,341949.39,7288414.72
"12184",12184,1978,32,"v","Warthog",4,-24.53,31.44,341974.42,7286199.75
"12188",12188,1978,32,"v","Warthog",4,-24.47,31.42,339872.11,7292821.63
"12193",12193,1978,32,"v","Warthog",1,-24.47,31.44,341899.37,7292844.64
"12199",12199,1978,32,"v","Warthog",5,-24.53,31.46,344000.71,7286222.51
"12219",12219,1978,32,"v","Warthog",1,-24.49,31.48,345978.23,7290674.86
"12236",12236,1978,32,"v","Warthog",4,-24.58,31.51,349126.25,7280740.8
"12241",12241,1978,32,"v","Warthog",3,-24.58,31.53,351151.69,7280762.57
"12245",12245,1978,32,"v","Warthog",2,-24.53,31.53,351092.64,7286299.87
"12257",12257,1978,32,"v","Warthog",4,-24.49,31.53,351045.48,7290729.68
"12261",12261,1978,32,"v","Warthog",20,-24.43,31.51,348947.02,7297352.7
"12269",12269,1978,32,"v","Warthog",5,-24.43,31.53,350974.88,7297374.37
"12272",12272,1978,32,"v","Warthog",5,-24.45,31.51,348970.86,7295137.8
"12276",12276,1978,32,"v","Warthog",3,-24.56,31.55,353153.81,7282998.95
"12280",12280,1978,32,"v","Warthog",1,-24.51,31.55,353095.61,7288536.21
"12298",12298,1978,32,"v","Warthog",2,-24.43,31.55,353002.72,7297395.74
"12303",12303,1978,32,"v","Warthog",10,-24.45,31.55,353025.92,7295180.87
"12311",12311,1978,32,"v","Warthog",1,-24.56,31.59,357205.29,7283040.99
"12316",12316,1978,32,"v","Warthog",5,-24.51,31.59,357148.69,7288578.18
"12326",12326,1978,32,"v","Warthog",4,-24.53,31.61,359197.52,7286383.87
"12344",12344,1978,32,"v","Warthog",5,-24.56,31.63,361256.72,7283081.85
"12366",12366,1978,33,"v","Warthog",7,-24.78,31.61,359477.77,7258697.65
"12392",12392,1978,33,"v","Warthog",2,-24.6,31.61,359275.72,7278631.81
"12404",12404,1978,33,"v","Warthog",2,-24.58,31.61,359253.36,7280846.69
"12405",12405,1978,33,"v","Warthog",1,-24.76,31.63,361477.73,7260932.99
"12408",12408,1978,33,"v","Warthog",6,-24.76,31.65,363500.2,7260953.1
"12409",12409,1978,33,"v","Warthog",4,-24.78,31.65,363522.07,7258738.19
"12414",12414,1978,33,"v","Warthog",1,-24.72,31.65,363456.51,7265382.89
"12417",12417,1978,33,"v","Warthog",1,-24.74,31.65,363478.35,7263168
"12426",12426,1978,33,"v","Warthog",3,-24.7,31.63,361411.25,7267577.7
"12434",12434,1978,33,"v","Warthog",2,-24.64,31.65,363369.33,7274242.41
"12450",12450,1978,33,"v","Warthog",1,-24.74,31.67,365501.13,7263187.8
"12454",12454,1978,33,"v","Warthog",3,-24.64,31.67,365393.73,7274262.15
"12462",12462,1978,34,"v","Warthog",1,-24.72,31.69,367502.71,7265422.17
"12466",12466,1978,34,"v","Warthog",4,-24.68,31.67,365436.64,7269832.43
"12470",12470,1978,34,"v","Warthog",4,-24.7,31.67,365458.12,7267617.56
"12474",12474,1978,34,"v","Warthog",2,-24.64,31.69,367418.12,7274281.6
"12479",12479,1978,34,"v","Warthog",3,-24.66,31.67,365415.18,7272047.29
"12483",12483,1978,34,"v","Warthog",10,-24.66,31.69,367439.24,7272066.75
"12491",12491,1978,34,"v","Warthog",5,-24.72,31.73,371548.87,7265460.28
"12506",12506,1978,34,"v","Warthog",4,-24.7,31.71,369504.95,7267656.23
"12510",12510,1978,34,"v","Warthog",3,-24.7,31.73,371528.34,7267675.12
"12512",12512,1978,34,"v","Warthog",6,-24.64,31.71,369442.49,7274300.75
"12515",12515,1978,34,"v","Warthog",2,-24.66,31.71,369463.3,7272085.92
"12523",12523,1978,34,"v","Warthog",4,-24.76,31.78,376645.99,7261076.6
"12547",12547,1978,34,"v","Warthog",2,-24.68,31.78,376567.09,7269935.86
"12551",12551,1978,34,"v","Warthog",5,-24.7,31.78,376586.79,7267721.06
"12565",12565,1978,34,"v","Warthog",2,-24.76,31.8,378668.38,7261094.49
"12572",12572,1978,34,"v","Warthog",2,-24.74,31.8,378648.96,7263309.3
"12581",12581,1978,34,"v","Warthog",4,-24.78,31.84,382731.93,7258914.58
"12589",12589,1978,35,"v","Warthog",2,-24.97,31.61,359692.54,7237655.55
"12592",12592,1978,35,"v","Warthog",1,-24.93,31.61,359647.2,7242085.5
"12602",12602,1978,35,"v","Warthog",1,-24.83,31.61,359534.14,7253160.3
"12605",12605,1978,35,"v","Warthog",1,-24.97,31.63,361711.6,7237676.08
"12608",12608,1978,35,"v","Warthog",5,-24.97,31.65,363730.65,7237696.31
"12613",12613,1978,35,"v","Warthog",1,-24.93,31.65,363686.62,7242126.22
"12617",12617,1978,35,"v","Warthog",5,-24.95,31.63,361689.25,7239891.05
"12621",12621,1978,35,"v","Warthog",5,-24.95,31.65,363708.63,7239911.27
"12628",12628,1978,35,"v","Warthog",1,-24.91,31.63,361644.59,7244320.97
"12631",12631,1978,35,"v","Warthog",2,-24.91,31.65,363664.62,7244341.17
"12638",12638,1978,35,"v","Warthog",3,-24.87,31.65,363620.69,7248771.05
"12641",12641,1978,35,"v","Warthog",3,-24.81,31.63,361533.24,7255395.68
"12650",12650,1978,35,"v","Warthog",1,-24.83,31.65,363576.81,7253200.9
"12654",12654,1978,35,"v","Warthog",12,-24.93,31.67,365706.31,7242146.14
"12661",12661,1978,35,"v","Warthog",10,-24.95,31.67,365728,7239931.2
"12679",12679,1978,35,"v","Warthog",1,-24.91,31.67,365684.64,7244361.07
"12684",12684,1978,35,"v","Warthog",7,-24.91,31.69,367704.65,7244380.68
"12704",12704,1978,35,"v","Warthog",1,-24.93,31.73,371765.33,7242204.1
"12779",12779,1978,36,"v","Warthog",1,-24.78,31.78,376665.75,7258861.76
"12788",12788,1978,36,"v","Warthog",1,-24.85,31.82,380776.89,7251145.39
"12796",12796,1978,36,"v","Warthog",5,-24.81,31.82,380738.58,7255575.04
"12800",12800,1978,36,"v","Warthog",4,-24.83,31.8,378736.48,7253342.59
"12813",12813,1978,36,"v","Warthog",1,-24.89,31.84,382835.53,7246733.08
"12847",12847,1978,36,"v","Warthog",3,-24.87,31.88,386857.8,7248981.73
"12860",12860,1978,37,"v","Warthog",25,-24.93,31.9,388932.08,7242353.77
"12868",12868,1978,37,"v","Warthog",13,-24.91,31.9,388914.16,7244568.59
"12887",12887,1978,37,"v","Warthog",10,-25.12,31.94,393135.9,7221345.04
"12892",12892,1978,37,"v","Warthog",5,-25.01,31.94,393040.41,7233526.64
"12898",12898,1978,37,"v","Warthog",6,-24.97,31.92,390986.88,7237940.35
"12904",12904,1978,37,"v","Warthog",13,-24.97,31.94,393005.79,7237956.26
"12910",12910,1978,37,"v","Warthog",1,-24.99,31.94,393023.09,7235741.45
"12915",12915,1978,37,"v","Warthog",5,-24.93,31.92,390951.65,7242369.97
"12921",12921,1978,37,"v","Warthog",7,-24.95,31.92,390969.26,7240155.16
"12937",12937,1978,37,"v","Warthog",23,-24.91,31.92,390934.06,7244584.77
"12976",12976,1978,37,"v","Warthog",7,-25.14,31.96,395169.42,7219145.88
"12978",12978,1978,37,"v","Warthog",1,-25.14,31.98,397185.53,7219161.28
"12980",12980,1978,37,"v","Warthog",2,-25.16,31.96,395186.51,7216931.03
"12985",12985,1978,37,"v","Warthog",3,-25.16,31.98,397202.29,7216946.44
"12989",12989,1978,37,"v","Warthog",2,-25.1,31.96,395135.29,7223575.57
"12997",12997,1978,37,"v","Warthog",2,-25.12,31.96,395152.35,7221360.73
"13001",13001,1978,37,"v","Warthog",3,-25.12,31.98,397168.79,7221376.12
"13006",13006,1978,37,"v","Warthog",13,-25.06,31.96,395101.2,7228005.23
"13013",13013,1978,37,"v","Warthog",1,-25.08,31.96,395118.24,7225790.4
"13021",13021,1978,37,"v","Warthog",2,-25.01,31.96,395058.66,7233542.27
"13031",13031,1978,37,"v","Warthog",10,-25.03,31.96,395075.67,7231327.46
"13041",13041,1978,37,"v","Warthog",7,-24.97,31.96,395024.69,7237971.88
"13045",13045,1978,37,"v","Warthog",4,-24.97,31.98,397043.59,7237987.21
"13058",13058,1978,37,"v","Warthog",1,-24.93,31.96,394990.77,7242401.47
"13062",13062,1978,37,"v","Warthog",5,-24.93,31.98,397010.32,7242416.78
"13066",13066,1978,37,"v","Warthog",2,-24.95,31.98,397026.95,7240201.99
"13076",13076,1978,37,"v","Warthog",2,-24.91,31.96,394973.83,7244616.26
"13081",13081,1978,37,"v","Warthog",3,-24.91,31.98,396993.71,7244631.55
"13160",13160,1978,38,"v","Warthog",4,-24.97,31.76,374835.26,7237802.28
"13182",13182,1978,38,"v","Warthog",2,-24.91,31.78,376794.57,7244465.22
"13202",13202,1978,38,"v","Warthog",6,-24.99,31.82,380911.45,7235641.42
"13209",13209,1978,38,"v","Warthog",1,-24.95,31.8,378853.64,7240053.46
"13215",13215,1978,38,"v","Warthog",9,-24.91,31.8,378814.53,7244483.19
"13245",13245,1978,38,"v","Warthog",5,-25.03,31.84,382968,7231229.1
"13249",13249,1978,38,"v","Warthog",3,-25.03,31.86,384985.97,7231246.24
"13253",13253,1978,38,"v","Warthog",2,-24.97,31.84,382911.14,7237873.7
"13267",13267,1978,38,"v","Warthog",4,-24.95,31.84,382892.22,7240088.55
"13273",13273,1978,38,"v","Warthog",3,-24.91,31.84,382854.41,7244518.24
"13278",13278,1978,38,"v","Warthog",3,-24.91,31.86,384874.33,7244535.32
"13281",13281,1978,38,"v","Warthog",4,-25.1,31.88,387068.13,7223511.06
"13299",13299,1978,38,"v","Warthog",3,-25.01,31.88,386985.61,7233477.93
"13300",13300,1978,38,"v","Warthog",1,-25.01,31.9,389003.89,7233494.46
"13308",13308,1978,38,"v","Warthog",4,-25.03,31.9,389021.87,7231279.62
"13314",13314,1978,38,"v","Warthog",1,-24.97,31.9,388967.96,7237924.13
"13321",13321,1978,38,"v","Warthog",6,-24.95,31.88,386930.75,7240122.45
"13325",13325,1978,38,"v","Warthog",10,-24.95,31.9,388950.01,7240138.95
"13330",13330,1978,38,"v","Warthog",4,-24.91,31.88,386894.25,7244552.1
"13337",13337,1978,38,"v","Warthog",4,-25.1,31.94,393118.51,7223559.89
"13341",13341,1978,38,"v","Warthog",13,-25.12,31.92,391119.44,7221329.05
"13359",13359,1978,39,"v","Warthog",4,-25.14,31.21,319557.94,7218352.4
"13369",13369,1978,39,"v","Warthog",3,-25.16,31.23,321603.56,7216163.73
"13375",13375,1978,39,"v","Warthog",2,-25.1,31.21,319499.16,7222783.01
"13420",13420,1978,39,"v","Warthog",1,-25.1,31.26,324542.09,7222848.93
"13427",13427,1978,39,"v","Warthog",1,-25.1,31.28,326559.24,7222874.77
"13443",13443,1978,39,"v","Warthog",6,-25.06,31.26,324485.04,7227279.44
"13456",13456,1978,39,"v","Warthog",3,-25.01,31.28,326432.48,7232843.32
"13498",13498,1978,39,"v","Warthog",2,-25.01,31.3,328451.09,7232868.8
"13506",13506,1978,39,"v","Warthog",4,-25.03,31.32,330497.17,7230678.78
"13522",13522,1978,39,"v","Warthog",2,-25.06,31.34,332556.19,7227380.9
"13538",13538,1978,39,"v","Warthog",5,-25.01,31.34,332488.27,7232918.86
"13543",13543,1978,39,"v","Warthog",2,-25.03,31.36,334533.67,7230728.28
"13545",13545,1978,39,"v","Warthog",4,-24.97,31.34,332434.03,7237349.2
"13595",13595,1978,40,"v","Warthog",4,-25.26,31.26,324771.15,7205126.67
"13608",13608,1978,40,"v","Warthog",1,-25.22,31.26,324713.76,7209557.27
"13614",13614,1978,40,"v","Warthog",4,-25.22,31.28,326728.93,7209583.2
"13683",13683,1978,40,"v","Warthog",5,-25.22,31.3,328744.09,7209608.84
"13697",13697,1978,40,"v","Warthog",2,-25.24,31.3,328772.12,7207393.57
"13715",13715,1978,40,"v","Warthog",1,-25.2,31.32,330731.57,7211849.42
"13778",13778,1978,41,"v","Warthog",4,-25.12,31.36,334654.63,7220759.97
"13787",13787,1978,41,"v","Warthog",1,-25.26,31.38,336858.04,7205277.95
"13810",13810,1978,41,"v","Warthog",4,-25.18,31.4,338767.01,7214162.88
"13871",13871,1978,41,"v","Warthog",2,-25.2,31.44,342824.16,7211995.04
"13874",13874,1978,41,"v","Warthog",2,-25.14,31.42,340730.8,7218617.01
"13877",13877,1978,41,"v","Warthog",6,-25.14,31.44,342747.19,7218640.49
"13891",13891,1978,41,"v","Warthog",4,-25.12,31.44,342721.57,7220855.62
"13896",13896,1978,41,"v","Warthog",2,-25.26,31.46,344915.7,7205372.8
"13906",13906,1978,41,"v","Warthog",1,-25.22,31.46,344864.92,7209803.11
"13930",13930,1978,41,"v","Warthog",4,-25.14,31.48,346779.93,7218686.55
"13951",13951,1978,41,"v","Warthog",3,-25.22,31.51,349902.51,7209859.88
"13957",13957,1978,41,"v","Warthog",2,-25.2,31.51,349877.97,7212074.99
"13971",13971,1978,41,"v","Warthog",3,-25.1,31.51,349755.53,7223150.48
"13975",13975,1978,41,"v","Warthog",3,-25.12,31.51,349779.98,7220935.4
"13992",13992,1978,42,"v","Warthog",6,-25.24,31.51,349927.07,7207644.76
"13997",13997,1978,42,"v","Warthog",4,-25.24,31.53,351941.76,7207666.95
"14007",14007,1978,42,"v","Warthog",4,-25.1,31.53,351772.52,7223172.59
"14011",14011,1978,42,"v","Warthog",14,-25.12,31.53,351796.65,7220957.52
"14023",14023,1978,42,"v","Warthog",3,-25.26,31.55,353980.35,7205473.75
"14033",14033,1978,42,"v","Warthog",8,-25.22,31.55,353932.53,7209903.94
"14043",14043,1978,42,"v","Warthog",1,-25.24,31.57,355971.1,7207710.45
"14052",14052,1978,42,"v","Warthog",5,-25.18,31.57,355900.44,7214355.68
"14069",14069,1978,42,"v","Warthog",1,-25.16,31.55,353860.94,7216549.2
"14075",14075,1978,42,"v","Warthog",5,-25.1,31.55,353789.5,7223194.4
"14080",14080,1978,42,"v","Warthog",4,-25.1,31.57,355806.47,7223215.91
"14086",14086,1978,42,"v","Warthog",5,-25.12,31.57,355829.94,7221000.86
"14090",14090,1978,42,"v","Warthog",7,-25.06,31.55,353741.97,7227624.5
"14094",14094,1978,42,"v","Warthog",6,-25.08,31.55,353765.73,7225409.45
"14115",14115,1978,42,"v","Warthog",1,-25.22,31.59,357962.51,7209946.81
"14122",14122,1978,42,"v","Warthog",5,-25.18,31.59,357916.08,7214376.93
"14125",14125,1978,42,"v","Warthog",2,-25.2,31.59,357939.29,7212161.88
"14129",14129,1978,42,"v","Warthog",2,-25.14,31.59,357869.72,7218807.04
"14132",14132,1978,42,"v","Warthog",5,-25.16,31.59,357892.89,7216591.99
"14138",14138,1978,42,"v","Warthog",8,-25.12,31.59,357846.57,7221022.08
"14142",14142,1978,42,"v","Warthog",1,-25.08,31.59,357800.31,7225452.15
"14144",14144,1978,43,"v","Warthog",3,-25.01,31.36,334506.85,7232943.44
"14148",14148,1978,43,"v","Warthog",4,-25.06,31.4,338609.41,7227453.86
"14161",14161,1978,43,"v","Warthog",1,-24.97,31.38,336472.47,7237398.01
"14168",14168,1978,43,"v","Warthog",2,-25.1,31.44,342695.97,7223070.76
"14172",14172,1978,43,"v","Warthog",5,-25.06,31.42,340627.12,7227477.58
"14176",14176,1978,43,"v","Warthog",18,-25.06,31.44,342644.83,7227501.01
"14187",14187,1978,43,"v","Warthog",2,-25.01,31.42,340562.48,7233015.4
"14199",14199,1978,43,"v","Warthog",6,-25.03,31.44,342606.52,7230823.68
"14206",14206,1978,43,"v","Warthog",4,-24.99,31.44,342555.51,7235253.89
"14214",14214,1978,43,"v","Warthog",6,-25.06,31.48,346680.19,7227546.96
"14219",14219,1978,43,"v","Warthog",9,-25.08,31.46,344687.75,7225309.02
"14223",14223,1978,43,"v","Warthog",2,-25.08,31.48,346705.1,7225331.87
"14230",14230,1978,43,"v","Warthog",2,-25.01,31.48,346618.01,7233084.67
"14232",14232,1978,43,"v","Warthog",1,-25.03,31.46,344624.7,7230846.79
"14237",14237,1978,43,"v","Warthog",2,-24.99,31.46,344574.35,7235276.97
"14245",14245,1978,43,"v","Warthog",4,-25.06,31.51,349706.69,7227580.64
"14250",14250,1978,43,"v","Warthog",1,-25.06,31.53,351724.34,7227602.72
"14258",14258,1978,43,"v","Warthog",3,-25.01,31.51,349645.73,7233118.31
"14261",14261,1978,43,"v","Warthog",3,-25.01,31.53,351664.2,7233140.35
"14265",14265,1978,43,"v","Warthog",10,-25.03,31.51,349670.1,7230903.24
"14268",14268,1978,43,"v","Warthog",10,-25.03,31.53,351688.24,7230925.31
"14271",14271,1978,43,"v","Warthog",1,-24.97,31.53,351616.17,7237570.44
"14279",14279,1978,43,"v","Warthog",2,-25.01,31.55,353682.65,7233162.1
"14282",14282,1978,43,"v","Warthog",10,-25.01,31.57,355701.1,7233183.56
"14286",14286,1978,43,"v","Warthog",2,-25.03,31.57,355724.48,7230968.53
"14290",14290,1978,43,"v","Warthog",5,-24.99,31.55,353658.96,7235377.13
"14301",14301,1978,47,"v","Warthog",2,-22.7,31.13,307914.54,7488479.56
"14304",14304,1978,47,"v","Warthog",3,-22.7,31.15,309969.44,7488505.31
"14334",14334,1978,47,"v","Warthog",3,-22.76,31.21,316214.26,7481936.86
"14369",14369,1978,47,"v","Warthog",1,-22.78,31.28,323428.71,7479807.44
"14384",14384,1978,47,"v","Warthog",1,-22.76,31.3,325456.85,7482045.8
"14453",14453,1978,48,"v","Warthog",6,-22.87,31.32,327649.24,7469888.87
"14462",14462,1978,48,"v","Warthog",1,-22.83,31.32,327598.79,7474318.11
"14467",14467,1978,48,"v","Warthog",1,-22.89,31.34,329726.4,7467697.51
"14468",14468,1978,48,"v","Warthog",5,-22.89,31.36,331778.28,7467720.5
"14469",14469,1978,48,"v","Warthog",2,-22.85,31.34,329676.51,7472126.73
"14489",14489,1978,48,"v","Warthog",2,-22.78,31.34,329589.41,7479877.82
"14502",14502,1978,48,"v","Warthog",5,-22.87,31.38,333805.8,7469957.79
"14518",14518,1978,48,"v","Warthog",2,-22.72,31.38,333623.81,7486567
"14548",14548,1978,49,"v","Warthog",3,-22.93,31.26,321571.09,7463173.39
"14569",14569,1978,49,"v","Warthog",1,-23.03,31.34,329901.65,7452195.07
"14586",14586,1978,49,"v","Warthog",2,-22.93,31.36,331827.65,7463291.29
"14609",14609,1978,49,"v","Warthog",6,-22.91,31.38,333854.52,7465528.62
"14618",14618,1978,49,"v","Warthog",2,-22.99,31.42,338052.89,7456714.96
"14632",14632,1978,49,"v","Warthog",4,-23.01,31.46,342176.78,7454544.02
"14703",14703,1978,50,"v","Warthog",4,-23.01,31.48,344226.78,7454565.42
"14705",14705,1978,50,"v","Warthog",2,-23.03,31.46,342200.07,7452329.46
"14710",14710,1978,50,"v","Warthog",2,-23.03,31.48,344249.75,7452350.88
"14715",14715,1978,50,"v","Warthog",5,-23.14,31.51,347448.48,7440202.51
"14785",14785,1978,52,"v","Warthog",5,-23.14,31.19,314678.83,7439831.55
"14814",14814,1978,52,"v","Warthog",2,-23.14,31.21,316727.04,7439856.85
"14845",14845,1978,52,"v","Warthog",4,-23.08,31.28,323817.36,7446587.32
"14852",14852,1978,52,"v","Warthog",3,-23.16,31.3,325969.66,7437752.48
"14861",14861,1978,52,"v","Warthog",2,-23.1,31.32,327940.94,7444420.32
"14867",14867,1978,52,"v","Warthog",3,-23.12,31.32,327966.43,7442205.63
"14891",14891,1978,52,"v","Warthog",2,-23.08,31.36,332013.5,7446681.56
"14918",14918,1978,53,"v","Warthog",2,-23.08,30.92,286931.6,7446107.64
"14946",14946,1978,53,"v","Warthog",4,-23.1,30.98,293110.25,7443978.93
"14958",14958,1978,53,"v","Warthog",1,-23.08,30.96,291030.29,7446165.43
"14970",14970,1978,53,"v","Warthog",4,-23.03,30.96,290953.05,7451702.91
"14985",14985,1978,53,"v","Warthog",1,-23.16,31.03,298322.49,7437404.11
"14991",14991,1978,53,"v","Warthog",2,-23.1,31.03,298232.71,7444048.93
"15006",15006,1978,53,"v","Warthog",5,-23.08,31.03,298202.83,7446263.87
"15011",15011,1978,53,"v","Warthog",2,-23.01,31.01,296048.11,7453988.38
"15024",15024,1978,53,"v","Warthog",2,-22.99,31.03,298068.68,7456231
"15035",15035,1978,53,"v","Warthog",1,-23.16,31.07,302418.55,7437458.96
"15042",15042,1978,53,"v","Warthog",2,-23.1,31.07,302330.6,7444103.67
"15043",15043,1978,53,"v","Warthog",2,-23.12,31.05,300311.26,7441861.53
"15047",15047,1978,53,"v","Warthog",1,-23.12,31.07,302359.89,7441888.77
"15051",15051,1978,53,"v","Warthog",1,-23.08,31.05,300252.08,7446291.36
"15062",15062,1978,53,"v","Warthog",3,-23.03,31.07,302228.25,7451855.79
"15111",15111,1978,53,"v","Warthog",3,-23.08,31.13,308448.94,7446398.52
"15114",15114,1978,53,"v","Warthog",2,-23.08,31.15,310498.12,7446424.6
"15168",15168,1978,54,"v","Warthog",2,-22.97,31.03,298038.93,7458445.9
"15184",15184,1978,54,"v","Warthog",4,-22.91,31.01,295898,7465062.98
"15194",15194,1978,54,"v","Warthog",4,-22.99,31.05,300119.3,7456258.41
"15195",15195,1978,54,"v","Warthog",1,-22.99,31.07,302169.9,7456285.54
"15205",15205,1978,54,"v","Warthog",4,-22.95,31.05,300060.44,7460688.18
"15216",15216,1978,54,"v","Warthog",7,-22.91,31.07,302053.49,7465144.98
"15218",15218,1978,54,"v","Warthog",2,-23.01,31.09,304249.35,7454097.53
"15224",15224,1978,54,"v","Warthog",2,-22.97,31.11,306242.53,7458553.79
"15227",15227,1978,54,"v","Warthog",1,-22.99,31.09,304220.49,7456312.39
"15237",15237,1978,54,"v","Warthog",6,-23.01,31.13,308349.87,7454150.42
"15240",15240,1978,54,"v","Warthog",2,-23.01,31.15,310400.1,7454176.45
"15242",15242,1978,54,"v","Warthog",7,-23.03,31.15,310428.08,7451961.64
"15252",15252,1978,54,"v","Warthog",8,-22.93,31.13,308236.99,7463009.67
"15255",15255,1978,54,"v","Warthog",2,-22.93,31.15,310288.43,7463035.63
"15271",15271,1978,54,"v","Warthog",3,-23.03,31.19,314527.89,7452012.89
"15279",15279,1978,54,"v","Warthog",7,-22.93,31.19,314391.27,7463086.7
"15285",15285,1978,54,"v","Warthog",3,-23.06,31.21,316618.42,7448715.95
"15297",15297,1978,54,"v","Warthog",4,-23.03,31.21,316577.78,7452038.09
"15320",15320,1978,54,"v","Warthog",4,-23.01,31.28,323726.24,7454338.79
"15324",15324,1978,54,"v","Warthog",2,-23.03,31.26,321702.42,7452099.87
"15329",15329,1978,54,"v","Warthog",4,-23.01,31.3,325776.36,7454362.71
"15340",15340,1978,55,"v","Warthog",1,-22.83,30.98,292698.76,7473880.73
"15356",15356,1978,55,"v","Warthog",1,-22.83,31.01,295778.37,7473922.56
"15374",15374,1978,55,"v","Warthog",2,-22.74,31.03,297698.65,7483916.96
"15385",15385,1978,55,"v","Warthog",3,-22.87,31.07,301995.43,7469574.67
"15388",15388,1978,55,"v","Warthog",7,-22.81,31.05,299855.2,7476192.21
"15400",15400,1978,55,"v","Warthog",1,-22.78,31.05,299811.38,7479514.47
"15403",15403,1978,55,"v","Warthog",1,-22.78,31.07,301865.15,7479541.41
"15426",15426,1978,55,"v","Warthog",2,-22.78,31.09,303918.9,7479568.06
"15445",15445,1978,55,"v","Warthog",4,-22.81,31.15,310121.62,7476324.24
"15472",15472,1978,55,"v","Warthog",2,-22.87,31.19,314309.57,7469730.92
"15484",15484,1978,55,"v","Warthog",2,-22.76,31.17,312106.34,7481886.64
