"","ID","Year","Cenb","Sp","Description","No","Lat","Long","X.coord","Y.coord"
"15503",15503,1979,1,"ko","Kudu",8,-23.87,31.57,354397.19,7359430.77
"15508",15508,1979,1,"ko","Kudu",7,-24.06,31.59,356644.22,7338411.36
"15524",15524,1979,1,"ko","Kudu",3,-23.93,31.61,358535.86,7352827.28
"15527",15527,1979,1,"ko","Kudu",3,-23.95,31.59,356522.25,7350592.38
"15528",15528,1979,1,"ko","Kudu",12,-23.95,31.61,358557.67,7350612.57
"15533",15533,1979,1,"ko","Kudu",3,-23.91,31.59,356478.03,7355021.8
"15535",15535,1979,1,"ko","Kudu",3,-23.91,31.61,358514.07,7355041.97
"15543",15543,1979,1,"ko","Kudu",12,-23.87,31.59,356433.87,7359451.2
"15549",15549,1979,1,"ko","Kudu",2,-24.01,31.63,360657.65,7343988.38
"15569",15569,1979,1,"ko","Kudu",5,-23.95,31.63,360593.07,7350632.48
"15576",15576,1979,1,"ko","Kudu",8,-23.89,31.63,360528.64,7357276.53
"15581",15581,1979,1,"ko","Kudu",2,-23.91,31.63,360550.1,7355061.85
"15591",15591,1979,1,"ko","Kudu",2,-23.87,31.63,360507.2,7359491.2
"15593",15593,1979,1,"ko","Kudu",5,-24.06,31.67,364778.9,7338490.67
"15598",15598,1979,1,"ko","Kudu",6,-24.06,31.69,366812.54,7338509.78
"15616",15616,1979,1,"ko","Kudu",8,-24.03,31.69,366781.58,7341831.8
"15625",15625,1979,1,"ko","Kudu",10,-23.99,31.67,364705.63,7346242.08
"15630",15630,1979,1,"ko","Kudu",8,-23.99,31.69,366740.37,7346261.14
"15642",15642,1979,1,"ko","Kudu",4,-23.91,31.69,366658.13,7355119.76
"15645",15645,1979,1,"ko","Kudu",3,-24.06,31.71,368846.16,7338528.59
"15653",15653,1979,1,"ko","Kudu",3,-24.06,31.73,370879.78,7338547.12
"15660",15660,1979,1,"ko","Kudu",5,-24.01,31.71,368795.38,7344065.26
"15664",15664,1979,1,"ko","Kudu",4,-24.01,31.73,370829.79,7344083.75
"15671",15671,1979,1,"ko","Kudu",5,-24.03,31.71,368815.68,7341850.6
"15682",15682,1979,1,"ko","Kudu",13,-23.97,31.71,368754.83,7348494.56
"15686",15686,1979,1,"ko","Kudu",6,-23.97,31.73,370789.87,7348513.04
"15691",15691,1979,1,"ko","Kudu",22,-23.99,31.71,368775.1,7346279.91
"15696",15696,1979,1,"ko","Kudu",6,-23.99,31.73,370809.82,7346298.4
"15700",15700,1979,1,"ko","Kudu",5,-23.93,31.71,368714.34,7352923.85
"15707",15707,1979,1,"ko","Kudu",9,-23.97,31.76,373842.4,7348540.21
"15711",15711,1979,1,"ko","Kudu",6,-23.97,31.78,375877.41,7348557.96
"15716",15716,1979,1,"ko","Kudu",5,-23.99,31.76,373861.88,7346325.58
"15720",15720,1979,1,"ko","Kudu",7,-23.99,31.78,375896.58,7346343.35
"15723",15723,1979,1,"ko","Kudu",3,-23.99,31.8,377931.26,7346360.82
"15728",15728,1979,1,"ko","Kudu",4,-23.99,31.82,379965.94,7346378
"15734",15734,1979,2,"ko","Kudu",17,-24.06,31.38,335289.79,7338181.1
"15741",15741,1979,2,"ko","Kudu",2,-24.08,31.4,337348.84,7335989.53
"15745",15745,1979,2,"ko","Kudu",4,-24.01,31.38,335226,7343718.31
"15759",15759,1979,2,"ko","Kudu",5,-23.97,31.38,335175.07,7348148.05
"15763",15763,1979,2,"ko","Kudu",1,-23.99,31.38,335200.52,7345933.18
"15765",15765,1979,2,"ko","Kudu",18,-23.99,31.4,337235.44,7345956.44
"15767",15767,1979,2,"ko","Kudu",9,-23.93,31.38,335124.21,7352577.78
"15775",15775,1979,2,"ko","Kudu",5,-23.95,31.4,337185.18,7350386.14
"15780",15780,1979,2,"ko","Kudu",3,-23.91,31.38,335098.81,7354792.63
"15783",15783,1979,2,"ko","Kudu",6,-23.91,31.4,337134.99,7354815.83
"15785",15785,1979,2,"ko","Kudu",3,-24.06,31.42,339357.41,7338227.42
"15790",15790,1979,2,"ko","Kudu",2,-24.01,31.42,339295.2,7343764.56
"15793",15793,1979,2,"ko","Kudu",12,-24.01,31.44,341329.78,7343787.25
"15805",15805,1979,2,"ko","Kudu",4,-23.97,31.42,339245.52,7348194.24
"15826",15826,1979,2,"ko","Kudu",7,-23.89,31.44,341182.86,7357076.16
"15834",15834,1979,2,"ko","Kudu",7,-23.91,31.44,341207.3,7354861.35
"15841",15841,1979,2,"ko","Kudu",4,-23.97,31.46,343315.92,7348239.28
"15848",15848,1979,2,"ko","Kudu",2,-23.99,31.48,345374.99,7346046.57
"15853",15853,1979,2,"ko","Kudu",4,-23.93,31.48,345303.39,7352690.94
"15858",15858,1979,2,"ko","Kudu",2,-23.95,31.48,345327.24,7350476.16
"15881",15881,1979,2,"ko","Kudu",8,-24.06,31.51,348509.36,7338327.41
"15888",15888,1979,2,"ko","Kudu",6,-24.01,31.53,350485.22,7343885.78
"15903",15903,1979,2,"ko","Kudu",7,-23.99,31.53,350462.11,7346100.55
"15910",15910,1979,2,"ko","Kudu",4,-23.93,31.53,350392.86,7352744.82
"15917",15917,1979,2,"ko","Kudu",12,-23.89,31.51,348310.39,7357153
"15927",15927,1979,2,"ko","Kudu",6,-23.91,31.51,348333.73,7354938.25
"15934",15934,1979,2,"ko","Kudu",5,-23.87,31.51,348287.07,7359367.76
"15939",15939,1979,2,"ko","Kudu",6,-23.87,31.53,350323.79,7359389.05
"15944",15944,1979,2,"ko","Kudu",4,-24.06,31.57,354610.53,7338390.8
"15948",15948,1979,2,"ko","Kudu",6,-24.01,31.55,352519.73,7343906.88
"15951",15951,1979,2,"ko","Kudu",4,-24.01,31.57,354554.23,7343927.69
"15955",15955,1979,2,"ko","Kudu",6,-24.03,31.55,352542.55,7341692.11
"15964",15964,1979,2,"ko","Kudu",4,-23.97,31.55,352474.15,7348336.38
"15969",15969,1979,2,"ko","Kudu",18,-23.99,31.55,352496.93,7346121.63
"15986",15986,1979,3,"ko","Kudu",9,-23.97,31.19,315839.64,7347912.86
"16003",16003,1979,3,"ko","Kudu",2,-23.95,31.19,315811.21,7350127.87
"16014",16014,1979,3,"ko","Kudu",5,-23.91,31.17,313718.1,7354531.65
"16038",16038,1979,3,"ko","Kudu",1,-24.03,31.21,317959.47,7341293.82
"16044",16044,1979,3,"ko","Kudu",6,-24.03,31.23,319993.88,7341319.57
"16052",16052,1979,3,"ko","Kudu",4,-23.99,31.23,319938.18,7345749.56
"16060",16060,1979,3,"ko","Kudu",4,-23.95,31.21,317846.9,7350153.84
"16086",16086,1979,3,"ko","Kudu",1,-24.1,31.26,323141.5,7333605.2
"16090",16090,1979,3,"ko","Kudu",3,-24.1,31.28,325174.77,7333630.28
"16095",16095,1979,3,"ko","Kudu",4,-24.06,31.26,323086.6,7338035.18
"16099",16099,1979,3,"ko","Kudu",8,-24.08,31.26,323114.04,7335820.19
"16106",16106,1979,3,"ko","Kudu",5,-24.01,31.26,323018.08,7343572.62
"16111",16111,1979,3,"ko","Kudu",2,-24.01,31.28,325052.77,7343597.62
"16126",16126,1979,3,"ko","Kudu",5,-23.99,31.28,325025.72,7345812.57
"16137",16137,1979,3,"ko","Kudu",3,-23.95,31.28,324971.67,7350242.46
"16141",16141,1979,3,"ko","Kudu",8,-23.89,31.26,322854.2,7356862.34
"16163",16163,1979,3,"ko","Kudu",3,-24.08,31.3,327181.19,7335870.02
"16183",16183,1979,3,"ko","Kudu",10,-23.97,31.3,327033.99,7348052.2
"16192",16192,1979,3,"ko","Kudu",1,-23.99,31.3,327060.71,7345837.27
"16196",16196,1979,3,"ko","Kudu",3,-23.99,31.32,329095.68,7345861.69
"16201",16201,1979,3,"ko","Kudu",8,-23.93,31.32,329016.54,7352506.41
"16205",16205,1979,3,"ko","Kudu",3,-23.95,31.32,329042.9,7350291.51
"16215",16215,1979,3,"ko","Kudu",3,-23.91,31.32,328990.2,7354721.31
"16219",16219,1979,3,"ko","Kudu",11,-23.87,31.3,326900.72,7359126.77
"16224",16224,1979,3,"ko","Kudu",3,-23.87,31.32,328937.58,7359151.09
"16229",16229,1979,3,"ko","Kudu",5,-24.06,31.34,331222.11,7338133.62
"16233",16233,1979,3,"ko","Kudu",9,-24.08,31.34,331248.29,7335918.7
"16237",16237,1979,3,"ko","Kudu",7,-24.08,31.36,333281.82,7335942.6
"16241",16241,1979,3,"ko","Kudu",12,-24.01,31.34,331156.75,7343670.9
"16252",16252,1979,3,"ko","Kudu",8,-23.97,31.34,331104.56,7348100.71
"16264",16264,1979,3,"ko","Kudu",14,-23.93,31.34,331052.44,7352530.49
"16265",16265,1979,3,"ko","Kudu",10,-23.95,31.34,331078.49,7350315.6
"16269",16269,1979,3,"ko","Kudu",8,-23.87,31.34,330974.42,7359175.12
"16285",16285,1979,4,"ko","Kudu",2,-23.68,31.15,311349.8,7379977.68
"16302",16302,1979,4,"ko","Kudu",2,-23.85,31.19,315669.42,7361202.86
"16327",16327,1979,4,"ko","Kudu",11,-23.78,31.17,313532.13,7368929.15
"16331",16331,1979,4,"ko","Kudu",1,-23.78,31.19,315570.5,7368955.27
"16338",16338,1979,4,"ko","Kudu",1,-23.74,31.17,313475.11,7373359.11
"16349",16349,1979,4,"ko","Kudu",6,-23.7,31.19,315457.78,7377815.09
"16355",16355,1979,4,"ko","Kudu",4,-23.85,31.21,317706.67,7361228.74
"16366",16366,1979,4,"ko","Kudu",2,-23.81,31.21,317650.74,7365658.67
"16370",16370,1979,4,"ko","Kudu",3,-23.81,31.23,319688.6,7365684.23
"16375",16375,1979,4,"ko","Kudu",17,-23.83,31.21,317678.69,7363443.71
"16384",16384,1979,4,"ko","Kudu",3,-23.76,31.23,319619.59,7371221.57
"16389",16389,1979,4,"ko","Kudu",2,-23.78,31.21,317608.85,7368981.1
"16402",16402,1979,4,"ko","Kudu",3,-23.72,31.23,319564.48,7375651.42
"16414",16414,1979,4,"ko","Kudu",8,-23.7,31.21,317497.38,7377840.85
"16432",16432,1979,4,"ko","Kudu",4,-23.83,31.28,324810.06,7363531.99
"16437",16437,1979,4,"ko","Kudu",3,-23.76,31.26,322677.53,7371259.32
"16447",16447,1979,4,"ko","Kudu",3,-23.72,31.26,322623.35,7375689.12
"16481",16481,1979,4,"ko","Kudu",2,-23.83,31.32,328885.05,7363580.85
"16491",16491,1979,4,"ko","Kudu",1,-23.78,31.32,328819.49,7369118.02
"16496",16496,1979,4,"ko","Kudu",3,-23.72,31.3,326701.8,7375738.38
"16501",16501,1979,4,"ko","Kudu",10,-23.72,31.32,328741,7375762.59
"16510",16510,1979,4,"ko","Kudu",11,-23.74,31.32,328767.15,7373547.74
"16528",16528,1979,4,"ko","Kudu",5,-23.78,31.34,330857.75,7369141.99
"16544",16544,1979,5,"ko","Kudu",3,-23.81,31.38,334972.12,7365866.82
"16547",16547,1979,5,"ko","Kudu",8,-23.81,31.4,337009.86,7365889.94
"16564",16564,1979,5,"ko","Kudu",5,-23.78,31.4,336972.42,7369212.15
"16568",16568,1979,5,"ko","Kudu",1,-23.85,31.42,339096.96,7361483.17
"16576",16576,1979,5,"ko","Kudu",5,-23.83,31.42,339072.27,7363697.98
"16579",16579,1979,5,"ko","Kudu",4,-23.83,31.44,341109.67,7363720.54
"16595",16595,1979,5,"ko","Kudu",4,-23.78,31.44,341048.8,7369257.49
"16603",16603,1979,5,"ko","Kudu",2,-23.81,31.46,343123.01,7365957.58
"16608",16608,1979,5,"ko","Kudu",2,-23.81,31.48,345160.7,7365979.56
"16639",16639,1979,5,"ko","Kudu",15,-23.76,31.51,348159.13,7371548.79
"16647",16647,1979,5,"ko","Kudu",5,-23.85,31.57,354374.82,7361645.48
"16652",16652,1979,5,"ko","Kudu",4,-23.81,31.55,352292.52,7366054.19
"16656",16656,1979,5,"ko","Kudu",7,-23.81,31.57,354330.15,7366074.87
"16676",16676,1979,6,"ko","Kudu",1,-23.6,31.32,328584.59,7389051.57
"16680",16680,1979,6,"ko","Kudu",7,-23.62,31.32,328610.61,7386836.75
"16682",16682,1979,6,"ko","Kudu",3,-23.58,31.32,328558.59,7391266.38
"16684",16684,1979,6,"ko","Kudu",3,-23.68,31.36,332768.39,7380239.75
"16688",16688,1979,6,"ko","Kudu",3,-23.7,31.34,330754.38,7378001.33
"16704",16704,1979,6,"ko","Kudu",8,-23.56,31.36,332615.95,7393528.49
"16707",16707,1979,6,"ko","Kudu",1,-23.58,31.34,330599.95,7391290.19
"16719",16719,1979,6,"ko","Kudu",5,-23.74,31.4,336922.57,7373641.74
"16730",16730,1979,6,"ko","Kudu",2,-23.66,31.38,334783.03,7382477.85
"16733",16733,1979,6,"ko","Kudu",18,-23.6,31.38,334707.7,7389122.18
"16736",16736,1979,6,"ko","Kudu",6,-23.6,31.4,336748.71,7389145.15
"16745",16745,1979,6,"ko","Kudu",4,-23.56,31.38,334657.59,7393551.71
"16749",16749,1979,6,"ko","Kudu",5,-23.56,31.4,336699.22,7393574.65
"16752",16752,1979,6,"ko","Kudu",11,-23.58,31.38,334682.64,7391336.95
"16761",16761,1979,6,"ko","Kudu",5,-23.7,31.42,338912.24,7378094.07
"16762",16762,1979,6,"ko","Kudu",6,-23.7,31.44,340951.67,7378116.54
"16772",16772,1979,6,"ko","Kudu",8,-23.6,31.42,338789.71,7389167.83
"16775",16775,1979,6,"ko","Kudu",10,-23.6,31.44,340830.7,7389190.23
"16779",16779,1979,6,"ko","Kudu",5,-23.62,31.42,338814.18,7386953.09
"16781",16781,1979,6,"ko","Kudu",4,-23.62,31.44,340854.85,7386975.5
"16786",16786,1979,6,"ko","Kudu",6,-23.56,31.42,338740.84,7393597.3
"16790",16790,1979,6,"ko","Kudu",6,-23.56,31.44,340782.44,7393619.67
"16803",16803,1979,6,"ko","Kudu",4,-23.53,31.42,338704.23,7396919.39
"16816",16816,1979,6,"ko","Kudu",18,-23.64,31.46,342919.38,7384782.91
"16819",16819,1979,6,"ko","Kudu",11,-23.66,31.46,342943.26,7382568.18
"16832",16832,1979,7,"ko","Kudu",3,-23.66,31.19,315401.56,7382244.97
"16837",16837,1979,7,"ko","Kudu",4,-23.68,31.23,319509.46,7380081.24
"16840",16840,1979,7,"ko","Kudu",8,-23.7,31.23,319536.96,7377866.33
"16871",16871,1979,7,"ko","Kudu",8,-23.62,31.26,322488.29,7386763.52
"16873",16873,1979,7,"ko","Kudu",2,-23.7,31.3,326675.37,7377953.24
"16877",16877,1979,8,"ko","Kudu",3,-23.47,31.23,319222.02,7403337.48
"16889",16889,1979,8,"ko","Kudu",8,-23.53,31.26,322367.2,7396730.37
"16905",16905,1979,8,"ko","Kudu",5,-23.45,31.26,322259.92,7405589.71
"16917",16917,1979,8,"ko","Kudu",14,-23.56,31.3,326490.93,7393457.11
"16919",16919,1979,8,"ko","Kudu",9,-23.56,31.32,328532.62,7393481.19
"16923",16923,1979,8,"ko","Kudu",4,-23.51,31.3,326425.31,7398994.15
"16930",16930,1979,8,"ko","Kudu",8,-23.53,31.32,328493.69,7396803.39
"16938",16938,1979,8,"ko","Kudu",7,-23.49,31.3,326399.1,7401208.95
"16941",16941,1979,8,"ko","Kudu",1,-23.49,31.32,328441.87,7401232.97
"16944",16944,1979,8,"ko","Kudu",4,-23.43,31.3,326320.59,7407853.33
"16964",16964,1979,8,"ko","Kudu",3,-23.51,31.36,332552.64,7399065.41
"16968",16968,1979,8,"ko","Kudu",3,-23.53,31.34,330535.83,7396827.16
"16987",16987,1979,8,"ko","Kudu",5,-23.41,31.34,330382.45,7410115.75
"16991",16991,1979,8,"ko","Kudu",1,-23.51,31.38,334595.06,7399088.59
"16998",16998,1979,8,"ko","Kudu",4,-23.51,31.4,336637.46,7399111.49
"17002",17002,1979,8,"ko","Kudu",3,-23.53,31.38,334620.06,7396873.84
"17011",17011,1979,9,"ko","Kudu",3,-23.6,31.11,307152.64,7388784.17
"17022",17022,1979,9,"ko","Kudu",3,-23.51,31.11,307021.2,7398751.57
"17041",17041,1979,9,"ko","Kudu",5,-23.58,31.13,309164.91,7391025.96
"17062",17062,1979,9,"ko","Kudu",3,-23.47,31.15,311049.36,7403234.62
"17078",17078,1979,9,"ko","Kudu",4,-23.58,31.17,313247.91,7391078.72
"17081",17081,1979,9,"ko","Kudu",6,-23.58,31.19,315289.38,7391104.67
"17082",17082,1979,9,"ko","Kudu",2,-23.51,31.17,313148.96,7398830.95
"17086",17086,1979,9,"ko","Kudu",4,-23.51,31.19,315191.52,7398856.84
"17093",17093,1979,9,"ko","Kudu",4,-23.53,31.19,315219.45,7396641.94
"17098",17098,1979,9,"ko","Kudu",2,-23.47,31.17,313092.55,7403260.76
"17102",17102,1979,9,"ko","Kudu",5,-23.47,31.19,315135.72,7403286.62
"17116",17116,1979,9,"ko","Kudu",11,-23.56,31.23,319344.91,7393370.59
"17126",17126,1979,9,"ko","Kudu",6,-23.53,31.21,317261.68,7396667.56
"17129",17129,1979,9,"ko","Kudu",7,-23.53,31.23,319303.9,7396692.9
"17175",17175,1979,10,"ko","Kudu",4,-23.37,31.05,300683.29,7414174.63
"17190",17190,1979,10,"ko","Kudu",5,-23.33,31.07,302668.94,7418632.02
"17193",17193,1979,10,"ko","Kudu",2,-23.28,31.05,300548.92,7424142
"17212",17212,1979,10,"ko","Kudu",2,-23.35,31.11,306788.69,7416471.12
"17228",17228,1979,10,"ko","Kudu",1,-23.43,31.15,310992.42,7407664.45
"17231",17231,1979,10,"ko","Kudu",5,-23.39,31.13,308891.13,7412067.91
"17251",17251,1979,10,"ko","Kudu",4,-23.39,31.17,312979.99,7412120.34
"17261",17261,1979,10,"ko","Kudu",3,-23.37,31.17,312951.91,7414335.22
"17264",17264,1979,10,"ko","Kudu",4,-23.37,31.19,314996.62,7414360.99
"17273",17273,1979,11,"ko","Kudu",8,-23.39,31.23,319113.16,7412196.85
"17274",17274,1979,11,"ko","Kudu",7,-23.41,31.21,317096.28,7409956.78
"17278",17278,1979,11,"ko","Kudu",9,-23.37,31.23,319086,7414411.68
"17282",17282,1979,11,"ko","Kudu",1,-23.22,31.21,316836.02,7430997.66
"17300",17300,1979,11,"ko","Kudu",2,-23.39,31.28,324224.03,7412258.67
"17305",17305,1979,11,"ko","Kudu",2,-23.35,31.26,322126.32,7416663.76
"17310",17310,1979,11,"ko","Kudu",5,-23.33,31.26,322099.66,7418878.55
"17318",17318,1979,11,"ko","Kudu",1,-23.18,31.28,323947.98,7435513.7
"17323",17323,1979,11,"ko","Kudu",9,-23.2,31.28,323974.17,7433298.96
"17329",17329,1979,11,"ko","Kudu",8,-23.33,31.3,326190.17,7418927.2
"17331",17331,1979,11,"ko","Kudu",2,-23.33,31.32,328235.39,7418951.1
"17339",17339,1979,11,"ko","Kudu",5,-23.24,31.3,326073.24,7428893.57
"17343",17343,1979,11,"ko","Kudu",4,-23.18,31.3,325995.52,7435537.76
"17346",17346,1979,11,"ko","Kudu",4,-23.18,31.32,328043.04,7435561.54
"17351",17351,1979,11,"ko","Kudu",4,-23.2,31.32,328068.62,7433346.83
"17360",17360,1979,12,"ko","Kudu",1,-23.24,30.98,293325.42,7428473.94
"17362",17362,1979,12,"ko","Kudu",1,-23.18,30.96,291185.26,7435090.39
"17372",17372,1979,12,"ko","Kudu",6,-23.26,31.03,298472.62,7426329.3
"17376",17376,1979,12,"ko","Kudu",2,-23.28,31.03,298502.72,7424114.32
"17389",17389,1979,12,"ko","Kudu",4,-23.2,31.01,296335.02,7432946.32
"17390",17390,1979,12,"ko","Kudu",5,-23.2,31.03,298382.47,7432974.2
"17397",17397,1979,12,"ko","Kudu",6,-23.2,31.05,300429.9,7433001.8
"17400",17400,1979,12,"ko","Kudu",3,-23.26,31.11,306658.57,7426438.23
"17407",17407,1979,12,"ko","Kudu",7,-23.22,31.11,306600.89,7430868.03
"17424",17424,1979,12,"ko","Kudu",4,-23.22,31.13,308647.95,7430894.52
"17428",17428,1979,12,"ko","Kudu",10,-23.22,31.15,310694.99,7430920.73
"17429",17429,1979,12,"ko","Kudu",5,-23.24,31.13,308676.47,7428679.64
"17442",17442,1979,12,"ko","Kudu",2,-23.22,31.17,312742.02,7430946.66
"17458",17458,1979,13,"ko","Kudu",4,-23.62,31.46,342895.51,7386997.63
"17463",17463,1979,13,"ko","Kudu",5,-23.62,31.48,344936.16,7387019.46
"17474",17474,1979,13,"ko","Kudu",12,-23.68,31.51,348066.43,7380407.62
"17491",17491,1979,13,"ko","Kudu",12,-23.78,31.57,354296.69,7369396.9
"17498",17498,1979,13,"ko","Kudu",6,-23.74,31.55,352213.42,7373805.63
"17526",17526,1979,13,"ko","Kudu",6,-23.81,31.59,356367.77,7366095.26
"17532",17532,1979,13,"ko","Kudu",18,-23.81,31.61,358405.38,7366115.37
"17540",17540,1979,13,"ko","Kudu",14,-23.83,31.61,358427.09,7363900.7
"17548",17548,1979,13,"ko","Kudu",7,-23.76,31.61,358351.2,7371652.02
"17553",17553,1979,13,"ko","Kudu",4,-23.78,31.61,358372.86,7369437.36
"17561",17561,1979,13,"ko","Kudu",6,-23.74,31.61,358329.56,7373866.67
"17604",17604,1979,13,"ko","Kudu",5,-23.62,31.61,358200.06,7387154.45
"17607",17607,1979,13,"ko","Kudu",26,-23.81,31.63,360442.98,7366135.18
"17615",17615,1979,13,"ko","Kudu",8,-23.83,31.63,360464.37,7363920.53
"17622",17622,1979,13,"ko","Kudu",7,-23.76,31.63,360389.58,7371671.8
"17628",17628,1979,13,"ko","Kudu",8,-23.78,31.63,360410.93,7369457.16
"17639",17639,1979,13,"ko","Kudu",6,-23.72,31.65,362385.92,7376120.54
"17641",17641,1979,13,"ko","Kudu",4,-23.74,31.63,360368.25,7373886.44
"17645",17645,1979,13,"ko","Kudu",7,-23.74,31.65,362406.92,7373905.92
"17648",17648,1979,13,"ko","Kudu",2,-23.68,31.63,360304.35,7380530.32
"17654",17654,1979,13,"ko","Kudu",13,-23.7,31.63,360325.63,7378315.7
"17668",17668,1979,14,"ko","Kudu",4,-23.43,31.36,332451.62,7407924.41
"17672",17672,1979,14,"ko","Kudu",10,-23.45,31.36,332476.85,7405709.67
"17695",17695,1979,14,"ko","Kudu",2,-23.47,31.42,338631.15,7403563.53
"17703",17703,1979,14,"ko","Kudu",6,-23.49,31.44,340698.18,7401371.14
"17706",17706,1979,14,"ko","Kudu",8,-23.45,31.42,338606.83,7405778.23
"17712",17712,1979,14,"ko","Kudu",5,-23.6,31.46,342871.67,7389212.34
"17730",17730,1979,14,"ko","Kudu",1,-23.58,31.48,344889.11,7391448.86
"17735",17735,1979,14,"ko","Kudu",4,-23.51,31.46,342764.59,7399178.48
"17738",17738,1979,14,"ko","Kudu",5,-23.51,31.48,344806.94,7399200.25
"17743",17743,1979,14,"ko","Kudu",6,-23.53,31.48,344830.39,7396985.57
"17747",17747,1979,14,"ko","Kudu",6,-23.47,31.46,342717.13,7403607.85
"17752",17752,1979,14,"ko","Kudu",8,-23.45,31.46,342693.42,7405822.52
"17754",17754,1979,14,"ko","Kudu",11,-23.45,31.48,344736.7,7405844.24
"17773",17773,1979,14,"ko","Kudu",7,-23.45,31.51,347801.58,7405876.28
"17781",17781,1979,15,"ko","Kudu",6,-23.31,31.34,330255.2,7421189.44
"17796",17796,1979,15,"ko","Kudu",5,-23.39,31.4,336489.75,7412399.78
"17799",17799,1979,15,"ko","Kudu",6,-23.35,31.4,336440.68,7416829.17
"17804",17804,1979,15,"ko","Kudu",6,-23.33,31.38,334371,7419021.09
"17821",17821,1979,15,"ko","Kudu",12,-23.43,31.48,344713.32,7408058.89
"17843",17843,1979,15,"ko","Kudu",16,-23.43,31.53,349822.22,7408111.91
"17845",17845,1979,15,"ko","Kudu",5,-23.39,31.51,347732.9,7412520.17
"17848",17848,1979,15,"ko","Kudu",12,-23.39,31.53,349777.06,7412541.14
"17855",17855,1979,15,"ko","Kudu",12,-23.41,31.53,349799.63,7410326.53
"17867",17867,1979,15,"ko","Kudu",6,-23.31,31.53,349686.96,7421399.52
"17893",17893,1979,18,"ko","Kudu",10,-23.24,31.34,330166.43,7428940.94
"17902",17902,1979,18,"ko","Kudu",4,-23.2,31.36,332163.01,7433393.57
"17909",17909,1979,18,"ko","Kudu",5,-23.26,31.38,334284.3,7426772.51
"17924",17924,1979,18,"ko","Kudu",2,-23.14,31.38,334136.25,7440060.5
"17934",17934,1979,18,"ko","Kudu",2,-23.1,31.38,334087.06,7444489.78
"17985",17985,1979,18,"ko","Kudu",5,-23.16,31.44,340304.14,7437912.91
"17991",17991,1979,18,"ko","Kudu",7,-23.12,31.42,338208.39,7442320.07
"17998",17998,1979,18,"ko","Kudu",4,-23.28,31.48,344538.6,7424668.63
"18007",18007,1979,18,"ko","Kudu",10,-23.2,31.48,344445.85,7433527.04
"18026",18026,1979,18,"ko","Kudu",3,-23.28,31.53,349653.25,7424721.39
"18030",18030,1979,18,"ko","Kudu",27,-23.22,31.51,347539.18,7431344.25
"18037",18037,1979,18,"ko","Kudu",18,-23.22,31.53,349585.95,7431365.1
"18048",18048,1979,18,"ko","Kudu",36,-23.2,31.51,347516.48,7433558.82
"18051",18051,1979,18,"ko","Kudu",4,-23.2,31.53,349563.55,7433579.66
"18057",18057,1979,18,"ko","Kudu",3,-23.28,31.55,351699.09,7424742
"18065",18065,1979,18,"ko","Kudu",8,-23.24,31.55,351654.81,7429171.12
"18069",18069,1979,19,"ko","Kudu",15,-23.37,31.53,349754.51,7414755.74
"18071",18071,1979,19,"ko","Kudu",12,-23.41,31.55,351843.48,7410347.22
"18073",18073,1979,19,"ko","Kudu",6,-23.31,31.55,351732.34,7421420.15
"18077",18077,1979,19,"ko","Kudu",2,-23.53,31.59,356061.39,7397100.24
"18082",18082,1979,19,"ko","Kudu",2,-23.87,31.65,362543.85,7359510.77
"18086",18086,1979,19,"ko","Kudu",5,-23.6,31.63,360219.4,7389388.75
"18090",18090,1979,19,"ko","Kudu",7,-23.62,31.63,360240.62,7387174.15
"18095",18095,1979,19,"ko","Kudu",8,-23.58,31.63,360198.21,7391603.34
"18103",18103,1979,19,"ko","Kudu",14,-23.85,31.67,364559.69,7361744.69
"18109",18109,1979,19,"ko","Kudu",2,-23.87,31.69,366617.11,7359549.04
"18126",18126,1979,19,"ko","Kudu",3,-23.93,31.73,370750.01,7352942.3
"18129",18129,1979,19,"ko","Kudu",6,-23.89,31.71,368673.92,7357353.11
"18132",18132,1979,19,"ko","Kudu",9,-23.89,31.73,370710.21,7357371.54
"18154",18154,1979,19,"ko","Kudu",5,-23.78,31.71,368563.08,7369533.48
"18157",18157,1979,19,"ko","Kudu",5,-23.93,31.76,373803.48,7352969.43
"18167",18167,1979,19,"ko","Kudu",4,-23.95,31.76,373822.93,7350754.82
"18173",18173,1979,19,"ko","Kudu",26,-23.95,31.78,375858.26,7350772.56
"18179",18179,1979,19,"ko","Kudu",11,-23.89,31.76,373764.62,7357398.64
"18180",18180,1979,19,"ko","Kudu",6,-23.91,31.76,373784.04,7355184.04
"18186",18186,1979,19,"ko","Kudu",20,-23.97,31.8,377912.41,7348575.42
"18200",18200,1979,19,"ko","Kudu",6,-23.93,31.82,379910.36,7353021.75
"18204",18204,1979,19,"ko","Kudu",4,-23.95,31.8,377893.57,7350790.01
"18211",18211,1979,19,"ko","Kudu",18,-23.95,31.82,379928.87,7350807.18
"18217",18217,1979,19,"ko","Kudu",7,-23.97,31.84,381982.38,7348609.48
"18221",18221,1979,19,"ko","Kudu",13,-23.97,31.86,384017.34,7348626.07
"18228",18228,1979,19,"ko","Kudu",6,-23.95,31.84,381964.16,7350824.05
"18233",18233,1979,19,"ko","Kudu",11,-23.95,31.86,383999.45,7350840.63
"18256",18256,1979,20,"ko","Kudu",5,-24.1,31.4,337374.09,7333774.64
"18262",18262,1979,20,"ko","Kudu",4,-24.08,31.38,335315.33,7335966.21
"18269",18269,1979,20,"ko","Kudu",10,-24.1,31.44,341440.42,7333820.44
"18273",18273,1979,20,"ko","Kudu",4,-24.08,31.42,339382.32,7336012.56
"18278",18278,1979,20,"ko","Kudu",4,-24.1,31.46,343473.56,7333842.91
"18280",18280,1979,20,"ko","Kudu",8,-24.1,31.48,345506.7,7333865.08
"18284",18284,1979,20,"ko","Kudu",9,-24.06,31.48,345458.74,7338294.73
"18297",18297,1979,20,"ko","Kudu",4,-24.1,31.53,350589.48,7333919.25
"18303",18303,1979,20,"ko","Kudu",3,-24.08,31.53,350566.28,7336134.04
"18308",18308,1979,20,"ko","Kudu",3,-24.12,31.55,352645.47,7331725.62
"18316",18316,1979,20,"ko","Kudu",3,-24.06,31.61,358677.91,7338431.62
"18323",18323,1979,20,"ko","Kudu",5,-24.08,31.61,358699.83,7336216.88
"18325",18325,1979,20,"ko","Kudu",5,-24.1,31.63,360754.8,7334022.14
"18331",18331,1979,20,"ko","Kudu",22,-24.12,31.63,360776.44,7331807.41
"18336",18336,1979,20,"ko","Kudu",5,-24.06,31.63,360711.58,7338451.59
"18340",18340,1979,20,"ko","Kudu",3,-24.06,31.65,362745.24,7338471.28
"18354",18354,1979,20,"ko","Kudu",2,-24.03,31.63,360679.21,7341773.67
"18358",18358,1979,20,"ko","Kudu",8,-24.03,31.65,362713.35,7341793.34
"18376",18376,1979,21,"ko","Kudu",2,-24.14,31.48,345554.73,7329435.41
"18379",18379,1979,21,"ko","Kudu",14,-24.12,31.48,345530.71,7331650.25
"18382",18382,1979,21,"ko","Kudu",13,-24.22,31.53,350729.05,7320630.37
"18386",18386,1979,21,"ko","Kudu",16,-24.24,31.51,348721.49,7318394
"18392",18392,1979,21,"ko","Kudu",5,-24.24,31.53,350752.38,7318415.54
"18420",18420,1979,21,"ko","Kudu",3,-24.2,31.57,354768.74,7322887.36
"18421",18421,1979,21,"ko","Kudu",2,-24.16,31.57,354723.45,7327316.94
"18424",18424,1979,21,"ko","Kudu",4,-24.22,31.59,356822.58,7320693.21
"18443",18443,1979,21,"ko","Kudu",5,-24.16,31.59,356755.57,7327337.56
"18461",18461,1979,21,"ko","Kudu",14,-24.18,31.65,362873.22,7325182.93
"18473",18473,1979,22,"ko","Kudu",4,-24.43,31.38,335765.67,7297204.71
"18477",18477,1979,22,"ko","Kudu",1,-24.43,31.4,337793.61,7297228.28
"18488",18488,1979,22,"ko","Kudu",9,-24.41,31.4,337768.03,7299443.25
"18494",18494,1979,22,"ko","Kudu",8,-24.37,31.4,337716.93,7303873.18
"18499",18499,1979,22,"ko","Kudu",9,-24.43,31.42,339821.53,7297251.56
"18504",18504,1979,22,"ko","Kudu",1,-24.43,31.44,341849.44,7297274.55
"18514",18514,1979,22,"ko","Kudu",2,-24.45,31.44,341874.4,7295059.6
"18523",18523,1979,22,"ko","Kudu",12,-24.39,31.44,341799.58,7301704.43
"18530",18530,1979,22,"ko","Kudu",6,-24.41,31.42,339796.27,7299466.52
"18536",18536,1979,22,"ko","Kudu",1,-24.41,31.44,341824.5,7299489.49
"18541",18541,1979,22,"ko","Kudu",1,-24.35,31.42,339720.61,7306111.36
"18545",18545,1979,22,"ko","Kudu",5,-24.35,31.44,341749.8,7306134.29
"18555",18555,1979,22,"ko","Kudu",2,-24.37,31.44,341774.68,7303919.37
"18564",18564,1979,22,"ko","Kudu",3,-24.43,31.46,343877.34,7297297.24
"18569",18569,1979,22,"ko","Kudu",8,-24.39,31.46,343828.12,7301727.1
"18591",18591,1979,22,"ko","Kudu",11,-24.35,31.48,345808.14,7306179.28
"18601",18601,1979,22,"ko","Kudu",5,-24.31,31.46,343729.91,7310586.75
"18608",18608,1979,22,"ko","Kudu",5,-24.33,31.48,345783.92,7308394.18
"18628",18628,1979,22,"ko","Kudu",7,-24.31,31.53,350834.16,7310663.59
"18634",18634,1979,22,"ko","Kudu",3,-24.33,31.53,350857.57,7308448.73
"18644",18644,1979,22,"ko","Kudu",6,-24.41,31.57,355007.69,7299631.68
"18672",18672,1979,23,"ko","Kudu",10,-24.22,31.65,362916.01,7320753.43
"18686",18686,1979,23,"ko","Kudu",9,-24.14,31.65,362830.49,7329612.4
"18705",18705,1979,23,"ko","Kudu",3,-24.22,31.67,364947.13,7320772.92
"18713",18713,1979,23,"ko","Kudu",6,-24.2,31.67,364926.04,7322987.66
"18741",18741,1979,23,"ko","Kudu",4,-24.1,31.69,366853.86,7334080.4
"18746",18746,1979,23,"ko","Kudu",4,-24.12,31.67,364841.86,7331846.56
"18755",18755,1979,23,"ko","Kudu",13,-24.08,31.67,364799.87,7336275.97
"18762",18762,1979,23,"ko","Kudu",5,-24.08,31.69,366833.19,7336295.09
"18773",18773,1979,23,"ko","Kudu",8,-24.28,31.73,371100.92,7314185.51
"18780",18780,1979,23,"ko","Kudu",12,-24.18,31.71,368968.44,7325240.46
"18785",18785,1979,23,"ko","Kudu",17,-24.2,31.73,371020.28,7323044.35
"18798",18798,1979,23,"ko","Kudu",4,-24.16,31.73,370980.06,7327473.74
"18802",18802,1979,23,"ko","Kudu",2,-24.1,31.71,368886.86,7334099.23
"18811",18811,1979,23,"ko","Kudu",9,-24.08,31.71,368866.5,7336313.92
"18815",18815,1979,23,"ko","Kudu",10,-24.26,31.76,374126.39,7316427.64
"18829",18829,1979,24,"ko","Kudu",2,-24.33,31.59,356945.85,7308511.78
"18833",18833,1979,24,"ko","Kudu",6,-24.33,31.61,358975.25,7308532.22
"18846",18846,1979,24,"ko","Kudu",5,-24.35,31.65,363055.54,7306357.42
"18848",18848,1979,24,"ko","Kudu",1,-24.37,31.63,361048.32,7304122.76
"18854",18854,1979,24,"ko","Kudu",4,-24.33,31.63,361004.64,7308552.36
"18866",18866,1979,24,"ko","Kudu",3,-24.28,31.65,362980.32,7314109.15
"18871",18871,1979,24,"ko","Kudu",6,-24.39,31.69,367155.42,7301966.73
"18893",18893,1979,24,"ko","Kudu",8,-24.28,31.67,365010.48,7314128.68
"18895",18895,1979,24,"ko","Kudu",3,-24.28,31.69,367040.64,7314147.91
"18911",18911,1979,24,"ko","Kudu",16,-24.39,31.76,374254.75,7302031.98
"18916",18916,1979,24,"ko","Kudu",5,-24.39,31.78,376283.1,7302049.96
"18920",18920,1979,24,"ko","Kudu",14,-24.41,31.76,374274.55,7299817.24
"18928",18928,1979,24,"ko","Kudu",16,-24.28,31.76,374146.1,7314212.94
"18932",18932,1979,25,"ko","Kudu",6,-24.1,31.73,370919.85,7334117.78
"18939",18939,1979,25,"ko","Kudu",4,-24.08,31.73,370899.81,7336332.45
"18958",18958,1979,25,"ko","Kudu",4,-24.12,31.76,373988.89,7331930.4
"18963",18963,1979,25,"ko","Kudu",4,-24.12,31.78,376021.54,7331948.24
"18971",18971,1979,25,"ko","Kudu",6,-24.06,31.76,373930.19,7338574.36
"18977",18977,1979,25,"ko","Kudu",6,-24.06,31.78,375963.78,7338592.16
"18988",18988,1979,25,"ko","Kudu",5,-24.01,31.76,373881.38,7344110.96
"18992",18992,1979,25,"ko","Kudu",3,-24.01,31.78,375915.76,7344128.73
"19004",19004,1979,25,"ko","Kudu",14,-24.18,31.8,378111.11,7325321.84
"19008",19008,1979,25,"ko","Kudu",6,-24.14,31.8,378073.13,7329751.14
"19011",19011,1979,25,"ko","Kudu",6,-24.1,31.8,378035.22,7334180.42
"19035",19035,1979,25,"ko","Kudu",5,-24.06,31.82,380030.94,7338626.9
"19039",19039,1979,25,"ko","Kudu",3,-24.08,31.8,378016.29,7336395.05
"19049",19049,1979,25,"ko","Kudu",6,-24.01,31.8,377950.13,7344146.21
"19066",19066,1979,25,"ko","Kudu",2,-24.18,31.86,384206.11,7325372.83
"19083",19083,1979,25,"ko","Kudu",9,-24.1,31.84,382101.09,7334214.62
"19093",19093,1979,25,"ko","Kudu",5,-24.12,31.84,382119.41,7332000
"19122",19122,1979,25,"ko","Kudu",2,-24.01,31.84,382018.84,7344180.31
"19136",19136,1979,25,"ko","Kudu",2,-24.14,31.88,386202.31,7329818.46
"19154",19154,1979,25,"ko","Kudu",21,-24.08,31.88,386149.25,7336462.24
"19161",19161,1979,26,"ko","Kudu",6,-24.18,31.73,371000.17,7325259.05
"19169",19169,1979,26,"ko","Kudu",3,-24.37,31.78,376263.63,7304264.68
"19176",19176,1979,26,"ko","Kudu",2,-24.33,31.78,376224.74,7308694.11
"19189",19189,1979,26,"ko","Kudu",3,-24.24,31.76,374106.7,7318642.34
"19192",19192,1979,26,"ko","Kudu",7,-24.24,31.78,376137.45,7318660.24
"19197",19197,1979,26,"ko","Kudu",8,-24.18,31.78,376079.42,7325304.26
"19208",19208,1979,26,"ko","Kudu",8,-24.39,31.82,380339.78,7302085.05
"19214",19214,1979,26,"ko","Kudu",8,-24.41,31.8,378330.61,7299852.94
"19221",19221,1979,26,"ko","Kudu",26,-24.35,31.82,380302.13,7306514.45
"19223",19223,1979,26,"ko","Kudu",3,-24.37,31.8,378292.29,7304282.36
"19230",19230,1979,26,"ko","Kudu",9,-24.31,31.82,380264.54,7310943.82
"19235",19235,1979,26,"ko","Kudu",5,-24.33,31.8,378254.04,7308711.77
"19242",19242,1979,26,"ko","Kudu",13,-24.26,31.8,378187.23,7316463.18
"19247",19247,1979,26,"ko","Kudu",14,-24.28,31.8,378206.3,7314248.5
"19251",19251,1979,26,"ko","Kudu",5,-24.28,31.82,380236.39,7314265.84
"19253",19253,1979,26,"ko","Kudu",16,-24.22,31.8,378149.14,7320892.52
"19256",19256,1979,26,"ko","Kudu",16,-24.2,31.8,378130.12,7323107.18
"19259",19259,1979,26,"ko","Kudu",8,-24.2,31.82,380161.48,7323124.48
"19263",19263,1979,26,"ko","Kudu",6,-24.39,31.84,382368.1,7302102.16
"19273",19273,1979,26,"ko","Kudu",1,-24.35,31.84,382331.09,7306531.53
"19277",19277,1979,26,"ko","Kudu",20,-24.35,31.86,384360.05,7306548.33
"19283",19283,1979,26,"ko","Kudu",4,-24.37,31.84,382349.59,7304316.85
"19287",19287,1979,26,"ko","Kudu",4,-24.33,31.84,382312.61,7308746.21
"19291",19291,1979,26,"ko","Kudu",2,-24.33,31.86,384341.88,7308762.99
"19294",19294,1979,26,"ko","Kudu",7,-24.26,31.84,382248.04,7316497.54
"19298",19298,1979,26,"ko","Kudu",8,-24.26,31.86,384278.42,7316514.29
"19303",19303,1979,26,"ko","Kudu",23,-24.28,31.84,382266.47,7314282.88
"19306",19306,1979,26,"ko","Kudu",8,-24.28,31.86,384296.54,7314299.64
"19315",19315,1979,26,"ko","Kudu",5,-24.39,31.88,386424.72,7302135.49
"19325",19325,1979,26,"ko","Kudu",1,-24.35,31.88,386388.99,7306564.83
"19340",19340,1979,26,"ko","Kudu",13,-24.31,31.88,386353.32,7310994.14
"19346",19346,1979,26,"ko","Kudu",9,-24.39,31.92,390481.31,7302167.66
"19359",19359,1979,26,"ko","Kudu",1,-24.41,31.92,390498.56,7299953
"19370",19370,1979,26,"ko","Kudu",2,-24.37,31.92,390464.07,7304382.31
"19385",19385,1979,27,"ko","Kudu",7,-24.2,31.86,384224.16,7323158.2
"19392",19392,1979,27,"ko","Kudu",23,-24.26,31.88,386308.8,7316530.74
"19410",19410,1979,27,"ko","Kudu",5,-24.24,31.88,386291.02,7318745.38
"19412",19412,1979,27,"ko","Kudu",10,-24.24,31.9,388321.7,7318761.53
"19416",19416,1979,27,"ko","Kudu",5,-24.2,31.88,386255.49,7323174.63
"19419",19419,1979,27,"ko","Kudu",4,-24.2,31.9,388286.81,7323190.76
"19426",19426,1979,27,"ko","Kudu",12,-24.35,31.94,392475.77,7306612.58
"19429",19429,1979,27,"ko","Kudu",21,-24.37,31.94,392492.67,7304397.94
"19433",19433,1979,27,"ko","Kudu",4,-24.31,31.92,390412.45,7311026.22
"19437",19437,1979,27,"ko","Kudu",13,-24.31,31.94,392442.01,7311041.83
"19453",19453,1979,27,"ko","Kudu",24,-24.26,31.92,390369.53,7316562.78
"19455",19455,1979,27,"ko","Kudu",4,-24.26,31.94,392399.88,7316578.36
"19457",19457,1979,27,"ko","Kudu",28,-24.28,31.92,390386.69,7314348.16
"19463",19463,1979,27,"ko","Kudu",3,-24.28,31.94,392416.72,7314363.75
"19471",19471,1979,27,"ko","Kudu",32,-24.24,31.92,390352.38,7318777.39
"19475",19475,1979,27,"ko","Kudu",5,-24.24,31.94,392383.05,7318792.97
"19492",19492,1979,27,"ko","Kudu",7,-24.45,31.98,396615.02,7295569.81
"19495",19495,1979,27,"ko","Kudu",11,-24.39,31.96,394537.86,7302198.65
"19499",19499,1979,27,"ko","Kudu",2,-24.39,31.98,396566.12,7302213.71
"19507",19507,1979,27,"ko","Kudu",10,-24.41,31.98,396582.41,7299999.08
"19511",19511,1979,27,"ko","Kudu",14,-24.35,31.96,394504.68,7306627.91
"19514",19514,1979,27,"ko","Kudu",25,-24.37,31.96,394521.26,7304413.28
"19520",19520,1979,27,"ko","Kudu",3,-24.31,31.96,394471.55,7311057.14
"19525",19525,1979,27,"ko","Kudu",6,-24.33,31.96,394488.11,7308842.53
"19531",19531,1979,27,"ko","Kudu",1,-24.33,31.98,396517.33,7308857.56
"19534",19534,1979,27,"ko","Kudu",6,-24.43,32.01,399640.13,7297806.52
"19537",19537,1979,28,"ko","Kudu",10,-24.45,31.78,376341.6,7295405.76
"19540",19540,1979,28,"ko","Kudu",2,-24.47,31.8,378388.19,7293208.75
"19554",19554,1979,28,"ko","Kudu",9,-24.43,31.8,378349.79,7297638.21
"19561",19561,1979,28,"ko","Kudu",7,-24.43,31.82,380377.48,7297655.63
"19565",19565,1979,28,"ko","Kudu",6,-24.45,31.8,378368.98,7295423.49
"19567",19567,1979,28,"ko","Kudu",10,-24.45,31.82,380396.36,7295440.92
"19571",19571,1979,28,"ko","Kudu",34,-24.41,31.82,380358.62,7299870.35
"19580",19580,1979,28,"ko","Kudu",9,-24.47,31.84,382442.29,7293243.34
"19585",19585,1979,28,"ko","Kudu",5,-24.47,31.86,384469.33,7293260.2
"19599",19599,1979,28,"ko","Kudu",12,-24.43,31.86,384432.84,7297689.6
"19601",19601,1979,28,"ko","Kudu",5,-24.45,31.84,382423.72,7295458.05
"19609",19609,1979,28,"ko","Kudu",4,-24.6,31.88,386613.22,7278881.12
"19619",19619,1979,28,"ko","Kudu",5,-24.56,31.88,386577.2,7283310.57
"19629",19629,1979,28,"ko","Kudu",11,-24.51,31.88,386532.25,7288847.36
"19637",19637,1979,28,"ko","Kudu",5,-24.53,31.88,386550.22,7286632.65
"19652",19652,1979,28,"ko","Kudu",11,-24.43,31.88,386460.51,7297706.14
"19661",19661,1979,28,"ko","Kudu",7,-24.41,31.88,386442.61,7299920.82
"19663",19663,1979,28,"ko","Kudu",6,-24.41,31.9,388470.59,7299937.06
"19674",19674,1979,28,"ko","Kudu",2,-24.6,31.92,390663.07,7278913.49
"19696",19696,1979,28,"ko","Kudu",5,-24.51,31.92,390584.99,7288879.64
"19702",19702,1979,28,"ko","Kudu",9,-24.51,31.94,392611.35,7288895.34
"19709",19709,1979,28,"ko","Kudu",15,-24.53,31.92,390602.32,7286664.95
"19721",19721,1979,28,"ko","Kudu",7,-24.49,31.92,390567.68,7291094.32
"19732",19732,1979,28,"ko","Kudu",8,-24.43,31.94,392543.46,7297754
"19737",19737,1979,28,"ko","Kudu",6,-24.45,31.94,392560.41,7295539.35
"19745",19745,1979,28,"ko","Kudu",8,-24.56,31.96,394679.44,7283374.06
"19755",19755,1979,28,"ko","Kudu",7,-24.51,31.96,394637.7,7288910.75
"19765",19765,1979,28,"ko","Kudu",7,-24.47,31.96,394604.37,7293340.07
"19780",19780,1979,29,"ko","Kudu",5,-24.6,31.78,376488.43,7278795.04
"19797",19797,1979,29,"ko","Kudu",7,-24.72,31.82,380652.58,7265541.68
"19807",19807,1979,29,"ko","Kudu",2,-24.7,31.82,380633.51,7267756.48
"19810",19810,1979,29,"ko","Kudu",3,-24.64,31.8,378552.06,7274383.29
"19816",19816,1979,29,"ko","Kudu",13,-24.66,31.8,378571.41,7272168.5
"19874",19874,1979,29,"ko","Kudu",4,-24.78,31.86,384753.97,7258931.59
"19884",19884,1979,29,"ko","Kudu",16,-24.74,31.84,382694.36,7263344.17
"19893",19893,1979,29,"ko","Kudu",3,-24.68,31.84,382638.12,7269988.52
"19897",19897,1979,29,"ko","Kudu",9,-24.7,31.84,382656.85,7267773.74
"19900",19900,1979,29,"ko","Kudu",8,-24.64,31.86,384625,7274435
"19909",19909,1979,29,"ko","Kudu",3,-24.6,31.84,382563.33,7278847.57
"19937",19937,1979,29,"ko","Kudu",11,-24.78,31.88,386776,7258948.31
"19942",19942,1979,29,"ko","Kudu",5,-24.74,31.88,386739.73,7263377.86
"19949",19949,1979,29,"ko","Kudu",2,-24.68,31.9,388709.07,7270038.52
"19958",19958,1979,29,"ko","Kudu",3,-24.68,31.92,390732.7,7270054.6
"19961",19961,1979,29,"ko","Kudu",1,-24.7,31.92,390750.14,7267839.86
"19981",19981,1979,30,"ko","Kudu",8,-24.81,31.92,390846.29,7255658.7
"19987",19987,1979,30,"ko","Kudu",26,-24.76,31.94,392824.86,7261211.43
"19990",19990,1979,30,"ko","Kudu",11,-24.78,31.92,390820.03,7258980.85
"19993",19993,1979,30,"ko","Kudu",5,-24.78,31.94,392842.03,7258996.68
"20018",20018,1979,30,"ko","Kudu",9,-24.81,31.96,394889.32,7255690.09
"20022",20022,1979,30,"ko","Kudu",11,-24.76,31.96,394847.18,7261226.96
"20025",20025,1979,30,"ko","Kudu",3,-24.78,31.96,394864.03,7259012.22
"20036",20036,1979,30,"ko","Kudu",33,-24.74,31.96,394830.35,7263441.69
"20039",20039,1979,30,"ko","Kudu",6,-24.68,31.98,396803.53,7270101.06
"20042",20042,1979,30,"ko","Kudu",2,-24.7,31.96,394796.72,7267871.15
"20047",20047,1979,30,"ko","Kudu",4,-24.64,31.96,394746.38,7274515.29
"20055",20055,1979,30,"ko","Kudu",2,-24.6,31.96,394712.88,7278944.69
"20058",20058,1979,30,"ko","Kudu",6,-24.6,31.98,396737.78,7278959.84
"20060",20060,1979,30,"ko","Kudu",3,-24.62,31.96,394729.62,7276729.99
"20068",20068,1979,30,"ko","Kudu",2,-24.56,31.98,396704.97,7283389.2
"20077",20077,1979,30,"ko","Kudu",5,-24.53,31.98,396680.4,7286711.2
"20091",20091,1979,31,"ko","Kudu",9,-24.6,31.63,361300.79,7278652.12
"20098",20098,1979,31,"ko","Kudu",8,-24.62,31.63,361322.84,7276437.25
"20101",20101,1979,31,"ko","Kudu",3,-24.62,31.65,363347.58,7276457.27
"20115",20115,1979,31,"ko","Kudu",3,-24.53,31.63,361223.71,7286404.13
"20118",20118,1979,31,"ko","Kudu",6,-24.53,31.65,363249.89,7286424.1
"20122",20122,1979,31,"ko","Kudu",3,-24.47,31.65,363184.96,7293068.59
"20136",20136,1979,31,"ko","Kudu",2,-24.41,31.63,361092.07,7299693.13
"20142",20142,1979,31,"ko","Kudu",4,-24.6,31.67,365350.88,7278691.85
"20147",20147,1979,31,"ko","Kudu",2,-24.6,31.69,367375.92,7278711.28
"20152",20152,1979,31,"ko","Kudu",5,-24.62,31.67,365372.3,7276477.01
"20184",20184,1979,31,"ko","Kudu",2,-24.49,31.69,367260.2,7290892.78
"20191",20191,1979,31,"ko","Kudu",1,-24.43,31.69,367197.29,7297537.17
"20205",20205,1979,31,"ko","Kudu",10,-24.41,31.69,367176.35,7299751.95
"20213",20213,1979,31,"ko","Kudu",5,-24.6,31.73,371425.95,7278749.24
"20217",20217,1979,31,"ko","Kudu",12,-24.62,31.71,369421.71,7276515.58
"20222",20222,1979,31,"ko","Kudu",5,-24.62,31.73,371446.4,7276534.43
"20228",20228,1979,31,"ko","Kudu",7,-24.56,31.71,369359.45,7283160.04
"20231",20231,1979,31,"ko","Kudu",6,-24.56,31.73,371385.1,7283178.85
"20253",20253,1979,31,"ko","Kudu",3,-24.47,31.73,371293.42,7293145.4
"20257",20257,1979,31,"ko","Kudu",3,-24.49,31.71,369286.99,7290911.85
"20272",20272,1979,31,"ko","Kudu",7,-24.43,31.73,371252.78,7297574.94
"20284",20284,1979,31,"ko","Kudu",13,-24.41,31.73,371232.48,7299789.7
"20302",20302,1979,31,"ko","Kudu",4,-24.47,31.76,374334.05,7293172.99
"20319",20319,1979,31,"ko","Kudu",3,-24.43,31.78,376322.08,7297620.5
"20330",20330,1979,32,"ko","Kudu",4,-24.51,31.44,341949.39,7288414.72
"20336",20336,1979,32,"ko","Kudu",4,-24.53,31.44,341974.42,7286199.75
"20340",20340,1979,32,"ko","Kudu",2,-24.47,31.42,339872.11,7292821.63
"20376",20376,1979,32,"ko","Kudu",5,-24.49,31.46,343951.31,7290652.42
"20381",20381,1979,32,"ko","Kudu",8,-24.49,31.48,345978.23,7290674.86
"20408",20408,1979,32,"ko","Kudu",9,-24.53,31.53,351092.64,7286299.87
"20434",20434,1979,32,"ko","Kudu",3,-24.45,31.51,348970.86,7295137.8
"20445",20445,1979,32,"ko","Kudu",4,-24.56,31.57,355179.56,7283020.12
"20446",20446,1979,32,"ko","Kudu",5,-24.51,31.55,353095.61,7288536.21
"20457",20457,1979,32,"ko","Kudu",4,-24.49,31.55,353072.36,7290751.1
"20460",20460,1979,32,"ko","Kudu",17,-24.49,31.57,355099.23,7290772.22
"20469",20469,1979,32,"ko","Kudu",9,-24.45,31.57,355053.42,7295201.96
"20476",20476,1979,32,"ko","Kudu",6,-24.56,31.59,357205.29,7283040.99
"20488",20488,1979,32,"ko","Kudu",17,-24.53,31.59,357171.32,7286363.31
"20495",20495,1979,32,"ko","Kudu",2,-24.47,31.59,357103.5,7293007.91
"20502",20502,1979,32,"ko","Kudu",19,-24.45,31.59,357080.92,7295222.76
"20507",20507,1979,32,"ko","Kudu",6,-24.41,31.59,357035.83,7299652.46
"20512",20512,1979,32,"ko","Kudu",6,-24.56,31.63,361256.72,7283081.85
"20516",20516,1979,33,"ko","Kudu",10,-24.6,31.55,353200.46,7278569.12
"20518",20518,1979,33,"ko","Kudu",7,-24.6,31.57,355225.56,7278590.31
"20522",20522,1979,33,"ko","Kudu",15,-24.58,31.55,353177.13,7280784.04
"20525",20525,1979,33,"ko","Kudu",11,-24.58,31.57,355202.55,7280805.22
"20529",20529,1979,33,"ko","Kudu",1,-24.76,31.61,359455.25,7260912.58
"20532",20532,1979,33,"ko","Kudu",1,-24.78,31.61,359477.77,7258697.65
"20543",20543,1979,33,"ko","Kudu",4,-24.68,31.61,359365.35,7269772.24
"20548",20548,1979,33,"ko","Kudu",2,-24.7,31.61,359387.8,7267557.33
"20572",20572,1979,33,"ko","Kudu",2,-24.58,31.61,359253.36,7280846.69
"20577",20577,1979,33,"ko","Kudu",2,-24.76,31.63,361477.73,7260932.99
"20581",20581,1979,33,"ko","Kudu",7,-24.76,31.65,363500.2,7260953.1
"20585",20585,1979,33,"ko","Kudu",9,-24.78,31.63,361499.92,7258718.07
"20589",20589,1979,33,"ko","Kudu",4,-24.72,31.63,361433.39,7265362.8
"20597",20597,1979,33,"ko","Kudu",4,-24.74,31.63,361455.55,7263147.9
"20605",20605,1979,33,"ko","Kudu",2,-24.68,31.63,361389.12,7269792.6
"20618",20618,1979,33,"ko","Kudu",1,-24.64,31.63,361344.92,7274222.37
"20626",20626,1979,33,"ko","Kudu",1,-24.66,31.65,363391.1,7272027.54
"20631",20631,1979,33,"ko","Kudu",3,-24.78,31.67,365544.2,7258758.02
"20638",20638,1979,33,"ko","Kudu",8,-24.74,31.67,365501.13,7263187.8
"20641",20641,1979,33,"ko","Kudu",12,-24.64,31.67,365393.73,7274262.15
"20651",20651,1979,34,"ko","Kudu",5,-24.68,31.69,367460.38,7269851.9
"20655",20655,1979,34,"ko","Kudu",4,-24.7,31.67,365458.12,7267617.56
"20660",20660,1979,34,"ko","Kudu",2,-24.7,31.69,367481.54,7267637.04
"20671",20671,1979,34,"ko","Kudu",13,-24.76,31.71,369567.54,7261011.65
"20675",20675,1979,34,"ko","Kudu",4,-24.76,31.73,371589.97,7261030.58
"20679",20679,1979,34,"ko","Kudu",2,-24.72,31.71,369525.8,7265441.37
"20692",20692,1979,34,"ko","Kudu",8,-24.74,31.73,371569.41,7263245.43
"20704",20704,1979,34,"ko","Kudu",8,-24.68,31.73,371507.83,7269889.95
"20715",20715,1979,34,"ko","Kudu",2,-24.7,31.73,371528.34,7267675.12
"20741",20741,1979,34,"ko","Kudu",1,-24.74,31.78,376626.24,7263291.42
"20750",20750,1979,34,"ko","Kudu",2,-24.7,31.76,374563.42,7267702.9
"20765",20765,1979,34,"ko","Kudu",6,-24.72,31.8,378629.55,7265524.11
"20775",20775,1979,34,"ko","Kudu",7,-24.7,31.8,378610.16,7267738.91
"20780",20780,1979,34,"ko","Kudu",10,-24.78,31.84,382731.93,7258914.58
"20792",20792,1979,35,"ko","Kudu",1,-24.97,31.61,359692.54,7237655.55
"20799",20799,1979,35,"ko","Kudu",2,-24.89,31.61,359601.92,7246515.44
"20821",20821,1979,35,"ko","Kudu",3,-24.95,31.65,363708.63,7239911.27
"20839",20839,1979,35,"ko","Kudu",4,-24.85,31.65,363598.74,7250985.98
"20842",20842,1979,35,"ko","Kudu",4,-24.87,31.63,361600,7248750.87
"20850",20850,1979,35,"ko","Kudu",12,-24.81,31.63,361533.24,7255395.68
"20852",20852,1979,35,"ko","Kudu",5,-24.81,31.65,363554.9,7255415.82
"20853",20853,1979,35,"ko","Kudu",5,-24.83,31.63,361555.48,7253180.75
"20863",20863,1979,35,"ko","Kudu",9,-24.95,31.67,365728,7239931.2
"20875",20875,1979,35,"ko","Kudu",4,-24.89,31.69,367683.33,7246595.6
"20879",20879,1979,35,"ko","Kudu",3,-24.91,31.67,365684.64,7244361.07
"20890",20890,1979,35,"ko","Kudu",4,-24.85,31.69,367640.73,7251025.42
"20893",20893,1979,35,"ko","Kudu",1,-24.87,31.67,365641.36,7248790.93
"20897",20897,1979,35,"ko","Kudu",5,-24.81,31.67,365576.55,7255435.67
"20899",20899,1979,35,"ko","Kudu",4,-24.83,31.67,365598.14,7253220.76
"20901",20901,1979,35,"ko","Kudu",6,-24.83,31.69,367619.45,7253240.32
"20918",20918,1979,35,"ko","Kudu",1,-24.91,31.71,369724.65,7244399.99
"20925",20925,1979,35,"ko","Kudu",1,-24.85,31.73,371682.67,7251063.67
"20934",20934,1979,36,"ko","Kudu",4,-24.78,31.69,367566.33,7258777.55
"20937",20937,1979,36,"ko","Kudu",9,-24.81,31.71,369619.81,7255474.46
"20941",20941,1979,36,"ko","Kudu",7,-24.81,31.73,371641.43,7255493.42
"20947",20947,1979,36,"ko","Kudu",10,-24.83,31.73,371662.04,7253278.54
"20957",20957,1979,36,"ko","Kudu",5,-24.89,31.78,376774.71,7246680.09
"20961",20961,1979,36,"ko","Kudu",12,-24.85,31.76,374714.1,7251091.57
"20964",20964,1979,36,"ko","Kudu",11,-24.85,31.78,376735.04,7251109.81
"20971",20971,1979,36,"ko","Kudu",7,-24.81,31.78,376695.42,7255539.51
"20977",20977,1979,36,"ko","Kudu",7,-24.78,31.76,374643.68,7258843.57
"20981",20981,1979,36,"ko","Kudu",4,-24.78,31.78,376665.75,7258861.76
"20992",20992,1979,36,"ko","Kudu",10,-24.89,31.82,380815.26,7246715.71
"21008",21008,1979,36,"ko","Kudu",1,-24.87,31.8,378775.47,7248912.9
"21020",21020,1979,36,"ko","Kudu",8,-24.83,31.8,378736.48,7253342.59
"21025",21025,1979,36,"ko","Kudu",2,-24.83,31.82,380757.73,7253360.22
"21034",21034,1979,36,"ko","Kudu",3,-24.78,31.82,380709.88,7258897.27
"21037",21037,1979,36,"ko","Kudu",16,-24.89,31.84,382835.53,7246733.08
"21044",21044,1979,36,"ko","Kudu",3,-24.85,31.84,382797.8,7251162.73
"21051",21051,1979,36,"ko","Kudu",13,-24.87,31.84,382816.66,7248947.91
"21060",21060,1979,36,"ko","Kudu",2,-24.81,31.84,382760.14,7255592.37
"21079",21079,1979,36,"ko","Kudu",6,-24.85,31.88,386839.6,7251196.53
"21085",21085,1979,36,"ko","Kudu",13,-24.87,31.88,386857.8,7248981.73
"21091",21091,1979,36,"ko","Kudu",1,-24.81,31.88,386803.23,7255626.13
"21096",21096,1979,36,"ko","Kudu",4,-24.83,31.88,386821.41,7253411.33
"21100",21100,1979,37,"ko","Kudu",16,-24.93,31.9,388932.08,7242353.77
"21104",21104,1979,37,"ko","Kudu",25,-24.89,31.9,388896.25,7246783.39
"21109",21109,1979,37,"ko","Kudu",2,-24.91,31.9,388914.16,7244568.59
"21116",21116,1979,37,"ko","Kudu",13,-24.87,31.9,388878.36,7248998.19
"21127",21127,1979,37,"ko","Kudu",8,-25.16,31.94,393170.72,7216915.33
"21138",21138,1979,37,"ko","Kudu",2,-24.97,31.92,390986.88,7237940.35
"21145",21145,1979,37,"ko","Kudu",6,-24.97,31.94,393005.79,7237956.26
"21149",21149,1979,37,"ko","Kudu",6,-24.99,31.94,393023.09,7235741.45
"21154",21154,1979,37,"ko","Kudu",12,-24.93,31.92,390951.65,7242369.97
"21161",21161,1979,37,"ko","Kudu",5,-24.93,31.94,392971.22,7242385.87
"21163",21163,1979,37,"ko","Kudu",8,-24.95,31.92,390969.26,7240155.16
"21170",21170,1979,37,"ko","Kudu",21,-24.89,31.92,390916.48,7246799.57
"21175",21175,1979,37,"ko","Kudu",9,-24.89,31.94,392936.7,7246815.45
"21183",21183,1979,37,"ko","Kudu",3,-24.91,31.94,392953.95,7244600.66
"21192",21192,1979,37,"ko","Kudu",17,-24.85,31.94,392902.23,7251245.01
"21196",21196,1979,37,"ko","Kudu",20,-24.87,31.92,390898.91,7249014.36
"21203",21203,1979,37,"ko","Kudu",19,-24.87,31.94,392919.45,7249030.23
"21209",21209,1979,37,"ko","Kudu",4,-24.83,31.92,390863.82,7253443.93
"21219",21219,1979,37,"ko","Kudu",2,-25.16,31.96,395186.51,7216931.03
"21223",21223,1979,37,"ko","Kudu",9,-25.1,31.96,395135.29,7223575.57
"21229",21229,1979,37,"ko","Kudu",4,-25.12,31.96,395152.35,7221360.73
"21232",21232,1979,37,"ko","Kudu",3,-25.12,31.98,397168.79,7221376.12
"21236",21236,1979,37,"ko","Kudu",12,-25.06,31.96,395101.2,7228005.23
"21242",21242,1979,37,"ko","Kudu",12,-25.06,31.98,397118.62,7228020.59
"21247",21247,1979,37,"ko","Kudu",1,-25.08,31.96,395118.24,7225790.4
"21251",21251,1979,37,"ko","Kudu",3,-25.01,31.96,395058.66,7233542.27
"21265",21265,1979,37,"ko","Kudu",2,-25.03,31.98,397093.58,7231342.81
"21269",21269,1979,37,"ko","Kudu",19,-24.97,31.96,395024.69,7237971.88
"21271",21271,1979,37,"ko","Kudu",6,-24.97,31.98,397043.59,7237987.21
"21274",21274,1979,37,"ko","Kudu",14,-24.99,31.96,395041.67,7235757.08
"21281",21281,1979,37,"ko","Kudu",5,-24.93,31.96,394990.77,7242401.47
"21285",21285,1979,37,"ko","Kudu",9,-24.93,31.98,397010.32,7242416.78
"21286",21286,1979,37,"ko","Kudu",3,-24.95,31.98,397026.95,7240201.99
"21290",21290,1979,37,"ko","Kudu",7,-24.89,31.98,396977.1,7246846.32
"21296",21296,1979,37,"ko","Kudu",9,-24.91,31.98,396993.71,7244631.55
"21301",21301,1979,37,"ko","Kudu",17,-24.85,31.98,396943.94,7251275.84
"21304",21304,1979,37,"ko","Kudu",5,-24.87,31.96,394939.99,7249045.81
"21308",21308,1979,37,"ko","Kudu",9,-24.87,31.98,396960.51,7249061.09
"21313",21313,1979,37,"ko","Kudu",15,-24.81,31.98,396910.82,7255705.34
"21319",21319,1979,37,"ko","Kudu",21,-24.83,31.96,394906.2,7253475.34
"21322",21322,1979,37,"ko","Kudu",10,-24.83,31.98,396927.37,7253490.6
"21337",21337,1979,37,"ko","Kudu",10,-25.16,32.01,400225.95,7216968.99
"21346",21346,1979,37,"ko","Kudu",4,-25.1,32.03,402193.94,7223628.1
"21349",21349,1979,37,"ko","Kudu",9,-25.12,32.01,400193.43,7221398.64
"21355",21355,1979,37,"ko","Kudu",18,-25.06,32.01,400144.74,7228043.08
"21359",21359,1979,37,"ko","Kudu",10,-25.08,32.01,400160.96,7225828.27
"21363",21363,1979,37,"ko","Kudu",10,-25.08,32.03,402178.04,7225842.9
"21368",21368,1979,37,"ko","Kudu",3,-25.01,32.01,400104.25,7233580.07
"21370",21370,1979,37,"ko","Kudu",8,-25.03,32.01,400120.44,7231365.28
"21389",21389,1979,38,"ko","Kudu",5,-24.97,31.78,376854.24,7237820.58
"21392",21392,1979,38,"ko","Kudu",3,-24.99,31.78,376874.16,7235605.69
"21396",21396,1979,38,"ko","Kudu",1,-24.93,31.78,376814.45,7242250.35
"21401",21401,1979,38,"ko","Kudu",1,-24.95,31.78,376834.34,7240035.47
"21408",21408,1979,38,"ko","Kudu",4,-25.03,31.8,378932.04,7231193.93
"21421",21421,1979,38,"ko","Kudu",6,-24.99,31.8,378892.81,7235623.71
"21423",21423,1979,38,"ko","Kudu",8,-24.99,31.82,380911.45,7235641.42
"21425",21425,1979,38,"ko","Kudu",1,-24.95,31.8,378853.64,7240053.46
"21426",21426,1979,38,"ko","Kudu",6,-24.95,31.82,380872.93,7240071.15
"21428",21428,1979,38,"ko","Kudu",3,-24.91,31.8,378814.53,7244483.19
"21434",21434,1979,38,"ko","Kudu",5,-25.06,31.86,385013.95,7227923.94
"21441",21441,1979,38,"ko","Kudu",4,-25.08,31.86,385032.63,7225709.06
"21449",21449,1979,38,"ko","Kudu",2,-25.01,31.86,384967.33,7233461.1
"21452",21452,1979,38,"ko","Kudu",4,-25.03,31.84,382968,7231229.1
"21456",21456,1979,38,"ko","Kudu",5,-25.03,31.86,384985.97,7231246.24
"21475",21475,1979,38,"ko","Kudu",8,-24.95,31.86,384911.49,7240105.65
"21478",21478,1979,38,"ko","Kudu",4,-25.1,31.88,387068.13,7223511.06
"21484",21484,1979,38,"ko","Kudu",13,-25.12,31.9,389102.98,7221312.76
"21495",21495,1979,38,"ko","Kudu",16,-25.06,31.9,389048.88,7227957.35
"21498",21498,1979,38,"ko","Kudu",5,-25.08,31.9,389066.9,7225742.49
"21500",21500,1979,38,"ko","Kudu",3,-25.01,31.88,386985.61,7233477.93
"21505",21505,1979,38,"ko","Kudu",1,-25.03,31.9,389021.87,7231279.62
"21511",21511,1979,38,"ko","Kudu",13,-24.99,31.88,386967.31,7235692.78
"21519",21519,1979,38,"ko","Kudu",4,-24.95,31.88,386930.75,7240122.45
"21524",21524,1979,38,"ko","Kudu",5,-24.95,31.9,388950.01,7240138.95
"21531",21531,1979,38,"ko","Kudu",10,-25.1,31.92,391101.72,7223543.91
"21534",21534,1979,38,"ko","Kudu",4,-25.1,31.94,393118.51,7223559.89
"21542",21542,1979,38,"ko","Kudu",4,-25.06,31.92,391066.33,7227973.61
"21544",21544,1979,38,"ko","Kudu",4,-25.08,31.92,391084.02,7225758.76
"21546",21546,1979,38,"ko","Kudu",10,-25.08,31.94,393101.13,7225774.73
"21550",21550,1979,38,"ko","Kudu",6,-25.03,31.92,391039.81,7231295.87
"21559",21559,1979,39,"ko","Kudu",2,-25.16,31.19,317571.15,7216110.15
"21560",21560,1979,39,"ko","Kudu",2,-25.1,31.19,317481.96,7222756.12
"21564",21564,1979,39,"ko","Kudu",16,-25.12,31.19,317511.67,7220540.8
"21570",21570,1979,39,"ko","Kudu",2,-25.14,31.23,321574.47,7218379.02
"21576",21576,1979,39,"ko","Kudu",22,-25.16,31.21,319587.36,7216137.09
"21579",21579,1979,39,"ko","Kudu",5,-25.16,31.23,321603.56,7216163.73
"21583",21583,1979,39,"ko","Kudu",3,-25.1,31.21,319499.16,7222783.01
"21591",21591,1979,39,"ko","Kudu",7,-25.12,31.21,319528.54,7220567.71
"21599",21599,1979,39,"ko","Kudu",1,-25.12,31.23,321545.39,7220594.31
"21604",21604,1979,39,"ko","Kudu",2,-25.06,31.23,321458.31,7227240.15
"21607",21607,1979,39,"ko","Kudu",6,-25.08,31.21,319469.8,7224998.3
"21609",21609,1979,39,"ko","Kudu",4,-25.08,31.23,321487.31,7225024.88
"21612",21612,1979,39,"ko","Kudu",1,-25.03,31.23,321414.84,7230563.06
"21614",21614,1979,39,"ko","Kudu",8,-25.14,31.26,324599.23,7218418.4
"21619",21619,1979,39,"ko","Kudu",8,-25.16,31.26,324627.83,7216203.12
"21625",21625,1979,39,"ko","Kudu",7,-25.16,31.28,326643.99,7216229.01
"21629",21629,1979,39,"ko","Kudu",20,-25.1,31.26,324542.09,7222848.93
"21636",21636,1979,39,"ko","Kudu",4,-25.12,31.26,324570.65,7220633.66
"21640",21640,1979,39,"ko","Kudu",5,-25.06,31.26,324485.04,7227279.44
"21647",21647,1979,39,"ko","Kudu",15,-25.08,31.28,326531.04,7225090.01
"21652",21652,1979,39,"ko","Kudu",2,-25.01,31.28,326432.48,7232843.32
"21658",21658,1979,39,"ko","Kudu",14,-25.03,31.26,324442.31,7230602.3
"21666",21666,1979,39,"ko","Kudu",6,-24.99,31.28,326404.36,7235058.53
"21669",21669,1979,39,"ko","Kudu",3,-25.14,31.3,328632.2,7218469.85
"21672",21672,1979,39,"ko","Kudu",6,-25.14,31.32,330648.67,7218495.12
"21675",21675,1979,39,"ko","Kudu",1,-25.1,31.3,328576.38,7222900.32
"21684",21684,1979,39,"ko","Kudu",6,-25.12,31.32,330621.08,7220710.34
"21690",21690,1979,39,"ko","Kudu",5,-25.08,31.3,328548.5,7225115.54
"21693",21693,1979,39,"ko","Kudu",4,-25.01,31.3,328451.09,7232868.8
"21698",21698,1979,39,"ko","Kudu",10,-25.01,31.32,330469.69,7232893.97
"21710",21710,1979,39,"ko","Kudu",8,-24.99,31.3,328423.3,7235084
"21712",21712,1979,39,"ko","Kudu",1,-24.99,31.32,330442.23,7235109.16
"21716",21716,1979,39,"ko","Kudu",1,-25.14,31.34,332665.12,7218520.1
"21718",21718,1979,39,"ko","Kudu",7,-25.12,31.34,332637.86,7220735.31
"21719",21719,1979,39,"ko","Kudu",4,-25.06,31.34,332556.19,7227380.9
"21723",21723,1979,39,"ko","Kudu",5,-25.08,31.34,332583.39,7225165.71
"21729",21729,1979,39,"ko","Kudu",7,-25.08,31.36,334600.82,7225190.34
"21734",21734,1979,39,"ko","Kudu",2,-25.01,31.34,332488.27,7232918.86
"21742",21742,1979,39,"ko","Kudu",3,-24.97,31.34,332434.03,7237349.2
"21746",21746,1979,39,"ko","Kudu",4,-24.99,31.36,334480.04,7235158.6
"21755",21755,1979,39,"ko","Kudu",6,-25.03,31.38,336551.9,7230752.57
"21761",21761,1979,40,"ko","Kudu",4,-25.18,31.21,319616.81,7213921.77
"21770",21770,1979,40,"ko","Kudu",12,-25.2,31.21,319646.27,7211706.45
"21774",21774,1979,40,"ko","Kudu",32,-25.2,31.23,321661.81,7211733.12
"21784",21784,1979,40,"ko","Kudu",4,-25.31,31.26,324843.01,7199588.4
"21793",21793,1979,40,"ko","Kudu",6,-25.33,31.28,326885.15,7197399.1
"21798",21798,1979,40,"ko","Kudu",13,-25.26,31.26,324771.15,7205126.67
"21802",21802,1979,40,"ko","Kudu",16,-25.26,31.28,326785.67,7205152.64
"21808",21808,1979,40,"ko","Kudu",9,-25.22,31.26,324713.76,7209557.27
"21816",21816,1979,40,"ko","Kudu",4,-25.22,31.28,326728.93,7209583.2
"21820",21820,1979,40,"ko","Kudu",7,-25.24,31.26,324742.44,7207341.98
"21830",21830,1979,40,"ko","Kudu",4,-25.18,31.26,324656.45,7213987.84
"21837",21837,1979,40,"ko","Kudu",16,-25.18,31.28,326672.29,7214013.75
"21845",21845,1979,40,"ko","Kudu",1,-25.2,31.28,326700.6,7211798.48
"21849",21849,1979,40,"ko","Kudu",6,-25.35,31.3,328926.63,7195209.52
"21859",21859,1979,40,"ko","Kudu",6,-25.31,31.3,328870.37,7199640.1
"21863",21863,1979,40,"ko","Kudu",9,-25.33,31.32,330911.82,7197450.23
"21869",21869,1979,40,"ko","Kudu",10,-25.26,31.3,328800.17,7205178.3
"21875",21875,1979,40,"ko","Kudu",6,-25.28,31.32,330842.39,7202988.4
"21878",21878,1979,40,"ko","Kudu",1,-25.22,31.3,328744.09,7209608.84
"21883",21883,1979,40,"ko","Kudu",4,-25.22,31.32,330759.24,7209634.17
"21888",21888,1979,40,"ko","Kudu",6,-25.24,31.3,328772.12,7207393.57
"21893",21893,1979,40,"ko","Kudu",20,-25.24,31.32,330786.94,7207418.92
"21897",21897,1979,40,"ko","Kudu",3,-25.18,31.3,328688.11,7214039.35
"21903",21903,1979,40,"ko","Kudu",2,-25.18,31.32,330703.91,7214064.66
"21907",21907,1979,40,"ko","Kudu",5,-25.2,31.3,328716.09,7211824.1
"21912",21912,1979,40,"ko","Kudu",6,-25.2,31.32,330731.57,7211849.42
"21915",21915,1979,40,"ko","Kudu",7,-25.16,31.3,328660.14,7216254.6
"21920",21920,1979,40,"ko","Kudu",6,-25.16,31.32,330676.28,7216279.89
"21930",21930,1979,40,"ko","Kudu",9,-25.18,31.34,332719.71,7214089.66
"21935",21935,1979,40,"ko","Kudu",7,-25.18,31.36,334735.49,7214114.37
"21944",21944,1979,40,"ko","Kudu",15,-25.2,31.36,334762.48,7211899.16
"21951",21951,1979,40,"ko","Kudu",30,-25.16,31.34,332692.4,7216304.88
"21954",21954,1979,40,"ko","Kudu",5,-25.16,31.36,334708.51,7216329.57
"21959",21959,1979,40,"ko","Kudu",9,-25.22,31.38,336804.61,7209708.37
"21963",21963,1979,41,"ko","Kudu",2,-25.35,31.34,332952.61,7195260.07
"21968",21968,1979,41,"ko","Kudu",5,-25.35,31.36,334965.59,7195284.9
"21969",21969,1979,41,"ko","Kudu",6,-25.37,31.34,332980.11,7193044.8
"21973",21973,1979,41,"ko","Kudu",2,-25.37,31.36,334992.75,7193069.64
"21976",21976,1979,41,"ko","Kudu",7,-25.31,31.34,332897.68,7199690.6
"21979",21979,1979,41,"ko","Kudu",4,-25.33,31.34,332925.14,7197475.34
"21983",21983,1979,41,"ko","Kudu",6,-25.26,31.34,332829.13,7205228.73
"21985",21985,1979,41,"ko","Kudu",6,-25.26,31.36,334843.59,7205253.49
"21993",21993,1979,41,"ko","Kudu",6,-25.24,31.34,332801.74,7207443.97
"21995",21995,1979,41,"ko","Kudu",2,-25.24,31.36,334816.53,7207468.72
"21997",21997,1979,41,"ko","Kudu",3,-25.12,31.36,334654.63,7220759.97
"22000",22000,1979,41,"ko","Kudu",10,-25.35,31.38,336978.54,7195309.43
"22007",22007,1979,41,"ko","Kudu",8,-25.35,31.4,338991.49,7195333.65
"22020",22020,1979,41,"ko","Kudu",8,-25.37,31.4,339017.99,7193118.42
"22027",22027,1979,41,"ko","Kudu",13,-25.33,31.4,338965.01,7197548.87
"22033",22033,1979,41,"ko","Kudu",1,-25.26,31.38,336858.04,7205277.95
"22038",22038,1979,41,"ko","Kudu",2,-25.28,31.38,336884.78,7203062.73
"22044",22044,1979,41,"ko","Kudu",6,-25.22,31.4,338819.7,7209732.51
"22051",22051,1979,41,"ko","Kudu",11,-25.24,31.38,336831.31,7207493.17
"22056",22056,1979,41,"ko","Kudu",8,-25.24,31.4,338846.08,7207517.31
"22057",22057,1979,41,"ko","Kudu",11,-25.18,31.38,336751.26,7214138.77
"22062",22062,1979,41,"ko","Kudu",8,-25.18,31.4,338767.01,7214162.88
"22066",22066,1979,41,"ko","Kudu",10,-25.2,31.38,336777.92,7211923.58
"22070",22070,1979,41,"ko","Kudu",11,-25.2,31.4,338793.35,7211947.7
"22073",22073,1979,41,"ko","Kudu",11,-25.14,31.38,336697.99,7218569.15
"22078",22078,1979,41,"ko","Kudu",12,-25.14,31.4,338714.4,7218593.23
"22088",22088,1979,41,"ko","Kudu",3,-25.16,31.4,338740.7,7216378.06
"22094",22094,1979,41,"ko","Kudu",4,-25.12,31.38,336671.38,7220784.33
"22111",22111,1979,41,"ko","Kudu",1,-25.26,31.42,340886.9,7205325.98
"22114",22114,1979,41,"ko","Kudu",6,-25.26,31.44,342901.31,7205349.54
"22123",22123,1979,41,"ko","Kudu",2,-25.28,31.44,342927.06,7203134.36
"22126",22126,1979,41,"ko","Kudu",4,-25.22,31.42,340834.79,7209756.34
"22129",22129,1979,41,"ko","Kudu",8,-25.22,31.44,342849.86,7209779.88
"22133",22133,1979,41,"ko","Kudu",15,-25.24,31.42,340860.83,7207541.16
"22137",22137,1979,41,"ko","Kudu",6,-25.24,31.44,342875.57,7207564.71
"22142",22142,1979,41,"ko","Kudu",3,-25.18,31.42,340782.75,7214186.69
"22147",22147,1979,41,"ko","Kudu",4,-25.18,31.44,342798.49,7214210.19
"22153",22153,1979,41,"ko","Kudu",6,-25.2,31.42,340808.76,7211971.52
"22157",22157,1979,41,"ko","Kudu",3,-25.2,31.44,342824.16,7211995.04
"22162",22162,1979,41,"ko","Kudu",8,-25.14,31.44,342747.19,7218640.49
"22165",22165,1979,41,"ko","Kudu",8,-25.16,31.44,342772.83,7216425.34
"22173",22173,1979,41,"ko","Kudu",3,-25.12,31.42,340704.85,7220832.16
"22177",22177,1979,41,"ko","Kudu",4,-25.12,31.44,342721.57,7220855.62
"22182",22182,1979,41,"ko","Kudu",2,-25.26,31.46,344915.7,7205372.8
"22189",22189,1979,41,"ko","Kudu",1,-25.28,31.46,344941.13,7203157.63
"22193",22193,1979,41,"ko","Kudu",5,-25.28,31.48,346955.18,7203180.61
"22195",22195,1979,41,"ko","Kudu",7,-25.22,31.46,344864.92,7209803.11
"22198",22198,1979,41,"ko","Kudu",7,-25.22,31.48,346879.96,7209826.04
"22206",22206,1979,41,"ko","Kudu",4,-25.24,31.48,346905.02,7207610.9
"22211",22211,1979,41,"ko","Kudu",18,-25.18,31.46,344814.2,7214233.4
"22215",22215,1979,41,"ko","Kudu",2,-25.18,31.48,346829.91,7214256.3
"22220",22220,1979,41,"ko","Kudu",7,-25.14,31.46,344763.57,7218663.67
"22233",22233,1979,41,"ko","Kudu",35,-25.16,31.48,346804.91,7216471.43
"22241",22241,1979,41,"ko","Kudu",2,-25.1,31.48,346730.02,7223116.76
"22248",22248,1979,41,"ko","Kudu",2,-25.12,31.48,346754.97,7220901.66
"22253",22253,1979,41,"ko","Kudu",6,-25.26,31.51,349951.65,7205429.63
"22258",22258,1979,41,"ko","Kudu",14,-25.22,31.51,349902.51,7209859.88
"22262",22262,1979,41,"ko","Kudu",11,-25.18,31.51,349853.44,7214290.1
"22267",22267,1979,41,"ko","Kudu",6,-25.2,31.51,349877.97,7212074.99
"22273",22273,1979,41,"ko","Kudu",5,-25.14,31.51,349804.45,7218720.3
"22277",22277,1979,41,"ko","Kudu",3,-25.14,31.53,351820.79,7218742.44
"22280",22280,1979,41,"ko","Kudu",8,-25.16,31.51,349828.94,7216505.21
"22287",22287,1979,41,"ko","Kudu",23,-25.16,31.53,351844.94,7216527.35
"22294",22294,1979,41,"ko","Kudu",11,-25.1,31.51,349755.53,7223150.48
"22301",22301,1979,42,"ko","Kudu",3,-25.31,31.53,352026.7,7199914.03
"22307",22307,1979,42,"ko","Kudu",8,-25.28,31.53,351990.27,7203236.72
"22316",22316,1979,42,"ko","Kudu",3,-25.24,31.51,349927.07,7207644.76
"22323",22323,1979,42,"ko","Kudu",3,-25.18,31.53,351869.12,7214312.26
"22332",22332,1979,42,"ko","Kudu",13,-25.2,31.53,351893.31,7212097.16
"22337",22337,1979,42,"ko","Kudu",4,-25.1,31.53,351772.52,7223172.59
"22342",22342,1979,42,"ko","Kudu",1,-25.12,31.53,351796.65,7220957.52
"22349",22349,1979,42,"ko","Kudu",11,-25.26,31.55,353980.35,7205473.75
"22361",22361,1979,42,"ko","Kudu",8,-25.22,31.55,353932.53,7209903.94
"22364",22364,1979,42,"ko","Kudu",9,-25.22,31.57,355947.53,7209925.53
"22373",22373,1979,42,"ko","Kudu",2,-25.18,31.55,353884.79,7214334.12
"22380",22380,1979,42,"ko","Kudu",2,-25.18,31.57,355900.44,7214355.68
"22385",22385,1979,42,"ko","Kudu",6,-25.2,31.55,353908.65,7212119.03
"22392",22392,1979,42,"ko","Kudu",2,-25.2,31.57,355923.97,7212140.6
"22397",22397,1979,42,"ko","Kudu",4,-25.14,31.55,353837.11,7218764.27
"22406",22406,1979,42,"ko","Kudu",27,-25.16,31.55,353860.94,7216549.2
"22410",22410,1979,42,"ko","Kudu",14,-25.16,31.57,355876.92,7216570.74
"22432",22432,1979,42,"ko","Kudu",1,-25.08,31.55,353765.73,7225409.45
"22436",22436,1979,42,"ko","Kudu",3,-25.08,31.57,355783.03,7225430.95
"22439",22439,1979,42,"ko","Kudu",5,-25.31,31.59,358067.23,7199978.95
"22449",22449,1979,42,"ko","Kudu",5,-25.22,31.59,357962.51,7209946.81
"22453",22453,1979,42,"ko","Kudu",25,-25.22,31.61,359977.48,7209967.79
"22460",22460,1979,42,"ko","Kudu",4,-25.18,31.59,357916.08,7214376.93
"22465",22465,1979,42,"ko","Kudu",9,-25.18,31.61,359931.71,7214397.89
"22472",22472,1979,42,"ko","Kudu",5,-25.2,31.61,359954.59,7212182.85
"22477",22477,1979,42,"ko","Kudu",4,-25.14,31.59,357869.72,7218807.04
"22481",22481,1979,42,"ko","Kudu",3,-25.16,31.59,357892.89,7216591.99
"22485",22485,1979,42,"ko","Kudu",11,-25.16,31.61,359908.85,7216612.93
"22487",22487,1979,42,"ko","Kudu",3,-25.1,31.59,357823.43,7223237.11
"22494",22494,1979,42,"ko","Kudu",4,-25.08,31.59,357800.31,7225452.15
"22505",22505,1979,43,"ko","Kudu",10,-25.1,31.4,338661.87,7223023.56
"22506",22506,1979,43,"ko","Kudu",4,-25.06,31.4,338609.41,7227453.86
"22512",22512,1979,43,"ko","Kudu",4,-25.08,31.4,338635.63,7225238.71
"22517",22517,1979,43,"ko","Kudu",6,-25.03,31.4,338570.12,7230776.58
"22530",22530,1979,43,"ko","Kudu",5,-25.06,31.44,342644.83,7227501.01
"22536",22536,1979,43,"ko","Kudu",2,-25.08,31.44,342670.39,7225285.89
"22545",22545,1979,43,"ko","Kudu",7,-25.03,31.44,342606.52,7230823.68
"22552",22552,1979,43,"ko","Kudu",17,-25.06,31.46,344662.52,7227524.13
"22555",22555,1979,43,"ko","Kudu",3,-25.06,31.48,346680.19,7227546.96
"22559",22559,1979,43,"ko","Kudu",3,-25.08,31.46,344687.75,7225309.02
"22563",22563,1979,43,"ko","Kudu",6,-25.08,31.48,346705.1,7225331.87
"22571",22571,1979,43,"ko","Kudu",6,-25.03,31.46,344624.7,7230846.79
"22576",22576,1979,43,"ko","Kudu",2,-25.03,31.48,346642.87,7230869.59
"22585",22585,1979,43,"ko","Kudu",5,-25.06,31.51,349706.69,7227580.64
"22589",22589,1979,43,"ko","Kudu",2,-25.06,31.53,351724.34,7227602.72
"22596",22596,1979,43,"ko","Kudu",2,-25.08,31.53,351748.42,7225387.66
"22604",22604,1979,43,"ko","Kudu",7,-25.01,31.53,351664.2,7233140.35
"22611",22611,1979,43,"ko","Kudu",3,-25.03,31.53,351688.24,7230925.31
"22618",22618,1979,43,"ko","Kudu",1,-25.01,31.55,353682.65,7233162.1
"22626",22626,1979,43,"ko","Kudu",4,-25.03,31.57,355724.48,7230968.53
"22641",22641,1979,44,"ko","Kudu",4,-25.24,31.63,362015.02,7207773.43
"22647",22647,1979,44,"ko","Kudu",4,-25.18,31.63,361947.33,7214418.55
"22654",22654,1979,44,"ko","Kudu",6,-25.2,31.65,363985.16,7212223.89
"22667",22667,1979,44,"ko","Kudu",10,-25.24,31.67,366044.25,7207813.92
"22671",22671,1979,44,"ko","Kudu",6,-25.18,31.69,367994.12,7214478.73
"22677",22677,1979,44,"ko","Kudu",8,-25.2,31.69,368015.68,7212263.73
"22690",22690,1979,44,"ko","Kudu",2,-25.22,31.71,370052.18,7210068.21
"22698",22698,1979,44,"ko","Kudu",3,-25.24,31.73,372088.02,7207872.4
"22702",22702,1979,44,"ko","Kudu",3,-25.18,31.71,370009.7,7214498.19
"22714",22714,1979,44,"ko","Kudu",3,-25.2,31.73,372046.17,7212302.38
"22715",22715,1979,44,"ko","Kudu",4,-25.31,31.76,375181.51,7200148.18
"22724",22724,1979,44,"ko","Kudu",3,-25.26,31.76,375130.32,7205685.65
"22738",22738,1979,44,"ko","Kudu",17,-25.22,31.78,377104.31,7210134.04
"22742",22742,1979,44,"ko","Kudu",4,-25.24,31.78,377124.42,7207919.08
"22745",22745,1979,44,"ko","Kudu",4,-25.2,31.76,375069.01,7212330.57
"22747",22747,1979,44,"ko","Kudu",3,-25.35,31.82,381260.71,7195772.78
"22758",22758,1979,44,"ko","Kudu",2,-25.33,31.82,381241.19,7197987.76
"22762",22762,1979,44,"ko","Kudu",4,-25.26,31.8,379158.75,7205722.26
"22769",22769,1979,44,"ko","Kudu",7,-25.28,31.82,381192.43,7203525.16
"22793",22793,1979,44,"ko","Kudu",1,-25.31,31.86,385248.4,7200237.58
"22800",22800,1979,44,"ko","Kudu",1,-25.33,31.86,385267.25,7198022.64
"22818",22818,1979,44,"ko","Kudu",5,-25.35,31.88,387298.81,7195824.68
"22831",22831,1979,45,"ko","Kudu",12,-25.2,31.78,377084.22,7212349
"22835",22835,1979,45,"ko","Kudu",1,-25.26,31.82,381172.96,7205740.12
"22840",22840,1979,45,"ko","Kudu",2,-25.22,31.8,379119.19,7210152.17
"22869",22869,1979,45,"ko","Kudu",2,-25.2,31.82,381114.62,7212384.94
"22886",22886,1979,45,"ko","Kudu",2,-25.22,31.84,383148.9,7210187.54
"22894",22894,1979,45,"ko","Kudu",5,-25.24,31.84,383168.02,7207972.61
"22898",22898,1979,45,"ko","Kudu",4,-25.24,31.86,385182.54,7207989.85
"22904",22904,1979,45,"ko","Kudu",2,-25.18,31.84,383110.71,7214617.39
"22909",22909,1979,45,"ko","Kudu",5,-25.18,31.86,385126.22,7214634.6
"22920",22920,1979,45,"ko","Kudu",3,-25.2,31.86,385144.98,7212419.69
"22946",22946,1979,45,"ko","Kudu",4,-25.12,31.86,385070.02,7221279.29
"22950",22950,1979,45,"ko","Kudu",7,-25.31,31.9,389275.1,7200271.24
"22958",22958,1979,45,"ko","Kudu",2,-25.26,31.88,387215.52,7205791.88
"22965",22965,1979,45,"ko","Kudu",9,-25.28,31.88,387234,7203576.96
"22975",22975,1979,45,"ko","Kudu",7,-25.22,31.9,389193.42,7210238.34
"22981",22981,1979,45,"ko","Kudu",1,-25.24,31.88,387197.05,7208006.8
"22989",22989,1979,45,"ko","Kudu",2,-25.18,31.9,389157.2,7214668.13
"23014",23014,1979,45,"ko","Kudu",7,-25.16,31.88,387123.3,7216866.41
"23033",23033,1979,45,"ko","Kudu",13,-25.22,31.92,391208.24,7210254.68
"23042",23042,1979,45,"ko","Kudu",4,-25.24,31.92,391226.03,7208039.78
"23053",23053,1979,45,"ko","Kudu",4,-25.18,31.92,391172.68,7214684.44
"23066",23066,1979,45,"ko","Kudu",1,-25.2,31.94,393205.59,7212485.59
"23072",23072,1979,45,"ko","Kudu",1,-25.14,31.92,391137.18,7219114.19
"23081",23081,1979,46,"ko","Kudu",4,-25.39,31.94,393371.94,7191444.02
"23087",23087,1979,46,"ko","Kudu",4,-25.35,31.94,393336.82,7195873.87
"23107",23107,1979,46,"ko","Kudu",2,-25.26,31.94,393258,7205840.94
"23118",23118,1979,46,"ko","Kudu",4,-25.43,31.96,395418.44,7187029.98
"23126",23126,1979,46,"ko","Kudu",8,-25.39,31.96,395383.93,7191459.83
"23145",23145,1979,46,"ko","Kudu",2,-25.41,31.98,397412.83,7189260.43
"23148",23148,1979,46,"ko","Kudu",4,-25.35,31.96,395349.48,7195889.66
"23161",23161,1979,46,"ko","Kudu",4,-25.37,31.98,397379.01,7193690.25
"23169",23169,1979,46,"ko","Kudu",4,-25.31,31.96,395315.07,7200319.47
"23182",23182,1979,46,"ko","Kudu",5,-25.33,31.96,395332.27,7198104.57
"23189",23189,1979,46,"ko","Kudu",6,-25.26,31.96,395272.14,7205856.69
"23197",23197,1979,46,"ko","Kudu",15,-25.28,31.96,395289.3,7203641.81
"23205",23205,1979,46,"ko","Kudu",6,-25.28,31.98,397303.11,7203657.27
"23210",23210,1979,46,"ko","Kudu",3,-25.22,31.96,395237.85,7210286.45
"23216",23216,1979,46,"ko","Kudu",2,-25.22,31.98,397252.64,7210301.88
"23218",23218,1979,46,"ko","Kudu",2,-25.24,31.96,395254.99,7208071.57
"23228",23228,1979,46,"ko","Kudu",13,-25.18,31.98,397219.06,7214731.59
"23239",23239,1979,46,"ko","Kudu",12,-25.39,32.01,400413.88,7191498.04
"23243",23243,1979,46,"ko","Kudu",8,-25.35,32.01,400381.08,7195927.83
"23246",23246,1979,46,"ko","Kudu",9,-25.37,32.01,400397.47,7193712.94
"23250",23250,1979,46,"ko","Kudu",12,-25.31,32.01,400348.33,7200357.59
"23262",23262,1979,46,"ko","Kudu",15,-25.28,32.01,400323.8,7203679.9
"23267",23267,1979,46,"ko","Kudu",6,-25.22,32.01,400274.82,7210324.47
"23273",23273,1979,46,"ko","Kudu",6,-25.24,32.01,400291.13,7208109.62
"23281",23281,1979,46,"ko","Kudu",5,-25.2,32.01,400258.52,7212539.32
"23301",23301,1979,47,"ko","Kudu",6,-22.76,31.19,314160.31,7481911.89
"23317",23317,1979,47,"ko","Kudu",4,-22.68,31.21,316107.33,7490795.58
"23332",23332,1979,47,"ko","Kudu",8,-22.66,31.23,318136.09,7493034.86
"23363",23363,1979,47,"ko","Kudu",7,-22.76,31.32,327510.71,7482069.24
"23367",23367,1979,47,"ko","Kudu",3,-22.74,31.34,329539.75,7484306.99
"23381",23381,1979,48,"ko","Kudu",3,-22.87,31.23,318414.15,7469780.78
"23393",23393,1979,48,"ko","Kudu",12,-22.81,31.26,321414.21,7476461.44
"23406",23406,1979,48,"ko","Kudu",14,-22.89,31.3,325622.58,7467650.69
"23420",23420,1979,48,"ko","Kudu",6,-22.83,31.32,327598.79,7474318.11
"23422",23422,1979,48,"ko","Kudu",4,-22.78,31.3,325482.29,7479831.18
"23425",23425,1979,48,"ko","Kudu",11,-22.87,31.34,329701.44,7469912.12
"23431",23431,1979,48,"ko","Kudu",16,-22.81,31.34,329626.71,7476555.93
"23435",23435,1979,48,"ko","Kudu",7,-22.76,31.34,329564.57,7482092.41
"23443",23443,1979,48,"ko","Kudu",9,-22.89,31.38,333830.15,7467743.21
"23448",23448,1979,48,"ko","Kudu",3,-22.89,31.4,335882.01,7467765.64
"23462",23462,1979,48,"ko","Kudu",3,-22.83,31.38,333757.16,7474386.94
"23465",23465,1979,48,"ko","Kudu",5,-22.83,31.4,335809.92,7474409.33
"23467",23467,1979,48,"ko","Kudu",5,-22.76,31.4,335726.03,7482160.24
"23473",23473,1979,48,"ko","Kudu",3,-22.89,31.44,339985.68,7467809.67
"23482",23482,1979,48,"ko","Kudu",12,-22.81,31.42,337838.97,7476645.97
"23485",23485,1979,48,"ko","Kudu",8,-22.83,31.42,337862.66,7474431.44
"23489",23489,1979,49,"ko","Kudu",2,-22.93,31.23,318494.05,7463136.65
"23494",23494,1979,49,"ko","Kudu",4,-22.99,31.26,321649.82,7456529.29
"23500",23500,1979,49,"ko","Kudu",8,-22.93,31.26,321571.09,7463173.39
"23502",23502,1979,49,"ko","Kudu",8,-22.93,31.28,323622.43,7463197.53
"23506",23506,1979,49,"ko","Kudu",10,-22.95,31.28,323648.35,7460982.85
"23512",23512,1979,49,"ko","Kudu",2,-22.99,31.3,325750.68,7456577.39
"23530",23530,1979,49,"ko","Kudu",9,-22.93,31.36,331827.65,7463291.29
"23533",23533,1979,49,"ko","Kudu",8,-22.95,31.34,329801.38,7461053.64
"23539",23539,1979,49,"ko","Kudu",5,-23.01,31.38,333976.69,7454455.61
"23546",23546,1979,49,"ko","Kudu",8,-22.93,31.4,335930.17,7463336.49
"23554",23554,1979,49,"ko","Kudu",1,-22.95,31.4,335954.28,7461121.91
"23564",23564,1979,49,"ko","Kudu",3,-22.99,31.44,340103.22,7456736.91
"23571",23571,1979,49,"ko","Kudu",4,-22.93,31.44,340032.63,7463380.58
"23581",23581,1979,49,"ko","Kudu",3,-22.91,31.44,340009.15,7465595.13
"23593",23593,1979,50,"ko","Kudu",5,-23.08,31.4,336111.49,7446727
"23597",23597,1979,50,"ko","Kudu",2,-23.03,31.4,336050.92,7452263.53
"23617",23617,1979,50,"ko","Kudu",4,-23.14,31.48,344376.48,7440170.79
"23632",23632,1979,50,"ko","Kudu",2,-23.06,31.46,342235.03,7449007.61
"23639",23639,1979,50,"ko","Kudu",10,-23.06,31.48,344284.26,7449029.05
"23647",23647,1979,50,"ko","Kudu",6,-23.18,31.53,349541.17,7435794.21
"23654",23654,1979,50,"ko","Kudu",5,-23.16,31.51,347471.13,7437987.95
"23664",23664,1979,50,"ko","Kudu",1,-23.12,31.51,347425.86,7442417.06
"23678",23678,1979,50,"ko","Kudu",2,-23.2,31.55,351610.61,7433600.21
"23683",23683,1979,51,"ko","Kudu",5,-22.72,31.32,327460.5,7486498.43
"23695",23695,1979,51,"ko","Kudu",8,-22.66,31.3,325329.97,7493118.81
"23707",23707,1979,51,"ko","Kudu",6,-22.7,31.36,331544.91,7488758.97
"23709",23709,1979,51,"ko","Kudu",3,-22.64,31.36,331471.59,7495402.61
"23721",23721,1979,52,"ko","Kudu",8,-23.16,31.19,314706.35,7437616.75
"23731",23731,1979,52,"ko","Kudu",5,-23.06,31.19,314568.99,7448690.72
"23743",23743,1979,52,"ko","Kudu",7,-23.2,31.21,316808.74,7433212.47
"23760",23760,1979,52,"ko","Kudu",2,-23.08,31.21,316645.54,7446501.18
"23779",23779,1979,52,"ko","Kudu",3,-23.12,31.26,321821.08,7442133.6
"23788",23788,1979,52,"ko","Kudu",8,-23.03,31.28,323752.25,7452124.09
"23817",23817,1979,52,"ko","Kudu",1,-23.1,31.34,329989.66,7444443.76
"23820",23820,1979,52,"ko","Kudu",4,-23.1,31.36,332038.37,7444466.91
"23834",23834,1979,52,"ko","Kudu",3,-23.06,31.36,331988.65,7448896.21
"23846",23846,1979,52,"ko","Kudu",3,-23.08,31.38,334062.5,7446704.42
"23862",23862,1979,53,"ko","Kudu",3,-23.12,30.92,286994.73,7441677.56
"23869",23869,1979,53,"ko","Kudu",6,-23.06,30.92,286900.08,7448322.67
"23876",23876,1979,53,"ko","Kudu",7,-23.01,30.94,288871.8,7453889.2
"23878",23878,1979,53,"ko","Kudu",1,-23.03,30.92,286852.84,7451645.21
"23882",23882,1979,53,"ko","Kudu",4,-22.99,30.92,286789.95,7456075.24
"23888",23888,1979,53,"ko","Kudu",9,-23.14,30.96,291123.2,7439520.42
"23896",23896,1979,53,"ko","Kudu",5,-23.1,30.96,291061.24,7443950.43
"23904",23904,1979,53,"ko","Kudu",6,-23.12,30.98,293140.91,7441763.94
"23929",23929,1979,53,"ko","Kudu",5,-23.03,30.96,290953.05,7451702.91
"23931",23931,1979,53,"ko","Kudu",6,-23.03,30.98,293003.13,7451731.33
"23940",23940,1979,53,"ko","Kudu",4,-22.99,30.98,292942.05,7456161.25
"23947",23947,1979,53,"ko","Kudu",15,-23.14,31.01,296244.18,7439591.23
"23953",23953,1979,53,"ko","Kudu",2,-23.16,31.01,296274.43,7437376.26
"23959",23959,1979,53,"ko","Kudu",1,-23.1,31.03,298232.71,7444048.93
"23964",23964,1979,53,"ko","Kudu",6,-23.06,31.03,298172.97,7448478.79
"23977",23977,1979,53,"ko","Kudu",8,-22.99,31.01,296018.04,7456203.31
"23980",23980,1979,53,"ko","Kudu",5,-22.99,31.03,298068.68,7456231
"23985",23985,1979,53,"ko","Kudu",4,-23.14,31.05,300340.88,7439646.6
"23995",23995,1979,53,"ko","Kudu",7,-23.12,31.07,302359.89,7441888.77
"23999",23999,1979,53,"ko","Kudu",1,-23.06,31.07,302272.08,7448533.46
"24002",24002,1979,53,"ko","Kudu",3,-23.08,31.05,300252.08,7446291.36
"24004",24004,1979,53,"ko","Kudu",2,-23.01,31.05,300148.76,7454043.52
"24010",24010,1979,53,"ko","Kudu",3,-23.03,31.07,302228.25,7451855.79
"24016",24016,1979,53,"ko","Kudu",6,-23.18,31.09,304495.62,7435271.06
"24026",24026,1979,53,"ko","Kudu",3,-23.1,31.11,306428.42,7444157.29
"24037",24037,1979,53,"ko","Kudu",6,-23.06,31.11,306371.11,7448587
"24052",24052,1979,53,"ko","Kudu",6,-23.14,31.15,310582.35,7439780.12
"24074",24074,1979,53,"ko","Kudu",6,-23.03,31.13,308378.15,7451935.6
"24077",24077,1979,53,"ko","Kudu",5,-23.2,31.19,314761.44,7433187.12
"24080",24080,1979,53,"ko","Kudu",5,-23.14,31.17,312630.6,7439805.97
"24085",24085,1979,53,"ko","Kudu",1,-23.12,31.17,312602.8,7442020.79
"24089",24089,1979,54,"ko","Kudu",4,-22.97,30.94,288809.56,7458319.18
"24094",24094,1979,54,"ko","Kudu",4,-22.95,30.94,288778.48,7460534.17
"24096",24096,1979,54,"ko","Kudu",5,-22.91,30.94,288716.4,7464964.13
"24101",24101,1979,54,"ko","Kudu",4,-22.97,30.98,292911.55,7458376.2
"24105",24105,1979,54,"ko","Kudu",7,-22.93,30.96,290799.04,7462777.76
"24111",24111,1979,54,"ko","Kudu",6,-22.95,30.96,290829.79,7460562.8
"24119",24119,1979,54,"ko","Kudu",4,-22.91,30.96,290768.31,7464992.72
"24121",24121,1979,54,"ko","Kudu",3,-22.91,30.98,292820.2,7465021.03
"24126",24126,1979,54,"ko","Kudu",2,-22.97,31.03,298038.93,7458445.9
"24131",24131,1979,54,"ko","Kudu",4,-22.93,31.01,295927.98,7462848.07
"24133",24133,1979,54,"ko","Kudu",1,-22.95,31.01,295957.97,7460633.15
"24147",24147,1979,54,"ko","Kudu",10,-22.99,31.05,300119.3,7456258.41
"24152",24152,1979,54,"ko","Kudu",6,-22.99,31.07,302169.9,7456285.54
"24153",24153,1979,54,"ko","Kudu",2,-22.93,31.05,300031.05,7462903.05
"24159",24159,1979,54,"ko","Kudu",1,-22.95,31.05,300060.44,7460688.18
"24173",24173,1979,54,"ko","Kudu",9,-23.01,31.09,304249.35,7454097.53
"24187",24187,1979,54,"ko","Kudu",1,-22.93,31.09,304134.05,7462956.92
"24195",24195,1979,54,"ko","Kudu",6,-22.91,31.09,304105.29,7465171.76
"24199",24199,1979,54,"ko","Kudu",13,-22.91,31.11,306157.07,7465198.25
"24210",24210,1979,54,"ko","Kudu",6,-22.97,31.15,310344.22,7458606.05
"24212",24212,1979,54,"ko","Kudu",7,-22.99,31.15,310372.15,7456391.25
"24214",24214,1979,54,"ko","Kudu",5,-22.93,31.13,308236.99,7463009.67
"24220",24220,1979,54,"ko","Kudu",3,-22.91,31.13,308208.83,7465224.47
"24224",24224,1979,54,"ko","Kudu",2,-22.91,31.15,310260.57,7465250.41
"24231",24231,1979,54,"ko","Kudu",3,-23.03,31.17,312477.99,7451987.41
"24235",24235,1979,54,"ko","Kudu",3,-22.97,31.17,312395.05,7458631.76
"24240",24240,1979,54,"ko","Kudu",3,-22.99,31.17,312422.67,7456416.98
"24242",24242,1979,54,"ko","Kudu",1,-22.93,31.17,312339.86,7463061.3
"24267",24267,1979,54,"ko","Kudu",21,-23.03,31.23,318627.65,7452063.01
"24270",24270,1979,54,"ko","Kudu",3,-22.97,31.21,316496.65,7458682.34
"24274",24274,1979,54,"ko","Kudu",5,-22.97,31.23,318547.42,7458707.21
"24288",24288,1979,55,"ko","Kudu",6,-22.85,30.98,292729.08,7471665.81
"24291",24291,1979,55,"ko","Kudu",3,-22.87,30.96,290706.94,7469422.62
"24298",24298,1979,55,"ko","Kudu",8,-22.85,31.03,297860.99,7471735.23
"24301",24301,1979,55,"ko","Kudu",4,-22.87,31.03,297890.59,7469520.36
"24303",24303,1979,55,"ko","Kudu",7,-22.81,31.01,295748.52,7476137.45
"24312",24312,1979,55,"ko","Kudu",4,-22.76,31.01,295674.01,7481674.64
"24317",24317,1979,55,"ko","Kudu",9,-22.78,31.03,297757.6,7479487.26
"24322",24322,1979,55,"ko","Kudu",7,-22.89,31.07,302024.45,7467359.83
"24325",24325,1979,55,"ko","Kudu",8,-22.85,31.07,301966.44,7471789.51
"24331",24331,1979,55,"ko","Kudu",5,-22.87,31.07,301995.43,7469574.67
"24349",24349,1979,55,"ko","Kudu",10,-22.85,31.11,306071.82,7471842.67
"24368",24368,1979,55,"ko","Kudu",6,-22.89,31.13,308180.69,7467439.26
"24374",24374,1979,55,"ko","Kudu",2,-22.85,31.15,310177.13,7471894.72
"24385",24385,1979,55,"ko","Kudu",1,-22.83,31.15,310149.36,7474109.48
"24396",24396,1979,55,"ko","Kudu",2,-22.89,31.17,312284.77,7467490.83
"24410",24410,1979,55,"ko","Kudu",2,-22.91,31.19,314364.02,7465301.45
"24414",24414,1979,55,"ko","Kudu",2,-22.85,31.17,312229.76,7471920.33
"24430",24430,1979,55,"ko","Kudu",5,-22.91,31.21,316415.71,7465326.55
"24431",24431,1979,55,"ko","Kudu",3,-22.85,31.21,316334.98,7471970.71
"24433",24433,1979,56,"ko","Kudu",2,-25.35,31.42,341004.42,7195357.57
"24444",24444,1979,56,"ko","Kudu",3,-25.33,31.44,342991.53,7197596.39
"24451",24451,1979,56,"ko","Kudu",17,-25.35,31.46,345030.26,7195404.51
"24457",24457,1979,56,"ko","Kudu",9,-25.35,31.48,347043.15,7195427.53
"24462",24462,1979,56,"ko","Kudu",13,-25.37,31.48,347068.33,7193212.36
"24471",24471,1979,56,"ko","Kudu",4,-25.31,31.48,346992.86,7199857.87
"24486",24486,1979,56,"ko","Kudu",3,-25.43,31.53,352172.84,7186623.15
"24495",24495,1979,56,"ko","Kudu",1,-25.39,31.53,352124.06,7191053.47
"24503",24503,1979,56,"ko","Kudu",2,-25.35,31.51,350062.48,7195461.5
"24507",24507,1979,56,"ko","Kudu",6,-25.35,31.53,352075.34,7195483.76
"24518",24518,1979,56,"ko","Kudu",5,-25.31,31.51,350013.17,7199891.79
"24524",24524,1979,56,"ko","Kudu",8,-25.33,31.51,350037.82,7197676.65
"24528",24528,1979,56,"ko","Kudu",16,-25.33,31.53,352051.01,7197698.9
"24533",24533,1979,56,"ko","Kudu",7,-25.43,31.55,354184.37,7186645.17
"24537",24537,1979,56,"ko","Kudu",2,-25.39,31.55,354136.25,7191075.46
"24542",24542,1979,56,"ko","Kudu",3,-25.41,31.55,354160.3,7188860.32
"24552",24552,1979,56,"ko","Kudu",3,-25.35,31.57,356101.04,7195527.39
"24558",24558,1979,56,"ko","Kudu",7,-25.37,31.55,354112.22,7193290.6
"24560",24560,1979,56,"ko","Kudu",5,-25.37,31.57,356124.73,7193312.27
