"","ID","Year","Cenb","Sp","Description","No","Lat","Long","X.coord","Y.coord"
"414461",414461,1997,35,"t","Tsessebe",4,-25.21,31.29,327722.43,7210703.69
"414462",414462,1997,35,"t","Tsessebe",3,-25.21,31.29,327722.43,7210703.69
"414469",414469,1997,35,"t","Tsessebe",3,-25.19,31.28,326686.44,7212906.11
