"","ID","Year","Cenb","Sp","Description","No","Lat","Long","X.coord","Y.coord"
"409082",409082,1996,13,"s","Sable antelope",1,-24.29,31.49,346750.58,7312834.99
"412184",412184,1996,19,"s","Sable antelope",21,-24.24,31.92,390352.38,7318777.39
"412341",412341,1996,19,"s","Sable antelope",9,-24.19,31.88,386246.62,7324281.94
"413059",413059,1996,24,"s","Sable antelope",2,-24.54,31.7,368325.73,7285365.34
"413121",413121,1996,24,"s","Sable antelope",13,-24.49,31.66,364219.99,7290863.63
"413136",413136,1996,24,"s","Sable antelope",1,-24.52,31.65,363239.06,7287531.52
"413640",413640,1996,43,"s","Sable antelope",3,-22.69,31.18,313038.18,7489650.77
"413807",413807,1996,44,"s","Sable antelope",7,-22.85,31.26,321466.41,7472032.11
"413924",413924,1996,45,"s","Sable antelope",3,-22.96,31.33,328788.48,7459934.69
"413990",413990,1996,45,"s","Sable antelope",1,-22.97,31.44,340079.67,7458951.47
"413994",413994,1996,45,"s","Sable antelope",2,-22.98,31.47,343167.12,7457876.58
