"","ID","Year","Cenb","Sp","Description","No","Lat","Long","X.coord","Y.coord"
"176412",176412,1986,48,"d","Duiker",1,-22.76,31.33,328537.64,7482080.86
"176467",176467,1986,48,"d","Duiker",2,-22.78,31.34,329589.41,7479877.82
"176628",176628,1986,48,"d","Duiker",1,-22.8,31.4,335773.94,7477731.16
"177743",177743,1986,32,"d","Duiker",1,-24.51,31.52,350055.77,7288503.95
"177878",177878,1986,32,"d","Duiker",1,-24.49,31.56,354085.8,7290761.7
"177976",177976,1986,32,"d","Duiker",1,-24.5,31.61,359164.07,7289706.15
"177984",177984,1986,32,"d","Duiker",1,-24.51,31.61,359175.22,7288598.73
"178978",178978,1986,42,"d","Duiker",2,-25.25,31.53,351953.88,7206559.4
"179308",179308,1986,42,"d","Duiker",1,-25.14,31.57,355853.42,7218785.8
"179322",179322,1986,42,"d","Duiker",1,-25.13,31.59,357858.14,7219914.56
"179428",179428,1986,42,"d","Duiker",1,-25.1,31.58,356814.95,7223226.55
"179670",179670,1986,37,"d","Duiker",1,-24.9,31.99,397995.42,7245746.47
"179679",179679,1986,37,"d","Duiker",1,-24.84,31.98,396935.65,7252383.22
"179986",179986,1986,37,"d","Duiker",1,-25.03,32,399111.49,7231357.86
"180051",180051,1986,37,"d","Duiker",1,-25.13,32.01,400201.56,7220291.23
"180139",180139,1986,37,"d","Duiker",1,-24.95,32,399046.16,7240217.01
"180414",180414,1986,37,"d","Duiker",1,-24.96,31.93,391987.6,7239055.75
"180908",180908,1986,39,"d","Duiker",1,-25.15,31.24,322597.19,7217284.58
"180910",180910,1986,39,"d","Duiker",1,-25.14,31.25,323590.98,7218405.35
"180913",180913,1986,39,"d","Duiker",2,-25.15,31.26,324613.53,7217310.76
"180937",180937,1986,39,"d","Duiker",1,-25.13,31.25,323576.6,7219512.99
"180941",180941,1986,33,"d","Duiker",1,-24.75,31.67,365511.89,7262080.35
"180942",180942,1986,33,"d","Duiker",1,-24.77,31.65,363511.13,7259845.64
"180944",180944,1986,33,"d","Duiker",1,-24.76,31.65,363500.2,7260953.1
"180955",180955,1986,33,"d","Duiker",1,-24.77,31.62,360477.67,7259815.36
"181261",181261,1986,38,"d","Duiker",1,-24.91,31.75,373764.62,7244437.71
"181319",181319,1986,38,"d","Duiker",1,-24.95,31.78,376834.34,7240035.47
"181402",181402,1986,38,"d","Duiker",2,-24.96,31.84,382901.68,7238981.12
"181578",181578,1986,38,"d","Duiker",1,-25.02,31.87,385985.71,7232362.13
"181941",181941,1986,34,"d","Duiker",1,-24.67,31.73,371497.58,7270997.37
"182198",182198,1986,40,"d","Duiker",2,-25.17,31.3,328674.12,7215146.98
"182200",182200,1986,40,"d","Duiker",1,-25.16,31.3,328660.14,7216254.6
"182220",182220,1986,40,"d","Duiker",1,-25.16,31.22,320595.46,7216150.45
"182246",182246,1986,40,"d","Duiker",1,-25.16,31.26,324627.83,7216203.12
"182263",182263,1986,40,"d","Duiker",2,-25.18,31.24,322640.6,7213961.64
"182275",182275,1986,40,"d","Duiker",2,-25.19,31.27,325678.61,7212893.2
"182286",182286,1986,40,"d","Duiker",1,-25.17,31.31,329682.11,7215159.66
"182289",182289,1986,40,"d","Duiker",2,-25.17,31.31,329682.11,7215159.66
"182347",182347,1986,40,"d","Duiker",1,-25.19,31.29,327694.27,7212918.96
"182358",182358,1986,40,"d","Duiker",1,-25.21,31.27,325707.1,7210677.92
"182397",182397,1986,40,"d","Duiker",1,-25.22,31.26,324713.76,7209557.27
"182413",182413,1986,40,"d","Duiker",1,-25.23,31.3,328758.1,7208501.21
"182420",182420,1986,40,"d","Duiker",1,-25.22,31.32,330759.24,7209634.17
"182493",182493,1986,40,"d","Duiker",1,-25.3,31.29,327849.4,7200734.94
"183155",183155,1986,57,"d","Duiker",1,-23.36,31.17,312937.88,7415442.65
"183811",183811,1986,31,"d","Duiker",1,-24.59,31.66,364327.58,7279789.46
"184468",184468,1986,25,"d","Duiker",1,-24.1,31.83,381084.63,7334206.18
"186026",186026,1986,24,"d","Duiker",1,-22.85,30.99,293755.47,7471679.84
"186254",186254,1986,58,"d","Duiker",1,-25.1,31.69,367908.05,7223338.68
"186352",186352,1986,58,"d","Duiker",1,-25.02,31.73,371858.63,7232236.97
"186396",186396,1986,58,"d","Duiker",1,-25.02,31.76,374885.9,7232265.02
"186465",186465,1986,11,"d","Duiker",1,-23.39,31.25,321157.52,7412221.79
"186504",186504,1986,11,"d","Duiker",1,-23.37,31.23,319086,7414411.68
"186547",186547,1986,11,"d","Duiker",1,-23.32,31.24,320040.92,7419961.21
"186550",186550,1986,11,"d","Duiker",1,-23.33,31.23,319031.75,7418841.33
"187530",187530,1986,22,"d","Duiker",1,-24.4,31.37,334712.62,7300515.3
"187589",187589,1986,22,"d","Duiker",1,-24.43,31.43,340835.49,7297263.09
"187624",187624,1986,12,"d","Duiker",1,-23.19,30.95,290176.96,7433968.49
"187659",187659,1986,12,"d","Duiker",1,-23.29,31,295448.66,7422964.78
"187701",187701,1986,12,"d","Duiker",1,-23.17,30.96,291169.73,7436197.9
"187797",187797,1986,12,"d","Duiker",1,-23.24,31.01,296395.71,7428516.35
"188206",188206,1986,12,"d","Duiker",1,-23.24,31.17,312769.93,7428731.81
"188441",188441,1986,9,"d","Duiker",1,-23.47,31.1,305941.31,7403168.02
"188721",188721,1986,8,"d","Duiker",1,-23.45,31.27,323281.63,7405602.02
"188730",188730,1986,8,"d","Duiker",1,-23.42,31.28,324263.66,7408936.47
"188810",188810,1986,8,"d","Duiker",1,-23.49,31.28,324356.31,7401184.64
"188901",188901,1986,8,"d","Duiker",1,-23.5,31.37,333561.29,7400184.41
"188960",188960,1986,8,"d","Duiker",1,-23.54,31.32,328506.66,7395695.99
"188966",188966,1986,8,"d","Duiker",1,-23.56,31.29,325470.08,7393444.97
"188974",188974,1986,8,"d","Duiker",1,-23.55,31.32,328519.64,7394588.59
"189311",189311,1986,30,"d","Duiker",2,-24.7,31.97,395808.37,7267878.79
"189629",189629,1986,30,"d","Duiker",1,-24.53,31.99,397693.41,7286718.65
"189756",189756,1986,46,"d","Duiker",1,-25.37,32,399391.32,7193705.45
"190025",190025,1986,46,"d","Duiker",1,-25.23,31.96,395246.42,7209179.01
"190718",190718,1986,27,"d","Duiker",1,-24.21,31.87,385248.78,7322059.14
"192094",192094,1986,53,"d","Duiker",1,-25.42,31.63,362219,7187837.76
"192101",192101,1986,53,"d","Duiker",1,-25.41,31.62,361201.72,7188934.95
"192326",192326,1986,53,"d","Duiker",1,-25.37,31.7,369205.8,7193445.82
"192373",192373,1986,53,"d","Duiker",1,-25.35,31.69,368177.88,7195651.05
"192447",192447,1986,53,"d","Duiker",1,-25.38,31.75,374247.22,7192386.29
"192448",192448,1986,53,"d","Duiker",1,-25.37,31.75,374236.87,7193493.8
"192450",192450,1986,53,"d","Duiker",1,-25.37,31.75,374236.87,7193493.8
"192481",192481,1986,45,"d","Duiker",1,-25.1,31.9,389084.93,7223527.63
"192625",192625,1986,45,"d","Duiker",1,-25.13,31.89,388103.85,7220197.07
"192829",192829,1986,45,"d","Duiker",1,-25.18,31.92,391172.68,7214684.44
"193330",193330,1986,41,"d","Duiker",1,-25.19,31.48,346842.42,7213148.74
"193358",193358,1986,41,"d","Duiker",1,-25.19,31.48,346842.42,7213148.74
"193420",193420,1986,41,"d","Duiker",1,-25.16,31.46,344788.87,7216448.53
"193436",193436,1986,41,"d","Duiker",1,-25.21,31.46,344852.23,7210910.68
"193440",193440,1986,41,"d","Duiker",1,-25.21,31.45,343844.62,7210899.11
"193488",193488,1986,41,"d","Duiker",1,-25.19,31.42,340795.76,7213079.1
"193538",193538,1986,41,"d","Duiker",1,-25.2,31.4,338793.35,7211947.7
"193746",193746,1986,41,"d","Duiker",2,-25.24,31.38,336831.31,7207493.17
"193795",193795,1986,41,"d","Duiker",1,-25.28,31.38,336884.78,7203062.73
"193946",193946,1986,43,"d","Duiker",1,-24.98,31.36,334466.65,7236266.18
"193960",193960,1986,43,"d","Duiker",1,-25.01,31.36,334506.85,7232943.44
"193978",193978,1986,43,"d","Duiker",1,-24.99,31.37,335489.49,7235170.77
"193991",193991,1986,43,"d","Duiker",1,-25.01,31.38,336525.4,7232967.72
"194001",194001,1986,43,"d","Duiker",1,-25.04,31.39,337574.19,7229657.04
"194156",194156,1986,43,"d","Duiker",1,-25.01,31.44,342581.01,7233038.79
"194737",194737,1986,20,"d","Duiker",1,-24.07,31.52,349537.9,7337230.76
"194783",194783,1986,20,"d","Duiker",1,-24.05,31.57,354599.26,7339498.18
"194952",194952,1986,19,"d","Duiker",1,-23.67,31.68,365393.12,7381685.69
"195008",195008,1986,19,"d","Duiker",1,-23.79,31.7,367554.2,7368416.89
"195010",195010,1986,19,"d","Duiker",1,-23.8,31.71,368583.19,7367318.88
"195020",195020,1986,19,"d","Duiker",1,-23.82,31.72,369622.02,7365113.5
"195026",195026,1986,19,"d","Duiker",1,-23.84,31.74,371679.08,7362917.15
"195066",195066,1986,19,"d","Duiker",1,-23.39,31.54,350799.14,7412551.51
"195166",195166,1986,19,"d","Duiker",1,-23.85,31.71,368633.56,7361782.36
"195205",195205,1986,19,"d","Duiker",1,-23.91,31.72,369712.11,7355147.74
"195234",195234,1986,19,"d","Duiker",1,-23.93,31.73,370750.01,7352942.3
"195312",195312,1986,19,"d","Duiker",1,-23.9,31.79,376828.49,7356317.8
"195331",195331,1986,19,"d","Duiker",1,-23.92,31.8,377865.34,7354111.89
"195359",195359,1986,19,"d","Duiker",1,-23.93,31.81,378892.55,7353013.21
"195426",195426,1986,19,"d","Duiker",1,-23.95,31.87,385017.09,7350848.82
"195446",195446,1986,44,"d","Duiker",1,-25.22,31.62,360984.96,7209978.17
"195451",195451,1986,44,"d","Duiker",1,-25.24,31.62,361007.71,7207763.12
"195523",195523,1986,44,"d","Duiker",1,-25.23,31.65,364018.51,7208901.34
"195549",195549,1986,44,"d","Duiker",1,-25.26,31.67,366066.19,7205598.89
"195580",195580,1986,44,"d","Duiker",1,-25.28,31.68,367095.11,7203393.8
"195715",195715,1986,44,"d","Duiker",1,-25.31,31.72,371154.69,7200110.32
"196102",196102,1986,2,"d","Duiker",1,-23.87,31.5,347268.7,7359357
"196107",196107,1986,2,"d","Duiker",1,-23.91,31.49,346297.62,7354916.64
"196119",196119,1986,2,"d","Duiker",1,-23.95,31.48,345327.24,7350476.16
"196311",196311,1986,2,"d","Duiker",1,-23.98,31.38,335187.79,7347040.62
"196382",196382,1986,47,"d","Duiker",1,-22.65,31.28,323261.79,7494202.47
"196838",196838,1986,13,"d","Duiker",1,-23.82,31.64,361472.39,7365037.66
"197228",197228,1986,51,"d","Duiker",1,-22.61,31.32,327322.84,7498678.59
"197229",197229,1986,51,"d","Duiker",1,-22.62,31.35,330419.23,7497605.79
"197247",197247,1986,51,"d","Duiker",1,-22.69,31.33,328450.34,7489831.9
"197250",197250,1986,51,"d","Duiker",1,-22.72,31.34,329514.95,7486521.56
"197332",197332,1986,56,"d","Duiker",1,-25.45,31.55,354208.45,7184430.01
"198454",198454,1986,6,"d","Duiker",1,-23.56,31.36,332615.95,7393528.49
"198563",198563,1986,6,"d","Duiker",2,-23.66,31.37,333762.98,7382466.24
"199552",199552,1986,60,"d","Duiker",1,-25.02,31.59,357731.06,7232097.2
"199608",199608,1986,60,"d","Duiker",1,-24.98,31.63,361722.79,7236568.59
"199647",199647,1986,60,"d","Duiker",1,-24.99,31.63,361733.97,7235461.1
"199679",199679,1986,60,"d","Duiker",2,-24.99,31.65,363752.7,7235481.35
"199730",199730,1986,60,"d","Duiker",1,-24.99,31.66,364762.06,7235491.36
"199731",199731,1986,60,"d","Duiker",1,-24.99,31.66,364762.06,7235491.36
"199743",199743,1986,60,"d","Duiker",1,-24.99,31.66,364762.06,7235491.36
"199747",199747,1986,60,"d","Duiker",1,-25,31.66,364773,7234383.88
"199751",199751,1986,60,"d","Duiker",1,-25.01,31.66,364783.95,7233276.4
"199786",199786,1986,60,"d","Duiker",1,-24.98,31.68,366769.99,7236618.64
"199791",199791,1986,60,"d","Duiker",1,-25,31.68,366791.55,7234403.69
"199795",199795,1986,60,"d","Duiker",1,-25.02,31.68,366813.13,7232188.73
"199839",199839,1986,60,"d","Duiker",1,-24.99,31.71,369808.81,7235540.3
"199863",199863,1986,60,"d","Duiker",1,-25,31.73,371837.87,7234451.9
"200346",200346,1986,18,"d","Duiker",3,-23.27,31.46,342480.95,7425754.35
"202714",202714,1986,54,"d","Duiker",1,-23.04,31.24,319665.89,7450968
"202778",202778,1986,54,"d","Duiker",1,-23.05,31.19,314555.29,7449798.11
