"","ID","Year","Cenb","Sp","Description","No","Lat","Long","X.coord","Y.coord"
"98628",98628,1983,1,"v","Warthog",3,-23.87,31.57,354397.19,7359430.77
"98638",98638,1983,1,"v","Warthog",2,-24.01,31.61,358623.19,7343968.44
"98651",98651,1983,1,"v","Warthog",2,-23.97,31.59,356544.39,7348377.66
"98721",98721,1983,1,"v","Warthog",1,-23.89,31.61,358492.3,7357256.66
"98735",98735,1983,1,"v","Warthog",2,-23.91,31.59,356478.03,7355021.8
"98740",98740,1983,1,"v","Warthog",3,-23.91,31.61,358514.07,7355041.97
"98770",98770,1983,1,"v","Warthog",1,-23.87,31.61,358470.54,7359471.35
"98932",98932,1983,1,"v","Warthog",1,-24.01,31.69,366760.97,7344046.47
"98942",98942,1983,1,"v","Warthog",3,-24.03,31.67,364747.47,7341812.71
"98971",98971,1983,1,"v","Warthog",3,-23.97,31.67,364684.73,7348456.75
"98980",98980,1983,1,"v","Warthog",1,-23.97,31.69,366719.78,7348475.8
"98981",98981,1983,1,"v","Warthog",2,-23.97,31.69,366719.78,7348475.8
"99015",99015,1983,1,"v","Warthog",3,-23.95,31.67,364663.85,7350671.42
"99190",99190,1983,2,"v","Warthog",2,-23.97,31.38,335175.07,7348148.05
"99262",99262,1983,2,"v","Warthog",3,-24.03,31.42,339320.07,7341549.71
"99278",99278,1983,2,"v","Warthog",4,-23.99,31.44,341305.24,7346002.08
"99303",99303,1983,2,"v","Warthog",1,-23.91,31.42,339171.15,7354838.73
"99398",99398,1983,2,"v","Warthog",2,-23.95,31.51,348380.46,7350508.72
"99404",99404,1983,2,"v","Warthog",2,-23.95,31.53,350415.93,7350530.07
"99431",99431,1983,2,"v","Warthog",2,-23.91,31.51,348333.73,7354938.25
"99469",99469,1983,2,"v","Warthog",1,-23.97,31.57,354509.27,7348357.17
"99483",99483,1983,2,"v","Warthog",2,-23.99,31.57,354531.74,7346142.43
"99543",99543,1983,3,"v","Warthog",6,-23.97,31.19,315839.64,7347912.86
"99562",99562,1983,3,"v","Warthog",1,-23.95,31.17,313775.51,7350101.61
"99563",99563,1983,3,"v","Warthog",3,-23.95,31.17,313775.51,7350101.61
"99564",99564,1983,3,"v","Warthog",6,-23.95,31.17,313775.51,7350101.61
"99617",99617,1983,3,"v","Warthog",1,-24.01,31.21,317931.29,7343508.84
"99618",99618,1983,3,"v","Warthog",1,-24.01,31.21,317931.29,7343508.84
"99619",99619,1983,3,"v","Warthog",2,-24.01,31.21,317931.29,7343508.84
"99634",99634,1983,3,"v","Warthog",4,-23.97,31.21,317875.01,7347938.84
"99635",99635,1983,3,"v","Warthog",4,-23.97,31.21,317875.01,7347938.84
"99653",99653,1983,3,"v","Warthog",1,-23.99,31.23,319938.18,7345749.56
"99697",99697,1983,3,"v","Warthog",5,-23.91,31.21,317790.74,7354583.82
"99749",99749,1983,3,"v","Warthog",3,-24.01,31.28,325052.77,7343597.62
"99750",99750,1983,3,"v","Warthog",3,-24.01,31.28,325052.77,7343597.62
"99788",99788,1983,3,"v","Warthog",2,-23.95,31.26,322936.04,7350217.5
"99896",99896,1983,3,"v","Warthog",6,-24.03,31.32,329148.55,7341431.84
"99911",99911,1983,3,"v","Warthog",2,-23.93,31.3,326980.62,7352482.05
"99923",99923,1983,3,"v","Warthog",1,-23.95,31.3,327007.29,7350267.13
"99924",99924,1983,3,"v","Warthog",6,-23.95,31.3,327007.29,7350267.13
"99955",99955,1983,3,"v","Warthog",4,-23.91,31.32,328990.2,7354721.31
"99963",99963,1983,3,"v","Warthog",4,-23.87,31.32,328937.58,7359151.09
"99988",99988,1983,3,"v","Warthog",2,-24.01,31.34,331156.75,7343670.9
"100000",100000,1983,3,"v","Warthog",3,-24.03,31.34,331182.88,7341455.99
"100001",100001,1983,3,"v","Warthog",4,-24.03,31.34,331182.88,7341455.99
"100002",100002,1983,3,"v","Warthog",4,-24.03,31.34,331182.88,7341455.99
"100013",100013,1983,3,"v","Warthog",1,-23.97,31.36,333139.82,7348124.52
"100028",100028,1983,3,"v","Warthog",2,-23.95,31.34,331078.49,7350315.6
"100076",100076,1983,4,"v","Warthog",1,-23.83,31.15,311565.95,7363365.23
"100080",100080,1983,4,"v","Warthog",1,-23.76,31.15,311464.92,7371117.74
"100115",100115,1983,4,"v","Warthog",1,-23.85,31.17,313632.15,7361176.68
"100165",100165,1983,4,"v","Warthog",1,-23.76,31.17,313503.61,7371144.13
"100166",100166,1983,4,"v","Warthog",3,-23.76,31.17,313503.61,7371144.13
"100214",100214,1983,4,"v","Warthog",1,-23.7,31.17,313418.17,7377789.04
"100223",100223,1983,4,"v","Warthog",2,-23.7,31.19,315457.78,7377815.09
"100224",100224,1983,4,"v","Warthog",2,-23.7,31.19,315457.78,7377815.09
"100225",100225,1983,4,"v","Warthog",2,-23.7,31.19,315457.78,7377815.09
"100226",100226,1983,4,"v","Warthog",4,-23.7,31.19,315457.78,7377815.09
"100232",100232,1983,4,"v","Warthog",2,-23.85,31.21,317706.67,7361228.74
"100255",100255,1983,4,"v","Warthog",3,-23.81,31.21,317650.74,7365658.67
"100274",100274,1983,4,"v","Warthog",1,-23.83,31.21,317678.69,7363443.71
"100280",100280,1983,4,"v","Warthog",5,-23.83,31.23,319716.25,7363469.29
"100312",100312,1983,4,"v","Warthog",2,-23.72,31.23,319564.48,7375651.42
"100322",100322,1983,4,"v","Warthog",6,-23.74,31.23,319592.02,7373436.5
"100331",100331,1983,4,"v","Warthog",2,-23.7,31.21,317497.38,7377840.85
"100332",100332,1983,4,"v","Warthog",4,-23.7,31.21,317497.38,7377840.85
"100347",100347,1983,4,"v","Warthog",1,-23.83,31.28,324810.06,7363531.99
"100369",100369,1983,4,"v","Warthog",1,-23.72,31.26,322623.35,7375689.12
"100376",100376,1983,4,"v","Warthog",4,-23.72,31.28,324662.59,7375713.89
"100418",100418,1983,4,"v","Warthog",2,-23.83,31.32,328885.05,7363580.85
"100428",100428,1983,4,"v","Warthog",2,-23.78,31.32,328819.49,7369118.02
"100435",100435,1983,4,"v","Warthog",3,-23.72,31.3,326701.8,7375738.38
"100549",100549,1983,5,"v","Warthog",2,-23.87,31.4,337084.88,7359245.49
"100588",100588,1983,5,"v","Warthog",1,-23.76,31.38,334908.96,7371403.86
"100589",100589,1983,5,"v","Warthog",2,-23.76,31.38,334908.96,7371403.86
"100603",100603,1983,5,"v","Warthog",1,-23.78,31.38,334934.21,7369189.05
"100621",100621,1983,5,"v","Warthog",4,-23.87,31.44,341158.45,7359290.96
"100651",100651,1983,5,"v","Warthog",4,-23.85,31.46,343171.13,7361528.04
"100706",100706,1983,5,"v","Warthog",2,-23.85,31.51,348263.76,7361582.5
"100718",100718,1983,5,"v","Warthog",2,-23.85,31.53,350300.8,7361603.78
"100741",100741,1983,5,"v","Warthog",1,-23.81,31.53,350254.87,7366033.23
"100904",100904,1983,6,"v","Warthog",3,-23.74,31.4,336922.57,7373641.74
"101021",101021,1983,6,"v","Warthog",1,-23.53,31.42,338704.23,7396919.39
"101070",101070,1983,7,"v","Warthog",3,-23.66,31.15,311321.08,7382192.65
"101073",101073,1983,7,"v","Warthog",1,-23.68,31.17,313389.74,7380004
"101093",101093,1983,7,"v","Warthog",1,-23.66,31.17,313361.32,7382218.95
"101102",101102,1983,7,"v","Warthog",1,-23.72,31.23,319564.48,7375651.42
"101109",101109,1983,7,"v","Warthog",3,-23.68,31.21,317469.56,7380055.78
"101110",101110,1983,7,"v","Warthog",3,-23.68,31.21,317469.56,7380055.78
"101115",101115,1983,7,"v","Warthog",1,-23.68,31.23,319509.46,7380081.24
"101118",101118,1983,7,"v","Warthog",4,-23.7,31.21,317497.38,7377840.85
"101162",101162,1983,7,"v","Warthog",3,-23.68,31.26,322569.26,7380118.89
"101212",101212,1983,7,"v","Warthog",1,-23.6,31.28,324502.44,7389003.07
"101218",101218,1983,7,"v","Warthog",1,-23.62,31.26,322488.29,7386763.52
"101219",101219,1983,7,"v","Warthog",1,-23.62,31.26,322488.29,7386763.52
"101220",101220,1983,7,"v","Warthog",2,-23.62,31.26,322488.29,7386763.52
"101221",101221,1983,7,"v","Warthog",2,-23.62,31.26,322488.29,7386763.52
"101289",101289,1983,8,"v","Warthog",2,-23.56,31.28,324449.23,7393432.75
"101328",101328,1983,8,"v","Warthog",1,-23.49,31.26,322313.52,7401160.05
"101329",101329,1983,8,"v","Warthog",2,-23.49,31.26,322313.52,7401160.05
"101330",101330,1983,8,"v","Warthog",2,-23.49,31.26,322313.52,7401160.05
"101344",101344,1983,8,"v","Warthog",3,-23.43,31.28,324276.88,7407829.07
"101352",101352,1983,8,"v","Warthog",3,-23.45,31.28,324303.34,7405614.27
"101356",101356,1983,8,"v","Warthog",2,-23.41,31.26,322206.42,7410019.34
"101359",101359,1983,8,"v","Warthog",1,-23.41,31.28,324250.45,7410043.87
"101372",101372,1983,8,"v","Warthog",2,-23.51,31.3,326425.31,7398994.15
"101373",101373,1983,8,"v","Warthog",4,-23.51,31.3,326425.31,7398994.15
"101377",101377,1983,8,"v","Warthog",1,-23.51,31.32,328467.77,7399018.18
"101378",101378,1983,8,"v","Warthog",1,-23.51,31.32,328467.77,7399018.18
"101409",101409,1983,8,"v","Warthog",1,-23.49,31.3,326399.1,7401208.95
"101410",101410,1983,8,"v","Warthog",2,-23.49,31.3,326399.1,7401208.95
"101420",101420,1983,8,"v","Warthog",1,-23.49,31.32,328441.87,7401232.97
"101428",101428,1983,8,"v","Warthog",1,-23.45,31.32,328390.12,7405662.54
"101430",101430,1983,8,"v","Warthog",1,-23.39,31.3,326268.36,7412282.89
"101437",101437,1983,8,"v","Warthog",4,-23.41,31.3,326294.46,7410068.12
"101449",101449,1983,8,"v","Warthog",3,-23.51,31.34,330510.21,7399041.94
"101519",101519,1983,8,"v","Warthog",1,-23.51,31.4,336637.46,7399111.49
"101593",101593,1983,9,"v","Warthog",1,-23.51,31.09,304978.58,7398724.54
"101625",101625,1983,9,"v","Warthog",4,-23.49,31.11,306992.05,7400966.53
"101635",101635,1983,9,"v","Warthog",1,-23.64,31.15,311292.38,7384407.62
"101647",101647,1983,9,"v","Warthog",3,-23.6,31.15,311235.05,7388837.53
"101661",101661,1983,9,"v","Warthog",2,-23.62,31.15,311263.7,7386622.58
"101729",101729,1983,9,"v","Warthog",1,-23.62,31.17,313304.57,7386648.85
"101740",101740,1983,9,"v","Warthog",1,-23.56,31.19,315261.39,7393319.58
"101760",101760,1983,9,"v","Warthog",1,-23.53,31.19,315219.45,7396641.94
"101786",101786,1983,9,"v","Warthog",1,-23.49,31.19,315163.61,7401071.73
"101806",101806,1983,9,"v","Warthog",1,-23.45,31.19,315107.86,7405501.5
"101818",101818,1983,9,"v","Warthog",3,-23.56,31.21,317303.16,7393345.23
"101874",101874,1983,9,"v","Warthog",3,-23.58,31.28,324475.82,7391217.91
"101894",101894,1983,10,"v","Warthog",2,-23.35,31.03,298608.26,7416361.87
"101945",101945,1983,10,"v","Warthog",1,-23.43,31.07,302817.03,7407557.18
"101981",101981,1983,10,"v","Warthog",2,-23.41,31.05,300743.17,7409744.65
"102037",102037,1983,10,"v","Warthog",1,-23.33,31.07,302668.94,7418632.02
"102068",102068,1983,10,"v","Warthog",1,-23.39,31.09,304802.21,7412014.34
"102107",102107,1983,10,"v","Warthog",1,-23.35,31.11,306788.69,7416471.12
"102108",102108,1983,10,"v","Warthog",2,-23.35,31.11,306788.69,7416471.12
"102123",102123,1983,10,"v","Warthog",1,-23.37,31.11,306817.67,7414256.2
"102158",102158,1983,10,"v","Warthog",4,-23.45,31.15,311020.88,7405449.54
"102161",102161,1983,10,"v","Warthog",3,-23.39,31.13,308891.13,7412067.91
"102169",102169,1983,10,"v","Warthog",1,-23.39,31.15,310935.57,7412094.26
"102181",102181,1983,10,"v","Warthog",2,-23.41,31.15,310963.98,7409879.36
"102189",102189,1983,10,"v","Warthog",1,-23.35,31.15,310878.81,7416524.05
"102195",102195,1983,10,"v","Warthog",4,-23.37,31.13,308862.44,7414282.82
"102233",102233,1983,10,"v","Warthog",2,-23.41,31.17,313008.1,7409905.45
"102234",102234,1983,10,"v","Warthog",4,-23.41,31.17,313008.1,7409905.45
"102337",102337,1983,11,"v","Warthog",2,-23.24,31.21,316863.32,7428782.86
"102359",102359,1983,11,"v","Warthog",2,-23.35,31.26,322126.32,7416663.76
"102360",102360,1983,11,"v","Warthog",2,-23.35,31.26,322126.32,7416663.76
"102361",102361,1983,11,"v","Warthog",3,-23.35,31.26,322126.32,7416663.76
"102369",102369,1983,11,"v","Warthog",1,-23.35,31.28,324171.27,7416688.24
"102370",102370,1983,11,"v","Warthog",6,-23.35,31.28,324171.27,7416688.24
"102401",102401,1983,11,"v","Warthog",4,-23.26,31.28,324052.87,7426654.7
"102412",102412,1983,11,"v","Warthog",6,-23.22,31.28,324000.38,7431084.21
"102473",102473,1983,12,"v","Warthog",3,-23.22,30.96,291247.42,7430660.34
"102489",102489,1983,12,"v","Warthog",3,-23.24,30.98,293325.42,7428473.94
"102535",102535,1983,12,"v","Warthog",1,-23.24,31.01,296395.71,7428516.35
"102556",102556,1983,12,"v","Warthog",1,-23.26,31.05,300519.13,7426356.96
"102557",102557,1983,12,"v","Warthog",1,-23.26,31.05,300519.13,7426356.96
"102644",102644,1983,12,"v","Warthog",1,-23.26,31.15,310751.45,7426491.01
"102675",102675,1983,12,"v","Warthog",2,-23.22,31.15,310694.99,7430920.73
"102691",102691,1983,12,"v","Warthog",7,-23.24,31.15,310723.21,7428705.87
"102776",102776,1983,13,"v","Warthog",4,-23.74,31.53,350174.68,7373784.71
"102843",102843,1983,13,"v","Warthog",2,-23.78,31.57,354296.69,7369396.9
"102848",102848,1983,13,"v","Warthog",6,-23.72,31.55,352190.86,7376020.31
"102871",102871,1983,13,"v","Warthog",2,-23.7,31.57,354207.66,7378255.6
"102934",102934,1983,13,"v","Warthog",4,-23.83,31.59,356389.79,7363880.58
"102991",102991,1983,13,"v","Warthog",2,-23.72,31.59,356268.92,7376061.26
"103009",103009,1983,13,"v","Warthog",1,-23.74,31.59,356290.85,7373846.61
"103010",103010,1983,13,"v","Warthog",3,-23.74,31.59,356290.85,7373846.61
"103011",103011,1983,13,"v","Warthog",3,-23.74,31.59,356290.85,7373846.61
"103027",103027,1983,13,"v","Warthog",2,-23.68,31.59,356225.1,7380490.56
"103032",103032,1983,13,"v","Warthog",6,-23.68,31.61,358264.73,7380510.58
"103044",103044,1983,13,"v","Warthog",4,-23.7,31.61,358286.32,7378295.95
"103123",103123,1983,13,"v","Warthog",2,-23.78,31.65,362448.98,7369476.67
"103160",103160,1983,13,"v","Warthog",1,-23.68,31.63,360304.35,7380530.32
"103167",103167,1983,13,"v","Warthog",1,-23.7,31.63,360325.63,7378315.7
"103210",103210,1983,14,"v","Warthog",1,-23.49,31.4,336612.8,7401326.22
"103211",103211,1983,14,"v","Warthog",4,-23.49,31.4,336612.8,7401326.22
"103222",103222,1983,14,"v","Warthog",1,-23.45,31.4,336563.52,7405755.66
"103240",103240,1983,14,"v","Warthog",2,-23.51,31.42,338679.85,7399134.11
"103325",103325,1983,14,"v","Warthog",1,-23.6,31.48,344912.62,7389234.16
"103377",103377,1983,14,"v","Warthog",1,-23.53,31.46,342788.35,7396963.79
"103423",103423,1983,14,"v","Warthog",3,-23.6,31.51,347974.04,7389266.37
"103427",103427,1983,14,"v","Warthog",1,-23.6,31.53,350014.96,7389287.48
"103447",103447,1983,14,"v","Warthog",4,-23.51,31.51,347870.44,7399232.35
"103467",103467,1983,14,"v","Warthog",2,-23.49,31.51,347847.47,7401447
"103480",103480,1983,14,"v","Warthog",1,-23.45,31.53,349844.83,7405897.29
"103483",103483,1983,14,"v","Warthog",1,-23.58,31.55,352033.44,7391522.95
"103508",103508,1983,15,"v","Warthog",2,-23.39,31.34,330356.96,7412330.5
"103551",103551,1983,15,"v","Warthog",5,-23.33,31.34,330280.61,7418974.71
"103622",103622,1983,15,"v","Warthog",4,-23.28,31.38,334309.04,7424557.82
"103671",103671,1983,15,"v","Warthog",5,-23.33,31.46,342551.6,7419110.45
"103695",103695,1983,15,"v","Warthog",4,-23.31,31.51,347641.57,7421378.61
"103705",103705,1983,15,"v","Warthog",2,-23.33,31.51,347664.37,7419164.01
"103716",103716,1983,18,"v","Warthog",2,-23.26,31.32,328145.48,7426702.67
"103824",103824,1983,18,"v","Warthog",3,-23.26,31.4,336330.54,7426795.22
"103924",103924,1983,18,"v","Warthog",4,-23.31,31.44,340482.59,7421303.19
"103942",103942,1983,18,"v","Warthog",5,-23.28,31.42,338400.91,7424603
"103951",103951,1983,18,"v","Warthog",3,-23.28,31.44,340446.82,7424625.16
"103952",103952,1983,18,"v","Warthog",3,-23.28,31.44,340446.82,7424625.16
"103978",103978,1983,18,"v","Warthog",3,-23.24,31.42,338352.66,7429032.3
"103985",103985,1983,18,"v","Warthog",3,-23.24,31.44,340399.18,7429054.43
"104006",104006,1983,18,"v","Warthog",1,-23.2,31.42,338304.49,7433461.58
"104056",104056,1983,18,"v","Warthog",2,-23.16,31.44,340304.14,7437912.91
"104083",104083,1983,18,"v","Warthog",2,-23.26,31.46,342469.19,7426861.66
"104086",104086,1983,18,"v","Warthog",4,-23.26,31.48,344515.38,7426883.24
"104088",104088,1983,18,"v","Warthog",3,-23.28,31.46,342492.71,7424647.04
"104089",104089,1983,18,"v","Warthog",3,-23.28,31.46,342492.71,7424647.04
"104101",104101,1983,18,"v","Warthog",1,-23.22,31.46,342422.21,7431290.89
"104110",104110,1983,18,"v","Warthog",1,-23.24,31.48,344492.18,7429097.85
"104127",104127,1983,18,"v","Warthog",2,-23.2,31.46,342398.74,7433505.5
"104154",104154,1983,18,"v","Warthog",1,-23.31,31.51,347641.57,7421378.61
"104170",104170,1983,18,"v","Warthog",3,-23.26,31.53,349630.8,7426935.97
"104185",104185,1983,18,"v","Warthog",3,-23.22,31.51,347539.18,7431344.25
"104241",104241,1983,19,"v","Warthog",1,-23.51,31.57,353997.35,7399294.65
"104273",104273,1983,19,"v","Warthog",1,-23.56,31.61,358135.55,7393798.27
"104274",104274,1983,19,"v","Warthog",3,-23.56,31.61,358135.55,7393798.27
"104291",104291,1983,19,"v","Warthog",2,-23.53,31.61,358103.35,7397120.16
"104376",104376,1983,19,"v","Warthog",3,-23.58,31.63,360198.21,7391603.34
"104377",104377,1983,19,"v","Warthog",5,-23.58,31.63,360198.21,7391603.34
"104385",104385,1983,19,"v","Warthog",1,-23.89,31.67,364601.3,7357315.4
"104539",104539,1983,19,"v","Warthog",5,-23.68,31.67,364383.57,7380568.93
"104567",104567,1983,19,"v","Warthog",4,-23.6,31.67,364301.1,7389427.26
"104583",104583,1983,19,"v","Warthog",1,-23.62,31.67,364321.69,7387212.68
"104596",104596,1983,19,"v","Warthog",2,-23.89,31.71,368673.92,7357353.11
"104624",104624,1983,19,"v","Warthog",2,-23.85,31.73,370670.47,7361800.76
"104771",104771,1983,19,"v","Warthog",2,-23.91,31.8,377855.94,7355219.19
"104885",104885,1983,20,"v","Warthog",4,-24.1,31.4,337374.09,7333774.64
"104909",104909,1983,20,"v","Warthog",1,-24.1,31.42,339407.26,7333797.69
"104918",104918,1983,20,"v","Warthog",2,-24.1,31.44,341440.42,7333820.44
"104965",104965,1983,20,"v","Warthog",5,-24.08,31.48,345482.71,7336079.91
"104980",104980,1983,20,"v","Warthog",2,-24.1,31.53,350589.48,7333919.25
"104985",104985,1983,20,"v","Warthog",1,-24.06,31.51,348509.36,7338327.41
"105071",105071,1983,20,"v","Warthog",2,-24.08,31.61,358699.83,7336216.88
"105076",105076,1983,20,"v","Warthog",3,-24.03,31.61,358645.06,7341753.72
"105088",105088,1983,20,"v","Warthog",2,-24.1,31.65,362787.83,7334041.85
"105101",105101,1983,20,"v","Warthog",1,-24.06,31.63,360711.58,7338451.59
"105179",105179,1983,21,"v","Warthog",4,-24.22,31.48,345651.02,7320576
"105181",105181,1983,21,"v","Warthog",2,-24.24,31.46,343644.23,7318338.87
"105190",105190,1983,21,"v","Warthog",2,-24.18,31.48,345602.84,7325005.72
"105289",105289,1983,21,"v","Warthog",1,-24.16,31.55,352691.32,7327296.03
"105349",105349,1983,21,"v","Warthog",1,-24.16,31.61,358787.67,7327357.88
"105374",105374,1983,21,"v","Warthog",3,-24.24,31.63,360906.61,7318518.88
"105395",105395,1983,22,"v","Warthog",4,-24.47,31.4,337844.82,7292798.32
"105401",105401,1983,22,"v","Warthog",1,-24.49,31.4,337870.46,7290583.33
"105406",105406,1983,22,"v","Warthog",4,-24.43,31.38,335765.67,7297204.71
"105413",105413,1983,22,"v","Warthog",1,-24.43,31.4,337793.61,7297228.28
"105414",105414,1983,22,"v","Warthog",2,-24.43,31.4,337793.61,7297228.28
"105415",105415,1983,22,"v","Warthog",3,-24.43,31.4,337793.61,7297228.28
"105416",105416,1983,22,"v","Warthog",3,-24.43,31.4,337793.61,7297228.28
"105417",105417,1983,22,"v","Warthog",6,-24.43,31.4,337793.61,7297228.28
"105430",105430,1983,22,"v","Warthog",1,-24.39,31.38,335713.9,7301634.68
"105442",105442,1983,22,"v","Warthog",2,-24.41,31.38,335739.77,7299419.69
"105443",105443,1983,22,"v","Warthog",4,-24.41,31.38,335739.77,7299419.69
"105450",105450,1983,22,"v","Warthog",3,-24.35,31.4,337691.41,7306088.14
"105456",105456,1983,22,"v","Warthog",1,-24.37,31.38,335688.04,7303849.65
"105461",105461,1983,22,"v","Warthog",6,-24.37,31.4,337716.93,7303873.18
"105480",105480,1983,22,"v","Warthog",3,-24.47,31.42,339872.11,7292821.63
"105481",105481,1983,22,"v","Warthog",3,-24.47,31.42,339872.11,7292821.63
"105482",105482,1983,22,"v","Warthog",4,-24.47,31.42,339872.11,7292821.63
"105483",105483,1983,22,"v","Warthog",7,-24.47,31.42,339872.11,7292821.63
"105484",105484,1983,22,"v","Warthog",7,-24.47,31.42,339872.11,7292821.63
"105506",105506,1983,22,"v","Warthog",6,-24.43,31.42,339821.53,7297251.56
"105525",105525,1983,22,"v","Warthog",1,-24.45,31.42,339846.81,7295036.6
"105526",105526,1983,22,"v","Warthog",1,-24.45,31.42,339846.81,7295036.6
"105527",105527,1983,22,"v","Warthog",4,-24.45,31.42,339846.81,7295036.6
"105548",105548,1983,22,"v","Warthog",4,-24.39,31.44,341799.58,7301704.43
"105557",105557,1983,22,"v","Warthog",8,-24.41,31.42,339796.27,7299466.52
"105564",105564,1983,22,"v","Warthog",9,-24.41,31.44,341824.5,7299489.49
"105585",105585,1983,22,"v","Warthog",2,-24.35,31.44,341749.8,7306134.29
"105586",105586,1983,22,"v","Warthog",5,-24.35,31.44,341749.8,7306134.29
"105599",105599,1983,22,"v","Warthog",2,-24.37,31.42,339745.81,7303896.42
"105626",105626,1983,22,"v","Warthog",2,-24.33,31.44,341724.94,7308349.22
"105640",105640,1983,22,"v","Warthog",1,-24.47,31.46,343926.63,7292867.37
"105642",105642,1983,22,"v","Warthog",2,-24.47,31.48,345953.87,7292889.8
"105671",105671,1983,22,"v","Warthog",1,-24.43,31.48,345905.22,7297319.65
"105677",105677,1983,22,"v","Warthog",1,-24.45,31.46,343901.97,7295082.31
"105693",105693,1983,22,"v","Warthog",1,-24.39,31.46,343828.12,7301727.1
"105694",105694,1983,22,"v","Warthog",5,-24.39,31.46,343828.12,7301727.1
"105701",105701,1983,22,"v","Warthog",6,-24.39,31.48,345856.64,7301749.47
"105710",105710,1983,22,"v","Warthog",1,-24.41,31.46,343852.72,7299512.17
"105726",105726,1983,22,"v","Warthog",1,-24.35,31.46,343778.98,7306156.93
"105727",105727,1983,22,"v","Warthog",5,-24.35,31.46,343778.98,7306156.93
"105734",105734,1983,22,"v","Warthog",1,-24.35,31.48,345808.14,7306179.28
"105742",105742,1983,22,"v","Warthog",2,-24.37,31.46,343803.54,7303942.02
"105743",105743,1983,22,"v","Warthog",6,-24.37,31.46,343803.54,7303942.02
"105754",105754,1983,22,"v","Warthog",1,-24.31,31.48,345759.71,7310609.07
"105765",105765,1983,22,"v","Warthog",1,-24.26,31.48,345699.28,7316146.27
"105777",105777,1983,22,"v","Warthog",7,-24.43,31.51,348947.02,7297352.7
"105789",105789,1983,22,"v","Warthog",2,-24.43,31.53,350974.88,7297374.37
"105790",105790,1983,22,"v","Warthog",3,-24.43,31.53,350974.88,7297374.37
"105796",105796,1983,22,"v","Warthog",4,-24.45,31.51,348970.86,7295137.8
"105800",105800,1983,22,"v","Warthog",3,-24.39,31.51,348899.41,7301782.49
"105830",105830,1983,22,"v","Warthog",4,-24.26,31.51,348745.15,7316179.15
"105833",105833,1983,22,"v","Warthog",1,-24.26,31.53,350775.72,7316200.7
"105857",105857,1983,22,"v","Warthog",2,-24.35,31.57,354939.22,7306276.22
"105874",105874,1983,22,"v","Warthog",1,-24.24,31.57,354814.11,7318457.75
"106081",106081,1983,23,"v","Warthog",2,-24.24,31.71,369029.8,7318596.31
"106107",106107,1983,23,"v","Warthog",1,-24.14,31.71,368927.62,7329669.86
"106108",106108,1983,23,"v","Warthog",5,-24.14,31.71,368927.62,7329669.86
"106173",106173,1983,24,"v","Warthog",1,-24.39,31.59,357013.31,7301867.3
"106179",106179,1983,24,"v","Warthog",3,-24.39,31.61,359041.75,7301887.77
"106248",106248,1983,24,"v","Warthog",2,-24.35,31.65,363055.54,7306357.42
"106252",106252,1983,24,"v","Warthog",5,-24.37,31.65,363077.07,7304142.63
"106263",106263,1983,24,"v","Warthog",2,-24.31,31.65,363012.53,7310786.99
"106338",106338,1983,24,"v","Warthog",2,-24.31,31.67,365042.22,7310806.53
"106365",106365,1983,24,"v","Warthog",2,-24.33,31.73,371151.44,7308648.69
"106368",106368,1983,24,"v","Warthog",3,-24.26,31.71,369050.28,7316381.59
"106378",106378,1983,24,"v","Warthog",4,-24.39,31.76,374254.75,7302031.98
"106416",106416,1983,25,"v","Warthog",3,-24.1,31.73,370919.85,7334117.78
"106480",106480,1983,25,"v","Warthog",5,-24.1,31.78,376002.27,7334162.89
"106644",106644,1983,25,"v","Warthog",3,-23.99,31.78,375896.58,7346343.35
"106660",106660,1983,25,"v","Warthog",3,-24.1,31.8,378035.22,7334180.42
"106671",106671,1983,25,"v","Warthog",1,-24.1,31.82,380068.16,7334197.66
"106709",106709,1983,25,"v","Warthog",1,-24.06,31.8,377997.36,7338609.67
"106737",106737,1983,25,"v","Warthog",1,-24.08,31.82,380049.54,7336412.28
"106746",106746,1983,25,"v","Warthog",1,-24.01,31.8,377950.13,7344146.21
"106765",106765,1983,25,"v","Warthog",1,-24.03,31.8,377969.01,7341931.6
"106824",106824,1983,25,"v","Warthog",2,-24.1,31.84,382101.09,7334214.62
"106825",106825,1983,25,"v","Warthog",2,-24.1,31.84,382101.09,7334214.62
"106845",106845,1983,25,"v","Warthog",2,-24.1,31.86,384134.01,7334231.28
"106873",106873,1983,25,"v","Warthog",2,-24.12,31.86,384152.02,7332016.68
"106990",106990,1983,25,"v","Warthog",4,-24.1,31.88,386166.93,7334247.65
"107051",107051,1983,26,"v","Warthog",1,-24.37,31.78,376263.63,7304264.68
"107103",107103,1983,26,"v","Warthog",7,-24.18,31.76,374047.73,7325286.4
"107108",107108,1983,26,"v","Warthog",2,-24.2,31.76,374067.37,7323071.72
"107213",107213,1983,26,"v","Warthog",4,-24.24,31.82,380198.9,7318695.17
"107214",107214,1983,26,"v","Warthog",6,-24.24,31.82,380198.9,7318695.17
"107216",107216,1983,26,"v","Warthog",2,-24.2,31.8,378130.12,7323107.18
"107255",107255,1983,26,"v","Warthog",3,-24.35,31.86,384360.05,7306548.33
"107290",107290,1983,26,"v","Warthog",3,-24.31,31.86,384323.74,7310977.66
"107313",107313,1983,26,"v","Warthog",1,-24.33,31.86,384341.88,7308762.99
"107406",107406,1983,26,"v","Warthog",3,-24.37,31.9,388435.47,7304366.38
"107473",107473,1983,27,"v","Warthog",4,-24.18,31.84,382174.45,7325356.12
"107533",107533,1983,27,"v","Warthog",5,-24.26,31.9,388339.17,7316546.91
"107569",107569,1983,27,"v","Warthog",1,-24.39,31.94,392509.59,7302183.3
"107592",107592,1983,27,"v","Warthog",1,-24.35,31.94,392475.77,7306612.58
"107593",107593,1983,27,"v","Warthog",2,-24.35,31.94,392475.77,7306612.58
"107619",107619,1983,27,"v","Warthog",2,-24.37,31.94,392492.67,7304397.94
"107651",107651,1983,27,"v","Warthog",1,-24.26,31.92,390369.53,7316562.78
"107652",107652,1983,27,"v","Warthog",2,-24.26,31.92,390369.53,7316562.78
"107742",107742,1983,27,"v","Warthog",2,-24.39,31.96,394537.86,7302198.65
"107808",107808,1983,27,"v","Warthog",1,-24.37,31.96,394521.26,7304413.28
"107869",107869,1983,28,"v","Warthog",3,-24.47,31.82,380415.25,7293226.19
"107890",107890,1983,28,"v","Warthog",2,-24.41,31.82,380358.62,7299870.35
"107908",107908,1983,28,"v","Warthog",3,-24.49,31.84,382460.87,7291028.62
"107914",107914,1983,28,"v","Warthog",1,-24.49,31.86,384487.59,7291045.49
"107915",107915,1983,28,"v","Warthog",2,-24.49,31.86,384487.59,7291045.49
"107951",107951,1983,28,"v","Warthog",13,-24.41,31.84,382386.63,7299887.46
"107952",107952,1983,28,"v","Warthog",2,-24.41,31.84,382386.63,7299887.46
"107971",107971,1983,28,"v","Warthog",5,-24.56,31.88,386577.2,7283310.57
"107991",107991,1983,28,"v","Warthog",2,-24.58,31.9,388620.45,7281112.17
"108014",108014,1983,28,"v","Warthog",4,-24.53,31.88,386550.22,7286632.65
"108081",108081,1983,28,"v","Warthog",3,-24.39,31.88,386424.72,7302135.49
"108102",108102,1983,28,"v","Warthog",1,-24.41,31.9,388470.59,7299937.06
"108139",108139,1983,28,"v","Warthog",2,-24.56,31.92,390628.33,7283342.91
"108182",108182,1983,28,"v","Warthog",3,-24.51,31.92,390584.99,7288879.64
"108197",108197,1983,28,"v","Warthog",1,-24.51,31.94,392611.35,7288895.34
"108211",108211,1983,28,"v","Warthog",4,-24.53,31.92,390602.32,7286664.95
"108226",108226,1983,28,"v","Warthog",2,-24.47,31.92,390550.38,7293309
"108286",108286,1983,28,"v","Warthog",3,-24.45,31.92,390533.09,7295523.67
"108366",108366,1983,28,"v","Warthog",1,-24.45,31.96,394587.72,7295554.73
"108368",108368,1983,29,"v","Warthog",3,-24.6,31.78,376488.43,7278795.04
"108371",108371,1983,29,"v","Warthog",2,-24.58,31.78,376468.81,7281009.82
"108389",108389,1983,29,"v","Warthog",2,-24.53,31.78,376419.81,7286546.75
"108398",108398,1983,29,"v","Warthog",2,-24.64,31.8,378552.06,7274383.29
"108408",108408,1983,29,"v","Warthog",4,-24.64,31.82,380576.39,7274400.82
"108423",108423,1983,29,"v","Warthog",1,-24.6,31.82,380538.38,7278830.36
"108424",108424,1983,29,"v","Warthog",4,-24.6,31.82,380538.38,7278830.36
"108443",108443,1983,29,"v","Warthog",2,-24.62,31.82,380557.37,7276615.59
"108459",108459,1983,29,"v","Warthog",2,-24.58,31.8,378494.1,7281027.62
"108483",108483,1983,29,"v","Warthog",2,-24.53,31.8,378445.91,7286564.52
"108509",108509,1983,29,"v","Warthog",1,-24.49,31.8,378407.41,7290994.01
"108516",108516,1983,29,"v","Warthog",3,-24.49,31.82,380434.15,7291011.47
"108536",108536,1983,29,"v","Warthog",2,-24.72,31.84,382675.6,7265558.96
"108538",108538,1983,29,"v","Warthog",1,-24.68,31.84,382638.12,7269988.52
"108565",108565,1983,29,"v","Warthog",2,-24.56,31.84,382526.03,7283277.07
"108573",108573,1983,29,"v","Warthog",3,-24.58,31.86,384569.94,7281079.23
"108574",108574,1983,29,"v","Warthog",3,-24.58,31.86,384569.94,7281079.23
"108589",108589,1983,29,"v","Warthog",1,-24.51,31.86,384505.86,7288830.78
"108633",108633,1983,29,"v","Warthog",1,-24.78,31.88,386776,7258948.31
"108638",108638,1983,29,"v","Warthog",2,-24.72,31.9,388744.61,7265609.02
"108650",108650,1983,29,"v","Warthog",1,-24.64,31.88,386649.3,7274451.65
"108662",108662,1983,30,"v","Warthog",2,-24.76,31.9,388780.2,7261179.5
"108726",108726,1983,30,"v","Warthog",2,-24.72,31.92,390767.59,7265625.12
"108742",108742,1983,30,"v","Warthog",2,-24.74,31.94,392807.71,7263426.18
"108753",108753,1983,30,"v","Warthog",2,-24.68,31.94,392756.32,7270070.38
"108764",108764,1983,30,"v","Warthog",3,-24.64,31.92,390697.86,7274484.06
"108779",108779,1983,30,"v","Warthog",2,-24.66,31.92,390715.27,7272269.33
"108792",108792,1983,30,"v","Warthog",2,-24.66,31.94,392739.21,7272285.1
"108931",108931,1983,30,"v","Warthog",2,-24.66,31.96,394763.15,7272300.58
"108958",108958,1983,30,"v","Warthog",1,-24.6,31.96,394712.88,7278944.69
"109143",109143,1983,31,"v","Warthog",1,-24.47,31.63,361157.81,7293048.66
"109144",109144,1983,31,"v","Warthog",3,-24.47,31.63,361157.81,7293048.66
"109159",109159,1983,31,"v","Warthog",2,-24.43,31.63,361113.97,7297478.31
"109166",109166,1983,31,"v","Warthog",7,-24.43,31.65,363141.75,7297498.23
"109178",109178,1983,31,"v","Warthog",4,-24.39,31.65,363098.61,7301927.84
"109194",109194,1983,31,"v","Warthog",1,-24.6,31.67,365350.88,7278691.85
"109226",109226,1983,31,"v","Warthog",1,-24.58,31.69,367354.84,7280926.11
"109235",109235,1983,31,"v","Warthog",1,-24.51,31.69,367281.2,7288677.98
"109236",109236,1983,31,"v","Warthog",2,-24.51,31.69,367281.2,7288677.98
"109238",109238,1983,31,"v","Warthog",1,-24.53,31.67,365276.06,7286443.78
"109251",109251,1983,31,"v","Warthog",2,-24.47,31.67,365212.09,7293088.23
"109319",109319,1983,31,"v","Warthog",1,-24.45,31.69,367218.24,7295322.38
"109351",109351,1983,31,"v","Warthog",2,-24.62,31.73,371446.4,7276534.43
"109359",109359,1983,31,"v","Warthog",2,-24.56,31.73,371385.1,7283178.85
"109407",109407,1983,31,"v","Warthog",1,-24.53,31.73,371354.51,7286501.05
"109419",109419,1983,31,"v","Warthog",4,-24.47,31.73,371293.42,7293145.4
"109437",109437,1983,31,"v","Warthog",1,-24.49,31.73,371313.77,7290930.62
"109438",109438,1983,31,"v","Warthog",3,-24.49,31.73,371313.77,7290930.62
"109480",109480,1983,31,"v","Warthog",2,-24.45,31.73,371273.09,7295360.17
"109481",109481,1983,31,"v","Warthog",2,-24.45,31.73,371273.09,7295360.17
"109498",109498,1983,31,"v","Warthog",2,-24.41,31.73,371232.48,7299789.7
"109509",109509,1983,31,"v","Warthog",2,-24.6,31.76,374463.45,7278776.94
"109529",109529,1983,31,"v","Warthog",2,-24.56,31.76,374423.57,7283206.52
"109544",109544,1983,31,"v","Warthog",1,-24.53,31.76,374393.69,7286528.69
"109547",109547,1983,31,"v","Warthog",2,-24.49,31.76,374353.92,7290958.23
"109558",109558,1983,31,"v","Warthog",1,-24.43,31.78,376322.08,7297620.5
"109569",109569,1983,31,"v","Warthog",2,-24.45,31.76,374314.2,7295387.75
"109597",109597,1983,32,"v","Warthog",1,-24.56,31.46,344037.82,7282900.06
"109603",109603,1983,32,"v","Warthog",1,-24.58,31.46,344062.58,7280685.09
"109607",109607,1983,32,"v","Warthog",3,-24.58,31.48,346088.06,7280707.59
"109619",109619,1983,32,"v","Warthog",1,-24.51,31.46,343976,7288437.47
"109628",109628,1983,32,"v","Warthog",4,-24.53,31.46,344000.71,7286222.51
"109659",109659,1983,32,"v","Warthog",1,-24.58,31.51,349126.25,7280740.8
"109663",109663,1983,32,"v","Warthog",4,-24.51,31.53,351069.05,7288514.78
"109702",109702,1983,32,"v","Warthog",3,-24.56,31.55,353153.81,7282998.95
"109706",109706,1983,32,"v","Warthog",1,-24.58,31.57,355202.55,7280805.22
"109708",109708,1983,32,"v","Warthog",2,-24.51,31.57,355122.16,7288557.34
"109735",109735,1983,32,"v","Warthog",5,-24.49,31.55,353072.36,7290751.1
"109741",109741,1983,32,"v","Warthog",1,-24.49,31.57,355099.23,7290772.22
"109778",109778,1983,32,"v","Warthog",2,-24.45,31.55,353025.92,7295180.87
"109779",109779,1983,32,"v","Warthog",3,-24.45,31.55,353025.92,7295180.87
"109785",109785,1983,32,"v","Warthog",2,-24.45,31.57,355053.42,7295201.96
"109786",109786,1983,32,"v","Warthog",3,-24.45,31.57,355053.42,7295201.96
"109787",109787,1983,32,"v","Warthog",4,-24.45,31.57,355053.42,7295201.96
"109788",109788,1983,32,"v","Warthog",4,-24.45,31.57,355053.42,7295201.96
"109839",109839,1983,32,"v","Warthog",4,-24.43,31.59,357058.37,7297437.61
"109854",109854,1983,32,"v","Warthog",1,-24.45,31.59,357080.92,7295222.76
"109855",109855,1983,32,"v","Warthog",1,-24.45,31.59,357080.92,7295222.76
"109856",109856,1983,32,"v","Warthog",2,-24.45,31.59,357080.92,7295222.76
"109857",109857,1983,32,"v","Warthog",2,-24.45,31.59,357080.92,7295222.76
"109872",109872,1983,32,"v","Warthog",3,-24.47,31.63,361157.81,7293048.66
"109913",109913,1983,33,"v","Warthog",2,-24.72,31.61,359410.26,7265342.42
"109928",109928,1983,33,"v","Warthog",1,-24.7,31.61,359387.8,7267557.33
"109929",109929,1983,33,"v","Warthog",1,-24.7,31.61,359387.8,7267557.33
"109930",109930,1983,33,"v","Warthog",3,-24.7,31.61,359387.8,7267557.33
"109954",109954,1983,33,"v","Warthog",1,-24.66,31.61,359342.92,7271987.14
"109971",109971,1983,33,"v","Warthog",3,-24.6,31.61,359275.72,7278631.81
"109972",109972,1983,33,"v","Warthog",4,-24.6,31.61,359275.72,7278631.81
"109990",109990,1983,33,"v","Warthog",4,-24.62,31.61,359298.1,7276416.93
"110011",110011,1983,33,"v","Warthog",5,-24.78,31.63,361499.92,7258718.07
"110013",110013,1983,33,"v","Warthog",3,-24.78,31.65,363522.07,7258738.19
"110026",110026,1983,33,"v","Warthog",4,-24.74,31.63,361455.55,7263147.9
"110027",110027,1983,33,"v","Warthog",4,-24.74,31.63,361455.55,7263147.9
"110058",110058,1983,33,"v","Warthog",3,-24.64,31.65,363369.33,7274242.41
"110082",110082,1983,33,"v","Warthog",3,-24.62,31.63,361322.84,7276437.25
"110093",110093,1983,33,"v","Warthog",3,-24.76,31.67,365522.66,7260972.91
"110137",110137,1983,34,"v","Warthog",1,-24.74,31.67,365501.13,7263187.8
"110156",110156,1983,34,"v","Warthog",2,-24.7,31.69,367481.54,7267637.04
"110321",110321,1983,34,"v","Warthog",1,-24.64,31.71,369442.49,7274300.75
"110341",110341,1983,34,"v","Warthog",1,-24.66,31.71,369463.3,7272085.92
"110424",110424,1983,34,"v","Warthog",5,-24.76,31.82,380690.76,7261112.08
"110433",110433,1983,34,"v","Warthog",1,-24.72,31.82,380652.58,7265541.68
"110434",110434,1983,34,"v","Warthog",1,-24.72,31.82,380652.58,7265541.68
"110451",110451,1983,34,"v","Warthog",4,-24.76,31.86,384735.5,7261146.38
"110470",110470,1983,35,"v","Warthog",3,-24.97,31.61,359692.54,7237655.55
"110474",110474,1983,35,"v","Warthog",4,-24.99,31.59,357696.49,7235419.71
"110484",110484,1983,35,"v","Warthog",1,-24.95,31.61,359669.86,7239870.53
"110493",110493,1983,35,"v","Warthog",2,-24.89,31.61,359601.92,7246515.44
"110496",110496,1983,35,"v","Warthog",2,-24.91,31.61,359624.55,7244300.48
"110497",110497,1983,35,"v","Warthog",3,-24.91,31.61,359624.55,7244300.48
"110505",110505,1983,35,"v","Warthog",2,-24.81,31.61,359511.58,7255375.25
"110511",110511,1983,35,"v","Warthog",2,-24.97,31.63,361711.6,7237676.08
"110529",110529,1983,35,"v","Warthog",4,-24.93,31.65,363686.62,7242126.22
"110562",110562,1983,35,"v","Warthog",2,-24.89,31.65,363642.65,7246556.11
"110577",110577,1983,35,"v","Warthog",4,-24.91,31.65,363664.62,7244341.17
"110589",110589,1983,35,"v","Warthog",3,-24.85,31.65,363598.74,7250985.98
"110597",110597,1983,35,"v","Warthog",1,-24.87,31.63,361600,7248750.87
"110606",110606,1983,35,"v","Warthog",4,-24.81,31.63,361533.24,7255395.68
"110638",110638,1983,35,"v","Warthog",1,-24.93,31.67,365706.31,7242146.14
"110639",110639,1983,35,"v","Warthog",3,-24.93,31.67,365706.31,7242146.14
"110663",110663,1983,35,"v","Warthog",1,-24.95,31.69,367747.35,7239950.83
"110675",110675,1983,35,"v","Warthog",2,-24.91,31.67,365684.64,7244361.07
"110684",110684,1983,35,"v","Warthog",3,-24.85,31.67,365619.74,7251005.85
"110691",110691,1983,35,"v","Warthog",1,-24.85,31.69,367640.73,7251025.42
"110700",110700,1983,35,"v","Warthog",2,-24.87,31.69,367662.02,7248810.51
"110736",110736,1983,35,"v","Warthog",2,-24.89,31.71,369703.65,7246614.89
"110740",110740,1983,35,"v","Warthog",2,-24.89,31.73,371723.97,7246633.89
"110751",110751,1983,35,"v","Warthog",1,-24.85,31.71,369661.7,7251044.69
"110769",110769,1983,36,"v","Warthog",1,-24.76,31.69,367545.1,7260992.43
"110781",110781,1983,36,"v","Warthog",2,-24.83,31.71,369640.75,7253259.58
"110870",110870,1983,36,"v","Warthog",1,-24.89,31.8,378794.99,7246698.05
"110891",110891,1983,36,"v","Warthog",2,-24.87,31.82,380796.07,7248930.55
"110944",110944,1983,36,"v","Warthog",1,-24.78,31.82,380709.88,7258897.27
"110948",110948,1983,36,"v","Warthog",2,-24.89,31.84,382835.53,7246733.08
"110957",110957,1983,36,"v","Warthog",1,-24.85,31.84,382797.8,7251162.73
"110975",110975,1983,36,"v","Warthog",1,-24.81,31.84,382760.14,7255592.37
"110976",110976,1983,36,"v","Warthog",2,-24.81,31.84,382760.14,7255592.37
"110977",110977,1983,36,"v","Warthog",3,-24.81,31.84,382760.14,7255592.37
"110978",110978,1983,36,"v","Warthog",5,-24.81,31.84,382760.14,7255592.37
"110983",110983,1983,36,"v","Warthog",2,-24.81,31.86,384781.69,7255609.4
"110984",110984,1983,36,"v","Warthog",5,-24.81,31.86,384781.69,7255609.4
"111031",111031,1983,37,"v","Warthog",1,-24.81,31.86,384781.69,7255609.4
"111037",111037,1983,37,"v","Warthog",3,-24.83,31.86,384800.19,7253394.59
"111048",111048,1983,37,"v","Warthog",1,-24.89,31.88,386876.02,7246766.92
"111058",111058,1983,37,"v","Warthog",1,-24.89,31.9,388896.25,7246783.39
"111064",111064,1983,37,"v","Warthog",1,-24.91,31.9,388914.16,7244568.59
"111072",111072,1983,37,"v","Warthog",2,-24.85,31.88,386839.6,7251196.53
"111127",111127,1983,37,"v","Warthog",2,-24.87,31.9,388878.36,7248998.19
"111207",111207,1983,37,"v","Warthog",2,-25.14,31.94,393153.3,7219130.19
"111208",111208,1983,37,"v","Warthog",4,-25.14,31.94,393153.3,7219130.19
"111212",111212,1983,37,"v","Warthog",2,-25.16,31.94,393170.72,7216915.33
"111217",111217,1983,37,"v","Warthog",2,-25.12,31.94,393135.9,7221345.04
"111218",111218,1983,37,"v","Warthog",2,-25.12,31.94,393135.9,7221345.04
"111223",111223,1983,37,"v","Warthog",2,-25.01,31.94,393040.41,7233526.64
"111229",111229,1983,37,"v","Warthog",1,-25.03,31.94,393057.75,7231311.81
"111234",111234,1983,37,"v","Warthog",3,-24.97,31.92,390986.88,7237940.35
"111237",111237,1983,37,"v","Warthog",3,-24.97,31.94,393005.79,7237956.26
"111239",111239,1983,37,"v","Warthog",3,-24.99,31.92,391004.51,7235725.53
"111242",111242,1983,37,"v","Warthog",1,-24.99,31.94,393023.09,7235741.45
"111243",111243,1983,37,"v","Warthog",3,-24.99,31.94,393023.09,7235741.45
"111245",111245,1983,37,"v","Warthog",2,-24.93,31.92,390951.65,7242369.97
"111248",111248,1983,37,"v","Warthog",2,-24.95,31.92,390969.26,7240155.16
"111249",111249,1983,37,"v","Warthog",3,-24.95,31.92,390969.26,7240155.16
"111250",111250,1983,37,"v","Warthog",4,-24.95,31.92,390969.26,7240155.16
"111261",111261,1983,37,"v","Warthog",2,-24.91,31.92,390934.06,7244584.77
"111262",111262,1983,37,"v","Warthog",2,-24.91,31.92,390934.06,7244584.77
"111263",111263,1983,37,"v","Warthog",4,-24.91,31.92,390934.06,7244584.77
"111264",111264,1983,37,"v","Warthog",6,-24.91,31.92,390934.06,7244584.77
"111265",111265,1983,37,"v","Warthog",3,-24.91,31.94,392953.95,7244600.66
"111266",111266,1983,37,"v","Warthog",5,-24.91,31.94,392953.95,7244600.66
"111356",111356,1983,37,"v","Warthog",2,-25.14,31.96,395169.42,7219145.88
"111383",111383,1983,37,"v","Warthog",4,-25.16,31.96,395186.51,7216931.03
"111443",111443,1983,37,"v","Warthog",1,-25.06,31.96,395101.2,7228005.23
"111444",111444,1983,37,"v","Warthog",1,-25.06,31.96,395101.2,7228005.23
"111445",111445,1983,37,"v","Warthog",1,-25.06,31.96,395101.2,7228005.23
"111465",111465,1983,37,"v","Warthog",3,-25.08,31.96,395118.24,7225790.4
"111491",111491,1983,37,"v","Warthog",2,-25.01,31.96,395058.66,7233542.27
"111535",111535,1983,37,"v","Warthog",2,-24.97,31.98,397043.59,7237987.21
"111543",111543,1983,37,"v","Warthog",4,-24.99,31.96,395041.67,7235757.08
"111554",111554,1983,37,"v","Warthog",1,-24.95,31.96,395007.73,7240186.68
"111560",111560,1983,37,"v","Warthog",2,-24.89,31.96,394956.9,7246831.03
"111566",111566,1983,37,"v","Warthog",2,-24.91,31.96,394973.83,7244616.26
"111588",111588,1983,37,"v","Warthog",1,-24.87,31.96,394939.99,7249045.81
"111788",111788,1983,38,"v","Warthog",1,-25.01,31.78,376894.1,7233390.8
"111800",111800,1983,38,"v","Warthog",1,-24.97,31.78,376854.24,7237820.58
"111809",111809,1983,38,"v","Warthog",1,-24.99,31.78,376874.16,7235605.69
"111819",111819,1983,38,"v","Warthog",6,-24.93,31.78,376814.45,7242250.35
"111838",111838,1983,38,"v","Warthog",1,-24.95,31.78,376834.34,7240035.47
"111853",111853,1983,38,"v","Warthog",1,-24.91,31.76,374774.61,7244446.95
"111864",111864,1983,38,"v","Warthog",3,-24.91,31.78,376794.57,7244465.22
"111917",111917,1983,38,"v","Warthog",2,-24.97,31.82,380892.18,7237856.29
"111932",111932,1983,38,"v","Warthog",2,-24.99,31.8,378892.81,7235623.71
"111942",111942,1983,38,"v","Warthog",3,-24.93,31.8,378834.08,7242268.33
"111951",111951,1983,38,"v","Warthog",3,-24.93,31.82,380853.69,7242286.01
"111997",111997,1983,38,"v","Warthog",3,-25.06,31.84,382996.48,7227906.78
"112014",112014,1983,38,"v","Warthog",2,-25.08,31.86,385032.63,7225709.06
"112019",112019,1983,38,"v","Warthog",1,-25.01,31.84,382949.03,7233443.97
"112031",112031,1983,38,"v","Warthog",2,-25.03,31.84,382968,7231229.1
"112044",112044,1983,38,"v","Warthog",5,-24.97,31.84,382911.14,7237873.7
"112051",112051,1983,38,"v","Warthog",1,-24.97,31.86,384930.09,7237890.81
"112072",112072,1983,38,"v","Warthog",1,-24.93,31.84,382873.3,7242303.4
"112081",112081,1983,38,"v","Warthog",1,-24.93,31.86,384892.9,7242320.49
"112082",112082,1983,38,"v","Warthog",1,-24.93,31.86,384892.9,7242320.49
"112083",112083,1983,38,"v","Warthog",4,-24.93,31.86,384892.9,7242320.49
"112106",112106,1983,38,"v","Warthog",2,-24.95,31.84,382892.22,7240088.55
"112110",112110,1983,38,"v","Warthog",1,-24.95,31.86,384911.49,7240105.65
"112111",112111,1983,38,"v","Warthog",2,-24.95,31.86,384911.49,7240105.65
"112137",112137,1983,38,"v","Warthog",2,-24.91,31.84,382854.41,7244518.24
"112172",112172,1983,38,"v","Warthog",1,-25.06,31.9,389048.88,7227957.35
"112177",112177,1983,38,"v","Warthog",3,-25.08,31.88,387049.77,7225725.93
"112185",112185,1983,38,"v","Warthog",2,-25.03,31.88,387003.93,7231263.08
"112189",112189,1983,38,"v","Warthog",1,-24.97,31.88,386949.03,7237907.62
"112190",112190,1983,38,"v","Warthog",2,-24.97,31.88,386949.03,7237907.62
"112202",112202,1983,38,"v","Warthog",4,-24.99,31.88,386967.31,7235692.78
"112206",112206,1983,38,"v","Warthog",1,-24.93,31.88,386912.5,7242337.28
"112207",112207,1983,38,"v","Warthog",1,-24.93,31.88,386912.5,7242337.28
"112208",112208,1983,38,"v","Warthog",1,-24.93,31.88,386912.5,7242337.28
"112209",112209,1983,38,"v","Warthog",3,-24.93,31.88,386912.5,7242337.28
"112210",112210,1983,38,"v","Warthog",3,-24.93,31.88,386912.5,7242337.28
"112226",112226,1983,38,"v","Warthog",1,-24.93,31.9,388932.08,7242353.77
"112227",112227,1983,38,"v","Warthog",2,-24.93,31.9,388932.08,7242353.77
"112235",112235,1983,38,"v","Warthog",1,-24.95,31.88,386930.75,7240122.45
"112236",112236,1983,38,"v","Warthog",2,-24.95,31.88,386930.75,7240122.45
"112237",112237,1983,38,"v","Warthog",3,-24.95,31.88,386930.75,7240122.45
"112238",112238,1983,38,"v","Warthog",5,-24.95,31.88,386930.75,7240122.45
"112259",112259,1983,38,"v","Warthog",1,-24.95,31.9,388950.01,7240138.95
"112260",112260,1983,38,"v","Warthog",1,-24.95,31.9,388950.01,7240138.95
"112261",112261,1983,38,"v","Warthog",3,-24.95,31.9,388950.01,7240138.95
"112262",112262,1983,38,"v","Warthog",3,-24.95,31.9,388950.01,7240138.95
"112273",112273,1983,38,"v","Warthog",1,-24.89,31.88,386876.02,7246766.92
"112277",112277,1983,38,"v","Warthog",1,-24.91,31.88,386894.25,7244552.1
"112278",112278,1983,38,"v","Warthog",1,-24.91,31.88,386894.25,7244552.1
"112279",112279,1983,38,"v","Warthog",2,-24.91,31.88,386894.25,7244552.1
"112290",112290,1983,38,"v","Warthog",2,-25.1,31.92,391101.72,7223543.91
"112349",112349,1983,39,"v","Warthog",1,-25.1,31.21,319499.16,7222783.01
"112432",112432,1983,39,"v","Warthog",1,-25.12,31.26,324570.65,7220633.66
"112442",112442,1983,39,"v","Warthog",4,-25.06,31.26,324485.04,7227279.44
"112466",112466,1983,39,"v","Warthog",3,-25.01,31.26,324413.85,7232817.54
"112567",112567,1983,39,"v","Warthog",2,-25.03,31.32,330497.17,7230678.78
"112591",112591,1983,39,"v","Warthog",3,-24.99,31.32,330442.23,7235109.16
"112618",112618,1983,39,"v","Warthog",3,-25.01,31.34,332488.27,7232918.86
"112622",112622,1983,39,"v","Warthog",1,-25.03,31.34,332515.42,7230703.68
"112704",112704,1983,40,"v","Warthog",3,-25.35,31.28,326913.62,7195183.79
"112716",112716,1983,40,"v","Warthog",3,-25.31,31.28,326856.7,7199614.4
"112730",112730,1983,40,"v","Warthog",3,-25.33,31.28,326885.15,7197399.1
"112743",112743,1983,40,"v","Warthog",3,-25.22,31.26,324713.76,7209557.27
"112795",112795,1983,40,"v","Warthog",2,-25.35,31.3,328926.63,7195209.52
"112858",112858,1983,40,"v","Warthog",2,-25.33,31.32,330911.82,7197450.23
"112923",112923,1983,40,"v","Warthog",1,-25.22,31.36,334789.5,7209683.94
"113039",113039,1983,41,"v","Warthog",5,-25.31,31.4,338938.54,7199764.09
"113078",113078,1983,41,"v","Warthog",1,-25.24,31.4,338846.08,7207517.31
"113125",113125,1983,41,"v","Warthog",2,-25.16,31.4,338740.7,7216378.06
"113235",113235,1983,41,"v","Warthog",2,-25.16,31.44,342772.83,7216425.34
"113252",113252,1983,41,"v","Warthog",2,-25.12,31.44,342721.57,7220855.62
"113253",113253,1983,41,"v","Warthog",4,-25.12,31.44,342721.57,7220855.62
"113326",113326,1983,41,"v","Warthog",1,-25.18,31.48,346829.91,7214256.3
"113327",113327,1983,41,"v","Warthog",2,-25.18,31.48,346829.91,7214256.3
"113383",113383,1983,41,"v","Warthog",2,-25.14,31.48,346779.93,7218686.55
"113404",113404,1983,41,"v","Warthog",1,-25.16,31.46,344788.87,7216448.53
"113405",113405,1983,41,"v","Warthog",1,-25.16,31.46,344788.87,7216448.53
"113414",113414,1983,41,"v","Warthog",1,-25.16,31.48,346804.91,7216471.43
"113486",113486,1983,41,"v","Warthog",3,-25.14,31.51,349804.45,7218720.3
"113506",113506,1983,41,"v","Warthog",2,-25.12,31.51,349779.98,7220935.4
"113556",113556,1983,42,"v","Warthog",1,-25.18,31.51,349853.44,7214290.1
"113585",113585,1983,42,"v","Warthog",3,-25.2,31.53,351893.31,7212097.16
"113621",113621,1983,42,"v","Warthog",2,-25.1,31.53,351772.52,7223172.59
"113622",113622,1983,42,"v","Warthog",4,-25.1,31.53,351772.52,7223172.59
"113797",113797,1983,42,"v","Warthog",4,-25.18,31.55,353884.79,7214334.12
"113808",113808,1983,42,"v","Warthog",1,-25.18,31.57,355900.44,7214355.68
"113816",113816,1983,42,"v","Warthog",2,-25.2,31.55,353908.65,7212119.03
"113893",113893,1983,42,"v","Warthog",1,-25.12,31.57,355829.94,7221000.86
"113894",113894,1983,42,"v","Warthog",2,-25.12,31.57,355829.94,7221000.86
"114069",114069,1983,42,"v","Warthog",3,-25.2,31.59,357939.29,7212161.88
"114169",114169,1983,43,"v","Warthog",2,-25.1,31.4,338661.87,7223023.56
"114170",114170,1983,43,"v","Warthog",3,-25.1,31.4,338661.87,7223023.56
"114180",114180,1983,43,"v","Warthog",4,-25.12,31.4,338688.12,7220808.39
"114187",114187,1983,43,"v","Warthog",4,-25.06,31.38,336591.68,7227429.84
"114202",114202,1983,43,"v","Warthog",1,-25.08,31.4,338635.63,7225238.71
"114225",114225,1983,43,"v","Warthog",1,-25.01,31.38,336525.4,7232967.72
"114246",114246,1983,43,"v","Warthog",5,-25.03,31.38,336551.9,7230752.57
"114256",114256,1983,43,"v","Warthog",1,-25.03,31.4,338570.12,7230776.58
"114298",114298,1983,43,"v","Warthog",4,-25.06,31.42,340627.12,7227477.58
"114308",114308,1983,43,"v","Warthog",1,-25.06,31.44,342644.83,7227501.01
"114364",114364,1983,43,"v","Warthog",2,-25.03,31.44,342606.52,7230823.68
"114373",114373,1983,43,"v","Warthog",1,-24.99,31.44,342555.51,7235253.89
"114401",114401,1983,43,"v","Warthog",4,-25.06,31.46,344662.52,7227524.13
"114427",114427,1983,43,"v","Warthog",1,-25.08,31.48,346705.1,7225331.87
"114479",114479,1983,43,"v","Warthog",4,-24.99,31.46,344574.35,7235276.97
"114486",114486,1983,43,"v","Warthog",2,-24.99,31.48,346593.17,7235299.75
"114500",114500,1983,43,"v","Warthog",1,-25.1,31.51,349755.53,7223150.48
"114501",114501,1983,43,"v","Warthog",2,-25.1,31.51,349755.53,7223150.48
"114502",114502,1983,43,"v","Warthog",3,-25.1,31.51,349755.53,7223150.48
"114533",114533,1983,43,"v","Warthog",2,-25.08,31.51,349731.1,7225365.57
"114540",114540,1983,43,"v","Warthog",2,-25.08,31.53,351748.42,7225387.66
"114650",114650,1983,43,"v","Warthog",2,-24.97,31.55,353635.28,7237592.16
"114654",114654,1983,43,"v","Warthog",2,-24.97,31.57,355654.38,7237613.59
"114655",114655,1983,43,"v","Warthog",2,-24.97,31.57,355654.38,7237613.59
"114667",114667,1983,43,"v","Warthog",1,-24.99,31.55,353658.96,7235377.13
"114678",114678,1983,43,"v","Warthog",1,-24.99,31.57,355677.73,7235398.57
"114679",114679,1983,43,"v","Warthog",1,-24.99,31.57,355677.73,7235398.57
"114767",114767,1983,44,"v","Warthog",2,-25.37,31.59,358137.23,7193333.65
"114789",114789,1983,44,"v","Warthog",2,-25.31,31.61,360080.71,7199999.99
"114815",114815,1983,44,"v","Warthog",1,-25.43,31.63,362230.37,7186730.21
"114816",114816,1983,44,"v","Warthog",3,-25.43,31.63,362230.37,7186730.21
"114818",114818,1983,44,"v","Warthog",2,-25.43,31.65,364241.85,7186750.72
"114979",114979,1983,44,"v","Warthog",2,-25.22,31.63,361992.44,7209988.48
"114985",114985,1983,44,"v","Warthog",2,-25.22,31.65,364007.39,7210008.86
"115001",115001,1983,44,"v","Warthog",1,-25.24,31.63,362015.02,7207773.43
"115060",115060,1983,44,"v","Warthog",2,-25.37,31.67,366187.13,7193416.13
"115138",115138,1983,44,"v","Warthog",1,-25.28,31.69,368102.08,7203403.68
"115182",115182,1983,44,"v","Warthog",1,-25.35,31.73,372203.41,7195689.86
"115183",115183,1983,44,"v","Warthog",2,-25.35,31.73,372203.41,7195689.86
"115227",115227,1983,44,"v","Warthog",1,-25.28,31.71,370116.01,7203423.19
"115241",115241,1983,44,"v","Warthog",1,-25.22,31.71,370052.18,7210068.21
"115244",115244,1983,44,"v","Warthog",2,-25.22,31.73,372067.08,7210087.39
"115315",115315,1983,44,"v","Warthog",1,-25.28,31.78,377164.68,7203489.14
"115316",115316,1983,44,"v","Warthog",5,-25.28,31.78,377164.68,7203489.14
"115327",115327,1983,44,"v","Warthog",1,-25.24,31.78,377124.42,7207919.08
"115339",115339,1983,44,"v","Warthog",3,-25.31,31.8,379208.3,7200184.84
"115343",115343,1983,44,"v","Warthog",2,-25.31,31.82,381221.67,7200202.72
"115367",115367,1983,44,"v","Warthog",3,-25.28,31.8,379178.56,7203507.3
"115536",115536,1983,45,"v","Warthog",2,-25.18,31.8,379079.68,7214582.06
"115542",115542,1983,45,"v","Warthog",1,-25.18,31.82,381095.2,7214599.87
"115557",115557,1983,45,"v","Warthog",2,-25.16,31.82,381075.8,7216814.8
"115570",115570,1983,45,"v","Warthog",2,-25.26,31.86,385201.34,7205774.93
"115588",115588,1983,45,"v","Warthog",1,-25.28,31.86,385220.15,7203559.99
"115609",115609,1983,45,"v","Warthog",3,-25.24,31.84,383168.02,7207972.61
"115641",115641,1983,45,"v","Warthog",1,-25.2,31.84,383129.8,7212402.47
"115648",115648,1983,45,"v","Warthog",1,-25.2,31.86,385144.98,7212419.69
"115734",115734,1983,45,"v","Warthog",1,-25.35,31.88,387298.81,7195824.68
"115740",115740,1983,45,"v","Warthog",3,-25.35,31.9,389311.49,7195841.38
"115744",115744,1983,45,"v","Warthog",1,-25.31,31.88,387261.75,7200254.56
"115747",115747,1983,45,"v","Warthog",1,-25.31,31.9,389275.1,7200271.24
"115761",115761,1983,45,"v","Warthog",2,-25.26,31.88,387215.52,7205791.88
"115776",115776,1983,45,"v","Warthog",2,-25.28,31.88,387234,7203576.96
"115797",115797,1983,45,"v","Warthog",2,-25.22,31.9,389193.42,7210238.34
"115798",115798,1983,45,"v","Warthog",2,-25.22,31.9,389193.42,7210238.34
"115799",115799,1983,45,"v","Warthog",3,-25.22,31.9,389193.42,7210238.34
"115819",115819,1983,45,"v","Warthog",1,-25.18,31.88,387141.71,7214651.51
"115820",115820,1983,45,"v","Warthog",2,-25.18,31.88,387141.71,7214651.51
"115828",115828,1983,45,"v","Warthog",1,-25.18,31.9,389157.2,7214668.13
"115840",115840,1983,45,"v","Warthog",1,-25.2,31.9,389175.3,7212453.24
"115858",115858,1983,45,"v","Warthog",1,-25.14,31.88,387104.89,7219081.3
"115859",115859,1983,45,"v","Warthog",2,-25.14,31.88,387104.89,7219081.3
"115860",115860,1983,45,"v","Warthog",3,-25.14,31.88,387104.89,7219081.3
"115861",115861,1983,45,"v","Warthog",4,-25.14,31.88,387104.89,7219081.3
"115878",115878,1983,45,"v","Warthog",1,-25.14,31.9,389121.04,7219097.89
"115879",115879,1983,45,"v","Warthog",2,-25.14,31.9,389121.04,7219097.89
"115880",115880,1983,45,"v","Warthog",2,-25.14,31.9,389121.04,7219097.89
"115891",115891,1983,45,"v","Warthog",2,-25.16,31.88,387123.3,7216866.41
"115892",115892,1983,45,"v","Warthog",4,-25.16,31.88,387123.3,7216866.41
"115907",115907,1983,45,"v","Warthog",4,-25.16,31.9,389139.11,7216883.01
"115956",115956,1983,45,"v","Warthog",2,-25.26,31.92,391243.84,7205824.89
"115957",115957,1983,45,"v","Warthog",3,-25.26,31.92,391243.84,7205824.89
"115967",115967,1983,45,"v","Warthog",2,-25.28,31.92,391261.67,7203609.98
"115976",115976,1983,45,"v","Warthog",1,-25.22,31.92,391208.24,7210254.68
"115977",115977,1983,45,"v","Warthog",3,-25.22,31.92,391208.24,7210254.68
"115996",115996,1983,45,"v","Warthog",2,-25.24,31.92,391226.03,7208039.78
"116020",116020,1983,45,"v","Warthog",2,-25.18,31.92,391172.68,7214684.44
"116034",116034,1983,45,"v","Warthog",2,-25.2,31.92,391190.45,7212469.56
"116041",116041,1983,45,"v","Warthog",2,-25.2,31.94,393205.59,7212485.59
"116070",116070,1983,45,"v","Warthog",1,-25.14,31.94,393153.3,7219130.19
"116071",116071,1983,45,"v","Warthog",3,-25.14,31.94,393153.3,7219130.19
"116113",116113,1983,46,"v","Warthog",1,-25.35,31.92,391324.16,7195857.77
"116114",116114,1983,46,"v","Warthog",2,-25.35,31.92,391324.16,7195857.77
"116127",116127,1983,46,"v","Warthog",4,-25.35,31.94,393336.82,7195873.87
"116130",116130,1983,46,"v","Warthog",1,-25.37,31.94,393354.38,7193658.94
"116131",116131,1983,46,"v","Warthog",1,-25.37,31.94,393354.38,7193658.94
"116153",116153,1983,46,"v","Warthog",1,-25.33,31.92,391306.29,7198072.7
"116160",116160,1983,46,"v","Warthog",1,-25.33,31.94,393319.28,7198088.78
"116208",116208,1983,46,"v","Warthog",1,-25.39,31.96,395383.93,7191459.83
"116209",116209,1983,46,"v","Warthog",1,-25.39,31.96,395383.93,7191459.83
"116210",116210,1983,46,"v","Warthog",1,-25.39,31.96,395383.93,7191459.83
"116211",116211,1983,46,"v","Warthog",2,-25.39,31.96,395383.93,7191459.83
"116212",116212,1983,46,"v","Warthog",5,-25.39,31.96,395383.93,7191459.83
"116242",116242,1983,46,"v","Warthog",2,-25.35,31.96,395349.48,7195889.66
"116268",116268,1983,46,"v","Warthog",2,-25.37,31.96,395366.7,7193674.75
"116269",116269,1983,46,"v","Warthog",4,-25.37,31.96,395366.7,7193674.75
"116270",116270,1983,46,"v","Warthog",5,-25.37,31.96,395366.7,7193674.75
"116281",116281,1983,46,"v","Warthog",2,-25.31,31.98,397328.38,7200334.94
"116293",116293,1983,46,"v","Warthog",2,-25.26,31.96,395272.14,7205856.69
"116300",116300,1983,46,"v","Warthog",4,-25.28,31.96,395289.3,7203641.81
"116320",116320,1983,46,"v","Warthog",3,-25.22,31.96,395237.85,7210286.45
"116321",116321,1983,46,"v","Warthog",3,-25.22,31.96,395237.85,7210286.45
"116356",116356,1983,46,"v","Warthog",2,-25.24,31.96,395254.99,7208071.57
"116357",116357,1983,46,"v","Warthog",3,-25.24,31.96,395254.99,7208071.57
"116394",116394,1983,46,"v","Warthog",2,-25.18,31.96,395203.61,7214716.18
"116600",116600,1983,47,"v","Warthog",2,-22.72,31.15,309997.05,7486290.58
"116601",116601,1983,47,"v","Warthog",3,-22.72,31.15,309997.05,7486290.58
"116602",116602,1983,47,"v","Warthog",4,-22.72,31.15,309997.05,7486290.58
"116612",116612,1983,47,"v","Warthog",1,-22.7,31.15,309969.44,7488505.31
"116613",116613,1983,47,"v","Warthog",2,-22.7,31.15,309969.44,7488505.31
"116622",116622,1983,47,"v","Warthog",2,-22.66,31.15,309914.27,7492934.76
"116742",116742,1983,47,"v","Warthog",3,-22.64,31.21,316054,7495224.91
"116853",116853,1983,48,"v","Warthog",4,-22.91,31.21,316415.71,7465326.55
"116858",116858,1983,48,"v","Warthog",2,-22.91,31.23,318467.39,7465351.37
"116932",116932,1983,48,"v","Warthog",4,-22.87,31.28,323544.8,7469841.53
"116956",116956,1983,48,"v","Warthog",2,-22.83,31.26,321440.3,7474246.78
"117082",117082,1983,48,"v","Warthog",1,-22.81,31.36,331679.79,7476578.86
"117114",117114,1983,48,"v","Warthog",1,-22.78,31.34,329589.41,7479877.82
"117172",117172,1983,48,"v","Warthog",1,-22.78,31.38,333696.47,7479923.35
"117363",117363,1983,49,"v","Warthog",2,-22.93,31.36,331827.65,7463291.29
"117395",117395,1983,49,"v","Warthog",1,-22.93,31.4,335930.17,7463336.49
"117422",117422,1983,49,"v","Warthog",2,-23.01,31.44,340126.78,7454522.34
"117674",117674,1983,50,"v","Warthog",1,-23.03,31.51,347324.26,7452382.48
"117691",117691,1983,50,"v","Warthog",2,-23.16,31.55,351566.48,7438029.29
"117708",117708,1983,51,"v","Warthog",2,-22.64,31.3,325304.66,7495333.4
"117763",117763,1983,52,"v","Warthog",1,-23.12,31.19,314651.34,7442046.35
"117833",117833,1983,52,"v","Warthog",1,-23.16,31.23,318802.15,7437667.09
"117869",117869,1983,52,"v","Warthog",2,-23.18,31.26,321900.43,7435489.36
"117870",117870,1983,52,"v","Warthog",3,-23.18,31.26,321900.43,7435489.36
"117876",117876,1983,52,"v","Warthog",6,-23.2,31.26,321926.93,7433274.6
"117880",117880,1983,52,"v","Warthog",1,-23.14,31.26,321847.51,7439918.85
"117932",117932,1983,52,"v","Warthog",1,-23.16,31.3,325969.66,7437752.48
"117933",117933,1983,52,"v","Warthog",1,-23.16,31.3,325969.66,7437752.48
"117952",117952,1983,52,"v","Warthog",1,-23.12,31.3,325918,7442181.9
"117979",117979,1983,52,"v","Warthog",4,-23.14,31.34,330040.06,7440014.41
"117986",117986,1983,52,"v","Warthog",4,-23.14,31.36,332088.16,7440037.59
"118029",118029,1983,52,"v","Warthog",1,-23.1,31.38,334087.06,7444489.78
"118038",118038,1983,52,"v","Warthog",1,-23.08,31.38,334062.5,7446704.42
"118127",118127,1983,53,"v","Warthog",1,-23.1,30.98,293110.25,7443978.93
"118158",118158,1983,53,"v","Warthog",1,-23.01,30.98,292972.58,7453946.3
"118202",118202,1983,53,"v","Warthog",2,-23.1,31.03,298232.71,7444048.93
"118217",118217,1983,53,"v","Warthog",1,-23.06,31.01,296123.4,7448451.04
"118219",118219,1983,53,"v","Warthog",1,-23.06,31.03,298172.97,7448478.79
"118220",118220,1983,53,"v","Warthog",5,-23.08,31.01,296153.55,7446236.09
"118240",118240,1983,53,"v","Warthog",1,-23.01,31.03,298098.45,7454016.09
"118245",118245,1983,53,"v","Warthog",6,-23.03,31.01,296078.21,7451773.45
"118266",118266,1983,53,"v","Warthog",2,-23.18,31.07,302447.92,7435244.04
"118299",118299,1983,53,"v","Warthog",2,-23.12,31.05,300311.26,7441861.53
"118312",118312,1983,53,"v","Warthog",2,-23.08,31.05,300252.08,7446291.36
"118332",118332,1983,53,"v","Warthog",1,-23.03,31.05,300178.25,7451828.62
"118333",118333,1983,53,"v","Warthog",2,-23.03,31.05,300178.25,7451828.62
"118364",118364,1983,53,"v","Warthog",3,-23.1,31.11,306428.42,7444157.29
"118377",118377,1983,53,"v","Warthog",4,-23.03,31.09,304278.23,7451882.67
"118400",118400,1983,53,"v","Warthog",2,-23.14,31.15,310582.35,7439780.12
"118405",118405,1983,53,"v","Warthog",2,-23.16,31.13,308562.52,7437539.12
"118431",118431,1983,53,"v","Warthog",2,-23.06,31.13,308420.61,7448613.35
"118539",118539,1983,54,"v","Warthog",1,-22.93,30.98,292850.63,7462806.09
"118544",118544,1983,54,"v","Warthog",2,-22.95,30.98,292881.08,7460591.15
"118563",118563,1983,54,"v","Warthog",1,-22.97,31.01,295987.99,7458418.23
"118573",118573,1983,54,"v","Warthog",2,-22.99,31.03,298068.68,7456231
"118574",118574,1983,54,"v","Warthog",5,-22.99,31.03,298068.68,7456231
"118601",118601,1983,54,"v","Warthog",4,-22.91,31.01,295898,7465062.98
"118612",118612,1983,54,"v","Warthog",5,-23.01,31.07,302199.07,7454070.66
"118629",118629,1983,54,"v","Warthog",4,-22.93,31.05,300031.05,7462903.05
"118635",118635,1983,54,"v","Warthog",2,-22.93,31.07,302082.56,7462930.13
"118636",118636,1983,54,"v","Warthog",3,-22.93,31.07,302082.56,7462930.13
"118637",118637,1983,54,"v","Warthog",5,-22.93,31.07,302082.56,7462930.13
"118657",118657,1983,54,"v","Warthog",3,-22.91,31.07,302053.49,7465144.98
"118672",118672,1983,54,"v","Warthog",2,-22.97,31.09,304191.65,7458527.24
"118678",118678,1983,54,"v","Warthog",2,-22.97,31.11,306242.53,7458553.79
"118684",118684,1983,54,"v","Warthog",1,-22.99,31.11,306271.06,7456338.95
"118688",118688,1983,54,"v","Warthog",2,-22.93,31.09,304134.05,7462956.92
"118692",118692,1983,54,"v","Warthog",3,-22.93,31.11,306185.53,7462983.44
"118695",118695,1983,54,"v","Warthog",2,-22.95,31.09,304162.84,7460742.08
"118701",118701,1983,54,"v","Warthog",5,-22.95,31.11,306214.02,7460768.61
"118714",118714,1983,54,"v","Warthog",3,-23.06,31.15,310470.08,7448639.42
"118726",118726,1983,54,"v","Warthog",1,-23.01,31.15,310400.1,7454176.45
"118737",118737,1983,54,"v","Warthog",4,-23.03,31.15,310428.08,7451961.64
"118762",118762,1983,54,"v","Warthog",2,-22.95,31.15,310316.32,7460820.84
"118775",118775,1983,54,"v","Warthog",2,-23.06,31.19,314568.99,7448690.72
"118782",118782,1983,54,"v","Warthog",1,-23.01,31.17,312450.32,7454202.2
"118795",118795,1983,54,"v","Warthog",2,-23.03,31.17,312477.99,7451987.41
"118824",118824,1983,54,"v","Warthog",1,-22.93,31.17,312339.86,7463061.3
"118836",118836,1983,54,"v","Warthog",2,-22.95,31.19,314418.55,7460871.95
"118849",118849,1983,54,"v","Warthog",2,-23.01,31.21,316550.71,7454252.85
"118854",118854,1983,54,"v","Warthog",2,-23.01,31.23,318600.88,7454277.75
"118855",118855,1983,54,"v","Warthog",4,-23.01,31.23,318600.88,7454277.75
"118858",118858,1983,54,"v","Warthog",3,-23.03,31.21,316577.78,7452038.09
"118863",118863,1983,54,"v","Warthog",6,-23.03,31.23,318627.65,7452063.01
"118888",118888,1983,54,"v","Warthog",3,-23.01,31.26,321676.11,7454314.58
"118896",118896,1983,54,"v","Warthog",1,-23.01,31.28,323726.24,7454338.79
"118999",118999,1983,55,"v","Warthog",1,-22.76,31.03,297728.11,7481702.11
"119004",119004,1983,55,"v","Warthog",2,-22.78,31.01,295703.79,7479459.76
"119005",119005,1983,55,"v","Warthog",3,-22.78,31.01,295703.79,7479459.76
"119056",119056,1983,55,"v","Warthog",2,-22.83,31.05,299884.45,7473977.36
"119062",119062,1983,55,"v","Warthog",2,-22.83,31.07,301937.47,7474004.34
"119069",119069,1983,55,"v","Warthog",2,-22.76,31.07,301836.26,7481756.22
"119131",119131,1983,55,"v","Warthog",2,-22.81,31.09,303961.82,7476245.86
"119230",119230,1983,55,"v","Warthog",1,-22.91,31.19,314364.02,7465301.45
"119231",119231,1983,55,"v","Warthog",1,-22.91,31.19,314364.02,7465301.45
"119232",119232,1983,55,"v","Warthog",2,-22.91,31.19,314364.02,7465301.45
"119241",119241,1983,55,"v","Warthog",1,-22.85,31.19,314282.38,7471945.66
"119242",119242,1983,55,"v","Warthog",1,-22.85,31.19,314282.38,7471945.66
"119255",119255,1983,55,"v","Warthog",4,-22.87,31.19,314309.57,7469730.92
"119273",119273,1983,55,"v","Warthog",2,-22.83,31.19,314255.21,7474160.38
"119295",119295,1983,55,"v","Warthog",3,-22.91,31.21,316415.71,7465326.55
"119430",119430,1983,56,"v","Warthog",7,-25.45,31.51,350186.05,7184385.66
"119431",119431,1983,56,"v","Warthog",1,-25.45,31.53,352197.26,7184407.99
"119440",119440,1983,56,"v","Warthog",1,-25.41,31.53,352148.44,7188838.31
"119514",119514,1983,56,"v","Warthog",2,-25.28,31.51,349976.24,7203214.5
"119622",119622,1983,57,"v","Warthog",2,-25.14,31.69,367951.06,7218908.72
"119626",119626,1983,57,"v","Warthog",1,-25.16,31.67,365956.66,7216673.98
"119659",119659,1983,57,"v","Warthog",2,-25.14,31.71,369967.29,7218928.15
"119710",119710,1983,57,"v","Warthog",2,-25.12,31.73,371962.66,7221162.25
"119810",119810,1983,57,"v","Warthog",2,-25.16,31.8,379059.94,7216796.99
"119951",119951,1983,58,"v","Warthog",1,-25.08,31.61,359817.58,7225473.04
"119957",119957,1983,58,"v","Warthog",2,-25.14,31.63,361902.29,7218848.61
"119989",119989,1983,58,"v","Warthog",1,-25.08,31.63,361834.85,7225493.64
"120187",120187,1983,60,"v","Warthog",1,-25.06,31.61,359794.81,7227688.06
"120214",120214,1983,60,"v","Warthog",1,-25.01,31.61,359737.95,7233225.56
"120247",120247,1983,60,"v","Warthog",2,-25.06,31.63,361812.4,7227708.64
"120348",120348,1983,60,"v","Warthog",2,-24.97,31.71,369787.75,7237755.23
"120356",120356,1983,60,"v","Warthog",3,-24.97,31.73,371806.76,7237774.28
