"","ID","Year","Cenb","Sp","Description","No","Lat","Long","X.coord","Y.coord"
"121013",121013,1984,2,"ro","Roan antelope",3,-23.91,31.42,339171.15,7354838.73
"121045",121045,1984,2,"ro","Roan antelope",3,-23.93,31.46,343267.58,7352668.89
"123111",123111,1984,6,"ro","Roan antelope",2,-23.58,31.36,332641.3,7391313.71
"123167",123167,1984,6,"ro","Roan antelope",2,-23.6,31.38,334707.7,7389122.18
"123734",123734,1984,8,"ro","Roan antelope",9,-23.43,31.32,328364.28,7407877.31
"123892",123892,1984,8,"ro","Roan antelope",1,-23.53,31.4,336662.15,7396896.76
"124167",124167,1984,9,"ro","Roan antelope",1,-23.62,31.19,315345.42,7386674.83
"124289",124289,1984,9,"ro","Roan antelope",8,-23.51,31.21,317234.06,7398882.44
"124632",124632,1984,10,"ro","Roan antelope",5,-23.37,31.09,304772.9,7414229.29
"125499",125499,1984,13,"ro","Roan antelope",14,-23.62,31.51,347997.11,7387051.69
"125770",125770,1984,13,"ro","Roan antelope",19,-23.62,31.59,356159.49,7387134.47
"125923",125923,1984,14,"ro","Roan antelope",3,-23.47,31.36,332502.09,7403494.92
"125942",125942,1984,14,"ro","Roan antelope",8,-23.47,31.38,334545.13,7403518.07
"125954",125954,1984,14,"ro","Roan antelope",27,-23.43,31.38,334495.27,7407947.53
"126079",126079,1984,14,"ro","Roan antelope",2,-23.6,31.48,344912.62,7389234.16
"126087",126087,1984,14,"ro","Roan antelope",21,-23.56,31.46,342824.03,7393641.75
"126109",126109,1984,14,"ro","Roan antelope",1,-23.58,31.48,344889.11,7391448.86
"126172",126172,1984,14,"ro","Roan antelope",10,-23.47,31.48,344760.09,7403629.58
"126207",126207,1984,14,"ro","Roan antelope",10,-23.6,31.51,347974.04,7389266.37
"126224",126224,1984,14,"ro","Roan antelope",4,-23.58,31.51,347950.98,7391481.04
"126360",126360,1984,15,"ro","Roan antelope",1,-23.39,31.44,340578.22,7412444.55
"126493",126493,1984,18,"ro","Roan antelope",8,-23.24,31.34,330166.43,7428940.94
"126635",126635,1984,18,"ro","Roan antelope",2,-23.2,31.44,340351.62,7433483.68
"126682",126682,1984,18,"ro","Roan antelope",1,-23.24,31.46,342445.69,7429076.28
"126722",126722,1984,18,"ro","Roan antelope",4,-23.22,31.51,347539.18,7431344.25
"137560",137560,1984,40,"ro","Roan antelope",3,-25.22,31.3,328744.09,7209608.84
"137726",137726,1984,41,"ro","Roan antelope",6,-25.26,31.34,332829.13,7205228.73
"137863",137863,1984,41,"ro","Roan antelope",3,-25.18,31.38,336751.26,7214138.77
"141689",141689,1984,47,"ro","Roan antelope",17,-22.81,31.23,318334.46,7476424.86
"141708",141708,1984,47,"ro","Roan antelope",3,-22.72,31.21,316160.75,7486366.23
"141923",141923,1984,48,"ro","Roan antelope",6,-22.89,31.32,327674.5,7467674.24
"141932",141932,1984,48,"ro","Roan antelope",2,-22.87,31.3,325597.03,7469865.34
"141933",141933,1984,48,"ro","Roan antelope",16,-22.87,31.3,325597.03,7469865.34
"141948",141948,1984,48,"ro","Roan antelope",6,-22.81,31.32,327573.6,7476532.73
"141978",141978,1984,48,"ro","Roan antelope",14,-22.81,31.34,329626.71,7476555.93
"142057",142057,1984,48,"ro","Roan antelope",3,-22.83,31.38,333757.16,7474386.94
"142062",142062,1984,48,"ro","Roan antelope",12,-22.83,31.4,335809.92,7474409.33
"142073",142073,1984,48,"ro","Roan antelope",2,-22.78,31.38,333696.47,7479923.35
"142165",142165,1984,49,"ro","Roan antelope",7,-22.93,31.28,323622.43,7463197.53
"142190",142190,1984,49,"ro","Roan antelope",1,-22.97,31.32,327775.72,7458815.67
"142337",142337,1984,49,"ro","Roan antelope",3,-22.95,31.42,338005.22,7461144.11
"142492",142492,1984,50,"ro","Roan antelope",4,-23.1,31.48,344330.33,7444599.93
"142493",142493,1984,50,"ro","Roan antelope",7,-23.1,31.48,344330.33,7444599.93
"142913",142913,1984,52,"ro","Roan antelope",11,-23.06,31.28,323791.3,7448802.03
"143446",143446,1984,53,"ro","Roan antelope",2,-23.12,31.09,304408.51,7441915.74
