"","ID","Year","Cenb","Sp","Description","No","Lat","Long","X.coord","Y.coord"
"365246",365246,1993,52,"sk","Sable antelope calf",2,-23.06,31.19,314568.99,7448690.72
"365475",365475,1993,52,"sk","Sable antelope calf",2,-23.11,31.32,327953.68,7443312.98
"365546",365546,1993,52,"sk","Sable antelope calf",1,-23.19,31.22,317818.83,7434332.43
"365756",365756,1993,53,"sk","Sable antelope calf",2,-23.01,30.92,286821.38,7453860.23
"366247",366247,1993,54,"sk","Sable antelope calf",1,-22.96,30.98,292896.31,7459483.68
"366761",366761,1993,55,"sk","Sable antelope calf",1,-22.81,31.08,302935.17,7476232.55
"367199",367199,1993,47,"sk","Sable antelope calf",1,-22.73,31.28,323364.4,7485344.02
"367211",367211,1993,47,"sk","Sable antelope calf",2,-22.76,31.2,315187.29,7481924.41
"367296",367296,1993,48,"sk","Sable antelope calf",3,-22.76,31.36,331618.4,7482115.29
"367914",367914,1993,51,"sk","Sable antelope calf",2,-22.72,31.35,330542.17,7486533.03
"368696",368696,1993,9,"sk","Sable antelope calf",2,-23.57,31.26,322420.96,7392300.67
"368936",368936,1993,10,"sk","Sable antelope calf",5,-23.33,31.11,306759.74,7418686.05
"369034",369034,1993,10,"sk","Sable antelope calf",1,-23.36,31.16,311915.44,7415429.67
"369064",369064,1993,10,"sk","Sable antelope calf",1,-23.37,31.15,310907.18,7414309.16
"369333",369333,1993,11,"sk","Sable antelope calf",1,-23.37,31.23,319086,7414411.68
"372886",372886,1993,21,"sk","Sable antelope calf",1,-24.2,31.48,345626.92,7322790.86
"372953",372953,1993,21,"sk","Sable antelope calf",3,-24.23,31.53,350740.71,7319522.96
"373533",373533,1993,21,"sk","Sable antelope calf",3,-24.35,31.53,350880.99,7306233.87
"373626",373626,1993,21,"sk","Sable antelope calf",3,-24.35,31.53,350880.99,7306233.87
"374093",374093,1993,22,"sk","Sable antelope calf",1,-24.27,31.51,348756.99,7315071.72
"376139",376139,1993,27,"sk","Sable antelope calf",3,-24.29,31.93,391410.21,7313248.68
"378819",378819,1993,33,"sk","Sable antelope calf",4,-24.67,31.66,364413.95,7270930.02
"378944",378944,1993,33,"sk","Sable antelope calf",2,-24.76,31.66,364511.43,7260963.04
"379911",379911,1993,36,"sk","Sable antelope calf",5,-24.79,31.77,375664.68,7257745.28
"379936",379936,1993,36,"sk","Sable antelope calf",3,-24.78,31.76,374643.68,7258843.57
"379968",379968,1993,36,"sk","Sable antelope calf",3,-24.81,31.74,372652.23,7255502.78
"381066",381066,1993,38,"sk","Sable antelope calf",3,-24.95,31.83,381882.57,7240079.89
"381079",381079,1993,38,"sk","Sable antelope calf",1,-24.92,31.82,380844.08,7243393.44
"381083",381083,1993,38,"sk","Sable antelope calf",5,-24.98,31.82,380901.81,7236748.86
"381246",381246,1993,38,"sk","Sable antelope calf",2,-25.01,31.82,380930.73,7233426.54
"381487",381487,1993,39,"sk","Sable antelope calf",1,-25.08,31.22,320478.56,7225011.63
"381551",381551,1993,39,"sk","Sable antelope calf",1,-25.15,31.26,324613.53,7217310.76
"381750",381750,1993,39,"sk","Sable antelope calf",1,-25.13,31.31,329626.56,7219590.14
"381935",381935,1993,40,"sk","Sable antelope calf",3,-25.25,31.28,326771.47,7206260.28
"381970",381970,1993,40,"sk","Sable antelope calf",2,-25.22,31.27,325721.35,7209570.28
"382032",382032,1993,40,"sk","Sable antelope calf",1,-25.14,31.33,331656.9,7218507.65
"382502",382502,1993,41,"sk","Sable antelope calf",1,-25.32,31.36,334924.87,7198607.78
"382934",382934,1993,42,"sk","Sable antelope calf",1,-25.24,31.51,349927.07,7207644.76
"386592",386592,1993,63,"sk","Sable antelope calf",2,-22.58,31.35,330370.2,7502034.86
