"","ID","Year","Cenb","Sp","Description","No","Lat","Long","X.coord","Y.coord"
"313885",313885,1991,52,"wr","White rhino",3,-23.07,31.2,315607.34,7447595.98
"314197",314197,1991,52,"wr","White rhino",5,-23.02,31.3,325789.21,7453255.37
"314973",314973,1991,54,"wr","White rhino",2,-22.93,31.08,303108.31,7462943.56
"314986",314986,1991,54,"wr","White rhino",3,-23.01,31.09,304249.35,7454097.53
"315004",315004,1991,54,"wr","White rhino",2,-22.91,31.07,302053.49,7465144.98
"315020",315020,1991,54,"wr","White rhino",3,-22.99,31.08,303195.2,7456299
"315566",315566,1991,54,"wr","White rhino",2,-23,31.13,308335.74,7455257.83
"317107",317107,1991,6,"wr","White rhino",3,-23.72,31.48,345054.13,7375945.89
"317134",317134,1991,6,"wr","White rhino",1,-23.68,31.46,342967.17,7380353.45
"317135",317135,1991,6,"wr","White rhino",2,-23.67,31.46,342955.21,7381460.82
"317136",317136,1991,6,"wr","White rhino",4,-23.67,31.45,341935.27,7381449.77
"317146",317146,1991,6,"wr","White rhino",1,-23.68,31.45,341947.31,7380342.41
"317234",317234,1991,6,"wr","White rhino",1,-23.69,31.38,334820.75,7379155.67
"317302",317302,1991,6,"wr","White rhino",7,-23.63,31.43,339846.68,7385856.96
"317859",317859,1991,8,"wr","White rhino",1,-23.41,31.28,324250.45,7410043.87
"317861",317861,1991,8,"wr","White rhino",2,-23.41,31.3,326294.46,7410068.12
"317975",317975,1991,9,"wr","White rhino",1,-23.47,31.21,317178.88,7403312.19
"317983",317983,1991,9,"wr","White rhino",5,-23.44,31.19,315093.93,7406608.94
"318552",318552,1991,10,"wr","White rhino",2,-23.41,31.18,314030.15,7409918.39
"318805",318805,1991,11,"wr","White rhino",1,-23.3,31.28,324105.44,7422225.18
"318813",318813,1991,11,"wr","White rhino",3,-23.29,31.24,320000.53,7423283.41
"324042",324042,1991,21,"wr","White rhino",4,-24.25,31.46,343656.46,7317231.42
"324203",324203,1991,21,"wr","White rhino",3,-24.21,31.63,360874.01,7321841.03
"324226",324226,1991,21,"wr","White rhino",2,-24.2,31.61,358831.7,7322928.35
"324231",324231,1991,21,"wr","White rhino",2,-24.19,31.57,354757.41,7323994.75
"324266",324266,1991,21,"wr","White rhino",2,-24.17,31.54,351686.81,7326178.07
"324272",324272,1991,21,"wr","White rhino",3,-24.17,31.6,357782.7,7326240.37
"324283",324283,1991,21,"wr","White rhino",1,-24.16,31.57,354723.45,7327316.94
"324294",324294,1991,21,"wr","White rhino",2,-24.15,31.58,355728.28,7328434.67
"324371",324371,1991,22,"wr","White rhino",5,-24.3,31.53,350822.46,7311771.01
"324376",324376,1991,22,"wr","White rhino",2,-24.28,31.55,352829.32,7314007.14
"324377",324377,1991,22,"wr","White rhino",2,-24.28,31.55,352829.32,7314007.14
"324395",324395,1991,22,"wr","White rhino",1,-24.24,31.55,352783.25,7318436.79
"324406",324406,1991,22,"wr","White rhino",1,-24.3,31.5,347777.56,7311738.53
"324407",324407,1991,22,"wr","White rhino",2,-24.3,31.47,344732.64,7311705.39
"324413",324413,1991,22,"wr","White rhino",1,-24.28,31.51,348768.83,7313964.29
"324439",324439,1991,22,"wr","White rhino",2,-24.25,31.51,348733.32,7317286.57
"324524",324524,1991,22,"wr","White rhino",1,-24.36,31.55,352921.67,7305147.76
"325451",325451,1991,24,"wr","White rhino",2,-24.29,31.63,360961.03,7312981.94
"325663",325663,1991,24,"wr","White rhino",3,-24.37,31.62,360033.95,7304112.71
"325903",325903,1991,25,"wr","White rhino",1,-24.14,31.76,374008.49,7329715.74
"326590",326590,1991,26,"wr","White rhino",1,-24.37,31.9,388435.47,7304366.38
"326651",326651,1991,26,"wr","White rhino",3,-24.32,31.85,383318.09,7309861.97
"326694",326694,1991,26,"wr","White rhino",2,-24.27,31.84,382257.25,7315390.21
"326719",326719,1991,27,"wr","White rhino",1,-24.2,31.91,389302.47,7323198.72
"326742",326742,1991,27,"wr","White rhino",2,-24.25,31.92,390360.95,7317670.09
"326753",326753,1991,27,"wr","White rhino",2,-24.2,31.88,386255.49,7323174.63
"326801",326801,1991,27,"wr","White rhino",5,-24.26,31.88,386308.8,7316530.74
"326805",326805,1991,27,"wr","White rhino",1,-24.24,31.87,385275.67,7318737.19
"326806",326806,1991,27,"wr","White rhino",2,-24.23,31.87,385266.7,7319844.51
"326818",326818,1991,27,"wr","White rhino",2,-24.26,31.87,385293.61,7316522.55
"326820",326820,1991,27,"wr","White rhino",1,-24.26,31.87,385293.61,7316522.55
"326822",326822,1991,27,"wr","White rhino",1,-24.27,31.88,386317.7,7315423.43
"326826",326826,1991,27,"wr","White rhino",2,-24.28,31.88,386326.6,7314316.11
"326828",326828,1991,27,"wr","White rhino",1,-24.29,31.89,387350.45,7313216.91
"326844",326844,1991,27,"wr","White rhino",2,-24.23,31.85,383235.85,7319827.92
"326851",326851,1991,27,"wr","White rhino",1,-24.24,31.85,383244.97,7318720.6
"326962",326962,1991,27,"wr","White rhino",2,-24.34,31.97,395510.92,7307742.77
"327113",327113,1991,27,"wr","White rhino",2,-24.3,31.93,391418.72,7312141.37
"327169",327169,1991,27,"wr","White rhino",1,-24.29,31.92,390395.27,7313240.85
"327258",327258,1991,28,"wr","White rhino",1,-24.52,31.93,391606.75,7287780.19
"327819",327819,1991,29,"wr","White rhino",2,-24.57,31.8,378484.46,7282135
"327824",327824,1991,29,"wr","White rhino",4,-24.56,31.8,378474.81,7283242.38
"327991",327991,1991,29,"wr","White rhino",1,-24.66,31.86,384643.38,7272220.25
"328021",328021,1991,29,"wr","White rhino",2,-24.64,31.82,380576.39,7274400.82
"328187",328187,1991,29,"wr","White rhino",4,-24.72,31.85,383687.11,7265567.49
"328410",328410,1991,30,"wr","White rhino",2,-24.7,31.97,395808.37,7267878.79
"328431",328431,1991,30,"wr","White rhino",2,-24.76,31.99,397880.64,7261249.69
"328433",328433,1991,30,"wr","White rhino",3,-24.76,31.99,397880.64,7261249.69
"328507",328507,1991,30,"wr","White rhino",2,-24.64,31.97,395758.51,7274522.91
"328593",328593,1991,30,"wr","White rhino",1,-24.57,31.98,396713.17,7282281.86
"328954",328954,1991,31,"wr","White rhino",1,-24.47,31.71,369266.32,7293126.64
"329039",329039,1991,31,"wr","White rhino",2,-24.57,31.72,370382.56,7282062.08
"329091",329091,1991,31,"wr","White rhino",1,-24.54,31.7,368325.73,7285365.34
"329143",329143,1991,31,"wr","White rhino",2,-24.52,31.69,367291.71,7287570.57
"329152",329152,1991,31,"wr","White rhino",3,-24.51,31.68,366267.96,7288668.33
"329161",329161,1991,31,"wr","White rhino",2,-24.54,31.68,366299.74,7285346.1
"329173",329173,1991,31,"wr","White rhino",3,-24.59,31.69,367365.38,7279818.69
"329174",329174,1991,31,"wr","White rhino",1,-24.58,31.69,367354.84,7280926.11
"329196",329196,1991,31,"wr","White rhino",2,-24.52,31.67,365265.39,7287551.19
"329301",329301,1991,31,"wr","White rhino",1,-24.59,31.65,363314.98,7279779.56
"329813",329813,1991,32,"wr","White rhino",3,-24.5,31.61,359164.07,7289706.15
"329818",329818,1991,32,"wr","White rhino",2,-24.52,31.61,359186.37,7287491.3
"329875",329875,1991,32,"wr","White rhino",2,-24.5,31.57,355110.69,7289664.78
"329879",329879,1991,32,"wr","White rhino",1,-24.5,31.56,354097.34,7289654.25
"330083",330083,1991,33,"wr","White rhino",2,-24.75,31.68,366523.2,7262090.15
"330202",330202,1991,33,"wr","White rhino",1,-24.63,31.66,364370.73,7275359.75
"330333",330333,1991,34,"wr","White rhino",2,-24.72,31.78,376606.51,7265506.24
"330344",330344,1991,34,"wr","White rhino",2,-24.72,31.8,378629.55,7265524.11
"330350",330350,1991,34,"wr","White rhino",1,-24.72,31.81,379641.07,7265532.93
"330355",330355,1991,34,"wr","White rhino",2,-24.74,31.8,378648.96,7263309.3
"330361",330361,1991,34,"wr","White rhino",4,-24.74,31.81,379660.31,7263318.13
"330363",330363,1991,34,"wr","White rhino",2,-24.73,31.81,379650.69,7264425.53
"330365",330365,1991,34,"wr","White rhino",2,-24.73,31.81,379650.69,7264425.53
"330378",330378,1991,34,"wr","White rhino",2,-24.72,31.82,380652.58,7265541.68
"330466",330466,1991,34,"wr","White rhino",1,-24.72,31.73,371548.87,7265460.28
"330473",330473,1991,34,"wr","White rhino",2,-24.73,31.69,367513.3,7264314.74
"330520",330520,1991,34,"wr","White rhino",2,-24.7,31.7,368493.24,7267646.67
"330522",330522,1991,34,"wr","White rhino",1,-24.69,31.68,366459.17,7268734.77
"330523",330523,1991,34,"wr","White rhino",1,-24.69,31.69,367470.96,7268744.47
"330524",330524,1991,34,"wr","White rhino",2,-24.69,31.7,368482.74,7268754.1
"330526",330526,1991,34,"wr","White rhino",2,-24.69,31.71,369494.53,7268763.65
"330538",330538,1991,34,"wr","White rhino",1,-24.65,31.71,369452.89,7273193.33
"330843",330843,1991,35,"wr","White rhino",5,-24.82,31.66,364576.6,7254318.33
"330844",330844,1991,35,"wr","White rhino",3,-24.82,31.65,363565.86,7254308.36
"330874",330874,1991,35,"wr","White rhino",1,-24.85,31.64,362588.24,7250975.93
"331022",331022,1991,36,"wr","White rhino",1,-24.82,31.86,384790.94,7254502
"331122",331122,1991,36,"wr","White rhino",1,-24.79,31.83,381730.39,7257798.56
"331124",331124,1991,36,"wr","White rhino",2,-24.79,31.83,381730.39,7257798.56
"331451",331451,1991,37,"wr","White rhino",2,-24.87,31.97,395950.25,7249053.48
"331505",331505,1991,37,"wr","White rhino",1,-24.82,31.91,389844.37,7254543.28
"331610",331610,1991,37,"wr","White rhino",3,-24.98,31.98,397051.91,7236879.81
"331622",331622,1991,37,"wr","White rhino",3,-24.97,31.99,398053.03,7237994.76
"331636",331636,1991,37,"wr","White rhino",2,-24.95,31.98,397026.95,7240201.99
"331639",331639,1991,37,"wr","White rhino",1,-24.95,31.97,396017.34,7240194.37
"331714",331714,1991,37,"wr","White rhino",2,-24.92,31.97,395992.16,7243516.55
"331923",331923,1991,37,"wr","White rhino",3,-25.17,32.01,400234.09,7215861.57
"332143",332143,1991,38,"wr","White rhino",1,-25.03,31.82,380950.02,7231211.66
"332152",332152,1991,38,"wr","White rhino",2,-25.02,31.83,381949.45,7232327.86
"332160",332160,1991,38,"wr","White rhino",2,-25.05,31.82,380969.33,7228996.78
"332295",332295,1991,38,"wr","White rhino",4,-25,31.9,388994.9,7234601.88
"332407",332407,1991,39,"wr","White rhino",1,-25,31.34,332474.71,7234026.44
"332420",332420,1991,39,"wr","White rhino",2,-25.01,31.33,331478.98,7232906.45
"332439",332439,1991,39,"wr","White rhino",2,-25.02,31.31,329474.21,7231773.82
"332470",332470,1991,39,"wr","White rhino",2,-25.04,31.37,335556.12,7229632.88
"332478",332478,1991,39,"wr","White rhino",3,-25.04,31.31,329501.86,7229558.62
"332494",332494,1991,39,"wr","White rhino",2,-25.05,31.37,335569.47,7228525.3
"332501",332501,1991,39,"wr","White rhino",2,-25.05,31.33,331533.63,7228476.08
"332513",332513,1991,39,"wr","White rhino",2,-25.07,31.38,336604.95,7226322.26
"332514",332514,1991,39,"wr","White rhino",1,-25.07,31.37,335596.17,7226310.13
"332517",332517,1991,39,"wr","White rhino",1,-25.07,31.36,334587.38,7226297.93
"332535",332535,1991,39,"wr","White rhino",4,-25.07,31.28,326516.94,7226197.63
"332542",332542,1991,39,"wr","White rhino",3,-25.08,31.3,328548.5,7225115.54
"332543",332543,1991,39,"wr","White rhino",1,-25.07,31.3,328534.57,7226223.15
"332549",332549,1991,39,"wr","White rhino",2,-25.07,31.33,331560.99,7226260.88
"332552",332552,1991,39,"wr","White rhino",2,-25.07,31.36,334587.38,7226297.93
"332553",332553,1991,39,"wr","White rhino",2,-25.07,31.37,335596.17,7226310.13
"332564",332564,1991,39,"wr","White rhino",2,-25.08,31.36,334600.82,7225190.34
"332565",332565,1991,39,"wr","White rhino",2,-25.08,31.35,333592.11,7225178.06
"332568",332568,1991,39,"wr","White rhino",4,-25.08,31.34,332583.39,7225165.71
"332571",332571,1991,39,"wr","White rhino",2,-25.08,31.32,330565.95,7225140.77
"332582",332582,1991,39,"wr","White rhino",1,-25.09,31.27,325536.48,7223969.51
"332586",332586,1991,39,"wr","White rhino",2,-25.09,31.33,331588.37,7224045.68
"332589",332589,1991,39,"wr","White rhino",2,-25.08,31.36,334600.82,7225190.34
"332597",332597,1991,39,"wr","White rhino",2,-25.09,31.36,334614.26,7224082.75
"332611",332611,1991,39,"wr","White rhino",3,-25.1,31.26,324542.09,7222848.93
"332614",332614,1991,39,"wr","White rhino",1,-25.1,31.3,328576.38,7222900.32
"332616",332616,1991,39,"wr","White rhino",3,-25.11,31.32,330607.29,7221817.95
"332617",332617,1991,39,"wr","White rhino",2,-25.11,31.32,330607.29,7221817.95
"332624",332624,1991,39,"wr","White rhino",4,-25.11,31.34,332624.23,7221842.91
"332625",332625,1991,39,"wr","White rhino",3,-25.11,31.34,332624.23,7221842.91
"332636",332636,1991,39,"wr","White rhino",2,-25.11,31.26,324556.37,7221741.3
"332656",332656,1991,39,"wr","White rhino",3,-25.13,31.26,324584.94,7219526.03
"332718",332718,1991,39,"wr","White rhino",4,-25.05,31.24,322452.81,7228360.95
"332733",332733,1991,39,"wr","White rhino",4,-25.07,31.22,320463.97,7226119.27
"332751",332751,1991,39,"wr","White rhino",3,-25.09,31.23,321501.83,7223917.24
"332755",332755,1991,39,"wr","White rhino",1,-25.1,31.24,322524.93,7222822.78
"332756",332756,1991,39,"wr","White rhino",2,-25.11,31.24,322539.37,7221715.14
"332766",332766,1991,39,"wr","White rhino",2,-25.12,31.24,322553.82,7220607.51
"332767",332767,1991,39,"wr","White rhino",2,-25.12,31.24,322553.82,7220607.51
"332824",332824,1991,40,"wr","White rhino",2,-25.16,31.33,331684.34,7216292.43
"332827",332827,1991,40,"wr","White rhino",3,-25.16,31.35,333700.46,7216317.27
"332835",332835,1991,40,"wr","White rhino",2,-25.17,31.32,330690.09,7215172.28
"332856",332856,1991,40,"wr","White rhino",2,-25.18,31.33,331711.81,7214077.2
"332858",332858,1991,40,"wr","White rhino",2,-25.17,31.33,331698.08,7215184.81
"332860",332860,1991,40,"wr","White rhino",2,-25.16,31.37,335716.56,7216341.81
"332868",332868,1991,40,"wr","White rhino",4,-25.18,31.32,330703.91,7214064.66
"332885",332885,1991,40,"wr","White rhino",1,-25.17,31.35,333714.03,7215209.66
"332892",332892,1991,40,"wr","White rhino",3,-25.19,31.35,333741.18,7212994.44
"332915",332915,1991,40,"wr","White rhino",1,-25.22,31.33,331766.81,7209646.73
"332922",332922,1991,40,"wr","White rhino",2,-25.22,31.34,332774.38,7209659.21
"332923",332923,1991,40,"wr","White rhino",3,-25.22,31.34,332774.38,7209659.21
"332966",332966,1991,40,"wr","White rhino",2,-25.17,31.21,319602.08,7215029.43
"333002",333002,1991,40,"wr","White rhino",1,-25.2,31.27,325692.85,7211785.56
"333085",333085,1991,40,"wr","White rhino",1,-25.3,31.31,329863.24,7200760.48
"333089",333089,1991,40,"wr","White rhino",2,-25.31,31.32,330884.03,7199665.5
"333112",333112,1991,40,"wr","White rhino",2,-25.31,31.29,327863.54,7199627.29
"333118",333118,1991,40,"wr","White rhino",2,-25.33,31.28,326885.15,7197399.1
"333119",333119,1991,40,"wr","White rhino",1,-25.32,31.27,325864.16,7198493.78
"333122",333122,1991,40,"wr","White rhino",1,-25.32,31.28,326870.92,7198506.75
"333123",333123,1991,40,"wr","White rhino",3,-25.32,31.3,328884.43,7198532.46
"333124",333124,1991,40,"wr","White rhino",3,-25.32,31.31,329891.18,7198545.2
"333130",333130,1991,40,"wr","White rhino",2,-25.33,31.28,326885.15,7197399.1
"333131",333131,1991,40,"wr","White rhino",5,-25.34,31.27,325892.79,7196278.47
"333133",333133,1991,40,"wr","White rhino",5,-25.34,31.32,330925.72,7196342.59
"333140",333140,1991,40,"wr","White rhino",2,-25.36,31.31,329947.13,7194114.62
"333141",333141,1991,40,"wr","White rhino",3,-25.36,31.32,330953.54,7194127.3
"333151",333151,1991,40,"wr","White rhino",3,-25.37,31.32,330967.46,7193019.66
"333153",333153,1991,40,"wr","White rhino",2,-25.38,31.32,330981.38,7191912.01
"333161",333161,1991,40,"wr","White rhino",2,-25.38,31.33,331987.62,7191924.63
"333163",333163,1991,41,"wr","White rhino",2,-25.41,31.36,335047.14,7188639.11
"333167",333167,1991,41,"wr","White rhino",1,-25.4,31.34,333021.39,7189721.88
"333174",333174,1991,41,"wr","White rhino",4,-25.4,31.37,336039.6,7189759.06
"333178",333178,1991,41,"wr","White rhino",3,-25.39,31.36,335019.94,7190854.38
"333187",333187,1991,41,"wr","White rhino",2,-25.38,31.35,334000.11,7191949.63
"333192",333192,1991,41,"wr","White rhino",2,-25.37,31.35,333986.43,7193057.26
"333196",333196,1991,41,"wr","White rhino",4,-25.38,31.38,337018.8,7191986.56
"333233",333233,1991,41,"wr","White rhino",2,-25.35,31.32,330939.63,7195234.95
"333257",333257,1991,41,"wr","White rhino",1,-25.34,31.37,335958.57,7196404.82
"333264",333264,1991,41,"wr","White rhino",1,-25.33,31.34,332925.14,7197475.34
"333283",333283,1991,41,"wr","White rhino",2,-25.31,31.36,334911.31,7199715.4
"333301",333301,1991,41,"wr","White rhino",2,-25.29,31.32,330856.27,7201880.77
"333304",333304,1991,41,"wr","White rhino",4,-25.3,31.36,334897.76,7200823.02
"333306",333306,1991,41,"wr","White rhino",3,-25.31,31.42,340952.14,7199787.99
"333309",333309,1991,41,"wr","White rhino",5,-25.31,31.43,341958.93,7199799.82
"333311",333311,1991,41,"wr","White rhino",4,-25.3,31.43,341945.96,7200907.42
"333321",333321,1991,41,"wr","White rhino",3,-25.28,31.37,335877.72,7203050.53
"333325",333325,1991,41,"wr","White rhino",2,-25.28,31.33,331849.46,7203000.98
"333329",333329,1991,41,"wr","White rhino",1,-25.27,31.33,331835.68,7204108.61
"333330",333330,1991,41,"wr","White rhino",2,-25.27,31.35,333849.98,7204133.53
"333332",333332,1991,41,"wr","White rhino",2,-25.28,31.36,334870.66,7203038.26
"333337",333337,1991,41,"wr","White rhino",2,-25.28,31.4,338898.89,7203086.91
"333338",333338,1991,41,"wr","White rhino",3,-25.28,31.41,339905.93,7203098.88
"333340",333340,1991,41,"wr","White rhino",3,-25.27,31.33,331835.68,7204108.61
"333343",333343,1991,41,"wr","White rhino",1,-25.26,31.35,333836.36,7205241.15
"333344",333344,1991,41,"wr","White rhino",2,-25.26,31.37,335850.81,7205265.76
"333347",333347,1991,41,"wr","White rhino",3,-25.26,31.38,336858.04,7205277.95
"333350",333350,1991,41,"wr","White rhino",2,-25.26,31.4,338872.47,7205302.11
"333352",333352,1991,41,"wr","White rhino",2,-25.26,31.4,338872.47,7205302.11
"333355",333355,1991,41,"wr","White rhino",4,-25.26,31.38,336858.04,7205277.95
"333357",333357,1991,41,"wr","White rhino",5,-25.25,31.37,335837.37,7206373.37
"333358",333358,1991,41,"wr","White rhino",3,-25.25,31.35,333822.75,7206348.77
"333361",333361,1991,41,"wr","White rhino",3,-25.25,31.37,335837.37,7206373.37
"333365",333365,1991,41,"wr","White rhino",1,-25.25,31.38,336844.67,7206385.56
"333369",333369,1991,41,"wr","White rhino",4,-25.23,31.36,334803.01,7208576.33
"333372",333372,1991,41,"wr","White rhino",1,-25.24,31.38,336831.31,7207493.17
"333374",333374,1991,41,"wr","White rhino",1,-25.25,31.4,338859.27,7206409.72
"333377",333377,1991,41,"wr","White rhino",2,-25.29,31.44,342939.94,7202026.77
"333378",333378,1991,41,"wr","White rhino",1,-25.28,31.43,341920.02,7203122.61
"333379",333379,1991,41,"wr","White rhino",1,-25.28,31.43,341920.02,7203122.61
"333382",333382,1991,41,"wr","White rhino",1,-25.24,31.39,337838.7,7207505.28
"333384",333384,1991,41,"wr","White rhino",1,-25.23,31.39,337825.42,7208612.88
"333385",333385,1991,41,"wr","White rhino",1,-25.23,31.38,336817.96,7208600.77
"333386",333386,1991,41,"wr","White rhino",1,-25.23,31.4,338832.89,7208624.91
"333387",333387,1991,41,"wr","White rhino",2,-25.26,31.42,340886.9,7205325.98
"333389",333389,1991,41,"wr","White rhino",2,-25.27,31.43,341907.06,7204230.2
"333391",333391,1991,41,"wr","White rhino",2,-25.28,31.43,341920.02,7203122.61
"333392",333392,1991,41,"wr","White rhino",2,-25.29,31.44,342939.94,7202026.77
"333394",333394,1991,41,"wr","White rhino",2,-25.26,31.43,341894.1,7205337.79
"333396",333396,1991,41,"wr","White rhino",1,-25.26,31.43,341894.1,7205337.79
"333397",333397,1991,41,"wr","White rhino",2,-25.25,31.43,341881.15,7206445.38
"333399",333399,1991,41,"wr","White rhino",3,-25.25,31.42,340873.86,7206433.57
"333403",333403,1991,41,"wr","White rhino",2,-25.23,31.4,338832.89,7208624.91
"333406",333406,1991,41,"wr","White rhino",2,-25.25,31.43,341881.15,7206445.38
"333411",333411,1991,41,"wr","White rhino",5,-25.25,31.45,343895.72,7206468.79
"333416",333416,1991,41,"wr","White rhino",5,-25.25,31.45,343895.72,7206468.79
"333417",333417,1991,41,"wr","White rhino",4,-25.26,31.45,343908.51,7205361.2
"333420",333420,1991,41,"wr","White rhino",2,-25.27,31.48,346942.63,7204288.18
"333426",333426,1991,41,"wr","White rhino",1,-25.26,31.49,347937.28,7205407.12
"333427",333427,1991,41,"wr","White rhino",2,-25.18,31.37,335743.37,7214126.61
"333429",333429,1991,41,"wr","White rhino",2,-25.18,31.37,335743.37,7214126.61
"333431",333431,1991,41,"wr","White rhino",1,-25.18,31.38,336751.26,7214138.77
"333434",333434,1991,41,"wr","White rhino",8,-25.17,31.39,337745.89,7215258.46
"333436",333436,1991,41,"wr","White rhino",4,-25.18,31.38,336751.26,7214138.77
"333437",333437,1991,41,"wr","White rhino",2,-25.19,31.38,336764.59,7213031.18
"333438",333438,1991,41,"wr","White rhino",5,-25.2,31.38,336777.92,7211923.58
"333440",333440,1991,41,"wr","White rhino",2,-25.2,31.38,336777.92,7211923.58
"333442",333442,1991,41,"wr","White rhino",2,-25.21,31.38,336791.26,7210815.98
"333443",333443,1991,41,"wr","White rhino",1,-25.21,31.38,336791.26,7210815.98
"333444",333444,1991,41,"wr","White rhino",1,-25.21,31.39,337798.89,7210828.08
"333445",333445,1991,41,"wr","White rhino",2,-25.2,31.38,336777.92,7211923.58
"333447",333447,1991,41,"wr","White rhino",1,-25.2,31.38,336777.92,7211923.58
"333450",333450,1991,41,"wr","White rhino",3,-25.17,31.4,338753.85,7215270.47
"333453",333453,1991,41,"wr","White rhino",1,-25.18,31.4,338767.01,7214162.88
"333454",333454,1991,41,"wr","White rhino",2,-25.19,31.39,337772.38,7213043.27
"333457",333457,1991,41,"wr","White rhino",2,-25.2,31.4,338793.35,7211947.7
"333460",333460,1991,41,"wr","White rhino",2,-25.22,31.4,338819.7,7209732.51
"333462",333462,1991,41,"wr","White rhino",2,-25.21,31.4,338806.52,7210840.1
"333465",333465,1991,41,"wr","White rhino",3,-25.2,31.41,339801.06,7211959.64
"333466",333466,1991,41,"wr","White rhino",7,-25.19,31.41,339787.97,7213067.23
"333469",333469,1991,41,"wr","White rhino",4,-25.18,31.41,339774.89,7214174.82
"333470",333470,1991,41,"wr","White rhino",2,-25.17,31.41,339761.81,7215282.41
"333476",333476,1991,41,"wr","White rhino",2,-25.18,31.42,340782.75,7214186.69
"333479",333479,1991,41,"wr","White rhino",1,-25.17,31.42,340769.76,7215294.27
"333493",333493,1991,41,"wr","White rhino",2,-25.21,31.42,340821.77,7210863.93
"333494",333494,1991,41,"wr","White rhino",2,-25.21,31.43,341829.39,7210875.73
"333495",333495,1991,41,"wr","White rhino",4,-25.21,31.43,341829.39,7210875.73
"333497",333497,1991,41,"wr","White rhino",4,-25.2,31.44,342824.16,7211995.04
"333498",333498,1991,41,"wr","White rhino",2,-25.2,31.44,342824.16,7211995.04
"333500",333500,1991,41,"wr","White rhino",1,-25.19,31.44,342811.32,7213102.61
"333501",333501,1991,41,"wr","White rhino",3,-25.18,31.44,342798.49,7214210.19
"333506",333506,1991,41,"wr","White rhino",1,-25.14,31.45,343755.38,7218652.11
"333508",333508,1991,41,"wr","White rhino",1,-25.16,31.45,343780.85,7216436.98
"333509",333509,1991,41,"wr","White rhino",2,-25.19,31.45,343819.1,7213114.26
"333510",333510,1991,41,"wr","White rhino",2,-25.19,31.44,342811.32,7213102.61
"333517",333517,1991,41,"wr","White rhino",3,-25.21,31.45,343844.62,7210899.11
"333520",333520,1991,41,"wr","White rhino",2,-25.16,31.47,345796.89,7216460.02
"333522",333522,1991,41,"wr","White rhino",2,-25.16,31.47,345796.89,7216460.02
"333524",333524,1991,41,"wr","White rhino",4,-25.2,31.46,344839.55,7212018.26
"333526",333526,1991,41,"wr","White rhino",1,-25.22,31.45,343857.39,7209791.53
"333527",333527,1991,41,"wr","White rhino",1,-25.23,31.46,344877.61,7208695.53
"333529",333529,1991,41,"wr","White rhino",1,-25.2,31.46,344839.55,7212018.26
"333530",333530,1991,41,"wr","White rhino",2,-25.19,31.47,345834.65,7213137.32
"333536",333536,1991,41,"wr","White rhino",1,-25.17,31.48,346817.41,7215363.87
"333537",333537,1991,41,"wr","White rhino",3,-25.17,31.48,346817.41,7215363.87
"333539",333539,1991,41,"wr","White rhino",3,-25.16,31.48,346804.91,7216471.43
"333549",333549,1991,41,"wr","White rhino",4,-25.23,31.47,345885.05,7208707.04
"333554",333554,1991,41,"wr","White rhino",2,-25.2,31.48,346854.93,7212041.18
"333559",333559,1991,41,"wr","White rhino",2,-25.17,31.49,347825.34,7215375.2
"333561",333561,1991,41,"wr","White rhino",2,-25.16,31.49,347812.92,7216482.76
"333566",333566,1991,41,"wr","White rhino",3,-25.15,31.49,347800.51,7217590.32
"333571",333571,1991,41,"wr","White rhino",2,-25.18,31.49,347837.76,7214267.65
"333582",333582,1991,41,"wr","White rhino",4,-25.18,31.5,348845.6,7214278.91
"333584",333584,1991,41,"wr","White rhino",4,-25.17,31.5,348833.27,7215386.47
"333593",333593,1991,41,"wr","White rhino",2,-25.23,31.49,347899.92,7208729.83
"333600",333600,1991,41,"wr","White rhino",2,-25.11,31.5,348759.34,7222031.77
"333601",333601,1991,41,"wr","White rhino",2,-25.12,31.5,348771.65,7220924.23
"333603",333603,1991,41,"wr","White rhino",1,-25.12,31.5,348771.65,7220924.23
"333606",333606,1991,41,"wr","White rhino",1,-25.13,31.51,349792.22,7219827.85
"333627",333627,1991,41,"wr","White rhino",3,-25.14,31.49,347788.11,7218697.87
"333629",333629,1991,41,"wr","White rhino",2,-25.14,31.49,347788.11,7218697.87
"333632",333632,1991,41,"wr","White rhino",2,-25.13,31.48,346767.45,7219794.1
"333640",333640,1991,41,"wr","White rhino",2,-25.1,31.46,344713,7223093.91
"333649",333649,1991,41,"wr","White rhino",3,-25.14,31.47,345771.75,7218675.14
"333650",333650,1991,41,"wr","White rhino",1,-25.13,31.46,344750.92,7219771.23
"333653",333653,1991,41,"wr","White rhino",3,-25.11,31.45,343717.2,7221974.81
"333657",333657,1991,41,"wr","White rhino",3,-25.11,31.44,342708.77,7221963.19
"333660",333660,1991,41,"wr","White rhino",2,-25.12,31.44,342721.57,7220855.62
"333663",333663,1991,41,"wr","White rhino",2,-25.12,31.44,342721.57,7220855.62
"333666",333666,1991,41,"wr","White rhino",1,-25.13,31.45,343742.65,7219759.68
"333668",333668,1991,41,"wr","White rhino",2,-25.14,31.45,343755.38,7218652.11
"333670",333670,1991,41,"wr","White rhino",6,-25.13,31.44,342734.38,7219748.06
"333671",333671,1991,41,"wr","White rhino",2,-25.13,31.43,341726.1,7219736.36
"333672",333672,1991,41,"wr","White rhino",2,-25.12,31.43,341713.21,7220843.93
"333674",333674,1991,41,"wr","White rhino",1,-25.11,31.42,340691.89,7221939.73
"333678",333678,1991,41,"wr","White rhino",1,-25.14,31.43,341739,7218628.78
"333683",333683,1991,41,"wr","White rhino",2,-25.13,31.4,338701.26,7219700.81
"333691",333691,1991,41,"wr","White rhino",1,-25.15,31.41,339735.67,7217497.57
"333694",333694,1991,41,"wr","White rhino",2,-25.14,31.4,338714.4,7218593.23
"333698",333698,1991,41,"wr","White rhino",2,-25.14,31.39,337706.19,7218581.23
"333699",333699,1991,41,"wr","White rhino",3,-25.14,31.39,337706.19,7218581.23
"333702",333702,1991,41,"wr","White rhino",4,-25.15,31.4,338727.55,7217485.64
"333704",333704,1991,41,"wr","White rhino",2,-25.14,31.39,337706.19,7218581.23
"333710",333710,1991,41,"wr","White rhino",2,-25.13,31.38,336684.68,7219676.74
"333711",333711,1991,41,"wr","White rhino",2,-25.14,31.38,336697.99,7218569.15
"333713",333713,1991,41,"wr","White rhino",2,-25.16,31.38,336724.61,7216353.97
"333715",333715,1991,41,"wr","White rhino",1,-25.16,31.38,336724.61,7216353.97
"333717",333717,1991,41,"wr","White rhino",4,-25.12,31.37,335663,7220772.19
"333760",333760,1991,42,"wr","White rhino",1,-25.06,31.58,356768.4,7227656.62
"333768",333768,1991,42,"wr","White rhino",2,-25.11,31.58,356826.6,7222119.03
"333782",333782,1991,42,"wr","White rhino",9,-25.11,31.56,354809.8,7222097.66
"333801",333801,1991,42,"wr","White rhino",2,-25.13,31.57,355841.68,7219893.33
"333806",333806,1991,42,"wr","White rhino",1,-25.14,31.57,355853.42,7218785.8
"333857",333857,1991,42,"wr","White rhino",3,-25.15,31.56,354857.1,7217667.54
"333866",333866,1991,42,"wr","White rhino",3,-25.16,31.57,355876.92,7216570.74
"333874",333874,1991,42,"wr","White rhino",4,-25.15,31.59,357881.3,7217699.51
"333877",333877,1991,42,"wr","White rhino",1,-25.15,31.6,358889.37,7217710.02
"333899",333899,1991,42,"wr","White rhino",2,-25.17,31.57,355888.68,7215463.21
"333900",333900,1991,42,"wr","White rhino",3,-25.16,31.58,356884.91,7216581.4
"333929",333929,1991,42,"wr","White rhino",1,-25.17,31.57,355888.68,7215463.21
"333974",333974,1991,42,"wr","White rhino",2,-25.21,31.6,358958.46,7211064.87
"333976",333976,1991,42,"wr","White rhino",1,-25.21,31.61,359966.03,7211075.32
"334032",334032,1991,42,"wr","White rhino",1,-25.15,31.55,353849.02,7217656.73
"334062",334062,1991,42,"wr","White rhino",2,-25.15,31.53,351832.86,7217634.89
"334063",334063,1991,42,"wr","White rhino",1,-25.15,31.53,351832.86,7217634.89
"334068",334068,1991,42,"wr","White rhino",1,-25.12,31.51,349779.98,7220935.4
"334072",334072,1991,42,"wr","White rhino",2,-25.16,31.53,351844.94,7216527.35
"334074",334074,1991,42,"wr","White rhino",1,-25.15,31.52,350824.78,7217623.86
"334077",334077,1991,42,"wr","White rhino",4,-25.26,31.53,351966,7205451.84
"334080",334080,1991,42,"wr","White rhino",2,-25.25,31.52,350946.62,7206548.33
"334083",334083,1991,42,"wr","White rhino",4,-25.23,31.52,350922.21,7208763.45
"334102",334102,1991,42,"wr","White rhino",9,-25.22,31.5,348895,7209848.67
"334103",334103,1991,42,"wr","White rhino",1,-25.22,31.52,350910.02,7209871.01
"334104",334104,1991,42,"wr","White rhino",2,-25.21,31.53,351905.42,7210989.61
"334105",334105,1991,42,"wr","White rhino",2,-25.21,31.54,352913,7211000.59
"334109",334109,1991,42,"wr","White rhino",1,-25.2,31.56,354916.31,7212129.86
"334124",334124,1991,42,"wr","White rhino",2,-25.21,31.5,348882.64,7210956.24
"334125",334125,1991,42,"wr","White rhino",2,-25.2,31.51,349877.97,7212074.99
"334133",334133,1991,42,"wr","White rhino",2,-25.19,31.52,350873.46,7213193.67
"334136",334136,1991,42,"wr","White rhino",2,-25.19,31.51,349865.7,7213182.55
"334137",334137,1991,42,"wr","White rhino",1,-25.18,31.52,350861.28,7214301.22
"334145",334145,1991,42,"wr","White rhino",2,-25.32,31.58,357072.22,7198860.77
"334151",334151,1991,42,"wr","White rhino",2,-25.31,31.57,356053.73,7199957.61
"334153",334153,1991,42,"wr","White rhino",7,-25.31,31.58,357060.48,7199968.32
"334154",334154,1991,42,"wr","White rhino",2,-25.31,31.59,358067.23,7199978.95
"334159",334159,1991,42,"wr","White rhino",2,-25.3,31.58,357048.74,7201075.87
"334161",334161,1991,42,"wr","White rhino",2,-25.31,31.57,356053.73,7199957.61
"334165",334165,1991,42,"wr","White rhino",3,-25.31,31.56,355046.98,7199946.83
"334167",334167,1991,42,"wr","White rhino",2,-25.31,31.55,354040.22,7199935.97
"334169",334169,1991,42,"wr","White rhino",1,-25.3,31.55,354028.24,7201043.53
"334172",334172,1991,42,"wr","White rhino",3,-25.3,31.57,356041.91,7201065.16
"334173",334173,1991,42,"wr","White rhino",2,-25.3,31.58,357048.74,7201075.87
"334195",334195,1991,42,"wr","White rhino",2,-25.3,31.55,354028.24,7201043.53
"334196",334196,1991,42,"wr","White rhino",2,-25.3,31.54,353021.4,7201032.6
"334203",334203,1991,42,"wr","White rhino",2,-25.28,31.56,355011.29,7203269.49
"334223",334223,1991,42,"wr","White rhino",2,-25.28,31.54,352997.28,7203247.72
"334224",334224,1991,42,"wr","White rhino",3,-25.28,31.54,352997.28,7203247.72
"334226",334226,1991,42,"wr","White rhino",1,-25.28,31.53,351990.27,7203236.72
"334227",334227,1991,42,"wr","White rhino",1,-25.28,31.53,351990.27,7203236.72
"334231",334231,1991,42,"wr","White rhino",2,-25.27,31.56,354999.4,7204377.04
"334243",334243,1991,42,"wr","White rhino",3,-25.25,31.58,356990.13,7206613.59
"334254",334254,1991,42,"wr","White rhino",1,-25.26,31.54,352973.18,7205462.83
"334256",334256,1991,42,"wr","White rhino",1,-25.25,31.55,353968.39,7206581.3
"334257",334257,1991,42,"wr","White rhino",3,-25.25,31.55,353968.39,7206581.3
"334258",334258,1991,42,"wr","White rhino",1,-25.25,31.56,354975.64,7206592.14
"334259",334259,1991,42,"wr","White rhino",2,-25.25,31.56,354975.64,7206592.14
"334330",334330,1991,43,"wr","White rhino",4,-25.03,31.38,336551.9,7230752.57
"334336",334336,1991,43,"wr","White rhino",2,-25.02,31.39,337547.84,7231872.18
"334349",334349,1991,43,"wr","White rhino",2,-25.03,31.4,338570.12,7230776.58
"334350",334350,1991,43,"wr","White rhino",2,-25.04,31.4,338583.21,7229669.01
"334371",334371,1991,43,"wr","White rhino",2,-25.03,31.41,339579.22,7230788.46
"334374",334374,1991,43,"wr","White rhino",2,-25.04,31.41,339592.23,7229680.9
"334375",334375,1991,43,"wr","White rhino",2,-25.03,31.41,339579.22,7230788.46
"334377",334377,1991,43,"wr","White rhino",1,-25.03,31.41,339579.22,7230788.46
"334379",334379,1991,43,"wr","White rhino",2,-25.02,31.42,340575.4,7231907.84
"334401",334401,1991,43,"wr","White rhino",2,-25.04,31.42,340601.25,7229692.71
"334409",334409,1991,43,"wr","White rhino",2,-24.99,31.43,341546.09,7235242.24
"334421",334421,1991,43,"wr","White rhino",7,-25.03,31.43,341597.42,7230812.02
"334422",334422,1991,43,"wr","White rhino",1,-25.03,31.43,341597.42,7230812.02
"334435",334435,1991,43,"wr","White rhino",2,-25.02,31.43,341584.58,7231919.57
"334458",334458,1991,43,"wr","White rhino",4,-25.03,31.45,343615.61,7230835.27
"334473",334473,1991,43,"wr","White rhino",1,-25.01,31.45,343590.26,7233050.37
"334476",334476,1991,43,"wr","White rhino",4,-25.03,31.45,343615.61,7230835.27
"334565",334565,1991,43,"wr","White rhino",1,-25.01,31.52,350654.97,7233129.37
"334572",334572,1991,43,"wr","White rhino",1,-24.97,31.54,352625.73,7237581.33
"334618",334618,1991,43,"wr","White rhino",2,-25.1,31.38,336644.79,7222999.51
"334619",334619,1991,43,"wr","White rhino",2,-25.1,31.38,336644.79,7222999.51
"334621",334621,1991,43,"wr","White rhino",1,-25.09,31.38,336631.51,7224107.09
"334622",334622,1991,43,"wr","White rhino",2,-25.09,31.38,336631.51,7224107.09
"334623",334623,1991,43,"wr","White rhino",1,-25.08,31.38,336618.23,7225214.68
"334634",334634,1991,43,"wr","White rhino",3,-25.09,31.39,337640.13,7224119.15
"334635",334635,1991,43,"wr","White rhino",2,-25.1,31.39,337653.33,7223011.57
"334637",334637,1991,43,"wr","White rhino",4,-25.1,31.39,337653.33,7223011.57
"334661",334661,1991,43,"wr","White rhino",2,-25.1,31.41,339670.4,7223035.47
"334684",334684,1991,43,"wr","White rhino",7,-25.08,31.42,340653.01,7225262.45
"334696",334696,1991,43,"wr","White rhino",3,-25.07,31.43,341648.84,7226381.77
"334706",334706,1991,43,"wr","White rhino",3,-25.05,31.44,342632.05,7228608.57
"334716",334716,1991,43,"wr","White rhino",2,-25.07,31.44,342657.61,7226393.45
"334720",334720,1991,43,"wr","White rhino",9,-25.08,31.44,342670.39,7225285.89
"334721",334721,1991,43,"wr","White rhino",4,-25.08,31.44,342670.39,7225285.89
"334726",334726,1991,43,"wr","White rhino",2,-25.08,31.45,343679.07,7225297.49
"334737",334737,1991,43,"wr","White rhino",2,-25.06,31.46,344662.52,7227524.13
"334742",334742,1991,43,"wr","White rhino",3,-25.07,31.47,345683.89,7226428.03
"334751",334751,1991,43,"wr","White rhino",2,-25.05,31.48,346667.75,7228654.51
"334756",334756,1991,43,"wr","White rhino",1,-25.07,31.48,346692.64,7226439.41
"334757",334757,1991,43,"wr","White rhino",1,-25.08,31.48,346705.1,7225331.87
"334758",334758,1991,43,"wr","White rhino",1,-25.08,31.48,346705.1,7225331.87
"334759",334759,1991,43,"wr","White rhino",4,-25.08,31.48,346705.1,7225331.87
"334764",334764,1991,43,"wr","White rhino",1,-25.09,31.49,347726.15,7224235.63
"334768",334768,1991,43,"wr","White rhino",2,-25.08,31.49,347713.77,7225343.17
"334798",334798,1991,43,"wr","White rhino",3,-25.07,31.5,348710.15,7226461.95
"334952",334952,1991,44,"wr","White rhino",1,-25.34,31.71,370179.98,7196778.12
"334963",334963,1991,44,"wr","White rhino",1,-25.32,31.7,369152.01,7198983.42
"334966",334966,1991,44,"wr","White rhino",2,-25.35,31.69,368177.88,7195651.05
"334968",334968,1991,44,"wr","White rhino",1,-25.36,31.69,368188.73,7194543.53
"335019",335019,1991,44,"wr","White rhino",1,-25.35,31.63,362139.51,7195590.58
"335020",335020,1991,44,"wr","White rhino",4,-25.35,31.63,362139.51,7195590.58
"335022",335022,1991,44,"wr","White rhino",1,-25.42,31.63,362219,7187837.76
"335023",335023,1991,44,"wr","White rhino",1,-25.42,31.63,362219,7187837.76
"335027",335027,1991,44,"wr","White rhino",1,-25.4,31.62,361190.28,7190042.5
"335030",335030,1991,44,"wr","White rhino",2,-25.34,31.63,362128.17,7196698.12
"335032",335032,1991,44,"wr","White rhino",4,-25.34,31.62,361121.69,7196687.78
"335044",335044,1991,44,"wr","White rhino",2,-25.39,31.61,360172.76,7191139.62
"335090",335090,1991,44,"wr","White rhino",1,-25.31,31.86,385248.4,7200237.58
"335101",335101,1991,44,"wr","White rhino",1,-25.28,31.84,383206.3,7203542.73
"335115",335115,1991,44,"wr","White rhino",2,-25.31,31.84,383235.04,7200220.3
"335121",335121,1991,44,"wr","White rhino",2,-25.29,31.83,382209.03,7202426.51
"335127",335127,1991,44,"wr","White rhino",1,-25.32,31.84,383244.63,7199112.83
"335148",335148,1991,44,"wr","White rhino",1,-25.34,31.83,382257.39,7196889.11
"335155",335155,1991,44,"wr","White rhino",1,-25.31,31.81,380214.99,7200193.82
"335160",335160,1991,44,"wr","White rhino",1,-25.28,31.79,378171.62,7203498.26
"335174",335174,1991,44,"wr","White rhino",3,-25.3,31.78,377184.83,7201274.16
"335274",335274,1991,44,"wr","White rhino",2,-25.25,31.75,374112.89,7206783.81
"335279",335279,1991,44,"wr","White rhino",1,-25.2,31.76,375069.01,7212330.57
"335354",335354,1991,44,"wr","White rhino",3,-25.23,31.74,373084.92,7208989.38
"335361",335361,1991,44,"wr","White rhino",1,-25.19,31.74,373043.41,7213419.34
"335363",335363,1991,44,"wr","White rhino",2,-25.2,31.74,373053.78,7212311.85
"335418",335418,1991,44,"wr","White rhino",2,-25.19,31.72,371028.02,7213400.32
"335438",335438,1991,44,"wr","White rhino",2,-25.26,31.69,368080.46,7205618.7
"335442",335442,1991,44,"wr","White rhino",2,-25.28,31.68,367095.11,7203393.8
"335447",335447,1991,44,"wr","White rhino",4,-25.26,31.68,367073.32,7205608.83
"335448",335448,1991,44,"wr","White rhino",2,-25.26,31.68,367073.32,7205608.83
"335449",335449,1991,44,"wr","White rhino",1,-25.25,31.68,367062.43,7206716.34
"335453",335453,1991,44,"wr","White rhino",2,-25.24,31.69,368058.85,7207833.72
"335456",335456,1991,44,"wr","White rhino",1,-25.21,31.7,369034.01,7211166.01
"335473",335473,1991,44,"wr","White rhino",2,-25.23,31.68,367040.67,7208931.36
"335474",335474,1991,44,"wr","White rhino",2,-25.24,31.68,367051.55,7207823.86
"335478",335478,1991,44,"wr","White rhino",2,-25.26,31.67,366066.19,7205598.89
"335506",335506,1991,44,"wr","White rhino",2,-25.21,31.67,366011.37,7211136.45
"335507",335507,1991,44,"wr","White rhino",2,-25.22,31.67,366022.33,7210028.94
"335516",335516,1991,44,"wr","White rhino",2,-25.27,31.65,364063.05,7204471.26
"335519",335519,1991,44,"wr","White rhino",2,-25.25,31.65,364040.77,7206686.31
"335521",335521,1991,44,"wr","White rhino",2,-25.23,31.66,365025.9,7208911.43
"335522",335522,1991,44,"wr","White rhino",5,-25.22,31.66,365014.86,7210018.94
"335523",335523,1991,44,"wr","White rhino",3,-25.22,31.66,365014.86,7210018.94
"335524",335524,1991,44,"wr","White rhino",2,-25.22,31.66,365014.86,7210018.94
"335525",335525,1991,44,"wr","White rhino",2,-25.22,31.66,365014.86,7210018.94
"335530",335530,1991,44,"wr","White rhino",2,-25.21,31.66,365003.82,7211126.45
"335532",335532,1991,44,"wr","White rhino",3,-25.2,31.67,366000.42,7212243.96
"335540",335540,1991,44,"wr","White rhino",1,-25.22,31.65,364007.39,7210008.86
"335541",335541,1991,44,"wr","White rhino",2,-25.22,31.65,364007.39,7210008.86
"335542",335542,1991,44,"wr","White rhino",2,-25.25,31.65,364040.77,7206686.31
"335544",335544,1991,44,"wr","White rhino",2,-25.26,31.64,363044.76,7205568.62
"335545",335545,1991,44,"wr","White rhino",3,-25.27,31.64,363055.99,7204461.09
"335547",335547,1991,44,"wr","White rhino",2,-25.27,31.63,362048.92,7204450.85
"335555",335555,1991,44,"wr","White rhino",3,-25.26,31.63,362037.62,7205558.38
"335559",335559,1991,44,"wr","White rhino",3,-25.24,31.64,363022.33,7207783.67
"335560",335560,1991,44,"wr","White rhino",4,-25.21,31.65,363996.27,7211116.38
"335568",335568,1991,44,"wr","White rhino",4,-25.23,31.62,360996.33,7208870.65
"335571",335571,1991,44,"wr","White rhino",2,-25.21,31.63,361981.16,7211096
"335572",335572,1991,44,"wr","White rhino",2,-25.21,31.63,361981.16,7211096
"335573",335573,1991,44,"wr","White rhino",2,-25.2,31.63,361969.88,7212203.52
"335576",335576,1991,44,"wr","White rhino",3,-25.21,31.62,360973.59,7211085.7
"335580",335580,1991,44,"wr","White rhino",1,-25.18,31.62,360939.52,7214408.26
"335608",335608,1991,44,"wr","White rhino",1,-25.33,31.88,387280.27,7198039.62
"335619",335619,1991,44,"wr","White rhino",2,-25.27,31.88,387224.76,7204684.42
"335620",335620,1991,44,"wr","White rhino",11,-25.28,31.88,387234,7203576.96
"335634",335634,1991,44,"wr","White rhino",2,-25.3,31.87,386245.74,7201353.58
"335636",335636,1991,44,"wr","White rhino",2,-25.31,31.87,386255.08,7200246.11
"335641",335641,1991,44,"wr","White rhino",2,-25.28,31.87,386227.08,7203568.51
"335643",335643,1991,44,"wr","White rhino",2,-25.28,31.87,386227.08,7203568.51
"335677",335677,1991,44,"wr","White rhino",1,-25.23,31.93,392224.46,7209155.29
"335685",335685,1991,44,"wr","White rhino",1,-25.2,31.93,392198.02,7212477.61
"335698",335698,1991,44,"wr","White rhino",1,-25.2,31.92,391190.45,7212469.56
"335703",335703,1991,44,"wr","White rhino",2,-25.22,31.92,391208.24,7210254.68
"335705",335705,1991,44,"wr","White rhino",2,-25.23,31.91,390209.81,7209139.1
"335706",335706,1991,44,"wr","White rhino",2,-25.24,31.91,390218.79,7208031.65
"335708",335708,1991,44,"wr","White rhino",1,-25.24,31.91,390218.79,7208031.65
"335709",335709,1991,44,"wr","White rhino",2,-25.24,31.91,390218.79,7208031.65
"335717",335717,1991,44,"wr","White rhino",2,-25.23,31.91,390209.81,7209139.1
"335719",335719,1991,44,"wr","White rhino",2,-25.22,31.91,390200.83,7210246.55
"335720",335720,1991,44,"wr","White rhino",2,-25.22,31.91,390200.83,7210246.55
"335721",335721,1991,44,"wr","White rhino",2,-25.22,31.91,390200.83,7210246.55
"335723",335723,1991,44,"wr","White rhino",1,-25.21,31.91,390191.85,7211353.99
"335735",335735,1991,44,"wr","White rhino",3,-25.17,31.91,390155.98,7215783.76
"335745",335745,1991,44,"wr","White rhino",6,-25.24,31.9,389211.54,7208023.44
"335754",335754,1991,44,"wr","White rhino",2,-25.24,31.89,388204.3,7208015.16
"335757",335757,1991,44,"wr","White rhino",11,-25.2,31.89,388167.72,7212444.96
"335762",335762,1991,44,"wr","White rhino",1,-25.24,31.87,386189.79,7207998.36
"335795",335795,1991,44,"wr","White rhino",1,-25.21,31.86,385154.36,7211312.23
"335805",335805,1991,44,"wr","White rhino",1,-25.24,31.82,381153.5,7207955.06
"335819",335819,1991,44,"wr","White rhino",1,-25.2,31.83,382122.21,7212393.74
"335835",335835,1991,44,"wr","White rhino",1,-25.25,31.8,379148.86,7206829.74
"335842",335842,1991,44,"wr","White rhino",2,-25.19,31.83,382112.58,7213501.2
"335850",335850,1991,44,"wr","White rhino",1,-25.21,31.81,380116.82,7211268.6
"335857",335857,1991,44,"wr","White rhino",1,-25.24,31.79,378131.69,7207928.19
"335860",335860,1991,44,"wr","White rhino",2,-25.2,31.81,380107.02,7212376.07
"335862",335862,1991,44,"wr","White rhino",2,-25.19,31.81,380097.23,7213483.54
"335864",335864,1991,44,"wr","White rhino",2,-25.19,31.81,380097.23,7213483.54
"335866",335866,1991,44,"wr","White rhino",3,-25.18,31.82,381095.2,7214599.87
"335870",335870,1991,44,"wr","White rhino",1,-25.18,31.81,380087.44,7214591
"335878",335878,1991,44,"wr","White rhino",3,-25.22,31.79,378111.75,7210143.14
"335881",335881,1991,44,"wr","White rhino",1,-25.22,31.78,377104.31,7210134.04
"335882",335882,1991,44,"wr","White rhino",3,-25.23,31.78,377114.36,7209026.56
"335889",335889,1991,44,"wr","White rhino",2,-25.19,31.79,378081.86,7213465.57
"335893",335893,1991,44,"wr","White rhino",3,-25.18,31.8,379079.68,7214582.06
"335896",335896,1991,44,"wr","White rhino",2,-25.17,31.8,379069.81,7215689.53
"335899",335899,1991,44,"wr","White rhino",6,-25.16,31.81,380067.87,7216805.93
"335901",335901,1991,44,"wr","White rhino",1,-25.15,31.81,380058.09,7217913.39
"335908",335908,1991,44,"wr","White rhino",2,-25.18,31.78,377064.14,7214563.95
"335912",335912,1991,44,"wr","White rhino",2,-25.2,31.77,376076.61,7212339.82
"335981",335981,1991,44,"wr","White rhino",1,-25.15,31.91,390138.06,7217998.64
"336015",336015,1991,44,"wr","White rhino",5,-25.18,31.89,388149.46,7214659.86
"336018",336018,1991,44,"wr","White rhino",1,-25.16,31.89,388131.21,7216874.75
"336049",336049,1991,44,"wr","White rhino",2,-25.15,31.89,388122.09,7217982.19
"336057",336057,1991,44,"wr","White rhino",2,-25.18,31.87,386133.97,7214643.09
"336089",336089,1991,44,"wr","White rhino",3,-25.13,31.86,385079.38,7220171.85
"336118",336118,1991,44,"wr","White rhino",1,-25.18,31.85,384118.47,7214626.03
"336157",336157,1991,44,"wr","White rhino",2,-25.18,31.84,383110.71,7214617.39
"336188",336188,1991,44,"wr","White rhino",2,-25.16,31.83,382083.72,7216823.58
"336203",336203,1991,44,"wr","White rhino",2,-25.14,31.82,381056.41,7219029.71
"336227",336227,1991,46,"wr","White rhino",3,-25.2,31.96,395220.72,7212501.31
"336260",336260,1991,46,"wr","White rhino",3,-25.19,31.98,397227.45,7213624.17
"336261",336261,1991,46,"wr","White rhino",4,-25.19,31.98,397227.45,7213624.17
"336274",336274,1991,46,"wr","White rhino",2,-25.2,31.98,397235.85,7212516.74
"336280",336280,1991,46,"wr","White rhino",2,-25.22,31.99,398260.04,7210309.48
"336282",336282,1991,46,"wr","White rhino",3,-25.23,31.99,398268.36,7209202.06
"336287",336287,1991,46,"wr","White rhino",1,-25.26,31.99,398293.34,7205879.76
"336306",336306,1991,46,"wr","White rhino",2,-25.25,32.01,400299.3,7207002.19
"336310",336310,1991,46,"wr","White rhino",3,-25.22,32.01,400274.82,7210324.47
"336324",336324,1991,46,"wr","White rhino",2,-25.21,32.01,400266.67,7211431.89
"336364",336364,1991,46,"wr","White rhino",5,-25.24,31.96,395254.99,7208071.57
"336372",336372,1991,46,"wr","White rhino",3,-25.24,31.98,397269.45,7208087.01
"336382",336382,1991,46,"wr","White rhino",5,-25.25,31.96,395263.56,7206964.13
"336384",336384,1991,46,"wr","White rhino",3,-25.26,31.97,396279.21,7205864.45
"336389",336389,1991,46,"wr","White rhino",6,-25.27,31.94,393266.74,7204733.49
"336390",336390,1991,46,"wr","White rhino",1,-25.27,31.95,394273.73,7204741.41
"336406",336406,1991,46,"wr","White rhino",1,-25.3,31.96,395306.48,7201426.91
"336425",336425,1991,46,"wr","White rhino",2,-25.31,31.94,393301.76,7200303.69
"336426",336426,1991,46,"wr","White rhino",1,-25.31,31.95,394308.42,7200311.62
"336604",336604,1991,46,"wr","White rhino",1,-25.27,32,399308.65,7204779.86
"336642",336642,1991,46,"wr","White rhino",3,-25.3,31.98,397319.95,7201442.38
"336644",336644,1991,46,"wr","White rhino",2,-25.29,31.98,397311.53,7202549.83
"336646",336646,1991,46,"wr","White rhino",2,-25.28,31.98,397303.11,7203657.27
"336647",336647,1991,46,"wr","White rhino",3,-25.27,31.98,397294.69,7204764.71
"336654",336654,1991,46,"wr","White rhino",1,-25.42,31.31,330031.2,7187468.72
"336666",336666,1991,46,"wr","White rhino",3,-25.4,31.33,332015.32,7189709.34
"336686",336686,1991,46,"wr","White rhino",5,-25.44,31.31,330059.27,7185253.4
"336773",336773,1991,46,"wr","White rhino",2,-25.48,31.45,344191.02,7180994.02
"336792",336792,1991,46,"wr","White rhino",2,-25.48,31.49,348212.49,7181040.23
"336798",336798,1991,46,"wr","White rhino",3,-25.46,31.5,349192.91,7183266.78
"336807",336807,1991,46,"wr","White rhino",2,-25.46,31.51,350198.43,7183278.06
"336857",336857,1991,46,"wr","White rhino",1,-25.45,31.48,347169.22,7184351.6
"336858",336858,1991,46,"wr","White rhino",4,-25.45,31.48,347169.22,7184351.6
"336862",336862,1991,46,"wr","White rhino",3,-25.45,31.47,346163.6,7184340.09
"336891",336891,1991,46,"wr","White rhino",1,-25.42,31.44,343107.87,7187627.96
"336922",336922,1991,46,"wr","White rhino",2,-25.41,31.53,352148.44,7188838.31
"336927",336927,1991,46,"wr","White rhino",2,-25.42,31.51,350148.93,7187708.42
"336940",336940,1991,46,"wr","White rhino",2,-25.4,31.53,352136.24,7189945.89
"336944",336944,1991,46,"wr","White rhino",2,-25.38,31.54,353118.05,7192172.07
"336951",336951,1991,46,"wr","White rhino",2,-25.37,31.54,353105.95,7193279.64
"336982",336982,1991,46,"wr","White rhino",2,-25.36,31.47,346049.37,7194308.47
"336983",336983,1991,46,"wr","White rhino",1,-25.36,31.48,347055.74,7194319.95
"336987",336987,1991,46,"wr","White rhino",2,-25.36,31.46,345043.01,7194296.92
"336988",336988,1991,46,"wr","White rhino",1,-25.38,31.46,345068.52,7192081.73
"337014",337014,1991,46,"wr","White rhino",1,-25.35,31.45,344023.8,7195392.89
"337024",337024,1991,46,"wr","White rhino",1,-25.35,31.43,342010.89,7195369.42
"337033",337033,1991,46,"wr","White rhino",2,-25.37,31.43,342036.89,7193154.21
"337081",337081,1991,46,"wr","White rhino",1,-25.34,31.53,352063.18,7196591.33
"337085",337085,1991,46,"wr","White rhino",1,-25.35,31.52,351068.91,7195472.67
"337101",337101,1991,46,"wr","White rhino",7,-25.33,31.51,350037.82,7197676.65
"337105",337105,1991,46,"wr","White rhino",4,-25.3,31.52,351007.71,7201010.52
"337107",337107,1991,46,"wr","White rhino",4,-25.29,31.51,349988.55,7202106.93
"337109",337109,1991,46,"wr","White rhino",4,-25.31,31.5,349006.4,7199880.56
"337148",337148,1991,46,"wr","White rhino",2,-25.33,31.47,346011.38,7197631.24
"337153",337153,1991,46,"wr","White rhino",1,-25.32,31.47,345998.73,7198738.82
"337158",337158,1991,46,"wr","White rhino",2,-25.3,31.47,345973.43,7200953.99
"337166",337166,1991,46,"wr","White rhino",1,-25.32,31.44,342978.62,7198703.99
"337168",337168,1991,46,"wr","White rhino",1,-25.3,31.45,343959.7,7200930.86
"337170",337170,1991,46,"wr","White rhino",2,-25.32,31.44,342978.62,7198703.99
"337177",337177,1991,57,"wr","White rhino",1,-25.17,31.66,364959.72,7215556.49
"337195",337195,1991,57,"wr","White rhino",2,-25.18,31.75,374040.83,7214536.22
"337211",337211,1991,57,"wr","White rhino",1,-25.16,31.75,374020.27,7216751.18
"337219",337219,1991,57,"wr","White rhino",2,-25.17,31.77,376046.26,7215662.25
"337221",337221,1991,57,"wr","White rhino",2,-25.17,31.77,376046.26,7215662.25
"337222",337222,1991,57,"wr","White rhino",3,-25.16,31.78,377044.08,7216778.89
"337223",337223,1991,57,"wr","White rhino",2,-25.16,31.78,377044.08,7216778.89
"337233",337233,1991,57,"wr","White rhino",2,-25.12,31.71,369946.11,7221143.13
"337306",337306,1991,57,"wr","White rhino",2,-25.11,31.76,374977.3,7222297.85
"337307",337307,1991,57,"wr","White rhino",1,-25.11,31.76,374977.3,7222297.85
"337309",337309,1991,57,"wr","White rhino",3,-25.11,31.75,373968.95,7222288.55
"337314",337314,1991,57,"wr","White rhino",2,-25.09,31.73,371931.41,7224484.68
"337317",337317,1991,57,"wr","White rhino",2,-25.1,31.76,374967.13,7223405.32
"337324",337324,1991,57,"wr","White rhino",2,-25.12,31.8,379020.52,7221226.84
"337325",337325,1991,57,"wr","White rhino",1,-25.13,31.8,379030.37,7220119.38
"337327",337327,1991,57,"wr","White rhino",1,-25.13,31.81,380038.55,7220128.32
"337348",337348,1991,57,"wr","White rhino",1,-25.08,31.73,371921,7225592.16
"337353",337353,1991,57,"wr","White rhino",2,-25.09,31.76,374956.96,7224512.79
"337354",337354,1991,57,"wr","White rhino",2,-25.1,31.78,376983.99,7223423.69
"337358",337358,1991,57,"wr","White rhino",1,-25.11,31.8,379010.68,7222334.3
"337367",337367,1991,57,"wr","White rhino",2,-25.12,31.83,382045.28,7221253.41
"337377",337377,1991,57,"wr","White rhino",4,-25.11,31.81,380019.01,7222343.23
"337379",337379,1991,57,"wr","White rhino",2,-25.1,31.81,380009.25,7223450.69
"337384",337384,1991,57,"wr","White rhino",4,-25.1,31.79,377992.41,7223432.76
"337397",337397,1991,57,"wr","White rhino",2,-25.08,31.79,377972.57,7225647.68
"337398",337398,1991,57,"wr","White rhino",2,-25.09,31.8,378990.99,7224549.22
"337409",337409,1991,57,"wr","White rhino",3,-25.1,31.82,381017.67,7223459.53
"337415",337415,1991,57,"wr","White rhino",5,-25.1,31.83,382026.09,7223468.31
"337439",337439,1991,57,"wr","White rhino",1,-25.09,31.84,383024.99,7224584.45
"337544",337544,1991,58,"wr","White rhino",2,-25.04,31.76,374906.18,7230050.1
"337547",337547,1991,58,"wr","White rhino",2,-25.05,31.77,375925.17,7228951.85
"337548",337548,1991,58,"wr","White rhino",1,-25.06,31.77,375935.24,7227844.39
"337555",337555,1991,58,"wr","White rhino",2,-25.07,31.79,377962.66,7226755.14
"337557",337557,1991,58,"wr","White rhino",2,-25.07,31.79,377962.66,7226755.14
"337558",337558,1991,58,"wr","White rhino",4,-25.07,31.79,377962.66,7226755.14
"337565",337565,1991,58,"wr","White rhino",2,-25.04,31.75,373897.26,7230040.82
"337567",337567,1991,58,"wr","White rhino",2,-25.04,31.75,373897.26,7230040.82
"337574",337574,1991,58,"wr","White rhino",1,-25.03,31.74,372878.03,7231138.93
"337580",337580,1991,58,"wr","White rhino",6,-25.06,31.75,373917.72,7227825.9
"337582",337582,1991,58,"wr","White rhino",4,-25.07,31.76,374936.64,7226727.72
"337592",337592,1991,58,"wr","White rhino",2,-25.05,31.74,372898.65,7228924
"337602",337602,1991,58,"wr","White rhino",2,-25.06,31.74,372908.96,7227816.54
"337603",337603,1991,58,"wr","White rhino",4,-25.06,31.74,372908.96,7227816.54
"337605",337605,1991,58,"wr","White rhino",2,-25.07,31.75,373927.96,7226718.43
"337613",337613,1991,58,"wr","White rhino",2,-25.08,31.76,374946.8,7225620.26
"337617",337617,1991,58,"wr","White rhino",2,-25.06,31.74,372908.96,7227816.54
"337620",337620,1991,58,"wr","White rhino",2,-25.05,31.73,371889.8,7228914.57
"337627",337627,1991,58,"wr","White rhino",3,-25.06,31.73,371900.2,7227807.1
"337628",337628,1991,58,"wr","White rhino",2,-25.06,31.73,371900.2,7227807.1
"337633",337633,1991,58,"wr","White rhino",2,-25.07,31.73,371910.6,7226699.63
"337635",337635,1991,58,"wr","White rhino",2,-25.06,31.72,370891.43,7227797.59
"337643",337643,1991,58,"wr","White rhino",2,-25.07,31.72,370901.91,7226690.12
"337644",337644,1991,58,"wr","White rhino",1,-25.06,31.71,369882.66,7227788.01
"337649",337649,1991,58,"wr","White rhino",1,-25.06,31.7,368873.88,7227778.35
"337667",337667,1991,58,"wr","White rhino",1,-25.07,31.68,366867.14,7226651.32
"337669",337669,1991,58,"wr","White rhino",2,-25.06,31.67,365847.55,7227748.92
"337670",337670,1991,58,"wr","White rhino",3,-25.06,31.67,365847.55,7227748.92
"337672",337672,1991,58,"wr","White rhino",3,-25.05,31.66,364827.8,7228846.45
"337675",337675,1991,58,"wr","White rhino",2,-25.06,31.66,364838.77,7227738.96
"337677",337677,1991,58,"wr","White rhino",2,-25.08,31.67,365869.34,7225533.94
"337678",337678,1991,58,"wr","White rhino",2,-25.09,31.68,366888.78,7224436.35
"337687",337687,1991,58,"wr","White rhino",1,-25.07,31.66,364849.74,7226631.47
"337698",337698,1991,58,"wr","White rhino",1,-25.07,31.66,364849.74,7226631.47
"337707",337707,1991,58,"wr","White rhino",5,-25.1,31.67,365891.15,7223318.96
"337740",337740,1991,58,"wr","White rhino",2,-25.12,31.68,366921.26,7221113.87
"337764",337764,1991,58,"wr","White rhino",2,-25.13,31.66,364915.68,7219986.5
"337776",337776,1991,58,"wr","White rhino",1,-25.14,31.67,365934.81,7218888.98
"337777",337777,1991,58,"wr","White rhino",2,-25.13,31.66,364915.68,7219986.5
"337798",337798,1991,58,"wr","White rhino",3,-25.13,31.65,363907.47,7219976.44
"337835",337835,1991,58,"wr","White rhino",3,-25.16,31.65,363940.74,7216653.93
"337836",337836,1991,58,"wr","White rhino",3,-25.15,31.64,362921.59,7217751.3
"337842",337842,1991,58,"wr","White rhino",1,-25.11,31.6,358843.39,7222140.09
"337848",337848,1991,58,"wr","White rhino",2,-25.16,31.64,362932.77,7216643.79
"337849",337849,1991,58,"wr","White rhino",7,-25.16,31.64,362932.77,7216643.79
"337979",337979,1991,60,"wr","White rhino",2,-24.99,31.68,366780.77,7235511.16
"337990",337990,1991,60,"wr","White rhino",3,-25.03,31.67,365814.9,7231071.38
"338143",338143,1991,61,"wr","White rhino",1,-22.57,31.04,298477.69,7502756.52
