"","ID","Year","Cenb","Sp","Description","No","Lat","Long","X.coord","Y.coord"
"314212",314212,1991,52,"s","Sable antelope",6,-23.05,31.33,328902.03,7449968.75
"314454",314454,1991,53,"s","Sable antelope",10,-23.17,31.07,302433.23,7436351.5
"314457",314457,1991,53,"s","Sable antelope",8,-23.19,31.08,303486.39,7434150.13
"314635",314635,1991,53,"s","Sable antelope",8,-22.98,30.95,289850.54,7457226.05
"314751",314751,1991,53,"s","Sable antelope",17,-23.07,31.04,299212.6,7447385.11
"314777",314777,1991,53,"s","Sable antelope",1,-23.11,31.17,312588.91,7443128.2
"314789",314789,1991,53,"s","Sable antelope",2,-23.09,31.16,311536.65,7445330.14
"314809",314809,1991,53,"s","Sable antelope",9,-23.06,31.13,308420.61,7448613.35
"314812",314812,1991,53,"s","Sable antelope",14,-23.07,31.13,308434.77,7447505.94
"314838",314838,1991,53,"s","Sable antelope",17,-23.02,31.09,304263.79,7452990.1
"314857",314857,1991,53,"s","Sable antelope",2,-23.01,31.06,301173.92,7454057.13
"314858",314858,1991,53,"s","Sable antelope",17,-23.03,31.07,302228.25,7451855.79
"314869",314869,1991,53,"s","Sable antelope",4,-23.02,31.06,301188.58,7452949.68
"315094",315094,1991,54,"s","Sable antelope",16,-22.95,31.01,295957.97,7460633.15
"315162",315162,1991,54,"s","Sable antelope",15,-22.96,30.96,290845.17,7459455.32
"315166",315166,1991,54,"s","Sable antelope",11,-22.97,30.97,291886.06,7458362.05
"315379",315379,1991,54,"s","Sable antelope",6,-23.03,31.19,314527.89,7452012.89
"315673",315673,1991,54,"s","Sable antelope",3,-22.91,31.11,306157.07,7465198.25
"315750",315750,1991,55,"s","Sable antelope",4,-22.78,31.1,304945.77,7479581.29
"315776",315776,1991,55,"s","Sable antelope",18,-22.75,31.03,297713.38,7482809.53
"315779",315779,1991,55,"s","Sable antelope",11,-22.74,31.03,297698.65,7483916.96
"315782",315782,1991,55,"s","Sable antelope",3,-22.75,31.02,296686.25,7482795.84
"315792",315792,1991,55,"s","Sable antelope",7,-22.76,31,294646.95,7481660.8
"315804",315804,1991,55,"s","Sable antelope",5,-22.87,30.97,291733.19,7469436.79
"315814",315814,1991,55,"s","Sable antelope",9,-22.85,30.98,292729.08,7471665.81
"315836",315836,1991,55,"s","Sable antelope",4,-22.85,31.02,296834.62,7471721.49
"315839",315839,1991,55,"s","Sable antelope",2,-22.83,31.02,296804.89,7473936.37
"315911",315911,1991,55,"s","Sable antelope",7,-22.83,31.11,306043.45,7474057.47
"315915",315915,1991,55,"s","Sable antelope",7,-22.82,31.11,306029.27,7475164.87
"315929",315929,1991,55,"s","Sable antelope",6,-22.85,31.14,309150.81,7471881.82
"315949",315949,1991,55,"s","Sable antelope",11,-22.9,31.16,311272.59,7466370.66
"315953",315953,1991,55,"s","Sable antelope",14,-22.87,31.17,312257.25,7469705.58
"315969",315969,1991,55,"s","Sable antelope",10,-22.88,31.2,315349.25,7468636.13
"316017",316017,1991,47,"s","Sable antelope",11,-22.77,31.2,315200.75,7480817.06
"316035",316035,1991,47,"s","Sable antelope",3,-22.75,31.17,312092.66,7482994
"316041",316041,1991,47,"s","Sable antelope",2,-22.74,31.2,315160.37,7484139.11
"316164",316164,1991,47,"s","Sable antelope",10,-22.72,31.31,326433.27,7486486.76
"316200",316200,1991,47,"s","Sable antelope",19,-22.7,31.27,322298.48,7488654.01
"316389",316389,1991,48,"s","Sable antelope",8,-22.79,31.28,323441.58,7478700.12
"316449",316449,1991,49,"s","Sable antelope",5,-22.98,31.47,343167.12,7457876.58
"316526",316526,1991,49,"s","Sable antelope",8,-22.92,31.44,340020.89,7464487.85
"316571",316571,1991,49,"s","Sable antelope",4,-22.91,31.3,325648.16,7465436.04
"316633",316633,1991,49,"s","Sable antelope",8,-22.96,31.27,322635.88,7459863.46
"316777",316777,1991,50,"s","Sable antelope",5,-23.02,31.47,343213.34,7453447.48
"317306",317306,1991,6,"s","Sable antelope",7,-23.65,31.43,339871.02,7383642.22
"317468",317468,1991,7,"s","Sable antelope",7,-23.6,31.24,320420.23,7388953.42
"317663",317663,1991,7,"s","Sable antelope",13,-23.72,31.36,332819.37,7375810.13
"317889",317889,1991,8,"s","Sable antelope",14,-23.48,31.28,324343.06,7402292.05
"317984",317984,1991,9,"s","Sable antelope",5,-23.43,31.18,314058.12,7407703.51
"318010",318010,1991,9,"s","Sable antelope",4,-23.44,31.16,312028.47,7406570.09
"318081",318081,1991,9,"s","Sable antelope",8,-23.46,31.12,307970.07,7404302.35
"318241",318241,1991,9,"s","Sable antelope",17,-23.57,31.25,321400.18,7392288.24
"318358",318358,1991,10,"s","Sable antelope",5,-23.3,31.2,315922.48,7422125.72
"318376",318376,1991,10,"s","Sable antelope",10,-23.31,31.18,313890.62,7420992.72
"318394",318394,1991,10,"s","Sable antelope",19,-23.33,31.15,310850.47,7418738.94
"318403",318403,1991,10,"s","Sable antelope",9,-23.33,31.14,309827.79,7418725.82
"318411",318411,1991,10,"s","Sable antelope",21,-23.29,31.12,307724.89,7423129.19
"318416",318416,1991,10,"s","Sable antelope",18,-23.3,31.11,306716.34,7422008.42
"318425",318425,1991,10,"s","Sable antelope",2,-23.32,31.09,304699.72,7419766.64
"318467",318467,1991,10,"s","Sable antelope",7,-23.31,31.03,298547.91,7420791.85
"318479",318479,1991,10,"s","Sable antelope",1,-23.37,31.05,300683.29,7414174.63
"318504",318504,1991,10,"s","Sable antelope",3,-23.36,31.02,297600.86,7415240.39
"318576",318576,1991,10,"s","Sable antelope",16,-23.41,31.17,313008.1,7409905.45
"318624",318624,1991,10,"s","Sable antelope",6,-23.43,31.16,312014.32,7407677.54
"318630",318630,1991,10,"s","Sable antelope",4,-23.43,31.13,308948.6,7407638.06
"318636",318636,1991,10,"s","Sable antelope",5,-23.37,31.11,306817.67,7414256.2
"318640",318640,1991,10,"s","Sable antelope",7,-23.45,31.12,307955.6,7405409.82
"318645",318645,1991,10,"s","Sable antelope",9,-23.38,31.1,305809.86,7413135.31
"318650",318650,1991,10,"s","Sable antelope",6,-23.38,31.07,302742.91,7413094.62
"318713",318713,1991,10,"s","Sable antelope",5,-23.46,31.06,301839.87,7404220.96
"318744",318744,1991,11,"s","Sable antelope",15,-23.41,31.2,316074.24,7409944.05
"318808",318808,1991,11,"s","Sable antelope",7,-23.3,31.22,317968.24,7422151.01
"318819",318819,1991,11,"s","Sable antelope",5,-23.3,31.21,316945.36,7422138.4
"318820",318820,1991,11,"s","Sable antelope",5,-23.29,31.2,315908.71,7423233.14
"318942",318942,1991,12,"s","Sable antelope",7,-23.25,30.97,292317.48,7427352.15
"319000",319000,1991,12,"s","Sable antelope",2,-23.21,30.98,293279.21,7431796.46
"319038",319038,1991,12,"s","Sable antelope",17,-23.25,31.04,299480.91,7427450.65
"319074",319074,1991,12,"s","Sable antelope",4,-23.26,31.07,302565.63,7426384.33
"319324",319324,1991,12,"s","Sable antelope",2,-23.26,31.13,308705.02,7426464.76
"319868",319868,1991,14,"s","Sable antelope",6,-23.45,31.38,334520.19,7405732.81
"319879",319879,1991,14,"s","Sable antelope",6,-23.58,31.59,356115.85,7391563.71
"320062",320062,1991,14,"s","Sable antelope",6,-23.45,31.38,334520.19,7405732.81
"320073",320073,1991,14,"s","Sable antelope",6,-23.58,31.59,356115.85,7391563.71
"320247",320247,1991,15,"s","Sable antelope",3,-23.4,31.39,335479.99,7411281.06
"320254",320254,1991,15,"s","Sable antelope",5,-23.39,31.34,330356.96,7412330.5
"320260",320260,1991,15,"s","Sable antelope",1,-23.39,31.35,331379.1,7412342.23
"320604",320604,1991,18,"s","Sable antelope",11,-23.28,31.52,348630.33,7424710.98
"322228",322228,1991,3,"s","Sable antelope",5,-23.92,31.25,321877.04,7353527.35
"322442",322442,1991,3,"s","Sable antelope",12,-23.98,31.3,327047.35,7346944.74
"322558",322558,1991,3,"s","Sable antelope",5,-24,31.36,333178.48,7344802.2
"324059",324059,1991,21,"s","Sable antelope",4,-24.22,31.51,348697.85,7320608.84
"324083",324083,1991,21,"s","Sable antelope",13,-24.19,31.5,347646.57,7323920.24
"324093",324093,1991,21,"s","Sable antelope",7,-24.19,31.45,342567.31,7323864.83
"324391",324391,1991,22,"s","Sable antelope",24,-24.26,31.53,350775.72,7316200.7
"324420",324420,1991,22,"s","Sable antelope",8,-24.27,31.48,345711.36,7315038.83
"324436",324436,1991,22,"s","Sable antelope",5,-24.25,31.5,347717.95,7317275.69
"325288",325288,1991,23,"s","Sable antelope",15,-24.17,31.72,369974.17,7326357.14
"326146",326146,1991,25,"s","Sable antelope",11,-24.02,31.81,378976.67,7343047.54
"326367",326367,1991,26,"s","Sable antelope",28,-24.24,31.82,380198.9,7318695.17
"326407",326407,1991,26,"s","Sable antelope",15,-24.2,31.76,374067.37,7323071.72
"326703",326703,1991,27,"s","Sable antelope",9,-24.2,31.91,389302.47,7323198.72
"326739",326739,1991,27,"s","Sable antelope",4,-24.2,31.9,388286.81,7323190.76
"329415",329415,1991,31,"s","Sable antelope",15,-24.47,31.65,363184.96,7293068.59
"329796",329796,1991,32,"s","Sable antelope",8,-24.54,31.63,361234.71,7285296.71
"329870",329870,1991,32,"s","Sable antelope",7,-24.51,31.58,356135.43,7288567.8
"329887",329887,1991,32,"s","Sable antelope",14,-24.55,31.57,355168.07,7284127.56
"329896",329896,1991,32,"s","Sable antelope",2,-24.5,31.56,354097.34,7289654.25
"330881",330881,1991,35,"s","Sable antelope",13,-24.85,31.71,369661.7,7251044.69
"330910",330910,1991,35,"s","Sable antelope",12,-24.88,31.74,372723.87,7247750.72
"331340",331340,1991,36,"s","Sable antelope",23,-24.84,31.74,372682.91,7252180.48
"331356",331356,1991,36,"s","Sable antelope",21,-24.78,31.72,370599.49,7258806.28
"332293",332293,1991,38,"s","Sable antelope",22,-25,31.87,385967.24,7234576.98
"332601",332601,1991,39,"s","Sable antelope",8,-25.09,31.35,333605.63,7224070.47
"332604",332604,1991,39,"s","Sable antelope",16,-25.09,31.34,332597,7224058.11
"332626",332626,1991,39,"s","Sable antelope",20,-25.1,31.35,333619.16,7222962.87
"332640",332640,1991,39,"s","Sable antelope",8,-25.12,31.3,328604.28,7220685.08
"332676",332676,1991,39,"s","Sable antelope",21,-25.14,31.26,324599.23,7218418.4
"332752",332752,1991,39,"s","Sable antelope",6,-25.09,31.2,318475.8,7223877.25
"332773",332773,1991,39,"s","Sable antelope",17,-25.13,31.21,319543.23,7219460.05
"332806",332806,1991,40,"s","Sable antelope",12,-25.15,31.35,333686.9,7217424.87
"332842",332842,1991,40,"s","Sable antelope",9,-25.18,31.3,328688.11,7214039.35
"332998",332998,1991,40,"s","Sable antelope",22,-25.2,31.25,323677.34,7211759.49
"333040",333040,1991,40,"s","Sable antelope",17,-25.23,31.28,326743.11,7208475.57
"333276",333276,1991,41,"s","Sable antelope",16,-25.32,31.36,334924.87,7198607.78
"333288",333288,1991,41,"s","Sable antelope",4,-25.32,31.41,339958.49,7198668.47
"333312",333312,1991,41,"s","Sable antelope",11,-25.3,31.42,340939.08,7200895.59
"333334",333334,1991,41,"s","Sable antelope",14,-25.28,31.38,336884.78,7203062.73
"333412",333412,1991,41,"s","Sable antelope",9,-25.24,31.43,341868.2,7207552.97
"333414",333414,1991,41,"s","Sable antelope",7,-25.24,31.42,340860.83,7207541.16
"333424",333424,1991,41,"s","Sable antelope",15,-25.26,31.48,346930.09,7205395.76
"333658",333658,1991,41,"s","Sable antelope",18,-25.12,31.44,342721.57,7220855.62
"335533",335533,1991,44,"s","Sable antelope",7,-25.19,31.67,365989.48,7213351.47
"338074",338074,1991,61,"s","Sable antelope",2,-22.7,30.96,290447.23,7488249.47
"338224",338224,1991,61,"s","Sable antelope",7,-22.66,31.1,304775.5,7492869.95
