"","ID","Year","Cenb","Sp","Description","No","Lat","Long","X.coord","Y.coord"
"204121",204121,1987,2,"ro","Roan antelope",6,-23.9,31.42,339158.77,7355946.14
"206865",206865,1987,7,"ro","Roan antelope",9,-23.6,31.23,319399.67,7388940.83
"207057",207057,1987,8,"ro","Roan antelope",2,-23.47,31.29,325351.36,7403411.64
"207107",207107,1987,8,"ro","Roan antelope",4,-23.51,31.33,329488.99,7399030.1
"207164",207164,1987,8,"ro","Roan antelope",3,-23.55,31.34,330561.46,7394612.38
"207183",207183,1987,8,"ro","Roan antelope",1,-23.51,31.33,329488.99,7399030.1
"207588",207588,1987,9,"ro","Roan antelope",1,-23.53,31.23,319303.9,7396692.9
"207640",207640,1987,9,"ro","Roan antelope",3,-23.55,31.26,322394.07,7394515.52
"208014",208014,1987,10,"ro","Roan antelope",1,-23.32,31.15,310836.31,7419846.38
"208188",208188,1987,11,"ro","Roan antelope",4,-23.21,31.27,322963.73,7432179.44
"208224",208224,1987,11,"ro","Roan antelope",6,-23.24,31.25,320956.66,7428832.77
"209246",209246,1987,13,"ro","Roan antelope",3,-23.67,31.5,347034.94,7381504.28
"209315",209315,1987,13,"ro","Roan antelope",7,-23.63,31.59,356170.42,7386027.16
"209353",209353,1987,13,"ro","Roan antelope",2,-23.61,31.53,350026.34,7388180.14
"209376",209376,1987,13,"ro","Roan antelope",6,-23.61,31.49,345944.79,7388137.62
"209383",209383,1987,13,"ro","Roan antelope",1,-23.63,31.49,345968.18,7385922.93
"209456",209456,1987,14,"ro","Roan antelope",1,-23.51,31.51,347870.44,7399232.35
"209466",209466,1987,14,"ro","Roan antelope",1,-23.52,31.5,346860.85,7398114.39
"209472",209472,1987,14,"ro","Roan antelope",1,-23.55,31.51,347916.44,7394803.04
"209565",209565,1987,14,"ro","Roan antelope",11,-23.58,31.47,343868.47,7391437.99
"209832",209832,1987,15,"ro","Roan antelope",4,-23.4,31.37,333435.88,7411258.1
"210018",210018,1987,18,"ro","Roan antelope",4,-23.21,31.48,344457.42,7432419.75
"210298",210298,1987,18,"ro","Roan antelope",1,-23.17,31.37,333149.38,7436727.09
"210718",210718,1987,19,"ro","Roan antelope",7,-23.45,31.55,351888.06,7405918.02
"213706",213706,1987,24,"ro","Roan antelope",4,-24.36,31.68,366109.63,7305279.28
"214748",214748,1987,26,"ro","Roan antelope",1,-24.21,31.77,375092.81,7321973.35
"221034",221034,1987,37,"ro","Roan antelope",7,-24.9,31.98,396985.4,7245738.94
"226036",226036,1987,47,"ro","Roan antelope",5,-22.67,31.17,311983.38,7491852.85
"226064",226064,1987,47,"ro","Roan antelope",6,-22.71,31.18,313065.33,7487436.07
"226099",226099,1987,47,"ro","Roan antelope",5,-22.74,31.2,315160.37,7484139.11
"226113",226113,1987,47,"ro","Roan antelope",7,-22.8,31.22,317294.53,7477519.87
"226218",226218,1987,47,"ro","Roan antelope",1,-22.77,31.27,322388.96,7480902.79
"226333",226333,1987,48,"ro","Roan antelope",3,-22.84,31.27,322479.7,7473151.51
"226348",226348,1987,48,"ro","Roan antelope",5,-22.88,31.27,322531.68,7468722.18
"226349",226349,1987,48,"ro","Roan antelope",7,-22.88,31.28,323557.72,7468734.2
"226411",226411,1987,48,"ro","Roan antelope",10,-22.82,31.35,330665.62,7475460.14
"226490",226490,1987,48,"ro","Roan antelope",4,-22.77,31.41,336764.83,7481064.04
"226497",226497,1987,48,"ro","Roan antelope",6,-22.81,31.4,335785.92,7476623.88
"226642",226642,1987,49,"ro","Roan antelope",1,-22.93,31.34,329776.37,7463268.27
"226692",226692,1987,49,"ro","Roan antelope",1,-22.95,31.37,332877.85,7461088.09
"226737",226737,1987,49,"ro","Roan antelope",1,-22.97,31.42,338029.05,7458929.54
"226758",226758,1987,49,"ro","Roan antelope",2,-22.96,31.32,327763.05,7459923
"226782",226782,1987,49,"ro","Roan antelope",12,-22.98,31.33,328813.67,7457720.05
"226816",226816,1987,49,"ro","Roan antelope",3,-23.01,31.47,343201.78,7454554.76
"226857",226857,1987,49,"ro","Roan antelope",1,-23.01,31.32,327826.46,7454386.36
"226858",226858,1987,49,"ro","Roan antelope",5,-23.01,31.32,327826.46,7454386.36
"226897",226897,1987,50,"ro","Roan antelope",2,-23.03,31.45,341175.22,7452318.65
"226941",226941,1987,50,"ro","Roan antelope",6,-23.1,31.47,343306.02,7444589.23
"227214",227214,1987,52,"ro","Roan antelope",1,-23.06,31.26,321741.93,7448777.79
"227254",227254,1987,52,"ro","Roan antelope",2,-23.06,31.27,322766.61,7448789.95
"227328",227328,1987,52,"ro","Roan antelope",2,-23.08,31.32,327915.46,7446635.01
"227364",227364,1987,52,"ro","Roan antelope",1,-23.06,31.33,328914.67,7448861.42
"227367",227367,1987,52,"ro","Roan antelope",6,-23.06,31.35,330964,7448884.68
"227408",227408,1987,52,"ro","Roan antelope",2,-23.1,31.36,332038.37,7444466.91
"229265",229265,1987,55,"ro","Roan antelope",1,-22.83,31.17,312202.3,7474135.07
"229346",229346,1987,55,"ro","Roan antelope",2,-22.83,31.21,316308.12,7474185.42
