"","ID","Year","Cenb","Sp","Description","No","Lat","Long","X.coord","Y.coord"
"176446",176446,1986,48,"wb","Waterbuck",3,-22.82,31.23,318347.73,7475317.51
"176501",176501,1986,48,"wb","Waterbuck",6,-22.84,31.24,319400.64,7473115.1
"176503",176503,1986,48,"wb","Waterbuck",5,-22.85,31.24,319413.85,7472007.76
"176594",176594,1986,48,"wb","Waterbuck",2,-22.86,31.23,318400.86,7470888.13
"176636",176636,1986,48,"wb","Waterbuck",9,-22.85,31.36,331729,7472149.69
"176668",176668,1986,48,"wb","Waterbuck",1,-22.87,31.37,332779.72,7469946.48
"176670",176670,1986,48,"wb","Waterbuck",2,-22.86,31.37,332767.47,7471053.77
"176680",176680,1986,48,"wb","Waterbuck",1,-22.9,31.38,333842.33,7466635.92
"176688",176688,1986,48,"wb","Waterbuck",55,-22.87,31.38,333805.8,7469957.79
"176694",176694,1986,48,"wb","Waterbuck",9,-22.85,31.38,333781.47,7472172.37
"176702",176702,1986,48,"wb","Waterbuck",1,-22.87,31.4,335857.96,7469980.21
"176706",176706,1986,48,"wb","Waterbuck",2,-22.86,31.39,334819.79,7471076.32
"176714",176714,1986,48,"wb","Waterbuck",11,-22.84,31.38,333769.31,7473279.66
"176728",176728,1986,48,"wb","Waterbuck",1,-22.85,31.41,336860.15,7472205.87
"176995",176995,1986,3,"wb","Waterbuck",3,-23.93,31.22,318836.8,7352381.7
"177130",177130,1986,3,"wb","Waterbuck",1,-24.05,31.36,333243.03,7339264.96
"177136",177136,1986,3,"wb","Waterbuck",7,-24.03,31.37,334234.35,7341491.68
"177217",177217,1986,3,"wb","Waterbuck",3,-24.07,31.32,329201.5,7337001.97
"177218",177218,1986,3,"wb","Waterbuck",1,-24.07,31.31,328184.64,7336989.77
"177225",177225,1986,3,"wb","Waterbuck",3,-24.07,31.31,328184.64,7336989.77
"177248",177248,1986,3,"wb","Waterbuck",4,-24.05,31.3,327140.98,7339192.45
"177251",177251,1986,3,"wb","Waterbuck",3,-24.04,31.3,327127.59,7340299.93
"177252",177252,1986,3,"wb","Waterbuck",1,-24.04,31.3,327127.59,7340299.93
"177383",177383,1986,35,"wb","Waterbuck",4,-24.82,31.65,363565.86,7254308.36
"177393",177393,1986,35,"wb","Waterbuck",4,-24.83,31.6,358523.46,7253149.97
"177396",177396,1986,35,"wb","Waterbuck",11,-24.83,31.62,360544.81,7253170.56
"177399",177399,1986,35,"wb","Waterbuck",3,-24.83,31.64,362566.15,7253190.86
"177412",177412,1986,35,"wb","Waterbuck",5,-24.85,31.74,372693.15,7251073.04
"177432",177432,1986,35,"wb","Waterbuck",9,-24.85,31.61,359556.71,7250945.35
"177434",177434,1986,35,"wb","Waterbuck",1,-24.86,31.62,360578.44,7249848.15
"177448",177448,1986,35,"wb","Waterbuck",1,-24.88,31.65,363631.66,7247663.58
"177652",177652,1986,35,"wb","Waterbuck",6,-24.96,31.57,355642.71,7238721.09
"177702",177702,1986,32,"wb","Waterbuck",3,-24.48,31.47,344952.51,7291771.15
"177720",177720,1986,32,"wb","Waterbuck",5,-24.46,31.48,345941.7,7293997.26
"177811",177811,1986,32,"wb","Waterbuck",4,-24.44,31.54,352000.48,7296277.65
"177820",177820,1986,32,"wb","Waterbuck",1,-24.43,31.56,354016.64,7297406.32
"177831",177831,1986,32,"wb","Waterbuck",1,-24.45,31.55,353025.92,7295180.87
"177970",177970,1986,32,"wb","Waterbuck",1,-24.49,31.61,359152.93,7290813.58
"177990",177990,1986,32,"wb","Waterbuck",2,-24.52,31.63,361212.72,7287511.56
"177991",177991,1986,32,"wb","Waterbuck",6,-24.52,31.63,361212.72,7287511.56
"178004",178004,1986,36,"wb","Waterbuck",1,-24.76,31.69,367545.1,7260992.43
"178046",178046,1986,36,"wb","Waterbuck",12,-24.84,31.75,373693.47,7252189.78
"178047",178047,1986,36,"wb","Waterbuck",8,-24.84,31.76,374704.03,7252199.01
"178055",178055,1986,36,"wb","Waterbuck",1,-24.88,31.75,373734.11,7247760.03
"178154",178154,1986,36,"wb","Waterbuck",8,-24.83,31.82,380757.73,7253360.22
"178156",178156,1986,36,"wb","Waterbuck",15,-24.83,31.83,381768.35,7253368.92
"178160",178160,1986,36,"wb","Waterbuck",2,-24.82,31.81,379737.45,7254458.86
"178165",178165,1986,36,"wb","Waterbuck",1,-24.82,31.82,380748.15,7254467.63
"178169",178169,1986,36,"wb","Waterbuck",6,-24.82,31.82,380748.15,7254467.63
"178190",178190,1986,36,"wb","Waterbuck",1,-24.78,31.85,383742.95,7258923.12
"178196",178196,1986,36,"wb","Waterbuck",3,-24.8,31.84,382750.73,7256699.77
"178204",178204,1986,36,"wb","Waterbuck",1,-24.81,31.84,382760.14,7255592.37
"178207",178207,1986,36,"wb","Waterbuck",2,-24.83,31.84,382778.96,7253377.55
"178273",178273,1986,36,"wb","Waterbuck",17,-24.81,31.88,386803.23,7255626.13
"178566",178566,1986,29,"wb","Waterbuck",1,-24.66,31.87,385655.37,7272228.61
"178697",178697,1986,29,"wb","Waterbuck",20,-24.74,31.84,382694.36,7263344.17
"178896",178896,1986,42,"wb","Waterbuck",1,-25.26,31.59,358009.01,7205516.67
"178980",178980,1986,42,"wb","Waterbuck",5,-25.26,31.52,350958.83,7205440.77
"179016",179016,1986,42,"wb","Waterbuck",3,-25.23,31.57,355959.31,7208817.99
"179025",179025,1986,42,"wb","Waterbuck",1,-25.22,31.58,356955.02,7209936.21
"179036",179036,1986,42,"wb","Waterbuck",4,-25.23,31.6,358981.53,7208849.81
"179042",179042,1986,42,"wb","Waterbuck",4,-25.23,31.6,358981.53,7208849.81
"179043",179043,1986,42,"wb","Waterbuck",1,-25.23,31.6,358981.53,7208849.81
"179063",179063,1986,42,"wb","Waterbuck",4,-25.21,31.61,359966.03,7211075.32
"179096",179096,1986,42,"wb","Waterbuck",2,-25.22,31.55,353932.53,7209903.94
"179109",179109,1986,42,"wb","Waterbuck",1,-25.19,31.61,359943.15,7213290.37
"179209",179209,1986,42,"wb","Waterbuck",1,-25.18,31.57,355900.44,7214355.68
"179246",179246,1986,42,"wb","Waterbuck",5,-25.15,31.57,355865.17,7217678.27
"179249",179249,1986,42,"wb","Waterbuck",1,-25.16,31.57,355876.92,7216570.74
"179285",179285,1986,42,"wb","Waterbuck",6,-25.17,31.51,349841.19,7215397.66
"179302",179302,1986,42,"wb","Waterbuck",6,-25.15,31.55,353849.02,7217656.73
"179658",179658,1986,37,"wb","Waterbuck",3,-24.78,31.99,397897,7259034.96
"179694",179694,1986,37,"wb","Waterbuck",7,-24.79,31.98,396894.28,7257920.08
"179695",179695,1986,37,"wb","Waterbuck",12,-24.78,31.98,396886.01,7259027.45
"179699",179699,1986,37,"wb","Waterbuck",7,-24.79,31.97,395883.37,7257912.5
"179701",179701,1986,37,"wb","Waterbuck",5,-24.8,31.97,395891.72,7256805.13
"179714",179714,1986,37,"wb","Waterbuck",5,-24.8,31.96,394880.88,7256797.47
"179779",179779,1986,37,"wb","Waterbuck",1,-24.79,31.93,391839.7,7257881.43
"179781",179781,1986,37,"wb","Waterbuck",5,-24.8,31.93,391848.38,7256774.04
"179824",179824,1986,37,"wb","Waterbuck",2,-24.81,31.92,390846.29,7255658.7
"179838",179838,1986,37,"wb","Waterbuck",2,-24.79,31.93,391839.7,7257881.43
"179840",179840,1986,37,"wb","Waterbuck",6,-24.78,31.92,390820.03,7258980.85
"179917",179917,1986,37,"wb","Waterbuck",6,-24.81,31.9,388824.77,7255642.56
"179921",179921,1986,37,"wb","Waterbuck",15,-24.8,31.91,389826.69,7256758.06
"179928",179928,1986,37,"wb","Waterbuck",4,-24.8,31.9,388815.85,7256749.95
"179929",179929,1986,37,"wb","Waterbuck",10,-24.79,31.9,388806.93,7257857.34
"179934",179934,1986,37,"wb","Waterbuck",5,-24.8,31.89,387805,7256741.78
"179954",179954,1986,37,"wb","Waterbuck",1,-25.13,32.02,401209.68,7220298.59
"179965",179965,1986,37,"wb","Waterbuck",1,-25.09,32.02,401177.53,7224728.22
"180018",180018,1986,37,"wb","Waterbuck",19,-25.09,32,399160.61,7224713.44
"180021",180021,1986,37,"wb","Waterbuck",17,-25.09,32,399160.61,7224713.44
"180023",180023,1986,37,"wb","Waterbuck",4,-25.09,32.01,400169.07,7224720.87
"180025",180025,1986,37,"wb","Waterbuck",9,-25.1,32.01,400177.19,7223613.46
"180026",180026,1986,37,"wb","Waterbuck",1,-25.1,32,399168.81,7223606.03
"180027",180027,1986,37,"wb","Waterbuck",10,-25.1,32.01,400177.19,7223613.46
"180062",180062,1986,37,"wb","Waterbuck",5,-25.15,32,399209.85,7218068.97
"180093",180093,1986,37,"wb","Waterbuck",5,-24.99,32,399078.8,7235787.45
"180094",180094,1986,37,"wb","Waterbuck",8,-24.98,32,399070.64,7236894.84
"180095",180095,1986,37,"wb","Waterbuck",10,-24.98,32,399070.64,7236894.84
"180096",180096,1986,37,"wb","Waterbuck",4,-24.97,32.01,400071.92,7238009.63
"180097",180097,1986,37,"wb","Waterbuck",11,-24.96,32,399054.32,7239109.62
"180098",180098,1986,37,"wb","Waterbuck",2,-24.96,32,399054.32,7239109.62
"180140",180140,1986,37,"wb","Waterbuck",1,-24.95,31.99,398036.56,7240209.54
"180163",180163,1986,37,"wb","Waterbuck",5,-25.01,31.98,397076.91,7233557.62
"180252",180252,1986,37,"wb","Waterbuck",3,-25.1,31.99,398160.43,7223598.53
"180271",180271,1986,37,"wb","Waterbuck",1,-25.12,31.99,398177,7221383.7
"180282",180282,1986,37,"wb","Waterbuck",4,-25.13,31.99,398185.29,7220276.29
"180283",180283,1986,37,"wb","Waterbuck",10,-25.13,31.99,398185.29,7220276.29
"180294",180294,1986,37,"wb","Waterbuck",8,-25.14,31.99,398193.59,7219168.87
"180332",180332,1986,37,"wb","Waterbuck",9,-25.05,31.97,396101.48,7229120.36
"180334",180334,1986,37,"wb","Waterbuck",7,-25.06,31.97,396109.91,7228012.95
"180350",180350,1986,37,"wb","Waterbuck",2,-25.04,31.97,396093.05,7230227.77
"180353",180353,1986,37,"wb","Waterbuck",16,-25.03,31.97,396084.63,7231335.17
"180359",180359,1986,37,"wb","Waterbuck",5,-25.03,31.95,394066.71,7231319.67
"180399",180399,1986,37,"wb","Waterbuck",1,-24.98,31.97,396042.55,7236872.18
"180639",180639,1986,39,"wb","Waterbuck",2,-25.01,31.33,331478.98,7232906.45
"180640",180640,1986,39,"wb","Waterbuck",6,-25.01,31.33,331478.98,7232906.45
"180642",180642,1986,39,"wb","Waterbuck",3,-25.01,31.33,331478.98,7232906.45
"180643",180643,1986,39,"wb","Waterbuck",1,-25.01,31.33,331478.98,7232906.45
"180841",180841,1986,39,"wb","Waterbuck",3,-25.09,31.26,324527.82,7223956.56
"180844",180844,1986,39,"wb","Waterbuck",1,-25.1,31.27,325550.67,7222861.89
"180846",180846,1986,39,"wb","Waterbuck",10,-25.08,31.26,324513.56,7225064.18
"180847",180847,1986,39,"wb","Waterbuck",4,-25.09,31.26,324527.82,7223956.56
"180850",180850,1986,39,"wb","Waterbuck",4,-25.1,31.26,324542.09,7222848.93
"180989",180989,1986,33,"wb","Waterbuck",3,-24.73,31.67,365490.37,7264295.24
"180993",180993,1986,33,"wb","Waterbuck",35,-24.73,31.65,363467.43,7264275.44
"181004",181004,1986,33,"wb","Waterbuck",1,-24.71,31.65,363445.6,7266490.33
"181347",181347,1986,38,"wb","Waterbuck",8,-24.95,31.79,377843.99,7240044.5
"181365",181365,1986,38,"wb","Waterbuck",3,-24.97,31.82,380892.18,7237856.29
"181391",181391,1986,38,"wb","Waterbuck",2,-24.91,31.82,380834.47,7244500.87
"181444",181444,1986,38,"wb","Waterbuck",1,-24.98,31.9,388976.93,7236816.72
"181452",181452,1986,38,"wb","Waterbuck",1,-24.95,31.91,389959.63,7240147.09
"181538",181538,1986,38,"wb","Waterbuck",34,-25.03,31.92,391039.81,7231295.87
"181541",181541,1986,38,"wb","Waterbuck",26,-25.03,31.94,393057.75,7231311.81
"181542",181542,1986,38,"wb","Waterbuck",13,-25.03,31.93,392048.78,7231303.88
"181577",181577,1986,38,"wb","Waterbuck",4,-25.02,31.87,385985.71,7232362.13
"181662",181662,1986,34,"wb","Waterbuck",1,-24.77,31.84,382722.53,7260021.98
"181666",181666,1986,34,"wb","Waterbuck",1,-24.76,31.82,380690.76,7261112.08
"182097",182097,1986,34,"wb","Waterbuck",14,-24.72,31.67,365479.62,7265402.68
"182101",182101,1986,34,"wb","Waterbuck",6,-24.72,31.67,365479.62,7265402.68
"182222",182222,1986,40,"wb","Waterbuck",2,-25.17,31.22,320610.1,7215042.79
"182230",182230,1986,40,"wb","Waterbuck",4,-25.17,31.21,319602.08,7215029.43
"182231",182231,1986,40,"wb","Waterbuck",1,-25.17,31.21,319602.08,7215029.43
"182240",182240,1986,40,"wb","Waterbuck",1,-25.17,31.25,323634.13,7215082.42
"182323",182323,1986,40,"wb","Waterbuck",4,-25.19,31.33,331725.55,7212969.58
"182377",182377,1986,40,"wb","Waterbuck",1,-25.21,31.24,322684.07,7210638.69
"182388",182388,1986,40,"wb","Waterbuck",4,-25.2,31.21,319646.27,7211706.45
"182390",182390,1986,40,"wb","Waterbuck",1,-25.2,31.22,320654.04,7211719.82
"182391",182391,1986,40,"wb","Waterbuck",1,-25.2,31.22,320654.04,7211719.82
"182522",182522,1986,40,"wb","Waterbuck",7,-25.35,31.27,325907.11,7195170.81
"182940",182940,1986,57,"wb","Waterbuck",14,-23.4,31.11,306861.19,7410933.8
"182951",182951,1986,57,"wb","Waterbuck",2,-23.42,31.07,302802.2,7408664.67
"183103",183103,1986,57,"wb","Waterbuck",4,-23.4,31.18,314016.17,7411025.83
"183147",183147,1986,57,"wb","Waterbuck",3,-23.36,31.18,313960.31,7415455.57
"183160",183160,1986,57,"wb","Waterbuck",5,-23.35,31.19,314968.87,7416575.85
"183182",183182,1986,57,"wb","Waterbuck",1,-23.33,31.19,314941.14,7418790.7
"183203",183203,1986,57,"wb","Waterbuck",7,-23.29,31.13,308747.88,7423142.43
"183204",183204,1986,57,"wb","Waterbuck",17,-23.29,31.11,306701.89,7423115.88
"183207",183207,1986,57,"wb","Waterbuck",8,-23.3,31.13,308762.18,7422034.98
"183217",183217,1986,31,"wb","Waterbuck",2,-24.41,31.77,375288.57,7299826.27
"183218",183218,1986,31,"wb","Waterbuck",25,-24.41,31.77,375288.57,7299826.27
"183383",183383,1986,31,"wb","Waterbuck",1,-24.45,31.78,376341.6,7295405.76
"183555",183555,1986,31,"wb","Waterbuck",13,-24.46,31.76,374324.13,7294280.37
"183660",183660,1986,31,"wb","Waterbuck",1,-24.48,31.65,363195.77,7291961.18
"183711",183711,1986,31,"wb","Waterbuck",1,-24.5,31.75,373350.56,7289841.71
"183802",183802,1986,31,"wb","Waterbuck",6,-24.55,31.63,361245.71,7284189.28
"183807",183807,1986,31,"wb","Waterbuck",3,-24.58,31.65,363304.12,7280886.99
"184274",184274,1986,25,"wb","Waterbuck",2,-24,31.8,377940.69,7345253.52
"184281",184281,1986,25,"wb","Waterbuck",3,-23.99,31.79,376913.92,7346352.12
"184301",184301,1986,25,"wb","Waterbuck",5,-24.04,31.74,371876.74,7340770.92
"184303",184303,1986,25,"wb","Waterbuck",5,-24.05,31.73,370869.78,7339654.45
"184333",184333,1986,25,"wb","Waterbuck",6,-24.01,31.76,373881.38,7344110.96
"184340",184340,1986,25,"wb","Waterbuck",6,-24.01,31.74,371846.99,7344092.89
"184385",184385,1986,25,"wb","Waterbuck",5,-24.06,31.84,382064.5,7338643.83
"184387",184387,1986,25,"wb","Waterbuck",2,-24.06,31.83,381047.72,7338635.4
"184395",184395,1986,25,"wb","Waterbuck",3,-24.07,31.83,381056.94,7337528.1
"184421",184421,1986,25,"wb","Waterbuck",1,-24.08,31.84,382082.79,7336429.23
"184557",184557,1986,25,"wb","Waterbuck",4,-24.01,31.86,384053.18,7344196.93
"184568",184568,1986,25,"wb","Waterbuck",2,-24.03,31.88,386105.13,7341998.69
"184577",184577,1986,25,"wb","Waterbuck",2,-24.05,31.87,385105.92,7339775.98
"184604",184604,1986,25,"wb","Waterbuck",3,-24.08,31.87,385132.64,7336454.1
"184779",184779,1986,26,"wb","Waterbuck",2,-24.25,31.83,381223.55,7317596.39
"184785",184785,1986,26,"wb","Waterbuck",22,-24.26,31.83,381232.84,7316489.06
"184793",184793,1986,26,"wb","Waterbuck",5,-24.27,31.84,382257.25,7315390.21
"184794",184794,1986,26,"wb","Waterbuck",4,-24.27,31.84,382257.25,7315390.21
"184795",184795,1986,26,"wb","Waterbuck",41,-24.27,31.83,381242.13,7315381.73
"184802",184802,1986,26,"wb","Waterbuck",2,-24.28,31.84,382266.47,7314282.88
"184815",184815,1986,26,"wb","Waterbuck",3,-24.29,31.79,377200.87,7313132.37
"184816",184816,1986,26,"wb","Waterbuck",13,-24.29,31.8,378215.84,7313141.15
"184825",184825,1986,26,"wb","Waterbuck",3,-24.29,31.85,383290.65,7313183.97
"184829",184829,1986,26,"wb","Waterbuck",12,-24.28,31.85,383281.5,7314291.3
"184842",184842,1986,26,"wb","Waterbuck",9,-24.29,31.83,381260.73,7313167.06
"184858",184858,1986,26,"wb","Waterbuck",1,-24.29,31.77,375170.93,7313114.59
"184884",184884,1986,26,"wb","Waterbuck",1,-24.31,31.85,383308.94,7310969.31
"184885",184885,1986,26,"wb","Waterbuck",26,-24.31,31.84,382294.14,7310960.88
"184886",184886,1986,26,"wb","Waterbuck",39,-24.31,31.84,382294.14,7310960.88
"184895",184895,1986,26,"wb","Waterbuck",5,-24.32,31.83,381288.66,7309845.05
"184898",184898,1986,26,"wb","Waterbuck",3,-24.32,31.84,382303.38,7309853.55
"184916",184916,1986,26,"wb","Waterbuck",1,-24.32,31.87,385347.52,7309878.61
"184919",184919,1986,26,"wb","Waterbuck",3,-24.32,31.86,384332.81,7309870.33
"184923",184923,1986,26,"wb","Waterbuck",2,-24.32,31.84,382303.38,7309853.55
"184925",184925,1986,26,"wb","Waterbuck",1,-24.32,31.84,382303.38,7309853.55
"184929",184929,1986,26,"wb","Waterbuck",1,-24.32,31.83,381288.66,7309845.05
"185005",185005,1986,26,"wb","Waterbuck",3,-24.35,31.88,386388.99,7306564.83
"185055",185055,1986,26,"wb","Waterbuck",13,-24.4,31.78,376292.84,7300942.6
"185061",185061,1986,26,"wb","Waterbuck",29,-24.4,31.8,378321.02,7300960.3
"185062",185062,1986,26,"wb","Waterbuck",1,-24.4,31.8,378321.02,7300960.3
"185066",185066,1986,26,"wb","Waterbuck",3,-24.4,31.79,377306.93,7300951.48
"185068",185068,1986,26,"wb","Waterbuck",1,-24.4,31.8,378321.02,7300960.3
"185069",185069,1986,26,"wb","Waterbuck",1,-24.4,31.79,377306.93,7300951.48
"185077",185077,1986,26,"wb","Waterbuck",3,-24.38,31.82,380330.36,7303192.4
"185123",185123,1986,26,"wb","Waterbuck",2,-24.38,31.85,383373.08,7303217.94
"185154",185154,1986,26,"wb","Waterbuck",1,-24.37,31.88,386406.85,7304350.16
"185171",185171,1986,26,"wb","Waterbuck",3,-24.37,31.9,388435.47,7304366.38
"185174",185174,1986,26,"wb","Waterbuck",2,-24.38,31.89,387430.02,7303250.98
"185183",185183,1986,26,"wb","Waterbuck",1,-24.38,31.92,390472.69,7303274.98
"185210",185210,1986,24,"wb","Waterbuck",10,-24.38,31.75,373230.59,7303130.25
"185242",185242,1986,24,"wb","Waterbuck",2,-24.38,31.7,368159.25,7303083.65
"185272",185272,1986,24,"wb","Waterbuck",2,-24.37,31.6,358005.19,7304092.4
"185279",185279,1986,24,"wb","Waterbuck",5,-24.38,31.58,355987.75,7302964.37
"185280",185280,1986,24,"wb","Waterbuck",3,-24.38,31.59,357002.05,7302974.72
"185338",185338,1986,24,"wb","Waterbuck",1,-24.35,31.69,367113.63,7306396.27
"185348",185348,1986,24,"wb","Waterbuck",1,-24.37,31.71,369163.23,7304200.5
"185533",185533,1986,24,"wb","Waterbuck",1,-24.29,31.6,357915.98,7312951.65
"185688",185688,1986,24,"wb","Waterbuck",5,-22.86,31.07,301980.93,7470682.09
"185717",185717,1986,24,"wb","Waterbuck",1,-22.89,31.12,307154.66,7467426.2
"185721",185721,1986,24,"wb","Waterbuck",2,-22.87,31.11,306100.21,7469627.87
"185740",185740,1986,24,"wb","Waterbuck",4,-22.88,31.13,308166.63,7468546.66
"185754",185754,1986,24,"wb","Waterbuck",6,-22.89,31.15,310232.74,7467465.18
"185758",185758,1986,24,"wb","Waterbuck",8,-22.9,31.16,311272.59,7466370.66
"185775",185775,1986,24,"wb","Waterbuck",1,-22.81,31.16,311148.24,7476337.06
"185813",185813,1986,24,"wb","Waterbuck",2,-22.83,31.2,315281.67,7474172.93
"185832",185832,1986,24,"wb","Waterbuck",6,-22.83,31.22,317334.56,7474197.83
"185871",185871,1986,24,"wb","Waterbuck",2,-22.91,31.18,313338.16,7465288.79
"185880",185880,1986,24,"wb","Waterbuck",7,-22.92,31.21,316429.19,7464219.18
"185895",185895,1986,24,"wb","Waterbuck",2,-22.94,31.23,318507.38,7462029.3
"185976",185976,1986,24,"wb","Waterbuck",9,-22.87,31,294811.9,7469478.89
"185985",185985,1986,24,"wb","Waterbuck",2,-22.87,30.97,291733.19,7469436.79
"185989",185989,1986,24,"wb","Waterbuck",6,-22.86,30.98,292744.25,7470558.35
"185990",185990,1986,24,"wb","Waterbuck",7,-22.86,30.99,293770.57,7470572.38
"185991",185991,1986,24,"wb","Waterbuck",12,-22.86,30.99,293770.57,7470572.38
"185993",185993,1986,24,"wb","Waterbuck",5,-22.85,30.99,293755.47,7471679.84
"186003",186003,1986,24,"wb","Waterbuck",1,-22.84,31.03,297846.2,7472842.67
"186028",186028,1986,24,"wb","Waterbuck",5,-22.85,30.98,292729.08,7471665.81
"186425",186425,1986,58,"wb","Waterbuck",1,-25.02,31.77,375894.99,7232274.22
"186576",186576,1986,11,"wb","Waterbuck",8,-23.24,31.3,326073.24,7428893.57
"186667",186667,1986,11,"wb","Waterbuck",5,-23.21,31.23,318869.51,7432130.14
"186708",186708,1986,11,"wb","Waterbuck",1,-23.18,31.3,325995.52,7435537.76
"186714",186714,1986,11,"wb","Waterbuck",2,-23.17,31.3,325982.59,7436645.12
"186717",186717,1986,11,"wb","Waterbuck",13,-23.17,31.31,327006.43,7436657.04
"186719",186719,1986,11,"wb","Waterbuck",3,-23.17,31.32,328030.26,7436668.89
"186723",186723,1986,11,"wb","Waterbuck",15,-23.17,31.31,327006.43,7436657.04
"186855",186855,1986,22,"wb","Waterbuck",4,-24.24,31.53,350752.38,7318415.54
"186995",186995,1986,22,"wb","Waterbuck",6,-24.46,31.46,343914.3,7293974.84
"187036",187036,1986,22,"wb","Waterbuck",2,-24.46,31.48,345941.7,7293997.26
"187037",187037,1986,22,"wb","Waterbuck",4,-24.46,31.48,345941.7,7293997.26
"187145",187145,1986,22,"wb","Waterbuck",2,-24.39,31.55,352956.38,7301825.48
"187165",187165,1986,22,"wb","Waterbuck",2,-24.4,31.56,353982.11,7300728.61
"187166",187166,1986,22,"wb","Waterbuck",6,-24.4,31.56,353982.11,7300728.61
"187177",187177,1986,22,"wb","Waterbuck",9,-24.39,31.57,354984.85,7301846.53
"187191",187191,1986,22,"wb","Waterbuck",6,-24.38,31.55,352944.81,7302932.91
"187192",187192,1986,22,"wb","Waterbuck",3,-24.38,31.55,352944.81,7302932.91
"187208",187208,1986,22,"wb","Waterbuck",22,-24.37,31.58,355976.42,7304071.79
"187212",187212,1986,22,"wb","Waterbuck",1,-24.37,31.56,353947.63,7304050.9
"187502",187502,1986,22,"wb","Waterbuck",2,-24.39,31.43,340785.31,7301692.99
"187550",187550,1986,22,"wb","Waterbuck",1,-24.41,31.45,342838.61,7299500.87
"187705",187705,1986,12,"wb","Waterbuck",2,-23.17,30.96,291169.73,7436197.9
"187706",187706,1986,12,"wb","Waterbuck",8,-23.17,30.97,292193.71,7436212.22
"187763",187763,1986,12,"wb","Waterbuck",17,-23.17,30.98,293217.68,7436226.46
"187907",187907,1986,12,"wb","Waterbuck",5,-23.18,31.04,299376.34,7435202.98
"187909",187909,1986,12,"wb","Waterbuck",5,-23.18,31.05,300400.2,7435216.74
"188029",188029,1986,12,"wb","Waterbuck",4,-23.18,31.11,306543.31,7435297.8
"188032",188032,1986,12,"wb","Waterbuck",4,-23.18,31.11,306543.31,7435297.8
"188076",188076,1986,12,"wb","Waterbuck",1,-23.18,31.12,307567.14,7435311.07
"188087",188087,1986,12,"wb","Waterbuck",7,-23.23,31.14,309685.65,7429800.23
"188154",188154,1986,12,"wb","Waterbuck",3,-23.26,31.16,311774.66,7426504.02
"188182",188182,1986,12,"wb","Waterbuck",1,-23.23,31.16,311732.54,7429826.3
"188200",188200,1986,12,"wb","Waterbuck",1,-23.21,31.18,313751.65,7432066.93
"188240",188240,1986,12,"wb","Waterbuck",13,-23.23,31.2,315826.25,7429877.61
"188266",188266,1986,9,"wb","Waterbuck",4,-23.63,31.14,310257.67,7385501.85
"188277",188277,1986,9,"wb","Waterbuck",6,-23.58,31.12,308144.15,7391012.6
"188296",188296,1986,9,"wb","Waterbuck",1,-23.57,31.14,310171.28,7392146.74
"188298",188298,1986,9,"wb","Waterbuck",1,-23.56,31.13,309135.99,7393240.93
"188299",188299,1986,9,"wb","Waterbuck",1,-23.56,31.13,309135.99,7393240.93
"188701",188701,1986,8,"wb","Waterbuck",4,-23.41,31.32,328338.46,7410092.08
"188702",188702,1986,8,"wb","Waterbuck",12,-23.41,31.32,328338.46,7410092.08
"188731",188731,1986,8,"wb","Waterbuck",22,-23.43,31.32,328364.28,7407877.31
"188736",188736,1986,8,"wb","Waterbuck",13,-23.42,31.33,329373.29,7408996.57
"188756",188756,1986,8,"wb","Waterbuck",6,-23.44,31.33,329398.96,7406781.81
"188757",188757,1986,8,"wb","Waterbuck",10,-23.45,31.34,330433.49,7405686.24
"188788",188788,1986,8,"wb","Waterbuck",7,-23.46,31.34,330446.27,7404578.86
"188789",188789,1986,8,"wb","Waterbuck",8,-23.46,31.34,330446.27,7404578.86
"188798",188798,1986,8,"wb","Waterbuck",3,-23.47,31.34,330459.05,7403471.48
"188802",188802,1986,8,"wb","Waterbuck",4,-23.48,31.32,328428.92,7402340.37
"188819",188819,1986,8,"wb","Waterbuck",3,-23.49,31.3,326399.1,7401208.95
"188823",188823,1986,8,"wb","Waterbuck",1,-23.48,31.31,327407.46,7402328.39
"188831",188831,1986,8,"wb","Waterbuck",9,-23.47,31.35,331480.57,7403483.24
"188834",188834,1986,8,"wb","Waterbuck",1,-23.48,31.36,332514.72,7402387.54
"188836",188836,1986,8,"wb","Waterbuck",7,-23.48,31.35,331493.28,7402375.86
"188842",188842,1986,8,"wb","Waterbuck",4,-23.49,31.32,328441.87,7401232.97
"188868",188868,1986,8,"wb","Waterbuck",6,-23.5,31.33,329476.12,7400137.49
"188869",188869,1986,8,"wb","Waterbuck",5,-23.49,31.34,330484.62,7401256.71
"188896",188896,1986,8,"wb","Waterbuck",6,-23.51,31.35,331531.43,7399053.71
"188897",188897,1986,8,"wb","Waterbuck",2,-23.5,31.35,331518.71,7400161.09
"188903",188903,1986,8,"wb","Waterbuck",1,-23.5,31.38,334582.57,7400195.97
"188905",188905,1986,8,"wb","Waterbuck",7,-23.51,31.39,335616.26,7399100.08
"188908",188908,1986,8,"wb","Waterbuck",6,-23.51,31.37,333573.85,7399077.04
"188909",188909,1986,8,"wb","Waterbuck",9,-23.51,31.36,332552.64,7399065.41
"188911",188911,1986,8,"wb","Waterbuck",4,-23.51,31.35,331531.43,7399053.71
"188937",188937,1986,8,"wb","Waterbuck",1,-23.52,31.35,331544.16,7397946.32
"188942",188942,1986,8,"wb","Waterbuck",20,-23.51,31.39,335616.26,7399100.08
"188944",188944,1986,8,"wb","Waterbuck",12,-23.51,31.4,336637.46,7399111.49
"188945",188945,1986,8,"wb","Waterbuck",4,-23.51,31.4,336637.46,7399111.49
"188946",188946,1986,8,"wb","Waterbuck",10,-23.51,31.39,335616.26,7399100.08
"188947",188947,1986,8,"wb","Waterbuck",7,-23.51,31.38,334595.06,7399088.59
"188950",188950,1986,8,"wb","Waterbuck",3,-23.52,31.37,333586.43,7397969.66
"188998",188998,1986,8,"wb","Waterbuck",5,-23.51,31.4,336637.46,7399111.49
"188999",188999,1986,8,"wb","Waterbuck",1,-23.52,31.41,337670.92,7398015.47
"189000",189000,1986,8,"wb","Waterbuck",10,-23.51,31.41,337658.66,7399122.84
"189006",189006,1986,8,"wb","Waterbuck",4,-23.52,31.4,336649.8,7398004.13
"189010",189010,1986,8,"wb","Waterbuck",10,-23.53,31.4,336662.15,7396896.76
"189012",189012,1986,8,"wb","Waterbuck",6,-23.52,31.39,335628.68,7397992.71
"189018",189018,1986,8,"wb","Waterbuck",8,-23.53,31.38,334620.06,7396873.84
"189022",189022,1986,8,"wb","Waterbuck",10,-23.53,31.38,334620.06,7396873.84
"189418",189418,1986,30,"wb","Waterbuck",1,-24.74,31.99,397864.3,7263464.41
"189428",189428,1986,30,"wb","Waterbuck",1,-24.77,31.99,397888.82,7260142.33
"189429",189429,1986,30,"wb","Waterbuck",1,-24.76,31.99,397880.64,7261249.69
"189435",189435,1986,30,"wb","Waterbuck",15,-24.76,31.98,396869.49,7261242.19
"189441",189441,1986,30,"wb","Waterbuck",1,-24.77,31.98,396877.75,7260134.82
"189442",189442,1986,30,"wb","Waterbuck",12,-24.77,31.98,396877.75,7260134.82
"189444",189444,1986,30,"wb","Waterbuck",9,-24.77,31.97,395866.68,7260127.24
"189446",189446,1986,30,"wb","Waterbuck",1,-24.77,31.97,395866.68,7260127.24
"189456",189456,1986,30,"wb","Waterbuck",6,-24.76,31.96,394847.18,7261226.96
"189457",189457,1986,30,"wb","Waterbuck",1,-24.76,31.96,394847.18,7261226.96
"189459",189459,1986,30,"wb","Waterbuck",3,-24.77,31.97,395866.68,7260127.24
"189460",189460,1986,30,"wb","Waterbuck",8,-24.77,31.96,394855.6,7260119.59
"189465",189465,1986,30,"wb","Waterbuck",5,-24.78,31.96,394864.03,7259012.22
"189474",189474,1986,30,"wb","Waterbuck",3,-24.78,31.95,393853.03,7259004.49
"189477",189477,1986,30,"wb","Waterbuck",6,-24.78,31.95,393853.03,7259004.49
"189492",189492,1986,30,"wb","Waterbuck",1,-24.77,31.94,392833.45,7260104.06
"189493",189493,1986,30,"wb","Waterbuck",1,-24.77,31.94,392833.45,7260104.06
"189495",189495,1986,30,"wb","Waterbuck",7,-24.78,31.94,392842.03,7258996.68
"189498",189498,1986,30,"wb","Waterbuck",3,-24.78,31.93,391831.03,7258988.81
"189499",189499,1986,30,"wb","Waterbuck",1,-24.77,31.93,391822.36,7260096.18
"189500",189500,1986,30,"wb","Waterbuck",1,-24.77,31.93,391822.36,7260096.18
"189501",189501,1986,30,"wb","Waterbuck",1,-24.77,31.94,392833.45,7260104.06
"189502",189502,1986,30,"wb","Waterbuck",8,-24.77,31.94,392833.45,7260104.06
"189531",189531,1986,30,"wb","Waterbuck",1,-24.77,31.92,390811.28,7260088.24
"189540",189540,1986,30,"wb","Waterbuck",6,-24.79,31.92,390828.78,7257873.47
"189542",189542,1986,30,"wb","Waterbuck",5,-24.79,31.91,389817.86,7257865.44
"189550",189550,1986,30,"wb","Waterbuck",5,-24.79,31.91,389817.86,7257865.44
"189552",189552,1986,30,"wb","Waterbuck",11,-24.78,31.9,388798.02,7258964.73
"189556",189556,1986,30,"wb","Waterbuck",9,-24.77,31.91,389800.19,7260080.21
"189558",189558,1986,30,"wb","Waterbuck",8,-24.77,31.9,388789.11,7260072.12
"189598",189598,1986,30,"wb","Waterbuck",3,-24.57,31.99,397725.85,7282289.32
"189689",189689,1986,30,"wb","Waterbuck",3,-24.48,31.98,396639.52,7292247.84
"189697",189697,1986,30,"wb","Waterbuck",6,-24.48,31.98,396639.52,7292247.84
"189714",189714,1986,30,"wb","Waterbuck",4,-24.46,31.99,397636.75,7294469.93
"189718",189718,1986,30,"wb","Waterbuck",3,-24.45,32,398642.32,7295584.6
"189720",189720,1986,30,"wb","Waterbuck",16,-24.45,32,398642.32,7295584.6
"189801",189801,1986,46,"wb","Waterbuck",3,-25.3,31.98,397319.95,7201442.38
"189878",189878,1986,46,"wb","Waterbuck",1,-25.2,31.99,398243.41,7212524.34
"189924",189924,1986,46,"wb","Waterbuck",4,-25.16,31.97,396194.4,7216938.77
"189929",189929,1986,46,"wb","Waterbuck",1,-25.16,31.98,397202.29,7216946.44
"189945",189945,1986,46,"wb","Waterbuck",9,-25.18,32,399234.51,7214746.71
"189965",189965,1986,46,"wb","Waterbuck",2,-25.19,31.97,396219.81,7213616.49
"189970",189970,1986,46,"wb","Waterbuck",3,-25.2,31.98,397235.85,7212516.74
"189973",189973,1986,46,"wb","Waterbuck",12,-25.2,31.98,397235.85,7212516.74
"189980",189980,1986,46,"wb","Waterbuck",8,-25.21,31.95,394221.8,7211386.05
"189982",189982,1986,46,"wb","Waterbuck",4,-25.21,31.96,395229.28,7211393.88
"189985",189985,1986,46,"wb","Waterbuck",7,-25.2,31.97,396228.29,7212509.06
"190008",190008,1986,46,"wb","Waterbuck",5,-25.22,31.96,395237.85,7210286.45
"190014",190014,1986,46,"wb","Waterbuck",5,-25.22,31.97,396245.25,7210294.2
"190123",190123,1986,46,"wb","Waterbuck",5,-25.3,31.97,396313.22,7201434.69
"190127",190127,1986,46,"wb","Waterbuck",10,-25.3,31.96,395306.48,7201426.91
"190195",190195,1986,46,"wb","Waterbuck",2,-25.35,31.94,393336.82,7195873.87
"190211",190211,1986,46,"wb","Waterbuck",1,-25.37,31.97,396372.86,7193682.54
"190216",190216,1986,46,"wb","Waterbuck",1,-25.36,31.96,395358.09,7194782.2
"190227",190227,1986,46,"wb","Waterbuck",1,-25.37,31.96,395366.7,7193674.75
"190228",190228,1986,46,"wb","Waterbuck",1,-25.37,31.97,396372.86,7193682.54
"190267",190267,1986,27,"wb","Waterbuck",7,-24.42,31.97,395576.67,7298884.27
"190277",190277,1986,27,"wb","Waterbuck",3,-24.41,31.95,393540.49,7299976.37
"190279",190279,1986,27,"wb","Waterbuck",5,-24.41,31.96,394554.47,7299984.02
"190295",190295,1986,27,"wb","Waterbuck",1,-24.39,31.97,395551.99,7302206.22
"190296",190296,1986,27,"wb","Waterbuck",7,-24.39,31.97,395551.99,7302206.22
"190309",190309,1986,27,"wb","Waterbuck",1,-24.43,31.98,396598.71,7297784.45
"190398",190398,1986,27,"wb","Waterbuck",1,-24.38,31.95,393515.34,7303298.33
"190406",190406,1986,27,"wb","Waterbuck",5,-24.38,31.94,392501.13,7303290.62
"190411",190411,1986,27,"wb","Waterbuck",1,-24.37,31.94,392492.67,7304397.94
"190437",190437,1986,27,"wb","Waterbuck",14,-24.36,31.92,390455.46,7305489.63
"190459",190459,1986,27,"wb","Waterbuck",12,-24.35,31.93,391461.31,7306604.8
"190488",190488,1986,27,"wb","Waterbuck",1,-24.35,31.95,393490.23,7306620.28
"190496",190496,1986,27,"wb","Waterbuck",5,-24.34,31.92,390438.25,7307704.27
"190539",190539,1986,27,"wb","Waterbuck",1,-24.31,31.91,389397.67,7311018.31
"190785",190785,1986,28,"wb","Waterbuck",1,-24.59,31.92,390654.38,7280020.85
"190901",190901,1986,28,"wb","Waterbuck",7,-24.55,31.88,386568.2,7284417.93
"190913",190913,1986,28,"wb","Waterbuck",8,-24.55,31.88,386568.2,7284417.93
"190926",190926,1986,28,"wb","Waterbuck",1,-24.55,31.92,390619.66,7284450.26
"190930",190930,1986,28,"wb","Waterbuck",1,-24.55,31.94,392645.37,7284465.98
"190962",190962,1986,28,"wb","Waterbuck",5,-24.53,31.87,385537.19,7286624.39
"190977",190977,1986,28,"wb","Waterbuck",1,-24.54,31.96,394662.73,7285588.74
"190994",190994,1986,28,"wb","Waterbuck",3,-24.52,31.93,391606.75,7287780.19
"190999",190999,1986,28,"wb","Waterbuck",8,-24.52,31.91,389580.55,7287764.33
"191048",191048,1986,28,"wb","Waterbuck",3,-24.51,31.95,393624.52,7288903.08
"191055",191055,1986,28,"wb","Waterbuck",1,-24.51,31.92,390584.99,7288879.64
"191136",191136,1986,28,"wb","Waterbuck",1,-24.48,31.78,376370.9,7292083.64
"191153",191153,1986,28,"wb","Waterbuck",2,-24.42,31.8,378340.2,7298745.58
"191160",191160,1986,28,"wb","Waterbuck",13,-24.41,31.8,378330.61,7299852.94
"191163",191163,1986,28,"wb","Waterbuck",1,-24.42,31.8,378340.2,7298745.58
"191164",191164,1986,28,"wb","Waterbuck",7,-24.42,31.8,378340.2,7298745.58
"191166",191166,1986,28,"wb","Waterbuck",7,-24.4,31.81,379335.11,7300969.03
"191173",191173,1986,28,"wb","Waterbuck",1,-24.4,31.82,380349.2,7300977.7
"191225",191225,1986,28,"wb","Waterbuck",12,-24.41,31.84,382386.63,7299887.46
"191265",191265,1986,28,"wb","Waterbuck",4,-24.48,31.87,385491.89,7292161.16
"191269",191269,1986,28,"wb","Waterbuck",7,-24.49,31.87,385500.94,7291053.81
"191272",191272,1986,28,"wb","Waterbuck",5,-24.48,31.89,387518.75,7292177.58
"191337",191337,1986,28,"wb","Waterbuck",1,-24.47,31.9,388523.37,7293293.03
"191353",191353,1986,28,"wb","Waterbuck",6,-24.38,31.9,388444.24,7303259.05
"191357",191357,1986,28,"wb","Waterbuck",7,-24.39,31.91,389467.17,7302159.73
"191419",191419,1986,28,"wb","Waterbuck",2,-24.47,31.93,391563.88,7293316.88
"191425",191425,1986,28,"wb","Waterbuck",5,-24.44,31.94,392551.93,7296646.68
"191427",191427,1986,28,"wb","Waterbuck",1,-24.42,31.93,391521.08,7298853.54
"191435",191435,1986,28,"wb","Waterbuck",1,-24.43,31.94,392543.46,7297754
"191442",191442,1986,28,"wb","Waterbuck",1,-24.45,31.96,394587.72,7295554.73
"191451",191451,1986,28,"wb","Waterbuck",1,-24.47,31.95,393590.87,7293332.41
"191461",191461,1986,28,"wb","Waterbuck",7,-24.5,31.94,392602.85,7290002.68
"191464",191464,1986,28,"wb","Waterbuck",2,-24.51,31.96,394637.7,7288910.75
"191471",191471,1986,28,"wb","Waterbuck",3,-24.5,31.95,393616.11,7290010.42
"191482",191482,1986,28,"wb","Waterbuck",1,-24.47,31.96,394604.37,7293340.07
"191484",191484,1986,28,"wb","Waterbuck",2,-24.47,31.96,394604.37,7293340.07
"191520",191520,1986,53,"wb","Waterbuck",5,-23.18,31.15,310638.63,7435350.43
"191585",191585,1986,53,"wb","Waterbuck",2,-23.05,31.14,309431.26,7449733.84
"191686",191686,1986,53,"wb","Waterbuck",2,-23.03,31.13,308378.15,7451935.6
"191781",191781,1986,53,"wb","Waterbuck",4,-23.03,31.04,299153.25,7451814.93
"191800",191800,1986,53,"wb","Waterbuck",8,-23.03,31.03,298128.24,7451801.18
"191807",191807,1986,53,"wb","Waterbuck",2,-23.01,31.03,298098.45,7454016.09
"191832",191832,1986,53,"wb","Waterbuck",8,-23.17,31.02,297313.52,7436282.74
"191833",191833,1986,53,"wb","Waterbuck",18,-23.17,31.03,298337.47,7436296.63
"191835",191835,1986,53,"wb","Waterbuck",2,-23.17,31.03,298337.47,7436296.63
"191878",191878,1986,53,"wb","Waterbuck",30,-22.99,30.98,292942.05,7456161.25
"191922",191922,1986,53,"wb","Waterbuck",8,-23.15,30.99,294211.07,7438455.63
"191926",191926,1986,53,"wb","Waterbuck",5,-23.17,30.99,294241.65,7436240.64
"192059",192059,1986,53,"wb","Waterbuck",3,-25.39,31.6,359166.68,7191129.12
"192082",192082,1986,53,"wb","Waterbuck",4,-25.38,31.61,360161.24,7192247.17
"192093",192093,1986,53,"wb","Waterbuck",3,-25.42,31.62,361213.18,7187827.4
"192441",192441,1986,53,"wb","Waterbuck",1,-25.33,31.73,372182.4,7197904.88
"192446",192446,1986,53,"wb","Waterbuck",4,-25.37,31.74,373230.66,7193484.36
"192451",192451,1986,53,"wb","Waterbuck",7,-25.36,31.75,374226.51,7194601.31
"192455",192455,1986,53,"wb","Waterbuck",7,-25.35,31.74,373209.79,7195699.38
"192459",192459,1986,53,"wb","Waterbuck",1,-25.34,31.74,373199.36,7196806.88
"192468",192468,1986,53,"wb","Waterbuck",6,-25.32,31.73,372171.9,7199012.39
"192470",192470,1986,53,"wb","Waterbuck",2,-25.32,31.74,373178.52,7199021.9
"192472",192472,1986,53,"wb","Waterbuck",3,-25.32,31.74,373178.52,7199021.9
"192474",192474,1986,53,"wb","Waterbuck",4,-25.33,31.74,373188.94,7197914.39
"192539",192539,1986,45,"wb","Waterbuck",2,-25.1,31.86,385051.32,7223494.18
"192540",192540,1986,45,"wb","Waterbuck",1,-25.11,31.87,386068.99,7222395.22
"192752",192752,1986,45,"wb","Waterbuck",1,-25.17,31.93,392171.62,7215799.93
"192994",192994,1986,45,"wb","Waterbuck",1,-25.2,31.81,380107.02,7212376.07
"193164",193164,1986,45,"wb","Waterbuck",3,-25.25,31.86,385191.94,7206882.39
"193275",193275,1986,41,"wb","Waterbuck",4,-25.15,31.5,348808.6,7217601.57
"193311",193311,1986,41,"wb","Waterbuck",11,-25.11,31.49,347750.92,7222020.53
"193373",193373,1986,41,"wb","Waterbuck",1,-25.12,31.48,346754.97,7220901.66
"193401",193401,1986,41,"wb","Waterbuck",4,-25.11,31.47,345734.07,7221997.82
"193404",193404,1986,41,"wb","Waterbuck",7,-25.12,31.46,344738.27,7220878.79
"193474",193474,1986,41,"wb","Waterbuck",18,-25.17,31.43,341777.71,7215306.05
"193495",193495,1986,41,"wb","Waterbuck",10,-25.17,31.42,340769.76,7215294.27
"193498",193498,1986,41,"wb","Waterbuck",3,-25.15,31.42,340743.78,7217509.43
"193829",193829,1986,41,"wb","Waterbuck",5,-25.3,31.43,341945.96,7200907.42
"193830",193830,1986,41,"wb","Waterbuck",3,-25.3,31.43,341945.96,7200907.42
"193831",193831,1986,41,"wb","Waterbuck",7,-25.3,31.42,340939.08,7200895.59
"193835",193835,1986,41,"wb","Waterbuck",2,-25.3,31.4,338925.32,7200871.7
"193844",193844,1986,41,"wb","Waterbuck",7,-25.32,31.38,336938.33,7198632.28
"193870",193870,1986,41,"wb","Waterbuck",2,-25.32,31.37,335931.6,7198620.07
"193871",193871,1986,41,"wb","Waterbuck",3,-25.32,31.37,335931.6,7198620.07
"193873",193873,1986,41,"wb","Waterbuck",8,-25.32,31.39,337945.05,7198644.42
"193904",193904,1986,41,"wb","Waterbuck",1,-25.34,31.39,337971.69,7196429.19
"194158",194158,1986,43,"wb","Waterbuck",8,-25,31.45,343577.59,7234157.92
"194233",194233,1986,43,"wb","Waterbuck",1,-25.08,31.48,346705.1,7225331.87
"194533",194533,1986,20,"wb","Waterbuck",5,-24.07,31.35,332252.04,7337038.14
"194534",194534,1986,20,"wb","Waterbuck",4,-24.07,31.35,332252.04,7337038.14
"194569",194569,1986,20,"wb","Waterbuck",11,-24.05,31.38,335277.02,7339288.54
"194571",194571,1986,20,"wb","Waterbuck",1,-24.06,31.38,335289.79,7338181.1
"194610",194610,1986,20,"wb","Waterbuck",3,-24.06,31.41,338340.51,7338215.95
"194624",194624,1986,20,"wb","Waterbuck",5,-24.06,31.42,339357.41,7338227.42
"194635",194635,1986,20,"wb","Waterbuck",1,-24.05,31.44,341378.9,7339357.57
"194654",194654,1986,20,"wb","Waterbuck",4,-24.03,31.45,342371.46,7341583.66
"194689",194689,1986,20,"wb","Waterbuck",4,-24.04,31.49,346451.82,7340520.51
"194690",194690,1986,20,"wb","Waterbuck",3,-24.03,31.49,346439.93,7341627.91
"194692",194692,1986,20,"wb","Waterbuck",3,-24.05,31.49,346463.72,7339413.1
"194706",194706,1986,20,"wb","Waterbuck",2,-24.04,31.5,347468.86,7340531.39
"194723",194723,1986,20,"wb","Waterbuck",11,-24.05,31.52,349514.57,7339445.55
"194724",194724,1986,20,"wb","Waterbuck",2,-24.05,31.52,349514.57,7339445.55
"194740",194740,1986,20,"wb","Waterbuck",5,-24.05,31.53,350531.51,7339456.22
"194755",194755,1986,20,"wb","Waterbuck",2,-24.05,31.54,351548.45,7339466.82
"194772",194772,1986,20,"wb","Waterbuck",2,-24.03,31.57,354576.73,7341712.94
"194791",194791,1986,20,"wb","Waterbuck",12,-24.06,31.58,355627.38,7338401.12
"194835",194835,1986,20,"wb","Waterbuck",3,-24.02,31.63,360668.43,7342881.03
"194836",194836,1986,20,"wb","Waterbuck",3,-24.02,31.64,361685.58,7342890.89
"194837",194837,1986,20,"wb","Waterbuck",2,-24.01,31.64,361674.88,7343998.24
"194850",194850,1986,20,"wb","Waterbuck",1,-24.03,31.66,363730.41,7341803.06
"194871",194871,1986,20,"wb","Waterbuck",2,-24.1,31.63,360754.8,7334022.14
"194889",194889,1986,20,"wb","Waterbuck",1,-24.04,31.67,364757.94,7340705.37
"194895",194895,1986,20,"wb","Waterbuck",3,-24.04,31.22,318990.7,7340199.23
"194898",194898,1986,20,"wb","Waterbuck",2,-24.05,31.21,317987.67,7339078.81
"194913",194913,1986,20,"wb","Waterbuck",8,-24.08,31.22,319046.83,7335769.2
"194915",194915,1986,20,"wb","Waterbuck",6,-24.06,31.23,320035.72,7337997.07
"194917",194917,1986,20,"wb","Waterbuck",2,-24.07,31.23,320049.67,7336889.56
"194921",194921,1986,20,"wb","Waterbuck",8,-24.08,31.23,320063.63,7335782.06
"194922",194922,1986,20,"wb","Waterbuck",3,-24.08,31.24,321080.44,7335794.84
"194934",194934,1986,20,"wb","Waterbuck",1,-24.06,31.23,320035.72,7337997.07
"195178",195178,1986,19,"wb","Waterbuck",2,-23.89,31.67,364601.3,7357315.4
"195185",195185,1986,19,"wb","Waterbuck",7,-23.9,31.68,365629.8,7356217.61
"195244",195244,1986,19,"wb","Waterbuck",1,-23.93,31.74,371767.83,7352951.42
"195254",195254,1986,19,"wb","Waterbuck",3,-23.9,31.75,372756.27,7356282.38
"195255",195255,1986,19,"wb","Waterbuck",15,-23.9,31.75,372756.27,7356282.38
"195257",195257,1986,19,"wb","Waterbuck",4,-23.88,31.75,372736.7,7358496.98
"195258",195258,1986,19,"wb","Waterbuck",1,-23.89,31.75,372746.49,7357389.68
"195266",195266,1986,19,"wb","Waterbuck",1,-23.93,31.75,372785.66,7352960.46
"195269",195269,1986,19,"wb","Waterbuck",2,-23.91,31.75,372766.07,7355175.07
"195272",195272,1986,19,"wb","Waterbuck",1,-23.95,31.77,374840.6,7350763.73
"195278",195278,1986,19,"wb","Waterbuck",1,-23.93,31.76,373803.48,7352969.43
"195279",195279,1986,19,"wb","Waterbuck",5,-23.92,31.75,372775.86,7354067.77
"195281",195281,1986,19,"wb","Waterbuck",1,-23.93,31.77,374821.3,7352978.33
"195285",195285,1986,19,"wb","Waterbuck",3,-23.91,31.76,373784.04,7355184.04
"195287",195287,1986,19,"wb","Waterbuck",4,-23.91,31.76,373784.04,7355184.04
"195290",195290,1986,19,"wb","Waterbuck",1,-23.91,31.77,374802.02,7355192.93
"195297",195297,1986,19,"wb","Waterbuck",4,-23.9,31.77,374792.39,7356300.23
"195326",195326,1986,19,"wb","Waterbuck",4,-23.93,31.78,375839.12,7352987.16
"195339",195339,1986,19,"wb","Waterbuck",10,-23.94,31.78,375848.68,7351879.86
"195346",195346,1986,19,"wb","Waterbuck",2,-23.95,31.79,376875.91,7350781.32
"195368",195368,1986,19,"wb","Waterbuck",2,-23.96,31.81,378920.56,7349691.34
"195375",195375,1986,19,"wb","Waterbuck",2,-23.97,31.82,379947.4,7348592.59
"195378",195378,1986,19,"wb","Waterbuck",2,-23.97,31.83,380964.89,7348601.07
"195382",195382,1986,19,"wb","Waterbuck",1,-23.97,31.85,382999.86,7348617.81
"195386",195386,1986,19,"wb","Waterbuck",1,-23.95,31.83,380946.52,7350815.65
"195400",195400,1986,19,"wb","Waterbuck",3,-23.94,31.84,381955.07,7351931.33
"195410",195410,1986,19,"wb","Waterbuck",1,-23.94,31.85,382972.79,7351939.66
"195429",195429,1986,19,"wb","Waterbuck",5,-23.95,31.87,385017.09,7350848.82
"195431",195431,1986,19,"wb","Waterbuck",2,-23.96,31.87,385025.95,7349741.54
"195666",195666,1986,44,"wb","Waterbuck",1,-25.22,31.71,370052.18,7210068.21
"195670",195670,1986,44,"wb","Waterbuck",10,-25.2,31.71,370030.93,7212283.2
"195671",195671,1986,44,"wb","Waterbuck",1,-25.2,31.71,370030.93,7212283.2
"195672",195672,1986,44,"wb","Waterbuck",5,-25.2,31.72,371038.55,7212292.83
"195674",195674,1986,44,"wb","Waterbuck",4,-25.19,31.71,370020.31,7213390.7
"195676",195676,1986,44,"wb","Waterbuck",23,-25.19,31.71,370020.31,7213390.7
"195695",195695,1986,44,"wb","Waterbuck",7,-25.22,31.73,372067.08,7210087.39
"195714",195714,1986,44,"wb","Waterbuck",1,-25.31,31.72,371154.69,7200110.32
"195770",195770,1986,44,"wb","Waterbuck",3,-25.3,31.76,375171.26,7201255.68
"196075",196075,1986,2,"wb","Waterbuck",1,-23.95,31.5,347362.72,7350497.94
"196080",196080,1986,2,"wb","Waterbuck",2,-23.91,31.5,347315.68,7354927.48
"196081",196081,1986,2,"wb","Waterbuck",16,-23.93,31.5,347339.19,7352712.71
"196191",196191,1986,2,"wb","Waterbuck",7,-24.02,31.56,353548.31,7342809.94
"196193",196193,1986,2,"wb","Waterbuck",2,-24.03,31.55,352542.55,7341692.11
"196204",196204,1986,2,"wb","Waterbuck",3,-24.04,31.53,350519.93,7340563.61
"196206",196206,1986,2,"wb","Waterbuck",3,-24.04,31.53,350519.93,7340563.61
"196208",196208,1986,2,"wb","Waterbuck",4,-24.05,31.52,349514.57,7339445.55
"196229",196229,1986,2,"wb","Waterbuck",4,-24.03,31.51,348474.15,7341649.6
"196236",196236,1986,2,"wb","Waterbuck",7,-24.03,31.49,346439.93,7341627.91
"196242",196242,1986,2,"wb","Waterbuck",4,-24.01,31.48,345398.9,7343831.76
"196274",196274,1986,2,"wb","Waterbuck",2,-24.01,31.44,341329.78,7343787.25
"196275",196275,1986,2,"wb","Waterbuck",7,-24.02,31.45,342359.26,7342691.07
"196276",196276,1986,2,"wb","Waterbuck",1,-24.01,31.45,342347.06,7343798.49
"196281",196281,1986,2,"wb","Waterbuck",5,-24.01,31.43,340312.49,7343775.94
"196296",196296,1986,2,"wb","Waterbuck",7,-24.03,31.43,340337.2,7341561.1
"196301",196301,1986,2,"wb","Waterbuck",3,-24.05,31.42,339344.96,7339334.85
"196320",196320,1986,2,"wb","Waterbuck",1,-24.05,31.39,336294.01,7339300.23
"196321",196321,1986,2,"wb","Waterbuck",2,-24.04,31.39,336281.33,7340407.67
"196323",196323,1986,2,"wb","Waterbuck",3,-24.03,31.4,337285.79,7341526.71
"196577",196577,1986,13,"wb","Waterbuck",1,-23.61,31.47,343903.99,7388115.93
"196624",196624,1986,13,"wb","Waterbuck",1,-23.65,31.63,360272.47,7383852.24
"196649",196649,1986,13,"wb","Waterbuck",1,-23.69,31.59,356236.04,7379383.24
"196688",196688,1986,13,"wb","Waterbuck",6,-23.73,31.59,356279.88,7374953.94
"196697",196697,1986,13,"wb","Waterbuck",1,-23.71,31.62,359316.7,7377198.54
"196759",196759,1986,13,"wb","Waterbuck",1,-23.78,31.62,359391.89,7369447.3
"196836",196836,1986,13,"wb","Waterbuck",1,-23.81,31.63,360442.98,7366135.18
"196881",196881,1986,13,"wb","Waterbuck",8,-23.84,31.57,354363.65,7362752.83
"196900",196900,1986,13,"wb","Waterbuck",1,-23.7,31.5,347069.89,7378182.22
"196910",196910,1986,13,"wb","Waterbuck",7,-23.71,31.49,346061.93,7377064.1
"196912",196912,1986,13,"wb","Waterbuck",4,-23.72,31.49,346073.67,7375956.73
"196915",196915,1986,13,"wb","Waterbuck",13,-23.72,31.51,348112.74,7375978.21
"196917",196917,1986,13,"wb","Waterbuck",3,-23.72,31.51,348112.74,7375978.21
"196939",196939,1986,13,"wb","Waterbuck",3,-23.73,31.5,347104.88,7374860.15
"196941",196941,1986,13,"wb","Waterbuck",5,-23.74,31.5,347116.55,7373752.79
"196948",196948,1986,13,"wb","Waterbuck",1,-23.75,31.5,347128.22,7372645.43
"196972",196972,1986,13,"wb","Waterbuck",7,-23.77,31.53,350209.02,7370462.65
"196983",196983,1986,13,"wb","Waterbuck",8,-23.79,31.56,353288.87,7368279.27
"196985",196985,1986,13,"wb","Waterbuck",4,-23.79,31.57,354307.84,7368289.56
"196992",196992,1986,13,"wb","Waterbuck",6,-23.81,31.57,354330.15,7366074.87
"196993",196993,1986,13,"wb","Waterbuck",2,-23.8,31.56,353300.1,7367171.92
"196994",196994,1986,7,"wb","Waterbuck",5,-23.65,31.16,312326.93,7383313.32
"197009",197009,1986,7,"wb","Waterbuck",5,-23.69,31.17,313403.95,7378896.52
"197026",197026,1986,7,"wb","Waterbuck",2,-23.68,31.2,316449.61,7380042.94
"197036",197036,1986,7,"wb","Waterbuck",2,-23.67,31.2,316435.64,7381150.41
"197038",197038,1986,7,"wb","Waterbuck",1,-23.68,31.2,316449.61,7380042.94
"197044",197044,1986,7,"wb","Waterbuck",9,-23.69,31.21,317483.47,7378948.32
"197077",197077,1986,7,"wb","Waterbuck",2,-23.7,31.22,318517.17,7377853.63
"197078",197078,1986,7,"wb","Waterbuck",2,-23.7,31.22,318517.17,7377853.63
"197081",197081,1986,7,"wb","Waterbuck",6,-23.71,31.24,320570.42,7376771.51
"197092",197092,1986,7,"wb","Waterbuck",9,-23.6,31.25,321440.79,7388965.94
"197114",197114,1986,7,"wb","Waterbuck",12,-23.71,31.26,322609.82,7376796.56
"197116",197116,1986,7,"wb","Waterbuck",6,-23.71,31.27,323629.52,7376808.98
"197171",197171,1986,7,"wb","Waterbuck",5,-23.71,31.31,327708.26,7376857.95
"197184",197184,1986,7,"wb","Waterbuck",2,-23.72,31.33,329760.6,7375774.58
"197191",197191,1986,7,"wb","Waterbuck",3,-23.73,31.34,330793.11,7374679.09
"197194",197194,1986,7,"wb","Waterbuck",5,-23.73,31.35,331812.62,7374690.94
"197256",197256,1986,56,"wb","Waterbuck",3,-25.36,31.43,342023.89,7194261.82
"197325",197325,1986,56,"wb","Waterbuck",5,-25.45,31.52,351191.66,7184396.86
"197496",197496,1986,4,"wb","Waterbuck",7,-23.69,31.18,314423.84,7378909.58
"197537",197537,1986,4,"wb","Waterbuck",5,-23.7,31.2,316477.58,7377828.01
"197588",197588,1986,4,"wb","Waterbuck",1,-23.71,31.23,319550.71,7376758.87
"197804",197804,1986,4,"wb","Waterbuck",3,-23.72,31.31,327721.41,7375750.52
"197815",197815,1986,4,"wb","Waterbuck",9,-23.73,31.32,328754.07,7374655.16
"197823",197823,1986,4,"wb","Waterbuck",6,-23.74,31.32,328767.15,7373547.74
"197834",197834,1986,4,"wb","Waterbuck",1,-23.75,31.32,328780.23,7372440.31
"197840",197840,1986,4,"wb","Waterbuck",5,-23.74,31.33,329786.59,7373559.74
"197841",197841,1986,4,"wb","Waterbuck",1,-23.75,31.34,330818.95,7372464.25
"197855",197855,1986,4,"wb","Waterbuck",2,-23.76,31.33,329812.59,7371344.89
"197971",197971,1986,4,"wb","Waterbuck",2,-23.78,31.3,326781.23,7369093.78
"198062",198062,1986,4,"wb","Waterbuck",6,-23.81,31.32,328858.81,7365795.73
"198067",198067,1986,4,"wb","Waterbuck",1,-23.81,31.31,327839.91,7365783.63
"198076",198076,1986,4,"wb","Waterbuck",5,-23.8,31.33,329864.67,7366915.18
"198284",198284,1986,21,"wb","Waterbuck",8,-24.2,31.57,354768.74,7322887.36
"198336",198336,1986,21,"wb","Waterbuck",1,-24.21,31.6,357827.06,7321810.82
"198341",198341,1986,21,"wb","Waterbuck",3,-24.23,31.58,355818.26,7319575.52
"198389",198389,1986,21,"wb","Waterbuck",1,-24.18,31.61,358809.67,7325143.12
"198503",198503,1986,6,"wb","Waterbuck",11,-23.53,31.4,336662.15,7396896.76
"198508",198508,1986,6,"wb","Waterbuck",2,-23.55,31.42,338728.63,7394704.67
"198509",198509,1986,6,"wb","Waterbuck",1,-23.55,31.42,338728.63,7394704.67
"198516",198516,1986,6,"wb","Waterbuck",6,-23.57,31.44,340794.5,7392512.31
"198519",198519,1986,6,"wb","Waterbuck",5,-23.58,31.43,339785.91,7391393.8
"198530",198530,1986,6,"wb","Waterbuck",4,-23.59,31.43,339798.06,7390286.43
"198539",198539,1986,6,"wb","Waterbuck",15,-23.6,31.44,340830.7,7389190.23
"198543",198543,1986,6,"wb","Waterbuck",21,-23.61,31.45,341863.18,7388093.96
"198554",198554,1986,6,"wb","Waterbuck",2,-23.62,31.45,341875.18,7386986.6
"198556",198556,1986,6,"wb","Waterbuck",2,-23.62,31.46,342895.51,7386997.63
"198559",198559,1986,6,"wb","Waterbuck",6,-23.63,31.46,342907.44,7385890.27
"198595",198595,1986,6,"wb","Waterbuck",2,-23.65,31.46,342931.32,7383675.55
"198596",198596,1986,6,"wb","Waterbuck",3,-23.65,31.47,343951.41,7383686.51
"198606",198606,1986,6,"wb","Waterbuck",3,-23.67,31.47,343975.15,7381471.79
"198692",198692,1986,6,"wb","Waterbuck",18,-23.74,31.39,335903.15,7373630.24
"198693",198693,1986,6,"wb","Waterbuck",1,-23.74,31.39,335903.15,7373630.24
"198704",198704,1986,6,"wb","Waterbuck",2,-23.73,31.42,338949.1,7374771.91
"198719",198719,1986,6,"wb","Waterbuck",1,-23.73,31.47,344046.48,7374827.6
"198728",198728,1986,54,"wb","Waterbuck",4,-22.97,30.93,287784.06,7458304.75
"198887",198887,1986,54,"wb","Waterbuck",5,-22.88,31.05,299957.67,7468440.22
"198944",198944,1986,49,"wb","Waterbuck",3,-22.91,31.23,318467.39,7465351.37
"198949",198949,1986,49,"wb","Waterbuck",6,-22.92,31.24,319506.48,7464256.32
"198959",198959,1986,49,"wb","Waterbuck",1,-22.94,31.24,319532.99,7462041.61
"198961",198961,1986,49,"wb","Waterbuck",8,-22.93,31.25,320545.41,7463161.21
"198975",198975,1986,49,"wb","Waterbuck",2,-22.96,31.26,321610.43,7459851.34
"198976",198976,1986,49,"wb","Waterbuck",3,-22.96,31.26,321610.43,7459851.34
"198979",198979,1986,49,"wb","Waterbuck",1,-22.96,31.25,320584.98,7459839.16
"198981",198981,1986,49,"wb","Waterbuck",2,-22.96,31.26,321610.43,7459851.34
"199253",199253,1986,23,"wb","Waterbuck",7,-24.24,31.65,362937.43,7318538.68
"199255",199255,1986,23,"wb","Waterbuck",8,-24.24,31.64,361922.02,7318528.82
"199258",199258,1986,23,"wb","Waterbuck",9,-24.23,31.64,361911.23,7319636.2
"199301",199301,1986,23,"wb","Waterbuck",3,-24.21,31.64,361889.66,7321850.96
"199318",199318,1986,23,"wb","Waterbuck",3,-24.2,31.65,362894.6,7322968.18
"199331",199331,1986,23,"wb","Waterbuck",4,-24.18,31.63,360841.45,7325163.17
"199342",199342,1986,23,"wb","Waterbuck",1,-24.17,31.65,362862.53,7326290.3
"199345",199345,1986,23,"wb","Waterbuck",2,-24.17,31.65,362862.53,7326290.3
"199459",199459,1986,23,"wb","Waterbuck",5,-24.11,31.72,369913.46,7333001.21
"199600",199600,1986,60,"wb","Waterbuck",5,-25.01,31.62,360747.16,7233235.88
"199872",199872,1986,52,"wb","Waterbuck",17,-23.06,31.16,311494.82,7448652.35
"199941",199941,1986,52,"wb","Waterbuck",3,-23.21,31.21,316822.38,7432105.07
"199983",199983,1986,52,"wb","Waterbuck",2,-23.19,31.22,317818.83,7434332.43
"200004",200004,1986,52,"wb","Waterbuck",5,-23.17,31.23,318815.61,7436559.7
"200010",200010,1986,52,"wb","Waterbuck",9,-23.19,31.24,319866.26,7434357.34
"200011",200011,1986,52,"wb","Waterbuck",4,-23.19,31.24,319866.26,7434357.34
"200033",200033,1986,52,"wb","Waterbuck",7,-23.19,31.25,320889.97,7434369.7
"200139",200139,1986,52,"wb","Waterbuck",6,-23.04,31.31,326839.75,7451052.56
"200174",200174,1986,52,"wb","Waterbuck",4,-23.16,31.32,328017.48,7437776.24
"200231",200231,1986,52,"wb","Waterbuck",3,-23.11,31.35,331026.53,7443348.04
"200251",200251,1986,52,"wb","Waterbuck",7,-23.12,31.37,333087.45,7442263.73
"200501",200501,1986,18,"wb","Waterbuck",5,-23.18,31.51,347493.8,7435773.39
"200516",200516,1986,18,"wb","Waterbuck",1,-23.21,31.51,347527.83,7432451.54
"200538",200538,1986,18,"wb","Waterbuck",2,-23.22,31.54,350609.33,7431375.42
"200549",200549,1986,18,"wb","Waterbuck",1,-23.26,31.52,348607.72,7426925.56
"200565",200565,1986,18,"wb","Waterbuck",5,-23.27,31.53,349642.02,7425828.68
"200568",200568,1986,18,"wb","Waterbuck",1,-23.27,31.54,350665.02,7425839.02
"200577",200577,1986,18,"wb","Waterbuck",2,-23.29,31.53,349664.48,7423614.1
"200638",200638,1986,18,"wb","Waterbuck",4,-23.14,31.45,341304.45,7440138.44
"200642",200642,1986,18,"wb","Waterbuck",3,-23.11,31.43,339220.65,7443438.44
"200660",200660,1986,18,"wb","Waterbuck",4,-23.15,31.47,343364.1,7439052.79
"200663",200663,1986,18,"wb","Waterbuck",1,-23.15,31.47,343364.1,7439052.79
"200669",200669,1986,18,"wb","Waterbuck",14,-23.15,31.48,344388.03,7439063.5
"200670",200670,1986,18,"wb","Waterbuck",16,-23.15,31.46,342340.16,7439042
"200673",200673,1986,18,"wb","Waterbuck",21,-23.13,31.45,341292.68,7441245.74
"200719",200719,1986,18,"wb","Waterbuck",7,-23.12,31.38,334111.65,7442275.14
"200721",200721,1986,18,"wb","Waterbuck",1,-23.13,31.38,334123.95,7441167.82
"200890",200890,1986,50,"wb","Waterbuck",3,-23.21,31.55,351621.66,7432492.94
"200900",200900,1986,50,"wb","Waterbuck",3,-23.19,31.54,350575.97,7434697.25
"200946",200946,1986,50,"wb","Waterbuck",7,-23.15,31.48,344388.03,7439063.5
"200948",200948,1986,50,"wb","Waterbuck",1,-23.14,31.48,344376.48,7440170.79
"200985",200985,1986,50,"wb","Waterbuck",2,-23.11,31.46,342293.39,7443471.18
"201025",201025,1986,50,"wb","Waterbuck",2,-23.09,31.42,338172.43,7445641.99
"201066",201066,1986,50,"wb","Waterbuck",8,-23.06,31.45,341210.4,7448996.79
"201098",201098,1986,50,"wb","Waterbuck",20,-23.04,31.45,341186.94,7451211.36
"201147",201147,1986,50,"wb","Waterbuck",8,-23.03,31.4,336050.92,7452263.53
"201366",201366,1986,15,"wb","Waterbuck",5,-23.37,31.52,348732.27,7414745.3
"201379",201379,1986,15,"wb","Waterbuck",3,-23.39,31.5,346710.81,7412509.58
"201381",201381,1986,15,"wb","Waterbuck",3,-23.39,31.51,347732.9,7412520.17
"201382",201382,1986,15,"wb","Waterbuck",1,-23.39,31.52,348754.98,7412530.69
"201383",201383,1986,15,"wb","Waterbuck",3,-23.39,31.52,348754.98,7412530.69
"201436",201436,1986,15,"wb","Waterbuck",1,-23.32,31.5,346630.34,7420260.74
"201440",201440,1986,15,"wb","Waterbuck",2,-23.31,31.5,346618.87,7421368.05
"201446",201446,1986,15,"wb","Waterbuck",3,-23.31,31.51,347641.57,7421378.61
"201455",201455,1986,15,"wb","Waterbuck",3,-23.31,31.52,348664.27,7421389.1
"201459",201459,1986,15,"wb","Waterbuck",1,-23.31,31.53,349686.96,7421399.52
"201463",201463,1986,5,"wb","Waterbuck",7,-23.82,31.58,355360.05,7364977.76
"201468",201468,1986,5,"wb","Waterbuck",2,-23.8,31.56,353300.1,7367171.92
"201469",201469,1986,5,"wb","Waterbuck",4,-23.8,31.56,353300.1,7367171.92
"201473",201473,1986,5,"wb","Waterbuck",4,-23.82,31.56,353322.58,7364957.22
"201492",201492,1986,5,"wb","Waterbuck",3,-23.84,31.56,353345.07,7362742.52
"201496",201496,1986,5,"wb","Waterbuck",8,-23.84,31.56,353345.07,7362742.52
"201538",201538,1986,5,"wb","Waterbuck",2,-23.78,31.51,348182.35,7369334.07
"201539",201539,1986,5,"wb","Waterbuck",3,-23.78,31.51,348182.35,7369334.07
"201958",201958,1986,1,"wb","Waterbuck",5,-23.92,31.69,366668.4,7354012.44
"201972",201972,1986,1,"wb","Waterbuck",1,-23.93,31.71,368714.34,7352923.85
"202035",202035,1986,1,"wb","Waterbuck",3,-23.99,31.75,372844.53,7346316.59
"202053",202053,1986,1,"wb","Waterbuck",4,-23.98,31.76,373852.14,7347432.89
"202059",202059,1986,1,"wb","Waterbuck",3,-23.97,31.77,374859.91,7348549.12
"202076",202076,1986,1,"wb","Waterbuck",1,-23.99,31.81,378948.6,7346369.45
"202137",202137,1986,1,"wb","Waterbuck",1,-24,31.64,361664.18,7345105.59
"202156",202156,1986,1,"wb","Waterbuck",4,-24.02,31.6,357616.97,7342850.99
"202221",202221,1986,1,"wb","Waterbuck",1,-23.99,31.66,363688.25,7346232.44
"202274",202274,1986,1,"wb","Waterbuck",19,-24.01,31.67,364726.54,7344027.4
"202291",202291,1986,1,"wb","Waterbuck",1,-24.02,31.67,364737,7342920.06
"202427",202427,1986,54,"wb","Waterbuck",2,-22.91,31.13,308208.83,7465224.47
"202495",202495,1986,54,"wb","Waterbuck",7,-22.91,31.17,312312.3,7465276.07
"202496",202496,1986,54,"wb","Waterbuck",5,-22.92,31.18,313351.86,7464181.41
"202514",202514,1986,54,"wb","Waterbuck",3,-22.93,31.19,314391.27,7463086.7
"202518",202518,1986,54,"wb","Waterbuck",5,-22.93,31.2,315416.97,7463099.29
"202531",202531,1986,54,"wb","Waterbuck",6,-22.96,31.24,319559.53,7459826.9
"202547",202547,1986,54,"wb","Waterbuck",1,-22.98,31.13,308307.5,7457472.65
"202584",202584,1986,54,"wb","Waterbuck",5,-23.03,31.15,310428.08,7451961.64
"202673",202673,1986,54,"wb","Waterbuck",6,-23,31.26,321662.96,7455421.94
"202806",202806,1986,14,"wb","Waterbuck",1,-23.42,31.35,331417.11,7409020.11
"202807",202807,1986,14,"wb","Waterbuck",1,-23.41,31.37,333448.4,7410150.74
"202809",202809,1986,14,"wb","Waterbuck",6,-23.43,31.34,330407.96,7407901
"202814",202814,1986,14,"wb","Waterbuck",1,-23.45,31.35,331455.17,7405697.99
"202820",202820,1986,14,"wb","Waterbuck",6,-23.44,31.35,331442.48,7406805.37
"202824",202824,1986,14,"wb","Waterbuck",3,-23.45,31.35,331455.17,7405697.99
"202922",202922,1986,14,"wb","Waterbuck",1,-23.53,31.42,338704.23,7396919.39
"202928",202928,1986,14,"wb","Waterbuck",1,-23.53,31.47,343809.37,7396974.72
"202939",202939,1986,14,"wb","Waterbuck",7,-23.54,31.43,339737.39,7395823.24
"202940",202940,1986,14,"wb","Waterbuck",15,-23.55,31.44,340770.39,7394727.03
"202953",202953,1986,14,"wb","Waterbuck",4,-23.55,31.45,341791.26,7394738.1
"202963",202963,1986,14,"wb","Waterbuck",2,-23.57,31.45,341815.22,7392523.39
"202966",202966,1986,14,"wb","Waterbuck",3,-23.57,31.45,341815.22,7392523.39
"202974",202974,1986,14,"wb","Waterbuck",1,-23.58,31.45,341827.2,7391416.03
"202984",202984,1986,14,"wb","Waterbuck",6,-23.51,31.49,345828.11,7399211.02
"202985",202985,1986,14,"wb","Waterbuck",2,-23.51,31.48,344806.94,7399200.25
"202988",202988,1986,14,"wb","Waterbuck",20,-23.5,31.48,344795.22,7400307.58
"203053",203053,1986,14,"wb","Waterbuck",1,-23.5,31.5,346837.71,7400329.05
"203060",203060,1986,14,"wb","Waterbuck",1,-23.51,31.5,346849.28,7399221.72
"203151",203151,1986,14,"wb","Waterbuck",21,-23.59,31.45,341839.19,7390308.68
"203152",203152,1986,14,"wb","Waterbuck",4,-23.6,31.46,342871.67,7389212.34
