"","ID","Year","Cenb","Sp","Description","No","Lat","Long","X.coord","Y.coord"
"46006",46006,1981,1,"wl","Blue wildebeest bull",1,-23.89,31.57,354419.57,7357216.06
"46154",46154,1981,1,"wl","Blue wildebeest bull",1,-23.87,31.59,356433.87,7359451.2
"47823",47823,1981,4,"wl","Blue wildebeest bull",2,-23.78,31.17,313532.13,7368929.15
"47824",47824,1981,4,"wl","Blue wildebeest bull",2,-23.78,31.17,313532.13,7368929.15
"47850",47850,1981,4,"wl","Blue wildebeest bull",1,-23.72,31.17,313446.63,7375574.07
"47875",47875,1981,4,"wl","Blue wildebeest bull",1,-23.74,31.17,313475.11,7373359.11
"47876",47876,1981,4,"wl","Blue wildebeest bull",1,-23.74,31.17,313475.11,7373359.11
"48072",48072,1981,4,"wl","Blue wildebeest bull",1,-23.74,31.21,317553.07,7373410.99
"48163",48163,1981,4,"wl","Blue wildebeest bull",1,-23.76,31.26,322677.53,7371259.32
"48181",48181,1981,4,"wl","Blue wildebeest bull",1,-23.78,31.26,322704.65,7369044.41
"48238",48238,1981,4,"wl","Blue wildebeest bull",1,-23.74,31.28,324689.35,7373499.01
"48292",48292,1981,4,"wl","Blue wildebeest bull",1,-23.78,31.3,326781.23,7369093.78
"48329",48329,1981,4,"wl","Blue wildebeest bull",2,-23.81,31.34,330896.59,7365819.71
"48361",48361,1981,5,"wl","Blue wildebeest bull",1,-23.85,31.36,332985.61,7361413.72
"48452",48452,1981,5,"wl","Blue wildebeest bull",1,-23.85,31.44,341134.05,7361505.75
"48476",48476,1981,5,"wl","Blue wildebeest bull",1,-23.83,31.42,339072.27,7363697.98
"48506",48506,1981,5,"wl","Blue wildebeest bull",2,-23.85,31.46,343171.13,7361528.04
"48534",48534,1981,5,"wl","Blue wildebeest bull",1,-23.81,31.46,343123.01,7365957.58
"48540",48540,1981,5,"wl","Blue wildebeest bull",1,-23.81,31.48,345160.7,7365979.56
"48541",48541,1981,5,"wl","Blue wildebeest bull",2,-23.81,31.48,345160.7,7365979.56
"48622",48622,1981,5,"wl","Blue wildebeest bull",1,-23.87,31.53,350323.79,7359389.05
"48650",48650,1981,5,"wl","Blue wildebeest bull",1,-23.83,31.51,348240.48,7363797.24
"48704",48704,1981,5,"wl","Blue wildebeest bull",4,-23.87,31.55,352360.49,7359410.06
"48713",48713,1981,5,"wl","Blue wildebeest bull",1,-23.81,31.55,352292.52,7366054.19
"48727",48727,1981,5,"wl","Blue wildebeest bull",1,-23.83,31.55,352315.16,7363839.49
"48876",48876,1981,6,"wl","Blue wildebeest bull",3,-23.68,31.38,334808.17,7380263.07
"49147",49147,1981,7,"wl","Blue wildebeest bull",1,-23.72,31.26,322623.35,7375689.12
"49828",49828,1981,10,"wl","Blue wildebeest bull",1,-23.37,31.03,298638.47,7414146.87
"49837",49837,1981,10,"wl","Blue wildebeest bull",1,-23.31,31.03,298547.91,7420791.85
"49838",49838,1981,10,"wl","Blue wildebeest bull",1,-23.31,31.03,298547.91,7420791.85
"49892",49892,1981,10,"wl","Blue wildebeest bull",1,-23.43,31.05,300773.15,7407529.65
"49923",49923,1981,10,"wl","Blue wildebeest bull",1,-23.45,31.07,302846.72,7405342.2
"50014",50014,1981,10,"wl","Blue wildebeest bull",1,-23.33,31.07,302668.94,7418632.02
"50172",50172,1981,10,"wl","Blue wildebeest bull",1,-23.35,31.13,308833.76,7416497.73
"50252",50252,1981,10,"wl","Blue wildebeest bull",1,-23.37,31.19,314996.62,7414360.99
"50358",50358,1981,11,"wl","Blue wildebeest bull",2,-23.39,31.26,322179.7,7412234.15
"50436",50436,1981,11,"wl","Blue wildebeest bull",2,-23.2,31.26,321926.93,7433274.6
"50465",50465,1981,11,"wl","Blue wildebeest bull",4,-23.28,31.3,326125.15,7424464.08
"50578",50578,1981,12,"wl","Blue wildebeest bull",1,-23.26,31.03,298472.62,7426329.3
"50642",50642,1981,12,"wl","Blue wildebeest bull",1,-23.26,31.07,302565.63,7426384.33
"50645",50645,1981,12,"wl","Blue wildebeest bull",2,-23.28,31.05,300548.92,7424142
"50738",50738,1981,12,"wl","Blue wildebeest bull",5,-23.22,31.11,306600.89,7430868.03
"50851",50851,1981,12,"wl","Blue wildebeest bull",2,-23.28,31.17,312825.82,7424302.11
"50888",50888,1981,13,"wl","Blue wildebeest bull",1,-23.64,31.48,344959.72,7384804.76
"50954",50954,1981,13,"wl","Blue wildebeest bull",1,-23.7,31.51,348089.58,7378192.92
"50975",50975,1981,13,"wl","Blue wildebeest bull",1,-23.62,31.51,347997.11,7387051.69
"50976",50976,1981,13,"wl","Blue wildebeest bull",1,-23.62,31.51,347997.11,7387051.69
"50996",50996,1981,13,"wl","Blue wildebeest bull",1,-23.76,31.55,352235.99,7371590.94
"50997",50997,1981,13,"wl","Blue wildebeest bull",1,-23.76,31.57,354274.41,7371611.59
"51015",51015,1981,13,"wl","Blue wildebeest bull",1,-23.72,31.57,354229.89,7376040.93
"51021",51021,1981,13,"wl","Blue wildebeest bull",1,-23.74,31.55,352213.42,7373805.63
"51022",51022,1981,13,"wl","Blue wildebeest bull",1,-23.74,31.55,352213.42,7373805.63
"51029",51029,1981,13,"wl","Blue wildebeest bull",1,-23.68,31.55,352145.79,7380449.66
"51030",51030,1981,13,"wl","Blue wildebeest bull",1,-23.68,31.55,352145.79,7380449.66
"51034",51034,1981,13,"wl","Blue wildebeest bull",1,-23.68,31.57,354185.45,7380470.26
"51214",51214,1981,13,"wl","Blue wildebeest bull",1,-23.72,31.61,358307.93,7376081.31
"51248",51248,1981,13,"wl","Blue wildebeest bull",1,-23.64,31.59,356181.34,7384919.84
"51251",51251,1981,13,"wl","Blue wildebeest bull",1,-23.64,31.61,358221.6,7384939.83
"51256",51256,1981,13,"wl","Blue wildebeest bull",1,-23.66,31.59,356203.21,7382705.2
"51376",51376,1981,13,"wl","Blue wildebeest bull",1,-23.74,31.65,362406.92,7373905.92
"51392",51392,1981,13,"wl","Blue wildebeest bull",1,-23.66,31.63,360283.09,7382744.93
"51481",51481,1981,14,"wl","Blue wildebeest bull",1,-23.47,31.44,340674.15,7403585.83
"51490",51490,1981,14,"wl","Blue wildebeest bull",1,-23.49,31.44,340698.18,7401371.14
"51491",51491,1981,14,"wl","Blue wildebeest bull",3,-23.49,31.44,340698.18,7401371.14
"51494",51494,1981,14,"wl","Blue wildebeest bull",1,-23.45,31.42,338606.83,7405778.23
"51498",51498,1981,14,"wl","Blue wildebeest bull",3,-23.45,31.44,340650.13,7405800.52
"51549",51549,1981,14,"wl","Blue wildebeest bull",1,-23.53,31.46,342788.35,7396963.79
"51559",51559,1981,14,"wl","Blue wildebeest bull",1,-23.47,31.46,342717.13,7403607.85
"51569",51569,1981,14,"wl","Blue wildebeest bull",1,-23.49,31.46,342740.85,7401393.17
"51587",51587,1981,14,"wl","Blue wildebeest bull",1,-23.45,31.48,344736.7,7405844.24
"51596",51596,1981,14,"wl","Blue wildebeest bull",1,-23.56,31.51,347927.95,7393695.71
"51597",51597,1981,14,"wl","Blue wildebeest bull",1,-23.56,31.51,347927.95,7393695.71
"51683",51683,1981,14,"wl","Blue wildebeest bull",1,-23.58,31.55,352033.44,7391522.95
"51708",51708,1981,15,"wl","Blue wildebeest bull",1,-23.37,31.32,328286.89,7414521.6
"51733",51733,1981,15,"wl","Blue wildebeest bull",1,-23.35,31.36,332350.93,7416783.33
"51786",51786,1981,15,"wl","Blue wildebeest bull",1,-23.39,31.42,338533.99,7412422.31
"51793",51793,1981,15,"wl","Blue wildebeest bull",3,-23.41,31.42,338558.25,7410207.62
"51814",51814,1981,15,"wl","Blue wildebeest bull",1,-23.43,31.46,342669.74,7408037.19
"51830",51830,1981,15,"wl","Blue wildebeest bull",1,-23.41,31.48,344689.96,7410273.54
"52005",52005,1981,18,"wl","Blue wildebeest bull",1,-23.18,31.38,334185.52,7435631.19
"52008",52008,1981,18,"wl","Blue wildebeest bull",1,-23.18,31.4,336232.98,7435653.84
"52015",52015,1981,18,"wl","Blue wildebeest bull",1,-23.2,31.38,334210.18,7433416.52
"52016",52016,1981,18,"wl","Blue wildebeest bull",3,-23.2,31.38,334210.18,7433416.52
"52082",52082,1981,18,"wl","Blue wildebeest bull",1,-23.12,31.4,336160.03,7442297.75
"52083",52083,1981,18,"wl","Blue wildebeest bull",1,-23.12,31.4,336160.03,7442297.75
"52084",52084,1981,18,"wl","Blue wildebeest bull",1,-23.12,31.4,336160.03,7442297.75
"52122",52122,1981,18,"wl","Blue wildebeest bull",1,-23.22,31.44,340375.39,7431269.06
"52132",52132,1981,18,"wl","Blue wildebeest bull",1,-23.24,31.44,340399.18,7429054.43
"52151",52151,1981,18,"wl","Blue wildebeest bull",1,-23.18,31.44,340327.87,7435698.3
"52167",52167,1981,18,"wl","Blue wildebeest bull",1,-23.14,31.42,338232.38,7440105.46
"52175",52175,1981,18,"wl","Blue wildebeest bull",1,-23.16,31.42,338256.4,7437890.84
"52176",52176,1981,18,"wl","Blue wildebeest bull",1,-23.16,31.42,338256.4,7437890.84
"52206",52206,1981,18,"wl","Blue wildebeest bull",1,-23.12,31.42,338208.39,7442320.07
"52219",52219,1981,18,"wl","Blue wildebeest bull",1,-23.12,31.44,340256.74,7442342.12
"52224",52224,1981,18,"wl","Blue wildebeest bull",1,-23.26,31.46,342469.19,7426861.66
"52256",52256,1981,18,"wl","Blue wildebeest bull",3,-23.24,31.48,344492.18,7429097.85
"52518",52518,1981,19,"wl","Blue wildebeest bull",3,-23.6,31.65,362260.26,7389408.14
"52687",52687,1981,19,"wl","Blue wildebeest bull",1,-23.68,31.67,364383.57,7380568.93
"52796",52796,1981,19,"wl","Blue wildebeest bull",1,-23.87,31.73,370690.33,7359586.15
"52797",52797,1981,19,"wl","Blue wildebeest bull",2,-23.87,31.73,370690.33,7359586.15
"53074",53074,1981,20,"wl","Blue wildebeest bull",1,-24.1,31.4,337374.09,7333774.64
"53570",53570,1981,21,"wl","Blue wildebeest bull",1,-24.14,31.51,348603.46,7329468.17
"53652",53652,1981,21,"wl","Blue wildebeest bull",1,-24.18,31.59,356777.89,7325122.78
"53729",53729,1981,22,"wl","Blue wildebeest bull",1,-24.47,31.4,337844.82,7292798.32
"53730",53730,1981,22,"wl","Blue wildebeest bull",1,-24.47,31.4,337844.82,7292798.32
"53742",53742,1981,22,"wl","Blue wildebeest bull",1,-24.43,31.4,337793.61,7297228.28
"53752",53752,1981,22,"wl","Blue wildebeest bull",1,-24.45,31.4,337819.21,7295013.3
"53753",53753,1981,22,"wl","Blue wildebeest bull",1,-24.45,31.4,337819.21,7295013.3
"53783",53783,1981,22,"wl","Blue wildebeest bull",1,-24.35,31.4,337691.41,7306088.14
"53784",53784,1981,22,"wl","Blue wildebeest bull",1,-24.35,31.4,337691.41,7306088.14
"53811",53811,1981,22,"wl","Blue wildebeest bull",3,-24.47,31.42,339872.11,7292821.63
"53836",53836,1981,22,"wl","Blue wildebeest bull",1,-24.47,31.44,341899.37,7292844.64
"53837",53837,1981,22,"wl","Blue wildebeest bull",17,-24.47,31.44,341899.37,7292844.64
"53884",53884,1981,22,"wl","Blue wildebeest bull",1,-24.45,31.44,341874.4,7295059.6
"53900",53900,1981,22,"wl","Blue wildebeest bull",1,-24.39,31.44,341799.58,7301704.43
"53901",53901,1981,22,"wl","Blue wildebeest bull",1,-24.39,31.44,341799.58,7301704.43
"53918",53918,1981,22,"wl","Blue wildebeest bull",2,-24.41,31.44,341824.5,7299489.49
"53946",53946,1981,22,"wl","Blue wildebeest bull",1,-24.35,31.44,341749.8,7306134.29
"53947",53947,1981,22,"wl","Blue wildebeest bull",1,-24.35,31.44,341749.8,7306134.29
"53948",53948,1981,22,"wl","Blue wildebeest bull",1,-24.35,31.44,341749.8,7306134.29
"53949",53949,1981,22,"wl","Blue wildebeest bull",3,-24.35,31.44,341749.8,7306134.29
"53979",53979,1981,22,"wl","Blue wildebeest bull",1,-24.37,31.44,341774.68,7303919.37
"54006",54006,1981,22,"wl","Blue wildebeest bull",1,-24.47,31.46,343926.63,7292867.37
"54007",54007,1981,22,"wl","Blue wildebeest bull",1,-24.47,31.46,343926.63,7292867.37
"54030",54030,1981,22,"wl","Blue wildebeest bull",1,-24.43,31.48,345905.22,7297319.65
"54031",54031,1981,22,"wl","Blue wildebeest bull",5,-24.43,31.48,345905.22,7297319.65
"54048",54048,1981,22,"wl","Blue wildebeest bull",2,-24.45,31.46,343901.97,7295082.31
"54065",54065,1981,22,"wl","Blue wildebeest bull",1,-24.45,31.48,345929.54,7295104.72
"54066",54066,1981,22,"wl","Blue wildebeest bull",1,-24.45,31.48,345929.54,7295104.72
"54086",54086,1981,22,"wl","Blue wildebeest bull",1,-24.39,31.46,343828.12,7301727.1
"54087",54087,1981,22,"wl","Blue wildebeest bull",1,-24.39,31.46,343828.12,7301727.1
"54088",54088,1981,22,"wl","Blue wildebeest bull",3,-24.39,31.46,343828.12,7301727.1
"54122",54122,1981,22,"wl","Blue wildebeest bull",1,-24.35,31.46,343778.98,7306156.93
"54127",54127,1981,22,"wl","Blue wildebeest bull",1,-24.35,31.48,345808.14,7306179.28
"54149",54149,1981,22,"wl","Blue wildebeest bull",1,-24.37,31.46,343803.54,7303942.02
"54150",54150,1981,22,"wl","Blue wildebeest bull",2,-24.37,31.46,343803.54,7303942.02
"54151",54151,1981,22,"wl","Blue wildebeest bull",3,-24.37,31.46,343803.54,7303942.02
"54170",54170,1981,22,"wl","Blue wildebeest bull",1,-24.37,31.48,345832.38,7303964.38
"54171",54171,1981,22,"wl","Blue wildebeest bull",1,-24.37,31.48,345832.38,7303964.38
"54172",54172,1981,22,"wl","Blue wildebeest bull",1,-24.37,31.48,345832.38,7303964.38
"54173",54173,1981,22,"wl","Blue wildebeest bull",1,-24.37,31.48,345832.38,7303964.38
"54174",54174,1981,22,"wl","Blue wildebeest bull",2,-24.37,31.48,345832.38,7303964.38
"54221",54221,1981,22,"wl","Blue wildebeest bull",1,-24.43,31.51,348947.02,7297352.7
"54248",54248,1981,22,"wl","Blue wildebeest bull",1,-24.43,31.53,350974.88,7297374.37
"54249",54249,1981,22,"wl","Blue wildebeest bull",1,-24.43,31.53,350974.88,7297374.37
"54273",54273,1981,22,"wl","Blue wildebeest bull",1,-24.45,31.53,350998.39,7295159.48
"54292",54292,1981,22,"wl","Blue wildebeest bull",1,-24.39,31.53,350927.9,7301804.13
"54314",54314,1981,22,"wl","Blue wildebeest bull",1,-24.41,31.53,350951.38,7299589.25
"54315",54315,1981,22,"wl","Blue wildebeest bull",1,-24.41,31.53,350951.38,7299589.25
"54342",54342,1981,22,"wl","Blue wildebeest bull",1,-24.37,31.51,348875.62,7303997.37
"54486",54486,1981,23,"wl","Blue wildebeest bull",1,-24.18,31.65,362873.22,7325182.93
"54487",54487,1981,23,"wl","Blue wildebeest bull",2,-24.18,31.65,362873.22,7325182.93
"54494",54494,1981,23,"wl","Blue wildebeest bull",1,-24.2,31.65,362894.6,7322968.18
"54499",54499,1981,23,"wl","Blue wildebeest bull",1,-24.14,31.63,360798.09,7329592.67
"54520",54520,1981,23,"wl","Blue wildebeest bull",1,-24.16,31.63,360819.76,7327377.92
"54551",54551,1981,23,"wl","Blue wildebeest bull",1,-24.26,31.67,364989.35,7316343.43
"54565",54565,1981,23,"wl","Blue wildebeest bull",2,-24.22,31.69,366978.23,7320792.12
"54609",54609,1981,23,"wl","Blue wildebeest bull",1,-24.14,31.67,364862.88,7329631.84
"54666",54666,1981,23,"wl","Blue wildebeest bull",1,-24.1,31.67,364820.85,7334061.27
"54667",54667,1981,23,"wl","Blue wildebeest bull",1,-24.1,31.67,364820.85,7334061.27
"54668",54668,1981,23,"wl","Blue wildebeest bull",1,-24.1,31.67,364820.85,7334061.27
"54669",54669,1981,23,"wl","Blue wildebeest bull",1,-24.1,31.67,364820.85,7334061.27
"54710",54710,1981,23,"wl","Blue wildebeest bull",1,-24.12,31.67,364841.86,7331846.56
"54711",54711,1981,23,"wl","Blue wildebeest bull",1,-24.12,31.67,364841.86,7331846.56
"54729",54729,1981,23,"wl","Blue wildebeest bull",1,-24.12,31.69,366874.55,7331865.7
"54730",54730,1981,23,"wl","Blue wildebeest bull",1,-24.12,31.69,366874.55,7331865.7
"54731",54731,1981,23,"wl","Blue wildebeest bull",2,-24.12,31.69,366874.55,7331865.7
"54800",54800,1981,23,"wl","Blue wildebeest bull",1,-24.08,31.69,366833.19,7336295.09
"54801",54801,1981,23,"wl","Blue wildebeest bull",1,-24.08,31.69,366833.19,7336295.09
"54814",54814,1981,23,"wl","Blue wildebeest bull",1,-24.26,31.73,371080.73,7316400.23
"54815",54815,1981,23,"wl","Blue wildebeest bull",1,-24.26,31.73,371080.73,7316400.23
"54818",54818,1981,23,"wl","Blue wildebeest bull",1,-24.22,31.71,369009.33,7320811.03
"54824",54824,1981,23,"wl","Blue wildebeest bull",1,-24.22,31.73,371040.42,7320829.65
"54825",54825,1981,23,"wl","Blue wildebeest bull",1,-24.22,31.73,371040.42,7320829.65
"54843",54843,1981,23,"wl","Blue wildebeest bull",1,-24.2,31.71,368988.88,7323025.75
"54844",54844,1981,23,"wl","Blue wildebeest bull",1,-24.2,31.71,368988.88,7323025.75
"54845",54845,1981,23,"wl","Blue wildebeest bull",2,-24.2,31.71,368988.88,7323025.75
"54846",54846,1981,23,"wl","Blue wildebeest bull",4,-24.2,31.71,368988.88,7323025.75
"54857",54857,1981,23,"wl","Blue wildebeest bull",1,-24.14,31.71,368927.62,7329669.86
"54865",54865,1981,23,"wl","Blue wildebeest bull",2,-24.16,31.71,368948.02,7327455.16
"54883",54883,1981,23,"wl","Blue wildebeest bull",1,-24.1,31.71,368886.86,7334099.23
"54884",54884,1981,23,"wl","Blue wildebeest bull",2,-24.1,31.71,368886.86,7334099.23
"54914",54914,1981,23,"wl","Blue wildebeest bull",1,-24.08,31.71,368866.5,7336313.92
"54915",54915,1981,23,"wl","Blue wildebeest bull",1,-24.08,31.71,368866.5,7336313.92
"54955",54955,1981,24,"wl","Blue wildebeest bull",1,-24.39,31.61,359041.75,7301887.77
"54956",54956,1981,24,"wl","Blue wildebeest bull",2,-24.39,31.61,359041.75,7301887.77
"55022",55022,1981,24,"wl","Blue wildebeest bull",1,-24.33,31.59,356945.85,7308511.78
"55079",55079,1981,24,"wl","Blue wildebeest bull",2,-24.28,31.61,358919.95,7314069.22
"55157",55157,1981,24,"wl","Blue wildebeest bull",1,-24.26,31.63,360928.37,7316304.11
"55158",55158,1981,24,"wl","Blue wildebeest bull",20,-24.26,31.63,360928.37,7316304.11
"55162",55162,1981,24,"wl","Blue wildebeest bull",2,-24.26,31.65,362958.86,7316323.92
"55203",55203,1981,24,"wl","Blue wildebeest bull",4,-24.39,31.67,365127.02,7301947.43
"55239",55239,1981,24,"wl","Blue wildebeest bull",1,-24.37,31.67,365105.8,7304162.21
"55272",55272,1981,24,"wl","Blue wildebeest bull",1,-24.33,31.67,365063.39,7308591.77
"55273",55273,1981,24,"wl","Blue wildebeest bull",1,-24.33,31.67,365063.39,7308591.77
"55303",55303,1981,24,"wl","Blue wildebeest bull",3,-24.31,31.71,369101.56,7310844.75
"55310",55310,1981,24,"wl","Blue wildebeest bull",2,-24.31,31.73,371131.22,7310863.42
"55326",55326,1981,24,"wl","Blue wildebeest bull",1,-24.33,31.73,371151.44,7308648.69
"55330",55330,1981,24,"wl","Blue wildebeest bull",1,-24.28,31.71,369070.78,7314166.86
"55349",55349,1981,24,"wl","Blue wildebeest bull",1,-24.39,31.76,374254.75,7302031.98
"55350",55350,1981,24,"wl","Blue wildebeest bull",1,-24.39,31.76,374254.75,7302031.98
"55370",55370,1981,24,"wl","Blue wildebeest bull",2,-24.33,31.76,374195.43,7308676.16
"55374",55374,1981,25,"wl","Blue wildebeest bull",1,-24.14,31.73,370959.98,7329688.43
"55399",55399,1981,25,"wl","Blue wildebeest bull",1,-24.12,31.73,370939.9,7331903.11
"55400",55400,1981,25,"wl","Blue wildebeest bull",1,-24.12,31.73,370939.9,7331903.11
"55427",55427,1981,25,"wl","Blue wildebeest bull",1,-24.06,31.73,370879.78,7338547.12
"55485",55485,1981,25,"wl","Blue wildebeest bull",1,-24.03,31.73,370849.78,7341869.1
"55491",55491,1981,25,"wl","Blue wildebeest bull",1,-24.18,31.78,376079.42,7325304.26
"55507",55507,1981,25,"wl","Blue wildebeest bull",1,-24.1,31.78,376002.27,7334162.89
"55508",55508,1981,25,"wl","Blue wildebeest bull",1,-24.1,31.78,376002.27,7334162.89
"55536",55536,1981,25,"wl","Blue wildebeest bull",1,-24.06,31.76,373930.19,7338574.36
"55570",55570,1981,25,"wl","Blue wildebeest bull",1,-24.08,31.78,375983.02,7336377.53
"55623",55623,1981,25,"wl","Blue wildebeest bull",1,-24.03,31.76,373900.89,7341896.32
"55675",55675,1981,25,"wl","Blue wildebeest bull",1,-24.14,31.8,378073.13,7329751.14
"55695",55695,1981,25,"wl","Blue wildebeest bull",1,-24.1,31.82,380068.16,7334197.66
"55696",55696,1981,25,"wl","Blue wildebeest bull",1,-24.1,31.82,380068.16,7334197.66
"55723",55723,1981,25,"wl","Blue wildebeest bull",1,-24.12,31.82,380086.79,7331983.04
"55738",55738,1981,25,"wl","Blue wildebeest bull",3,-24.06,31.82,380030.94,7338626.9
"55751",55751,1981,25,"wl","Blue wildebeest bull",1,-24.08,31.82,380049.54,7336412.28
"55752",55752,1981,25,"wl","Blue wildebeest bull",1,-24.08,31.82,380049.54,7336412.28
"55819",55819,1981,25,"wl","Blue wildebeest bull",3,-24.03,31.82,380003.06,7341948.81
"55834",55834,1981,25,"wl","Blue wildebeest bull",2,-24.14,31.84,382137.74,7329785.38
"55843",55843,1981,25,"wl","Blue wildebeest bull",2,-24.16,31.84,382156.09,7327570.76
"55854",55854,1981,25,"wl","Blue wildebeest bull",1,-24.1,31.84,382101.09,7334214.62
"55855",55855,1981,25,"wl","Blue wildebeest bull",1,-24.1,31.84,382101.09,7334214.62
"55872",55872,1981,25,"wl","Blue wildebeest bull",1,-24.12,31.84,382119.41,7332000
"55873",55873,1981,25,"wl","Blue wildebeest bull",1,-24.12,31.84,382119.41,7332000
"55886",55886,1981,25,"wl","Blue wildebeest bull",1,-24.06,31.84,382064.5,7338643.83
"55912",55912,1981,25,"wl","Blue wildebeest bull",1,-24.08,31.84,382082.79,7336429.23
"55913",55913,1981,25,"wl","Blue wildebeest bull",3,-24.08,31.84,382082.79,7336429.23
"55986",55986,1981,25,"wl","Blue wildebeest bull",1,-24.16,31.88,386220.02,7327603.85
"56043",56043,1981,26,"wl","Blue wildebeest bull",1,-24.39,31.78,376283.1,7302049.96
"56044",56044,1981,26,"wl","Blue wildebeest bull",3,-24.39,31.78,376283.1,7302049.96
"56051",56051,1981,26,"wl","Blue wildebeest bull",1,-24.35,31.78,376244.18,7306479.4
"56070",56070,1981,26,"wl","Blue wildebeest bull",2,-24.37,31.78,376263.63,7304264.68
"56071",56071,1981,26,"wl","Blue wildebeest bull",2,-24.37,31.78,376263.63,7304264.68
"56082",56082,1981,26,"wl","Blue wildebeest bull",1,-24.33,31.76,374195.43,7308676.16
"56094",56094,1981,26,"wl","Blue wildebeest bull",1,-24.26,31.76,374126.39,7316427.64
"56102",56102,1981,26,"wl","Blue wildebeest bull",1,-24.26,31.78,376156.82,7316445.55
"56106",56106,1981,26,"wl","Blue wildebeest bull",1,-24.28,31.76,374146.1,7314212.94
"56118",56118,1981,26,"wl","Blue wildebeest bull",1,-24.22,31.76,374087.03,7320857.03
"56119",56119,1981,26,"wl","Blue wildebeest bull",2,-24.22,31.76,374087.03,7320857.03
"56133",56133,1981,26,"wl","Blue wildebeest bull",1,-24.39,31.8,378311.44,7302067.65
"56134",56134,1981,26,"wl","Blue wildebeest bull",1,-24.39,31.8,378311.44,7302067.65
"56135",56135,1981,26,"wl","Blue wildebeest bull",1,-24.39,31.8,378311.44,7302067.65
"56136",56136,1981,26,"wl","Blue wildebeest bull",1,-24.39,31.8,378311.44,7302067.65
"56137",56137,1981,26,"wl","Blue wildebeest bull",1,-24.39,31.8,378311.44,7302067.65
"56138",56138,1981,26,"wl","Blue wildebeest bull",2,-24.39,31.8,378311.44,7302067.65
"56139",56139,1981,26,"wl","Blue wildebeest bull",3,-24.39,31.8,378311.44,7302067.65
"56148",56148,1981,26,"wl","Blue wildebeest bull",1,-24.39,31.82,380339.78,7302085.05
"56149",56149,1981,26,"wl","Blue wildebeest bull",1,-24.39,31.82,380339.78,7302085.05
"56150",56150,1981,26,"wl","Blue wildebeest bull",1,-24.39,31.82,380339.78,7302085.05
"56151",56151,1981,26,"wl","Blue wildebeest bull",1,-24.39,31.82,380339.78,7302085.05
"56152",56152,1981,26,"wl","Blue wildebeest bull",1,-24.39,31.82,380339.78,7302085.05
"56153",56153,1981,26,"wl","Blue wildebeest bull",1,-24.39,31.82,380339.78,7302085.05
"56154",56154,1981,26,"wl","Blue wildebeest bull",1,-24.39,31.82,380339.78,7302085.05
"56155",56155,1981,26,"wl","Blue wildebeest bull",1,-24.39,31.82,380339.78,7302085.05
"56156",56156,1981,26,"wl","Blue wildebeest bull",1,-24.39,31.82,380339.78,7302085.05
"56157",56157,1981,26,"wl","Blue wildebeest bull",1,-24.39,31.82,380339.78,7302085.05
"56158",56158,1981,26,"wl","Blue wildebeest bull",2,-24.39,31.82,380339.78,7302085.05
"56159",56159,1981,26,"wl","Blue wildebeest bull",2,-24.39,31.82,380339.78,7302085.05
"56160",56160,1981,26,"wl","Blue wildebeest bull",3,-24.39,31.82,380339.78,7302085.05
"56166",56166,1981,26,"wl","Blue wildebeest bull",1,-24.41,31.8,378330.61,7299852.94
"56180",56180,1981,26,"wl","Blue wildebeest bull",1,-24.35,31.82,380302.13,7306514.45
"56192",56192,1981,26,"wl","Blue wildebeest bull",1,-24.37,31.8,378292.29,7304282.36
"56193",56193,1981,26,"wl","Blue wildebeest bull",1,-24.37,31.8,378292.29,7304282.36
"56194",56194,1981,26,"wl","Blue wildebeest bull",1,-24.37,31.8,378292.29,7304282.36
"56195",56195,1981,26,"wl","Blue wildebeest bull",1,-24.37,31.8,378292.29,7304282.36
"56210",56210,1981,26,"wl","Blue wildebeest bull",1,-24.37,31.82,380320.95,7304299.75
"56230",56230,1981,26,"wl","Blue wildebeest bull",1,-24.33,31.8,378254.04,7308711.77
"56259",56259,1981,26,"wl","Blue wildebeest bull",1,-24.28,31.82,380236.39,7314265.84
"56260",56260,1981,26,"wl","Blue wildebeest bull",1,-24.28,31.82,380236.39,7314265.84
"56282",56282,1981,26,"wl","Blue wildebeest bull",1,-24.18,31.8,378111.11,7325321.84
"56294",56294,1981,26,"wl","Blue wildebeest bull",1,-24.2,31.82,380161.48,7323124.48
"56295",56295,1981,26,"wl","Blue wildebeest bull",1,-24.2,31.82,380161.48,7323124.48
"56319",56319,1981,26,"wl","Blue wildebeest bull",1,-24.39,31.84,382368.1,7302102.16
"56320",56320,1981,26,"wl","Blue wildebeest bull",1,-24.39,31.84,382368.1,7302102.16
"56321",56321,1981,26,"wl","Blue wildebeest bull",1,-24.39,31.84,382368.1,7302102.16
"56322",56322,1981,26,"wl","Blue wildebeest bull",1,-24.39,31.84,382368.1,7302102.16
"56323",56323,1981,26,"wl","Blue wildebeest bull",2,-24.39,31.84,382368.1,7302102.16
"56324",56324,1981,26,"wl","Blue wildebeest bull",2,-24.39,31.84,382368.1,7302102.16
"56325",56325,1981,26,"wl","Blue wildebeest bull",2,-24.39,31.84,382368.1,7302102.16
"56351",56351,1981,26,"wl","Blue wildebeest bull",1,-24.39,31.86,384396.42,7302118.97
"56352",56352,1981,26,"wl","Blue wildebeest bull",1,-24.39,31.86,384396.42,7302118.97
"56353",56353,1981,26,"wl","Blue wildebeest bull",1,-24.39,31.86,384396.42,7302118.97
"56354",56354,1981,26,"wl","Blue wildebeest bull",1,-24.39,31.86,384396.42,7302118.97
"56355",56355,1981,26,"wl","Blue wildebeest bull",2,-24.39,31.86,384396.42,7302118.97
"56356",56356,1981,26,"wl","Blue wildebeest bull",3,-24.39,31.86,384396.42,7302118.97
"56367",56367,1981,26,"wl","Blue wildebeest bull",1,-24.35,31.86,384360.05,7306548.33
"56368",56368,1981,26,"wl","Blue wildebeest bull",1,-24.35,31.86,384360.05,7306548.33
"56369",56369,1981,26,"wl","Blue wildebeest bull",4,-24.35,31.86,384360.05,7306548.33
"56370",56370,1981,26,"wl","Blue wildebeest bull",5,-24.35,31.86,384360.05,7306548.33
"56380",56380,1981,26,"wl","Blue wildebeest bull",1,-24.37,31.84,382349.59,7304316.85
"56381",56381,1981,26,"wl","Blue wildebeest bull",1,-24.37,31.84,382349.59,7304316.85
"56382",56382,1981,26,"wl","Blue wildebeest bull",1,-24.37,31.84,382349.59,7304316.85
"56383",56383,1981,26,"wl","Blue wildebeest bull",1,-24.37,31.84,382349.59,7304316.85
"56384",56384,1981,26,"wl","Blue wildebeest bull",1,-24.37,31.84,382349.59,7304316.85
"56385",56385,1981,26,"wl","Blue wildebeest bull",1,-24.37,31.84,382349.59,7304316.85
"56386",56386,1981,26,"wl","Blue wildebeest bull",1,-24.37,31.84,382349.59,7304316.85
"56387",56387,1981,26,"wl","Blue wildebeest bull",2,-24.37,31.84,382349.59,7304316.85
"56403",56403,1981,26,"wl","Blue wildebeest bull",1,-24.31,31.84,382294.14,7310960.88
"56438",56438,1981,26,"wl","Blue wildebeest bull",1,-24.33,31.86,384341.88,7308762.99
"56439",56439,1981,26,"wl","Blue wildebeest bull",3,-24.33,31.86,384341.88,7308762.99
"56445",56445,1981,26,"wl","Blue wildebeest bull",1,-24.26,31.84,382248.04,7316497.54
"56450",56450,1981,26,"wl","Blue wildebeest bull",1,-24.28,31.84,382266.47,7314282.88
"56451",56451,1981,26,"wl","Blue wildebeest bull",1,-24.28,31.84,382266.47,7314282.88
"56454",56454,1981,26,"wl","Blue wildebeest bull",1,-24.28,31.86,384296.54,7314299.64
"56460",56460,1981,26,"wl","Blue wildebeest bull",1,-24.24,31.84,382229.62,7318712.2
"56470",56470,1981,26,"wl","Blue wildebeest bull",1,-24.39,31.88,386424.72,7302135.49
"56471",56471,1981,26,"wl","Blue wildebeest bull",1,-24.39,31.88,386424.72,7302135.49
"56472",56472,1981,26,"wl","Blue wildebeest bull",1,-24.39,31.88,386424.72,7302135.49
"56473",56473,1981,26,"wl","Blue wildebeest bull",2,-24.39,31.88,386424.72,7302135.49
"56474",56474,1981,26,"wl","Blue wildebeest bull",3,-24.39,31.88,386424.72,7302135.49
"56483",56483,1981,26,"wl","Blue wildebeest bull",1,-24.39,31.9,388453.02,7302151.72
"56484",56484,1981,26,"wl","Blue wildebeest bull",1,-24.39,31.9,388453.02,7302151.72
"56485",56485,1981,26,"wl","Blue wildebeest bull",1,-24.39,31.9,388453.02,7302151.72
"56498",56498,1981,26,"wl","Blue wildebeest bull",1,-24.35,31.88,386388.99,7306564.83
"56499",56499,1981,26,"wl","Blue wildebeest bull",1,-24.35,31.88,386388.99,7306564.83
"56500",56500,1981,26,"wl","Blue wildebeest bull",3,-24.35,31.88,386388.99,7306564.83
"56502",56502,1981,26,"wl","Blue wildebeest bull",1,-24.35,31.9,388417.93,7306581.04
"56503",56503,1981,26,"wl","Blue wildebeest bull",1,-24.35,31.9,388417.93,7306581.04
"56504",56504,1981,26,"wl","Blue wildebeest bull",1,-24.35,31.9,388417.93,7306581.04
"56505",56505,1981,26,"wl","Blue wildebeest bull",2,-24.35,31.9,388417.93,7306581.04
"56506",56506,1981,26,"wl","Blue wildebeest bull",2,-24.35,31.9,388417.93,7306581.04
"56521",56521,1981,26,"wl","Blue wildebeest bull",1,-24.37,31.88,386406.85,7304350.16
"56522",56522,1981,26,"wl","Blue wildebeest bull",1,-24.37,31.88,386406.85,7304350.16
"56523",56523,1981,26,"wl","Blue wildebeest bull",1,-24.37,31.88,386406.85,7304350.16
"56524",56524,1981,26,"wl","Blue wildebeest bull",1,-24.37,31.88,386406.85,7304350.16
"56525",56525,1981,26,"wl","Blue wildebeest bull",2,-24.37,31.88,386406.85,7304350.16
"56534",56534,1981,26,"wl","Blue wildebeest bull",1,-24.37,31.9,388435.47,7304366.38
"56535",56535,1981,26,"wl","Blue wildebeest bull",1,-24.37,31.9,388435.47,7304366.38
"56536",56536,1981,26,"wl","Blue wildebeest bull",1,-24.37,31.9,388435.47,7304366.38
"56537",56537,1981,26,"wl","Blue wildebeest bull",1,-24.37,31.9,388435.47,7304366.38
"56538",56538,1981,26,"wl","Blue wildebeest bull",1,-24.37,31.9,388435.47,7304366.38
"56539",56539,1981,26,"wl","Blue wildebeest bull",2,-24.37,31.9,388435.47,7304366.38
"56540",56540,1981,26,"wl","Blue wildebeest bull",2,-24.37,31.9,388435.47,7304366.38
"56547",56547,1981,26,"wl","Blue wildebeest bull",1,-24.33,31.88,386371.15,7308779.48
"56548",56548,1981,26,"wl","Blue wildebeest bull",1,-24.33,31.88,386371.15,7308779.48
"56549",56549,1981,26,"wl","Blue wildebeest bull",7,-24.33,31.88,386371.15,7308779.48
"56566",56566,1981,26,"wl","Blue wildebeest bull",1,-24.39,31.92,390481.31,7302167.66
"56567",56567,1981,26,"wl","Blue wildebeest bull",1,-24.39,31.92,390481.31,7302167.66
"56572",56572,1981,27,"wl","Blue wildebeest bull",1,-24.26,31.86,384278.42,7316514.29
"56573",56573,1981,27,"wl","Blue wildebeest bull",1,-24.28,31.86,384296.54,7314299.64
"56574",56574,1981,27,"wl","Blue wildebeest bull",1,-24.28,31.86,384296.54,7314299.64
"56585",56585,1981,27,"wl","Blue wildebeest bull",1,-24.22,31.86,384242.24,7320943.57
"56588",56588,1981,27,"wl","Blue wildebeest bull",1,-24.24,31.84,382229.62,7318712.2
"56589",56589,1981,27,"wl","Blue wildebeest bull",1,-24.24,31.84,382229.62,7318712.2
"56593",56593,1981,27,"wl","Blue wildebeest bull",1,-24.24,31.86,384260.32,7318728.93
"56594",56594,1981,27,"wl","Blue wildebeest bull",4,-24.24,31.86,384260.32,7318728.93
"56604",56604,1981,27,"wl","Blue wildebeest bull",1,-24.2,31.84,382192.82,7323141.49
"56616",56616,1981,27,"wl","Blue wildebeest bull",1,-24.35,31.9,388417.93,7306581.04
"56633",56633,1981,27,"wl","Blue wildebeest bull",1,-24.31,31.88,386353.32,7310994.14
"56634",56634,1981,27,"wl","Blue wildebeest bull",1,-24.31,31.88,386353.32,7310994.14
"56635",56635,1981,27,"wl","Blue wildebeest bull",3,-24.31,31.88,386353.32,7310994.14
"56655",56655,1981,27,"wl","Blue wildebeest bull",1,-24.31,31.9,388382.89,7311010.33
"56656",56656,1981,27,"wl","Blue wildebeest bull",1,-24.31,31.9,388382.89,7311010.33
"56657",56657,1981,27,"wl","Blue wildebeest bull",1,-24.31,31.9,388382.89,7311010.33
"56664",56664,1981,27,"wl","Blue wildebeest bull",1,-24.33,31.9,388400.4,7308795.68
"56665",56665,1981,27,"wl","Blue wildebeest bull",1,-24.33,31.9,388400.4,7308795.68
"56666",56666,1981,27,"wl","Blue wildebeest bull",1,-24.33,31.9,388400.4,7308795.68
"56682",56682,1981,27,"wl","Blue wildebeest bull",1,-24.28,31.88,386326.6,7314316.11
"56683",56683,1981,27,"wl","Blue wildebeest bull",2,-24.28,31.88,386326.6,7314316.11
"56702",56702,1981,27,"wl","Blue wildebeest bull",1,-24.22,31.9,388304.25,7320976.15
"56728",56728,1981,27,"wl","Blue wildebeest bull",1,-24.24,31.9,388321.7,7318761.53
"56775",56775,1981,27,"wl","Blue wildebeest bull",1,-24.35,31.94,392475.77,7306612.58
"56776",56776,1981,27,"wl","Blue wildebeest bull",3,-24.35,31.94,392475.77,7306612.58
"56801",56801,1981,27,"wl","Blue wildebeest bull",2,-24.37,31.94,392492.67,7304397.94
"56866",56866,1981,27,"wl","Blue wildebeest bull",2,-24.28,31.94,392416.72,7314363.75
"56916",56916,1981,27,"wl","Blue wildebeest bull",1,-24.39,31.96,394537.86,7302198.65
"56936",56936,1981,27,"wl","Blue wildebeest bull",1,-24.41,31.96,394554.47,7299984.02
"57022",57022,1981,28,"wl","Blue wildebeest bull",1,-24.47,31.82,380415.25,7293226.19
"57024",57024,1981,28,"wl","Blue wildebeest bull",1,-24.49,31.8,378407.41,7290994.01
"57049",57049,1981,28,"wl","Blue wildebeest bull",1,-24.41,31.8,378330.61,7299852.94
"57063",57063,1981,28,"wl","Blue wildebeest bull",1,-24.41,31.82,380358.62,7299870.35
"57072",57072,1981,28,"wl","Blue wildebeest bull",1,-24.47,31.84,382442.29,7293243.34
"57088",57088,1981,28,"wl","Blue wildebeest bull",1,-24.49,31.86,384487.59,7291045.49
"57089",57089,1981,28,"wl","Blue wildebeest bull",1,-24.49,31.86,384487.59,7291045.49
"57119",57119,1981,28,"wl","Blue wildebeest bull",1,-24.41,31.84,382386.63,7299887.46
"57120",57120,1981,28,"wl","Blue wildebeest bull",1,-24.41,31.84,382386.63,7299887.46
"57136",57136,1981,28,"wl","Blue wildebeest bull",1,-24.64,31.9,388673.58,7274468
"57137",57137,1981,28,"wl","Blue wildebeest bull",1,-24.64,31.9,388673.58,7274468
"57138",57138,1981,28,"wl","Blue wildebeest bull",1,-24.64,31.9,388673.58,7274468
"57139",57139,1981,28,"wl","Blue wildebeest bull",1,-24.64,31.9,388673.58,7274468
"57140",57140,1981,28,"wl","Blue wildebeest bull",1,-24.64,31.9,388673.58,7274468
"57141",57141,1981,28,"wl","Blue wildebeest bull",1,-24.64,31.9,388673.58,7274468
"57142",57142,1981,28,"wl","Blue wildebeest bull",2,-24.64,31.9,388673.58,7274468
"57143",57143,1981,28,"wl","Blue wildebeest bull",2,-24.64,31.9,388673.58,7274468
"57147",57147,1981,28,"wl","Blue wildebeest bull",1,-24.66,31.9,388691.32,7272253.26
"57148",57148,1981,28,"wl","Blue wildebeest bull",1,-24.66,31.9,388691.32,7272253.26
"57149",57149,1981,28,"wl","Blue wildebeest bull",1,-24.66,31.9,388691.32,7272253.26
"57150",57150,1981,28,"wl","Blue wildebeest bull",1,-24.66,31.9,388691.32,7272253.26
"57157",57157,1981,28,"wl","Blue wildebeest bull",1,-24.6,31.88,386613.22,7278881.12
"57160",57160,1981,28,"wl","Blue wildebeest bull",1,-24.6,31.9,388638.15,7278897.46
"57161",57161,1981,28,"wl","Blue wildebeest bull",1,-24.6,31.9,388638.15,7278897.46
"57162",57162,1981,28,"wl","Blue wildebeest bull",1,-24.6,31.9,388638.15,7278897.46
"57163",57163,1981,28,"wl","Blue wildebeest bull",1,-24.6,31.9,388638.15,7278897.46
"57164",57164,1981,28,"wl","Blue wildebeest bull",2,-24.6,31.9,388638.15,7278897.46
"57167",57167,1981,28,"wl","Blue wildebeest bull",1,-24.62,31.88,386631.25,7276666.39
"57168",57168,1981,28,"wl","Blue wildebeest bull",1,-24.62,31.88,386631.25,7276666.39
"57173",57173,1981,28,"wl","Blue wildebeest bull",1,-24.62,31.9,388655.86,7276682.73
"57174",57174,1981,28,"wl","Blue wildebeest bull",1,-24.62,31.9,388655.86,7276682.73
"57175",57175,1981,28,"wl","Blue wildebeest bull",1,-24.62,31.9,388655.86,7276682.73
"57176",57176,1981,28,"wl","Blue wildebeest bull",1,-24.62,31.9,388655.86,7276682.73
"57177",57177,1981,28,"wl","Blue wildebeest bull",1,-24.62,31.9,388655.86,7276682.73
"57178",57178,1981,28,"wl","Blue wildebeest bull",1,-24.62,31.9,388655.86,7276682.73
"57186",57186,1981,28,"wl","Blue wildebeest bull",1,-24.56,31.88,386577.2,7283310.57
"57196",57196,1981,28,"wl","Blue wildebeest bull",1,-24.56,31.9,388602.77,7283326.89
"57197",57197,1981,28,"wl","Blue wildebeest bull",1,-24.56,31.9,388602.77,7283326.89
"57198",57198,1981,28,"wl","Blue wildebeest bull",1,-24.56,31.9,388602.77,7283326.89
"57199",57199,1981,28,"wl","Blue wildebeest bull",1,-24.56,31.9,388602.77,7283326.89
"57210",57210,1981,28,"wl","Blue wildebeest bull",1,-24.58,31.88,386595.2,7281095.85
"57217",57217,1981,28,"wl","Blue wildebeest bull",1,-24.58,31.9,388620.45,7281112.17
"57218",57218,1981,28,"wl","Blue wildebeest bull",1,-24.58,31.9,388620.45,7281112.17
"57219",57219,1981,28,"wl","Blue wildebeest bull",1,-24.58,31.9,388620.45,7281112.17
"57223",57223,1981,28,"wl","Blue wildebeest bull",1,-24.51,31.88,386532.25,7288847.36
"57227",57227,1981,28,"wl","Blue wildebeest bull",1,-24.51,31.9,388558.62,7288863.65
"57234",57234,1981,28,"wl","Blue wildebeest bull",2,-24.53,31.88,386550.22,7286632.65
"57239",57239,1981,28,"wl","Blue wildebeest bull",1,-24.53,31.9,388576.27,7286648.95
"57240",57240,1981,28,"wl","Blue wildebeest bull",1,-24.53,31.9,388576.27,7286648.95
"57246",57246,1981,28,"wl","Blue wildebeest bull",1,-24.47,31.88,386496.35,7293276.76
"57251",57251,1981,28,"wl","Blue wildebeest bull",2,-24.47,31.9,388523.37,7293293.03
"57257",57257,1981,28,"wl","Blue wildebeest bull",1,-24.49,31.88,386514.29,7291062.06
"57258",57258,1981,28,"wl","Blue wildebeest bull",1,-24.49,31.88,386514.29,7291062.06
"57259",57259,1981,28,"wl","Blue wildebeest bull",1,-24.49,31.88,386514.29,7291062.06
"57260",57260,1981,28,"wl","Blue wildebeest bull",1,-24.49,31.88,386514.29,7291062.06
"57261",57261,1981,28,"wl","Blue wildebeest bull",1,-24.49,31.88,386514.29,7291062.06
"57262",57262,1981,28,"wl","Blue wildebeest bull",3,-24.49,31.88,386514.29,7291062.06
"57269",57269,1981,28,"wl","Blue wildebeest bull",1,-24.49,31.9,388540.99,7291078.34
"57270",57270,1981,28,"wl","Blue wildebeest bull",4,-24.49,31.9,388540.99,7291078.34
"57280",57280,1981,28,"wl","Blue wildebeest bull",2,-24.45,31.9,388505.76,7295507.71
"57287",57287,1981,28,"wl","Blue wildebeest bull",2,-24.39,31.88,386424.72,7302135.49
"57288",57288,1981,28,"wl","Blue wildebeest bull",2,-24.39,31.88,386424.72,7302135.49
"57303",57303,1981,28,"wl","Blue wildebeest bull",1,-24.41,31.88,386442.61,7299920.82
"57326",57326,1981,28,"wl","Blue wildebeest bull",1,-24.64,31.92,390697.86,7274484.06
"57327",57327,1981,28,"wl","Blue wildebeest bull",1,-24.64,31.92,390697.86,7274484.06
"57328",57328,1981,28,"wl","Blue wildebeest bull",1,-24.64,31.92,390697.86,7274484.06
"57329",57329,1981,28,"wl","Blue wildebeest bull",1,-24.64,31.92,390697.86,7274484.06
"57342",57342,1981,28,"wl","Blue wildebeest bull",1,-24.6,31.92,390663.07,7278913.49
"57343",57343,1981,28,"wl","Blue wildebeest bull",1,-24.6,31.92,390663.07,7278913.49
"57344",57344,1981,28,"wl","Blue wildebeest bull",2,-24.6,31.92,390663.07,7278913.49
"57345",57345,1981,28,"wl","Blue wildebeest bull",2,-24.6,31.92,390663.07,7278913.49
"57356",57356,1981,28,"wl","Blue wildebeest bull",1,-24.6,31.94,392687.98,7278929.24
"57357",57357,1981,28,"wl","Blue wildebeest bull",1,-24.6,31.94,392687.98,7278929.24
"57358",57358,1981,28,"wl","Blue wildebeest bull",1,-24.6,31.94,392687.98,7278929.24
"57359",57359,1981,28,"wl","Blue wildebeest bull",2,-24.6,31.94,392687.98,7278929.24
"57360",57360,1981,28,"wl","Blue wildebeest bull",2,-24.6,31.94,392687.98,7278929.24
"57361",57361,1981,28,"wl","Blue wildebeest bull",2,-24.6,31.94,392687.98,7278929.24
"57371",57371,1981,28,"wl","Blue wildebeest bull",1,-24.62,31.92,390680.45,7276698.78
"57372",57372,1981,28,"wl","Blue wildebeest bull",1,-24.62,31.92,390680.45,7276698.78
"57373",57373,1981,28,"wl","Blue wildebeest bull",1,-24.62,31.92,390680.45,7276698.78
"57378",57378,1981,28,"wl","Blue wildebeest bull",1,-24.62,31.94,392705.04,7276714.53
"57379",57379,1981,28,"wl","Blue wildebeest bull",1,-24.62,31.94,392705.04,7276714.53
"57380",57380,1981,28,"wl","Blue wildebeest bull",1,-24.62,31.94,392705.04,7276714.53
"57393",57393,1981,28,"wl","Blue wildebeest bull",1,-24.56,31.92,390628.33,7283342.91
"57394",57394,1981,28,"wl","Blue wildebeest bull",1,-24.56,31.92,390628.33,7283342.91
"57395",57395,1981,28,"wl","Blue wildebeest bull",1,-24.56,31.92,390628.33,7283342.91
"57396",57396,1981,28,"wl","Blue wildebeest bull",1,-24.56,31.92,390628.33,7283342.91
"57405",57405,1981,28,"wl","Blue wildebeest bull",1,-24.56,31.94,392653.89,7283358.63
"57406",57406,1981,28,"wl","Blue wildebeest bull",2,-24.56,31.94,392653.89,7283358.63
"57411",57411,1981,28,"wl","Blue wildebeest bull",1,-24.58,31.92,390645.69,7281128.2
"57412",57412,1981,28,"wl","Blue wildebeest bull",1,-24.58,31.92,390645.69,7281128.2
"57413",57413,1981,28,"wl","Blue wildebeest bull",1,-24.58,31.92,390645.69,7281128.2
"57414",57414,1981,28,"wl","Blue wildebeest bull",1,-24.58,31.92,390645.69,7281128.2
"57422",57422,1981,28,"wl","Blue wildebeest bull",1,-24.58,31.94,392670.93,7281143.94
"57423",57423,1981,28,"wl","Blue wildebeest bull",1,-24.58,31.94,392670.93,7281143.94
"57424",57424,1981,28,"wl","Blue wildebeest bull",1,-24.58,31.94,392670.93,7281143.94
"57436",57436,1981,28,"wl","Blue wildebeest bull",1,-24.51,31.92,390584.99,7288879.64
"57459",57459,1981,28,"wl","Blue wildebeest bull",1,-24.53,31.92,390602.32,7286664.95
"57468",57468,1981,28,"wl","Blue wildebeest bull",1,-24.53,31.94,392628.36,7286680.66
"57481",57481,1981,28,"wl","Blue wildebeest bull",1,-24.47,31.92,390550.38,7293309
"57482",57482,1981,28,"wl","Blue wildebeest bull",1,-24.47,31.92,390550.38,7293309
"57483",57483,1981,28,"wl","Blue wildebeest bull",1,-24.47,31.92,390550.38,7293309
"57484",57484,1981,28,"wl","Blue wildebeest bull",1,-24.47,31.92,390550.38,7293309
"57485",57485,1981,28,"wl","Blue wildebeest bull",1,-24.47,31.92,390550.38,7293309
"57486",57486,1981,28,"wl","Blue wildebeest bull",2,-24.47,31.92,390550.38,7293309
"57496",57496,1981,28,"wl","Blue wildebeest bull",5,-24.47,31.94,392577.38,7293324.68
"57510",57510,1981,28,"wl","Blue wildebeest bull",1,-24.49,31.92,390567.68,7291094.32
"57511",57511,1981,28,"wl","Blue wildebeest bull",1,-24.49,31.92,390567.68,7291094.32
"57512",57512,1981,28,"wl","Blue wildebeest bull",1,-24.49,31.92,390567.68,7291094.32
"57513",57513,1981,28,"wl","Blue wildebeest bull",2,-24.49,31.92,390567.68,7291094.32
"57514",57514,1981,28,"wl","Blue wildebeest bull",2,-24.49,31.92,390567.68,7291094.32
"57531",57531,1981,28,"wl","Blue wildebeest bull",1,-24.49,31.94,392594.36,7291110.02
"57532",57532,1981,28,"wl","Blue wildebeest bull",1,-24.49,31.94,392594.36,7291110.02
"57537",57537,1981,28,"wl","Blue wildebeest bull",1,-24.43,31.92,390515.82,7297738.34
"57538",57538,1981,28,"wl","Blue wildebeest bull",1,-24.43,31.92,390515.82,7297738.34
"57557",57557,1981,28,"wl","Blue wildebeest bull",1,-24.45,31.92,390533.09,7295523.67
"57558",57558,1981,28,"wl","Blue wildebeest bull",1,-24.45,31.92,390533.09,7295523.67
"57598",57598,1981,28,"wl","Blue wildebeest bull",1,-24.51,31.96,394637.7,7288910.75
"57613",57613,1981,28,"wl","Blue wildebeest bull",1,-24.53,31.96,394654.38,7286696.08
"57614",57614,1981,28,"wl","Blue wildebeest bull",1,-24.53,31.96,394654.38,7286696.08
"57615",57615,1981,28,"wl","Blue wildebeest bull",2,-24.53,31.96,394654.38,7286696.08
"57644",57644,1981,28,"wl","Blue wildebeest bull",1,-24.45,31.96,394587.72,7295554.73
"57660",57660,1981,29,"wl","Blue wildebeest bull",1,-24.49,31.78,376380.67,7290976.27
"57661",57661,1981,29,"wl","Blue wildebeest bull",1,-24.49,31.78,376380.67,7290976.27
"57696",57696,1981,29,"wl","Blue wildebeest bull",1,-24.64,31.8,378552.06,7274383.29
"57706",57706,1981,29,"wl","Blue wildebeest bull",1,-24.64,31.82,380576.39,7274400.82
"57717",57717,1981,29,"wl","Blue wildebeest bull",4,-24.66,31.8,378571.41,7272168.5
"57737",57737,1981,29,"wl","Blue wildebeest bull",1,-24.6,31.82,380538.38,7278830.36
"57772",57772,1981,29,"wl","Blue wildebeest bull",1,-24.58,31.82,380519.39,7281045.12
"57815",57815,1981,29,"wl","Blue wildebeest bull",1,-24.49,31.82,380434.15,7291011.47
"57856",57856,1981,29,"wl","Blue wildebeest bull",3,-24.64,31.86,384625,7274435
"57864",57864,1981,29,"wl","Blue wildebeest bull",1,-24.66,31.86,384643.38,7272220.25
"57874",57874,1981,29,"wl","Blue wildebeest bull",1,-24.6,31.84,382563.33,7278847.57
"57889",57889,1981,29,"wl","Blue wildebeest bull",1,-24.62,31.86,384606.63,7276649.75
"57895",57895,1981,29,"wl","Blue wildebeest bull",1,-24.56,31.84,382526.03,7283277.07
"57900",57900,1981,29,"wl","Blue wildebeest bull",2,-24.56,31.86,384551.62,7283293.97
"57908",57908,1981,29,"wl","Blue wildebeest bull",1,-24.58,31.84,382544.67,7281062.32
"57912",57912,1981,29,"wl","Blue wildebeest bull",1,-24.58,31.86,384569.94,7281079.23
"57913",57913,1981,29,"wl","Blue wildebeest bull",1,-24.58,31.86,384569.94,7281079.23
"57914",57914,1981,29,"wl","Blue wildebeest bull",1,-24.58,31.86,384569.94,7281079.23
"57925",57925,1981,29,"wl","Blue wildebeest bull",1,-24.53,31.84,382498.08,7286599.17
"57933",57933,1981,29,"wl","Blue wildebeest bull",1,-24.49,31.84,382460.87,7291028.62
"57942",57942,1981,29,"wl","Blue wildebeest bull",1,-24.76,31.88,386757.85,7261163.09
"57948",57948,1981,29,"wl","Blue wildebeest bull",3,-24.72,31.88,386721.61,7265592.63
"57951",57951,1981,29,"wl","Blue wildebeest bull",2,-24.72,31.9,388744.61,7265609.02
"57966",57966,1981,29,"wl","Blue wildebeest bull",1,-24.64,31.88,386649.3,7274451.65
"57967",57967,1981,29,"wl","Blue wildebeest bull",1,-24.64,31.88,386649.3,7274451.65
"57968",57968,1981,29,"wl","Blue wildebeest bull",4,-24.64,31.88,386649.3,7274451.65
"57975",57975,1981,29,"wl","Blue wildebeest bull",1,-24.66,31.88,386667.35,7272236.9
"57976",57976,1981,29,"wl","Blue wildebeest bull",1,-24.66,31.88,386667.35,7272236.9
"57977",57977,1981,29,"wl","Blue wildebeest bull",1,-24.66,31.88,386667.35,7272236.9
"57983",57983,1981,29,"wl","Blue wildebeest bull",1,-24.62,31.88,386631.25,7276666.39
"57996",57996,1981,29,"wl","Blue wildebeest bull",1,-24.66,31.92,390715.27,7272269.33
"57997",57997,1981,29,"wl","Blue wildebeest bull",1,-24.66,31.92,390715.27,7272269.33
"57998",57998,1981,29,"wl","Blue wildebeest bull",1,-24.66,31.92,390715.27,7272269.33
"58064",58064,1981,30,"wl","Blue wildebeest bull",1,-24.72,31.94,392790.56,7265640.92
"58089",58089,1981,30,"wl","Blue wildebeest bull",1,-24.68,31.94,392756.32,7270070.38
"58090",58090,1981,30,"wl","Blue wildebeest bull",1,-24.68,31.94,392756.32,7270070.38
"58091",58091,1981,30,"wl","Blue wildebeest bull",1,-24.68,31.94,392756.32,7270070.38
"58092",58092,1981,30,"wl","Blue wildebeest bull",1,-24.68,31.94,392756.32,7270070.38
"58112",58112,1981,30,"wl","Blue wildebeest bull",1,-24.64,31.92,390697.86,7274484.06
"58113",58113,1981,30,"wl","Blue wildebeest bull",1,-24.64,31.92,390697.86,7274484.06
"58124",58124,1981,30,"wl","Blue wildebeest bull",1,-24.64,31.94,392722.12,7274499.82
"58125",58125,1981,30,"wl","Blue wildebeest bull",1,-24.64,31.94,392722.12,7274499.82
"58126",58126,1981,30,"wl","Blue wildebeest bull",1,-24.64,31.94,392722.12,7274499.82
"58127",58127,1981,30,"wl","Blue wildebeest bull",1,-24.64,31.94,392722.12,7274499.82
"58128",58128,1981,30,"wl","Blue wildebeest bull",2,-24.64,31.94,392722.12,7274499.82
"58129",58129,1981,30,"wl","Blue wildebeest bull",3,-24.64,31.94,392722.12,7274499.82
"58137",58137,1981,30,"wl","Blue wildebeest bull",1,-24.66,31.92,390715.27,7272269.33
"58138",58138,1981,30,"wl","Blue wildebeest bull",1,-24.66,31.92,390715.27,7272269.33
"58139",58139,1981,30,"wl","Blue wildebeest bull",2,-24.66,31.92,390715.27,7272269.33
"58140",58140,1981,30,"wl","Blue wildebeest bull",2,-24.66,31.92,390715.27,7272269.33
"58155",58155,1981,30,"wl","Blue wildebeest bull",1,-24.66,31.94,392739.21,7272285.1
"58156",58156,1981,30,"wl","Blue wildebeest bull",1,-24.66,31.94,392739.21,7272285.1
"58157",58157,1981,30,"wl","Blue wildebeest bull",3,-24.66,31.94,392739.21,7272285.1
"58291",58291,1981,30,"wl","Blue wildebeest bull",1,-24.6,31.96,394712.88,7278944.69
"58292",58292,1981,30,"wl","Blue wildebeest bull",1,-24.6,31.96,394712.88,7278944.69
"58293",58293,1981,30,"wl","Blue wildebeest bull",2,-24.6,31.96,394712.88,7278944.69
"58294",58294,1981,30,"wl","Blue wildebeest bull",2,-24.6,31.96,394712.88,7278944.69
"58309",58309,1981,30,"wl","Blue wildebeest bull",1,-24.6,31.98,396737.78,7278959.84
"58329",58329,1981,30,"wl","Blue wildebeest bull",1,-24.62,31.96,394729.62,7276729.99
"58330",58330,1981,30,"wl","Blue wildebeest bull",1,-24.62,31.96,394729.62,7276729.99
"58331",58331,1981,30,"wl","Blue wildebeest bull",1,-24.62,31.96,394729.62,7276729.99
"58332",58332,1981,30,"wl","Blue wildebeest bull",1,-24.62,31.96,394729.62,7276729.99
"58333",58333,1981,30,"wl","Blue wildebeest bull",1,-24.62,31.96,394729.62,7276729.99
"58347",58347,1981,30,"wl","Blue wildebeest bull",1,-24.62,31.98,396754.2,7276745.15
"58348",58348,1981,30,"wl","Blue wildebeest bull",1,-24.62,31.98,396754.2,7276745.15
"58349",58349,1981,30,"wl","Blue wildebeest bull",1,-24.62,31.98,396754.2,7276745.15
"58352",58352,1981,30,"wl","Blue wildebeest bull",1,-24.56,31.96,394679.44,7283374.06
"58353",58353,1981,30,"wl","Blue wildebeest bull",3,-24.56,31.96,394679.44,7283374.06
"58371",58371,1981,30,"wl","Blue wildebeest bull",1,-24.56,31.98,396704.97,7283389.2
"58379",58379,1981,30,"wl","Blue wildebeest bull",1,-24.58,31.96,394696.15,7281159.38
"58409",58409,1981,30,"wl","Blue wildebeest bull",1,-24.51,31.98,396664.04,7288925.86
"58452",58452,1981,30,"wl","Blue wildebeest bull",1,-24.49,31.96,394621.03,7291125.41
"58490",58490,1981,31,"wl","Blue wildebeest bull",1,-24.41,31.61,359063.95,7299672.94
"58544",58544,1981,31,"wl","Blue wildebeest bull",2,-24.39,31.63,361070.19,7301907.95
"58560",58560,1981,31,"wl","Blue wildebeest bull",2,-24.41,31.65,363120.17,7299713.03
"58561",58561,1981,31,"wl","Blue wildebeest bull",2,-24.41,31.65,363120.17,7299713.03
"58644",58644,1981,31,"wl","Blue wildebeest bull",1,-24.47,31.69,367239.21,7293107.58
"58676",58676,1981,31,"wl","Blue wildebeest bull",1,-24.43,31.67,365169.52,7297517.84
"58677",58677,1981,31,"wl","Blue wildebeest bull",2,-24.43,31.67,365169.52,7297517.84
"58694",58694,1981,31,"wl","Blue wildebeest bull",1,-24.45,31.67,365190.8,7295303.04
"58695",58695,1981,31,"wl","Blue wildebeest bull",3,-24.45,31.67,365190.8,7295303.04
"58768",58768,1981,31,"wl","Blue wildebeest bull",1,-24.6,31.73,371425.95,7278749.24
"58769",58769,1981,31,"wl","Blue wildebeest bull",3,-24.6,31.73,371425.95,7278749.24
"58813",58813,1981,31,"wl","Blue wildebeest bull",1,-24.58,31.73,371405.52,7280964.05
"58825",58825,1981,31,"wl","Blue wildebeest bull",1,-24.51,31.71,369307.67,7288697.05
"58845",58845,1981,31,"wl","Blue wildebeest bull",1,-24.53,31.71,369328.37,7286482.25
"58858",58858,1981,31,"wl","Blue wildebeest bull",1,-24.53,31.73,371354.51,7286501.05
"58859",58859,1981,31,"wl","Blue wildebeest bull",1,-24.53,31.73,371354.51,7286501.05
"58879",58879,1981,31,"wl","Blue wildebeest bull",1,-24.47,31.71,369266.32,7293126.64
"58907",58907,1981,31,"wl","Blue wildebeest bull",1,-24.49,31.71,369286.99,7290911.85
"58945",58945,1981,31,"wl","Blue wildebeest bull",3,-24.43,31.73,371252.78,7297574.94
"58951",58951,1981,31,"wl","Blue wildebeest bull",1,-24.45,31.71,369245.67,7295341.42
"58960",58960,1981,31,"wl","Blue wildebeest bull",1,-24.45,31.73,371273.09,7295360.17
"58961",58961,1981,31,"wl","Blue wildebeest bull",1,-24.45,31.73,371273.09,7295360.17
"58962",58962,1981,31,"wl","Blue wildebeest bull",2,-24.45,31.73,371273.09,7295360.17
"58983",58983,1981,31,"wl","Blue wildebeest bull",1,-24.41,31.73,371232.48,7299789.7
"58996",58996,1981,31,"wl","Blue wildebeest bull",1,-24.6,31.78,376488.43,7278795.04
"59054",59054,1981,31,"wl","Blue wildebeest bull",1,-24.53,31.76,374393.69,7286528.69
"59070",59070,1981,31,"wl","Blue wildebeest bull",1,-24.49,31.76,374353.92,7290958.23
"59071",59071,1981,31,"wl","Blue wildebeest bull",1,-24.49,31.76,374353.92,7290958.23
"59074",59074,1981,31,"wl","Blue wildebeest bull",2,-24.43,31.76,374294.37,7297602.5
"59091",59091,1981,31,"wl","Blue wildebeest bull",1,-24.45,31.76,374314.2,7295387.75
"59092",59092,1981,31,"wl","Blue wildebeest bull",1,-24.45,31.76,374314.2,7295387.75
"59106",59106,1981,31,"wl","Blue wildebeest bull",1,-24.41,31.76,374274.55,7299817.24
"59107",59107,1981,31,"wl","Blue wildebeest bull",1,-24.41,31.76,374274.55,7299817.24
"59194",59194,1981,32,"wl","Blue wildebeest bull",1,-24.58,31.53,351151.69,7280762.57
"59227",59227,1981,32,"wl","Blue wildebeest bull",1,-24.47,31.53,351021.93,7292944.58
"59247",59247,1981,32,"wl","Blue wildebeest bull",1,-24.45,31.53,350998.39,7295159.48
"59248",59248,1981,32,"wl","Blue wildebeest bull",2,-24.45,31.53,350998.39,7295159.48
"59301",59301,1981,32,"wl","Blue wildebeest bull",1,-24.45,31.55,353025.92,7295180.87
"59344",59344,1981,32,"wl","Blue wildebeest bull",3,-24.47,31.61,359130.66,7293028.43
"59371",59371,1981,32,"wl","Blue wildebeest bull",2,-24.45,31.59,357080.92,7295222.76
"59391",59391,1981,32,"wl","Blue wildebeest bull",1,-24.41,31.59,357035.83,7299652.46
"59456",59456,1981,33,"wl","Blue wildebeest bull",1,-24.76,31.61,359455.25,7260912.58
"59510",59510,1981,33,"wl","Blue wildebeest bull",1,-24.66,31.59,357318.81,7271966.5
"59531",59531,1981,33,"wl","Blue wildebeest bull",1,-24.6,31.61,359275.72,7278631.81
"59544",59544,1981,33,"wl","Blue wildebeest bull",1,-24.62,31.59,357273.35,7276396.31
"59554",59554,1981,33,"wl","Blue wildebeest bull",1,-24.62,31.61,359298.1,7276416.93
"59570",59570,1981,33,"wl","Blue wildebeest bull",2,-24.76,31.63,361477.73,7260932.99
"59595",59595,1981,33,"wl","Blue wildebeest bull",1,-24.74,31.63,361455.55,7263147.9
"59631",59631,1981,33,"wl","Blue wildebeest bull",1,-24.64,31.65,363369.33,7274242.41
"59632",59632,1981,33,"wl","Blue wildebeest bull",1,-24.64,31.65,363369.33,7274242.41
"59645",59645,1981,33,"wl","Blue wildebeest bull",1,-24.66,31.63,361367.01,7272007.49
"59651",59651,1981,33,"wl","Blue wildebeest bull",2,-24.66,31.65,363391.1,7272027.54
"59666",59666,1981,33,"wl","Blue wildebeest bull",1,-24.62,31.65,363347.58,7276457.27
"59671",59671,1981,33,"wl","Blue wildebeest bull",1,-24.58,31.63,361278.74,7280866.99
"59674",59674,1981,33,"wl","Blue wildebeest bull",11,-24.76,31.67,365522.66,7260972.91
"59691",59691,1981,33,"wl","Blue wildebeest bull",1,-24.74,31.67,365501.13,7263187.8
"59693",59693,1981,33,"wl","Blue wildebeest bull",1,-24.64,31.67,365393.73,7274262.15
"59758",59758,1981,34,"wl","Blue wildebeest bull",1,-24.64,31.69,367418.12,7274281.6
"59883",59883,1981,34,"wl","Blue wildebeest bull",1,-24.64,31.71,369442.49,7274300.75
"59904",59904,1981,34,"wl","Blue wildebeest bull",1,-24.62,31.71,369421.71,7276515.58
"59943",59943,1981,34,"wl","Blue wildebeest bull",1,-24.74,31.76,374603.52,7263273.25
"59944",59944,1981,34,"wl","Blue wildebeest bull",1,-24.74,31.76,374603.52,7263273.25
"60016",60016,1981,34,"wl","Blue wildebeest bull",1,-24.66,31.78,376547.41,7272150.67
"60163",60163,1981,35,"wl","Blue wildebeest bull",2,-24.85,31.61,359556.71,7250945.35
"60575",60575,1981,36,"wl","Blue wildebeest bull",1,-24.78,31.73,371610.54,7258815.72
"60596",60596,1981,36,"wl","Blue wildebeest bull",1,-24.85,31.78,376735.04,7251109.81
"60702",60702,1981,36,"wl","Blue wildebeest bull",1,-24.81,31.8,378717.01,7255557.42
"60718",60718,1981,36,"wl","Blue wildebeest bull",2,-24.83,31.82,380757.73,7253360.22
"60732",60732,1981,36,"wl","Blue wildebeest bull",1,-24.78,31.8,378687.82,7258879.67
"60751",60751,1981,36,"wl","Blue wildebeest bull",1,-24.89,31.84,382835.53,7246733.08
"60780",60780,1981,36,"wl","Blue wildebeest bull",1,-24.81,31.84,382760.14,7255592.37
"60814",60814,1981,36,"wl","Blue wildebeest bull",1,-24.83,31.86,384800.19,7253394.59
"60939",60939,1981,37,"wl","Blue wildebeest bull",1,-24.83,31.9,388842.62,7253427.78
"61711",61711,1981,38,"wl","Blue wildebeest bull",1,-24.91,31.92,390934.06,7244584.77
"61857",61857,1981,38,"wl","Blue wildebeest bull",1,-25.08,31.96,395118.24,7225790.4
"61858",61858,1981,38,"wl","Blue wildebeest bull",1,-25.08,31.96,395118.24,7225790.4
"61874",61874,1981,38,"wl","Blue wildebeest bull",1,-25.08,31.98,397135.33,7225805.77
"61875",61875,1981,38,"wl","Blue wildebeest bull",1,-25.08,31.98,397135.33,7225805.77
"61886",61886,1981,38,"wl","Blue wildebeest bull",1,-25.01,31.96,395058.66,7233542.27
"61887",61887,1981,38,"wl","Blue wildebeest bull",1,-25.01,31.96,395058.66,7233542.27
"61899",61899,1981,38,"wl","Blue wildebeest bull",1,-25.01,31.98,397076.91,7233557.62
"61917",61917,1981,38,"wl","Blue wildebeest bull",1,-25.03,31.96,395075.67,7231327.46
"62299",62299,1981,39,"wl","Blue wildebeest bull",1,-25.08,31.23,321487.31,7225024.88
"62308",62308,1981,39,"wl","Blue wildebeest bull",1,-25.03,31.23,321414.84,7230563.06
"62377",62377,1981,39,"wl","Blue wildebeest bull",2,-25.06,31.26,324485.04,7227279.44
"62388",62388,1981,39,"wl","Blue wildebeest bull",1,-25.06,31.28,326502.85,7227305.25
"62452",62452,1981,39,"wl","Blue wildebeest bull",1,-24.99,31.26,324385.41,7235032.77
"62697",62697,1981,40,"wl","Blue wildebeest bull",1,-25.18,31.23,321632.67,7213948.43
"62866",62866,1981,40,"wl","Blue wildebeest bull",1,-25.16,31.28,326643.99,7216229.01
"62999",62999,1981,40,"wl","Blue wildebeest bull",1,-25.2,31.3,328716.09,7211824.1
"63011",63011,1981,40,"wl","Blue wildebeest bull",1,-25.2,31.32,330731.57,7211849.42
"63055",63055,1981,40,"wl","Blue wildebeest bull",1,-25.18,31.36,334735.49,7214114.37
"63118",63118,1981,41,"wl","Blue wildebeest bull",1,-25.24,31.36,334816.53,7207468.72
"63375",63375,1981,41,"wl","Blue wildebeest bull",1,-25.28,31.46,344941.13,7203157.63
"63397",63397,1981,41,"wl","Blue wildebeest bull",1,-25.24,31.48,346905.02,7207610.9
"63487",63487,1981,41,"wl","Blue wildebeest bull",1,-25.14,31.51,349804.45,7218720.3
"63542",63542,1981,42,"wl","Blue wildebeest bull",1,-25.28,31.53,351990.27,7203236.72
"63609",63609,1981,42,"wl","Blue wildebeest bull",1,-25.14,31.53,351820.79,7218742.44
"63613",63613,1981,42,"wl","Blue wildebeest bull",1,-25.16,31.53,351844.94,7216527.35
"63614",63614,1981,42,"wl","Blue wildebeest bull",1,-25.16,31.53,351844.94,7216527.35
"63642",63642,1981,42,"wl","Blue wildebeest bull",1,-25.12,31.53,351796.65,7220957.52
"63643",63643,1981,42,"wl","Blue wildebeest bull",1,-25.12,31.53,351796.65,7220957.52
"63681",63681,1981,42,"wl","Blue wildebeest bull",1,-25.26,31.55,353980.35,7205473.75
"63822",63822,1981,42,"wl","Blue wildebeest bull",1,-25.18,31.57,355900.44,7214355.68
"63847",63847,1981,42,"wl","Blue wildebeest bull",1,-25.2,31.57,355923.97,7212140.6
"63875",63875,1981,42,"wl","Blue wildebeest bull",4,-25.16,31.55,353860.94,7216549.2
"63897",63897,1981,42,"wl","Blue wildebeest bull",1,-25.1,31.57,355806.47,7223215.91
"63916",63916,1981,42,"wl","Blue wildebeest bull",2,-25.12,31.57,355829.94,7221000.86
"64067",64067,1981,42,"wl","Blue wildebeest bull",1,-25.22,31.59,357962.51,7209946.81
"64068",64068,1981,42,"wl","Blue wildebeest bull",1,-25.22,31.59,357962.51,7209946.81
"64174",64174,1981,42,"wl","Blue wildebeest bull",2,-25.16,31.61,359908.85,7216612.93
"64175",64175,1981,42,"wl","Blue wildebeest bull",4,-25.16,31.61,359908.85,7216612.93
"64211",64211,1981,43,"wl","Blue wildebeest bull",1,-25.01,31.36,334506.85,7232943.44
"64248",64248,1981,43,"wl","Blue wildebeest bull",1,-25.06,31.4,338609.41,7227453.86
"64369",64369,1981,43,"wl","Blue wildebeest bull",1,-25.01,31.42,340562.48,7233015.4
"64378",64378,1981,43,"wl","Blue wildebeest bull",1,-25.01,31.44,342581.01,7233038.79
"64386",64386,1981,43,"wl","Blue wildebeest bull",1,-25.03,31.44,342606.52,7230823.68
"64518",64518,1981,43,"wl","Blue wildebeest bull",1,-25.03,31.48,346642.87,7230869.59
"64519",64519,1981,43,"wl","Blue wildebeest bull",3,-25.03,31.48,346642.87,7230869.59
"64568",64568,1981,43,"wl","Blue wildebeest bull",1,-25.1,31.53,351772.52,7223172.59
"64610",64610,1981,43,"wl","Blue wildebeest bull",1,-25.08,31.51,349731.1,7225365.57
"64669",64669,1981,43,"wl","Blue wildebeest bull",1,-25.03,31.51,349670.1,7230903.24
"64689",64689,1981,43,"wl","Blue wildebeest bull",3,-25.03,31.53,351688.24,7230925.31
"64690",64690,1981,43,"wl","Blue wildebeest bull",3,-25.03,31.53,351688.24,7230925.31
"64734",64734,1981,43,"wl","Blue wildebeest bull",5,-25.06,31.55,353741.97,7227624.5
"65554",65554,1981,45,"wl","Blue wildebeest bull",1,-25.22,31.78,377104.31,7210134.04
"65580",65580,1981,45,"wl","Blue wildebeest bull",1,-25.26,31.82,381172.96,7205740.12
"65670",65670,1981,45,"wl","Blue wildebeest bull",1,-25.16,31.8,379059.94,7216796.99
"65686",65686,1981,45,"wl","Blue wildebeest bull",1,-25.26,31.84,383187.15,7205757.67
"65699",65699,1981,45,"wl","Blue wildebeest bull",2,-25.22,31.84,383148.9,7210187.54
"65729",65729,1981,45,"wl","Blue wildebeest bull",1,-25.24,31.84,383168.02,7207972.61
"65941",65941,1981,45,"wl","Blue wildebeest bull",2,-25.12,31.9,389102.98,7221312.76
"65965",65965,1981,46,"wl","Blue wildebeest bull",1,-25.26,31.86,385201.34,7205774.93
"65982",65982,1981,46,"wl","Blue wildebeest bull",1,-25.22,31.86,385163.75,7210204.77
"66089",66089,1981,46,"wl","Blue wildebeest bull",1,-25.22,31.88,387178.59,7210221.71
"66090",66090,1981,46,"wl","Blue wildebeest bull",1,-25.22,31.88,387178.59,7210221.71
"66099",66099,1981,46,"wl","Blue wildebeest bull",1,-25.22,31.9,389193.42,7210238.34
"66105",66105,1981,46,"wl","Blue wildebeest bull",1,-25.24,31.88,387197.05,7208006.8
"66160",66160,1981,46,"wl","Blue wildebeest bull",1,-25.2,31.9,389175.3,7212453.24
"66205",66205,1981,46,"wl","Blue wildebeest bull",12,-25.37,31.94,393354.38,7193658.94
"66229",66229,1981,46,"wl","Blue wildebeest bull",1,-25.26,31.92,391243.84,7205824.89
"66230",66230,1981,46,"wl","Blue wildebeest bull",1,-25.26,31.92,391243.84,7205824.89
"66231",66231,1981,46,"wl","Blue wildebeest bull",1,-25.26,31.92,391243.84,7205824.89
"66232",66232,1981,46,"wl","Blue wildebeest bull",1,-25.26,31.92,391243.84,7205824.89
"66233",66233,1981,46,"wl","Blue wildebeest bull",2,-25.26,31.92,391243.84,7205824.89
"66241",66241,1981,46,"wl","Blue wildebeest bull",1,-25.26,31.94,393258,7205840.94
"66242",66242,1981,46,"wl","Blue wildebeest bull",1,-25.26,31.94,393258,7205840.94
"66243",66243,1981,46,"wl","Blue wildebeest bull",1,-25.26,31.94,393258,7205840.94
"66244",66244,1981,46,"wl","Blue wildebeest bull",1,-25.26,31.94,393258,7205840.94
"66269",66269,1981,46,"wl","Blue wildebeest bull",1,-25.22,31.92,391208.24,7210254.68
"66270",66270,1981,46,"wl","Blue wildebeest bull",2,-25.22,31.92,391208.24,7210254.68
"66271",66271,1981,46,"wl","Blue wildebeest bull",4,-25.22,31.92,391208.24,7210254.68
"66302",66302,1981,46,"wl","Blue wildebeest bull",1,-25.24,31.92,391226.03,7208039.78
"66303",66303,1981,46,"wl","Blue wildebeest bull",1,-25.24,31.92,391226.03,7208039.78
"66304",66304,1981,46,"wl","Blue wildebeest bull",1,-25.24,31.92,391226.03,7208039.78
"66324",66324,1981,46,"wl","Blue wildebeest bull",1,-25.24,31.94,393240.51,7208055.83
"66325",66325,1981,46,"wl","Blue wildebeest bull",1,-25.24,31.94,393240.51,7208055.83
"66326",66326,1981,46,"wl","Blue wildebeest bull",1,-25.24,31.94,393240.51,7208055.83
"66327",66327,1981,46,"wl","Blue wildebeest bull",1,-25.24,31.94,393240.51,7208055.83
"66328",66328,1981,46,"wl","Blue wildebeest bull",2,-25.24,31.94,393240.51,7208055.83
"66379",66379,1981,46,"wl","Blue wildebeest bull",2,-25.2,31.92,391190.45,7212469.56
"66459",66459,1981,46,"wl","Blue wildebeest bull",1,-25.39,31.96,395383.93,7191459.83
"66547",66547,1981,46,"wl","Blue wildebeest bull",1,-25.37,31.96,395366.7,7193674.75
"66594",66594,1981,46,"wl","Blue wildebeest bull",2,-25.31,31.98,397328.38,7200334.94
"66636",66636,1981,46,"wl","Blue wildebeest bull",1,-25.26,31.96,395272.14,7205856.69
"66652",66652,1981,46,"wl","Blue wildebeest bull",1,-25.28,31.96,395289.3,7203641.81
"66664",66664,1981,46,"wl","Blue wildebeest bull",1,-25.28,31.98,397303.11,7203657.27
"66718",66718,1981,46,"wl","Blue wildebeest bull",1,-25.24,31.96,395254.99,7208071.57
"66719",66719,1981,46,"wl","Blue wildebeest bull",1,-25.24,31.96,395254.99,7208071.57
"66720",66720,1981,46,"wl","Blue wildebeest bull",1,-25.24,31.96,395254.99,7208071.57
"66721",66721,1981,46,"wl","Blue wildebeest bull",2,-25.24,31.96,395254.99,7208071.57
"66736",66736,1981,46,"wl","Blue wildebeest bull",1,-25.24,31.98,397269.45,7208087.01
"67097",67097,1981,47,"wl","Blue wildebeest bull",1,-22.76,31.23,318268.2,7481961.55
"67117",67117,1981,47,"wl","Blue wildebeest bull",1,-22.68,31.23,318162.47,7490820.21
"67144",67144,1981,47,"wl","Blue wildebeest bull",1,-22.66,31.21,316080.66,7493010.25
"67149",67149,1981,47,"wl","Blue wildebeest bull",1,-22.66,31.23,318136.09,7493034.86
"67150",67150,1981,47,"wl","Blue wildebeest bull",1,-22.66,31.23,318136.09,7493034.86
"67154",67154,1981,47,"wl","Blue wildebeest bull",1,-22.76,31.26,321349.07,7481998.07
"67165",67165,1981,47,"wl","Blue wildebeest bull",1,-22.76,31.28,323402.97,7482022.07
"67182",67182,1981,47,"wl","Blue wildebeest bull",2,-22.72,31.26,321297.06,7486427.36
"67195",67195,1981,47,"wl","Blue wildebeest bull",1,-22.74,31.28,323377.25,7484236.7
"67208",67208,1981,47,"wl","Blue wildebeest bull",1,-22.7,31.26,321271.09,7488642
"67544",67544,1981,48,"wl","Blue wildebeest bull",1,-22.87,31.4,335857.96,7469980.21
"67658",67658,1981,49,"wl","Blue wildebeest bull",1,-22.97,31.34,329826.42,7458839
"67676",67676,1981,49,"wl","Blue wildebeest bull",1,-22.95,31.34,329801.38,7461053.64
"67692",67692,1981,49,"wl","Blue wildebeest bull",3,-22.97,31.4,335978.41,7458907.32
"67740",67740,1981,49,"wl","Blue wildebeest bull",3,-22.99,31.42,338052.89,7456714.96
"67769",67769,1981,49,"wl","Blue wildebeest bull",1,-22.89,31.44,339985.68,7467809.67
"67849",67849,1981,50,"wl","Blue wildebeest bull",1,-23.1,31.44,340233.07,7444556.72
"67990",67990,1981,52,"wl","Blue wildebeest bull",5,-23.14,31.19,314678.83,7439831.55
"67998",67998,1981,52,"wl","Blue wildebeest bull",1,-23.12,31.19,314651.34,7442046.35
"68047",68047,1981,52,"wl","Blue wildebeest bull",1,-23.2,31.21,316808.74,7433212.47
"68068",68068,1981,52,"wl","Blue wildebeest bull",1,-23.14,31.23,318775.24,7439881.86
"68069",68069,1981,52,"wl","Blue wildebeest bull",1,-23.14,31.23,318775.24,7439881.86
"68095",68095,1981,52,"wl","Blue wildebeest bull",1,-23.1,31.21,316672.69,7444286.41
"68117",68117,1981,52,"wl","Blue wildebeest bull",1,-23.18,31.26,321900.43,7435489.36
"68128",68128,1981,52,"wl","Blue wildebeest bull",1,-23.14,31.26,321847.51,7439918.85
"68137",68137,1981,52,"wl","Blue wildebeest bull",1,-23.16,31.28,323921.82,7437728.43
"68144",68144,1981,52,"wl","Blue wildebeest bull",1,-23.12,31.26,321821.08,7442133.6
"68145",68145,1981,52,"wl","Blue wildebeest bull",1,-23.12,31.26,321821.08,7442133.6
"68151",68151,1981,52,"wl","Blue wildebeest bull",1,-23.12,31.28,323869.55,7442157.89
"68152",68152,1981,52,"wl","Blue wildebeest bull",1,-23.12,31.28,323869.55,7442157.89
"68153",68153,1981,52,"wl","Blue wildebeest bull",1,-23.12,31.28,323869.55,7442157.89
"68196",68196,1981,52,"wl","Blue wildebeest bull",2,-23.1,31.32,327940.94,7444420.32
"68202",68202,1981,52,"wl","Blue wildebeest bull",1,-23.12,31.3,325918,7442181.9
"68229",68229,1981,52,"wl","Blue wildebeest bull",2,-23.03,31.32,327851.87,7452171.69
"68254",68254,1981,52,"wl","Blue wildebeest bull",1,-23.14,31.36,332088.16,7440037.59
"68255",68255,1981,52,"wl","Blue wildebeest bull",1,-23.14,31.36,332088.16,7440037.59
"68256",68256,1981,52,"wl","Blue wildebeest bull",1,-23.14,31.36,332088.16,7440037.59
"68257",68257,1981,52,"wl","Blue wildebeest bull",1,-23.14,31.36,332088.16,7440037.59
"68264",68264,1981,52,"wl","Blue wildebeest bull",4,-23.1,31.34,329989.66,7444443.76
"68297",68297,1981,52,"wl","Blue wildebeest bull",2,-23.03,31.34,329901.65,7452195.07
"68326",68326,1981,52,"wl","Blue wildebeest bull",1,-23.08,31.38,334062.5,7446704.42
"68422",68422,1981,53,"wl","Blue wildebeest bull",3,-23.16,30.98,293202.31,7437333.96
"68428",68428,1981,53,"wl","Blue wildebeest bull",1,-23.1,30.96,291061.24,7443950.43
"68463",68463,1981,53,"wl","Blue wildebeest bull",2,-23.08,30.96,291030.29,7446165.43
"68520",68520,1981,53,"wl","Blue wildebeest bull",1,-23.16,31.01,296274.43,7437376.26
"68650",68650,1981,53,"wl","Blue wildebeest bull",1,-23.16,31.11,306514.55,7437512.68
"68653",68653,1981,53,"wl","Blue wildebeest bull",1,-23.1,31.11,306428.42,7444157.29
"68662",68662,1981,53,"wl","Blue wildebeest bull",1,-23.12,31.11,306457.1,7441942.43
"68663",68663,1981,53,"wl","Blue wildebeest bull",2,-23.12,31.11,306457.1,7441942.43
"68682",68682,1981,53,"wl","Blue wildebeest bull",1,-23.18,31.13,308590.97,7435324.26
"68819",68819,1981,53,"wl","Blue wildebeest bull",3,-23.16,31.17,312658.42,7437591.15
"68831",68831,1981,54,"wl","Blue wildebeest bull",4,-22.97,30.94,288809.56,7458319.18
"69042",69042,1981,54,"wl","Blue wildebeest bull",1,-22.99,31.07,302169.9,7456285.54
"69083",69083,1981,54,"wl","Blue wildebeest bull",1,-23.01,31.09,304249.35,7454097.53
"69089",69089,1981,54,"wl","Blue wildebeest bull",1,-22.97,31.09,304191.65,7458527.24
"69143",69143,1981,54,"wl","Blue wildebeest bull",1,-23.01,31.15,310400.1,7454176.45
"69212",69212,1981,54,"wl","Blue wildebeest bull",1,-22.97,31.17,312395.05,7458631.76
"69780",69780,1981,56,"wl","Blue wildebeest bull",1,-25.35,31.44,343017.35,7195381.19
"69827",69827,1981,56,"wl","Blue wildebeest bull",1,-25.37,31.46,345055.76,7193189.32
"69868",69868,1981,56,"wl","Blue wildebeest bull",1,-25.33,31.48,347017.99,7197642.7
"69960",69960,1981,56,"wl","Blue wildebeest bull",1,-25.37,31.53,352099.69,7193268.62
"70241",70241,1981,56,"wl","Blue wildebeest bull",1,-25.33,31.61,360103.7,7197784.9
"70242",70242,1981,56,"wl","Blue wildebeest bull",2,-25.33,31.61,360103.7,7197784.9
"70243",70243,1981,56,"wl","Blue wildebeest bull",3,-25.33,31.61,360103.7,7197784.9
"70366",70366,1981,56,"wl","Blue wildebeest bull",4,-25.33,31.65,364129.97,7197826.1
"70619",70619,1981,58,"wl","Blue wildebeest bull",1,-25.12,31.61,359863.18,7221043
"70620",70620,1981,58,"wl","Blue wildebeest bull",1,-25.12,31.61,359863.18,7221043
"71009",71009,1981,58,"wl","Blue wildebeest bull",1,-25.14,31.73,371983.52,7218947.29
"71119",71119,1981,58,"wl","Blue wildebeest bull",1,-25.14,31.78,377024.03,7218993.83
