"","ID","Year","Cenb","Sp","Description","No","Lat","Long","X.coord","Y.coord"
"45983",45983,1981,1,"kb","Kudu bull",2,-23.97,31.57,354509.27,7348357.17
"45998",45998,1981,1,"kb","Kudu bull",1,-23.89,31.57,354419.57,7357216.06
"46050",46050,1981,1,"kb","Kudu bull",3,-24.03,31.59,356610.9,7341733.47
"46077",46077,1981,1,"kb","Kudu bull",1,-23.93,31.61,358535.86,7352827.28
"46091",46091,1981,1,"kb","Kudu bull",1,-23.95,31.59,356522.25,7350592.38
"46244",46244,1981,1,"kb","Kudu bull",2,-23.95,31.65,362628.46,7350652.09
"46271",46271,1981,1,"kb","Kudu bull",1,-23.91,31.65,362586.12,7355081.44
"46292",46292,1981,1,"kb","Kudu bull",1,-24.06,31.67,364778.9,7338490.67
"46474",46474,1981,1,"kb","Kudu bull",1,-23.95,31.69,366699.22,7350690.46
"46487",46487,1981,1,"kb","Kudu bull",1,-24.06,31.71,368846.16,7338528.59
"46502",46502,1981,1,"kb","Kudu bull",1,-24.06,31.73,370879.78,7338547.12
"46625",46625,1981,1,"kb","Kudu bull",3,-23.99,31.8,377931.26,7346360.82
"46651",46651,1981,2,"kb","Kudu bull",2,-24.01,31.38,335226,7343718.31
"46756",46756,1981,2,"kb","Kudu bull",1,-23.95,31.44,341256.23,7350431.73
"46772",46772,1981,2,"kb","Kudu bull",1,-23.97,31.48,345351.11,7348261.36
"46790",46790,1981,2,"kb","Kudu bull",1,-23.95,31.46,343291.74,7350454.09
"46848",46848,1981,2,"kb","Kudu bull",1,-23.93,31.51,348357.09,7352723.49
"46949",46949,1981,2,"kb","Kudu bull",1,-23.93,31.55,352428.63,7352765.87
"46950",46950,1981,2,"kb","Kudu bull",3,-23.93,31.55,352428.63,7352765.87
"46960",46960,1981,2,"kb","Kudu bull",1,-23.95,31.55,352451.38,7350551.13
"46984",46984,1981,2,"kb","Kudu bull",1,-23.91,31.55,352405.9,7354980.6
"47034",47034,1981,3,"kb","Kudu bull",1,-23.93,31.19,315782.81,7352342.88
"47156",47156,1981,3,"kb","Kudu bull",1,-23.97,31.21,317875.01,7347938.84
"47192",47192,1981,3,"kb","Kudu bull",1,-23.93,31.21,317818.81,7352368.83
"47219",47219,1981,3,"kb","Kudu bull",1,-23.89,31.23,319799.31,7356824.43
"47226",47226,1981,3,"kb","Kudu bull",1,-23.91,31.21,317790.74,7354583.82
"47282",47282,1981,3,"kb","Kudu bull",1,-24.08,31.26,323114.04,7335820.19
"47291",47291,1981,3,"kb","Kudu bull",1,-24.08,31.28,325147.62,7335845.25
"47306",47306,1981,3,"kb","Kudu bull",1,-24.01,31.28,325052.77,7343597.62
"47307",47307,1981,3,"kb","Kudu bull",1,-24.01,31.28,325052.77,7343597.62
"47403",47403,1981,3,"kb","Kudu bull",1,-23.91,31.28,324917.72,7354672.32
"47451",47451,1981,3,"kb","Kudu bull",1,-24.08,31.32,329214.75,7335894.5
"47452",47452,1981,3,"kb","Kudu bull",1,-24.08,31.32,329214.75,7335894.5
"47462",47462,1981,3,"kb","Kudu bull",1,-24.01,31.3,327087.44,7343622.34
"47485",47485,1981,3,"kb","Kudu bull",1,-24.03,31.32,329148.55,7341431.84
"47521",47521,1981,3,"kb","Kudu bull",1,-23.89,31.3,326927.33,7356911.87
"47545",47545,1981,3,"kb","Kudu bull",1,-24.06,31.34,331222.11,7338133.62
"47699",47699,1981,4,"kb","Kudu bull",1,-23.72,31.15,311407.31,7375547.72
"47752",47752,1981,4,"kb","Kudu bull",1,-23.81,31.17,313574.96,7365606.67
"47877",47877,1981,4,"kb","Kudu bull",1,-23.74,31.19,315514.09,7373385.19
"47900",47900,1981,4,"kb","Kudu bull",2,-23.7,31.19,315457.78,7377815.09
"47958",47958,1981,4,"kb","Kudu bull",1,-23.83,31.21,317678.69,7363443.71
"47977",47977,1981,4,"kb","Kudu bull",1,-23.76,31.21,317580.94,7371196.04
"48258",48258,1981,4,"kb","Kudu bull",1,-23.83,31.3,326847.56,7363556.57
"48387",48387,1981,5,"kb","Kudu bull",1,-23.87,31.38,335048.07,7359222.32
"48471",48471,1981,5,"kb","Kudu bull",1,-23.83,31.42,339072.27,7363697.98
"48485",48485,1981,5,"kb","Kudu bull",2,-23.76,31.42,338986,7371449.75
"48548",48548,1981,5,"kb","Kudu bull",1,-23.83,31.46,343147.06,7363742.81
"48585",48585,1981,5,"kb","Kudu bull",2,-23.78,31.48,345125.13,7369301.68
"48598",48598,1981,5,"kb","Kudu bull",2,-23.85,31.51,348263.76,7361582.5
"48612",48612,1981,5,"kb","Kudu bull",3,-23.85,31.53,350300.8,7361603.78
"48687",48687,1981,5,"kb","Kudu bull",1,-23.85,31.57,354374.82,7361645.48
"48767",48767,1981,6,"kb","Kudu bull",3,-23.58,31.3,326517.21,7391242.29
"48771",48771,1981,6,"kb","Kudu bull",1,-23.58,31.32,328558.59,7391266.38
"48772",48772,1981,6,"kb","Kudu bull",1,-23.58,31.32,328558.59,7391266.38
"48900",48900,1981,6,"kb","Kudu bull",1,-23.64,31.4,336798.29,7384715.63
"48999",48999,1981,6,"kb","Kudu bull",3,-23.64,31.44,340879.03,7384760.77
"49006",49006,1981,6,"kb","Kudu bull",1,-23.66,31.42,338863.17,7382523.59
"49064",49064,1981,6,"kb","Kudu bull",2,-23.7,31.48,345030.5,7378160.61
"49158",49158,1981,7,"kb","Kudu bull",1,-23.7,31.26,322596.3,7377904.01
"49285",49285,1981,8,"kb","Kudu bull",1,-23.53,31.28,324409.38,7396755
"49312",49312,1981,8,"kb","Kudu bull",1,-23.45,31.28,324303.34,7405614.27
"49462",49462,1981,8,"kb","Kudu bull",1,-23.49,31.34,330484.62,7401256.71
"49474",49474,1981,8,"kb","Kudu bull",1,-23.49,31.36,332527.36,7401280.17
"49501",49501,1981,8,"kb","Kudu bull",1,-23.53,31.38,334620.06,7396873.84
"49612",49612,1981,9,"kb","Kudu bull",2,-23.56,31.15,311177.81,7393267.43
"49830",49830,1981,10,"kb","Kudu bull",2,-23.31,31.01,296502.15,7420763.86
"50166",50166,1981,10,"kb","Kudu bull",1,-23.41,31.15,310963.98,7409879.36
"50218",50218,1981,10,"kb","Kudu bull",1,-23.41,31.17,313008.1,7409905.45
"50289",50289,1981,11,"kb","Kudu bull",4,-23.37,31.21,317041.32,7414386.48
"50312",50312,1981,11,"kb","Kudu bull",2,-23.26,31.23,318937.01,7426593.16
"50361",50361,1981,11,"kb","Kudu bull",2,-23.39,31.28,324224.03,7412258.67
"50370",50370,1981,11,"kb","Kudu bull",3,-23.37,31.26,322153,7414448.96
"50411",50411,1981,11,"kb","Kudu bull",3,-23.28,31.28,324079.14,7424439.94
"50559",50559,1981,12,"kb","Kudu bull",1,-23.2,30.96,291216.33,7432875.37
"50728",50728,1981,12,"kb","Kudu bull",1,-23.22,31.11,306600.89,7430868.03
"50891",50891,1981,13,"kb","Kudu bull",4,-23.66,31.48,344983.29,7382590.05
"50909",50909,1981,13,"kb","Kudu bull",4,-23.76,31.53,350197.57,7371570.01
"50918",50918,1981,13,"kb","Kudu bull",1,-23.72,31.51,348112.74,7375978.21
"50940",50940,1981,13,"kb","Kudu bull",1,-23.74,31.53,350174.68,7373784.71
"50958",50958,1981,13,"kb","Kudu bull",2,-23.7,31.53,350128.95,7378214.1
"51088",51088,1981,13,"kb","Kudu bull",1,-23.81,31.59,356367.77,7366095.26
"51132",51132,1981,13,"kb","Kudu bull",1,-23.83,31.61,358427.09,7363900.7
"51133",51133,1981,13,"kb","Kudu bull",1,-23.83,31.61,358427.09,7363900.7
"51253",51253,1981,13,"kb","Kudu bull",1,-23.66,31.59,356203.21,7382705.2
"51331",51331,1981,13,"kb","Kudu bull",1,-23.72,31.63,360346.93,7376101.07
"51419",51419,1981,14,"kb","Kudu bull",2,-23.47,31.4,336588.15,7403540.94
"51432",51432,1981,14,"kb","Kudu bull",2,-23.56,31.44,340782.44,7393619.67
"51500",51500,1981,14,"kb","Kudu bull",1,-23.6,31.46,342871.67,7389212.34
"51506",51506,1981,14,"kb","Kudu bull",1,-23.6,31.48,344912.62,7389234.16
"51510",51510,1981,14,"kb","Kudu bull",2,-23.56,31.46,342824.03,7393641.75
"51556",51556,1981,14,"kb","Kudu bull",3,-23.47,31.46,342717.13,7403607.85
"51637",51637,1981,14,"kb","Kudu bull",1,-23.47,31.53,349867.45,7403682.67
"51662",51662,1981,14,"kb","Kudu bull",1,-23.45,31.53,349844.83,7405897.29
"51679",51679,1981,14,"kb","Kudu bull",1,-23.58,31.55,352033.44,7391522.95
"51680",51680,1981,14,"kb","Kudu bull",1,-23.58,31.55,352033.44,7391522.95
"51715",51715,1981,15,"kb","Kudu bull",5,-23.28,31.32,328171.15,7424487.94
"51783",51783,1981,15,"kb","Kudu bull",1,-23.39,31.42,338533.99,7412422.31
"51799",51799,1981,15,"kb","Kudu bull",1,-23.37,31.44,340554.28,7414659.22
"51853",51853,1981,15,"kb","Kudu bull",1,-23.41,31.51,347755.77,7410305.55
"51911",51911,1981,18,"kb","Kudu bull",1,-23.2,31.32,328068.62,7433346.83
"51923",51923,1981,18,"kb","Kudu bull",1,-23.22,31.34,330141.12,7431155.64
"51924",51924,1981,18,"kb","Kudu bull",1,-23.22,31.34,330141.12,7431155.64
"51925",51925,1981,18,"kb","Kudu bull",2,-23.22,31.34,330141.12,7431155.64
"51955",51955,1981,18,"kb","Kudu bull",1,-23.2,31.34,330115.82,7433370.34
"52007",52007,1981,18,"kb","Kudu bull",3,-23.18,31.4,336232.98,7435653.84
"52052",52052,1981,18,"kb","Kudu bull",1,-23.16,31.4,336208.65,7437868.48
"52071",52071,1981,18,"kb","Kudu bull",1,-23.12,31.4,336160.03,7442297.75
"52107",52107,1981,18,"kb","Kudu bull",1,-23.22,31.42,338328.56,7431246.94
"52152",52152,1981,18,"kb","Kudu bull",1,-23.2,31.44,340351.62,7433483.68
"52189",52189,1981,18,"kb","Kudu bull",1,-23.12,31.42,338208.39,7442320.07
"52190",52190,1981,18,"kb","Kudu bull",1,-23.12,31.42,338208.39,7442320.07
"52226",52226,1981,18,"kb","Kudu bull",3,-23.26,31.48,344515.38,7426883.24
"52234",52234,1981,18,"kb","Kudu bull",1,-23.28,31.48,344538.6,7424668.63
"52314",52314,1981,18,"kb","Kudu bull",1,-23.28,31.53,349653.25,7424721.39
"52315",52315,1981,18,"kb","Kudu bull",1,-23.28,31.53,349653.25,7424721.39
"52328",52328,1981,18,"kb","Kudu bull",1,-23.22,31.53,349585.95,7431365.1
"52337",52337,1981,18,"kb","Kudu bull",1,-23.18,31.51,347493.8,7435773.39
"52338",52338,1981,18,"kb","Kudu bull",1,-23.18,31.51,347493.8,7435773.39
"52343",52343,1981,18,"kb","Kudu bull",1,-23.2,31.51,347516.48,7433558.82
"52373",52373,1981,19,"kb","Kudu bull",1,-23.43,31.55,351865.76,7408132.62
"52381",52381,1981,19,"kb","Kudu bull",5,-23.39,31.55,351821.21,7412561.82
"52388",52388,1981,19,"kb","Kudu bull",1,-23.41,31.55,351843.48,7410347.22
"52551",52551,1981,19,"kb","Kudu bull",1,-23.89,31.69,366637.62,7357334.4
"52566",52566,1981,19,"kb","Kudu bull",1,-23.91,31.69,366658.13,7355119.76
"52597",52597,1981,19,"kb","Kudu bull",2,-23.81,31.67,364518.14,7366173.96
"52730",52730,1981,19,"kb","Kudu bull",1,-23.89,31.71,368673.92,7357353.11
"52750",52750,1981,19,"kb","Kudu bull",5,-23.91,31.71,368694.12,7355138.48
"52769",52769,1981,19,"kb","Kudu bull",1,-23.91,31.73,370730.1,7355156.92
"52840",52840,1981,19,"kb","Kudu bull",1,-23.95,31.78,375858.26,7350772.56
"52856",52856,1981,19,"kb","Kudu bull",5,-23.89,31.76,373764.62,7357398.64
"52909",52909,1981,19,"kb","Kudu bull",1,-23.93,31.82,379910.36,7353021.75
"52953",52953,1981,19,"kb","Kudu bull",2,-23.97,31.86,384017.34,7348626.07
"52979",52979,1981,19,"kb","Kudu bull",1,-23.95,31.84,381964.16,7350824.05
"52980",52980,1981,19,"kb","Kudu bull",2,-23.95,31.84,381964.16,7350824.05
"52992",52992,1981,19,"kb","Kudu bull",1,-23.95,31.86,383999.45,7350840.63
"52993",52993,1981,19,"kb","Kudu bull",1,-23.95,31.86,383999.45,7350840.63
"52994",52994,1981,19,"kb","Kudu bull",4,-23.95,31.86,383999.45,7350840.63
"53189",53189,1981,20,"kb","Kudu bull",1,-24.06,31.48,345458.74,7338294.73
"53202",53202,1981,20,"kb","Kudu bull",1,-24.08,31.46,343449.26,7336057.75
"53203",53203,1981,20,"kb","Kudu bull",3,-24.08,31.46,343449.26,7336057.75
"53228",53228,1981,20,"kb","Kudu bull",1,-24.03,31.46,343388.58,7341594.83
"53273",53273,1981,20,"kb","Kudu bull",1,-24.08,31.53,350566.28,7336134.04
"53286",53286,1981,20,"kb","Kudu bull",2,-24.1,31.55,352622.56,7333940.41
"53330",53330,1981,20,"kb","Kudu bull",2,-24.08,31.57,354633.08,7336176.04
"53489",53489,1981,21,"kb","Kudu bull",1,-24.22,31.48,345651.02,7320576
"53527",53527,1981,21,"kb","Kudu bull",1,-24.12,31.48,345530.71,7331650.25
"53562",53562,1981,21,"kb","Kudu bull",1,-24.14,31.51,348603.46,7329468.17
"53579",53579,1981,21,"kb","Kudu bull",2,-24.16,31.51,348627.03,7327253.34
"53633",53633,1981,21,"kb","Kudu bull",1,-24.16,31.55,352691.32,7327296.03
"53638",53638,1981,21,"kb","Kudu bull",2,-24.22,31.61,358853.73,7320713.58
"53643",53643,1981,21,"kb","Kudu bull",1,-24.24,31.61,358875.79,7318498.8
"53709",53709,1981,21,"kb","Kudu bull",2,-24.16,31.63,360819.76,7327377.92
"53716",53716,1981,22,"kb","Kudu bull",2,-24.47,31.4,337844.82,7292798.32
"53734",53734,1981,22,"kb","Kudu bull",1,-24.43,31.4,337793.61,7297228.28
"53840",53840,1981,22,"kb","Kudu bull",5,-24.43,31.42,339821.53,7297251.56
"53935",53935,1981,22,"kb","Kudu bull",1,-24.35,31.44,341749.8,7306134.29
"53936",53936,1981,22,"kb","Kudu bull",1,-24.35,31.44,341749.8,7306134.29
"53985",53985,1981,22,"kb","Kudu bull",1,-24.33,31.44,341724.94,7308349.22
"53995",53995,1981,22,"kb","Kudu bull",3,-24.28,31.44,341662.87,7313886.5
"54124",54124,1981,22,"kb","Kudu bull",3,-24.35,31.48,345808.14,7306179.28
"54153",54153,1981,22,"kb","Kudu bull",1,-24.37,31.48,345832.38,7303964.38
"54154",54154,1981,22,"kb","Kudu bull",1,-24.37,31.48,345832.38,7303964.38
"54194",54194,1981,22,"kb","Kudu bull",1,-24.28,31.48,345723.44,7313931.39
"54349",54349,1981,22,"kb","Kudu bull",1,-24.33,31.51,348828.12,7308427.13
"54350",54350,1981,22,"kb","Kudu bull",1,-24.33,31.51,348828.12,7308427.13
"54472",54472,1981,23,"kb","Kudu bull",1,-24.24,31.65,362937.43,7318538.68
"54488",54488,1981,23,"kb","Kudu bull",1,-24.2,31.63,360863.16,7322948.41
"54513",54513,1981,23,"kb","Kudu bull",3,-24.16,31.63,360819.76,7327377.92
"54534",54534,1981,23,"kb","Kudu bull",3,-24.12,31.65,362809.15,7331827.13
"54567",54567,1981,23,"kb","Kudu bull",1,-24.24,31.67,364968.23,7318558.18
"54591",54591,1981,23,"kb","Kudu bull",1,-24.2,31.67,364926.04,7322987.66
"54641",54641,1981,23,"kb","Kudu bull",1,-24.1,31.67,364820.85,7334061.27
"54772",54772,1981,23,"kb","Kudu bull",1,-24.08,31.69,366833.19,7336295.09
"54808",54808,1981,23,"kb","Kudu bull",6,-24.26,31.73,371080.73,7316400.23
"54816",54816,1981,23,"kb","Kudu bull",1,-24.22,31.71,369009.33,7320811.03
"54916",54916,1981,24,"kb","Kudu bull",1,-24.31,31.57,354893.66,7310705.89
"54946",54946,1981,24,"kb","Kudu bull",1,-24.39,31.59,357013.31,7301867.3
"54953",54953,1981,24,"kb","Kudu bull",3,-24.39,31.61,359041.75,7301887.77
"54999",54999,1981,24,"kb","Kudu bull",1,-24.31,31.61,358953.12,7310747.02
"55084",55084,1981,24,"kb","Kudu bull",1,-24.35,31.63,361026.47,7306337.56
"55085",55085,1981,24,"kb","Kudu bull",1,-24.35,31.63,361026.47,7306337.56
"55098",55098,1981,24,"kb","Kudu bull",7,-24.37,31.63,361048.32,7304122.76
"55100",55100,1981,24,"kb","Kudu bull",1,-24.37,31.65,363077.07,7304142.63
"55138",55138,1981,24,"kb","Kudu bull",1,-24.33,31.65,363034.02,7308572.21
"55139",55139,1981,24,"kb","Kudu bull",1,-24.33,31.65,363034.02,7308572.21
"55160",55160,1981,24,"kb","Kudu bull",3,-24.26,31.65,362958.86,7316323.92
"55253",55253,1981,24,"kb","Kudu bull",1,-24.31,31.67,365042.22,7310806.53
"55302",55302,1981,24,"kb","Kudu bull",4,-24.31,31.71,369101.56,7310844.75
"55313",55313,1981,24,"kb","Kudu bull",2,-24.33,31.71,369122.1,7308630
"55314",55314,1981,24,"kb","Kudu bull",2,-24.33,31.71,369122.1,7308630
"55364",55364,1981,24,"kb","Kudu bull",3,-24.31,31.76,374175.68,7310890.88
"55430",55430,1981,25,"kb","Kudu bull",1,-24.08,31.73,370899.81,7336332.45
"55494",55494,1981,25,"kb","Kudu bull",1,-24.14,31.78,376040.82,7329733.59
"55537",55537,1981,25,"kb","Kudu bull",1,-24.06,31.78,375963.78,7338592.16
"55548",55548,1981,25,"kb","Kudu bull",2,-24.08,31.76,373949.74,7336359.71
"55607",55607,1981,25,"kb","Kudu bull",1,-24.03,31.76,373900.89,7341896.32
"55608",55608,1981,25,"kb","Kudu bull",1,-24.03,31.76,373900.89,7341896.32
"55627",55627,1981,25,"kb","Kudu bull",2,-24.03,31.78,375934.96,7341914.11
"55665",55665,1981,25,"kb","Kudu bull",2,-24.18,31.8,378111.11,7325321.84
"55667",55667,1981,25,"kb","Kudu bull",1,-24.18,31.82,380142.78,7325339.13
"55724",55724,1981,25,"kb","Kudu bull",1,-24.06,31.8,377997.36,7338609.67
"55735",55735,1981,25,"kb","Kudu bull",1,-24.06,31.82,380030.94,7338626.9
"55746",55746,1981,25,"kb","Kudu bull",4,-24.08,31.82,380049.54,7336412.28
"55777",55777,1981,25,"kb","Kudu bull",1,-24.03,31.8,377969.01,7341931.6
"55831",55831,1981,25,"kb","Kudu bull",1,-24.14,31.84,382137.74,7329785.38
"55954",55954,1981,25,"kb","Kudu bull",5,-24.18,31.88,386237.75,7325389.24
"55983",55983,1981,25,"kb","Kudu bull",7,-24.16,31.88,386220.02,7327603.85
"56006",56006,1981,25,"kb","Kudu bull",1,-24.12,31.88,386184.61,7332033.06
"56085",56085,1981,26,"kb","Kudu bull",1,-24.33,31.78,376224.74,7308694.11
"56096",56096,1981,26,"kb","Kudu bull",4,-24.26,31.78,376156.82,7316445.55
"56198",56198,1981,26,"kb","Kudu bull",1,-24.37,31.82,380320.95,7304299.75
"56199",56199,1981,26,"kb","Kudu bull",1,-24.37,31.82,380320.95,7304299.75
"56200",56200,1981,26,"kb","Kudu bull",1,-24.37,31.82,380320.95,7304299.75
"56213",56213,1981,26,"kb","Kudu bull",6,-24.31,31.82,380264.54,7310943.82
"56223",56223,1981,26,"kb","Kudu bull",5,-24.33,31.8,378254.04,7308711.77
"56232",56232,1981,26,"kb","Kudu bull",2,-24.33,31.82,380283.33,7308729.14
"56234",56234,1981,26,"kb","Kudu bull",1,-24.26,31.8,378187.23,7316463.18
"56285",56285,1981,26,"kb","Kudu bull",10,-24.2,31.8,378130.12,7323107.18
"56358",56358,1981,26,"kb","Kudu bull",7,-24.35,31.84,382331.09,7306531.53
"56373",56373,1981,26,"kb","Kudu bull",1,-24.37,31.84,382349.59,7304316.85
"56398",56398,1981,26,"kb","Kudu bull",1,-24.31,31.84,382294.14,7310960.88
"56405",56405,1981,26,"kb","Kudu bull",1,-24.31,31.86,384323.74,7310977.66
"56415",56415,1981,26,"kb","Kudu bull",5,-24.33,31.84,382312.61,7308746.21
"56441",56441,1981,26,"kb","Kudu bull",2,-24.26,31.84,382248.04,7316497.54
"56442",56442,1981,26,"kb","Kudu bull",3,-24.26,31.84,382248.04,7316497.54
"56511",56511,1981,26,"kb","Kudu bull",1,-24.37,31.88,386406.85,7304350.16
"56512",56512,1981,26,"kb","Kudu bull",3,-24.37,31.88,386406.85,7304350.16
"56622",56622,1981,27,"kb","Kudu bull",3,-24.31,31.88,386353.32,7310994.14
"56668",56668,1981,27,"kb","Kudu bull",2,-24.26,31.88,386308.8,7316530.74
"56693",56693,1981,27,"kb","Kudu bull",1,-24.22,31.88,386273.25,7320960.01
"56738",56738,1981,27,"kb","Kudu bull",1,-24.2,31.9,388286.81,7323190.76
"56739",56739,1981,27,"kb","Kudu bull",1,-24.2,31.9,388286.81,7323190.76
"56740",56740,1981,27,"kb","Kudu bull",2,-24.2,31.9,388286.81,7323190.76
"56802",56802,1981,27,"kb","Kudu bull",3,-24.31,31.92,390412.45,7311026.22
"56911",56911,1981,27,"kb","Kudu bull",2,-24.39,31.96,394537.86,7302198.65
"56955",56955,1981,27,"kb","Kudu bull",1,-24.35,31.96,394504.68,7306627.91
"56968",56968,1981,27,"kb","Kudu bull",1,-24.37,31.96,394521.26,7304413.28
"56969",56969,1981,27,"kb","Kudu bull",1,-24.37,31.96,394521.26,7304413.28
"56970",56970,1981,27,"kb","Kudu bull",1,-24.37,31.96,394521.26,7304413.28
"57032",57032,1981,28,"kb","Kudu bull",1,-24.45,31.8,378368.98,7295423.49
"57094",57094,1981,28,"kb","Kudu bull",2,-24.45,31.84,382423.72,7295458.05
"57125",57125,1981,28,"kb","Kudu bull",1,-24.64,31.9,388673.58,7274468
"57126",57126,1981,28,"kb","Kudu bull",2,-24.64,31.9,388673.58,7274468
"57151",57151,1981,28,"kb","Kudu bull",1,-24.6,31.88,386613.22,7278881.12
"57158",57158,1981,28,"kb","Kudu bull",2,-24.6,31.9,388638.15,7278897.46
"57211",57211,1981,28,"kb","Kudu bull",1,-24.58,31.9,388620.45,7281112.17
"57249",57249,1981,28,"kb","Kudu bull",1,-24.47,31.9,388523.37,7293293.03
"57275",57275,1981,28,"kb","Kudu bull",2,-24.45,31.9,388505.76,7295507.71
"57276",57276,1981,28,"kb","Kudu bull",4,-24.45,31.9,388505.76,7295507.71
"57347",57347,1981,28,"kb","Kudu bull",1,-24.6,31.94,392687.98,7278929.24
"57517",57517,1981,28,"kb","Kudu bull",1,-24.49,31.94,392594.36,7291110.02
"57576",57576,1981,28,"kb","Kudu bull",3,-24.41,31.94,392526.51,7299968.66
"57603",57603,1981,28,"kb","Kudu bull",1,-24.53,31.96,394654.38,7286696.08
"57604",57604,1981,28,"kb","Kudu bull",4,-24.53,31.96,394654.38,7286696.08
"57688",57688,1981,29,"kb","Kudu bull",1,-24.64,31.8,378552.06,7274383.29
"57689",57689,1981,29,"kb","Kudu bull",1,-24.64,31.8,378552.06,7274383.29
"57712",57712,1981,29,"kb","Kudu bull",2,-24.66,31.8,378571.41,7272168.5
"57722",57722,1981,29,"kb","Kudu bull",2,-24.6,31.8,378513.41,7278812.85
"57850",57850,1981,29,"kb","Kudu bull",1,-24.7,31.86,384680.19,7267790.72
"57865",57865,1981,29,"kb","Kudu bull",3,-24.6,31.84,382563.33,7278847.57
"57921",57921,1981,29,"kb","Kudu bull",4,-24.53,31.84,382498.08,7286599.17
"57930",57930,1981,29,"kb","Kudu bull",3,-24.49,31.84,382460.87,7291028.62
"57984",57984,1981,29,"kb","Kudu bull",1,-24.68,31.92,390732.7,7270054.6
"58008",58008,1981,30,"kb","Kudu bull",2,-24.78,31.9,388798.02,7258964.73
"58031",58031,1981,30,"kb","Kudu bull",1,-24.76,31.94,392824.86,7261211.43
"58056",58056,1981,30,"kb","Kudu bull",2,-24.72,31.94,392790.56,7265640.92
"58116",58116,1981,30,"kb","Kudu bull",1,-24.64,31.94,392722.12,7274499.82
"58167",58167,1981,30,"kb","Kudu bull",1,-24.76,31.98,396869.49,7261242.19
"58172",58172,1981,30,"kb","Kudu bull",1,-24.78,31.96,394864.03,7259012.22
"58177",58177,1981,30,"kb","Kudu bull",1,-24.78,31.98,396886.01,7259027.45
"58182",58182,1981,30,"kb","Kudu bull",5,-24.72,31.96,394813.53,7265656.42
"58189",58189,1981,30,"kb","Kudu bull",3,-24.74,31.96,394830.35,7263441.69
"58196",58196,1981,30,"kb","Kudu bull",1,-24.74,31.98,396852.98,7263456.91
"58229",58229,1981,30,"kb","Kudu bull",1,-24.64,31.96,394746.38,7274515.29
"58230",58230,1981,30,"kb","Kudu bull",1,-24.64,31.96,394746.38,7274515.29
"58269",58269,1981,30,"kb","Kudu bull",1,-24.66,31.98,396787.08,7272315.76
"58270",58270,1981,30,"kb","Kudu bull",1,-24.66,31.98,396787.08,7272315.76
"58297",58297,1981,30,"kb","Kudu bull",3,-24.6,31.98,396737.78,7278959.84
"58298",58298,1981,30,"kb","Kudu bull",4,-24.6,31.98,396737.78,7278959.84
"58310",58310,1981,30,"kb","Kudu bull",1,-24.62,31.96,394729.62,7276729.99
"58358",58358,1981,30,"kb","Kudu bull",2,-24.56,31.98,396704.97,7283389.2
"58384",58384,1981,30,"kb","Kudu bull",1,-24.58,31.98,396721.37,7281174.52
"58385",58385,1981,30,"kb","Kudu bull",2,-24.58,31.98,396721.37,7281174.52
"58416",58416,1981,30,"kb","Kudu bull",1,-24.53,31.98,396680.4,7286711.2
"58474",58474,1981,30,"kb","Kudu bull",1,-24.47,32.01,399671.81,7293377.26
"58475",58475,1981,30,"kb","Kudu bull",1,-24.47,32.01,399671.81,7293377.26
"58529",58529,1981,31,"kb","Kudu bull",1,-24.43,31.63,361113.97,7297478.31
"58538",58538,1981,31,"kb","Kudu bull",5,-24.45,31.63,361135.88,7295263.49
"58541",58541,1981,31,"kb","Kudu bull",1,-24.45,31.65,363163.35,7295283.41
"58548",58548,1981,31,"kb","Kudu bull",1,-24.41,31.63,361092.07,7299693.13
"58549",58549,1981,31,"kb","Kudu bull",4,-24.41,31.63,361092.07,7299693.13
"58554",58554,1981,31,"kb","Kudu bull",1,-24.41,31.65,363120.17,7299713.03
"58599",58599,1981,31,"kb","Kudu bull",1,-24.56,31.67,365308.1,7283121.53
"58604",58604,1981,31,"kb","Kudu bull",1,-24.56,31.69,367333.78,7283140.94
"58605",58605,1981,31,"kb","Kudu bull",2,-24.56,31.69,367333.78,7283140.94
"58636",58636,1981,31,"kb","Kudu bull",3,-24.47,31.69,367239.21,7293107.58
"58721",58721,1981,31,"kb","Kudu bull",1,-24.41,31.69,367176.35,7299751.95
"58794",58794,1981,31,"kb","Kudu bull",1,-24.58,31.73,371405.52,7280964.05
"58880",58880,1981,31,"kb","Kudu bull",2,-24.47,31.73,371293.42,7293145.4
"58892",58892,1981,31,"kb","Kudu bull",3,-24.49,31.71,369286.99,7290911.85
"58990",58990,1981,31,"kb","Kudu bull",1,-24.6,31.78,376488.43,7278795.04
"59001",59001,1981,31,"kb","Kudu bull",1,-24.62,31.78,376508.08,7276580.26
"59002",59002,1981,31,"kb","Kudu bull",2,-24.62,31.78,376508.08,7276580.26
"59109",59109,1981,32,"kb","Kudu bull",3,-24.51,31.44,341949.39,7288414.72
"59123",59123,1981,32,"kb","Kudu bull",1,-24.53,31.44,341974.42,7286199.75
"59182",59182,1981,32,"kb","Kudu bull",2,-24.56,31.53,351128.06,7282977.49
"59183",59183,1981,32,"kb","Kudu bull",2,-24.56,31.53,351128.06,7282977.49
"59264",59264,1981,32,"kb","Kudu bull",7,-24.47,31.55,353049.13,7292965.99
"59319",59319,1981,32,"kb","Kudu bull",1,-24.56,31.59,357205.29,7283040.99
"59327",59327,1981,32,"kb","Kudu bull",1,-24.53,31.59,357171.32,7286363.31
"59336",59336,1981,32,"kb","Kudu bull",1,-24.47,31.61,359130.66,7293028.43
"59374",59374,1981,32,"kb","Kudu bull",2,-24.45,31.61,359108.41,7295243.27
"59386",59386,1981,32,"kb","Kudu bull",2,-24.41,31.59,357035.83,7299652.46
"59393",59393,1981,32,"kb","Kudu bull",1,-24.56,31.63,361256.72,7283081.85
"59436",59436,1981,33,"kb","Kudu bull",1,-24.58,31.55,353177.13,7280784.04
"59458",59458,1981,33,"kb","Kudu bull",1,-24.78,31.61,359477.77,7258697.65
"59499",59499,1981,33,"kb","Kudu bull",2,-24.64,31.61,359320.5,7274202.04
"59556",59556,1981,33,"kb","Kudu bull",2,-24.58,31.59,357227.96,7280826.1
"59576",59576,1981,33,"kb","Kudu bull",1,-24.78,31.65,363522.07,7258738.19
"59588",59588,1981,33,"kb","Kudu bull",4,-24.74,31.63,361455.55,7263147.9
"59647",59647,1981,33,"kb","Kudu bull",2,-24.66,31.65,363391.1,7272027.54
"59720",59720,1981,34,"kb","Kudu bull",1,-24.68,31.67,365436.64,7269832.43
"59721",59721,1981,34,"kb","Kudu bull",1,-24.68,31.67,365436.64,7269832.43
"59774",59774,1981,34,"kb","Kudu bull",1,-24.62,31.69,367397.01,7276496.44
"59893",59893,1981,34,"kb","Kudu bull",2,-24.66,31.73,371487.34,7272104.79
"60086",60086,1981,35,"kb","Kudu bull",1,-24.97,31.59,357673.46,7237634.71
"60172",60172,1981,35,"kb","Kudu bull",2,-24.97,31.63,361711.6,7237676.08
"60219",60219,1981,35,"kb","Kudu bull",1,-24.95,31.63,361689.25,7239891.05
"60242",60242,1981,35,"kb","Kudu bull",3,-24.95,31.65,363708.63,7239911.27
"60349",60349,1981,35,"kb","Kudu bull",1,-24.93,31.67,365706.31,7242146.14
"60350",60350,1981,35,"kb","Kudu bull",1,-24.93,31.67,365706.31,7242146.14
"60467",60467,1981,35,"kb","Kudu bull",2,-24.83,31.67,365598.14,7253220.76
"60524",60524,1981,35,"kb","Kudu bull",1,-24.91,31.73,371744.64,7244419
"60617",60617,1981,36,"kb","Kudu bull",1,-24.83,31.76,374693.96,7253306.44
"60641",60641,1981,36,"kb","Kudu bull",1,-24.78,31.78,376665.75,7258861.76
"60673",60673,1981,36,"kb","Kudu bull",1,-24.85,31.82,380776.89,7251145.39
"60753",60753,1981,36,"kb","Kudu bull",1,-24.85,31.84,382797.8,7251162.73
"60854",60854,1981,36,"kb","Kudu bull",1,-24.78,31.88,386776,7258948.31
"60859",60859,1981,37,"kb","Kudu bull",2,-24.89,31.9,388896.25,7246783.39
"60909",60909,1981,37,"kb","Kudu bull",1,-24.81,31.88,386803.23,7255626.13
"60959",60959,1981,37,"kb","Kudu bull",1,-24.89,31.94,392936.7,7246815.45
"60964",60964,1981,37,"kb","Kudu bull",4,-24.85,31.92,390881.36,7251229.15
"60979",60979,1981,37,"kb","Kudu bull",1,-24.85,31.94,392902.23,7251245.01
"61075",61075,1981,37,"kb","Kudu bull",2,-24.89,31.96,394956.9,7246831.03
"61076",61076,1981,37,"kb","Kudu bull",3,-24.89,31.96,394956.9,7246831.03
"61084",61084,1981,37,"kb","Kudu bull",2,-24.89,31.98,396977.1,7246846.32
"61094",61094,1981,37,"kb","Kudu bull",1,-24.85,31.98,396943.94,7251275.84
"61096",61096,1981,37,"kb","Kudu bull",5,-24.87,31.96,394939.99,7249045.81
"61150",61150,1981,37,"kb","Kudu bull",2,-24.89,32.01,400007.39,7246868.69
"61187",61187,1981,38,"kb","Kudu bull",1,-24.93,31.76,374794.81,7242232.07
"61204",61204,1981,38,"kb","Kudu bull",1,-24.93,31.78,376814.45,7242250.35
"61224",61224,1981,38,"kb","Kudu bull",1,-24.95,31.78,376834.34,7240035.47
"61263",61263,1981,38,"kb","Kudu bull",1,-25.01,31.82,380930.73,7233426.54
"61285",61285,1981,38,"kb","Kudu bull",1,-25.03,31.82,380950.02,7231211.66
"61323",61323,1981,38,"kb","Kudu bull",1,-24.93,31.8,378834.08,7242268.33
"61330",61330,1981,38,"kb","Kudu bull",1,-24.93,31.82,380853.69,7242286.01
"61342",61342,1981,38,"kb","Kudu bull",1,-24.95,31.8,378853.64,7240053.46
"61445",61445,1981,38,"kb","Kudu bull",0,-24.99,31.86,384948.7,7235675.96
"61446",61446,1981,38,"kb","Kudu bull",1,-24.99,31.86,384948.7,7235675.96
"61447",61447,1981,38,"kb","Kudu bull",1,-24.99,31.86,384948.7,7235675.96
"61450",61450,1981,38,"kb","Kudu bull",4,-24.93,31.84,382873.3,7242303.4
"61473",61473,1981,38,"kb","Kudu bull",1,-24.89,31.86,384855.78,7246750.15
"61557",61557,1981,38,"kb","Kudu bull",3,-24.95,31.9,388950.01,7240138.95
"61624",61624,1981,38,"kb","Kudu bull",2,-25.01,31.94,393040.41,7233526.64
"61652",61652,1981,38,"kb","Kudu bull",1,-24.97,31.94,393005.79,7237956.26
"61694",61694,1981,38,"kb","Kudu bull",3,-24.95,31.92,390969.26,7240155.16
"61745",61745,1981,38,"kb","Kudu bull",2,-25.16,31.96,395186.51,7216931.03
"61836",61836,1981,38,"kb","Kudu bull",4,-25.06,31.98,397118.62,7228020.59
"61861",61861,1981,38,"kb","Kudu bull",3,-25.08,31.98,397135.33,7225805.77
"61904",61904,1981,38,"kb","Kudu bull",1,-25.03,31.96,395075.67,7231327.46
"61938",61938,1981,38,"kb","Kudu bull",3,-24.97,31.98,397043.59,7237987.21
"61998",61998,1981,38,"kb","Kudu bull",3,-25.14,32.01,400209.68,7219183.82
"62015",62015,1981,38,"kb","Kudu bull",2,-25.16,32.01,400225.95,7216968.99
"62074",62074,1981,38,"kb","Kudu bull",1,-25.06,32.01,400144.74,7228043.08
"62075",62075,1981,38,"kb","Kudu bull",1,-25.06,32.01,400144.74,7228043.08
"62076",62076,1981,38,"kb","Kudu bull",2,-25.06,32.01,400144.74,7228043.08
"62128",62128,1981,38,"kb","Kudu bull",1,-25.03,32.01,400120.44,7231365.28
"62191",62191,1981,39,"kb","Kudu bull",1,-25.16,31.19,317571.15,7216110.15
"62192",62192,1981,39,"kb","Kudu bull",4,-25.16,31.19,317571.15,7216110.15
"62265",62265,1981,39,"kb","Kudu bull",1,-25.12,31.23,321545.39,7220594.31
"62279",62279,1981,39,"kb","Kudu bull",1,-25.06,31.23,321458.31,7227240.15
"62297",62297,1981,39,"kb","Kudu bull",2,-25.08,31.23,321487.31,7225024.88
"62303",62303,1981,39,"kb","Kudu bull",2,-25.03,31.23,321414.84,7230563.06
"62320",62320,1981,39,"kb","Kudu bull",2,-25.14,31.28,326615.72,7218444.27
"62343",62343,1981,39,"kb","Kudu bull",2,-25.12,31.26,324570.65,7220633.66
"62389",62389,1981,39,"kb","Kudu bull",1,-25.08,31.26,324513.56,7225064.18
"62409",62409,1981,39,"kb","Kudu bull",1,-25.01,31.26,324413.85,7232817.54
"62442",62442,1981,39,"kb","Kudu bull",2,-24.99,31.26,324385.41,7235032.77
"62564",62564,1981,39,"kb","Kudu bull",1,-25.1,31.34,332610.61,7222950.51
"62569",62569,1981,39,"kb","Kudu bull",1,-25.1,31.36,334627.71,7222975.16
"62570",62570,1981,39,"kb","Kudu bull",1,-25.1,31.36,334627.71,7222975.16
"62581",62581,1981,39,"kb","Kudu bull",2,-25.06,31.34,332556.19,7227380.9
"62656",62656,1981,40,"kb","Kudu bull",1,-25.22,31.23,321690.97,7209517.81
"62664",62664,1981,40,"kb","Kudu bull",1,-25.18,31.21,319616.81,7213921.77
"62665",62665,1981,40,"kb","Kudu bull",2,-25.18,31.21,319616.81,7213921.77
"62681",62681,1981,40,"kb","Kudu bull",1,-25.18,31.23,321632.67,7213948.43
"62701",62701,1981,40,"kb","Kudu bull",1,-25.2,31.21,319646.27,7211706.45
"62762",62762,1981,40,"kb","Kudu bull",1,-25.22,31.26,324713.76,7209557.27
"62763",62763,1981,40,"kb","Kudu bull",3,-25.22,31.26,324713.76,7209557.27
"62779",62779,1981,40,"kb","Kudu bull",1,-25.22,31.28,326728.93,7209583.2
"62819",62819,1981,40,"kb","Kudu bull",1,-25.18,31.28,326672.29,7214013.75
"62820",62820,1981,40,"kb","Kudu bull",1,-25.18,31.28,326672.29,7214013.75
"62821",62821,1981,40,"kb","Kudu bull",3,-25.18,31.28,326672.29,7214013.75
"62833",62833,1981,40,"kb","Kudu bull",1,-25.2,31.26,324685.09,7211772.56
"62845",62845,1981,40,"kb","Kudu bull",2,-25.2,31.28,326700.6,7211798.48
"62846",62846,1981,40,"kb","Kudu bull",2,-25.2,31.28,326700.6,7211798.48
"62938",62938,1981,40,"kb","Kudu bull",1,-25.22,31.32,330759.24,7209634.17
"62950",62950,1981,40,"kb","Kudu bull",3,-25.24,31.3,328772.12,7207393.57
"62967",62967,1981,40,"kb","Kudu bull",1,-25.18,31.3,328688.11,7214039.35
"63003",63003,1981,40,"kb","Kudu bull",1,-25.2,31.32,330731.57,7211849.42
"63004",63004,1981,40,"kb","Kudu bull",3,-25.2,31.32,330731.57,7211849.42
"63029",63029,1981,40,"kb","Kudu bull",1,-25.22,31.34,332774.38,7209659.21
"63058",63058,1981,40,"kb","Kudu bull",2,-25.2,31.36,334762.48,7211899.16
"63097",63097,1981,41,"kb","Kudu bull",1,-25.26,31.34,332829.13,7205228.73
"63101",63101,1981,41,"kb","Kudu bull",1,-25.26,31.36,334843.59,7205253.49
"63104",63104,1981,41,"kb","Kudu bull",1,-25.28,31.34,332856.53,7203013.48
"63124",63124,1981,41,"kb","Kudu bull",1,-25.14,31.36,334681.56,7218544.77
"63133",63133,1981,41,"kb","Kudu bull",3,-25.12,31.36,334654.63,7220759.97
"63223",63223,1981,41,"kb","Kudu bull",1,-25.16,31.38,336724.61,7216353.97
"63236",63236,1981,41,"kb","Kudu bull",2,-25.12,31.4,338688.12,7220808.39
"63244",63244,1981,41,"kb","Kudu bull",1,-25.31,31.42,340952.14,7199787.99
"63273",63273,1981,41,"kb","Kudu bull",1,-25.22,31.42,340834.79,7209756.34
"63342",63342,1981,41,"kb","Kudu bull",3,-25.16,31.44,342772.83,7216425.34
"63355",63355,1981,41,"kb","Kudu bull",1,-25.12,31.42,340704.85,7220832.16
"63356",63356,1981,41,"kb","Kudu bull",1,-25.12,31.42,340704.85,7220832.16
"63362",63362,1981,41,"kb","Kudu bull",1,-25.12,31.44,342721.57,7220855.62
"63380",63380,1981,41,"kb","Kudu bull",2,-25.22,31.48,346879.96,7209826.04
"63405",63405,1981,41,"kb","Kudu bull",1,-25.18,31.48,346829.91,7214256.3
"63406",63406,1981,41,"kb","Kudu bull",2,-25.18,31.48,346829.91,7214256.3
"63408",63408,1981,41,"kb","Kudu bull",2,-25.2,31.46,344839.55,7212018.26
"63436",63436,1981,41,"kb","Kudu bull",4,-25.16,31.48,346804.91,7216471.43
"63444",63444,1981,41,"kb","Kudu bull",1,-25.12,31.46,344738.27,7220878.79
"63445",63445,1981,41,"kb","Kudu bull",3,-25.12,31.46,344738.27,7220878.79
"63474",63474,1981,41,"kb","Kudu bull",1,-25.14,31.51,349804.45,7218720.3
"63560",63560,1981,42,"kb","Kudu bull",2,-25.24,31.51,349927.07,7207644.76
"63561",63561,1981,42,"kb","Kudu bull",2,-25.24,31.51,349927.07,7207644.76
"63562",63562,1981,42,"kb","Kudu bull",3,-25.24,31.51,349927.07,7207644.76
"63611",63611,1981,42,"kb","Kudu bull",1,-25.16,31.53,351844.94,7216527.35
"63707",63707,1981,42,"kb","Kudu bull",1,-25.28,31.55,354004.29,7203258.64
"63724",63724,1981,42,"kb","Kudu bull",3,-25.28,31.57,356018.29,7203280.26
"63787",63787,1981,42,"kb","Kudu bull",1,-25.24,31.57,355971.1,7207710.45
"63849",63849,1981,42,"kb","Kudu bull",3,-25.14,31.55,353837.11,7218764.27
"63924",63924,1981,42,"kb","Kudu bull",1,-25.08,31.55,353765.73,7225409.45
"63952",63952,1981,42,"kb","Kudu bull",1,-25.33,31.59,358090.54,7197763.86
"64012",64012,1981,42,"kb","Kudu bull",1,-25.28,31.59,358032.28,7203301.58
"64071",64071,1981,42,"kb","Kudu bull",3,-25.22,31.61,359977.48,7209967.79
"64085",64085,1981,42,"kb","Kudu bull",1,-25.24,31.59,357985.75,7207731.74
"64086",64086,1981,42,"kb","Kudu bull",1,-25.24,31.59,357985.75,7207731.74
"64104",64104,1981,42,"kb","Kudu bull",1,-25.24,31.61,360000.39,7207752.74
"64142",64142,1981,42,"kb","Kudu bull",2,-25.2,31.59,357939.29,7212161.88
"64158",64158,1981,42,"kb","Kudu bull",1,-25.14,31.59,357869.72,7218807.04
"64172",64172,1981,42,"kb","Kudu bull",2,-25.16,31.61,359908.85,7216612.93
"64190",64190,1981,42,"kb","Kudu bull",1,-25.08,31.59,357800.31,7225452.15
"64224",64224,1981,43,"kb","Kudu bull",1,-25.1,31.38,336644.79,7222999.51
"64228",64228,1981,43,"kb","Kudu bull",1,-25.1,31.4,338661.87,7223023.56
"64236",64236,1981,43,"kb","Kudu bull",1,-25.06,31.4,338609.41,7227453.86
"64318",64318,1981,43,"kb","Kudu bull",1,-25.1,31.44,342695.97,7223070.76
"64330",64330,1981,43,"kb","Kudu bull",1,-25.06,31.44,342644.83,7227501.01
"64349",64349,1981,43,"kb","Kudu bull",1,-25.08,31.44,342670.39,7225285.89
"64415",64415,1981,43,"kb","Kudu bull",2,-25.1,31.48,346730.02,7223116.76
"64506",64506,1981,43,"kb","Kudu bull",1,-25.03,31.48,346642.87,7230869.59
"64523",64523,1981,43,"kb","Kudu bull",1,-24.99,31.46,344574.35,7235276.97
"64532",64532,1981,43,"kb","Kudu bull",4,-24.99,31.48,346593.17,7235299.75
"64601",64601,1981,43,"kb","Kudu bull",1,-25.08,31.51,349731.1,7225365.57
"64612",64612,1981,43,"kb","Kudu bull",1,-25.08,31.53,351748.42,7225387.66
"64945",64945,1981,44,"kb","Kudu bull",2,-25.2,31.65,363985.16,7212223.89
"64950",64950,1981,44,"kb","Kudu bull",7,-25.31,31.69,368134.54,7200081.13
"65045",65045,1981,44,"kb","Kudu bull",1,-25.18,31.69,367994.12,7214478.73
"65239",65239,1981,44,"kb","Kudu bull",1,-25.2,31.73,372046.17,7212302.38
"65268",65268,1981,44,"kb","Kudu bull",1,-25.33,31.78,377215.08,7197951.68
"65324",65324,1981,44,"kb","Kudu bull",4,-25.22,31.76,375089.43,7210115.61
"65403",65403,1981,44,"kb","Kudu bull",2,-25.28,31.82,381192.43,7203525.16
"65739",65739,1981,45,"kb","Kudu bull",1,-25.2,31.86,385144.98,7212419.69
"65740",65740,1981,45,"kb","Kudu bull",1,-25.2,31.86,385144.98,7212419.69
"65876",65876,1981,45,"kb","Kudu bull",1,-25.16,31.88,387123.3,7216866.41
"65973",65973,1981,46,"kb","Kudu bull",1,-25.22,31.86,385163.75,7210204.77
"66080",66080,1981,46,"kb","Kudu bull",7,-25.22,31.88,387178.59,7210221.71
"66250",66250,1981,46,"kb","Kudu bull",1,-25.28,31.94,393275.49,7203626.04
"66331",66331,1981,46,"kb","Kudu bull",2,-25.18,31.92,391172.68,7214684.44
"66366",66366,1981,46,"kb","Kudu bull",1,-25.2,31.92,391190.45,7212469.56
"66585",66585,1981,46,"kb","Kudu bull",1,-25.31,31.98,397328.38,7200334.94
"66698",66698,1981,46,"kb","Kudu bull",1,-25.24,31.96,395254.99,7208071.57
"66762",66762,1981,46,"kb","Kudu bull",2,-25.18,31.98,397219.06,7214731.59
"66841",66841,1981,46,"kb","Kudu bull",1,-25.37,32.01,400397.47,7193712.94
"66891",66891,1981,46,"kb","Kudu bull",1,-25.28,32.01,400323.8,7203679.9
"66949",66949,1981,46,"kb","Kudu bull",2,-25.18,32.01,400242.23,7214754.16
"66974",66974,1981,46,"kb","Kudu bull",2,-25.2,32.03,402273.62,7212553.99
"67248",67248,1981,47,"kb","Kudu bull",1,-22.68,31.3,325355.3,7490904.22
"67255",67255,1981,47,"kb","Kudu bull",2,-22.7,31.32,327435.42,7488713.01
"67266",67266,1981,47,"kb","Kudu bull",3,-22.6,31.3,325254.1,7499762.56
"67271",67271,1981,47,"kb","Kudu bull",1,-22.6,31.32,327310.35,7499785.87
"67276",67276,1981,47,"kb","Kudu bull",1,-22.62,31.32,327335.33,7497571.31
"67277",67277,1981,47,"kb","Kudu bull",2,-22.62,31.32,327335.33,7497571.31
"67278",67278,1981,47,"kb","Kudu bull",3,-22.62,31.32,327335.33,7497571.31
"67309",67309,1981,47,"kb","Kudu bull",9,-22.68,31.38,333575.47,7490996.07
"67498",67498,1981,48,"kb","Kudu bull",2,-22.76,31.34,329564.57,7482092.41
"67652",67652,1981,49,"kb","Kudu bull",1,-23.01,31.34,329876.55,7454409.72
"67666",67666,1981,49,"kb","Kudu bull",1,-22.99,31.34,329851.47,7456624.36
"67707",67707,1981,49,"kb","Kudu bull",3,-22.91,31.38,333854.52,7465528.62
"67894",67894,1981,50,"kb","Kudu bull",1,-23.12,31.48,344353.4,7442385.37
"67904",67904,1981,50,"kb","Kudu bull",2,-23.06,31.46,342235.03,7449007.61
"67927",67927,1981,50,"kb","Kudu bull",1,-23.03,31.46,342200.07,7452329.46
"67958",67958,1981,50,"kb","Kudu bull",1,-23.08,31.51,347380.66,7446846.15
"67979",67979,1981,50,"kb","Kudu bull",4,-23.2,31.55,351610.61,7433600.21
"67987",67987,1981,52,"kb","Kudu bull",1,-23.14,31.19,314678.83,7439831.55
"68025",68025,1981,52,"kb","Kudu bull",1,-23.18,31.23,318829.08,7435452.31
"68063",68063,1981,52,"kb","Kudu bull",5,-23.14,31.23,318775.24,7439881.86
"68177",68177,1981,52,"kb","Kudu bull",10,-23.18,31.3,325995.52,7435537.76
"68274",68274,1981,52,"kb","Kudu bull",1,-23.12,31.36,332063.26,7442252.25
"68332",68332,1981,53,"kb","Kudu bull",2,-23.08,30.9,284882.23,7446078.32
"68368",68368,1981,53,"kb","Kudu bull",1,-23.06,30.94,288949.74,7448351.69
"68373",68373,1981,53,"kb","Kudu bull",7,-23.08,30.94,288980.96,7446136.68
"68378",68378,1981,53,"kb","Kudu bull",1,-23.01,30.92,286821.38,7453860.23
"68389",68389,1981,53,"kb","Kudu bull",1,-23.03,30.94,288902.96,7451674.2
"68390",68390,1981,53,"kb","Kudu bull",2,-23.03,30.94,288902.96,7451674.2
"68394",68394,1981,53,"kb","Kudu bull",1,-22.99,30.92,286789.95,7456075.24
"68397",68397,1981,53,"kb","Kudu bull",4,-22.99,30.94,288840.67,7456104.19
"68398",68398,1981,53,"kb","Kudu bull",1,-23.14,30.96,291123.2,7439520.42
"68447",68447,1981,53,"kb","Kudu bull",2,-23.06,30.96,290999.38,7448380.43
"68464",68464,1981,53,"kb","Kudu bull",1,-23.08,30.98,293079.61,7446193.91
"68489",68489,1981,53,"kb","Kudu bull",1,-23.03,30.96,290953.05,7451702.91
"68549",68549,1981,53,"kb","Kudu bull",1,-23.08,31.01,296153.55,7446236.09
"68587",68587,1981,53,"kb","Kudu bull",4,-23.18,31.07,302447.92,7435244.04
"68608",68608,1981,53,"kb","Kudu bull",3,-23.12,31.07,302359.89,7441888.77
"68625",68625,1981,53,"kb","Kudu bull",1,-23.18,31.11,306543.31,7435297.8
"68674",68674,1981,53,"kb","Kudu bull",1,-23.03,31.11,306328.2,7451909.28
"68763",68763,1981,53,"kb","Kudu bull",1,-23.2,31.17,312714.13,7433161.49
"68787",68787,1981,53,"kb","Kudu bull",1,-23.2,31.19,314761.44,7433187.12
"68801",68801,1981,53,"kb","Kudu bull",1,-23.14,31.17,312630.6,7439805.97
"68858",68858,1981,54,"kb","Kudu bull",2,-22.99,30.96,290891.37,7456132.86
"68864",68864,1981,54,"kb","Kudu bull",3,-22.93,30.96,290799.04,7462777.76
"68941",68941,1981,54,"kb","Kudu bull",4,-22.99,31.03,298068.68,7456231
"69031",69031,1981,54,"kb","Kudu bull",6,-22.99,31.05,300119.3,7456258.41
"69038",69038,1981,54,"kb","Kudu bull",2,-22.99,31.07,302169.9,7456285.54
"69046",69046,1981,54,"kb","Kudu bull",2,-22.93,31.07,302082.56,7462930.13
"69071",69071,1981,54,"kb","Kudu bull",1,-22.91,31.07,302053.49,7465144.98
"69078",69078,1981,54,"kb","Kudu bull",2,-23.01,31.09,304249.35,7454097.53
"69087",69087,1981,54,"kb","Kudu bull",4,-22.97,31.09,304191.65,7458527.24
"69236",69236,1981,54,"kb","Kudu bull",3,-22.93,31.19,314391.27,7463086.7
"69313",69313,1981,54,"kb","Kudu bull",2,-22.95,31.21,316469.65,7460897.08
"69387",69387,1981,55,"kb","Kudu bull",1,-22.87,31.01,295838.14,7469492.78
"69429",69429,1981,55,"kb","Kudu bull",1,-22.78,31.03,297757.6,7479487.26
"69456",69456,1981,55,"kb","Kudu bull",3,-22.87,31.05,299943.02,7469547.65
"69466",69466,1981,55,"kb","Kudu bull",1,-22.87,31.07,301995.43,7469574.67
"69467",69467,1981,55,"kb","Kudu bull",2,-22.87,31.07,301995.43,7469574.67
"69503",69503,1981,55,"kb","Kudu bull",1,-22.76,31.07,301836.26,7481756.22
"69508",69508,1981,55,"kb","Kudu bull",1,-22.78,31.05,299811.38,7479514.47
"69524",69524,1981,55,"kb","Kudu bull",1,-22.74,31.05,299753.03,7483944.13
"69593",69593,1981,55,"kb","Kudu bull",3,-22.72,31.11,305887.84,7486238.77
"69640",69640,1981,55,"kb","Kudu bull",2,-22.83,31.15,310149.36,7474109.48
"69643",69643,1981,55,"kb","Kudu bull",1,-22.76,31.13,307998.36,7481835.31
"69645",69645,1981,55,"kb","Kudu bull",1,-22.76,31.15,310052.36,7481861.11
"69647",69647,1981,55,"kb","Kudu bull",3,-22.78,31.15,310080.05,7479646.37
"69651",69651,1981,55,"kb","Kudu bull",2,-22.93,31.19,314391.27,7463086.7
"69660",69660,1981,55,"kb","Kudu bull",1,-22.89,31.17,312284.77,7467490.83
"69672",69672,1981,55,"kb","Kudu bull",1,-22.91,31.17,312312.3,7465276.07
"69681",69681,1981,55,"kb","Kudu bull",1,-22.91,31.19,314364.02,7465301.45
"69711",69711,1981,55,"kb","Kudu bull",1,-22.81,31.17,312174.85,7476349.81
"69715",69715,1981,55,"kb","Kudu bull",1,-22.81,31.19,314228.07,7476375.11
"69853",69853,1981,56,"kb","Kudu bull",1,-25.33,31.46,345004.77,7197619.7
"69944",69944,1981,56,"kb","Kudu bull",1,-25.37,31.51,350087.15,7193246.34
"69945",69945,1981,56,"kb","Kudu bull",1,-25.37,31.51,350087.15,7193246.34
"69975",69975,1981,56,"kb","Kudu bull",1,-25.33,31.51,350037.82,7197676.65
"70031",70031,1981,56,"kb","Kudu bull",1,-25.41,31.55,354160.3,7188860.32
"70056",70056,1981,56,"kb","Kudu bull",1,-25.35,31.55,354088.2,7195505.73
"70072",70072,1981,56,"kb","Kudu bull",1,-25.35,31.57,356101.04,7195527.39
"70087",70087,1981,56,"kb","Kudu bull",1,-25.37,31.55,354112.22,7193290.6
"70114",70114,1981,56,"kb","Kudu bull",1,-25.31,31.55,354040.22,7199935.97
"70324",70324,1981,56,"kb","Kudu bull",1,-25.31,31.63,362094.18,7200020.72
"70359",70359,1981,56,"kb","Kudu bull",1,-25.33,31.65,364129.97,7197826.1
"70367",70367,1981,56,"kb","Kudu bull",1,-25.28,31.63,362060.23,7203343.32
"70385",70385,1981,56,"kb","Kudu bull",1,-25.39,31.67,366209.17,7191201.07
"70486",70486,1981,56,"kb","Kudu bull",1,-25.33,31.69,368156.21,7197866.09
"70497",70497,1981,56,"kb","Kudu bull",5,-25.28,31.67,366088.14,7203383.86
"70528",70528,1981,56,"kb","Kudu bull",1,-25.37,31.73,372224.45,7193474.84
"70534",70534,1981,56,"kb","Kudu bull",2,-25.33,31.71,370169.31,7197885.64
"70589",70589,1981,58,"kb","Kudu bull",1,-25.16,31.61,359908.85,7216612.93
"70605",70605,1981,58,"kb","Kudu bull",5,-25.12,31.61,359863.18,7221043
"70680",70680,1981,58,"kb","Kudu bull",1,-25.16,31.65,363940.74,7216653.93
"70734",70734,1981,58,"kb","Kudu bull",2,-25.12,31.63,361879.79,7221063.62
"70754",70754,1981,58,"kb","Kudu bull",2,-25.12,31.65,363896.39,7221083.95
"70755",70755,1981,58,"kb","Kudu bull",2,-25.12,31.65,363896.39,7221083.95
"70772",70772,1981,58,"kb","Kudu bull",1,-25.06,31.65,363829.98,7227728.93
"70782",70782,1981,58,"kb","Kudu bull",3,-25.08,31.63,361834.85,7225493.64
"70848",70848,1981,58,"kb","Kudu bull",1,-25.16,31.67,365956.66,7216673.98
"70942",70942,1981,58,"kb","Kudu bull",1,-25.06,31.67,365847.55,7227748.92
"70943",70943,1981,58,"kb","Kudu bull",1,-25.06,31.67,365847.55,7227748.92
"70967",70967,1981,58,"kb","Kudu bull",1,-25.06,31.69,367865.11,7227768.61
"70984",70984,1981,58,"kb","Kudu bull",1,-25.08,31.67,365869.34,7225533.94
"70996",70996,1981,58,"kb","Kudu bull",1,-25.08,31.69,367886.57,7225553.65
"71013",71013,1981,58,"kb","Kudu bull",3,-25.16,31.71,369988.49,7216713.18
"71079",71079,1981,58,"kb","Kudu bull",2,-25.08,31.71,369903.79,7225573.05
"71120",71120,1981,58,"kb","Kudu bull",1,-25.16,31.76,375028.21,7216760.49
"71145",71145,1981,58,"kb","Kudu bull",1,-25.12,31.78,377004,7221208.76
"71147",71147,1981,58,"kb","Kudu bull",2,-25.06,31.76,374926.48,7227835.18
"71190",71190,1981,58,"kb","Kudu bull",1,-25.08,31.78,376963.98,7225638.61
"71443",71443,1981,60,"kb","Kudu bull",1,-24.97,31.69,367768.73,7237735.89
"71536",71536,1981,60,"kb","Kudu bull",1,-25.01,31.76,374875.76,7233372.48
