"","ID","Year","Cenb","Sp","Description","No","Lat","Long","X.coord","Y.coord"
"101142",101142,1983,7,"ro","Roan antelope",10,-23.62,31.21,317386.26,7386700.53
"101284",101284,1983,8,"ro","Roan antelope",4,-23.56,31.26,322407.51,7393408.1
"102400",102400,1983,11,"ro","Roan antelope",10,-23.26,31.28,324052.87,7426654.7
"102534",102534,1983,12,"ro","Roan antelope",6,-23.24,31.01,296395.71,7428516.35
"102794",102794,1983,13,"ro","Roan antelope",19,-23.64,31.51,348020.2,7384837
"102803",102803,1983,13,"ro","Roan antelope",6,-23.64,31.53,350060.5,7384858.14
"103025",103025,1983,13,"ro","Roan antelope",3,-23.68,31.59,356225.1,7380490.56
"103057",103057,1983,13,"ro","Roan antelope",7,-23.6,31.59,356137.66,7389349.09
"103177",103177,1983,13,"ro","Roan antelope",6,-23.66,31.63,360283.09,7382744.93
"103187",103187,1983,14,"ro","Roan antelope",8,-23.51,31.4,336637.46,7399111.49
"103346",103346,1983,14,"ro","Roan antelope",3,-23.58,31.48,344889.11,7391448.86
"103361",103361,1983,14,"ro","Roan antelope",21,-23.51,31.48,344806.94,7399200.25
"103497",103497,1983,15,"ro","Roan antelope",4,-23.33,31.32,328235.39,7418951.1
"103510",103510,1983,15,"ro","Roan antelope",4,-23.39,31.36,332401.24,7412353.88
"103518",103518,1983,15,"ro","Roan antelope",1,-23.41,31.34,330382.45,7410115.75
"103567",103567,1983,15,"ro","Roan antelope",3,-23.39,31.38,334445.5,7412376.97
"103573",103573,1983,15,"ro","Roan antelope",3,-23.39,31.4,336489.75,7412399.78
"103730",103730,1983,18,"ro","Roan antelope",14,-23.24,31.32,328119.84,7428917.4
"103768",103768,1983,18,"ro","Roan antelope",2,-23.24,31.34,330166.43,7428940.94
"103799",103799,1983,18,"ro","Roan antelope",2,-23.2,31.34,330115.82,7433370.34
"104100",104100,1983,18,"ro","Roan antelope",10,-23.22,31.46,342422.21,7431290.89
"104103",104103,1983,18,"ro","Roan antelope",2,-23.22,31.48,344469.01,7431312.45
"104337",104337,1983,19,"ro","Roan antelope",4,-23.6,31.63,360219.4,7389388.75
"116780",116780,1983,47,"ro","Roan antelope",16,-22.78,31.26,321375.11,7479783.42
"116966",116966,1983,48,"ro","Roan antelope",2,-22.78,31.26,321375.11,7479783.42
"116977",116977,1983,48,"ro","Roan antelope",11,-22.89,31.3,325622.58,7467650.69
"116984",116984,1983,48,"ro","Roan antelope",16,-22.85,31.3,325571.49,7472079.98
"117034",117034,1983,48,"ro","Roan antelope",1,-22.78,31.3,325482.29,7479831.18
"117073",117073,1983,48,"ro","Roan antelope",14,-22.81,31.34,329626.71,7476555.93
"117078",117078,1983,48,"ro","Roan antelope",6,-22.81,31.36,331679.79,7476578.86
"117132",117132,1983,48,"ro","Roan antelope",13,-22.87,31.38,333805.8,7469957.79
"117177",117177,1983,48,"ro","Roan antelope",2,-22.78,31.4,335749.98,7479945.7
"117399",117399,1983,49,"ro","Roan antelope",7,-22.95,31.38,333903.33,7461099.43
"117621",117621,1983,50,"ro","Roan antelope",8,-23.18,31.53,349541.17,7435794.21
"117646",117646,1983,50,"ro","Roan antelope",14,-23.1,31.51,347403.25,7444631.61
"117950",117950,1983,52,"ro","Roan antelope",5,-23.1,31.32,327940.94,7444420.32
"118015",118015,1983,52,"ro","Roan antelope",10,-23.06,31.36,331988.65,7448896.21
"118238",118238,1983,53,"ro","Roan antelope",4,-23.01,31.03,298098.45,7454016.09
"118239",118239,1983,53,"ro","Roan antelope",6,-23.01,31.03,298098.45,7454016.09
"118343",118343,1983,53,"ro","Roan antelope",3,-23.03,31.07,302228.25,7451855.79
