"","ID","Year","Cenb","Sp","Description","No","Lat","Long","X.coord","Y.coord"
"146082",146082,1985,1,"w","Blue wildebeest",5,-23.87,31.57,354397.19,7359430.77
"146192",146192,1985,1,"w","Blue wildebeest",10,-23.88,31.61,358481.42,7358364
"146240",146240,1985,1,"w","Blue wildebeest",8,-23.86,31.61,358459.67,7360578.69
"146242",146242,1985,1,"w","Blue wildebeest",4,-23.86,31.61,358459.67,7360578.69
"146264",146264,1985,1,"w","Blue wildebeest",3,-24,31.65,362681.48,7345115.38
"146270",146270,1985,1,"w","Blue wildebeest",2,-23.96,31.63,360603.82,7349525.13
"146494",146494,1985,1,"w","Blue wildebeest",17,-23.98,31.67,364695.17,7347349.42
"146495",146495,1985,1,"w","Blue wildebeest",6,-23.98,31.67,364695.17,7347349.42
"146532",146532,1985,1,"w","Blue wildebeest",8,-23.93,31.68,365660.83,7352895.64
"146546",146546,1985,1,"w","Blue wildebeest",4,-23.94,31.67,364653.41,7351778.75
"146561",146561,1985,1,"w","Blue wildebeest",11,-23.95,31.7,367716.9,7350699.87
"146651",146651,1985,1,"w","Blue wildebeest",8,-23.99,31.71,368775.1,7346279.91
"146719",146719,1985,10,"w","Blue wildebeest",4,-23.41,31.03,298698.96,7409716.85
"146729",146729,1985,10,"w","Blue wildebeest",8,-23.33,31.01,296532.61,7418548.86
"146744",146744,1985,10,"w","Blue wildebeest",1,-23.36,31.03,298623.36,7415254.37
"146764",146764,1985,10,"w","Blue wildebeest",2,-23.32,31,295494.56,7419642.26
"146765",146765,1985,10,"w","Blue wildebeest",14,-23.32,31,295494.56,7419642.26
"146806",146806,1985,10,"w","Blue wildebeest",12,-23.44,31.04,299766.27,7406408.28
"146843",146843,1985,10,"w","Blue wildebeest",4,-23.35,31.04,299630.83,7416375.77
"146898",146898,1985,10,"w","Blue wildebeest",18,-23.32,31.04,299585.79,7419698.25
"147203",147203,1985,11,"w","Blue wildebeest",18,-23.36,31.22,318050.01,7415506.53
"147296",147296,1985,11,"w","Blue wildebeest",5,-23.38,31.26,322166.34,7413341.56
"147337",147337,1985,11,"w","Blue wildebeest",12,-23.29,31.26,322046.42,7423308.13
"147430",147430,1985,11,"w","Blue wildebeest",2,-23.19,31.27,322937.38,7434394.19
"147455",147455,1985,11,"w","Blue wildebeest",2,-23.34,31.31,327225.72,7417831.81
"147495",147495,1985,11,"w","Blue wildebeest",3,-23.28,31.3,326125.15,7424464.08
"147542",147542,1985,12,"w","Blue wildebeest",10,-23.25,30.98,293340.84,7427366.43
"147586",147586,1985,12,"w","Blue wildebeest",28,-23.18,30.99,294256.94,7435133.14
"147589",147589,1985,12,"w","Blue wildebeest",12,-23.2,30.96,291216.33,7432875.37
"147649",147649,1985,12,"w","Blue wildebeest",15,-23.24,31,295372.28,7428502.28
"147765",147765,1985,12,"w","Blue wildebeest",10,-23.27,31.1,305649.85,7425317.41
"147834",147834,1985,12,"w","Blue wildebeest",1,-23.26,31.13,308705.02,7426464.76
"147840",147840,1985,12,"w","Blue wildebeest",4,-23.25,31.13,308690.74,7427572.2
"147871",147871,1985,12,"w","Blue wildebeest",6,-23.26,31.16,311774.66,7426504.02
"147988",147988,1985,13,"w","Blue wildebeest",7,-23.7,31.49,346050.19,7378171.45
"148000",148000,1985,13,"w","Blue wildebeest",17,-23.65,31.48,344971.5,7383697.41
"148088",148088,1985,13,"w","Blue wildebeest",5,-23.7,31.51,348089.58,7378192.92
"148095",148095,1985,13,"w","Blue wildebeest",4,-23.64,31.52,349040.35,7384847.61
"148132",148132,1985,13,"w","Blue wildebeest",4,-23.76,31.54,351216.78,7371580.51
"148134",148134,1985,13,"w","Blue wildebeest",6,-23.76,31.55,352235.99,7371590.94
"148137",148137,1985,13,"w","Blue wildebeest",6,-23.75,31.55,352224.7,7372698.29
"148140",148140,1985,13,"w","Blue wildebeest",1,-23.76,31.56,353255.2,7371601.3
"148144",148144,1985,13,"w","Blue wildebeest",5,-23.76,31.56,353255.2,7371601.3
"148147",148147,1985,13,"w","Blue wildebeest",7,-23.76,31.57,354274.41,7371611.59
"148158",148158,1985,13,"w","Blue wildebeest",6,-23.77,31.56,353266.42,7370493.96
"148162",148162,1985,13,"w","Blue wildebeest",2,-23.77,31.57,354285.55,7370504.25
"148164",148164,1985,13,"w","Blue wildebeest",22,-23.77,31.57,354285.55,7370504.25
"148165",148165,1985,13,"w","Blue wildebeest",3,-23.77,31.57,354285.55,7370504.25
"148166",148166,1985,13,"w","Blue wildebeest",5,-23.78,31.57,354296.69,7369396.9
"148168",148168,1985,13,"w","Blue wildebeest",2,-23.72,31.55,352190.86,7376020.31
"148176",148176,1985,13,"w","Blue wildebeest",5,-23.73,31.55,352202.13,7374912.97
"148181",148181,1985,13,"w","Blue wildebeest",37,-23.74,31.55,352213.42,7373805.63
"148184",148184,1985,13,"w","Blue wildebeest",59,-23.68,31.54,351125.96,7380439.26
"148187",148187,1985,13,"w","Blue wildebeest",26,-23.67,31.55,352134.53,7381557
"148192",148192,1985,13,"w","Blue wildebeest",2,-23.68,31.56,353165.62,7380460
"148430",148430,1985,13,"w","Blue wildebeest",10,-23.67,31.6,357234.05,7381607.93
"148744",148744,1985,13,"w","Blue wildebeest",3,-23.65,31.62,359252.42,7383842.42
"148809",148809,1985,14,"w","Blue wildebeest",11,-23.46,31.39,335554.25,7404636.91
"148832",148832,1985,14,"w","Blue wildebeest",7,-23.43,31.4,336538.91,7407970.37
"148862",148862,1985,14,"w","Blue wildebeest",1,-23.5,31.42,338667.67,7400241.47
"148897",148897,1985,14,"w","Blue wildebeest",1,-23.53,31.44,340746.3,7396941.73
"148905",148905,1985,14,"w","Blue wildebeest",4,-23.47,31.42,338631.15,7403563.53
"148911",148911,1985,14,"w","Blue wildebeest",25,-23.47,31.43,339652.65,7403574.72
"148912",148912,1985,14,"w","Blue wildebeest",14,-23.47,31.43,339652.65,7403574.72
"148918",148918,1985,14,"w","Blue wildebeest",11,-23.46,31.45,341683.71,7404704.22
"148922",148922,1985,14,"w","Blue wildebeest",7,-23.48,31.42,338643.32,7402456.18
"148926",148926,1985,14,"w","Blue wildebeest",51,-23.48,31.43,339664.74,7402467.37
"148950",148950,1985,14,"w","Blue wildebeest",7,-23.44,31.42,338594.68,7406885.58
"148954",148954,1985,14,"w","Blue wildebeest",3,-23.45,31.43,339628.49,7405789.41
"148956",148956,1985,14,"w","Blue wildebeest",7,-23.45,31.43,339628.49,7405789.41
"148957",148957,1985,14,"w","Blue wildebeest",18,-23.45,31.44,340650.13,7405800.52
"148958",148958,1985,14,"w","Blue wildebeest",21,-23.45,31.44,340650.13,7405800.52
"148959",148959,1985,14,"w","Blue wildebeest",8,-23.44,31.44,340638.14,7406907.86
"148960",148960,1985,14,"w","Blue wildebeest",47,-23.45,31.44,340650.13,7405800.52
"148963",148963,1985,14,"w","Blue wildebeest",49,-23.44,31.44,340638.14,7406907.86
"148965",148965,1985,14,"w","Blue wildebeest",47,-23.44,31.44,340638.14,7406907.86
"148967",148967,1985,14,"w","Blue wildebeest",12,-23.44,31.45,341659.86,7406918.89
"148969",148969,1985,14,"w","Blue wildebeest",8,-23.45,31.45,341671.78,7405811.56
"148970",148970,1985,14,"w","Blue wildebeest",24,-23.45,31.45,341671.78,7405811.56
"148971",148971,1985,14,"w","Blue wildebeest",4,-23.45,31.45,341671.78,7405811.56
"148972",148972,1985,14,"w","Blue wildebeest",15,-23.44,31.45,341659.86,7406918.89
"149011",149011,1985,14,"w","Blue wildebeest",7,-23.5,31.46,342752.72,7400285.83
"149042",149042,1985,14,"w","Blue wildebeest",10,-23.47,31.46,342717.13,7403607.85
"149070",149070,1985,14,"w","Blue wildebeest",3,-23.48,31.47,343750.39,7402511.41
"149077",149077,1985,14,"w","Blue wildebeest",11,-23.49,31.48,344783.51,7401414.92
"149079",149079,1985,14,"w","Blue wildebeest",9,-23.49,31.48,344783.51,7401414.92
"149083",149083,1985,14,"w","Blue wildebeest",1,-23.48,31.48,344771.8,7402522.25
"149196",149196,1985,15,"w","Blue wildebeest",13,-23.29,31.32,328183.99,7423380.58
"149230",149230,1985,15,"w","Blue wildebeest",2,-23.33,31.33,329258,7418962.94
"149256",149256,1985,15,"w","Blue wildebeest",22,-23.32,31.36,332313.26,7420105.4
"149277",149277,1985,15,"w","Blue wildebeest",11,-23.41,31.41,337536.29,7410196.39
"149295",149295,1985,15,"w","Blue wildebeest",3,-23.38,31.41,337499.67,7413518.43
"149297",149297,1985,15,"w","Blue wildebeest",6,-23.38,31.41,337499.67,7413518.43
"149303",149303,1985,15,"w","Blue wildebeest",22,-23.41,31.4,336514.32,7410185.08
"149351",149351,1985,15,"w","Blue wildebeest",21,-23.42,31.42,338570.39,7409100.28
"149360",149360,1985,15,"w","Blue wildebeest",11,-23.42,31.45,341636.03,7409133.57
"149362",149362,1985,15,"w","Blue wildebeest",4,-23.38,31.41,337499.67,7413518.43
"149408",149408,1985,15,"w","Blue wildebeest",31,-23.42,31.46,342657.9,7409144.52
"149525",149525,1985,15,"w","Blue wildebeest",2,-23.32,31.5,346630.34,7420260.74
"149580",149580,1985,18,"w","Blue wildebeest",8,-23.26,31.34,330191.77,7426726.23
"149651",149651,1985,18,"w","Blue wildebeest",13,-23.25,31.41,337341.52,7427913.8
"149678",149678,1985,18,"w","Blue wildebeest",12,-23.23,31.4,336293.92,7430117.21
"149696",149696,1985,18,"w","Blue wildebeest",3,-23.13,31.4,336172.17,7441190.43
"149698",149698,1985,18,"w","Blue wildebeest",17,-23.13,31.4,336172.17,7441190.43
"149705",149705,1985,18,"w","Blue wildebeest",6,-23.15,31.38,334148.56,7438953.17
"149708",149708,1985,18,"w","Blue wildebeest",9,-23.15,31.41,337220.44,7438987.01
"149716",149716,1985,18,"w","Blue wildebeest",10,-23.1,31.41,337160.08,7444523.57
"149731",149731,1985,18,"w","Blue wildebeest",16,-23.11,31.41,337172.14,7443416.26
"149778",149778,1985,18,"w","Blue wildebeest",6,-23.23,31.41,337317.27,7430128.45
"149793",149793,1985,18,"w","Blue wildebeest",5,-23.17,31.42,338268.42,7436783.52
"149797",149797,1985,18,"w","Blue wildebeest",2,-23.18,31.43,339304.16,7435687.29
"149863",149863,1985,18,"w","Blue wildebeest",16,-23.1,31.42,338184.41,7444534.69
"149982",149982,1985,18,"w","Blue wildebeest",12,-23.3,31.5,346607.4,7422475.35
"150309",150309,1985,19,"w","Blue wildebeest",2,-23.83,31.71,368613.4,7363996.97
"150937",150937,1985,2,"w","Blue wildebeest",1,-23.93,31.56,353446.51,7352776.28
"151146",151146,1985,20,"w","Blue wildebeest",1,-24.07,31.41,338353.04,7337108.51
"151327",151327,1985,20,"w","Blue wildebeest",1,-24.06,31.56,353593.67,7338380.42
"151328",151328,1985,20,"w","Blue wildebeest",2,-24.05,31.57,354599.26,7339498.18
"151339",151339,1985,20,"w","Blue wildebeest",4,-24.06,31.56,353593.67,7338380.42
"151360",151360,1985,20,"w","Blue wildebeest",5,-24.11,31.58,355683.39,7332864.22
"151605",151605,1985,21,"w","Blue wildebeest",6,-24.11,31.5,347551.66,7332779.56
"151695",151695,1985,21,"w","Blue wildebeest",15,-24.13,31.61,358754.7,7330680.02
"151698",151698,1985,21,"w","Blue wildebeest",1,-24.16,31.59,356755.57,7327337.56
"151708",151708,1985,21,"w","Blue wildebeest",12,-24.14,31.61,358765.68,7329572.64
"151733",151733,1985,21,"w","Blue wildebeest",10,-24.22,31.63,360884.88,7320733.65
"151736",151736,1985,21,"w","Blue wildebeest",1,-24.24,31.62,359891.2,7318508.88
"151744",151744,1985,21,"w","Blue wildebeest",7,-24.17,31.63,360830.61,7326270.55
"151758",151758,1985,22,"w","Blue wildebeest",1,-24.41,31.36,333711.5,7299395.84
"151765",151765,1985,22,"w","Blue wildebeest",1,-24.46,31.4,337832.01,7293905.81
"151772",151772,1985,22,"w","Blue wildebeest",1,-24.46,31.4,337832.01,7293905.81
"151774",151774,1985,22,"w","Blue wildebeest",20,-24.47,31.4,337844.82,7292798.32
"151775",151775,1985,22,"w","Blue wildebeest",1,-24.46,31.4,337832.01,7293905.81
"151787",151787,1985,22,"w","Blue wildebeest",15,-24.48,31.41,338871.2,7291702.52
"151793",151793,1985,22,"w","Blue wildebeest",4,-24.42,31.39,336766.77,7298324.02
"151803",151803,1985,22,"w","Blue wildebeest",15,-24.43,31.41,338807.57,7297239.96
"151837",151837,1985,22,"w","Blue wildebeest",15,-24.34,31.4,337678.66,7307195.62
"151840",151840,1985,22,"w","Blue wildebeest",5,-24.34,31.41,338693.34,7307207.26
"151842",151842,1985,22,"w","Blue wildebeest",17,-24.34,31.41,338693.34,7307207.26
"151845",151845,1985,22,"w","Blue wildebeest",1,-24.36,31.39,336689.64,7304968.94
"151853",151853,1985,22,"w","Blue wildebeest",2,-24.36,31.4,337704.17,7304980.66
"151866",151866,1985,22,"w","Blue wildebeest",3,-24.36,31.41,338718.69,7304992.31
"151880",151880,1985,22,"w","Blue wildebeest",2,-24.47,31.42,339872.11,7292821.63
"151881",151881,1985,22,"w","Blue wildebeest",25,-24.46,31.43,340873.17,7293940.65
"151892",151892,1985,22,"w","Blue wildebeest",5,-24.46,31.43,340873.17,7293940.65
"151906",151906,1985,22,"w","Blue wildebeest",2,-24.46,31.45,342900.59,7293963.52
"151912",151912,1985,22,"w","Blue wildebeest",1,-24.47,31.45,342913,7292856.04
"151913",151913,1985,22,"w","Blue wildebeest",8,-24.46,31.45,342900.59,7293963.52
"151918",151918,1985,22,"w","Blue wildebeest",17,-24.48,31.42,339884.76,7291714.14
"151920",151920,1985,22,"w","Blue wildebeest",25,-24.48,31.43,340898.32,7291725.69
"151929",151929,1985,22,"w","Blue wildebeest",13,-24.42,31.42,339808.9,7298359.04
"151932",151932,1985,22,"w","Blue wildebeest",4,-24.43,31.42,339821.53,7297251.56
"151952",151952,1985,22,"w","Blue wildebeest",1,-24.43,31.44,341849.44,7297274.55
"151961",151961,1985,22,"w","Blue wildebeest",18,-24.42,31.45,342851,7298393.4
"151965",151965,1985,22,"w","Blue wildebeest",11,-24.42,31.45,342851,7298393.4
"151966",151966,1985,22,"w","Blue wildebeest",5,-24.43,31.45,342863.39,7297285.93
"151978",151978,1985,22,"w","Blue wildebeest",5,-24.44,31.43,340848.04,7296155.61
"151985",151985,1985,22,"w","Blue wildebeest",16,-24.45,31.44,341874.4,7295059.6
"152009",152009,1985,22,"w","Blue wildebeest",5,-24.38,31.44,341787.13,7302811.9
"152051",152051,1985,22,"w","Blue wildebeest",1,-24.4,31.45,342826.23,7300608.34
"152054",152054,1985,22,"w","Blue wildebeest",18,-24.4,31.45,342826.23,7300608.34
"152057",152057,1985,22,"w","Blue wildebeest",1,-24.34,31.41,338693.34,7307207.26
"152061",152061,1985,22,"w","Blue wildebeest",9,-24.34,31.42,339708.02,7307218.83
"152064",152064,1985,22,"w","Blue wildebeest",1,-24.34,31.42,339708.02,7307218.83
"152066",152066,1985,22,"w","Blue wildebeest",15,-24.35,31.42,339720.61,7306111.36
"152070",152070,1985,22,"w","Blue wildebeest",3,-24.34,31.43,340722.7,7307230.33
"152077",152077,1985,22,"w","Blue wildebeest",1,-24.34,31.44,341737.37,7307241.76
"152079",152079,1985,22,"w","Blue wildebeest",3,-24.33,31.44,341724.94,7308349.22
"152083",152083,1985,22,"w","Blue wildebeest",1,-24.33,31.45,342739.69,7308360.57
"152085",152085,1985,22,"w","Blue wildebeest",1,-24.37,31.42,339745.81,7303896.42
"152087",152087,1985,22,"w","Blue wildebeest",1,-24.37,31.42,339745.81,7303896.42
"152093",152093,1985,22,"w","Blue wildebeest",1,-24.36,31.43,340747.73,7305015.4
"152094",152094,1985,22,"w","Blue wildebeest",1,-24.36,31.43,340747.73,7305015.4
"152099",152099,1985,22,"w","Blue wildebeest",8,-24.36,31.44,341762.24,7305026.83
"152151",152151,1985,22,"w","Blue wildebeest",19,-24.46,31.46,343914.3,7293974.84
"152155",152155,1985,22,"w","Blue wildebeest",13,-24.46,31.46,343914.3,7293974.84
"152156",152156,1985,22,"w","Blue wildebeest",3,-24.46,31.46,343914.3,7293974.84
"152159",152159,1985,22,"w","Blue wildebeest",13,-24.46,31.46,343914.3,7293974.84
"152167",152167,1985,22,"w","Blue wildebeest",6,-24.46,31.47,344928,7293986.09
"152168",152168,1985,22,"w","Blue wildebeest",17,-24.47,31.47,344940.25,7292878.62
"152170",152170,1985,22,"w","Blue wildebeest",17,-24.47,31.47,344940.25,7292878.62
"152176",152176,1985,22,"w","Blue wildebeest",1,-24.46,31.48,345941.7,7293997.26
"152183",152183,1985,22,"w","Blue wildebeest",12,-24.46,31.49,346955.4,7294008.36
"152184",152184,1985,22,"w","Blue wildebeest",14,-24.46,31.49,346955.4,7294008.36
"152196",152196,1985,22,"w","Blue wildebeest",15,-24.42,31.47,344879.05,7298415.94
"152210",152210,1985,22,"w","Blue wildebeest",19,-24.42,31.49,346907.09,7298438.19
"152220",152220,1985,22,"w","Blue wildebeest",33,-24.44,31.47,344903.52,7296201.02
"152232",152232,1985,22,"w","Blue wildebeest",5,-24.45,31.48,345929.54,7295104.72
"152237",152237,1985,22,"w","Blue wildebeest",2,-24.45,31.48,345929.54,7295104.72
"152241",152241,1985,22,"w","Blue wildebeest",5,-24.45,31.48,345929.54,7295104.72
"152244",152244,1985,22,"w","Blue wildebeest",22,-24.44,31.49,346931.23,7296223.28
"152254",152254,1985,22,"w","Blue wildebeest",1,-24.37,31.46,343803.54,7303942.02
"152255",152255,1985,22,"w","Blue wildebeest",10,-24.39,31.46,343828.12,7301727.1
"152257",152257,1985,22,"w","Blue wildebeest",1,-24.37,31.46,343803.54,7303942.02
"152260",152260,1985,22,"w","Blue wildebeest",27,-24.38,31.46,343815.83,7302834.56
"152273",152273,1985,22,"w","Blue wildebeest",1,-24.41,31.46,343852.72,7299512.17
"152276",152276,1985,22,"w","Blue wildebeest",16,-24.4,31.46,343840.42,7300619.64
"152304",152304,1985,22,"w","Blue wildebeest",4,-24.33,31.46,343754.44,7308371.84
"152306",152306,1985,22,"w","Blue wildebeest",13,-24.34,31.46,343766.7,7307264.39
"152319",152319,1985,22,"w","Blue wildebeest",7,-24.33,31.49,346798.65,7308405.23
"152325",152325,1985,22,"w","Blue wildebeest",3,-24.36,31.46,343791.26,7305049.48
"152331",152331,1985,22,"w","Blue wildebeest",1,-24.36,31.46,343791.26,7305049.48
"152334",152334,1985,22,"w","Blue wildebeest",1,-24.36,31.47,344805.76,7305060.69
"152338",152338,1985,22,"w","Blue wildebeest",1,-24.36,31.47,344805.76,7305060.69
"152339",152339,1985,22,"w","Blue wildebeest",6,-24.36,31.47,344805.76,7305060.69
"152341",152341,1985,22,"w","Blue wildebeest",21,-24.35,31.47,344793.56,7306168.14
"152346",152346,1985,22,"w","Blue wildebeest",1,-24.36,31.48,345820.26,7305071.83
"152349",152349,1985,22,"w","Blue wildebeest",1,-24.37,31.48,345832.38,7303964.38
"152351",152351,1985,22,"w","Blue wildebeest",10,-24.36,31.49,346834.76,7305082.9
"152354",152354,1985,22,"w","Blue wildebeest",5,-24.37,31.49,346846.8,7303975.45
"152356",152356,1985,22,"w","Blue wildebeest",1,-24.36,31.49,346834.76,7305082.9
"152366",152366,1985,22,"w","Blue wildebeest",1,-24.32,31.46,343742.17,7309479.29
"152374",152374,1985,22,"w","Blue wildebeest",1,-24.32,31.47,344756.99,7309490.49
"152447",152447,1985,22,"w","Blue wildebeest",1,-24.45,31.5,347957.09,7295126.84
"152451",152451,1985,22,"w","Blue wildebeest",5,-24.44,31.5,347945.09,7296234.3
"152453",152453,1985,22,"w","Blue wildebeest",3,-24.44,31.51,348958.94,7296245.25
"152468",152468,1985,22,"w","Blue wildebeest",12,-24.44,31.51,348958.94,7296245.25
"152474",152474,1985,22,"w","Blue wildebeest",1,-24.43,31.52,349960.95,7297363.57
"152477",152477,1985,22,"w","Blue wildebeest",3,-24.44,31.53,350986.63,7296266.92
"152482",152482,1985,22,"w","Blue wildebeest",1,-24.38,31.53,350916.17,7302911.57
"152511",152511,1985,22,"w","Blue wildebeest",6,-24.34,31.5,347825.34,7307308.78
"152519",152519,1985,22,"w","Blue wildebeest",2,-24.34,31.52,349854.63,7307330.53
"152522",152522,1985,22,"w","Blue wildebeest",1,-24.33,31.52,349842.84,7308437.96
"152531",152531,1985,22,"w","Blue wildebeest",4,-24.36,31.51,348863.74,7305104.81
"152533",152533,1985,22,"w","Blue wildebeest",5,-24.36,31.51,348863.74,7305104.81
"152567",152567,1985,22,"w","Blue wildebeest",5,-24.25,31.5,347717.95,7317275.69
"152569",152569,1985,22,"w","Blue wildebeest",9,-24.25,31.51,348733.32,7317286.57
"152609",152609,1985,22,"w","Blue wildebeest",15,-24.4,31.54,351953.8,7300707.4
"152625",152625,1985,22,"w","Blue wildebeest",25,-24.4,31.55,352967.96,7300718.05
"152687",152687,1985,22,"w","Blue wildebeest",6,-24.36,31.57,354950.62,7305168.8
"152761",152761,1985,23,"w","Blue wildebeest",13,-24.21,31.65,362905.3,7321860.81
"152790",152790,1985,23,"w","Blue wildebeest",1,-24.17,31.65,362862.53,7326290.3
"152796",152796,1985,23,"w","Blue wildebeest",25,-24.19,31.64,361868.11,7324065.71
"152808",152808,1985,23,"w","Blue wildebeest",1,-24.13,31.64,361803.54,7330709.94
"152817",152817,1985,23,"w","Blue wildebeest",11,-24.13,31.65,362819.82,7330719.76
"152854",152854,1985,23,"w","Blue wildebeest",8,-24.11,31.65,362798.49,7332934.49
"152856",152856,1985,23,"w","Blue wildebeest",22,-24.12,31.66,363825.51,7331836.88
"152857",152857,1985,23,"w","Blue wildebeest",2,-24.11,31.66,363814.92,7332944.24
"152858",152858,1985,23,"w","Blue wildebeest",2,-24.11,31.66,363814.92,7332944.24
"152876",152876,1985,23,"w","Blue wildebeest",5,-24.23,31.66,363942.2,7319655.84
"152892",152892,1985,23,"w","Blue wildebeest",1,-24.17,31.68,365910.39,7326319.38
"152914",152914,1985,23,"w","Blue wildebeest",5,-24.14,31.67,364862.88,7329631.84
"152978",152978,1985,23,"w","Blue wildebeest",6,-24.11,31.66,363814.92,7332944.24
"153002",153002,1985,23,"w","Blue wildebeest",3,-24.1,31.69,366853.86,7334080.4
"153030",153030,1985,23,"w","Blue wildebeest",2,-24.07,31.67,364789.38,7337383.32
"153051",153051,1985,23,"w","Blue wildebeest",2,-24.07,31.7,367839.6,7337411.88
"153064",153064,1985,23,"w","Blue wildebeest",6,-24.26,31.72,370065.51,7316390.94
"153066",153066,1985,23,"w","Blue wildebeest",20,-24.25,31.73,371070.65,7317507.59
"153067",153067,1985,23,"w","Blue wildebeest",20,-24.26,31.73,371080.73,7316400.23
"153069",153069,1985,23,"w","Blue wildebeest",15,-24.26,31.74,372095.96,7316409.44
"153071",153071,1985,23,"w","Blue wildebeest",17,-24.25,31.74,372085.95,7317516.79
"153072",153072,1985,23,"w","Blue wildebeest",3,-24.26,31.74,372095.96,7316409.44
"153073",153073,1985,23,"w","Blue wildebeest",7,-24.25,31.74,372085.95,7317516.79
"153075",153075,1985,23,"w","Blue wildebeest",34,-24.27,31.74,372105.97,7315302.08
"153077",153077,1985,23,"w","Blue wildebeest",12,-24.22,31.72,370024.88,7320820.38
"153080",153080,1985,23,"w","Blue wildebeest",4,-24.21,31.73,371030.35,7321937
"153081",153081,1985,23,"w","Blue wildebeest",5,-24.22,31.73,371040.42,7320829.65
"153082",153082,1985,23,"w","Blue wildebeest",7,-24.22,31.73,371040.42,7320829.65
"153084",153084,1985,23,"w","Blue wildebeest",1,-24.22,31.73,371040.42,7320829.65
"153085",153085,1985,23,"w","Blue wildebeest",2,-24.21,31.73,371030.35,7321937
"153087",153087,1985,23,"w","Blue wildebeest",9,-24.22,31.74,372055.96,7320838.85
"153092",153092,1985,23,"w","Blue wildebeest",11,-24.23,31.72,370035.03,7319713.02
"153094",153094,1985,23,"w","Blue wildebeest",1,-24.23,31.73,371050.49,7319722.3
"153095",153095,1985,23,"w","Blue wildebeest",4,-24.24,31.73,371060.57,7318614.94
"153096",153096,1985,23,"w","Blue wildebeest",8,-24.24,31.73,371060.57,7318614.94
"153097",153097,1985,23,"w","Blue wildebeest",14,-24.23,31.74,372065.95,7319731.5
"153098",153098,1985,23,"w","Blue wildebeest",22,-24.24,31.74,372075.95,7318624.15
"153126",153126,1985,23,"w","Blue wildebeest",3,-24.08,31.71,368866.5,7336313.92
"153147",153147,1985,23,"w","Blue wildebeest",3,-24.06,31.71,368846.16,7338528.59
"153168",153168,1985,23,"w","Blue wildebeest",8,-24.07,31.72,369873.06,7337430.56
"153175",153175,1985,23,"w","Blue wildebeest",1,-24.26,31.76,374126.39,7316427.64
"153211",153211,1985,24,"w","Blue wildebeest",17,-24.37,31.6,358005.19,7304092.4
"153268",153268,1985,24,"w","Blue wildebeest",10,-24.3,31.61,358942.06,7311854.42
"153279",153279,1985,24,"w","Blue wildebeest",15,-24.33,31.59,356945.85,7308511.78
"153303",153303,1985,24,"w","Blue wildebeest",5,-24.32,31.62,359978.96,7309649.73
"153304",153304,1985,24,"w","Blue wildebeest",10,-24.33,31.62,359989.95,7308542.33
"153341",153341,1985,24,"w","Blue wildebeest",1,-24.28,31.6,357904.85,7314059.05
"153361",153361,1985,24,"w","Blue wildebeest",1,-24.33,31.66,364048.71,7308582.02
"153362",153362,1985,24,"w","Blue wildebeest",7,-24.34,31.66,364059.39,7307474.63
"153443",153443,1985,24,"w","Blue wildebeest",14,-24.26,31.64,361943.62,7316314.05
"153461",153461,1985,24,"w","Blue wildebeest",10,-24.27,31.64,361954.42,7315206.66
"153465",153465,1985,24,"w","Blue wildebeest",1,-24.27,31.64,361954.42,7315206.66
"153493",153493,1985,24,"w","Blue wildebeest",8,-24.33,31.67,365063.39,7308591.77
"153504",153504,1985,24,"w","Blue wildebeest",2,-24.34,31.67,365073.99,7307484.38
"153513",153513,1985,24,"w","Blue wildebeest",14,-24.34,31.68,366088.59,7307494.05
"153525",153525,1985,24,"w","Blue wildebeest",5,-24.36,31.67,365095.19,7305269.6
"153531",153531,1985,24,"w","Blue wildebeest",1,-24.36,31.68,366109.63,7305279.28
"153544",153544,1985,24,"w","Blue wildebeest",6,-24.36,31.69,367124.07,7305288.89
"153548",153548,1985,24,"w","Blue wildebeest",9,-24.35,31.7,368128.14,7306405.8
"153599",153599,1985,24,"w","Blue wildebeest",9,-24.33,31.74,372166.1,7308657.92
"153612",153612,1985,24,"w","Blue wildebeest",5,-24.32,31.73,371141.33,7309756.05
"153613",153613,1985,24,"w","Blue wildebeest",29,-24.31,31.73,371131.22,7310863.42
"153617",153617,1985,24,"w","Blue wildebeest",8,-24.32,31.74,372156.07,7309765.28
"153625",153625,1985,24,"w","Blue wildebeest",37,-24.27,31.72,370075.68,7315283.58
"153629",153629,1985,24,"w","Blue wildebeest",1,-24.28,31.73,371100.92,7314185.51
"153632",153632,1985,24,"w","Blue wildebeest",7,-24.38,31.75,373230.59,7303130.25
"153633",153633,1985,24,"w","Blue wildebeest",24,-24.38,31.75,373230.59,7303130.25
"153638",153638,1985,24,"w","Blue wildebeest",4,-24.39,31.76,374254.75,7302031.98
"153642",153642,1985,24,"w","Blue wildebeest",7,-24.4,31.76,374264.65,7300924.61
"153649",153649,1985,24,"w","Blue wildebeest",5,-24.36,31.75,373210.65,7305344.98
"153654",153654,1985,24,"w","Blue wildebeest",22,-24.31,31.75,373160.86,7310881.8
"153671",153671,1985,25,"w","Blue wildebeest",5,-24.09,31.73,370909.83,7335225.12
"153777",153777,1985,25,"w","Blue wildebeest",13,-24.09,31.75,372942.96,7335243.37
"153779",153779,1985,25,"w","Blue wildebeest",7,-24.09,31.75,372942.96,7335243.37
"153827",153827,1985,25,"w","Blue wildebeest",7,-24.05,31.78,375954.17,7339699.48
"153845",153845,1985,25,"w","Blue wildebeest",6,-24.07,31.77,374956.68,7337475.98
"154053",154053,1985,25,"w","Blue wildebeest",7,-24.1,31.8,378035.22,7334180.42
"154055",154055,1985,25,"w","Blue wildebeest",25,-24.09,31.81,379042.3,7335296.39
"154216",154216,1985,25,"w","Blue wildebeest",2,-24.03,31.81,378986.04,7341940.24
"154291",154291,1985,25,"w","Blue wildebeest",9,-24.15,31.86,384179.04,7328694.76
"154355",154355,1985,25,"w","Blue wildebeest",5,-24.05,31.83,381038.5,7339742.7
"154607",154607,1985,26,"w","Blue wildebeest",5,-24.38,31.75,373230.59,7303130.25
"154621",154621,1985,26,"w","Blue wildebeest",2,-24.39,31.77,375268.92,7302041.01
"154623",154623,1985,26,"w","Blue wildebeest",6,-24.38,31.77,375259.11,7303148.37
"154630",154630,1985,26,"w","Blue wildebeest",7,-24.38,31.78,376273.36,7303157.32
"154632",154632,1985,26,"w","Blue wildebeest",14,-24.39,31.78,376283.1,7302049.96
"154634",154634,1985,26,"w","Blue wildebeest",28,-24.4,31.75,373250.54,7300915.5
"154645",154645,1985,26,"w","Blue wildebeest",31,-24.4,31.76,374264.65,7300924.61
"154658",154658,1985,26,"w","Blue wildebeest",6,-24.4,31.78,376292.84,7300942.6
"154664",154664,1985,26,"w","Blue wildebeest",4,-24.35,31.78,376244.18,7306479.4
"154672",154672,1985,26,"w","Blue wildebeest",10,-24.36,31.76,374225.07,7305354.08
"154679",154679,1985,26,"w","Blue wildebeest",8,-24.3,31.76,374165.82,7311998.23
"154685",154685,1985,26,"w","Blue wildebeest",7,-24.3,31.78,376195.61,7312016.17
"154696",154696,1985,26,"w","Blue wildebeest",7,-24.26,31.76,374126.39,7316427.64
"154701",154701,1985,26,"w","Blue wildebeest",6,-24.25,31.76,374116.55,7317534.99
"154703",154703,1985,26,"w","Blue wildebeest",4,-24.25,31.76,374116.55,7317534.99
"154713",154713,1985,26,"w","Blue wildebeest",34,-24.25,31.78,376147.13,7317552.9
"154755",154755,1985,26,"w","Blue wildebeest",3,-24.19,31.78,376089.08,7324196.93
"154762",154762,1985,26,"w","Blue wildebeest",15,-24.38,31.79,377287.62,7303166.2
"154778",154778,1985,26,"w","Blue wildebeest",38,-24.38,31.81,379316.12,7303183.74
"154782",154782,1985,26,"w","Blue wildebeest",4,-24.38,31.82,380330.36,7303192.4
"154803",154803,1985,26,"w","Blue wildebeest",14,-24.37,31.79,377277.96,7304273.56
"154809",154809,1985,26,"w","Blue wildebeest",8,-24.36,31.81,379297.13,7305398.45
"154818",154818,1985,26,"w","Blue wildebeest",3,-24.37,31.83,381335.27,7304308.34
"154822",154822,1985,26,"w","Blue wildebeest",3,-24.3,31.81,379240.27,7312042.52
"154824",154824,1985,26,"w","Blue wildebeest",11,-24.32,31.79,377229.75,7309810.33
"154828",154828,1985,26,"w","Blue wildebeest",9,-24.32,31.81,379259.21,7309827.84
"154831",154831,1985,26,"w","Blue wildebeest",2,-24.32,31.81,379259.21,7309827.84
"154881",154881,1985,26,"w","Blue wildebeest",7,-24.24,31.82,380198.9,7318695.17
"154903",154903,1985,26,"w","Blue wildebeest",16,-24.38,31.84,382358.85,7303209.5
"154910",154910,1985,26,"w","Blue wildebeest",15,-24.38,31.84,382358.85,7303209.5
"154912",154912,1985,26,"w","Blue wildebeest",11,-24.38,31.84,382358.85,7303209.5
"154915",154915,1985,26,"w","Blue wildebeest",7,-24.38,31.85,383373.08,7303217.94
"154923",154923,1985,26,"w","Blue wildebeest",22,-24.38,31.86,384387.32,7303226.31
"154924",154924,1985,26,"w","Blue wildebeest",14,-24.38,31.86,384387.32,7303226.31
"154926",154926,1985,26,"w","Blue wildebeest",23,-24.38,31.86,384387.32,7303226.31
"154946",154946,1985,26,"w","Blue wildebeest",17,-24.37,31.84,382349.59,7304316.85
"154992",154992,1985,26,"w","Blue wildebeest",2,-24.33,31.86,384341.88,7308762.99
"155015",155015,1985,26,"w","Blue wildebeest",23,-24.38,31.88,386415.79,7303242.83
"155016",155016,1985,26,"w","Blue wildebeest",8,-24.38,31.88,386415.79,7303242.83
"155023",155023,1985,26,"w","Blue wildebeest",16,-24.39,31.9,388453.02,7302151.72
"155024",155024,1985,26,"w","Blue wildebeest",12,-24.38,31.9,388444.24,7303259.05
"155033",155033,1985,26,"w","Blue wildebeest",1,-24.39,31.9,388453.02,7302151.72
"155040",155040,1985,26,"w","Blue wildebeest",24,-24.33,31.88,386371.15,7308779.48
"155042",155042,1985,26,"w","Blue wildebeest",40,-24.35,31.87,385374.52,7306556.61
"155045",155045,1985,26,"w","Blue wildebeest",2,-24.33,31.88,386371.15,7308779.48
"155049",155049,1985,26,"w","Blue wildebeest",8,-24.33,31.88,386371.15,7308779.48
"155067",155067,1985,26,"w","Blue wildebeest",6,-24.35,31.88,386388.99,7306564.83
"155076",155076,1985,26,"w","Blue wildebeest",8,-24.37,31.9,388435.47,7304366.38
"155080",155080,1985,26,"w","Blue wildebeest",1,-24.36,31.9,388426.7,7305473.71
"155094",155094,1985,26,"w","Blue wildebeest",3,-24.32,31.87,385347.52,7309878.61
"155099",155099,1985,26,"w","Blue wildebeest",36,-24.33,31.88,386371.15,7308779.48
"155103",155103,1985,26,"w","Blue wildebeest",8,-24.38,31.92,390472.69,7303274.98
"155107",155107,1985,26,"w","Blue wildebeest",8,-24.37,31.92,390464.07,7304382.31
"155116",155116,1985,26,"w","Blue wildebeest",4,-24.38,31.93,391486.91,7303282.84
"155117",155117,1985,26,"w","Blue wildebeest",10,-24.38,31.94,392501.13,7303290.62
"155127",155127,1985,26,"w","Blue wildebeest",24,-24.37,31.92,390464.07,7304382.31
"155128",155128,1985,27,"w","Blue wildebeest",1,-24.3,31.87,385329.54,7312093.26
"155137",155137,1985,27,"w","Blue wildebeest",16,-24.25,31.85,383254.1,7317613.28
"155140",155140,1985,27,"w","Blue wildebeest",6,-24.26,31.86,384278.42,7316514.29
"155143",155143,1985,27,"w","Blue wildebeest",2,-24.25,31.86,384269.37,7317621.61
"155144",155144,1985,27,"w","Blue wildebeest",8,-24.26,31.86,384278.42,7316514.29
"155145",155145,1985,27,"w","Blue wildebeest",30,-24.26,31.87,385293.61,7316522.55
"155156",155156,1985,27,"w","Blue wildebeest",23,-24.22,31.85,383226.73,7320935.24
"155159",155159,1985,27,"w","Blue wildebeest",14,-24.22,31.85,383226.73,7320935.24
"155160",155160,1985,27,"w","Blue wildebeest",7,-24.21,31.85,383217.61,7322042.56
"155168",155168,1985,27,"w","Blue wildebeest",8,-24.23,31.84,382220.41,7319819.52
"155172",155172,1985,27,"w","Blue wildebeest",20,-24.23,31.85,383235.85,7319827.92
"155174",155174,1985,27,"w","Blue wildebeest",16,-24.23,31.86,384251.28,7319836.25
"155176",155176,1985,27,"w","Blue wildebeest",2,-24.23,31.86,384251.28,7319836.25
"155179",155179,1985,27,"w","Blue wildebeest",2,-24.23,31.86,384251.28,7319836.25
"155205",155205,1985,27,"w","Blue wildebeest",3,-24.34,31.91,389423.71,7307696.35
"155208",155208,1985,27,"w","Blue wildebeest",10,-24.35,31.91,389432.39,7306589.03
"155212",155212,1985,27,"w","Blue wildebeest",29,-24.3,31.88,386344.41,7312101.46
"155213",155213,1985,27,"w","Blue wildebeest",38,-24.3,31.87,385329.54,7312093.26
"155219",155219,1985,27,"w","Blue wildebeest",5,-24.3,31.88,386344.41,7312101.46
"155224",155224,1985,27,"w","Blue wildebeest",9,-24.3,31.9,388374.14,7312117.65
"155226",155226,1985,27,"w","Blue wildebeest",9,-24.3,31.9,388374.14,7312117.65
"155230",155230,1985,27,"w","Blue wildebeest",9,-24.3,31.9,388374.14,7312117.65
"155232",155232,1985,27,"w","Blue wildebeest",8,-24.3,31.91,389389,7312125.63
"155238",155238,1985,27,"w","Blue wildebeest",1,-24.32,31.9,388391.64,7309903.01
"155240",155240,1985,27,"w","Blue wildebeest",1,-24.32,31.9,388391.64,7309903.01
"155249",155249,1985,27,"w","Blue wildebeest",23,-24.32,31.91,389406.35,7309910.99
"155257",155257,1985,27,"w","Blue wildebeest",30,-24.26,31.88,386308.8,7316530.74
"155260",155260,1985,27,"w","Blue wildebeest",4,-24.26,31.88,386308.8,7316530.74
"155284",155284,1985,27,"w","Blue wildebeest",28,-24.27,31.9,388347.9,7315439.6
"155289",155289,1985,27,"w","Blue wildebeest",12,-24.28,31.91,389371.67,7314340.26
"155296",155296,1985,27,"w","Blue wildebeest",3,-24.21,31.88,386264.37,7322067.32
"155302",155302,1985,27,"w","Blue wildebeest",13,-24.22,31.9,388304.25,7320976.15
"155353",155353,1985,27,"w","Blue wildebeest",11,-24.38,31.94,392501.13,7303290.62
"155358",155358,1985,27,"w","Blue wildebeest",1,-24.38,31.95,393515.34,7303298.33
"155360",155360,1985,27,"w","Blue wildebeest",1,-24.35,31.92,390446.85,7306596.95
"155382",155382,1985,27,"w","Blue wildebeest",11,-24.34,31.93,391452.79,7307712.12
"155414",155414,1985,27,"w","Blue wildebeest",3,-24.35,31.92,390446.85,7306596.95
"155416",155416,1985,27,"w","Blue wildebeest",15,-24.36,31.92,390455.46,7305489.63
"155438",155438,1985,27,"w","Blue wildebeest",10,-24.35,31.95,393490.23,7306620.28
"155442",155442,1985,27,"w","Blue wildebeest",7,-24.3,31.92,390403.86,7312133.54
"155443",155443,1985,27,"w","Blue wildebeest",13,-24.29,31.92,390395.27,7313240.85
"155465",155465,1985,27,"w","Blue wildebeest",15,-24.3,31.94,392433.57,7312149.14
"155480",155480,1985,27,"w","Blue wildebeest",1,-24.31,31.92,390412.45,7311026.22
"155515",155515,1985,27,"w","Blue wildebeest",11,-24.26,31.92,390369.53,7316562.78
"155521",155521,1985,27,"w","Blue wildebeest",12,-24.25,31.93,391376.21,7317677.91
"155548",155548,1985,27,"w","Blue wildebeest",2,-24.28,31.92,390386.69,7314348.16
"155579",155579,1985,27,"w","Blue wildebeest",17,-24.23,31.93,391359.22,7319892.52
"155604",155604,1985,27,"w","Blue wildebeest",1,-24.43,31.97,395584.9,7297776.95
"155870",155870,1985,27,"w","Blue wildebeest",25,-24.43,32.01,399640.13,7297806.52
"155889",155889,1985,28,"w","Blue wildebeest",13,-24.47,31.78,376361.13,7293191.02
"155891",155891,1985,28,"w","Blue wildebeest",6,-24.47,31.78,376361.13,7293191.02
"155893",155893,1985,28,"w","Blue wildebeest",8,-24.46,31.78,376351.36,7294298.39
"155915",155915,1985,28,"w","Blue wildebeest",8,-24.47,31.8,378388.19,7293208.75
"155919",155919,1985,28,"w","Blue wildebeest",1,-24.47,31.81,379401.72,7293217.51
"155928",155928,1985,28,"w","Blue wildebeest",4,-24.46,31.81,379392.19,7294324.88
"155929",155929,1985,28,"w","Blue wildebeest",7,-24.47,31.81,379401.72,7293217.51
"155931",155931,1985,28,"w","Blue wildebeest",20,-24.46,31.82,380405.8,7294333.56
"155932",155932,1985,28,"w","Blue wildebeest",17,-24.46,31.82,380405.8,7294333.56
"155933",155933,1985,28,"w","Blue wildebeest",7,-24.47,31.82,380415.25,7293226.19
"155935",155935,1985,28,"w","Blue wildebeest",11,-24.46,31.82,380405.8,7294333.56
"155939",155939,1985,28,"w","Blue wildebeest",47,-24.47,31.82,380415.25,7293226.19
"155942",155942,1985,28,"w","Blue wildebeest",4,-24.46,31.82,380405.8,7294333.56
"155958",155958,1985,28,"w","Blue wildebeest",18,-24.48,31.82,380424.7,7292118.83
"155960",155960,1985,28,"w","Blue wildebeest",11,-24.48,31.82,380424.7,7292118.83
"155963",155963,1985,28,"w","Blue wildebeest",12,-24.48,31.82,380424.7,7292118.83
"155965",155965,1985,28,"w","Blue wildebeest",8,-24.48,31.82,380424.7,7292118.83
"155968",155968,1985,28,"w","Blue wildebeest",3,-24.48,31.83,381438.14,7292127.44
"155969",155969,1985,28,"w","Blue wildebeest",8,-24.48,31.83,381438.14,7292127.44
"155970",155970,1985,28,"w","Blue wildebeest",5,-24.48,31.83,381438.14,7292127.44
"155976",155976,1985,28,"w","Blue wildebeest",5,-24.43,31.79,377335.94,7297629.39
"155988",155988,1985,28,"w","Blue wildebeest",15,-24.42,31.82,380368.05,7298762.99
"155991",155991,1985,28,"w","Blue wildebeest",13,-24.42,31.81,379354.12,7298754.32
"155999",155999,1985,28,"w","Blue wildebeest",14,-24.42,31.82,380368.05,7298762.99
"156001",156001,1985,28,"w","Blue wildebeest",5,-24.42,31.82,380368.05,7298762.99
"156005",156005,1985,28,"w","Blue wildebeest",5,-24.43,31.82,380377.48,7297655.63
"156007",156007,1985,28,"w","Blue wildebeest",20,-24.45,31.79,377355.29,7295414.66
"156008",156008,1985,28,"w","Blue wildebeest",2,-24.45,31.79,377355.29,7295414.66
"156009",156009,1985,28,"w","Blue wildebeest",2,-24.44,31.79,377345.61,7296522.03
"156010",156010,1985,28,"w","Blue wildebeest",17,-24.44,31.79,377345.61,7296522.03
"156017",156017,1985,28,"w","Blue wildebeest",12,-24.45,31.8,378368.98,7295423.49
"156023",156023,1985,28,"w","Blue wildebeest",16,-24.44,31.82,380386.92,7296548.28
"156025",156025,1985,28,"w","Blue wildebeest",20,-24.44,31.81,379373.15,7296539.6
"156031",156031,1985,28,"w","Blue wildebeest",19,-24.44,31.82,380386.92,7296548.28
"156033",156033,1985,28,"w","Blue wildebeest",15,-24.45,31.82,380396.36,7295440.92
"156034",156034,1985,28,"w","Blue wildebeest",15,-24.44,31.82,380386.92,7296548.28
"156037",156037,1985,28,"w","Blue wildebeest",10,-24.45,31.82,380396.36,7295440.92
"156045",156045,1985,28,"w","Blue wildebeest",4,-24.4,31.8,378321.02,7300960.3
"156055",156055,1985,28,"w","Blue wildebeest",5,-24.4,31.81,379335.11,7300969.03
"156066",156066,1985,28,"w","Blue wildebeest",9,-24.4,31.82,380349.2,7300977.7
"156067",156067,1985,28,"w","Blue wildebeest",9,-24.4,31.82,380349.2,7300977.7
"156083",156083,1985,28,"w","Blue wildebeest",6,-24.46,31.83,381419.4,7294342.16
"156086",156086,1985,28,"w","Blue wildebeest",10,-24.47,31.84,382442.29,7293243.34
"156087",156087,1985,28,"w","Blue wildebeest",13,-24.47,31.84,382442.29,7293243.34
"156088",156088,1985,28,"w","Blue wildebeest",7,-24.46,31.84,382433,7294350.7
"156091",156091,1985,28,"w","Blue wildebeest",18,-24.46,31.84,382433,7294350.7
"156093",156093,1985,28,"w","Blue wildebeest",7,-24.46,31.84,382433,7294350.7
"156095",156095,1985,28,"w","Blue wildebeest",2,-24.47,31.84,382442.29,7293243.34
"156097",156097,1985,28,"w","Blue wildebeest",20,-24.46,31.84,382433,7294350.7
"156099",156099,1985,28,"w","Blue wildebeest",3,-24.46,31.85,383446.6,7294359.16
"156100",156100,1985,28,"w","Blue wildebeest",3,-24.46,31.85,383446.6,7294359.16
"156104",156104,1985,28,"w","Blue wildebeest",8,-24.47,31.85,383455.81,7293251.81
"156105",156105,1985,28,"w","Blue wildebeest",7,-24.46,31.85,383446.6,7294359.16
"156109",156109,1985,28,"w","Blue wildebeest",15,-24.46,31.86,384460.2,7294367.55
"156111",156111,1985,28,"w","Blue wildebeest",2,-24.46,31.86,384460.2,7294367.55
"156119",156119,1985,28,"w","Blue wildebeest",10,-24.49,31.83,381447.51,7291020.08
"156127",156127,1985,28,"w","Blue wildebeest",4,-24.49,31.84,382460.87,7291028.62
"156130",156130,1985,28,"w","Blue wildebeest",1,-24.48,31.85,383465.02,7292144.45
"156148",156148,1985,28,"w","Blue wildebeest",7,-24.42,31.84,382395.9,7298780.11
"156153",156153,1985,28,"w","Blue wildebeest",12,-24.42,31.83,381381.97,7298771.59
"156160",156160,1985,28,"w","Blue wildebeest",19,-24.42,31.84,382395.9,7298780.11
"156163",156163,1985,28,"w","Blue wildebeest",10,-24.43,31.84,382405.17,7297672.76
"156165",156165,1985,28,"w","Blue wildebeest",7,-24.42,31.84,382395.9,7298780.11
"156166",156166,1985,28,"w","Blue wildebeest",12,-24.42,31.84,382395.9,7298780.11
"156171",156171,1985,28,"w","Blue wildebeest",3,-24.42,31.86,384423.73,7298796.94
"156174",156174,1985,28,"w","Blue wildebeest",5,-24.43,31.85,383419.01,7297681.22
"156177",156177,1985,28,"w","Blue wildebeest",3,-24.43,31.85,383419.01,7297681.22
"156187",156187,1985,28,"w","Blue wildebeest",5,-24.43,31.87,385446.68,7297697.9
"156190",156190,1985,28,"w","Blue wildebeest",13,-24.45,31.83,381410.04,7295449.52
"156193",156193,1985,28,"w","Blue wildebeest",33,-24.44,31.83,381400.68,7296556.88
"156198",156198,1985,28,"w","Blue wildebeest",59,-24.45,31.84,382423.72,7295458.05
"156199",156199,1985,28,"w","Blue wildebeest",15,-24.44,31.84,382414.44,7296565.41
"156203",156203,1985,28,"w","Blue wildebeest",4,-24.45,31.84,382423.72,7295458.05
"156215",156215,1985,28,"w","Blue wildebeest",13,-24.44,31.85,383428.2,7296573.87
"156217",156217,1985,28,"w","Blue wildebeest",4,-24.43,31.85,383419.01,7297681.22
"156220",156220,1985,28,"w","Blue wildebeest",12,-24.44,31.86,384441.96,7296582.25
"156223",156223,1985,28,"w","Blue wildebeest",2,-24.44,31.86,384441.96,7296582.25
"156225",156225,1985,28,"w","Blue wildebeest",17,-24.43,31.87,385446.68,7297697.9
"156226",156226,1985,28,"w","Blue wildebeest",32,-24.44,31.87,385455.71,7296590.56
"156232",156232,1985,28,"w","Blue wildebeest",8,-24.39,31.83,381353.94,7302093.64
"156237",156237,1985,28,"w","Blue wildebeest",3,-24.39,31.85,383382.26,7302110.6
"156253",156253,1985,28,"w","Blue wildebeest",28,-24.4,31.83,381363.28,7300986.29
"156258",156258,1985,28,"w","Blue wildebeest",13,-24.4,31.83,381363.28,7300986.29
"156260",156260,1985,28,"w","Blue wildebeest",42,-24.41,31.84,382386.63,7299887.46
"156261",156261,1985,28,"w","Blue wildebeest",12,-24.41,31.84,382386.63,7299887.46
"156263",156263,1985,28,"w","Blue wildebeest",1,-24.4,31.84,382377.36,7300994.81
"156264",156264,1985,28,"w","Blue wildebeest",8,-24.39,31.84,382368.1,7302102.16
"156277",156277,1985,28,"w","Blue wildebeest",12,-24.41,31.85,383400.63,7299895.91
"156278",156278,1985,28,"w","Blue wildebeest",20,-24.41,31.85,383400.63,7299895.91
"156286",156286,1985,28,"w","Blue wildebeest",6,-24.41,31.86,384414.62,7299904.29
"156292",156292,1985,28,"w","Blue wildebeest",14,-24.4,31.87,385419.59,7301019.93
"156305",156305,1985,28,"w","Blue wildebeest",2,-24.63,31.91,389676.94,7275583.43
"156314",156314,1985,28,"w","Blue wildebeest",2,-24.65,31.9,388682.45,7273360.63
"156322",156322,1985,28,"w","Blue wildebeest",4,-24.6,31.88,386613.22,7278881.12
"156342",156342,1985,28,"w","Blue wildebeest",1,-24.55,31.91,389606.8,7284442.29
"156361",156361,1985,28,"w","Blue wildebeest",2,-24.5,31.9,388549.81,7289970.99
"156362",156362,1985,28,"w","Blue wildebeest",6,-24.51,31.9,388558.62,7288863.65
"156366",156366,1985,28,"w","Blue wildebeest",12,-24.5,31.9,388549.81,7289970.99
"156371",156371,1985,28,"w","Blue wildebeest",7,-24.52,31.88,386541.23,7287740
"156380",156380,1985,28,"w","Blue wildebeest",8,-24.53,31.9,388576.27,7286648.95
"156381",156381,1985,28,"w","Blue wildebeest",13,-24.52,31.9,388567.45,7287756.3
"156392",156392,1985,28,"w","Blue wildebeest",5,-24.47,31.88,386496.35,7293276.76
"156402",156402,1985,28,"w","Blue wildebeest",57,-24.46,31.9,388514.56,7294400.37
"156404",156404,1985,28,"w","Blue wildebeest",1,-24.47,31.9,388523.37,7293293.03
"156408",156408,1985,28,"w","Blue wildebeest",10,-24.47,31.9,388523.37,7293293.03
"156409",156409,1985,28,"w","Blue wildebeest",6,-24.46,31.9,388514.56,7294400.37
"156416",156416,1985,28,"w","Blue wildebeest",3,-24.48,31.88,386505.32,7292169.41
"156420",156420,1985,28,"w","Blue wildebeest",2,-24.49,31.88,386514.29,7291062.06
"156436",156436,1985,28,"w","Blue wildebeest",7,-24.48,31.91,389545.6,7292193.71
"156438",156438,1985,28,"w","Blue wildebeest",16,-24.42,31.87,385437.65,7298805.25
"156444",156444,1985,28,"w","Blue wildebeest",5,-24.43,31.88,386460.51,7297706.14
"156447",156447,1985,28,"w","Blue wildebeest",3,-24.42,31.88,386451.56,7298813.48
"156449",156449,1985,28,"w","Blue wildebeest",7,-24.43,31.89,387474.34,7297714.3
"156450",156450,1985,28,"w","Blue wildebeest",9,-24.43,31.89,387474.34,7297714.3
"156462",156462,1985,28,"w","Blue wildebeest",22,-24.45,31.87,385464.75,7295483.21
"156465",156465,1985,28,"w","Blue wildebeest",9,-24.43,31.88,386460.51,7297706.14
"156467",156467,1985,28,"w","Blue wildebeest",31,-24.44,31.88,386469.47,7296598.79
"156477",156477,1985,28,"w","Blue wildebeest",12,-24.45,31.89,387492.09,7295499.62
"156515",156515,1985,28,"w","Blue wildebeest",5,-24.39,31.89,387438.87,7302143.64
"156524",156524,1985,28,"w","Blue wildebeest",8,-24.4,31.91,389475.87,7301052.4
"156563",156563,1985,28,"w","Blue wildebeest",11,-24.61,31.93,391684.14,7277814.05
"156570",156570,1985,28,"w","Blue wildebeest",1,-24.55,31.92,390619.66,7284450.26
"156573",156573,1985,28,"w","Blue wildebeest",3,-24.55,31.92,390619.66,7284450.26
"156594",156594,1985,28,"w","Blue wildebeest",1,-24.55,31.94,392645.37,7284465.98
"156595",156595,1985,28,"w","Blue wildebeest",11,-24.54,31.94,392636.86,7285573.32
"156613",156613,1985,28,"w","Blue wildebeest",11,-24.56,31.93,391641.11,7283350.81
"156623",156623,1985,28,"w","Blue wildebeest",1,-24.56,31.94,392653.89,7283358.63
"156627",156627,1985,28,"w","Blue wildebeest",9,-24.56,31.95,393666.66,7283366.38
"156637",156637,1985,28,"w","Blue wildebeest",3,-24.5,31.92,390576.33,7289986.98
"156640",156640,1985,28,"w","Blue wildebeest",7,-24.5,31.93,391589.59,7289994.87
"156643",156643,1985,28,"w","Blue wildebeest",10,-24.51,31.94,392611.35,7288895.34
"156645",156645,1985,28,"w","Blue wildebeest",15,-24.51,31.94,392611.35,7288895.34
"156646",156646,1985,28,"w","Blue wildebeest",11,-24.51,31.94,392611.35,7288895.34
"156650",156650,1985,28,"w","Blue wildebeest",2,-24.51,31.95,393624.52,7288903.08
"156656",156656,1985,28,"w","Blue wildebeest",12,-24.5,31.95,393616.11,7290010.42
"156681",156681,1985,28,"w","Blue wildebeest",13,-24.52,31.94,392619.85,7287788
"156688",156688,1985,28,"w","Blue wildebeest",11,-24.53,31.95,393641.37,7286688.41
"156694",156694,1985,28,"w","Blue wildebeest",4,-24.46,31.92,390541.73,7294416.34
"156698",156698,1985,28,"w","Blue wildebeest",27,-24.47,31.92,390550.38,7293309
"156699",156699,1985,28,"w","Blue wildebeest",5,-24.47,31.92,390550.38,7293309
"156707",156707,1985,28,"w","Blue wildebeest",6,-24.46,31.93,391555.31,7294424.21
"156708",156708,1985,28,"w","Blue wildebeest",6,-24.46,31.94,392568.89,7294432.02
"156713",156713,1985,28,"w","Blue wildebeest",7,-24.46,31.94,392568.89,7294432.02
"156737",156737,1985,28,"w","Blue wildebeest",24,-24.49,31.94,392594.36,7291110.02
"156738",156738,1985,28,"w","Blue wildebeest",23,-24.49,31.94,392594.36,7291110.02
"156739",156739,1985,28,"w","Blue wildebeest",18,-24.48,31.94,392585.86,7292217.35
"156742",156742,1985,28,"w","Blue wildebeest",1,-24.48,31.94,392585.86,7292217.35
"156751",156751,1985,28,"w","Blue wildebeest",21,-24.49,31.95,393607.69,7291117.75
"156768",156768,1985,28,"w","Blue wildebeest",5,-24.42,31.93,391521.08,7298853.54
"156791",156791,1985,28,"w","Blue wildebeest",2,-24.44,31.92,390524.45,7296631.01
"156816",156816,1985,28,"w","Blue wildebeest",9,-24.39,31.92,390481.31,7302167.66
"156831",156831,1985,28,"w","Blue wildebeest",16,-24.55,31.96,394671.08,7284481.4
"156835",156835,1985,28,"w","Blue wildebeest",21,-24.54,31.96,394662.73,7285588.74
"156851",156851,1985,28,"w","Blue wildebeest",13,-24.5,31.96,394629.36,7290018.08
"156859",156859,1985,28,"w","Blue wildebeest",12,-24.52,31.96,394646.04,7287803.41
"156862",156862,1985,28,"w","Blue wildebeest",18,-24.53,31.96,394654.38,7286696.08
"156874",156874,1985,28,"w","Blue wildebeest",43,-24.52,31.96,394646.04,7287803.41
"156905",156905,1985,28,"w","Blue wildebeest",1,-24.44,31.96,394579.4,7296662.05
"156914",156914,1985,29,"w","Blue wildebeest",34,-24.61,31.78,376498.25,7277687.65
"156915",156915,1985,29,"w","Blue wildebeest",6,-24.61,31.78,376498.25,7277687.65
"156918",156918,1985,29,"w","Blue wildebeest",2,-24.55,31.77,375426.5,7284322.99
"156943",156943,1985,29,"w","Blue wildebeest",3,-24.66,31.82,380595.41,7272186.05
"156970",156970,1985,29,"w","Blue wildebeest",7,-24.64,31.81,379564.23,7274392.09
"156982",156982,1985,29,"w","Blue wildebeest",6,-24.65,31.8,378561.74,7273275.9
"157005",157005,1985,29,"w","Blue wildebeest",6,-24.58,31.8,378494.1,7281027.62
"157020",157020,1985,29,"w","Blue wildebeest",17,-24.58,31.82,380519.39,7281045.12
"157033",157033,1985,29,"w","Blue wildebeest",31,-24.61,31.79,377510.66,7277696.59
"157103",157103,1985,29,"w","Blue wildebeest",24,-24.49,31.8,378407.41,7290994.01
"157129",157129,1985,29,"w","Blue wildebeest",25,-24.71,31.83,381654.64,7266657.75
"157142",157142,1985,29,"w","Blue wildebeest",10,-24.73,31.85,383696.41,7264460.1
"157170",157170,1985,29,"w","Blue wildebeest",16,-24.7,31.85,383668.52,7267782.27
"157209",157209,1985,29,"w","Blue wildebeest",10,-24.65,31.83,381597.97,7273302.09
"157310",157310,1985,29,"w","Blue wildebeest",1,-24.76,31.88,386757.85,7261163.09
"157311",157311,1985,29,"w","Blue wildebeest",1,-24.76,31.88,386757.85,7261163.09
"157313",157313,1985,29,"w","Blue wildebeest",3,-24.77,31.88,386766.92,7260055.7
"157335",157335,1985,29,"w","Blue wildebeest",2,-24.72,31.88,386721.61,7265592.63
"157348",157348,1985,29,"w","Blue wildebeest",1,-24.71,31.9,388735.72,7266716.4
"157352",157352,1985,29,"w","Blue wildebeest",15,-24.73,31.88,386730.67,7264485.25
"157355",157355,1985,29,"w","Blue wildebeest",4,-24.74,31.88,386739.73,7263377.86
"157358",157358,1985,29,"w","Blue wildebeest",4,-24.73,31.88,386730.67,7264485.25
"157360",157360,1985,29,"w","Blue wildebeest",3,-24.73,31.89,387742.08,7264493.48
"157364",157364,1985,29,"w","Blue wildebeest",1,-24.67,31.89,387688.29,7271137.75
"157372",157372,1985,29,"w","Blue wildebeest",2,-24.67,31.91,389712.09,7271153.97
"157373",157373,1985,29,"w","Blue wildebeest",1,-24.69,31.87,385682.73,7268906.47
"157374",157374,1985,29,"w","Blue wildebeest",5,-24.69,31.87,385682.73,7268906.47
"157377",157377,1985,29,"w","Blue wildebeest",10,-24.7,31.88,386703.51,7267807.39
"157382",157382,1985,29,"w","Blue wildebeest",50,-24.69,31.9,388717.95,7268931.15
"157384",157384,1985,29,"w","Blue wildebeest",7,-24.7,31.9,388726.83,7267823.78
"157424",157424,1985,29,"w","Blue wildebeest",12,-24.67,31.92,390723.98,7271161.97
"157444",157444,1985,29,"w","Blue wildebeest",12,-24.66,31.92,390715.27,7272269.33
"157507",157507,1985,3,"w","Blue wildebeest",15,-23.95,31.18,314793.36,7350114.78
"157533",157533,1985,3,"w","Blue wildebeest",10,-23.89,31.18,314707.75,7356759.81
"157550",157550,1985,3,"w","Blue wildebeest",9,-23.91,31.18,314736.26,7354544.8
"157569",157569,1985,3,"w","Blue wildebeest",1,-23.86,31.17,313646.46,7360069.18
"157615",157615,1985,3,"w","Blue wildebeest",7,-24.03,31.23,319993.88,7341319.57
"157635",157635,1985,3,"w","Blue wildebeest",2,-23.96,31.21,317860.95,7349046.34
"157660",157660,1985,3,"w","Blue wildebeest",12,-23.99,31.22,318920.66,7345736.74
"157661",157661,1985,3,"w","Blue wildebeest",7,-23.98,31.22,318906.67,7346844.23
"157668",157668,1985,3,"w","Blue wildebeest",5,-23.98,31.23,319924.27,7346857.05
"157735",157735,1985,3,"w","Blue wildebeest",2,-23.86,31.22,318739.21,7360134.1
"157812",157812,1985,3,"w","Blue wildebeest",5,-24.03,31.26,323045.47,7341357.64
"157848",157848,1985,3,"w","Blue wildebeest",2,-23.92,31.26,322895.09,7353539.92
"157878",157878,1985,3,"w","Blue wildebeest",3,-23.87,31.25,321808.51,7359064.72
"157896",157896,1985,3,"w","Blue wildebeest",1,-23.9,31.26,322867.82,7355754.87
"158096",158096,1985,3,"w","Blue wildebeest",14,-24.01,31.34,331156.75,7343670.9
"158254",158254,1985,30,"w","Blue wildebeest",5,-24.75,31.92,390793.79,7262302.99
"158363",158363,1985,30,"w","Blue wildebeest",23,-24.71,31.94,392782,7266748.29
"158492",158492,1985,30,"w","Blue wildebeest",20,-24.75,31.98,396861.24,7262349.55
"158651",158651,1985,30,"w","Blue wildebeest",4,-24.63,31.97,395750.21,7275630.26
"158659",158659,1985,30,"w","Blue wildebeest",7,-24.63,31.98,396762.41,7275637.81
"158660",158660,1985,30,"w","Blue wildebeest",2,-24.64,31.98,396770.63,7274530.46
"158678",158678,1985,30,"w","Blue wildebeest",25,-24.62,31.99,397766.48,7276752.63
"158679",158679,1985,30,"w","Blue wildebeest",25,-24.62,31.99,397766.48,7276752.63
"158693",158693,1985,30,"w","Blue wildebeest",6,-24.65,31.98,396778.85,7273423.11
"158704",158704,1985,30,"w","Blue wildebeest",2,-24.65,31.98,396778.85,7273423.11
"158705",158705,1985,30,"w","Blue wildebeest",20,-24.65,31.99,397790.89,7273430.59
"158708",158708,1985,30,"w","Blue wildebeest",23,-24.65,31.99,397790.89,7273430.59
"158723",158723,1985,30,"w","Blue wildebeest",3,-24.58,31.97,395708.76,7281166.99
"158775",158775,1985,30,"w","Blue wildebeest",11,-24.55,31.96,394671.08,7284481.4
"158778",158778,1985,30,"w","Blue wildebeest",23,-24.55,31.97,395683.93,7284489
"158802",158802,1985,30,"w","Blue wildebeest",6,-24.57,31.96,394687.79,7282266.72
"158805",158805,1985,30,"w","Blue wildebeest",14,-24.57,31.96,394687.79,7282266.72
"158813",158813,1985,30,"w","Blue wildebeest",15,-24.57,31.97,395700.48,7282274.33
"158822",158822,1985,30,"w","Blue wildebeest",8,-24.56,31.98,396704.97,7283389.2
"158868",158868,1985,30,"w","Blue wildebeest",18,-24.53,31.97,395667.39,7286703.68
"158873",158873,1985,30,"w","Blue wildebeest",16,-24.53,31.97,395667.39,7286703.68
"158913",158913,1985,30,"w","Blue wildebeest",9,-24.46,31.99,397636.75,7294469.93
"159126",159126,1985,31,"w","Blue wildebeest",14,-24.61,31.68,366374.03,7277594.18
"159132",159132,1985,31,"w","Blue wildebeest",1,-24.61,31.7,368398.89,7277613.47
"159164",159164,1985,31,"w","Blue wildebeest",5,-24.5,31.67,365244.06,7289766.01
"159177",159177,1985,31,"w","Blue wildebeest",1,-24.5,31.69,367270.7,7289785.38
"159180",159180,1985,31,"w","Blue wildebeest",3,-24.5,31.68,366257.38,7289775.73
"159186",159186,1985,31,"w","Blue wildebeest",1,-24.5,31.69,367270.7,7289785.38
"159230",159230,1985,31,"w","Blue wildebeest",34,-24.47,31.69,367239.21,7293107.58
"159235",159235,1985,31,"w","Blue wildebeest",32,-24.47,31.69,367239.21,7293107.58
"159236",159236,1985,31,"w","Blue wildebeest",18,-24.47,31.69,367239.21,7293107.58
"159238",159238,1985,31,"w","Blue wildebeest",22,-24.46,31.69,367228.72,7294214.98
"159243",159243,1985,31,"w","Blue wildebeest",1,-24.47,31.7,368252.77,7293117.15
"159245",159245,1985,31,"w","Blue wildebeest",14,-24.46,31.7,368242.36,7294224.54
"159250",159250,1985,31,"w","Blue wildebeest",3,-24.47,31.7,368252.77,7293117.15
"159262",159262,1985,31,"w","Blue wildebeest",7,-24.48,31.67,365222.74,7291980.83
"159279",159279,1985,31,"w","Blue wildebeest",16,-24.48,31.69,367249.7,7292000.18
"159283",159283,1985,31,"w","Blue wildebeest",1,-24.49,31.7,368273.59,7290902.35
"159284",159284,1985,31,"w","Blue wildebeest",1,-24.49,31.7,368273.59,7290902.35
"159340",159340,1985,31,"w","Blue wildebeest",2,-24.44,31.67,365180.16,7296410.44
"159356",159356,1985,31,"w","Blue wildebeest",5,-24.45,31.68,366204.52,7295312.75
"159357",159357,1985,31,"w","Blue wildebeest",13,-24.44,31.68,366193.96,7296420.14
"159365",159365,1985,31,"w","Blue wildebeest",3,-24.45,31.69,367218.24,7295322.38
"159371",159371,1985,31,"w","Blue wildebeest",23,-24.43,31.7,368211.16,7297546.72
"159378",159378,1985,31,"w","Blue wildebeest",4,-24.38,31.68,366130.69,7303064.51
"159470",159470,1985,31,"w","Blue wildebeest",2,-24.55,31.74,372387.8,7284295.55
"159509",159509,1985,31,"w","Blue wildebeest",35,-24.51,31.71,369307.67,7288697.05
"159521",159521,1985,31,"w","Blue wildebeest",22,-24.51,31.73,371334.13,7288715.84
"159523",159523,1985,31,"w","Blue wildebeest",31,-24.51,31.73,371334.13,7288715.84
"159529",159529,1985,31,"w","Blue wildebeest",8,-24.51,31.73,371334.13,7288715.84
"159598",159598,1985,31,"w","Blue wildebeest",6,-24.46,31.73,371283.25,7294252.79
"159599",159599,1985,31,"w","Blue wildebeest",25,-24.46,31.73,371283.25,7294252.79
"159608",159608,1985,31,"w","Blue wildebeest",12,-24.48,31.71,369276.65,7292019.24
"159611",159611,1985,31,"w","Blue wildebeest",39,-24.49,31.71,369286.99,7290911.85
"159615",159615,1985,31,"w","Blue wildebeest",25,-24.49,31.71,369286.99,7290911.85
"159627",159627,1985,31,"w","Blue wildebeest",15,-24.49,31.73,371313.77,7290930.62
"159635",159635,1985,31,"w","Blue wildebeest",18,-24.49,31.74,372327.15,7290939.9
"159711",159711,1985,31,"w","Blue wildebeest",10,-24.39,31.71,369183.81,7301985.74
"159735",159735,1985,31,"w","Blue wildebeest",9,-24.4,31.74,372236.44,7300906.33
"159746",159746,1985,31,"w","Blue wildebeest",8,-24.58,31.75,373430.84,7280982.58
"159757",159757,1985,31,"w","Blue wildebeest",35,-24.61,31.78,376498.25,7277687.65
"159765",159765,1985,31,"w","Blue wildebeest",9,-24.54,31.76,374403.65,7285421.3
"159774",159774,1985,31,"w","Blue wildebeest",6,-24.56,31.76,374423.57,7283206.52
"159785",159785,1985,31,"w","Blue wildebeest",26,-24.5,31.75,373350.56,7289841.71
"159801",159801,1985,31,"w","Blue wildebeest",12,-24.47,31.76,374334.05,7293172.99
"159821",159821,1985,31,"w","Blue wildebeest",12,-24.44,31.75,373290.5,7296486.01
"159826",159826,1985,31,"w","Blue wildebeest",30,-24.44,31.76,374304.28,7296495.12
"159828",159828,1985,31,"w","Blue wildebeest",26,-24.44,31.77,375318.06,7296504.16
"159843",159843,1985,31,"w","Blue wildebeest",14,-24.4,31.75,373250.54,7300915.5
"159881",159881,1985,32,"w","Blue wildebeest",1,-24.52,31.44,341961.9,7287307.23
"159936",159936,1985,32,"w","Blue wildebeest",21,-24.46,31.49,346955.4,7294008.36
"159945",159945,1985,32,"w","Blue wildebeest",1,-24.48,31.46,343938.97,7291759.89
"159973",159973,1985,32,"w","Blue wildebeest",23,-24.56,31.52,350115.18,7282966.65
"159993",159993,1985,32,"w","Blue wildebeest",1,-24.46,31.5,347969.09,7294019.39
"160053",160053,1985,32,"w","Blue wildebeest",12,-24.45,31.53,350998.39,7295159.48
"160064",160064,1985,32,"w","Blue wildebeest",25,-24.55,31.55,353142.16,7284106.4
"160110",160110,1985,32,"w","Blue wildebeest",20,-24.49,31.56,354085.8,7290761.7
"160147",160147,1985,32,"w","Blue wildebeest",2,-24.44,31.55,353014.31,7296288.31
"160156",160156,1985,32,"w","Blue wildebeest",1,-24.44,31.56,354028.15,7296298.89
"160162",160162,1985,32,"w","Blue wildebeest",8,-24.44,31.57,355041.98,7296309.39
"160171",160171,1985,32,"w","Blue wildebeest",23,-24.54,31.59,357182.64,7285255.87
"160182",160182,1985,32,"w","Blue wildebeest",22,-24.53,31.59,357171.32,7286363.31
"160185",160185,1985,32,"w","Blue wildebeest",9,-24.53,31.6,358184.42,7286373.62
"160195",160195,1985,32,"w","Blue wildebeest",1,-24.47,31.59,357103.5,7293007.91
"160238",160238,1985,32,"w","Blue wildebeest",1,-24.43,31.58,356044.46,7297427.26
"160242",160242,1985,32,"w","Blue wildebeest",1,-24.42,31.59,357047.09,7298545.04
"160267",160267,1985,32,"w","Blue wildebeest",11,-24.44,31.58,356055.81,7296319.83
"160273",160273,1985,32,"w","Blue wildebeest",1,-24.43,31.59,357058.37,7297437.61
"160326",160326,1985,32,"w","Blue wildebeest",7,-24.51,31.63,361201.73,7288618.98
"160432",160432,1985,33,"w","Blue wildebeest",14,-24.64,31.61,359320.5,7274202.04
"160513",160513,1985,33,"w","Blue wildebeest",3,-24.67,31.62,360366.1,7270889.91
"160544",160544,1985,33,"w","Blue wildebeest",8,-24.65,31.62,360343.84,7273104.8
"160611",160611,1985,34,"w","Blue wildebeest",5,-24.71,31.7,368503.75,7266539.24
"160640",160640,1985,34,"w","Blue wildebeest",5,-24.63,31.69,367407.56,7275389.02
"160642",160642,1985,34,"w","Blue wildebeest",11,-24.63,31.69,367407.56,7275389.02
"160736",160736,1985,34,"w","Blue wildebeest",6,-24.73,31.73,371559.14,7264352.85
"160749",160749,1985,34,"w","Blue wildebeest",5,-24.7,31.72,370516.65,7267665.71
"160756",160756,1985,34,"w","Blue wildebeest",5,-24.7,31.73,371528.34,7267675.12
"160817",160817,1985,34,"w","Blue wildebeest",8,-24.65,31.72,370465,7273202.8
"160839",160839,1985,34,"w","Blue wildebeest",10,-24.61,31.71,369411.32,7277623
"161061",161061,1985,34,"w","Blue wildebeest",25,-24.76,31.85,383724.32,7261137.92
"161082",161082,1985,34,"w","Blue wildebeest",6,-24.77,31.83,381711.43,7260013.36
"161083",161083,1985,34,"w","Blue wildebeest",20,-24.77,31.84,382722.53,7260021.98
"161138",161138,1985,35,"w","Blue wildebeest",8,-24.95,31.62,360679.55,7239880.83
"161209",161209,1985,35,"w","Blue wildebeest",10,-24.92,31.63,361655.75,7243213.49
"161280",161280,1985,35,"w","Blue wildebeest",7,-24.95,31.65,363708.63,7239911.27
"161490",161490,1985,35,"w","Blue wildebeest",13,-24.88,31.66,364641.92,7247673.56
"161496",161496,1985,35,"w","Blue wildebeest",16,-24.88,31.68,366662.42,7247693.3
"161566",161566,1985,35,"w","Blue wildebeest",10,-24.87,31.73,371703.31,7248848.78
"161655",161655,1985,36,"w","Blue wildebeest",11,-24.8,31.78,376685.53,7256646.93
"161684",161684,1985,36,"w","Blue wildebeest",5,-24.78,31.77,375654.72,7258852.7
"161704",161704,1985,36,"w","Blue wildebeest",15,-24.84,31.8,378746.22,7252235.17
"161746",161746,1985,36,"w","Blue wildebeest",4,-24.8,31.82,380729.01,7256682.45
"161752",161752,1985,36,"w","Blue wildebeest",6,-24.82,31.79,377716.03,7254441.08
"161767",161767,1985,36,"w","Blue wildebeest",32,-24.81,31.82,380738.58,7255575.04
"161818",161818,1985,36,"w","Blue wildebeest",2,-24.8,31.85,383761.59,7256708.32
"161855",161855,1985,36,"w","Blue wildebeest",23,-24.78,31.83,381720.9,7258905.96
"161863",161863,1985,36,"w","Blue wildebeest",15,-24.78,31.85,383742.95,7258923.12
"161864",161864,1985,36,"w","Blue wildebeest",10,-24.78,31.86,384753.97,7258931.59
"161866",161866,1985,36,"w","Blue wildebeest",3,-24.8,31.88,386794.15,7256733.52
"161873",161873,1985,37,"w","Blue wildebeest",4,-24.91,31.9,388914.16,7244568.59
"161877",161877,1985,37,"w","Blue wildebeest",116,-24.93,31.91,389941.87,7242361.91
"161891",161891,1985,37,"w","Blue wildebeest",5,-24.9,31.9,388905.2,7245675.99
"161960",161960,1985,37,"w","Blue wildebeest",8,-24.8,31.91,389826.69,7256758.06
"162016",162016,1985,37,"w","Blue wildebeest",7,-25,31.95,394040.96,7234641.9
"162021",162021,1985,37,"w","Blue wildebeest",3,-25.03,31.95,394066.71,7231319.67
"162022",162022,1985,37,"w","Blue wildebeest",25,-24.97,31.93,391996.33,7237948.34
"162025",162025,1985,37,"w","Blue wildebeest",6,-24.96,31.94,392997.14,7239063.67
"162026",162026,1985,37,"w","Blue wildebeest",32,-24.96,31.94,392997.14,7239063.67
"162028",162028,1985,37,"w","Blue wildebeest",17,-24.96,31.94,392997.14,7239063.67
"162029",162029,1985,37,"w","Blue wildebeest",22,-24.96,31.95,394006.67,7239071.51
"162034",162034,1985,37,"w","Blue wildebeest",17,-24.98,31.93,392005.07,7236840.93
"162041",162041,1985,37,"w","Blue wildebeest",10,-24.98,31.95,394023.81,7236856.71
"162050",162050,1985,37,"w","Blue wildebeest",4,-24.92,31.92,390942.85,7243477.37
"162051",162051,1985,37,"w","Blue wildebeest",8,-24.92,31.92,390942.85,7243477.37
"162052",162052,1985,37,"w","Blue wildebeest",4,-24.92,31.92,390942.85,7243477.37
"162053",162053,1985,37,"w","Blue wildebeest",16,-24.93,31.92,390951.65,7242369.97
"162055",162055,1985,37,"w","Blue wildebeest",4,-24.92,31.92,390942.85,7243477.37
"162059",162059,1985,37,"w","Blue wildebeest",6,-24.92,31.92,390942.85,7243477.37
"162061",162061,1985,37,"w","Blue wildebeest",10,-24.92,31.92,390942.85,7243477.37
"162063",162063,1985,37,"w","Blue wildebeest",1,-24.93,31.93,391961.43,7242377.96
"162064",162064,1985,37,"w","Blue wildebeest",10,-24.92,31.93,391952.72,7243485.36
"162067",162067,1985,37,"w","Blue wildebeest",18,-24.92,31.93,391952.72,7243485.36
"162068",162068,1985,37,"w","Blue wildebeest",26,-24.91,31.93,391944,7244592.75
"162069",162069,1985,37,"w","Blue wildebeest",19,-24.93,31.93,391961.43,7242377.96
"162072",162072,1985,37,"w","Blue wildebeest",16,-24.93,31.94,392971.22,7242385.87
"162082",162082,1985,37,"w","Blue wildebeest",7,-24.91,31.94,392953.95,7244600.66
"162084",162084,1985,37,"w","Blue wildebeest",15,-24.92,31.95,393972.44,7243501.1
"162088",162088,1985,37,"w","Blue wildebeest",25,-24.93,31.95,393981,7242393.71
"162089",162089,1985,37,"w","Blue wildebeest",15,-24.92,31.95,393972.44,7243501.1
"162090",162090,1985,37,"w","Blue wildebeest",25,-24.92,31.95,393972.44,7243501.1
"162099",162099,1985,37,"w","Blue wildebeest",5,-24.94,31.92,390960.45,7241262.57
"162100",162100,1985,37,"w","Blue wildebeest",8,-24.94,31.92,390960.45,7241262.57
"162106",162106,1985,37,"w","Blue wildebeest",37,-24.95,31.93,391978.88,7240163.15
"162107",162107,1985,37,"w","Blue wildebeest",27,-24.94,31.93,391970.15,7241270.55
"162108",162108,1985,37,"w","Blue wildebeest",21,-24.93,31.93,391961.43,7242377.96
"162111",162111,1985,37,"w","Blue wildebeest",30,-24.94,31.93,391970.15,7241270.55
"162115",162115,1985,37,"w","Blue wildebeest",18,-24.94,31.94,392979.85,7241278.47
"162123",162123,1985,37,"w","Blue wildebeest",2,-24.95,31.95,393998.11,7240178.91
"162125",162125,1985,37,"w","Blue wildebeest",38,-24.94,31.95,393989.55,7241286.31
"162128",162128,1985,37,"w","Blue wildebeest",5,-24.94,31.95,393989.55,7241286.31
"162132",162132,1985,37,"w","Blue wildebeest",16,-24.9,31.92,390925.27,7245692.17
"162133",162133,1985,37,"w","Blue wildebeest",16,-24.9,31.92,390925.27,7245692.17
"162138",162138,1985,37,"w","Blue wildebeest",28,-24.9,31.92,390925.27,7245692.17
"162142",162142,1985,37,"w","Blue wildebeest",24,-24.91,31.92,390934.06,7244584.77
"162144",162144,1985,37,"w","Blue wildebeest",17,-24.9,31.92,390925.27,7245692.17
"162145",162145,1985,37,"w","Blue wildebeest",9,-24.9,31.93,391935.29,7245700.15
"162146",162146,1985,37,"w","Blue wildebeest",3,-24.91,31.93,391944,7244592.75
"162149",162149,1985,37,"w","Blue wildebeest",11,-24.9,31.93,391935.29,7245700.15
"162152",162152,1985,37,"w","Blue wildebeest",50,-24.9,31.93,391935.29,7245700.15
"162157",162157,1985,37,"w","Blue wildebeest",5,-24.91,31.94,392953.95,7244600.66
"162162",162162,1985,37,"w","Blue wildebeest",20,-24.91,31.95,393963.89,7244608.5
"162163",162163,1985,37,"w","Blue wildebeest",20,-24.91,31.95,393963.89,7244608.5
"162179",162179,1985,37,"w","Blue wildebeest",2,-24.84,31.93,391883.1,7252344.5
"162180",162180,1985,37,"w","Blue wildebeest",14,-24.83,31.93,391874.42,7253451.89
"162212",162212,1985,37,"w","Blue wildebeest",20,-24.8,31.92,390837.54,7256766.09
"162394",162394,1985,37,"w","Blue wildebeest",12,-25.01,31.98,397076.91,7233557.62
"162398",162398,1985,37,"w","Blue wildebeest",8,-25.01,31.98,397076.91,7233557.62
"162416",162416,1985,37,"w","Blue wildebeest",2,-25.02,31.96,395067.16,7232434.87
"162417",162417,1985,37,"w","Blue wildebeest",6,-25.02,31.96,395067.16,7232434.87
"162443",162443,1985,37,"w","Blue wildebeest",18,-25.02,31.98,397085.24,7232450.21
"162460",162460,1985,37,"w","Blue wildebeest",53,-24.96,31.96,395016.21,7239079.28
"162467",162467,1985,37,"w","Blue wildebeest",7,-24.96,31.97,396025.74,7239086.98
"162478",162478,1985,37,"w","Blue wildebeest",34,-24.99,31.96,395041.67,7235757.08
"162497",162497,1985,37,"w","Blue wildebeest",7,-24.98,31.98,397051.91,7236879.81
"162498",162498,1985,37,"w","Blue wildebeest",8,-24.98,31.98,397051.91,7236879.81
"162509",162509,1985,37,"w","Blue wildebeest",12,-24.92,31.96,394982.3,7243508.86
"162529",162529,1985,37,"w","Blue wildebeest",70,-24.92,31.98,397002.01,7243524.16
"162532",162532,1985,37,"w","Blue wildebeest",60,-24.92,31.98,397002.01,7243524.16
"162541",162541,1985,37,"w","Blue wildebeest",13,-24.92,31.99,398011.86,7243531.7
"162551",162551,1985,37,"w","Blue wildebeest",4,-24.95,31.96,395007.73,7240186.68
"162554",162554,1985,37,"w","Blue wildebeest",7,-24.94,31.96,394999.25,7241294.08
"162558",162558,1985,37,"w","Blue wildebeest",5,-24.95,31.96,395007.73,7240186.68
"162560",162560,1985,37,"w","Blue wildebeest",40,-24.93,31.96,394990.77,7242401.47
"162562",162562,1985,37,"w","Blue wildebeest",61,-24.94,31.97,396008.94,7241301.77
"162565",162565,1985,37,"w","Blue wildebeest",5,-24.94,31.97,396008.94,7241301.77
"162566",162566,1985,37,"w","Blue wildebeest",4,-24.95,31.97,396017.34,7240194.37
"162570",162570,1985,37,"w","Blue wildebeest",19,-24.93,31.97,396000.55,7242409.16
"162573",162573,1985,37,"w","Blue wildebeest",7,-24.95,31.98,397026.95,7240201.99
"162579",162579,1985,37,"w","Blue wildebeest",3,-24.94,31.98,397018.63,7241309.39
"162589",162589,1985,37,"w","Blue wildebeest",17,-24.91,31.96,394973.83,7244616.26
"162596",162596,1985,37,"w","Blue wildebeest",19,-24.91,31.96,394973.83,7244616.26
"162598",162598,1985,37,"w","Blue wildebeest",13,-24.91,31.97,395983.77,7244623.94
"162608",162608,1985,37,"w","Blue wildebeest",1,-24.91,31.99,398003.64,7244639.09
"162630",162630,1985,37,"w","Blue wildebeest",2,-24.87,31.97,395950.25,7249053.48
"162874",162874,1985,37,"w","Blue wildebeest",7,-24.92,32,399021.71,7243539.17
"162881",162881,1985,37,"w","Blue wildebeest",5,-24.91,32.01,400023.5,7244653.94
"162890",162890,1985,37,"w","Blue wildebeest",16,-24.9,32,399005.43,7245753.93
"162978",162978,1985,38,"w","Blue wildebeest",7,-24.89,31.76,374754.42,7246661.83
"162990",162990,1985,38,"w","Blue wildebeest",11,-24.9,31.77,375774.58,7245563.56
"163194",163194,1985,38,"w","Blue wildebeest",6,-24.92,31.88,386903.37,7243444.69
"163202",163202,1985,38,"w","Blue wildebeest",9,-24.95,31.91,389959.63,7240147.09
"163236",163236,1985,39,"w","Blue wildebeest",6,-25.14,31.2,318549.67,7218338.98
"163261",163261,1985,39,"w","Blue wildebeest",13,-25.14,31.23,321574.47,7218379.02
"163374",163374,1985,39,"w","Blue wildebeest",8,-25.01,31.27,325423.16,7232830.47
"163503",163503,1985,39,"w","Blue wildebeest",1,-25.03,31.3,328478.89,7230653.59
"163592",163592,1985,39,"w","Blue wildebeest",7,-25.06,31.33,331547.31,7227368.48
"163688",163688,1985,4,"w","Blue wildebeest",5,-23.74,31.15,311436.1,7373332.73
"163690",163690,1985,4,"w","Blue wildebeest",2,-23.74,31.15,311436.1,7373332.73
"163719",163719,1985,4,"w","Blue wildebeest",13,-23.68,31.15,311349.8,7379977.68
"163752",163752,1985,4,"w","Blue wildebeest",20,-23.84,31.2,316673.98,7362323.32
"163761",163761,1985,4,"w","Blue wildebeest",12,-23.79,31.17,313546.4,7367821.66
"163979",163979,1985,4,"w","Blue wildebeest",4,-23.79,31.21,317622.8,7367873.62
"164053",164053,1985,4,"w","Blue wildebeest",1,-23.75,31.24,320625.2,7372341.68
"164213",164213,1985,4,"w","Blue wildebeest",8,-23.76,31.26,322677.53,7371259.32
"164235",164235,1985,4,"w","Blue wildebeest",20,-23.78,31.25,321685.5,7369031.89
"164268",164268,1985,4,"w","Blue wildebeest",7,-23.73,31.26,322636.89,7374581.67
"164332",164332,1985,4,"w","Blue wildebeest",2,-23.8,31.3,326807.74,7366878.9
"164368",164368,1985,4,"w","Blue wildebeest",1,-23.76,31.29,325735.44,7371296.43
"164374",164374,1985,4,"w","Blue wildebeest",2,-23.75,31.3,326741.49,7372416.09
"164395",164395,1985,4,"w","Blue wildebeest",22,-23.77,31.3,326767.98,7370201.21
"164416",164416,1985,4,"w","Blue wildebeest",16,-23.71,31.3,326688.58,7376845.81
"164429",164429,1985,4,"w","Blue wildebeest",12,-23.73,31.3,326715.03,7374630.95
"164558",164558,1985,40,"w","Blue wildebeest",3,-25.3,31.26,324828.63,7200696.06
"164560",164560,1985,40,"w","Blue wildebeest",3,-25.29,31.26,324814.25,7201803.71
"164586",164586,1985,40,"w","Blue wildebeest",3,-25.25,31.28,326771.47,7206260.28
"164665",164665,1985,40,"w","Blue wildebeest",8,-25.2,31.26,324685.09,7211772.56
"164668",164668,1985,40,"w","Blue wildebeest",7,-25.19,31.26,324670.77,7212880.2
"164672",164672,1985,40,"w","Blue wildebeest",9,-25.2,31.28,326700.6,7211798.48
"164704",164704,1985,40,"w","Blue wildebeest",3,-25.33,31.31,329905.16,7197437.56
"164706",164706,1985,40,"w","Blue wildebeest",9,-25.33,31.32,330911.82,7197450.23
"164730",164730,1985,40,"w","Blue wildebeest",11,-25.29,31.31,329849.27,7201868.12
"164741",164741,1985,40,"w","Blue wildebeest",3,-25.31,31.29,327863.54,7199627.29
"164747",164747,1985,40,"w","Blue wildebeest",14,-25.32,31.31,329891.18,7198545.2
"164756",164756,1985,40,"w","Blue wildebeest",23,-25.25,31.3,328786.14,7206285.94
"164765",164765,1985,40,"w","Blue wildebeest",1,-25.25,31.32,330800.79,7206311.3
"164786",164786,1985,40,"w","Blue wildebeest",10,-25.22,31.31,329751.67,7209621.54
"164858",164858,1985,40,"w","Blue wildebeest",5,-25.19,31.29,327694.27,7212918.96
"164881",164881,1985,40,"w","Blue wildebeest",6,-25.25,31.33,331808.11,7206323.86
"164896",164896,1985,40,"w","Blue wildebeest",5,-25.24,31.33,331794.34,7207431.48
"165074",165074,1985,41,"w","Blue wildebeest",3,-25.34,31.38,336965.13,7196417.04
"165078",165078,1985,41,"w","Blue wildebeest",6,-25.34,31.39,337971.69,7196429.19
"165237",165237,1985,41,"w","Blue wildebeest",13,-25.15,31.38,336711.3,7217461.56
"165262",165262,1985,41,"w","Blue wildebeest",6,-25.15,31.41,339735.67,7217497.57
"165316",165316,1985,41,"w","Blue wildebeest",7,-25.28,31.45,343934.09,7203146.03
"165406",165406,1985,41,"w","Blue wildebeest",16,-25.15,31.42,340743.78,7217509.43
"165456",165456,1985,41,"w","Blue wildebeest",12,-25.25,31.46,344903,7206480.38
"165521",165521,1985,41,"w","Blue wildebeest",14,-25.18,31.47,345822.06,7214244.89
"165527",165527,1985,41,"w","Blue wildebeest",4,-25.18,31.48,346829.91,7214256.3
"165560",165560,1985,41,"w","Blue wildebeest",10,-25.12,31.46,344738.27,7220878.79
"165619",165619,1985,41,"w","Blue wildebeest",9,-25.11,31.48,346742.49,7222009.21
"165624",165624,1985,41,"w","Blue wildebeest",15,-25.12,31.49,347763.31,7220912.98
"165626",165626,1985,41,"w","Blue wildebeest",6,-25.11,31.49,347750.92,7222020.53
"165673",165673,1985,41,"w","Blue wildebeest",5,-25.11,31.5,348759.34,7222031.77
"165674",165674,1985,41,"w","Blue wildebeest",1,-25.11,31.5,348759.34,7222031.77
"165850",165850,1985,42,"w","Blue wildebeest",1,-25.11,31.52,350776.17,7222054.03
"165853",165853,1985,42,"w","Blue wildebeest",12,-25.11,31.52,350776.17,7222054.03
"165861",165861,1985,42,"w","Blue wildebeest",1,-25.1,31.53,351772.52,7223172.59
"165863",165863,1985,42,"w","Blue wildebeest",1,-25.1,31.53,351772.52,7223172.59
"165914",165914,1985,42,"w","Blue wildebeest",2,-25.28,31.54,352997.28,7203247.72
"165920",165920,1985,42,"w","Blue wildebeest",13,-25.28,31.54,352997.28,7203247.72
"166027",166027,1985,42,"w","Blue wildebeest",9,-25.17,31.54,352864.95,7215430.77
"166038",166038,1985,42,"w","Blue wildebeest",3,-25.17,31.56,354880.77,7215452.47
"166043",166043,1985,42,"w","Blue wildebeest",6,-25.18,31.56,354892.61,7214344.93
"166048",166048,1985,42,"w","Blue wildebeest",5,-25.17,31.57,355888.68,7215463.21
"166141",166141,1985,42,"w","Blue wildebeest",2,-25.15,31.55,353849.02,7217656.73
"166148",166148,1985,42,"w","Blue wildebeest",1,-25.15,31.57,355865.17,7217678.27
"166203",166203,1985,42,"w","Blue wildebeest",17,-25.11,31.55,353801.4,7222086.87
"166484",166484,1985,42,"w","Blue wildebeest",10,-25.17,31.59,357904.48,7215484.46
"166902",166902,1985,43,"w","Blue wildebeest",8,-25.03,31.46,344624.7,7230846.79
"166905",166905,1985,43,"w","Blue wildebeest",5,-25.03,31.46,344624.7,7230846.79
"167027",167027,1985,43,"w","Blue wildebeest",15,-25,31.53,351652.19,7234247.88
"167369",167369,1985,44,"w","Blue wildebeest",1,-25.35,31.63,362139.51,7195590.58
"167712",167712,1985,44,"w","Blue wildebeest",1,-25.25,31.7,369076.86,7206735.99
"167713",167713,1985,44,"w","Blue wildebeest",13,-25.25,31.7,369076.86,7206735.99
"168124",168124,1985,44,"w","Blue wildebeest",1,-25.3,31.82,381211.92,7201310.21
"168144",168144,1985,44,"w","Blue wildebeest",4,-25.28,31.8,379178.56,7203507.3
"168321",168321,1985,45,"w","Blue wildebeest",24,-25.25,31.82,381163.23,7206847.59
"168413",168413,1985,45,"w","Blue wildebeest",7,-25.17,31.81,380077.65,7215698.47
"168453",168453,1985,45,"w","Blue wildebeest",16,-25.2,31.82,381114.62,7212384.94
"168515",168515,1985,45,"w","Blue wildebeest",15,-25.26,31.86,385201.34,7205774.93
"168676",168676,1985,45,"w","Blue wildebeest",19,-25.15,31.86,385098.1,7217956.95
"168707",168707,1985,45,"w","Blue wildebeest",22,-25.34,31.89,388295.96,7196940.54
"168751",168751,1985,45,"w","Blue wildebeest",9,-25.21,31.9,389184.36,7211345.79
"168754",168754,1985,45,"w","Blue wildebeest",11,-25.21,31.91,390191.85,7211353.99
"168822",168822,1985,45,"w","Blue wildebeest",3,-25.13,31.9,389112.01,7220205.33
"168833",168833,1985,45,"w","Blue wildebeest",5,-25.16,31.88,387123.3,7216866.41
"168915",168915,1985,45,"w","Blue wildebeest",8,-25.2,31.92,391190.45,7212469.56
"168917",168917,1985,45,"w","Blue wildebeest",13,-25.2,31.93,392198.02,7212477.61
"168922",168922,1985,45,"w","Blue wildebeest",1,-25.19,31.94,393196.87,7213593.02
"168961",168961,1985,46,"w","Blue wildebeest",1,-25.38,31.95,394369.24,7192559.42
"169008",169008,1985,46,"w","Blue wildebeest",4,-25.43,31.98,397429.76,7187045.5
"169082",169082,1985,46,"w","Blue wildebeest",13,-25.3,31.96,395306.48,7201426.91
"169093",169093,1985,46,"w","Blue wildebeest",1,-25.31,31.96,395315.07,7200319.47
"169113",169113,1985,46,"w","Blue wildebeest",20,-25.25,31.96,395263.56,7206964.13
"169121",169121,1985,46,"w","Blue wildebeest",28,-25.25,31.98,397277.86,7206979.58
"169132",169132,1985,46,"w","Blue wildebeest",15,-25.27,31.97,396287.71,7204757.01
"169133",169133,1985,46,"w","Blue wildebeest",1,-25.28,31.97,396296.21,7203649.57
"169134",169134,1985,46,"w","Blue wildebeest",1,-25.27,31.97,396287.71,7204757.01
"169175",169175,1985,46,"w","Blue wildebeest",30,-25.24,31.96,395254.99,7208071.57
"169177",169177,1985,46,"w","Blue wildebeest",18,-25.24,31.96,395254.99,7208071.57
"169178",169178,1985,46,"w","Blue wildebeest",8,-25.24,31.96,395254.99,7208071.57
"169193",169193,1985,46,"w","Blue wildebeest",22,-25.24,31.99,398276.68,7208094.62
"169436",169436,1985,47,"w","Blue wildebeest",10,-22.69,31.18,313038.18,7489650.77
"169445",169445,1985,47,"w","Blue wildebeest",5,-22.69,31.2,315093.18,7489675.82
"169471",169471,1985,47,"w","Blue wildebeest",35,-22.65,31.19,314011.73,7494092.7
"169488",169488,1985,47,"w","Blue wildebeest",3,-22.77,31.22,317254.55,7480841.9
"169496",169496,1985,47,"w","Blue wildebeest",22,-22.71,31.23,318202.07,7487498.22
"169518",169518,1985,47,"w","Blue wildebeest",5,-22.7,31.21,316134.03,7488580.91
"169528",169528,1985,47,"w","Blue wildebeest",16,-22.7,31.24,319216.28,7488617.77
"169562",169562,1985,47,"w","Blue wildebeest",15,-22.65,31.24,319150.69,7494154.38
"169580",169580,1985,47,"w","Blue wildebeest",26,-22.75,31.28,323390.11,7483129.39
"169584",169584,1985,47,"w","Blue wildebeest",3,-22.72,31.26,321297.06,7486427.36
"169596",169596,1985,47,"w","Blue wildebeest",18,-22.67,31.25,320204.54,7491951.87
"169602",169602,1985,47,"w","Blue wildebeest",13,-22.69,31.25,320230.63,7489737.24
"169630",169630,1985,47,"w","Blue wildebeest",3,-22.75,31.31,326471.15,7483164.86
"169671",169671,1985,48,"w","Blue wildebeest",11,-22.87,31.21,316361.87,7469755.99
"169681",169681,1985,48,"w","Blue wildebeest",16,-22.85,31.24,319413.85,7472007.76
"169689",169689,1985,48,"w","Blue wildebeest",14,-22.81,31.22,317307.87,7476412.52
"169742",169742,1985,48,"w","Blue wildebeest",11,-22.77,31.27,322388.96,7480902.79
"169749",169749,1985,48,"w","Blue wildebeest",9,-22.88,31.29,324583.76,7468746.14
"169769",169769,1985,48,"w","Blue wildebeest",11,-22.85,31.32,327624.01,7472103.49
"169776",169776,1985,48,"w","Blue wildebeest",4,-22.86,31.31,326610.44,7470984.45
"169778",169778,1985,48,"w","Blue wildebeest",1,-22.86,31.31,326610.44,7470984.45
"169783",169783,1985,48,"w","Blue wildebeest",13,-22.79,31.29,324468.3,7478712.03
"169837",169837,1985,48,"w","Blue wildebeest",4,-22.86,31.34,329688.97,7471019.43
"170063",170063,1985,49,"w","Blue wildebeest",15,-22.9,31.27,322557.69,7466507.51
"170136",170136,1985,49,"w","Blue wildebeest",6,-22.9,31.32,327687.13,7466566.92
"170173",170173,1985,49,"w","Blue wildebeest",6,-22.92,31.33,328738.14,7464363.97
"170184",170184,1985,49,"w","Blue wildebeest",45,-22.94,31.33,328763.3,7462149.33
"170185",170185,1985,49,"w","Blue wildebeest",4,-22.95,31.34,329801.38,7461053.64
"170277",170277,1985,49,"w","Blue wildebeest",6,-22.91,31.41,336931.85,7465562.19
"170460",170460,1985,5,"w","Blue wildebeest",25,-23.8,31.43,340054.2,7367031.48
"171041",171041,1985,50,"w","Blue wildebeest",11,-23.07,31.46,342246.69,7447900.33
"171055",171055,1985,50,"w","Blue wildebeest",14,-23.06,31.48,344284.26,7449029.05
"171281",171281,1985,52,"w","Blue wildebeest",9,-23.05,31.16,311480.89,7449759.76
"171296",171296,1985,52,"w","Blue wildebeest",5,-23.13,31.19,314665.08,7440938.95
"171300",171300,1985,52,"w","Blue wildebeest",4,-23.13,31.2,315689.26,7440951.63
"171325",171325,1985,52,"w","Blue wildebeest",5,-23.11,31.19,314637.6,7443153.75
"171358",171358,1985,52,"w","Blue wildebeest",12,-23.07,31.18,313558.06,7447570.61
"171370",171370,1985,52,"w","Blue wildebeest",1,-23.06,31.2,315593.71,7448703.37
"171395",171395,1985,52,"w","Blue wildebeest",6,-23.17,31.23,318815.61,7436559.7
"171399",171399,1985,52,"w","Blue wildebeest",7,-23.17,31.24,319839.48,7436572.12
"171400",171400,1985,52,"w","Blue wildebeest",6,-23.17,31.24,319839.48,7436572.12
"171424",171424,1985,52,"w","Blue wildebeest",5,-23.18,31.23,318829.08,7435452.31
"171434",171434,1985,52,"w","Blue wildebeest",10,-23.13,31.21,316713.45,7440964.24
"171443",171443,1985,52,"w","Blue wildebeest",3,-23.13,31.23,318761.8,7440989.24
"171444",171444,1985,52,"w","Blue wildebeest",24,-23.12,31.23,318748.36,7442096.63
"171477",171477,1985,52,"w","Blue wildebeest",15,-23.15,31.22,317764.67,7438762
"171492",171492,1985,52,"w","Blue wildebeest",9,-23.15,31.24,319812.71,7438786.88
"171510",171510,1985,52,"w","Blue wildebeest",1,-23.11,31.23,318734.92,7443204.01
"171520",171520,1985,52,"w","Blue wildebeest",2,-23.07,31.22,317656.61,7447621.08
"171564",171564,1985,52,"w","Blue wildebeest",2,-23.15,31.25,320836.72,7438799.22
"171567",171567,1985,52,"w","Blue wildebeest",15,-23.15,31.25,320836.72,7438799.22
"171568",171568,1985,52,"w","Blue wildebeest",16,-23.15,31.25,320836.72,7438799.22
"171576",171576,1985,52,"w","Blue wildebeest",16,-23.14,31.26,321847.51,7439918.85
"171580",171580,1985,52,"w","Blue wildebeest",9,-23.15,31.27,322884.74,7438823.68
"171587",171587,1985,52,"w","Blue wildebeest",15,-23.08,31.26,321768.29,7446563.06
"171590",171590,1985,52,"w","Blue wildebeest",4,-23.11,31.26,321807.88,7443240.96
"171601",171601,1985,52,"w","Blue wildebeest",4,-23.05,31.26,321728.75,7449885.15
"171638",171638,1985,52,"w","Blue wildebeest",4,-23.09,31.3,325879.3,7445503.96
"171639",171639,1985,52,"w","Blue wildebeest",5,-23.09,31.3,325879.3,7445503.96
"171667",171667,1985,52,"w","Blue wildebeest",3,-23.06,31.3,325840.66,7448826
"171668",171668,1985,52,"w","Blue wildebeest",13,-23.07,31.3,325853.54,7447718.65
"171671",171671,1985,52,"w","Blue wildebeest",5,-23.03,31.29,324777.16,7452136.1
"171699",171699,1985,52,"w","Blue wildebeest",19,-23.15,31.33,329028.7,7438895.36
"171718",171718,1985,52,"w","Blue wildebeest",6,-23.11,31.35,331026.53,7443348.04
"171761",171761,1985,52,"w","Blue wildebeest",2,-23.08,31.4,336111.49,7446727
"171763",171763,1985,52,"w","Blue wildebeest",7,-23.09,31.39,335099.2,7445608.43
"171796",171796,1985,52,"w","Blue wildebeest",5,-23.06,31.4,336087.24,7448941.61
"171838",171838,1985,53,"w","Blue wildebeest",10,-23.1,30.94,289012.2,7443921.66
"171886",171886,1985,53,"w","Blue wildebeest",3,-23.01,30.94,288871.8,7453889.2
"171919",171919,1985,53,"w","Blue wildebeest",13,-22.99,30.94,288840.67,7456104.19
"171922",171922,1985,53,"w","Blue wildebeest",7,-22.98,30.94,288825.11,7457211.69
"171928",171928,1985,53,"w","Blue wildebeest",12,-22.99,30.95,289866.02,7456118.56
"171943",171943,1985,53,"w","Blue wildebeest",16,-23.14,30.98,293171.6,7439548.96
"172062",172062,1985,53,"w","Blue wildebeest",6,-23.09,31.01,296168.64,7445128.62
"172084",172084,1985,53,"w","Blue wildebeest",8,-23.05,31.02,297133.19,7449572.42
"172106",172106,1985,53,"w","Blue wildebeest",6,-23.01,31.02,297073.28,7454002.27
"172149",172149,1985,53,"w","Blue wildebeest",17,-23.02,31.03,298113.34,7452908.63
"172172",172172,1985,53,"w","Blue wildebeest",1,-23.13,31.05,300326.07,7440754.07
"172188",172188,1985,53,"w","Blue wildebeest",5,-23.11,31.06,301320.85,7442982.64
"172199",172199,1985,53,"w","Blue wildebeest",14,-23.06,31.07,302272.08,7448533.46
"172289",172289,1985,53,"w","Blue wildebeest",15,-23.12,31.12,307481.4,7441955.66
"172320",172320,1985,53,"w","Blue wildebeest",33,-23.14,31.15,310582.35,7439780.12
"172335",172335,1985,53,"w","Blue wildebeest",9,-23.15,31.16,311620.46,7438685.67
"172342",172342,1985,53,"w","Blue wildebeest",5,-23.08,31.12,307424.35,7446385.37
"172351",172351,1985,53,"w","Blue wildebeest",1,-23.12,31.13,308505.69,7441968.83
"172360",172360,1985,53,"w","Blue wildebeest",10,-23.05,31.15,310456.08,7449746.83
"172970",172970,1985,55,"w","Blue wildebeest",2,-22.88,31.13,308166.63,7468546.66
"172971",172971,1985,55,"w","Blue wildebeest",19,-22.88,31.13,308166.63,7468546.66
"173054",173054,1985,55,"w","Blue wildebeest",16,-22.88,31.2,315349.25,7468636.13
"173092",173092,1985,55,"w","Blue wildebeest",10,-22.85,31.17,312229.76,7471920.33
"173112",173112,1985,55,"w","Blue wildebeest",11,-22.8,31.19,314214.51,7477482.46
"173132",173132,1985,55,"w","Blue wildebeest",1,-22.82,31.2,315268.17,7475280.29
"173355",173355,1985,56,"w","Blue wildebeest",5,-25.4,31.51,350124.21,7189923.59
"173402",173402,1985,56,"w","Blue wildebeest",2,-25.37,31.53,352099.69,7193268.62
"173591",173591,1985,57,"w","Blue wildebeest",10,-25.12,31.77,375995.74,7221199.61
"173766",173766,1985,58,"w","Blue wildebeest",8,-25.08,31.6,358808.95,7225462.63
