"","ID","Year","Cenb","Sp","Description","No","Lat","Long","X.coord","Y.coord"
"232136",232136,1988,2,"hp","Hippopotamus",2,-23.93,31.5,347339.19,7352712.71
"234176",234176,1988,6,"hp","Hippopotamus",9,-23.62,31.46,342895.51,7386997.63
"234763",234763,1988,8,"hp","Hippopotamus",1,-23.52,31.38,334607.56,7397981.22
"234823",234823,1988,8,"hp","Hippopotamus",5,-23.51,31.36,332552.64,7399065.41
"236322",236322,1988,12,"hp","Hippopotamus",3,-23.21,31.06,301468.39,7431908.03
"237950",237950,1988,15,"hp","Hippopotamus",1,-23.16,31.34,330065.3,7437799.72
"238150",238150,1988,15,"hp","Hippopotamus",4,-23.11,31.45,341269.15,7443460.33
"244454",244454,1988,28,"hp","Hippopotamus",2,-24.38,31.9,388444.24,7303259.05
"252940",252940,1988,43,"hp","Hippopotamus",15,-24.98,31.57,355666.05,7236506.08
"254773",254773,1988,45,"hp","Hippopotamus",1,-25.25,31.85,384184.76,7206873.8
"257100",257100,1988,53,"hp","Hippopotamus",3,-23.18,31.03,298352.47,7435189.16
"257994",257994,1988,54,"hp","Hippopotamus",3,-22.93,31.2,315416.97,7463099.29
"258030",258030,1988,54,"hp","Hippopotamus",14,-22.94,31.21,316456.15,7462004.45
"258644",258644,1988,55,"hp","Hippopotamus",5,-22.92,31.2,315403.42,7464206.66
