"","ID","Year","Cenb","Sp","Description","No","Lat","Long","X.coord","Y.coord"
"74744",74744,1982,6,"n","Nyala",3,-23.58,31.4,336723.96,7391359.9
"74879",74879,1982,6,"n","Nyala",3,-23.74,31.48,345077.78,7373731.16
"74904",74904,1982,6,"n","Nyala",1,-23.66,31.46,342943.26,7382568.18
"76356",76356,1982,11,"n","Nyala",1,-23.18,31.32,328043.04,7435561.54
"77024",77024,1982,13,"n","Nyala",3,-23.83,31.63,360464.37,7363920.53
"77247",77247,1982,14,"n","Nyala",1,-23.49,31.55,351932.71,7401488.79
"77890",77890,1982,18,"n","Nyala",4,-23.16,31.46,342351.87,7437934.7
"77902",77902,1982,18,"n","Nyala",3,-23.16,31.48,344399.58,7437956.21
"78087",78087,1982,19,"n","Nyala",1,-23.66,31.65,362323.01,7382764.37
"78133",78133,1982,19,"n","Nyala",1,-23.89,31.67,364601.3,7357315.4
"78134",78134,1982,19,"n","Nyala",7,-23.89,31.67,364601.3,7357315.4
"78145",78145,1982,19,"n","Nyala",4,-23.91,31.67,364622.13,7355100.74
"78455",78455,1982,19,"n","Nyala",1,-23.97,31.84,381982.38,7348609.48
"78456",78456,1982,19,"n","Nyala",3,-23.97,31.84,381982.38,7348609.48
"78457",78457,1982,19,"n","Nyala",3,-23.97,31.84,381982.38,7348609.48
"78458",78458,1982,19,"n","Nyala",4,-23.97,31.84,381982.38,7348609.48
"78464",78464,1982,19,"n","Nyala",3,-23.97,31.86,384017.34,7348626.07
"78489",78489,1982,19,"n","Nyala",2,-23.95,31.86,383999.45,7350840.63
"78494",78494,1982,19,"n","Nyala",5,-23.95,31.88,386034.72,7350856.93
"81305",81305,1982,25,"n","Nyala",1,-23.99,31.86,384035.25,7346411.5
"94203",94203,1982,47,"n","Nyala",1,-22.76,31.17,312106.34,7481886.64
"94574",94574,1982,48,"n","Nyala",3,-22.76,31.36,331618.4,7482115.29
"94632",94632,1982,48,"n","Nyala",2,-22.78,31.38,333696.47,7479923.35
"94644",94644,1982,48,"n","Nyala",3,-22.74,31.38,333648.01,7484352.45
"94650",94650,1982,48,"n","Nyala",1,-22.74,31.4,335702.11,7484374.77
"94669",94669,1982,49,"n","Nyala",2,-22.93,31.23,318494.05,7463136.65
"94833",94833,1982,49,"n","Nyala",3,-22.95,31.4,335954.28,7461121.91
"95092",95092,1982,51,"n","Nyala",3,-22.68,31.3,325355.3,7490904.22
"95100",95100,1982,51,"n","Nyala",1,-22.64,31.3,325304.66,7495333.4
"95109",95109,1982,51,"n","Nyala",1,-22.66,31.32,327385.33,7493142.17
"95110",95110,1982,51,"n","Nyala",3,-22.66,31.32,327385.33,7493142.17
"95135",95135,1982,51,"n","Nyala",4,-22.74,31.36,331593.88,7484329.86
"95139",95139,1982,51,"n","Nyala",2,-22.68,31.34,329465.41,7490950.7
"95140",95140,1982,51,"n","Nyala",5,-22.68,31.34,329465.41,7490950.7
"95141",95141,1982,51,"n","Nyala",7,-22.68,31.34,329465.41,7490950.7
"95146",95146,1982,51,"n","Nyala",1,-22.68,31.36,331520.45,7490973.52
"95147",95147,1982,51,"n","Nyala",1,-22.68,31.36,331520.45,7490973.52
"95150",95150,1982,51,"n","Nyala",2,-22.7,31.36,331544.91,7488758.97
"95158",95158,1982,51,"n","Nyala",1,-22.64,31.36,331471.59,7495402.61
"95167",95167,1982,51,"n","Nyala",2,-22.6,31.34,329366.59,7499808.91
"95168",95168,1982,51,"n","Nyala",2,-22.6,31.34,329366.59,7499808.91
"95169",95169,1982,51,"n","Nyala",3,-22.6,31.34,329366.59,7499808.91
"95364",95364,1982,52,"n","Nyala",3,-23.18,31.32,328043.04,7435561.54
"95925",95925,1982,53,"n","Nyala",5,-23.03,31.11,306328.2,7451909.28
"95988",95988,1982,53,"n","Nyala",1,-23.03,31.13,308378.15,7451935.6
"96401",96401,1982,54,"n","Nyala",1,-22.99,31.28,323700.26,7456553.48
"96405",96405,1982,54,"n","Nyala",6,-23.01,31.3,325776.36,7454362.71
"96418",96418,1982,55,"n","Nyala",2,-22.87,30.98,292759.43,7469450.89
"96585",96585,1982,55,"n","Nyala",1,-22.72,31.05,299723.9,7486158.96
"96640",96640,1982,55,"n","Nyala",2,-22.78,31.11,305972.63,7479594.44
"96649",96649,1982,55,"n","Nyala",1,-22.74,31.11,305916.08,7484024
"96681",96681,1982,55,"n","Nyala",2,-22.76,31.13,307998.36,7481835.31
"96737",96737,1982,55,"n","Nyala",1,-22.78,31.17,312133.73,7479671.91
"96738",96738,1982,55,"n","Nyala",1,-22.78,31.17,312133.73,7479671.91
"96739",96739,1982,55,"n","Nyala",3,-22.78,31.17,312133.73,7479671.91
"98507",98507,1982,60,"n","Nyala",3,-24.97,31.73,371806.76,7237774.28
