"","ID","Year","Cenb","Sp","Description","No","Lat","Long","X.coord","Y.coord"
"287440",287440,1990,52,"st","Steenbuck",1,-23.16,31.24,319826.09,7437679.5
"287593",287593,1990,53,"st","Steenbuck",1,-23.14,31.01,296244.18,7439591.23
"288019",288019,1990,53,"st","Steenbuck",1,-23.09,31.04,299242.32,7445170.19
"288058",288058,1990,53,"st","Steenbuck",1,-23.09,31.07,302315.96,7445211.12
"288309",288309,1990,53,"st","Steenbuck",1,-23.12,31.18,313627.07,7442033.61
"288319",288319,1990,54,"st","Steenbuck",1,-22.94,30.94,288762.95,7461641.66
"288343",288343,1990,54,"st","Steenbuck",1,-22.9,30.96,290752.96,7466100.19
"288595",288595,1990,54,"st","Steenbuck",1,-22.88,31.09,304062.19,7468494
"288663",288663,1990,54,"st","Steenbuck",1,-22.92,31.12,307197.1,7464103.99
"288679",288679,1990,54,"st","Steenbuck",1,-22.92,31.15,310274.5,7464143.02
"288691",288691,1990,54,"st","Steenbuck",1,-22.94,31.13,308251.08,7461902.27
"288853",288853,1990,54,"st","Steenbuck",1,-22.97,31.21,316496.65,7458682.34
"288956",288956,1990,54,"st","Steenbuck",1,-23.02,31.18,313489.18,7453107.57
"289212",289212,1990,55,"st","Steenbuck",1,-22.77,31.15,310066.2,7480753.74
"289341",289341,1990,55,"st","Steenbuck",1,-22.82,31.18,313215.11,7475255.13
"289376",289376,1990,55,"st","Steenbuck",1,-22.86,31.09,304033.48,7470708.82
"289396",289396,1990,55,"st","Steenbuck",1,-22.82,31.14,309108.94,7475203.97
"289439",289439,1990,47,"st","Steenbuck",1,-22.62,31.22,317055.39,7497451.89
"289463",289463,1990,47,"st","Steenbuck",1,-22.63,31.26,321180.35,7496393.18
"289464",289464,1990,47,"st","Steenbuck",1,-22.63,31.25,320152.42,7496381.13
"289473",289473,1990,47,"st","Steenbuck",1,-22.64,31.22,317081.87,7495237.24
"289530",289530,1990,47,"st","Steenbuck",1,-22.68,31.26,321245.13,7490856.63
"289635",289635,1990,48,"st","Steenbuck",1,-22.84,31.44,339927.09,7473346
"289648",289648,1990,48,"st","Steenbuck",1,-22.88,31.44,339973.95,7468916.94
"289667",289667,1990,48,"st","Steenbuck",1,-22.83,31.4,335809.92,7474409.33
"289681",289681,1990,48,"st","Steenbuck",1,-22.79,31.42,337815.3,7478860.51
"289686",289686,1990,48,"st","Steenbuck",1,-22.76,31.33,328537.64,7482080.86
"289687",289687,1990,48,"st","Steenbuck",1,-22.76,31.32,327510.71,7482069.24
"289711",289711,1990,48,"st","Steenbuck",1,-22.78,31.31,326509.07,7479842.94
"289733",289733,1990,48,"st","Steenbuck",1,-22.79,31.32,327548.43,7478747.34
"289776",289776,1990,48,"st","Steenbuck",1,-22.84,31.32,327611.4,7473210.8
"290016",290016,1990,49,"st","Steenbuck",1,-22.98,31.31,326763.13,7457696.57
"290019",290019,1990,49,"st","Steenbuck",1,-22.98,31.33,328813.67,7457720.05
"290022",290022,1990,49,"st","Steenbuck",1,-22.96,31.38,333915.54,7459992.13
"290035",290035,1990,49,"st","Steenbuck",1,-22.99,31.36,331901.85,7456647.43
"290049",290049,1990,49,"st","Steenbuck",1,-23,31.41,337039.74,7455596.58
"290050",290050,1990,49,"st","Steenbuck",1,-23.01,31.41,337051.75,7454489.29
"290056",290056,1990,49,"st","Steenbuck",1,-23.02,31.37,332963.98,7453336.93
"290228",290228,1990,50,"st","Steenbuck",1,-23.1,31.43,339208.74,7444545.74
"290331",290331,1990,51,"st","Steenbuck",1,-22.69,31.37,332560.11,7489877.56
"290335",290335,1990,51,"st","Steenbuck",1,-22.62,31.33,328363.3,7497582.87
"290336",290336,1990,51,"st","Steenbuck",1,-22.67,31.35,330480.64,7492069.42
"290342",290342,1990,51,"st","Steenbuck",1,-22.61,31.31,326294.79,7498666.96
"290344",290344,1990,51,"st","Steenbuck",1,-22.64,31.32,327360.32,7495356.74
"290345",290345,1990,51,"st","Steenbuck",1,-22.64,31.32,327360.32,7495356.74
"290350",290350,1990,51,"st","Steenbuck",1,-22.62,31.3,325279.37,7497547.98
"290352",290352,1990,51,"st","Steenbuck",2,-22.62,31.29,324251.38,7497536.21
"290353",290353,1990,51,"st","Steenbuck",1,-22.62,31.3,325279.37,7497547.98
"290354",290354,1990,51,"st","Steenbuck",1,-22.63,31.3,325292.01,7496440.69
"290357",290357,1990,51,"st","Steenbuck",1,-22.71,31.31,326420.65,7487594.05
"290364",290364,1990,51,"st","Steenbuck",1,-22.64,31.28,323248.99,7495309.77
"290368",290368,1990,51,"st","Steenbuck",1,-22.67,31.29,324315.02,7491999.72
"290539",290539,1990,6,"st","Steenbuck",1,-23.66,31.46,342943.26,7382568.18
"290551",290551,1990,6,"st","Steenbuck",1,-23.68,31.39,335828.06,7380274.62
"290552",290552,1990,6,"st","Steenbuck",1,-23.68,31.37,333788.28,7380251.45
"290569",290569,1990,6,"st","Steenbuck",1,-23.66,31.39,335803.07,7382489.4
"290576",290576,1990,6,"st","Steenbuck",2,-23.64,31.46,342919.38,7384782.91
"290588",290588,1990,6,"st","Steenbuck",1,-23.66,31.36,332742.93,7382454.56
"290594",290594,1990,6,"st","Steenbuck",1,-23.65,31.37,333750.34,7383573.64
"290663",290663,1990,6,"st","Steenbuck",1,-23.62,31.38,334732.79,7386907.41
"290672",290672,1990,6,"st","Steenbuck",1,-23.63,31.33,329643.92,7385741.3
"290680",290680,1990,6,"st","Steenbuck",1,-23.62,31.33,329630.98,7386848.71
"290701",290701,1990,6,"st","Steenbuck",1,-23.6,31.34,330625.64,7389075.39
"290709",290709,1990,6,"st","Steenbuck",1,-23.58,31.35,331620.63,7391301.99
"290748",290748,1990,6,"st","Steenbuck",1,-23.56,31.35,331595.12,7393516.77
"290762",290762,1990,6,"st","Steenbuck",1,-23.57,31.3,326504.07,7392349.7
"290801",290801,1990,7,"st","Steenbuck",1,-23.65,31.2,316407.7,7383365.33
"290895",290895,1990,7,"st","Steenbuck",1,-23.61,31.3,326556.68,7387920.04
"291031",291031,1990,7,"st","Steenbuck",1,-23.4,31.28,324237.24,7411151.27
"291034",291034,1990,7,"st","Steenbuck",1,-23.39,31.31,327290.51,7412294.9
"291133",291133,1990,7,"st","Steenbuck",1,-23.48,31.28,324343.06,7402292.05
"291139",291139,1990,7,"st","Steenbuck",1,-23.47,31.31,327394.45,7403435.79
"291193",291193,1990,7,"st","Steenbuck",1,-23.5,31.36,332540,7400172.79
"291235",291235,1990,7,"st","Steenbuck",1,-23.52,31.28,324396.1,7397862.41
"291512",291512,1990,9,"st","Steenbuck",2,-23.53,31.25,321346.1,7396717.95
"291542",291542,1990,9,"st","Steenbuck",2,-23.56,31.24,320365.78,7393383.16
"291559",291559,1990,9,"st","Steenbuck",1,-23.57,31.23,319358.59,7392263.15
"291560",291560,1990,9,"st","Steenbuck",1,-23.57,31.23,319358.59,7392263.15
"291561",291561,1990,9,"st","Steenbuck",1,-23.54,31.22,318296.54,7395572.83
"291579",291579,1990,9,"st","Steenbuck",1,-23.56,31.21,317303.16,7393345.23
"291617",291617,1990,9,"st","Steenbuck",1,-23.56,31.19,315261.39,7393319.58
"291648",291648,1990,9,"st","Steenbuck",1,-23.58,31.18,314268.64,7391091.73
"291662",291662,1990,9,"st","Steenbuck",1,-23.61,31.18,314310.9,7387769.34
"291675",291675,1990,9,"st","Steenbuck",1,-23.55,31.17,313205.47,7394401.11
"291712",291712,1990,9,"st","Steenbuck",1,-23.61,31.17,313290.39,7387756.32
"291899",291899,1990,10,"st","Steenbuck",1,-23.31,31.09,304685.1,7420874.11
"291933",291933,1990,10,"st","Steenbuck",1,-23.3,31.16,311830.9,7422074.29
"291974",291974,1990,10,"st","Steenbuck",1,-23.29,31.2,315908.71,7423233.14
"292024",292024,1990,10,"st","Steenbuck",1,-23.4,31.04,299706.01,7410838.29
"292242",292242,1990,11,"st","Steenbuck",1,-23.37,31.22,318063.66,7414399.12
"292339",292339,1990,11,"st","Steenbuck",1,-23.33,31.24,320054.39,7418853.81
"292350",292350,1990,11,"st","Steenbuck",1,-23.32,31.26,322086.34,7419985.95
"292365",292365,1990,11,"st","Steenbuck",1,-23.31,31.25,321050.24,7421081.01
"292385",292385,1990,11,"st","Steenbuck",1,-23.29,31.27,323069.35,7423320.38
"292464",292464,1990,11,"st","Steenbuck",1,-23.24,31.26,321979.98,7428845.07
"292563",292563,1990,11,"st","Steenbuck",1,-23.27,31,295418.09,7425179.78
"292620",292620,1990,11,"st","Steenbuck",1,-23.22,31,295341.77,7430717.28
"292686",292686,1990,11,"st","Steenbuck",1,-23.23,31.03,298427.51,7429651.76
"292726",292726,1990,11,"st","Steenbuck",1,-23.19,31.04,299391.26,7434095.51
"292859",292859,1990,11,"st","Steenbuck",1,-23.21,31.11,306586.49,7431975.47
"292868",292868,1990,11,"st","Steenbuck",2,-23.27,31.13,308719.3,7425357.32
"292870",292870,1990,11,"st","Steenbuck",1,-23.27,31.13,308719.3,7425357.32
"292962",292962,1990,11,"st","Steenbuck",2,-23.2,31.13,308619.45,7433109.39
"293085",293085,1990,11,"st","Steenbuck",1,-23.27,31.17,312811.84,7425409.54
"293193",293193,1990,11,"st","Steenbuck",1,-23.25,31.19,314830.45,7427650.06
"293210",293210,1990,11,"st","Steenbuck",1,-23.25,31.19,314830.45,7427650.06
"293520",293520,1990,14,"st","Steenbuck",1,-23.59,31.46,342859.75,7390319.69
"293531",293531,1990,14,"st","Steenbuck",1,-23.57,31.47,343856.64,7392545.34
"293532",293532,1990,14,"st","Steenbuck",1,-23.57,31.46,342835.93,7392534.4
"293534",293534,1990,14,"st","Steenbuck",1,-23.55,31.51,347916.44,7394803.04
"293536",293536,1990,14,"st","Steenbuck",1,-23.55,31.5,346895.58,7394792.39
"293539",293539,1990,14,"st","Steenbuck",1,-23.55,31.46,342812.13,7394749.1
"293551",293551,1990,14,"st","Steenbuck",1,-23.53,31.47,343809.37,7396974.72
"293561",293561,1990,14,"st","Steenbuck",1,-23.52,31.5,346860.85,7398114.39
"293564",293564,1990,14,"st","Steenbuck",1,-23.52,31.47,343797.57,7398082.06
"293566",293566,1990,14,"st","Steenbuck",1,-23.52,31.46,342776.47,7398071.14
"293632",293632,1990,14,"st","Steenbuck",1,-23.45,31.45,341671.78,7405811.56
"293639",293639,1990,14,"st","Steenbuck",1,-23.45,31.43,339628.49,7405789.41
"293784",293784,1990,15,"st","Steenbuck",1,-23.39,31.47,343644.53,7412477.39
"293965",293965,1990,18,"st","Steenbuck",1,-23.17,31.42,338268.42,7436783.52
"293992",293992,1990,18,"st","Steenbuck",1,-23.22,31.44,340375.39,7431269.06
"293993",293993,1990,18,"st","Steenbuck",1,-23.21,31.44,340363.5,7432376.37
"294050",294050,1990,18,"st","Steenbuck",1,-23.26,31.41,337353.66,7426806.47
"294065",294065,1990,18,"st","Steenbuck",1,-23.27,31.4,336342.76,7425687.88
"294081",294081,1990,18,"st","Steenbuck",1,-23.28,31.47,343515.66,7424657.87
"294139",294139,1990,18,"st","Steenbuck",1,-23.22,31.46,342422.21,7431290.89
"294155",294155,1990,18,"st","Steenbuck",1,-23.2,31.46,342398.74,7433505.5
"294300",294300,1990,18,"st","Steenbuck",1,-23.17,31.42,338268.42,7436783.52
"294333",294333,1990,18,"st","Steenbuck",1,-23.21,31.44,340363.5,7432376.37
"294334",294334,1990,18,"st","Steenbuck",1,-23.21,31.44,340363.5,7432376.37
"294389",294389,1990,18,"st","Steenbuck",1,-23.26,31.41,337353.66,7426806.47
"294395",294395,1990,18,"st","Steenbuck",1,-23.27,31.4,336342.76,7425687.88
"294413",294413,1990,18,"st","Steenbuck",1,-23.28,31.47,343515.66,7424657.87
"294471",294471,1990,18,"st","Steenbuck",1,-23.22,31.46,342422.21,7431290.89
"294487",294487,1990,18,"st","Steenbuck",1,-23.2,31.46,342398.74,7433505.5
"294518",294518,1990,19,"st","Steenbuck",1,-23.89,31.77,374782.76,7357407.53
"294697",294697,1990,19,"st","Steenbuck",1,-23.88,31.65,362554.41,7358403.44
"294713",294713,1990,19,"st","Steenbuck",1,-23.71,31.63,360336.28,7377208.38
"294715",294715,1990,19,"st","Steenbuck",1,-23.7,31.63,360325.63,7378315.7
"294744",294744,1990,19,"st","Steenbuck",1,-23.71,31.64,361355.86,7377218.15
"294778",294778,1990,19,"st","Steenbuck",2,-23.69,31.66,363374.17,7379452.08
"294787",294787,1990,19,"st","Steenbuck",1,-23.62,31.67,364321.69,7387212.68
"294828",294828,1990,19,"st","Steenbuck",1,-23.73,31.66,363415.83,7375022.87
"294838",294838,1990,19,"st","Steenbuck",1,-23.78,31.7,367544.07,7369524.19
"294839",294839,1990,19,"st","Steenbuck",1,-23.82,31.71,368603.33,7365104.27
"294864",294864,1990,19,"st","Steenbuck",1,-23.78,31.71,368563.08,7369533.48
"294878",294878,1990,19,"st","Steenbuck",1,-23.4,31.53,349788.34,7411433.83
"294889",294889,1990,19,"st","Steenbuck",1,-23.33,31.53,349709.46,7419184.93
"294894",294894,1990,19,"st","Steenbuck",1,-23.4,31.53,349788.34,7411433.83
"294902",294902,1990,19,"st","Steenbuck",1,-23.36,31.53,349743.24,7415863.04
"294917",294917,1990,19,"st","Steenbuck",1,-23.57,31.59,356104.95,7392671.02
"294924",294924,1990,19,"st","Steenbuck",1,-23.57,31.63,360187.62,7392710.64
"294930",294930,1990,19,"st","Steenbuck",1,-23.47,31.55,351910.37,7403703.41
"294940",294940,1990,19,"st","Steenbuck",1,-23.55,31.61,358124.81,7394905.57
"294941",294941,1990,19,"st","Steenbuck",1,-23.55,31.62,359145.63,7394915.43
"294954",294954,1990,19,"st","Steenbuck",1,-23.49,31.57,353975.31,7401509.25
"295046",295046,1990,1,"st","Steenbuck",1,-23.96,31.59,356533.32,7349485.02
"295253",295253,1990,1,"st","Steenbuck",1,-23.91,31.64,361568.12,7355071.68
"295352",295352,1990,1,"st","Steenbuck",1,-23.95,31.7,367716.9,7350699.87
"295369",295369,1990,1,"st","Steenbuck",1,-23.96,31.7,367727.1,7349592.55
"295656",295656,1990,2,"st","Steenbuck",1,-23.88,31.46,343207.26,7358205.87
"295692",295692,1990,2,"st","Steenbuck",1,-23.89,31.52,349328.59,7357163.69
"295725",295725,1990,2,"st","Steenbuck",1,-23.91,31.55,352405.9,7354980.6
"295796",295796,1990,2,"st","Steenbuck",1,-23.99,31.58,355549.14,7346152.72
"296177",296177,1990,3,"st","Steenbuck",1,-24,31.32,329108.89,7344754.23
"296415",296415,1990,3,"st","Steenbuck",1,-23.85,31.16,312613.51,7361163.48
"296492",296492,1990,3,"st","Steenbuck",1,-23.87,31.19,315697.73,7358987.87
"296565",296565,1990,3,"st","Steenbuck",1,-23.87,31.23,319771.6,7359039.39
"296623",296623,1990,3,"st","Steenbuck",1,-23.86,31.36,332998.43,7360306.29
"296688",296688,1990,4,"st","Steenbuck",2,-23.8,31.32,328845.7,7366903.16
"296733",296733,1990,4,"st","Steenbuck",1,-23.83,31.3,326847.56,7363556.57
"296842",296842,1990,4,"st","Steenbuck",2,-23.81,31.26,322745.37,7365722.05
"297151",297151,1990,4,"st","Steenbuck",1,-23.8,31.2,316617.75,7366753.26
"297176",297176,1990,4,"st","Steenbuck",1,-23.82,31.19,315626.99,7364525.33
"297268",297268,1990,4,"st","Steenbuck",1,-23.77,31.17,313517.87,7370036.64
"297774",297774,1990,5,"st","Steenbuck",1,-23.8,31.47,344129.92,7367075.98
"297901",297901,1990,5,"st","Steenbuck",2,-23.8,31.53,350243.4,7367140.59
"298075",298075,1990,20,"st","Steenbuck",1,-24.08,31.61,358699.83,7336216.88
"298154",298154,1990,20,"st","Steenbuck",1,-24.1,31.55,352622.56,7333940.41
"298178",298178,1990,20,"st","Steenbuck",1,-24.07,31.52,349537.9,7337230.76
"298384",298384,1990,21,"st","Steenbuck",1,-24.25,31.45,342641.07,7317220.18
"298396",298396,1990,21,"st","Steenbuck",2,-24.2,31.45,342579.59,7322757.39
"298406",298406,1990,21,"st","Steenbuck",2,-24.21,31.46,343607.58,7321661.18
"298408",298408,1990,21,"st","Steenbuck",1,-24.17,31.46,343558.78,7326090.92
"298412",298412,1990,21,"st","Steenbuck",1,-24.24,31.49,346690.6,7318372.16
"298414",298414,1990,21,"st","Steenbuck",1,-24.21,31.48,345638.97,7321683.43
"298417",298417,1990,21,"st","Steenbuck",1,-24.19,31.48,345614.88,7323898.29
"298441",298441,1990,21,"st","Steenbuck",1,-24.2,31.52,349689.98,7322834.48
"298446",298446,1990,21,"st","Steenbuck",1,-24.21,31.52,349701.72,7321727.06
"298474",298474,1990,21,"st","Steenbuck",1,-24.15,31.53,350647.55,7328382.24
"298475",298475,1990,21,"st","Steenbuck",1,-24.16,31.54,351675.25,7327285.47
"298518",298518,1990,21,"st","Steenbuck",2,-24.13,31.57,354689.53,7330639.11
"298523",298523,1990,21,"st","Steenbuck",1,-24.14,31.63,360798.09,7329592.67
"298550",298550,1990,21,"st","Steenbuck",1,-24.15,31.57,354712.14,7328424.33
"298562",298562,1990,21,"st","Steenbuck",2,-24.17,31.63,360830.61,7326270.55
"298574",298574,1990,21,"st","Steenbuck",1,-24.18,31.57,354746.09,7325102.15
"298585",298585,1990,21,"st","Steenbuck",1,-24.2,31.63,360863.16,7322948.41
"298607",298607,1990,21,"st","Steenbuck",1,-24.2,31.59,356800.22,7322908
"298630",298630,1990,21,"st","Steenbuck",1,-24.22,31.62,359869.31,7320723.65
"298639",298639,1990,21,"st","Steenbuck",1,-24.22,31.61,358853.73,7320713.58
"298652",298652,1990,21,"st","Steenbuck",1,-24.22,31.59,356822.58,7320693.21
"298714",298714,1990,22,"st","Steenbuck",1,-24.32,31.41,338668.01,7309422.2
"298752",298752,1990,22,"st","Steenbuck",2,-24.32,31.51,348816.25,7309534.56
"298793",298793,1990,22,"st","Steenbuck",1,-24.3,31.46,343717.66,7311694.2
"298959",298959,1990,22,"st","Steenbuck",1,-24.38,31.57,354973.44,7302953.96
"298976",298976,1990,22,"st","Steenbuck",1,-24.34,31.57,354927.82,7307383.64
"298980",298980,1990,22,"st","Steenbuck",1,-24.38,31.55,352944.81,7302932.91
"299010",299010,1990,22,"st","Steenbuck",1,-24.39,31.54,351942.14,7301814.84
"299046",299046,1990,22,"st","Steenbuck",2,-24.38,31.53,350916.17,7302911.57
"299118",299118,1990,22,"st","Steenbuck",1,-24.37,31.52,349890.03,7304008.22
"299199",299199,1990,22,"st","Steenbuck",1,-24.36,31.49,346834.76,7305082.9
"299200",299200,1990,22,"st","Steenbuck",1,-24.36,31.49,346834.76,7305082.9
"299261",299261,1990,22,"st","Steenbuck",1,-24.36,31.48,345820.26,7305071.83
"299295",299295,1990,22,"st","Steenbuck",1,-24.48,31.43,340898.32,7291725.69
"299300",299300,1990,22,"st","Steenbuck",1,-24.48,31.41,338871.2,7291702.52
"299578",299578,1990,23,"st","Steenbuck",1,-24.23,31.67,364957.68,7319665.55
"299808",299808,1990,23,"st","Steenbuck",1,-24.23,31.74,372065.95,7319731.5
"299899",299899,1990,24,"st","Steenbuck",1,-24.37,31.63,361048.32,7304122.76
"299900",299900,1990,24,"st","Steenbuck",1,-24.37,31.6,358005.19,7304092.4
"299955",299955,1990,24,"st","Steenbuck",1,-24.35,31.63,361026.47,7306337.56
"300065",300065,1990,24,"st","Steenbuck",1,-24.32,31.65,363023.27,7309679.6
"300167",300167,1990,24,"st","Steenbuck",1,-24.28,31.62,359935.05,7314079.31
"300207",300207,1990,24,"st","Steenbuck",1,-24.26,31.61,358897.86,7316284.01
"300213",300213,1990,24,"st","Steenbuck",1,-24.26,31.6,357882.6,7316273.85
"300288",300288,1990,24,"st","Steenbuck",1,-24.33,31.71,369122.1,7308630
"300309",300309,1990,24,"st","Steenbuck",1,-24.32,31.73,371141.33,7309756.05
"300341",300341,1990,24,"st","Steenbuck",1,-24.3,31.7,368076.39,7311942.68
"300358",300358,1990,24,"st","Steenbuck",1,-24.29,31.72,370096.03,7313068.85
"300359",300359,1990,24,"st","Steenbuck",2,-24.29,31.74,372126,7313087.37
"300361",300361,1990,24,"st","Steenbuck",1,-24.29,31.75,373140.98,7313096.51
"300385",300385,1990,24,"st","Steenbuck",1,-24.26,31.68,366004.59,7316353.08
"300419",300419,1990,25,"st","Steenbuck",1,-24,31.8,377940.69,7345253.52
"300601",300601,1990,25,"st","Steenbuck",2,-24.07,31.78,375973.4,7337484.85
"300609",300609,1990,25,"st","Steenbuck",1,-24.06,31.81,379014.15,7338618.32
"300654",300654,1990,25,"st","Steenbuck",1,-24.1,31.8,378035.22,7334180.42
"300729",300729,1990,25,"st","Steenbuck",1,-24.13,31.8,378063.65,7330858.46
"300806",300806,1990,25,"st","Steenbuck",1,-24.12,31.89,387200.91,7332041.14
"300864",300864,1990,25,"st","Steenbuck",1,-24.02,31.83,381010.87,7343064.6
"300899",300899,1990,25,"st","Steenbuck",1,-24.05,31.84,382055.36,7339751.13
"300955",300955,1990,25,"st","Steenbuck",2,-24.07,31.83,381056.94,7337528.1
"300988",300988,1990,25,"st","Steenbuck",1,-24.09,31.87,385141.55,7335346.8
"300997",300997,1990,25,"st","Steenbuck",2,-24.1,31.84,382101.09,7334214.62
"301032",301032,1990,25,"st","Steenbuck",2,-24.13,31.84,382128.57,7330892.69
"301057",301057,1990,25,"st","Steenbuck",1,-24.14,31.84,382137.74,7329785.38
"301183",301183,1990,26,"st","Steenbuck",1,-24.22,31.81,379164.66,7320901.21
"301619",301619,1990,27,"st","Steenbuck",1,-24.21,31.9,388295.53,7322083.46
"301641",301641,1990,27,"st","Steenbuck",1,-24.18,31.86,384206.11,7325372.83
"301724",301724,1990,27,"st","Steenbuck",1,-24.2,31.84,382192.82,7323141.49
"301929",301929,1990,27,"st","Steenbuck",1,-24.41,31.97,395568.44,7299991.59
"302057",302057,1990,27,"st","Steenbuck",1,-24.32,31.92,390421.05,7309918.91
"302108",302108,1990,28,"st","Steenbuck",1,-24.46,31.78,376351.36,7294298.39
"302121",302121,1990,28,"st","Steenbuck",1,-24.42,31.8,378340.2,7298745.58
"302179",302179,1990,28,"st","Steenbuck",1,-24.48,31.84,382451.58,7292135.98
"302189",302189,1990,28,"st","Steenbuck",1,-24.43,31.84,382405.17,7297672.76
"302207",302207,1990,28,"st","Steenbuck",1,-24.46,31.85,383446.6,7294359.16
"302233",302233,1990,28,"st","Steenbuck",1,-24.4,31.86,384405.52,7301011.63
"302256",302256,1990,28,"st","Steenbuck",2,-24.48,31.87,385491.89,7292161.16
"302287",302287,1990,28,"st","Steenbuck",1,-24.4,31.88,386433.67,7301028.16
"302289",302289,1990,28,"st","Steenbuck",1,-24.42,31.88,386451.56,7298813.48
"302354",302354,1990,28,"st","Steenbuck",1,-24.48,31.9,388532.18,7292185.68
"302475",302475,1990,28,"st","Steenbuck",1,-24.41,31.94,392526.51,7299968.66
"302583",302583,1990,28,"st","Steenbuck",1,-24.52,31.92,390593.65,7287772.3
"302595",302595,1990,28,"st","Steenbuck",1,-24.52,31.95,393632.95,7287795.74
"302617",302617,1990,28,"st","Steenbuck",1,-24.53,31.96,394654.38,7286696.08
"302639",302639,1990,28,"st","Steenbuck",2,-24.54,31.94,392636.86,7285573.32
"302650",302650,1990,28,"st","Steenbuck",1,-24.55,31.87,385555.33,7284409.67
"302668",302668,1990,28,"st","Steenbuck",1,-24.55,31.93,391632.52,7284458.15
"302694",302694,1990,28,"st","Steenbuck",1,-24.56,31.93,391641.11,7283350.81
"302700",302700,1990,28,"st","Steenbuck",1,-24.57,31.96,394687.79,7282266.72
"302755",302755,1990,28,"st","Steenbuck",1,-24.63,31.92,390689.15,7275591.42
"302758",302758,1990,28,"st","Steenbuck",2,-24.63,31.91,389676.94,7275583.43
"302785",302785,1990,28,"st","Steenbuck",1,-24.49,31.83,381447.51,7291020.08
"302823",302823,1990,28,"st","Steenbuck",1,-24.5,31.85,383483.45,7289929.74
"302831",302831,1990,28,"st","Steenbuck",1,-24.5,31.82,380443.61,7289904.1
"302872",302872,1990,28,"st","Steenbuck",1,-24.52,31.86,384515.01,7287723.42
"302875",302875,1990,28,"st","Steenbuck",1,-24.51,31.84,382479.47,7288813.9
"302901",302901,1990,28,"st","Steenbuck",1,-24.53,31.82,380472,7286581.99
"302930",302930,1990,28,"st","Steenbuck",1,-24.56,31.82,380500.42,7283259.87
"302936",302936,1990,28,"st","Steenbuck",1,-24.56,31.78,376449.19,7283224.6
"303026",303026,1990,28,"st","Steenbuck",1,-24.64,31.8,378552.06,7274383.29
"303074",303074,1990,28,"st","Steenbuck",1,-24.61,31.86,384597.46,7277757.12
"303076",303076,1990,28,"st","Steenbuck",1,-24.61,31.82,380547.87,7277722.98
"303145",303145,1990,28,"st","Steenbuck",2,-24.69,31.88,386694.47,7268914.77
"303162",303162,1990,28,"st","Steenbuck",1,-24.75,31.88,386748.79,7262270.48
"303172",303172,1990,28,"st","Steenbuck",1,-24.7,31.86,384680.19,7267790.72
"303283",303283,1990,30,"st","Steenbuck",1,-24.75,31.98,396861.24,7262349.55
"303335",303335,1990,30,"st","Steenbuck",2,-24.7,31.97,395808.37,7267878.79
"303341",303341,1990,30,"st","Steenbuck",1,-24.71,31.96,394805.13,7266763.79
"303372",303372,1990,30,"st","Steenbuck",1,-24.74,31.96,394830.35,7263441.69
"303382",303382,1990,30,"st","Steenbuck",2,-24.7,31.96,394796.72,7267871.15
"303395",303395,1990,30,"st","Steenbuck",1,-24.77,31.95,393844.53,7260111.86
"303451",303451,1990,30,"st","Steenbuck",1,-24.76,31.93,391813.7,7261203.56
"303459",303459,1990,30,"st","Steenbuck",1,-24.73,31.92,390776.32,7264517.74
"303470",303470,1990,30,"st","Steenbuck",1,-24.78,31.92,390820.03,7258980.85
"303508",303508,1990,30,"st","Steenbuck",1,-24.79,31.91,389817.86,7257865.44
"303677",303677,1990,31,"st","Steenbuck",2,-24.51,31.76,374373.8,7288743.46
"303698",303698,1990,31,"st","Steenbuck",1,-24.5,31.73,371323.95,7289823.23
"303701",303701,1990,31,"st","Steenbuck",1,-24.49,31.75,373340.54,7290949.1
"303757",303757,1990,31,"st","Steenbuck",1,-24.51,31.65,363228.23,7288638.94
"303822",303822,1990,31,"st","Steenbuck",1,-24.54,31.7,368325.73,7285365.34
"303830",303830,1990,31,"st","Steenbuck",2,-24.55,31.65,363271.57,7284209.26
"303834",303834,1990,31,"st","Steenbuck",2,-24.56,31.65,363282.42,7283101.84
"303872",303872,1990,31,"st","Steenbuck",1,-24.58,31.69,367354.84,7280926.11
"303882",303882,1990,31,"st","Steenbuck",1,-24.6,31.64,362313.31,7278662.17
"304052",304052,1990,31,"st","Steenbuck",1,-24.42,31.76,374284.46,7298709.87
"304053",304053,1990,31,"st","Steenbuck",1,-24.42,31.76,374284.46,7298709.87
"304067",304067,1990,31,"st","Steenbuck",1,-24.47,31.75,373320.51,7293163.87
"304102",304102,1990,31,"st","Steenbuck",1,-24.47,31.73,371293.42,7293145.4
"304198",304198,1990,32,"st","Steenbuck",1,-24.42,31.6,358061.08,7298555.32
"304464",304464,1990,32,"st","Steenbuck",1,-24.78,31.66,364533.14,7258748.14
"304474",304474,1990,32,"st","Steenbuck",1,-24.77,31.63,361488.82,7259825.53
"304653",304653,1990,32,"st","Steenbuck",1,-24.62,31.66,364359.94,7276467.18
"304683",304683,1990,32,"st","Steenbuck",1,-24.6,31.66,364338.36,7278682.03
"304784",304784,1990,32,"st","Steenbuck",1,-24.57,31.55,353165.47,7281891.5
"304891",304891,1990,34,"st","Steenbuck",1,-24.65,31.76,374513.39,7273239.94
"304950",304950,1990,34,"st","Steenbuck",2,-24.62,31.72,370434.05,7276525.04
"304969",304969,1990,34,"st","Steenbuck",1,-24.67,31.72,370485.64,7270987.97
"304999",304999,1990,34,"st","Steenbuck",1,-24.63,31.71,369432.1,7275408.17
"305048",305048,1990,34,"st","Steenbuck",1,-24.63,31.7,368419.83,7275398.63
"305070",305070,1990,34,"st","Steenbuck",1,-24.66,31.7,368451.27,7272076.37
"305166",305166,1990,34,"st","Steenbuck",1,-24.75,31.85,383715.01,7262245.31
"305171",305171,1990,34,"st","Steenbuck",1,-24.77,31.86,384744.73,7260038.99
"305181",305181,1990,34,"st","Steenbuck",1,-24.75,31.84,382703.75,7262236.78
"305589",305589,1990,35,"st","Steenbuck",1,-24.94,31.69,367736.67,7241058.29
"305676",305676,1990,35,"st","Steenbuck",2,-24.91,31.67,365684.64,7244361.07
"305695",305695,1990,35,"st","Steenbuck",1,-24.89,31.74,372734.12,7246643.28
"305722",305722,1990,35,"st","Steenbuck",1,-24.89,31.68,366673.16,7246585.84
"305727",305727,1990,35,"st","Steenbuck",1,-24.89,31.68,366673.16,7246585.84
"305803",305803,1990,35,"st","Steenbuck",1,-24.84,31.72,370661.79,7252161.66
"305817",305817,1990,35,"st","Steenbuck",1,-24.84,31.67,365608.94,7252113.3
"305845",305845,1990,35,"st","Steenbuck",2,-24.81,31.66,364565.73,7255425.78
"305854",305854,1990,35,"st","Steenbuck",1,-24.8,31.65,363543.95,7256523.28
"306244",306244,1990,36,"st","Steenbuck",1,-24.81,31.88,386803.23,7255626.13
"306296",306296,1990,36,"st","Steenbuck",1,-24.85,31.83,381787.35,7251154.1
"306301",306301,1990,36,"st","Steenbuck",1,-24.83,31.84,382778.96,7253377.55
"306326",306326,1990,36,"st","Steenbuck",1,-24.88,31.83,381815.88,7247831.85
"306336",306336,1990,36,"st","Steenbuck",2,-24.87,31.82,380796.07,7248930.55
"306353",306353,1990,36,"st","Steenbuck",1,-24.83,31.83,381768.35,7253368.92
"306371",306371,1990,36,"st","Steenbuck",1,-24.87,31.82,380796.07,7248930.55
"306374",306374,1990,36,"st","Steenbuck",1,-24.88,31.82,380805.67,7247823.13
"306375",306375,1990,36,"st","Steenbuck",1,-24.88,31.81,379795.45,7247814.34
"306382",306382,1990,36,"st","Steenbuck",1,-24.87,31.81,379785.77,7248921.77
"306492",306492,1990,37,"st","Steenbuck",1,-24.88,32,398989.16,7247968.69
"306545",306545,1990,37,"st","Steenbuck",1,-24.84,31.99,397946.15,7252390.74
"306603",306603,1990,37,"st","Steenbuck",1,-24.81,31.97,395900.07,7255697.76
"306623",306623,1990,37,"st","Steenbuck",1,-24.89,31.96,394956.9,7246831.03
"306627",306627,1990,37,"st","Steenbuck",1,-24.87,31.96,394939.99,7249045.81
"306701",306701,1990,37,"st","Steenbuck",1,-24.88,31.95,393938.26,7247930.67
"306761",306761,1990,37,"st","Steenbuck",2,-24.86,31.93,391900.49,7250129.73
"306796",306796,1990,37,"st","Steenbuck",1,-24.82,31.91,389844.37,7254543.28
"306828",306828,1990,37,"st","Steenbuck",1,-24.81,31.89,387814,7255634.38
"306833",306833,1990,37,"st","Steenbuck",1,-24.87,31.89,387868.08,7248990
"306854",306854,1990,37,"st","Steenbuck",1,-24.84,31.88,386830.5,7252303.94
"306857",306857,1990,37,"st","Steenbuck",1,-24.85,31.88,386839.6,7251196.53
"306869",306869,1990,37,"st","Steenbuck",1,-25.16,31.95,394178.62,7216923.22
"306894",306894,1990,37,"st","Steenbuck",1,-25.15,31.94,393162.01,7218022.76
"306995",306995,1990,37,"st","Steenbuck",1,-25.1,31.94,393118.51,7223559.89
"307240",307240,1990,37,"st","Steenbuck",1,-25.13,32.02,401209.68,7220298.59
"307289",307289,1990,37,"st","Steenbuck",1,-25.05,31.96,395092.69,7229112.64
"307315",307315,1990,37,"st","Steenbuck",1,-25.03,31.95,394066.71,7231319.67
"307353",307353,1990,37,"st","Steenbuck",1,-24.98,31.98,397051.91,7236879.81
"307362",307362,1990,37,"st","Steenbuck",1,-24.98,31.95,394023.81,7236856.71
"307391",307391,1990,37,"st","Steenbuck",2,-24.97,31.95,394015.24,7237964.11
"307396",307396,1990,37,"st","Steenbuck",1,-24.96,31.96,395016.21,7239079.28
"307415",307415,1990,37,"st","Steenbuck",1,-24.96,31.96,395016.21,7239079.28
"307417",307417,1990,37,"st","Steenbuck",1,-24.96,31.95,394006.67,7239071.51
"307430",307430,1990,37,"st","Steenbuck",1,-24.95,31.95,393998.11,7240178.91
"307442",307442,1990,37,"st","Steenbuck",1,-24.94,32,399038.01,7241324.4
"307452",307452,1990,37,"st","Steenbuck",1,-24.95,31.97,396017.34,7240194.37
"307456",307456,1990,37,"st","Steenbuck",1,-24.95,31.95,393998.11,7240178.91
"307479",307479,1990,37,"st","Steenbuck",1,-24.93,31.99,398020.09,7242424.32
"307526",307526,1990,37,"st","Steenbuck",1,-24.91,31.99,398003.64,7244639.09
"307580",307580,1990,37,"st","Steenbuck",1,-24.91,31.91,389924.11,7244576.72
"307594",307594,1990,37,"st","Steenbuck",1,-24.9,31.91,389915.24,7245684.12
"307672",307672,1990,37,"st","Steenbuck",1,-25.05,32.01,400136.64,7229150.48
"307675",307675,1990,38,"st","Steenbuck",2,-24.91,31.86,384874.33,7244535.32
"307676",307676,1990,38,"st","Steenbuck",1,-24.91,31.86,384874.33,7244535.32
"307693",307693,1990,38,"st","Steenbuck",1,-24.91,31.85,383864.37,7244526.82
"307697",307697,1990,38,"st","Steenbuck",2,-24.93,31.85,383883.11,7242311.98
"307726",307726,1990,38,"st","Steenbuck",1,-24.9,31.83,381834.92,7245617.01
"307727",307727,1990,38,"st","Steenbuck",1,-24.91,31.83,381844.44,7244509.59
"307754",307754,1990,38,"st","Steenbuck",1,-24.94,31.82,380863.31,7241178.58
"307755",307755,1990,38,"st","Steenbuck",1,-24.96,31.82,380882.56,7238963.72
"307791",307791,1990,38,"st","Steenbuck",1,-24.97,31.8,378873.22,7237838.59
"307825",307825,1990,38,"st","Steenbuck",1,-24.97,31.77,375844.75,7237811.47
"307842",307842,1990,38,"st","Steenbuck",2,-24.92,31.76,374784.71,7243339.51
"307874",307874,1990,38,"st","Steenbuck",1,-25,31.83,381930.32,7234542.73
"308156",308156,1990,39,"st","Steenbuck",1,-25.03,31.36,334533.67,7230728.28
"308319",308319,1990,39,"st","Steenbuck",1,-25.13,31.29,327609.92,7219564.72
"308323",308323,1990,39,"st","Steenbuck",1,-25.15,31.28,326629.86,7217336.64
"308391",308391,1990,39,"st","Steenbuck",3,-25.09,31.26,324527.82,7223956.56
"308448",308448,1990,39,"st","Steenbuck",2,-25.11,31.22,320522.36,7221688.69
"308536",308536,1990,39,"st","Steenbuck",1,-25.01,31.3,328451.09,7232868.8
"308656",308656,1990,40,"st","Steenbuck",1,-25.19,31.37,335756.79,7213019.01
"308773",308773,1990,40,"st","Steenbuck",1,-25.15,31.31,329654.32,7217374.9
"308790",308790,1990,40,"st","Steenbuck",1,-25.22,31.33,331766.81,7209646.73
"308815",308815,1990,40,"st","Steenbuck",1,-25.23,31.32,330773.09,7208526.55
"308824",308824,1990,40,"st","Steenbuck",1,-25.15,31.29,327638.02,7217349.47
"308827",308827,1990,40,"st","Steenbuck",1,-25.17,31.29,327666.13,7215134.22
"308832",308832,1990,40,"st","Steenbuck",1,-25.22,31.31,329751.67,7209621.54
"308833",308833,1990,40,"st","Steenbuck",1,-25.22,31.31,329751.67,7209621.54
"308858",308858,1990,40,"st","Steenbuck",1,-25.17,31.27,325650.14,7215108.47
"308867",308867,1990,40,"st","Steenbuck",1,-25.21,31.28,326714.76,7210690.84
"308875",308875,1990,40,"st","Steenbuck",1,-25.24,31.3,328772.12,7207393.57
"308877",308877,1990,40,"st","Steenbuck",1,-25.23,31.28,326743.11,7208475.57
"308886",308886,1990,40,"st","Steenbuck",1,-25.19,31.26,324670.77,7212880.2
"309094",309094,1990,40,"st","Steenbuck",1,-25.3,31.27,325835.56,7200709.09
"309254",309254,1990,41,"st","Steenbuck",1,-25.25,31.37,335837.37,7206373.37
"309298",309298,1990,41,"st","Steenbuck",1,-25.26,31.34,332829.13,7205228.73
"309306",309306,1990,41,"st","Steenbuck",2,-25.29,31.35,333877.23,7201918.29
"309316",309316,1990,41,"st","Steenbuck",1,-25.3,31.34,332883.96,7200798.23
"309317",309317,1990,41,"st","Steenbuck",1,-25.29,31.33,331863.26,7201893.35
"309346",309346,1990,41,"st","Steenbuck",2,-25.28,31.45,343934.09,7203146.03
"309356",309356,1990,41,"st","Steenbuck",1,-25.29,31.43,341932.99,7202015.01
"309415",309415,1990,41,"st","Steenbuck",1,-25.25,31.41,339866.57,7206421.68
"309432",309432,1990,41,"st","Steenbuck",1,-25.23,31.4,338832.89,7208624.91
"309444",309444,1990,41,"st","Steenbuck",1,-25.23,31.39,337825.42,7208612.88
"309450",309450,1990,41,"st","Steenbuck",1,-25.22,31.38,336804.61,7209708.37
"309570",309570,1990,41,"st","Steenbuck",1,-25.21,31.46,344852.23,7210910.68
"309620",309620,1990,41,"st","Steenbuck",1,-25.15,31.38,336711.3,7217461.56
"309989",309989,1990,42,"st","Steenbuck",1,-25.18,31.61,359931.71,7214397.89
"310058",310058,1990,42,"st","Steenbuck",1,-25.17,31.53,351857.03,7215419.81
"310087",310087,1990,42,"st","Steenbuck",1,-25.16,31.61,359908.85,7216612.93
"310187",310187,1990,42,"st","Steenbuck",1,-25.12,31.54,352804.97,7220968.46
"310190",310190,1990,42,"st","Steenbuck",1,-25.11,31.57,355818.2,7222108.38
"310217",310217,1990,42,"st","Steenbuck",1,-25.1,31.57,355806.47,7223215.91
"310225",310225,1990,42,"st","Steenbuck",1,-25.1,31.53,351772.52,7223172.59
"310227",310227,1990,42,"st","Steenbuck",1,-25.08,31.55,353765.73,7225409.45
"310292",310292,1990,42,"st","Steenbuck",1,-25.05,31.58,356756.78,7228764.13
"310463",310463,1990,43,"st","Steenbuck",1,-25.08,31.39,337626.93,7225226.73
"310710",310710,1990,43,"st","Steenbuck",1,-25.03,31.57,355724.48,7230968.53
"310764",310764,1990,44,"st","Steenbuck",1,-25.35,31.58,357107.46,7195538.11
"310978",310978,1990,44,"st","Steenbuck",1,-25.34,31.7,369173.51,7196768.39
"311252",311252,1990,44,"st","Steenbuck",1,-25.19,31.75,374051.11,7213428.73
"311286",311286,1990,44,"st","Steenbuck",1,-25.28,31.79,378171.62,7203498.26
"311317",311317,1990,44,"st","Steenbuck",1,-25.31,31.8,379208.3,7200184.84
"311374",311374,1990,44,"st","Steenbuck",1,-25.28,31.83,382199.37,7203533.98
"311468",311468,1990,44,"st","Steenbuck",1,-25.36,31.86,385295.56,7194700.2
"311642",311642,1990,45,"st","Steenbuck",1,-25.3,31.88,387252.5,7201362.03
"311844",311844,1990,45,"st","Steenbuck",1,-25.18,31.93,392180.41,7214692.49
"311921",311921,1990,45,"st","Steenbuck",1,-25.14,31.91,390129.11,7219106.08
"312314",312314,1990,46,"st","Steenbuck",1,-25.3,31.92,391279.51,7201395.07
"312420",312420,1990,46,"st","Steenbuck",1,-25.24,31.95,394247.75,7208063.74
"312484",312484,1990,56,"st","Steenbuck",1,-25.31,31.45,343972.51,7199823.27
"312561",312561,1990,56,"st","Steenbuck",1,-25.3,31.51,350000.86,7200999.36
"312693",312693,1990,56,"st","Steenbuck",1,-25.37,31.53,352099.69,7193268.62
"313166",313166,1990,57,"st","Steenbuck",1,-25.14,31.67,365934.81,7218888.98
"313213",313213,1990,57,"st","Steenbuck",1,-25.12,31.68,366921.26,7221113.87
"313276",313276,1990,57,"st","Steenbuck",1,-25.15,31.77,376026.04,7217877.2
"313344",313344,1990,57,"st","Steenbuck",1,-25.11,31.8,379010.68,7222334.3
"313461",313461,1990,58,"st","Steenbuck",1,-25.14,31.67,365934.81,7218888.98
"313465",313465,1990,58,"st","Steenbuck",1,-25.12,31.66,364904.68,7221094
"313498",313498,1990,58,"st","Steenbuck",1,-25.08,31.67,365869.34,7225533.94
"313525",313525,1990,58,"st","Steenbuck",1,-25.08,31.68,366877.96,7225543.83
"313544",313544,1990,58,"st","Steenbuck",1,-25.07,31.68,366867.14,7226651.32
"313548",313548,1990,58,"st","Steenbuck",2,-25.05,31.67,365836.66,7228856.41
"313586",313586,1990,58,"st","Steenbuck",1,-25.02,31.71,369840.44,7232217.9
"313594",313594,1990,58,"st","Steenbuck",1,-25.07,31.74,372919.28,7226709.07
"313610",313610,1990,58,"st","Steenbuck",1,-25.03,31.74,372878.03,7231138.93
"313613",313613,1990,58,"st","Steenbuck",1,-25.05,31.75,373907.49,7228933.36
"313628",313628,1990,58,"st","Steenbuck",1,-25.06,31.77,375935.24,7227844.39
"313631",313631,1990,58,"st","Steenbuck",1,-25.05,31.76,374916.33,7228942.64
"313643",313643,1990,58,"st","Steenbuck",1,-25.05,31.77,375925.17,7228951.85
