"","ID","Year","Cenb","Sp","Description","No","Lat","Long","X.coord","Y.coord"
"414027",414027,1997,33,"w","Blue wildebeest",1,-25.04,31.36,334547.09,7229620.69
"414033",414033,1997,33,"w","Blue wildebeest",2,-25.04,31.33,331519.96,7229583.67
"414038",414038,1997,33,"w","Blue wildebeest",1,-25.02,31.32,330483.42,7231786.38
"414045",414045,1997,33,"w","Blue wildebeest",1,-25.07,31.32,330552.19,7226248.38
"414072",414072,1997,33,"w","Blue wildebeest",8,-25.02,31.3,328464.99,7231761.19
"414112",414112,1997,33,"w","Blue wildebeest",1,-25.05,31.26,324470.79,7228387.06
"414116",414116,1997,33,"w","Blue wildebeest",5,-25.03,31.27,325451.46,7230615.24
"414121",414121,1997,33,"w","Blue wildebeest",7,-25.01,31.26,324413.85,7232817.54
"414132",414132,1997,33,"w","Blue wildebeest",13,-25.01,31.27,325423.16,7232830.47
"414139",414139,1997,33,"w","Blue wildebeest",13,-25.01,31.27,325423.16,7232830.47
"414146",414146,1997,33,"w","Blue wildebeest",12,-25.01,31.28,326432.48,7232843.32
"414157",414157,1997,33,"w","Blue wildebeest",1,-25.01,31.3,328451.09,7232868.8
"414171",414171,1997,33,"w","Blue wildebeest",1,-24.99,31.3,328423.3,7235084
"414189",414189,1997,33,"w","Blue wildebeest",8,-24.99,31.31,329432.77,7235096.62
"414209",414209,1997,33,"w","Blue wildebeest",1,-25,31.34,332474.71,7234026.44
"414230",414230,1997,33,"w","Blue wildebeest",7,-25.08,31.36,334600.82,7225190.34
"414232",414232,1997,33,"w","Blue wildebeest",20,-25.07,31.36,334587.38,7226297.93
"414238",414238,1997,33,"w","Blue wildebeest",1,-25.07,31.36,334587.38,7226297.93
"414277",414277,1997,33,"w","Blue wildebeest",4,-25.14,31.3,328632.2,7218469.85
"414297",414297,1997,33,"w","Blue wildebeest",13,-25.08,31.25,323504.81,7225051.16
"414309",414309,1997,33,"w","Blue wildebeest",1,-25.11,31.22,320522.36,7221688.69
"414358",414358,1997,35,"w","Blue wildebeest",5,-25.37,31.32,330967.46,7193019.66
"414444",414444,1997,35,"w","Blue wildebeest",5,-25.18,31.25,323648.53,7213974.78
"414465",414465,1997,35,"w","Blue wildebeest",11,-25.22,31.28,326728.93,7209583.2
"414473",414473,1997,35,"w","Blue wildebeest",2,-25.23,31.31,329765.6,7208513.92
"414515",414515,1997,36,"w","Blue wildebeest",4,-25.11,31.5,348759.34,7222031.77
"414516",414516,1997,36,"w","Blue wildebeest",5,-25.12,31.51,349779.98,7220935.4
"414524",414524,1997,36,"w","Blue wildebeest",16,-25.11,31.48,346742.49,7222009.21
"414525",414525,1997,36,"w","Blue wildebeest",4,-25.11,31.47,345734.07,7221997.82
"414526",414526,1997,36,"w","Blue wildebeest",2,-25.11,31.47,345734.07,7221997.82
"414549",414549,1997,36,"w","Blue wildebeest",5,-25.11,31.42,340691.89,7221939.73
"414559",414559,1997,36,"w","Blue wildebeest",11,-25.13,31.45,343742.65,7219759.68
"414560",414560,1997,36,"w","Blue wildebeest",6,-25.13,31.44,342734.38,7219748.06
"414574",414574,1997,36,"w","Blue wildebeest",4,-25.16,31.47,345796.89,7216460.02
"414584",414584,1997,36,"w","Blue wildebeest",9,-25.16,31.47,345796.89,7216460.02
"414587",414587,1997,36,"w","Blue wildebeest",4,-25.15,31.46,344776.22,7217556.1
"414655",414655,1997,36,"w","Blue wildebeest",3,-25.17,31.39,337745.89,7215258.46
"414708",414708,1997,36,"w","Blue wildebeest",3,-25.23,31.46,344877.61,7208695.53
"414729",414729,1997,36,"w","Blue wildebeest",4,-25.2,31.4,338793.35,7211947.7
"414780",414780,1997,36,"w","Blue wildebeest",30,-25.26,31.44,342901.31,7205349.54
"414784",414784,1997,36,"w","Blue wildebeest",1,-25.28,31.46,344941.13,7203157.63
"414815",414815,1997,36,"w","Blue wildebeest",1,-25.29,31.43,341932.99,7202015.01
"414894",414894,1997,36,"w","Blue wildebeest",4,-25.33,31.38,336951.73,7197524.66
"414916",414916,1997,36,"w","Blue wildebeest",22,-25.36,31.36,334979.17,7194177.27
"414991",414991,1997,37,"w","Blue wildebeest",1,-25.11,31.55,353801.4,7222086.87
"415006",415006,1997,37,"w","Blue wildebeest",15,-25.13,31.55,353825.2,7219871.8
"415028",415028,1997,37,"w","Blue wildebeest",20,-25.15,31.54,352840.94,7217645.85
"415032",415032,1997,37,"w","Blue wildebeest",1,-25.14,31.54,352828.95,7218753.39
"415039",415039,1997,37,"w","Blue wildebeest",1,-25.12,31.53,351796.65,7220957.52
"415040",415040,1997,37,"w","Blue wildebeest",3,-25.11,31.53,351784.58,7222065.05
"415042",415042,1997,37,"w","Blue wildebeest",1,-25.1,31.53,351772.52,7223172.59
"415045",415045,1997,37,"w","Blue wildebeest",8,-25.1,31.52,350764.03,7223161.57
"415046",415046,1997,37,"w","Blue wildebeest",1,-25.11,31.52,350776.17,7222054.03
"415052",415052,1997,37,"w","Blue wildebeest",7,-25.12,31.53,351796.65,7220957.52
"415053",415053,1997,37,"w","Blue wildebeest",5,-25.13,31.53,351808.71,7219849.98
"415061",415061,1997,37,"w","Blue wildebeest",28,-25.12,31.52,350788.32,7220946.49
"415079",415079,1997,37,"w","Blue wildebeest",5,-25.18,31.58,356908.26,7214366.34
"415099",415099,1997,37,"w","Blue wildebeest",14,-25.19,31.58,356919.94,7213258.81
"415100",415100,1997,37,"w","Blue wildebeest",1,-25.19,31.58,356919.94,7213258.81
"415102",415102,1997,37,"w","Blue wildebeest",4,-25.19,31.59,357927.68,7213269.41
"415116",415116,1997,37,"w","Blue wildebeest",5,-25.13,31.59,357858.14,7219914.56
"415208",415208,1997,37,"w","Blue wildebeest",6,-25.2,31.6,358946.94,7212172.4
"415298",415298,1997,37,"w","Blue wildebeest",1,-25.27,31.55,353992.32,7204366.2
"415335",415335,1997,55,"w","Blue wildebeest",8,-25.3,31.55,354028.24,7201043.53
"415487",415487,1997,38,"w","Blue wildebeest",1,-25.04,31.51,349682.29,7229795.71
"415494",415494,1997,38,"w","Blue wildebeest",1,-25,31.51,349633.56,7234225.83
"415538",415538,1997,38,"w","Blue wildebeest",10,-25.01,31.49,347627.25,7233095.96
"415585",415585,1997,38,"w","Blue wildebeest",20,-25.04,31.46,344637.3,7229739.24
"415589",415589,1997,38,"w","Blue wildebeest",8,-25.08,31.5,348722.44,7225354.41
"415592",415592,1997,38,"w","Blue wildebeest",1,-25.06,31.49,347689.03,7227558.26
"415593",415593,1997,38,"w","Blue wildebeest",1,-25.06,31.49,347689.03,7227558.26
"415603",415603,1997,38,"w","Blue wildebeest",1,-25.09,31.48,346717.56,7224224.32
"415612",415612,1997,38,"w","Blue wildebeest",1,-25.06,31.46,344662.52,7227524.13
"415620",415620,1997,38,"w","Blue wildebeest",1,-25.04,31.44,342619.28,7229716.12
"415622",415622,1997,38,"w","Blue wildebeest",7,-25.04,31.44,342619.28,7229716.12
"415629",415629,1997,38,"w","Blue wildebeest",12,-25.07,31.44,342657.61,7226393.45
"415639",415639,1997,38,"w","Blue wildebeest",15,-25.02,31.42,340575.4,7231907.84
"415654",415654,1997,38,"w","Blue wildebeest",7,-25.07,31.4,338622.52,7226346.29
"415673",415673,1997,33,"w","Blue wildebeest",9,-25.04,31.39,337574.19,7229657.04
"416032",416032,1997,37,"w","Blue wildebeest",1,-25.3,31.6,359062.4,7201097.05
"416041",416041,1997,40,"w","Blue wildebeest",1,-25.36,31.61,360138.21,7194462.27
"416132",416132,1997,39,"w","Blue wildebeest",1,-25.35,31.88,387298.81,7195824.68
"416134",416134,1997,41,"w","Blue wildebeest",5,-25.34,31.88,387289.54,7196932.15
"416155",416155,1997,41,"w","Blue wildebeest",2,-25.28,31.88,387234,7203576.96
"416178",416178,1997,41,"w","Blue wildebeest",1,-25.23,31.94,393231.78,7209163.27
"416190",416190,1997,41,"w","Blue wildebeest",2,-25.22,31.94,393223.05,7210270.71
"416192",416192,1997,41,"w","Blue wildebeest",15,-25.22,31.94,393223.05,7210270.71
"416193",416193,1997,41,"w","Blue wildebeest",5,-25.23,31.93,392224.46,7209155.29
"416194",416194,1997,41,"w","Blue wildebeest",1,-25.23,31.93,392224.46,7209155.29
"416195",416195,1997,41,"w","Blue wildebeest",1,-25.24,31.93,392233.28,7208047.84
"416197",416197,1997,41,"w","Blue wildebeest",2,-25.25,31.93,392242.1,7206940.4
"416201",416201,1997,41,"w","Blue wildebeest",22,-25.23,31.93,392224.46,7209155.29
"416204",416204,1997,41,"w","Blue wildebeest",1,-25.23,31.93,392224.46,7209155.29
"416207",416207,1997,41,"w","Blue wildebeest",13,-25.22,31.93,392215.64,7210262.73
"416208",416208,1997,41,"w","Blue wildebeest",1,-25.21,31.93,392206.83,7211370.17
"416213",416213,1997,41,"w","Blue wildebeest",25,-25.2,31.93,392198.02,7212477.61
"416216",416216,1997,41,"w","Blue wildebeest",2,-25.18,31.93,392180.41,7214692.49
"416221",416221,1997,41,"w","Blue wildebeest",2,-25.2,31.92,391190.45,7212469.56
"416227",416227,1997,41,"w","Blue wildebeest",13,-25.23,31.92,391217.13,7209147.23
"416241",416241,1997,41,"w","Blue wildebeest",18,-25.25,31.91,390227.78,7206924.2
"416247",416247,1997,41,"w","Blue wildebeest",1,-25.22,31.91,390200.83,7210246.55
"416248",416248,1997,41,"w","Blue wildebeest",1,-25.22,31.91,390200.83,7210246.55
"416250",416250,1997,41,"w","Blue wildebeest",13,-25.21,31.92,391199.34,7211362.12
"416261",416261,1997,41,"w","Blue wildebeest",5,-25.21,31.91,390191.85,7211353.99
"416266",416266,1997,41,"w","Blue wildebeest",5,-25.22,31.9,389193.42,7210238.34
"416267",416267,1997,41,"w","Blue wildebeest",15,-25.22,31.91,390200.83,7210246.55
"416309",416309,1997,41,"w","Blue wildebeest",1,-25.21,31.9,389184.36,7211345.79
"416317",416317,1997,41,"w","Blue wildebeest",1,-25.24,31.87,386189.79,7207998.36
"416349",416349,1997,41,"w","Blue wildebeest",11,-25.24,31.8,379138.96,7207937.22
"416416",416416,1997,41,"w","Blue wildebeest",11,-25.18,31.81,380087.44,7214591
"416438",416438,1997,41,"w","Blue wildebeest",1,-25.2,31.83,382122.21,7212393.74
"416450",416450,1997,41,"w","Blue wildebeest",5,-25.17,31.81,380077.65,7215698.47
"416477",416477,1997,41,"w","Blue wildebeest",1,-25.19,31.84,383120.26,7213509.93
"416506",416506,1997,41,"w","Blue wildebeest",10,-25.17,31.85,384109.01,7215733.48
"416508",416508,1997,41,"w","Blue wildebeest",10,-25.17,31.84,383101.17,7215724.84
"416813",416813,1997,42,"w","Blue wildebeest",1,-25.24,31.97,396262.22,7208079.33
"416826",416826,1997,42,"w","Blue wildebeest",1,-25.28,31.97,396296.21,7203649.57
"416828",416828,1997,42,"w","Blue wildebeest",2,-25.27,31.97,396287.71,7204757.01
"416836",416836,1997,42,"w","Blue wildebeest",28,-25.25,31.97,396270.71,7206971.89
"416837",416837,1997,42,"w","Blue wildebeest",3,-25.24,31.97,396262.22,7208079.33
"416873",416873,1997,42,"w","Blue wildebeest",1,-25.25,31.96,395263.56,7206964.13
"416875",416875,1997,42,"w","Blue wildebeest",1,-25.25,31.96,395263.56,7206964.13
"416876",416876,1997,42,"w","Blue wildebeest",25,-25.27,31.96,395280.72,7204749.25
"416884",416884,1997,42,"w","Blue wildebeest",2,-25.28,31.95,394282.4,7203633.96
"416886",416886,1997,42,"w","Blue wildebeest",3,-25.27,31.95,394273.73,7204741.41
"416887",416887,1997,42,"w","Blue wildebeest",19,-25.26,31.95,394265.07,7205848.85
"416894",416894,1997,42,"w","Blue wildebeest",12,-25.23,31.96,395246.42,7209179.01
"416921",416921,1997,42,"w","Blue wildebeest",4,-25.24,31.95,394247.75,7208063.74
"416923",416923,1997,42,"w","Blue wildebeest",13,-25.25,31.95,394256.41,7206956.3
"416929",416929,1997,42,"w","Blue wildebeest",1,-25.28,31.94,393275.49,7203626.04
"416930",416930,1997,42,"w","Blue wildebeest",19,-25.27,31.93,392259.75,7204725.5
"416952",416952,1997,41,"w","Blue wildebeest",2,-25.32,31.9,389284.19,7199163.77
"416957",416957,1997,42,"w","Blue wildebeest",13,-25.32,31.91,390290.77,7199172
"416960",416960,1997,42,"w","Blue wildebeest",5,-25.33,31.9,389293.29,7198056.31
"416978",416978,1997,42,"w","Blue wildebeest",2,-25.32,31.93,392303.94,7199188.23
"417011",417011,1997,42,"w","Blue wildebeest",38,-25.3,31.96,395306.48,7201426.91
"417012",417012,1997,42,"w","Blue wildebeest",10,-25.29,31.96,395297.89,7202534.36
"417013",417013,1997,42,"w","Blue wildebeest",10,-25.29,31.97,396304.71,7202542.13
"417016",417016,1997,42,"w","Blue wildebeest",1,-25.31,31.97,396321.73,7200327.24
"417018",417018,1997,42,"w","Blue wildebeest",5,-25.33,31.96,395332.27,7198104.57
"417026",417026,1997,42,"w","Blue wildebeest",15,-25.35,31.96,395349.48,7195889.66
"417037",417037,1997,42,"w","Blue wildebeest",2,-25.31,31.98,397328.38,7200334.94
"417136",417136,1997,42,"w","Blue wildebeest",1,-25.38,31.97,396381.39,7192575.08
"417229",417229,1997,56,"w","Blue wildebeest",15,-25.1,31.8,379000.83,7223441.76
"417237",417237,1997,56,"w","Blue wildebeest",1,-25.13,31.81,380038.55,7220128.32
"417260",417260,1997,56,"w","Blue wildebeest",12,-25.13,31.79,378022.2,7220110.38
"417273",417273,1997,56,"w","Blue wildebeest",1,-25.13,31.76,374997.65,7220082.91
"417345",417345,1997,56,"w","Blue wildebeest",1,-25.16,31.67,365956.66,7216673.98
"417503",417503,1997,57,"w","Blue wildebeest",1,-25.15,31.65,363929.64,7217761.44
"417526",417526,1997,57,"w","Blue wildebeest",4,-25.13,31.64,362899.25,7219966.32
"417730",417730,1997,59,"w","Blue wildebeest",1,-25.06,31.6,358786.01,7227677.65
