"","ID","Year","Cenb","Sp","Description","No","Lat","Long","X.coord","Y.coord"
"71610",71610,1982,1,"w","Blue wildebeest",16,-23.87,31.57,354397.19,7359430.77
"71749",71749,1982,1,"w","Blue wildebeest",13,-23.91,31.61,358514.07,7355041.97
"71867",71867,1982,1,"w","Blue wildebeest",5,-23.93,31.65,362607.29,7352866.77
"71887",71887,1982,1,"w","Blue wildebeest",6,-23.95,31.63,360593.07,7350632.48
"71904",71904,1982,1,"w","Blue wildebeest",19,-23.95,31.65,362628.46,7350652.09
"71968",71968,1982,1,"w","Blue wildebeest",7,-24.06,31.67,364778.9,7338490.67
"72137",72137,1982,1,"w","Blue wildebeest",11,-23.95,31.67,364663.85,7350671.42
"72539",72539,1982,2,"w","Blue wildebeest",3,-24.03,31.53,350508.36,7341671
"72706",72706,1982,2,"w","Blue wildebeest",25,-23.89,31.57,354419.57,7357216.06
"72764",72764,1982,3,"w","Blue wildebeest",12,-23.93,31.17,313746.79,7352316.64
"72774",72774,1982,3,"w","Blue wildebeest",4,-23.93,31.19,315782.81,7352342.88
"72847",72847,1982,3,"w","Blue wildebeest",5,-24.06,31.23,320035.72,7337997.07
"72865",72865,1982,3,"w","Blue wildebeest",11,-24.01,31.21,317931.29,7343508.84
"72898",72898,1982,3,"w","Blue wildebeest",9,-23.97,31.21,317875.01,7347938.84
"73021",73021,1982,3,"w","Blue wildebeest",16,-24.06,31.28,325120.5,7338060.22
"73128",73128,1982,3,"w","Blue wildebeest",8,-23.93,31.26,322908.74,7352432.45
"73241",73241,1982,3,"w","Blue wildebeest",4,-24.01,31.32,329122.1,7343646.77
"73321",73321,1982,3,"w","Blue wildebeest",6,-23.89,31.3,326927.33,7356911.87
"73348",73348,1982,3,"w","Blue wildebeest",8,-23.87,31.32,328937.58,7359151.09
"73358",73358,1982,3,"w","Blue wildebeest",8,-24.06,31.34,331222.11,7338133.62
"73507",73507,1982,4,"w","Blue wildebeest",17,-23.76,31.15,311464.92,7371117.74
"73520",73520,1982,4,"w","Blue wildebeest",4,-23.78,31.15,311493.75,7368902.75
"73773",73773,1982,4,"w","Blue wildebeest",17,-23.85,31.23,319743.91,7361254.34
"73863",73863,1982,4,"w","Blue wildebeest",17,-23.78,31.21,317608.85,7368981.1
"73902",73902,1982,4,"w","Blue wildebeest",23,-23.74,31.21,317553.07,7373410.99
"73932",73932,1982,4,"w","Blue wildebeest",8,-23.85,31.26,322799.74,7361292.2
"73974",73974,1982,4,"w","Blue wildebeest",6,-23.83,31.28,324810.06,7363531.99
"74018",74018,1982,4,"w","Blue wildebeest",18,-23.78,31.28,324742.95,7369069.24
"74058",74058,1982,4,"w","Blue wildebeest",8,-23.74,31.26,322650.43,7373474.22
"74092",74092,1982,4,"w","Blue wildebeest",11,-23.81,31.3,326821.01,7365771.45
"74121",74121,1982,4,"w","Blue wildebeest",16,-23.83,31.32,328885.05,7363580.85
"74167",74167,1982,4,"w","Blue wildebeest",15,-23.74,31.3,326728.26,7373523.52
"74304",74304,1982,5,"w","Blue wildebeest",11,-23.81,31.44,341085.31,7365935.32
"74363",74363,1982,5,"w","Blue wildebeest",4,-23.85,31.48,345208.19,7361550.04
"74389",74389,1982,5,"w","Blue wildebeest",3,-23.83,31.46,343147.06,7363742.81
"74405",74405,1982,5,"w","Blue wildebeest",3,-23.83,31.48,345184.44,7363764.8
"74406",74406,1982,5,"w","Blue wildebeest",20,-23.83,31.48,345184.44,7363764.8
"74449",74449,1982,5,"w","Blue wildebeest",11,-23.85,31.53,350300.8,7361603.78
"74537",74537,1982,5,"w","Blue wildebeest",3,-23.83,31.55,352315.16,7363839.49
"74545",74545,1982,5,"w","Blue wildebeest",21,-23.83,31.57,354352.48,7363860.18
"75078",75078,1982,7,"w","Blue wildebeest",9,-23.7,31.32,328714.88,7377977.43
"75441",75441,1982,9,"w","Blue wildebeest",6,-23.53,31.11,307050.37,7396536.6
"75644",75644,1982,9,"w","Blue wildebeest",9,-23.45,31.19,315107.86,7405501.5
"76009",76009,1982,10,"w","Blue wildebeest",10,-23.33,31.11,306759.74,7418686.05
"76231",76231,1982,11,"w","Blue wildebeest",11,-23.26,31.28,324052.87,7426654.7
"76263",76263,1982,11,"w","Blue wildebeest",9,-23.24,31.26,321979.98,7428845.07
"76292",76292,1982,11,"w","Blue wildebeest",5,-23.35,31.3,326216.21,7416712.44
"76352",76352,1982,11,"w","Blue wildebeest",2,-23.18,31.3,325995.52,7435537.76
"76367",76367,1982,12,"w","Blue wildebeest",1,-23.18,30.94,289137.44,7435061.54
"76377",76377,1982,12,"w","Blue wildebeest",8,-23.28,30.98,293387.12,7424043.9
"76427",76427,1982,12,"w","Blue wildebeest",7,-23.28,31.03,298502.72,7424114.32
"76535",76535,1982,12,"w","Blue wildebeest",16,-23.22,31.09,304553.82,7430841.25
"76541",76541,1982,12,"w","Blue wildebeest",7,-23.22,31.11,306600.89,7430868.03
"76567",76567,1982,12,"w","Blue wildebeest",5,-23.2,31.11,306572.09,7433082.92
"76608",76608,1982,12,"w","Blue wildebeest",9,-23.24,31.13,308676.47,7428679.64
"76739",76739,1982,13,"w","Blue wildebeest",15,-23.64,31.51,348020.2,7384837
"76799",76799,1982,13,"w","Blue wildebeest",26,-23.68,31.55,352145.79,7380449.66
"76811",76811,1982,13,"w","Blue wildebeest",21,-23.68,31.57,354185.45,7380470.26
"76821",76821,1982,13,"w","Blue wildebeest",10,-23.64,31.57,354141.08,7384899.56
"76840",76840,1982,13,"w","Blue wildebeest",8,-23.66,31.57,354163.25,7382684.91
"76957",76957,1982,13,"w","Blue wildebeest",31,-23.68,31.59,356225.1,7380490.56
"76970",76970,1982,13,"w","Blue wildebeest",10,-23.68,31.61,358264.73,7380510.58
"76971",76971,1982,13,"w","Blue wildebeest",15,-23.68,31.61,358264.73,7380510.58
"76980",76980,1982,13,"w","Blue wildebeest",16,-23.7,31.59,356247,7378275.92
"76981",76981,1982,13,"w","Blue wildebeest",16,-23.7,31.59,356247,7378275.92
"77086",77086,1982,13,"w","Blue wildebeest",19,-23.68,31.63,360304.35,7380530.32
"77087",77087,1982,13,"w","Blue wildebeest",21,-23.68,31.63,360304.35,7380530.32
"77187",77187,1982,14,"w","Blue wildebeest",12,-23.47,31.48,344760.09,7403629.58
"77214",77214,1982,14,"w","Blue wildebeest",17,-23.53,31.51,347893.43,7397017.7
"77263",77263,1982,15,"w","Blue wildebeest",26,-23.39,31.36,332401.24,7412353.88
"77311",77311,1982,15,"w","Blue wildebeest",10,-23.39,31.38,334445.5,7412376.97
"77318",77318,1982,15,"w","Blue wildebeest",9,-23.39,31.4,336489.75,7412399.78
"77331",77331,1982,15,"w","Blue wildebeest",7,-23.41,31.4,336514.32,7410185.08
"77342",77342,1982,15,"w","Blue wildebeest",23,-23.35,31.4,336440.68,7416829.17
"77390",77390,1982,15,"w","Blue wildebeest",7,-23.43,31.42,338582.53,7407992.93
"77391",77391,1982,15,"w","Blue wildebeest",40,-23.43,31.42,338582.53,7407992.93
"77396",77396,1982,15,"w","Blue wildebeest",2,-23.43,31.44,340626.14,7408015.2
"77397",77397,1982,15,"w","Blue wildebeest",4,-23.43,31.44,340626.14,7408015.2
"77414",77414,1982,15,"w","Blue wildebeest",11,-23.41,31.42,338558.25,7410207.62
"77469",77469,1982,15,"w","Blue wildebeest",23,-23.37,31.46,342598.8,7414681.16
"77474",77474,1982,15,"w","Blue wildebeest",11,-23.37,31.48,344643.3,7414702.83
"77475",77475,1982,15,"w","Blue wildebeest",16,-23.37,31.48,344643.3,7414702.83
"77476",77476,1982,15,"w","Blue wildebeest",26,-23.37,31.48,344643.3,7414702.83
"77482",77482,1982,15,"w","Blue wildebeest",3,-23.33,31.46,342551.6,7419110.45
"77483",77483,1982,15,"w","Blue wildebeest",8,-23.33,31.46,342551.6,7419110.45
"77526",77526,1982,15,"w","Blue wildebeest",26,-23.37,31.51,347710.04,7414734.79
"77576",77576,1982,15,"w","Blue wildebeest",5,-23.37,31.55,351798.97,7414776.41
"77668",77668,1982,18,"w","Blue wildebeest",13,-23.1,31.4,336135.75,7444512.38
"77669",77669,1982,18,"w","Blue wildebeest",16,-23.1,31.4,336135.75,7444512.38
"78505",78505,1982,20,"w","Blue wildebeest",8,-24.06,31.21,318001.78,7337971.3
"78690",78690,1982,20,"w","Blue wildebeest",1,-24.06,31.44,341391.2,7338250.15
"78816",78816,1982,20,"w","Blue wildebeest",8,-24.08,31.55,352599.68,7336155.19
"79063",79063,1982,21,"w","Blue wildebeest",11,-24.12,31.57,354678.23,7331746.5
"79135",79135,1982,21,"w","Blue wildebeest",6,-24.26,31.65,362958.86,7316323.92
"79164",79164,1982,21,"w","Blue wildebeest",9,-24.2,31.63,360863.16,7322948.41
"79180",79180,1982,22,"w","Blue wildebeest",1,-24.47,31.38,335817.53,7292774.72
"79196",79196,1982,22,"w","Blue wildebeest",26,-24.47,31.4,337844.82,7292798.32
"79268",79268,1982,22,"w","Blue wildebeest",10,-24.35,31.4,337691.41,7306088.14
"79269",79269,1982,22,"w","Blue wildebeest",15,-24.35,31.4,337691.41,7306088.14
"79313",79313,1982,22,"w","Blue wildebeest",6,-24.47,31.42,339872.11,7292821.63
"79314",79314,1982,22,"w","Blue wildebeest",10,-24.47,31.42,339872.11,7292821.63
"79326",79326,1982,22,"w","Blue wildebeest",6,-24.47,31.44,341899.37,7292844.64
"79327",79327,1982,22,"w","Blue wildebeest",10,-24.47,31.44,341899.37,7292844.64
"79328",79328,1982,22,"w","Blue wildebeest",26,-24.47,31.44,341899.37,7292844.64
"79329",79329,1982,22,"w","Blue wildebeest",28,-24.47,31.44,341899.37,7292844.64
"79330",79330,1982,22,"w","Blue wildebeest",31,-24.47,31.44,341899.37,7292844.64
"79357",79357,1982,22,"w","Blue wildebeest",12,-24.45,31.44,341874.4,7295059.6
"79371",79371,1982,22,"w","Blue wildebeest",3,-24.39,31.42,339771.03,7301681.47
"79372",79372,1982,22,"w","Blue wildebeest",24,-24.39,31.42,339771.03,7301681.47
"79390",79390,1982,22,"w","Blue wildebeest",1,-24.39,31.44,341799.58,7301704.43
"79391",79391,1982,22,"w","Blue wildebeest",27,-24.39,31.44,341799.58,7301704.43
"79424",79424,1982,22,"w","Blue wildebeest",11,-24.35,31.44,341749.8,7306134.29
"79425",79425,1982,22,"w","Blue wildebeest",11,-24.35,31.44,341749.8,7306134.29
"79426",79426,1982,22,"w","Blue wildebeest",23,-24.35,31.44,341749.8,7306134.29
"79427",79427,1982,22,"w","Blue wildebeest",35,-24.35,31.44,341749.8,7306134.29
"79438",79438,1982,22,"w","Blue wildebeest",3,-24.37,31.42,339745.81,7303896.42
"79450",79450,1982,22,"w","Blue wildebeest",18,-24.37,31.44,341774.68,7303919.37
"79496",79496,1982,22,"w","Blue wildebeest",22,-24.47,31.46,343926.63,7292867.37
"79497",79497,1982,22,"w","Blue wildebeest",46,-24.47,31.46,343926.63,7292867.37
"79531",79531,1982,22,"w","Blue wildebeest",12,-24.45,31.48,345929.54,7295104.72
"79549",79549,1982,22,"w","Blue wildebeest",7,-24.39,31.46,343828.12,7301727.1
"79569",79569,1982,22,"w","Blue wildebeest",20,-24.41,31.46,343852.72,7299512.17
"79570",79570,1982,22,"w","Blue wildebeest",23,-24.41,31.46,343852.72,7299512.17
"79605",79605,1982,22,"w","Blue wildebeest",13,-24.37,31.48,345832.38,7303964.38
"79606",79606,1982,22,"w","Blue wildebeest",13,-24.37,31.48,345832.38,7303964.38
"79696",79696,1982,22,"w","Blue wildebeest",5,-24.45,31.51,348970.86,7295137.8
"79741",79741,1982,22,"w","Blue wildebeest",11,-24.26,31.51,348745.15,7316179.15
"79896",79896,1982,23,"w","Blue wildebeest",16,-24.2,31.65,362894.6,7322968.18
"79911",79911,1982,23,"w","Blue wildebeest",20,-24.14,31.65,362830.49,7329612.4
"79951",79951,1982,23,"w","Blue wildebeest",12,-24.12,31.65,362809.15,7331827.13
"79955",79955,1982,23,"w","Blue wildebeest",33,-24.08,31.65,362766.53,7336256.57
"80066",80066,1982,23,"w","Blue wildebeest",3,-24.06,31.67,364778.9,7338490.67
"80071",80071,1982,23,"w","Blue wildebeest",1,-24.06,31.69,366812.54,7338509.78
"80072",80072,1982,23,"w","Blue wildebeest",15,-24.06,31.69,366812.54,7338509.78
"80092",80092,1982,23,"w","Blue wildebeest",10,-24.08,31.67,364799.87,7336275.97
"80119",80119,1982,23,"w","Blue wildebeest",25,-24.26,31.73,371080.73,7316400.23
"80154",80154,1982,23,"w","Blue wildebeest",5,-24.24,31.73,371060.57,7318614.94
"80155",80155,1982,23,"w","Blue wildebeest",9,-24.24,31.73,371060.57,7318614.94
"80156",80156,1982,23,"w","Blue wildebeest",9,-24.24,31.73,371060.57,7318614.94
"80157",80157,1982,23,"w","Blue wildebeest",10,-24.24,31.73,371060.57,7318614.94
"80158",80158,1982,23,"w","Blue wildebeest",21,-24.24,31.73,371060.57,7318614.94
"80201",80201,1982,23,"w","Blue wildebeest",8,-24.2,31.73,371020.28,7323044.35
"80202",80202,1982,23,"w","Blue wildebeest",12,-24.2,31.73,371020.28,7323044.35
"80203",80203,1982,23,"w","Blue wildebeest",16,-24.2,31.73,371020.28,7323044.35
"80204",80204,1982,23,"w","Blue wildebeest",45,-24.2,31.73,371020.28,7323044.35
"80278",80278,1982,24,"w","Blue wildebeest",5,-24.39,31.61,359041.75,7301887.77
"80283",80283,1982,24,"w","Blue wildebeest",7,-24.35,31.59,356968.32,7306296.96
"80295",80295,1982,24,"w","Blue wildebeest",11,-24.37,31.61,359019.57,7304102.59
"80296",80296,1982,24,"w","Blue wildebeest",17,-24.37,31.61,359019.57,7304102.59
"80315",80315,1982,24,"w","Blue wildebeest",5,-24.31,31.61,358953.12,7310747.02
"80339",80339,1982,24,"w","Blue wildebeest",6,-24.33,31.61,358975.25,7308532.22
"80340",80340,1982,24,"w","Blue wildebeest",20,-24.33,31.61,358975.25,7308532.22
"80416",80416,1982,24,"w","Blue wildebeest",6,-24.31,31.63,360982.83,7310767.15
"80458",80458,1982,24,"w","Blue wildebeest",10,-24.33,31.65,363034.02,7308572.21
"80501",80501,1982,24,"w","Blue wildebeest",4,-24.39,31.69,367155.42,7301966.73
"80518",80518,1982,24,"w","Blue wildebeest",6,-24.35,31.69,367113.63,7306396.27
"80519",80519,1982,24,"w","Blue wildebeest",8,-24.35,31.69,367113.63,7306396.27
"80562",80562,1982,24,"w","Blue wildebeest",4,-24.39,31.71,369183.81,7301985.74
"80577",80577,1982,24,"w","Blue wildebeest",31,-24.28,31.71,369070.78,7314166.86
"80588",80588,1982,24,"w","Blue wildebeest",15,-24.39,31.76,374254.75,7302031.98
"80597",80597,1982,24,"w","Blue wildebeest",15,-24.41,31.76,374274.55,7299817.24
"80645",80645,1982,25,"w","Blue wildebeest",14,-24.06,31.73,370879.78,7338547.12
"80714",80714,1982,25,"w","Blue wildebeest",4,-24.1,31.78,376002.27,7334162.89
"80720",80720,1982,25,"w","Blue wildebeest",5,-24.12,31.78,376021.54,7331948.24
"80721",80721,1982,25,"w","Blue wildebeest",13,-24.12,31.78,376021.54,7331948.24
"80747",80747,1982,25,"w","Blue wildebeest",11,-24.06,31.76,373930.19,7338574.36
"80869",80869,1982,25,"w","Blue wildebeest",3,-23.99,31.76,373861.88,7346325.58
"80921",80921,1982,25,"w","Blue wildebeest",17,-24.1,31.82,380068.16,7334197.66
"80922",80922,1982,25,"w","Blue wildebeest",21,-24.1,31.82,380068.16,7334197.66
"80937",80937,1982,25,"w","Blue wildebeest",6,-24.12,31.8,378054.17,7331965.78
"80957",80957,1982,25,"w","Blue wildebeest",9,-24.12,31.82,380086.79,7331983.04
"80958",80958,1982,25,"w","Blue wildebeest",11,-24.12,31.82,380086.79,7331983.04
"80959",80959,1982,25,"w","Blue wildebeest",23,-24.12,31.82,380086.79,7331983.04
"80999",80999,1982,25,"w","Blue wildebeest",7,-24.08,31.82,380049.54,7336412.28
"81139",81139,1982,25,"w","Blue wildebeest",7,-24.1,31.84,382101.09,7334214.62
"81156",81156,1982,25,"w","Blue wildebeest",19,-24.1,31.86,384134.01,7334231.28
"81231",81231,1982,25,"w","Blue wildebeest",5,-24.08,31.84,382082.79,7336429.23
"81232",81232,1982,25,"w","Blue wildebeest",12,-24.08,31.84,382082.79,7336429.23
"81253",81253,1982,25,"w","Blue wildebeest",3,-24.01,31.84,382018.84,7344180.31
"81427",81427,1982,25,"w","Blue wildebeest",8,-24.08,31.88,386149.25,7336462.24
"81463",81463,1982,26,"w","Blue wildebeest",17,-24.41,31.78,376302.58,7299835.23
"81487",81487,1982,26,"w","Blue wildebeest",20,-24.31,31.78,376205.31,7310908.82
"81507",81507,1982,26,"w","Blue wildebeest",32,-24.28,31.76,374146.1,7314212.94
"81508",81508,1982,26,"w","Blue wildebeest",93,-24.28,31.76,374146.1,7314212.94
"81545",81545,1982,26,"w","Blue wildebeest",15,-24.39,31.8,378311.44,7302067.65
"81546",81546,1982,26,"w","Blue wildebeest",20,-24.39,31.8,378311.44,7302067.65
"81557",81557,1982,26,"w","Blue wildebeest",9,-24.41,31.8,378330.61,7299852.94
"81558",81558,1982,26,"w","Blue wildebeest",36,-24.41,31.8,378330.61,7299852.94
"81580",81580,1982,26,"w","Blue wildebeest",6,-24.31,31.8,378234.93,7310926.46
"81589",81589,1982,26,"w","Blue wildebeest",19,-24.31,31.82,380264.54,7310943.82
"81600",81600,1982,26,"w","Blue wildebeest",16,-24.33,31.82,380283.33,7308729.14
"81613",81613,1982,26,"w","Blue wildebeest",8,-24.28,31.8,378206.3,7314248.5
"81661",81661,1982,26,"w","Blue wildebeest",5,-24.39,31.84,382368.1,7302102.16
"81662",81662,1982,26,"w","Blue wildebeest",9,-24.39,31.84,382368.1,7302102.16
"81670",81670,1982,26,"w","Blue wildebeest",10,-24.39,31.86,384396.42,7302118.97
"81671",81671,1982,26,"w","Blue wildebeest",22,-24.39,31.86,384396.42,7302118.97
"81689",81689,1982,26,"w","Blue wildebeest",4,-24.35,31.86,384360.05,7306548.33
"81705",81705,1982,26,"w","Blue wildebeest",25,-24.31,31.84,382294.14,7310960.88
"81711",81711,1982,26,"w","Blue wildebeest",7,-24.31,31.86,384323.74,7310977.66
"81721",81721,1982,26,"w","Blue wildebeest",8,-24.33,31.84,382312.61,7308746.21
"81752",81752,1982,26,"w","Blue wildebeest",5,-24.39,31.88,386424.72,7302135.49
"81753",81753,1982,26,"w","Blue wildebeest",9,-24.39,31.88,386424.72,7302135.49
"81754",81754,1982,26,"w","Blue wildebeest",10,-24.39,31.88,386424.72,7302135.49
"81755",81755,1982,26,"w","Blue wildebeest",15,-24.39,31.88,386424.72,7302135.49
"81771",81771,1982,26,"w","Blue wildebeest",19,-24.39,31.9,388453.02,7302151.72
"81797",81797,1982,26,"w","Blue wildebeest",18,-24.35,31.88,386388.99,7306564.83
"81798",81798,1982,26,"w","Blue wildebeest",21,-24.35,31.88,386388.99,7306564.83
"81799",81799,1982,26,"w","Blue wildebeest",41,-24.35,31.88,386388.99,7306564.83
"81811",81811,1982,26,"w","Blue wildebeest",7,-24.35,31.9,388417.93,7306581.04
"81812",81812,1982,26,"w","Blue wildebeest",10,-24.35,31.9,388417.93,7306581.04
"81813",81813,1982,26,"w","Blue wildebeest",12,-24.35,31.9,388417.93,7306581.04
"81814",81814,1982,26,"w","Blue wildebeest",20,-24.35,31.9,388417.93,7306581.04
"81822",81822,1982,26,"w","Blue wildebeest",8,-24.37,31.88,386406.85,7304350.16
"81823",81823,1982,26,"w","Blue wildebeest",12,-24.37,31.88,386406.85,7304350.16
"81824",81824,1982,26,"w","Blue wildebeest",13,-24.37,31.88,386406.85,7304350.16
"81825",81825,1982,26,"w","Blue wildebeest",45,-24.37,31.88,386406.85,7304350.16
"81837",81837,1982,26,"w","Blue wildebeest",21,-24.37,31.9,388435.47,7304366.38
"81852",81852,1982,26,"w","Blue wildebeest",10,-24.33,31.88,386371.15,7308779.48
"81869",81869,1982,26,"w","Blue wildebeest",7,-24.39,31.92,390481.31,7302167.66
"81870",81870,1982,26,"w","Blue wildebeest",8,-24.39,31.92,390481.31,7302167.66
"81871",81871,1982,26,"w","Blue wildebeest",12,-24.39,31.92,390481.31,7302167.66
"81872",81872,1982,26,"w","Blue wildebeest",18,-24.39,31.92,390481.31,7302167.66
"81873",81873,1982,26,"w","Blue wildebeest",31,-24.39,31.92,390481.31,7302167.66
"81889",81889,1982,26,"w","Blue wildebeest",4,-24.39,31.94,392509.59,7302183.3
"81890",81890,1982,26,"w","Blue wildebeest",14,-24.39,31.94,392509.59,7302183.3
"81908",81908,1982,26,"w","Blue wildebeest",8,-24.41,31.94,392526.51,7299968.66
"81909",81909,1982,26,"w","Blue wildebeest",8,-24.41,31.94,392526.51,7299968.66
"81910",81910,1982,26,"w","Blue wildebeest",11,-24.41,31.94,392526.51,7299968.66
"81911",81911,1982,26,"w","Blue wildebeest",23,-24.41,31.94,392526.51,7299968.66
"81912",81912,1982,26,"w","Blue wildebeest",25,-24.41,31.94,392526.51,7299968.66
"81936",81936,1982,27,"w","Blue wildebeest",25,-24.24,31.84,382229.62,7318712.2
"81937",81937,1982,27,"w","Blue wildebeest",25,-24.24,31.84,382229.62,7318712.2
"82020",82020,1982,27,"w","Blue wildebeest",15,-24.31,31.9,388382.89,7311010.33
"82021",82021,1982,27,"w","Blue wildebeest",15,-24.31,31.9,388382.89,7311010.33
"82030",82030,1982,27,"w","Blue wildebeest",14,-24.33,31.9,388400.4,7308795.68
"82031",82031,1982,27,"w","Blue wildebeest",14,-24.33,31.9,388400.4,7308795.68
"82059",82059,1982,27,"w","Blue wildebeest",11,-24.26,31.88,386308.8,7316530.74
"82060",82060,1982,27,"w","Blue wildebeest",11,-24.26,31.88,386308.8,7316530.74
"82089",82089,1982,27,"w","Blue wildebeest",18,-24.28,31.88,386326.6,7314316.11
"82090",82090,1982,27,"w","Blue wildebeest",18,-24.28,31.88,386326.6,7314316.11
"82136",82136,1982,27,"w","Blue wildebeest",2,-24.24,31.88,386291.02,7318745.38
"82137",82137,1982,27,"w","Blue wildebeest",12,-24.24,31.88,386291.02,7318745.38
"82271",82271,1982,27,"w","Blue wildebeest",14,-24.35,31.94,392475.77,7306612.58
"82272",82272,1982,27,"w","Blue wildebeest",14,-24.35,31.94,392475.77,7306612.58
"82326",82326,1982,27,"w","Blue wildebeest",11,-24.37,31.94,392492.67,7304397.94
"82327",82327,1982,27,"w","Blue wildebeest",11,-24.37,31.94,392492.67,7304397.94
"82640",82640,1982,27,"w","Blue wildebeest",15,-24.39,31.98,396566.12,7302213.71
"82641",82641,1982,27,"w","Blue wildebeest",15,-24.39,31.98,396566.12,7302213.71
"82687",82687,1982,27,"w","Blue wildebeest",7,-24.41,31.98,396582.41,7299999.08
"82688",82688,1982,27,"w","Blue wildebeest",7,-24.41,31.98,396582.41,7299999.08
"82714",82714,1982,27,"w","Blue wildebeest",5,-24.35,31.96,394504.68,7306627.91
"82715",82715,1982,27,"w","Blue wildebeest",5,-24.35,31.96,394504.68,7306627.91
"82716",82716,1982,27,"w","Blue wildebeest",12,-24.35,31.96,394504.68,7306627.91
"82717",82717,1982,27,"w","Blue wildebeest",12,-24.35,31.96,394504.68,7306627.91
"82718",82718,1982,27,"w","Blue wildebeest",16,-24.35,31.96,394504.68,7306627.91
"82719",82719,1982,27,"w","Blue wildebeest",16,-24.35,31.96,394504.68,7306627.91
"82918",82918,1982,28,"w","Blue wildebeest",20,-24.49,31.8,378407.41,7290994.01
"82924",82924,1982,28,"w","Blue wildebeest",11,-24.43,31.8,378349.79,7297638.21
"82925",82925,1982,28,"w","Blue wildebeest",34,-24.43,31.8,378349.79,7297638.21
"82933",82933,1982,28,"w","Blue wildebeest",5,-24.43,31.82,380377.48,7297655.63
"82934",82934,1982,28,"w","Blue wildebeest",15,-24.43,31.82,380377.48,7297655.63
"82949",82949,1982,28,"w","Blue wildebeest",5,-24.41,31.82,380358.62,7299870.35
"82950",82950,1982,28,"w","Blue wildebeest",11,-24.41,31.82,380358.62,7299870.35
"82951",82951,1982,28,"w","Blue wildebeest",14,-24.41,31.82,380358.62,7299870.35
"82952",82952,1982,28,"w","Blue wildebeest",15,-24.41,31.82,380358.62,7299870.35
"82953",82953,1982,28,"w","Blue wildebeest",22,-24.41,31.82,380358.62,7299870.35
"82974",82974,1982,28,"w","Blue wildebeest",14,-24.49,31.86,384487.59,7291045.49
"82991",82991,1982,28,"w","Blue wildebeest",7,-24.43,31.84,382405.17,7297672.76
"83002",83002,1982,28,"w","Blue wildebeest",23,-24.43,31.86,384432.84,7297689.6
"83003",83003,1982,28,"w","Blue wildebeest",38,-24.43,31.86,384432.84,7297689.6
"83014",83014,1982,28,"w","Blue wildebeest",13,-24.39,31.86,384396.42,7302118.97
"83027",83027,1982,28,"w","Blue wildebeest",8,-24.41,31.84,382386.63,7299887.46
"83028",83028,1982,28,"w","Blue wildebeest",13,-24.41,31.84,382386.63,7299887.46
"83029",83029,1982,28,"w","Blue wildebeest",13,-24.41,31.84,382386.63,7299887.46
"83030",83030,1982,28,"w","Blue wildebeest",34,-24.41,31.84,382386.63,7299887.46
"83065",83065,1982,28,"w","Blue wildebeest",16,-24.56,31.88,386577.2,7283310.57
"83081",83081,1982,28,"w","Blue wildebeest",13,-24.56,31.9,388602.77,7283326.89
"83099",83099,1982,28,"w","Blue wildebeest",9,-24.51,31.88,386532.25,7288847.36
"83112",83112,1982,28,"w","Blue wildebeest",5,-24.51,31.9,388558.62,7288863.65
"83113",83113,1982,28,"w","Blue wildebeest",5,-24.51,31.9,388558.62,7288863.65
"83114",83114,1982,28,"w","Blue wildebeest",8,-24.51,31.9,388558.62,7288863.65
"83115",83115,1982,28,"w","Blue wildebeest",25,-24.51,31.9,388558.62,7288863.65
"83127",83127,1982,28,"w","Blue wildebeest",5,-24.53,31.88,386550.22,7286632.65
"83128",83128,1982,28,"w","Blue wildebeest",9,-24.53,31.88,386550.22,7286632.65
"83129",83129,1982,28,"w","Blue wildebeest",12,-24.53,31.88,386550.22,7286632.65
"83130",83130,1982,28,"w","Blue wildebeest",23,-24.53,31.88,386550.22,7286632.65
"83131",83131,1982,28,"w","Blue wildebeest",26,-24.53,31.88,386550.22,7286632.65
"83147",83147,1982,28,"w","Blue wildebeest",7,-24.53,31.9,388576.27,7286648.95
"83148",83148,1982,28,"w","Blue wildebeest",9,-24.53,31.9,388576.27,7286648.95
"83149",83149,1982,28,"w","Blue wildebeest",19,-24.53,31.9,388576.27,7286648.95
"83166",83166,1982,28,"w","Blue wildebeest",6,-24.47,31.9,388523.37,7293293.03
"83167",83167,1982,28,"w","Blue wildebeest",7,-24.47,31.9,388523.37,7293293.03
"83168",83168,1982,28,"w","Blue wildebeest",16,-24.47,31.9,388523.37,7293293.03
"83169",83169,1982,28,"w","Blue wildebeest",18,-24.47,31.9,388523.37,7293293.03
"83180",83180,1982,28,"w","Blue wildebeest",17,-24.49,31.88,386514.29,7291062.06
"83191",83191,1982,28,"w","Blue wildebeest",22,-24.49,31.9,388540.99,7291078.34
"83213",83213,1982,28,"w","Blue wildebeest",7,-24.43,31.88,386460.51,7297706.14
"83214",83214,1982,28,"w","Blue wildebeest",9,-24.43,31.88,386460.51,7297706.14
"83215",83215,1982,28,"w","Blue wildebeest",24,-24.43,31.88,386460.51,7297706.14
"83222",83222,1982,28,"w","Blue wildebeest",37,-24.43,31.9,388488.17,7297722.39
"83233",83233,1982,28,"w","Blue wildebeest",15,-24.45,31.88,386478.42,7295491.45
"83234",83234,1982,28,"w","Blue wildebeest",30,-24.45,31.88,386478.42,7295491.45
"83240",83240,1982,28,"w","Blue wildebeest",6,-24.45,31.9,388505.76,7295507.71
"83270",83270,1982,28,"w","Blue wildebeest",7,-24.41,31.88,386442.61,7299920.82
"83271",83271,1982,28,"w","Blue wildebeest",8,-24.41,31.88,386442.61,7299920.82
"83272",83272,1982,28,"w","Blue wildebeest",8,-24.41,31.88,386442.61,7299920.82
"83273",83273,1982,28,"w","Blue wildebeest",13,-24.41,31.88,386442.61,7299920.82
"83274",83274,1982,28,"w","Blue wildebeest",14,-24.41,31.88,386442.61,7299920.82
"83275",83275,1982,28,"w","Blue wildebeest",17,-24.41,31.88,386442.61,7299920.82
"83276",83276,1982,28,"w","Blue wildebeest",32,-24.41,31.88,386442.61,7299920.82
"83286",83286,1982,28,"w","Blue wildebeest",6,-24.41,31.9,388470.59,7299937.06
"83287",83287,1982,28,"w","Blue wildebeest",12,-24.41,31.9,388470.59,7299937.06
"83288",83288,1982,28,"w","Blue wildebeest",17,-24.41,31.9,388470.59,7299937.06
"83289",83289,1982,28,"w","Blue wildebeest",18,-24.41,31.9,388470.59,7299937.06
"83290",83290,1982,28,"w","Blue wildebeest",21,-24.41,31.9,388470.59,7299937.06
"83313",83313,1982,28,"w","Blue wildebeest",16,-24.6,31.94,392687.98,7278929.24
"83347",83347,1982,28,"w","Blue wildebeest",26,-24.56,31.92,390628.33,7283342.91
"83348",83348,1982,28,"w","Blue wildebeest",59,-24.56,31.92,390628.33,7283342.91
"83372",83372,1982,28,"w","Blue wildebeest",11,-24.56,31.94,392653.89,7283358.63
"83373",83373,1982,28,"w","Blue wildebeest",17,-24.56,31.94,392653.89,7283358.63
"83374",83374,1982,28,"w","Blue wildebeest",18,-24.56,31.94,392653.89,7283358.63
"83386",83386,1982,28,"w","Blue wildebeest",18,-24.58,31.94,392670.93,7281143.94
"83387",83387,1982,28,"w","Blue wildebeest",30,-24.58,31.94,392670.93,7281143.94
"83388",83388,1982,28,"w","Blue wildebeest",37,-24.58,31.94,392670.93,7281143.94
"83403",83403,1982,28,"w","Blue wildebeest",22,-24.51,31.92,390584.99,7288879.64
"83404",83404,1982,28,"w","Blue wildebeest",30,-24.51,31.92,390584.99,7288879.64
"83441",83441,1982,28,"w","Blue wildebeest",16,-24.53,31.92,390602.32,7286664.95
"83463",83463,1982,28,"w","Blue wildebeest",14,-24.53,31.94,392628.36,7286680.66
"83464",83464,1982,28,"w","Blue wildebeest",24,-24.53,31.94,392628.36,7286680.66
"83465",83465,1982,28,"w","Blue wildebeest",24,-24.53,31.94,392628.36,7286680.66
"83477",83477,1982,28,"w","Blue wildebeest",6,-24.47,31.92,390550.38,7293309
"83478",83478,1982,28,"w","Blue wildebeest",7,-24.47,31.92,390550.38,7293309
"83479",83479,1982,28,"w","Blue wildebeest",9,-24.47,31.92,390550.38,7293309
"83480",83480,1982,28,"w","Blue wildebeest",9,-24.47,31.92,390550.38,7293309
"83481",83481,1982,28,"w","Blue wildebeest",11,-24.47,31.92,390550.38,7293309
"83482",83482,1982,28,"w","Blue wildebeest",13,-24.47,31.92,390550.38,7293309
"83507",83507,1982,28,"w","Blue wildebeest",8,-24.49,31.92,390567.68,7291094.32
"83508",83508,1982,28,"w","Blue wildebeest",10,-24.49,31.92,390567.68,7291094.32
"83524",83524,1982,28,"w","Blue wildebeest",22,-24.49,31.94,392594.36,7291110.02
"83539",83539,1982,28,"w","Blue wildebeest",6,-24.43,31.92,390515.82,7297738.34
"83540",83540,1982,28,"w","Blue wildebeest",7,-24.43,31.92,390515.82,7297738.34
"83541",83541,1982,28,"w","Blue wildebeest",7,-24.43,31.92,390515.82,7297738.34
"83542",83542,1982,28,"w","Blue wildebeest",19,-24.43,31.92,390515.82,7297738.34
"83543",83543,1982,28,"w","Blue wildebeest",22,-24.43,31.92,390515.82,7297738.34
"83562",83562,1982,28,"w","Blue wildebeest",8,-24.43,31.94,392543.46,7297754
"83563",83563,1982,28,"w","Blue wildebeest",10,-24.43,31.94,392543.46,7297754
"83564",83564,1982,28,"w","Blue wildebeest",15,-24.43,31.94,392543.46,7297754
"83565",83565,1982,28,"w","Blue wildebeest",32,-24.43,31.94,392543.46,7297754
"83583",83583,1982,28,"w","Blue wildebeest",7,-24.45,31.92,390533.09,7295523.67
"83584",83584,1982,28,"w","Blue wildebeest",39,-24.45,31.92,390533.09,7295523.67
"83597",83597,1982,28,"w","Blue wildebeest",17,-24.45,31.94,392560.41,7295539.35
"83598",83598,1982,28,"w","Blue wildebeest",26,-24.45,31.94,392560.41,7295539.35
"83599",83599,1982,28,"w","Blue wildebeest",49,-24.45,31.94,392560.41,7295539.35
"83611",83611,1982,28,"w","Blue wildebeest",5,-24.41,31.92,390498.56,7299953
"83612",83612,1982,28,"w","Blue wildebeest",5,-24.41,31.92,390498.56,7299953
"83613",83613,1982,28,"w","Blue wildebeest",11,-24.41,31.92,390498.56,7299953
"83632",83632,1982,28,"w","Blue wildebeest",5,-24.41,31.94,392526.51,7299968.66
"83633",83633,1982,28,"w","Blue wildebeest",6,-24.41,31.94,392526.51,7299968.66
"83634",83634,1982,28,"w","Blue wildebeest",8,-24.41,31.94,392526.51,7299968.66
"83635",83635,1982,28,"w","Blue wildebeest",9,-24.41,31.94,392526.51,7299968.66
"83636",83636,1982,28,"w","Blue wildebeest",24,-24.41,31.94,392526.51,7299968.66
"83637",83637,1982,28,"w","Blue wildebeest",27,-24.41,31.94,392526.51,7299968.66
"83638",83638,1982,28,"w","Blue wildebeest",29,-24.41,31.94,392526.51,7299968.66
"83648",83648,1982,28,"w","Blue wildebeest",8,-24.56,31.96,394679.44,7283374.06
"83689",83689,1982,28,"w","Blue wildebeest",11,-24.45,31.96,394587.72,7295554.73
"83721",83721,1982,29,"w","Blue wildebeest",17,-24.49,31.78,376380.67,7290976.27
"83765",83765,1982,29,"w","Blue wildebeest",23,-24.64,31.8,378552.06,7274383.29
"83783",83783,1982,29,"w","Blue wildebeest",12,-24.66,31.8,378571.41,7272168.5
"83794",83794,1982,29,"w","Blue wildebeest",7,-24.6,31.8,378513.41,7278812.85
"83835",83835,1982,29,"w","Blue wildebeest",9,-24.58,31.8,378494.1,7281027.62
"83853",83853,1982,29,"w","Blue wildebeest",5,-24.51,31.82,380453.07,7288796.73
"83854",83854,1982,29,"w","Blue wildebeest",10,-24.51,31.82,380453.07,7288796.73
"83885",83885,1982,29,"w","Blue wildebeest",4,-24.49,31.8,378407.41,7290994.01
"83886",83886,1982,29,"w","Blue wildebeest",5,-24.49,31.8,378407.41,7290994.01
"83887",83887,1982,29,"w","Blue wildebeest",20,-24.49,31.8,378407.41,7290994.01
"83888",83888,1982,29,"w","Blue wildebeest",29,-24.49,31.8,378407.41,7290994.01
"83900",83900,1982,29,"w","Blue wildebeest",15,-24.49,31.82,380434.15,7291011.47
"83901",83901,1982,29,"w","Blue wildebeest",18,-24.49,31.82,380434.15,7291011.47
"83902",83902,1982,29,"w","Blue wildebeest",20,-24.49,31.82,380434.15,7291011.47
"84038",84038,1982,29,"w","Blue wildebeest",7,-24.56,31.84,382526.03,7283277.07
"84039",84039,1982,29,"w","Blue wildebeest",8,-24.56,31.84,382526.03,7283277.07
"84040",84040,1982,29,"w","Blue wildebeest",13,-24.56,31.84,382526.03,7283277.07
"84052",84052,1982,29,"w","Blue wildebeest",5,-24.51,31.84,382479.47,7288813.9
"84053",84053,1982,29,"w","Blue wildebeest",8,-24.51,31.84,382479.47,7288813.9
"84054",84054,1982,29,"w","Blue wildebeest",12,-24.51,31.84,382479.47,7288813.9
"84055",84055,1982,29,"w","Blue wildebeest",23,-24.51,31.84,382479.47,7288813.9
"84068",84068,1982,29,"w","Blue wildebeest",6,-24.51,31.86,384505.86,7288830.78
"84069",84069,1982,29,"w","Blue wildebeest",6,-24.51,31.86,384505.86,7288830.78
"84070",84070,1982,29,"w","Blue wildebeest",12,-24.51,31.86,384505.86,7288830.78
"84071",84071,1982,29,"w","Blue wildebeest",17,-24.51,31.86,384505.86,7288830.78
"84072",84072,1982,29,"w","Blue wildebeest",18,-24.51,31.86,384505.86,7288830.78
"84073",84073,1982,29,"w","Blue wildebeest",20,-24.51,31.86,384505.86,7288830.78
"84082",84082,1982,29,"w","Blue wildebeest",14,-24.53,31.84,382498.08,7286599.17
"84083",84083,1982,29,"w","Blue wildebeest",17,-24.53,31.84,382498.08,7286599.17
"84100",84100,1982,29,"w","Blue wildebeest",9,-24.53,31.86,384524.15,7286616.06
"84101",84101,1982,29,"w","Blue wildebeest",23,-24.53,31.86,384524.15,7286616.06
"84104",84104,1982,29,"w","Blue wildebeest",28,-24.49,31.84,382460.87,7291028.62
"84108",84108,1982,29,"w","Blue wildebeest",27,-24.49,31.86,384487.59,7291045.49
"84226",84226,1982,30,"w","Blue wildebeest",7,-24.74,31.9,388762.4,7263394.26
"84243",84243,1982,30,"w","Blue wildebeest",7,-24.76,31.92,390802.54,7261195.61
"84256",84256,1982,30,"w","Blue wildebeest",11,-24.76,31.94,392824.86,7261211.43
"84269",84269,1982,30,"w","Blue wildebeest",11,-24.78,31.92,390820.03,7258980.85
"84290",84290,1982,30,"w","Blue wildebeest",9,-24.72,31.92,390767.59,7265625.12
"84291",84291,1982,30,"w","Blue wildebeest",15,-24.72,31.92,390767.59,7265625.12
"84292",84292,1982,30,"w","Blue wildebeest",17,-24.72,31.92,390767.59,7265625.12
"84308",84308,1982,30,"w","Blue wildebeest",4,-24.72,31.94,392790.56,7265640.92
"84323",84323,1982,30,"w","Blue wildebeest",6,-24.74,31.92,390785.06,7263410.37
"84324",84324,1982,30,"w","Blue wildebeest",12,-24.74,31.92,390785.06,7263410.37
"84325",84325,1982,30,"w","Blue wildebeest",23,-24.74,31.92,390785.06,7263410.37
"84565",84565,1982,30,"w","Blue wildebeest",14,-24.64,31.96,394746.38,7274515.29
"84566",84566,1982,30,"w","Blue wildebeest",25,-24.64,31.96,394746.38,7274515.29
"84656",84656,1982,30,"w","Blue wildebeest",7,-24.56,31.96,394679.44,7283374.06
"84657",84657,1982,30,"w","Blue wildebeest",19,-24.56,31.96,394679.44,7283374.06
"84658",84658,1982,30,"w","Blue wildebeest",19,-24.56,31.96,394679.44,7283374.06
"84686",84686,1982,30,"w","Blue wildebeest",21,-24.58,31.96,394696.15,7281159.38
"84762",84762,1982,30,"w","Blue wildebeest",4,-24.49,31.96,394621.03,7291125.41
"84866",84866,1982,31,"w","Blue wildebeest",12,-24.62,31.65,363347.58,7276457.27
"84981",84981,1982,31,"w","Blue wildebeest",14,-24.62,31.69,367397.01,7276496.44
"85023",85023,1982,31,"w","Blue wildebeest",20,-24.51,31.69,367281.2,7288677.98
"85038",85038,1982,31,"w","Blue wildebeest",22,-24.53,31.69,367302.22,7286463.16
"85062",85062,1982,31,"w","Blue wildebeest",6,-24.49,31.67,365233.4,7290873.42
"85110",85110,1982,31,"w","Blue wildebeest",23,-24.39,31.69,367155.42,7301966.73
"85134",85134,1982,31,"w","Blue wildebeest",11,-24.41,31.69,367176.35,7299751.95
"85168",85168,1982,31,"w","Blue wildebeest",25,-24.56,31.73,371385.1,7283178.85
"85187",85187,1982,31,"w","Blue wildebeest",5,-24.51,31.71,369307.67,7288697.05
"85219",85219,1982,31,"w","Blue wildebeest",9,-24.47,31.71,369266.32,7293126.64
"85234",85234,1982,31,"w","Blue wildebeest",9,-24.49,31.71,369286.99,7290911.85
"85252",85252,1982,31,"w","Blue wildebeest",12,-24.43,31.71,369225.04,7297556.2
"85262",85262,1982,31,"w","Blue wildebeest",5,-24.43,31.73,371252.78,7297574.94
"85263",85263,1982,31,"w","Blue wildebeest",5,-24.43,31.73,371252.78,7297574.94
"85264",85264,1982,31,"w","Blue wildebeest",17,-24.43,31.73,371252.78,7297574.94
"85284",85284,1982,31,"w","Blue wildebeest",9,-24.45,31.71,369245.67,7295341.42
"85285",85285,1982,31,"w","Blue wildebeest",41,-24.45,31.71,369245.67,7295341.42
"85300",85300,1982,31,"w","Blue wildebeest",24,-24.45,31.73,371273.09,7295360.17
"85305",85305,1982,31,"w","Blue wildebeest",25,-24.39,31.71,369183.81,7301985.74
"85328",85328,1982,31,"w","Blue wildebeest",5,-24.41,31.73,371232.48,7299789.7
"85329",85329,1982,31,"w","Blue wildebeest",9,-24.41,31.73,371232.48,7299789.7
"85340",85340,1982,31,"w","Blue wildebeest",13,-24.6,31.78,376488.43,7278795.04
"85341",85341,1982,31,"w","Blue wildebeest",24,-24.6,31.78,376488.43,7278795.04
"85357",85357,1982,31,"w","Blue wildebeest",9,-24.62,31.78,376508.08,7276580.26
"85358",85358,1982,31,"w","Blue wildebeest",19,-24.62,31.78,376508.08,7276580.26
"85391",85391,1982,31,"w","Blue wildebeest",8,-24.47,31.76,374334.05,7293172.99
"85392",85392,1982,31,"w","Blue wildebeest",19,-24.47,31.76,374334.05,7293172.99
"85415",85415,1982,31,"w","Blue wildebeest",5,-24.43,31.76,374294.37,7297602.5
"85416",85416,1982,31,"w","Blue wildebeest",5,-24.43,31.76,374294.37,7297602.5
"85417",85417,1982,31,"w","Blue wildebeest",12,-24.43,31.76,374294.37,7297602.5
"85418",85418,1982,31,"w","Blue wildebeest",12,-24.43,31.76,374294.37,7297602.5
"85419",85419,1982,31,"w","Blue wildebeest",13,-24.43,31.76,374294.37,7297602.5
"85420",85420,1982,31,"w","Blue wildebeest",24,-24.43,31.76,374294.37,7297602.5
"85421",85421,1982,31,"w","Blue wildebeest",27,-24.43,31.76,374294.37,7297602.5
"85422",85422,1982,31,"w","Blue wildebeest",32,-24.43,31.76,374294.37,7297602.5
"85423",85423,1982,31,"w","Blue wildebeest",38,-24.43,31.76,374294.37,7297602.5
"85429",85429,1982,31,"w","Blue wildebeest",24,-24.43,31.78,376322.08,7297620.5
"85440",85440,1982,31,"w","Blue wildebeest",9,-24.45,31.76,374314.2,7295387.75
"85441",85441,1982,31,"w","Blue wildebeest",13,-24.45,31.76,374314.2,7295387.75
"85442",85442,1982,31,"w","Blue wildebeest",14,-24.45,31.76,374314.2,7295387.75
"85443",85443,1982,31,"w","Blue wildebeest",25,-24.45,31.76,374314.2,7295387.75
"85460",85460,1982,31,"w","Blue wildebeest",11,-24.45,31.78,376341.6,7295405.76
"85461",85461,1982,31,"w","Blue wildebeest",25,-24.45,31.78,376341.6,7295405.76
"85464",85464,1982,31,"w","Blue wildebeest",13,-24.41,31.76,374274.55,7299817.24
"85468",85468,1982,31,"w","Blue wildebeest",12,-24.41,31.78,376302.58,7299835.23
"85481",85481,1982,32,"w","Blue wildebeest",9,-24.53,31.44,341974.42,7286199.75
"85499",85499,1982,32,"w","Blue wildebeest",7,-24.51,31.48,346002.6,7288459.92
"85620",85620,1982,32,"w","Blue wildebeest",15,-24.43,31.55,353002.72,7297395.74
"85632",85632,1982,32,"w","Blue wildebeest",5,-24.45,31.55,353025.92,7295180.87
"85673",85673,1982,32,"w","Blue wildebeest",5,-24.49,31.61,359152.93,7290813.58
"85693",85693,1982,32,"w","Blue wildebeest",17,-24.45,31.59,357080.92,7295222.76
"85757",85757,1982,33,"w","Blue wildebeest",9,-24.58,31.57,355202.55,7280805.22
"85825",85825,1982,33,"w","Blue wildebeest",8,-24.72,31.65,363456.51,7265382.89
"85826",85826,1982,33,"w","Blue wildebeest",27,-24.72,31.65,363456.51,7265382.89
"85844",85844,1982,33,"w","Blue wildebeest",40,-24.74,31.63,361455.55,7263147.9
"85907",85907,1982,33,"w","Blue wildebeest",19,-24.76,31.67,365522.66,7260972.91
"85923",85923,1982,33,"w","Blue wildebeest",24,-24.74,31.67,365501.13,7263187.8
"85950",85950,1982,34,"w","Blue wildebeest",13,-24.72,31.67,365479.62,7265402.68
"85963",85963,1982,34,"w","Blue wildebeest",28,-24.74,31.69,367523.9,7263207.3
"86073",86073,1982,34,"w","Blue wildebeest",16,-24.72,31.71,369525.8,7265441.37
"86454",86454,1982,34,"w","Blue wildebeest",13,-24.76,31.86,384735.5,7261146.38
"86463",86463,1982,34,"w","Blue wildebeest",9,-24.74,31.84,382694.36,7263344.17
"86634",86634,1982,35,"w","Blue wildebeest",18,-24.89,31.63,361622.29,7246535.93
"86639",86639,1982,35,"w","Blue wildebeest",10,-24.89,31.65,363642.65,7246556.11
"86651",86651,1982,35,"w","Blue wildebeest",17,-24.85,31.63,361577.73,7250965.82
"86666",86666,1982,35,"w","Blue wildebeest",6,-24.87,31.63,361600,7248750.87
"86675",86675,1982,35,"w","Blue wildebeest",6,-24.87,31.65,363620.69,7248771.05
"86690",86690,1982,35,"w","Blue wildebeest",7,-24.83,31.65,363576.81,7253200.9
"86832",86832,1982,35,"w","Blue wildebeest",15,-24.89,31.73,371723.97,7246633.89
"87025",87025,1982,36,"w","Blue wildebeest",7,-24.85,31.82,380776.89,7251145.39
"87026",87026,1982,36,"w","Blue wildebeest",9,-24.85,31.82,380776.89,7251145.39
"87051",87051,1982,36,"w","Blue wildebeest",6,-24.81,31.8,378717.01,7255557.42
"87123",87123,1982,36,"w","Blue wildebeest",6,-24.85,31.86,384818.71,7251179.78
"87124",87124,1982,36,"w","Blue wildebeest",16,-24.85,31.86,384818.71,7251179.78
"87175",87175,1982,36,"w","Blue wildebeest",24,-24.83,31.84,382778.96,7253377.55
"87187",87187,1982,36,"w","Blue wildebeest",18,-24.83,31.86,384800.19,7253394.59
"87197",87197,1982,36,"w","Blue wildebeest",16,-24.78,31.84,382731.93,7258914.58
"87206",87206,1982,36,"w","Blue wildebeest",25,-24.85,31.88,386839.6,7251196.53
"87244",87244,1982,37,"w","Blue wildebeest",7,-24.93,31.9,388932.08,7242353.77
"87245",87245,1982,37,"w","Blue wildebeest",33,-24.93,31.9,388932.08,7242353.77
"87259",87259,1982,37,"w","Blue wildebeest",28,-24.89,31.88,386876.02,7246766.92
"87316",87316,1982,37,"w","Blue wildebeest",9,-24.91,31.9,388914.16,7244568.59
"87317",87317,1982,37,"w","Blue wildebeest",9,-24.91,31.9,388914.16,7244568.59
"87318",87318,1982,37,"w","Blue wildebeest",30,-24.91,31.9,388914.16,7244568.59
"87319",87319,1982,37,"w","Blue wildebeest",31,-24.91,31.9,388914.16,7244568.59
"87320",87320,1982,37,"w","Blue wildebeest",47,-24.91,31.9,388914.16,7244568.59
"87321",87321,1982,37,"w","Blue wildebeest",85,-24.91,31.9,388914.16,7244568.59
"87338",87338,1982,37,"w","Blue wildebeest",12,-24.85,31.88,386839.6,7251196.53
"87408",87408,1982,37,"w","Blue wildebeest",6,-24.83,31.88,386821.41,7253411.33
"87453",87453,1982,37,"w","Blue wildebeest",1,-25.01,31.94,393040.41,7233526.64
"87454",87454,1982,37,"w","Blue wildebeest",4,-25.01,31.94,393040.41,7233526.64
"87497",87497,1982,37,"w","Blue wildebeest",4,-24.93,31.92,390951.65,7242369.97
"87498",87498,1982,37,"w","Blue wildebeest",39,-24.93,31.92,390951.65,7242369.97
"87499",87499,1982,37,"w","Blue wildebeest",51,-24.93,31.92,390951.65,7242369.97
"87500",87500,1982,37,"w","Blue wildebeest",63,-24.93,31.92,390951.65,7242369.97
"87517",87517,1982,37,"w","Blue wildebeest",3,-24.93,31.94,392971.22,7242385.87
"87518",87518,1982,37,"w","Blue wildebeest",12,-24.93,31.94,392971.22,7242385.87
"87519",87519,1982,37,"w","Blue wildebeest",114,-24.93,31.94,392971.22,7242385.87
"87537",87537,1982,37,"w","Blue wildebeest",46,-24.95,31.94,392988.5,7240171.07
"87738",87738,1982,37,"w","Blue wildebeest",6,-25.12,31.98,397168.79,7221376.12
"87765",87765,1982,37,"w","Blue wildebeest",9,-25.06,31.98,397118.62,7228020.59
"87766",87766,1982,37,"w","Blue wildebeest",33,-25.06,31.98,397118.62,7228020.59
"87795",87795,1982,37,"w","Blue wildebeest",5,-25.01,31.96,395058.66,7233542.27
"87796",87796,1982,37,"w","Blue wildebeest",7,-25.01,31.96,395058.66,7233542.27
"87797",87797,1982,37,"w","Blue wildebeest",22,-25.01,31.96,395058.66,7233542.27
"87798",87798,1982,37,"w","Blue wildebeest",33,-25.01,31.96,395058.66,7233542.27
"87811",87811,1982,37,"w","Blue wildebeest",9,-25.01,31.98,397076.91,7233557.62
"87812",87812,1982,37,"w","Blue wildebeest",32,-25.01,31.98,397076.91,7233557.62
"87820",87820,1982,37,"w","Blue wildebeest",6,-25.03,31.96,395075.67,7231327.46
"87821",87821,1982,37,"w","Blue wildebeest",12,-25.03,31.96,395075.67,7231327.46
"87822",87822,1982,37,"w","Blue wildebeest",15,-25.03,31.96,395075.67,7231327.46
"87823",87823,1982,37,"w","Blue wildebeest",16,-25.03,31.96,395075.67,7231327.46
"87824",87824,1982,37,"w","Blue wildebeest",44,-25.03,31.96,395075.67,7231327.46
"87833",87833,1982,37,"w","Blue wildebeest",7,-25.03,31.98,397093.58,7231342.81
"87834",87834,1982,37,"w","Blue wildebeest",10,-25.03,31.98,397093.58,7231342.81
"87835",87835,1982,37,"w","Blue wildebeest",26,-25.03,31.98,397093.58,7231342.81
"87931",87931,1982,37,"w","Blue wildebeest",19,-24.95,31.96,395007.73,7240186.68
"87932",87932,1982,37,"w","Blue wildebeest",28,-24.95,31.96,395007.73,7240186.68
"87945",87945,1982,37,"w","Blue wildebeest",4,-24.95,31.98,397026.95,7240201.99
"87946",87946,1982,37,"w","Blue wildebeest",9,-24.95,31.98,397026.95,7240201.99
"87947",87947,1982,37,"w","Blue wildebeest",31,-24.95,31.98,397026.95,7240201.99
"87974",87974,1982,37,"w","Blue wildebeest",22,-24.91,31.96,394973.83,7244616.26
"88148",88148,1982,37,"w","Blue wildebeest",10,-25.08,32.01,400160.96,7225828.27
"88163",88163,1982,37,"w","Blue wildebeest",12,-25.01,32.01,400104.25,7233580.07
"88174",88174,1982,37,"w","Blue wildebeest",4,-25.03,32.01,400120.44,7231365.28
"88205",88205,1982,37,"w","Blue wildebeest",3,-24.95,32.01,400055.77,7240224.41
"88389",88389,1982,38,"w","Blue wildebeest",13,-24.95,31.82,380872.93,7240071.15
"88487",88487,1982,38,"w","Blue wildebeest",16,-25.03,31.86,384985.97,7231246.24
"88509",88509,1982,38,"w","Blue wildebeest",5,-24.99,31.84,382930.08,7235658.84
"88510",88510,1982,38,"w","Blue wildebeest",7,-24.99,31.84,382930.08,7235658.84
"88585",88585,1982,38,"w","Blue wildebeest",21,-25.06,31.88,387031.42,7227940.79
"88795",88795,1982,39,"w","Blue wildebeest",26,-25.1,31.26,324542.09,7222848.93
"88846",88846,1982,39,"w","Blue wildebeest",9,-25.01,31.26,324413.85,7232817.54
"88847",88847,1982,39,"w","Blue wildebeest",15,-25.01,31.26,324413.85,7232817.54
"88890",88890,1982,39,"w","Blue wildebeest",5,-25.03,31.28,326460.61,7230628.09
"88913",88913,1982,39,"w","Blue wildebeest",5,-24.99,31.26,324385.41,7235032.77
"89190",89190,1982,40,"w","Blue wildebeest",17,-25.2,31.23,321661.81,7211733.12
"89214",89214,1982,40,"w","Blue wildebeest",4,-25.37,31.28,326942.11,7192968.47
"89215",89215,1982,40,"w","Blue wildebeest",14,-25.37,31.28,326942.11,7192968.47
"89288",89288,1982,40,"w","Blue wildebeest",3,-25.22,31.26,324713.76,7209557.27
"89289",89289,1982,40,"w","Blue wildebeest",5,-25.22,31.26,324713.76,7209557.27
"89290",89290,1982,40,"w","Blue wildebeest",6,-25.22,31.26,324713.76,7209557.27
"89369",89369,1982,40,"w","Blue wildebeest",8,-25.35,31.3,328926.63,7195209.52
"89459",89459,1982,40,"w","Blue wildebeest",21,-25.24,31.3,328772.12,7207393.57
"89525",89525,1982,41,"w","Blue wildebeest",10,-25.26,31.32,330814.65,7205203.67
"89588",89588,1982,41,"w","Blue wildebeest",4,-25.37,31.36,334992.75,7193069.64
"89642",89642,1982,41,"w","Blue wildebeest",3,-25.22,31.36,334789.5,7209683.94
"89643",89643,1982,41,"w","Blue wildebeest",3,-25.22,31.36,334789.5,7209683.94
"89644",89644,1982,41,"w","Blue wildebeest",5,-25.22,31.36,334789.5,7209683.94
"89656",89656,1982,41,"w","Blue wildebeest",15,-25.24,31.36,334816.53,7207468.72
"89830",89830,1982,41,"w","Blue wildebeest",14,-25.16,31.38,336724.61,7216353.97
"89845",89845,1982,41,"w","Blue wildebeest",15,-25.12,31.38,336671.38,7220784.33
"90007",90007,1982,41,"w","Blue wildebeest",18,-25.26,31.46,344915.7,7205372.8
"90028",90028,1982,41,"w","Blue wildebeest",8,-25.22,31.46,344864.92,7209803.11
"90080",90080,1982,41,"w","Blue wildebeest",15,-25.2,31.48,346854.93,7212041.18
"90114",90114,1982,41,"w","Blue wildebeest",12,-25.16,31.46,344788.87,7216448.53
"90132",90132,1982,41,"w","Blue wildebeest",1,-25.16,31.48,346804.91,7216471.43
"90228",90228,1982,41,"w","Blue wildebeest",6,-25.12,31.51,349779.98,7220935.4
"90229",90229,1982,41,"w","Blue wildebeest",12,-25.12,31.51,349779.98,7220935.4
"90342",90342,1982,42,"w","Blue wildebeest",11,-25.12,31.53,351796.65,7220957.52
"90459",90459,1982,42,"w","Blue wildebeest",16,-25.14,31.55,353837.11,7218764.27
"90522",90522,1982,42,"w","Blue wildebeest",6,-25.1,31.55,353789.5,7223194.4
"90558",90558,1982,42,"w","Blue wildebeest",5,-25.12,31.55,353813.3,7220979.34
"90559",90559,1982,42,"w","Blue wildebeest",9,-25.12,31.55,353813.3,7220979.34
"90838",90838,1982,42,"w","Blue wildebeest",12,-25.12,31.59,357846.57,7221022.08
"91116",91116,1982,43,"w","Blue wildebeest",8,-25.1,31.48,346730.02,7223116.76
"91184",91184,1982,43,"w","Blue wildebeest",6,-25.01,31.48,346618.01,7233084.67
"91879",91879,1982,44,"w","Blue wildebeest",5,-25.22,31.69,368037.26,7210048.73
"91880",91880,1982,44,"w","Blue wildebeest",7,-25.22,31.69,368037.26,7210048.73
"91924",91924,1982,44,"w","Blue wildebeest",7,-25.24,31.69,368058.85,7207833.72
"91941",91941,1982,44,"w","Blue wildebeest",7,-25.18,31.69,367994.12,7214478.73
"91942",91942,1982,44,"w","Blue wildebeest",7,-25.18,31.69,367994.12,7214478.73
"92148",92148,1982,44,"w","Blue wildebeest",5,-25.2,31.71,370030.93,7212283.2
"92149",92149,1982,44,"w","Blue wildebeest",7,-25.2,31.71,370030.93,7212283.2
"92150",92150,1982,44,"w","Blue wildebeest",7,-25.2,31.71,370030.93,7212283.2
"92520",92520,1982,44,"w","Blue wildebeest",13,-25.35,31.86,385286.12,7195807.68
"92665",92665,1982,44,"w","Blue wildebeest",9,-25.35,31.88,387298.81,7195824.68
"92729",92729,1982,45,"w","Blue wildebeest",24,-25.26,31.8,379158.75,7205722.26
"92881",92881,1982,45,"w","Blue wildebeest",19,-25.28,31.86,385220.15,7203559.99
"92914",92914,1982,45,"w","Blue wildebeest",5,-25.24,31.84,383168.02,7207972.61
"92915",92915,1982,45,"w","Blue wildebeest",5,-25.24,31.84,383168.02,7207972.61
"92916",92916,1982,45,"w","Blue wildebeest",16,-25.24,31.84,383168.02,7207972.61
"92949",92949,1982,45,"w","Blue wildebeest",20,-25.18,31.86,385126.22,7214634.6
"93108",93108,1982,45,"w","Blue wildebeest",13,-25.33,31.88,387280.27,7198039.62
"93139",93139,1982,45,"w","Blue wildebeest",22,-25.22,31.88,387178.59,7210221.71
"93150",93150,1982,45,"w","Blue wildebeest",11,-25.24,31.88,387197.05,7208006.8
"93202",93202,1982,45,"w","Blue wildebeest",8,-25.14,31.88,387104.89,7219081.3
"93203",93203,1982,45,"w","Blue wildebeest",14,-25.14,31.88,387104.89,7219081.3
"93212",93212,1982,45,"w","Blue wildebeest",8,-25.14,31.9,389121.04,7219097.89
"93263",93263,1982,45,"w","Blue wildebeest",11,-25.12,31.88,387086.51,7221296.18
"93264",93264,1982,45,"w","Blue wildebeest",15,-25.12,31.88,387086.51,7221296.18
"93280",93280,1982,45,"w","Blue wildebeest",11,-25.12,31.9,389102.98,7221312.76
"93281",93281,1982,45,"w","Blue wildebeest",19,-25.12,31.9,389102.98,7221312.76
"93289",93289,1982,45,"w","Blue wildebeest",20,-25.26,31.94,393258,7205840.94
"93321",93321,1982,45,"w","Blue wildebeest",9,-25.22,31.94,393223.05,7210270.71
"93322",93322,1982,45,"w","Blue wildebeest",13,-25.22,31.94,393223.05,7210270.71
"93323",93323,1982,45,"w","Blue wildebeest",14,-25.22,31.94,393223.05,7210270.71
"93324",93324,1982,45,"w","Blue wildebeest",20,-25.22,31.94,393223.05,7210270.71
"93335",93335,1982,45,"w","Blue wildebeest",9,-25.24,31.92,391226.03,7208039.78
"93340",93340,1982,45,"w","Blue wildebeest",5,-25.24,31.94,393240.51,7208055.83
"93341",93341,1982,45,"w","Blue wildebeest",6,-25.24,31.94,393240.51,7208055.83
"93445",93445,1982,46,"w","Blue wildebeest",1,-25.33,31.9,389293.29,7198056.31
"93521",93521,1982,46,"w","Blue wildebeest",9,-25.33,31.92,391306.29,7198072.7
"93522",93522,1982,46,"w","Blue wildebeest",13,-25.33,31.92,391306.29,7198072.7
"93554",93554,1982,46,"w","Blue wildebeest",18,-25.26,31.94,393258,7205840.94
"93570",93570,1982,46,"w","Blue wildebeest",15,-25.22,31.94,393223.05,7210270.71
"93574",93574,1982,46,"w","Blue wildebeest",14,-25.24,31.94,393240.51,7208055.83
"93657",93657,1982,46,"w","Blue wildebeest",14,-25.41,31.96,395401.18,7189244.91
"93671",93671,1982,46,"w","Blue wildebeest",7,-25.41,31.98,397412.83,7189260.43
"93695",93695,1982,46,"w","Blue wildebeest",13,-25.35,31.96,395349.48,7195889.66
"93757",93757,1982,46,"w","Blue wildebeest",14,-25.31,31.96,395315.07,7200319.47
"93819",93819,1982,46,"w","Blue wildebeest",20,-25.26,31.96,395272.14,7205856.69
"93841",93841,1982,46,"w","Blue wildebeest",6,-25.26,31.98,397286.27,7205872.14
"93853",93853,1982,46,"w","Blue wildebeest",23,-25.28,31.96,395289.3,7203641.81
"94212",94212,1982,47,"w","Blue wildebeest",2,-22.72,31.17,312051.64,7486316.08
"94223",94223,1982,47,"w","Blue wildebeest",18,-22.7,31.17,312024.32,7488530.79
"94260",94260,1982,47,"w","Blue wildebeest",31,-22.68,31.21,316107.33,7490795.58
"94269",94269,1982,47,"w","Blue wildebeest",82,-22.7,31.21,316134.03,7488580.91
"94314",94314,1982,47,"w","Blue wildebeest",2,-22.68,31.26,321245.13,7490856.63
"94321",94321,1982,47,"w","Blue wildebeest",15,-22.7,31.28,323325.88,7488665.95
"94327",94327,1982,47,"w","Blue wildebeest",2,-22.66,31.28,323274.6,7493095.17
"94370",94370,1982,48,"w","Blue wildebeest",3,-22.91,31.23,318467.39,7465351.37
"94371",94371,1982,48,"w","Blue wildebeest",12,-22.91,31.23,318467.39,7465351.37
"94382",94382,1982,48,"w","Blue wildebeest",15,-22.85,31.23,318387.57,7471995.48
"94408",94408,1982,48,"w","Blue wildebeest",24,-22.89,31.26,321518.71,7467602.76
"94498",94498,1982,48,"w","Blue wildebeest",11,-22.83,31.32,327598.79,7474318.11
"94616",94616,1982,48,"w","Blue wildebeest",3,-22.87,31.38,333805.8,7469957.79
"94822",94822,1982,49,"w","Blue wildebeest",11,-22.99,31.4,336002.56,7456692.73
"94823",94823,1982,49,"w","Blue wildebeest",16,-22.99,31.4,336002.56,7456692.73
"94839",94839,1982,49,"w","Blue wildebeest",26,-22.91,31.4,335906.08,7465551.07
"94846",94846,1982,49,"w","Blue wildebeest",15,-23.01,31.42,338076.76,7454500.37
"94891",94891,1982,49,"w","Blue wildebeest",15,-22.93,31.44,340032.63,7463380.58
"94921",94921,1982,50,"w","Blue wildebeest",9,-23.03,31.38,334001.18,7452240.99
"94932",94932,1982,50,"w","Blue wildebeest",21,-23.1,31.44,340233.07,7444556.72
"94971",94971,1982,50,"w","Blue wildebeest",15,-23.1,31.46,342281.71,7444578.47
"94998",94998,1982,50,"w","Blue wildebeest",13,-23.08,31.46,342258.36,7446793.04
"95197",95197,1982,52,"w","Blue wildebeest",16,-23.14,31.19,314678.83,7439831.55
"95220",95220,1982,52,"w","Blue wildebeest",24,-23.06,31.17,312519.55,7448665.21
"95268",95268,1982,52,"w","Blue wildebeest",4,-23.14,31.23,318775.24,7439881.86
"95269",95269,1982,52,"w","Blue wildebeest",4,-23.14,31.23,318775.24,7439881.86
"95307",95307,1982,52,"w","Blue wildebeest",2,-23.18,31.26,321900.43,7435489.36
"95330",95330,1982,52,"w","Blue wildebeest",7,-23.14,31.28,323895.67,7439943.16
"95339",95339,1982,52,"w","Blue wildebeest",15,-23.16,31.26,321873.96,7437704.11
"95347",95347,1982,52,"w","Blue wildebeest",7,-23.12,31.26,321821.08,7442133.6
"95348",95348,1982,52,"w","Blue wildebeest",23,-23.12,31.26,321821.08,7442133.6
"95354",95354,1982,52,"w","Blue wildebeest",4,-23.12,31.28,323869.55,7442157.89
"95355",95355,1982,52,"w","Blue wildebeest",18,-23.12,31.28,323869.55,7442157.89
"95370",95370,1982,52,"w","Blue wildebeest",8,-23.14,31.3,325943.82,7439967.19
"95371",95371,1982,52,"w","Blue wildebeest",11,-23.14,31.3,325943.82,7439967.19
"95392",95392,1982,52,"w","Blue wildebeest",15,-23.1,31.3,325892.2,7444396.61
"95393",95393,1982,52,"w","Blue wildebeest",32,-23.1,31.3,325892.2,7444396.61
"95402",95402,1982,52,"w","Blue wildebeest",12,-23.1,31.32,327940.94,7444420.32
"95416",95416,1982,52,"w","Blue wildebeest",1,-23.12,31.3,325918,7442181.9
"95417",95417,1982,52,"w","Blue wildebeest",2,-23.12,31.3,325918,7442181.9
"95418",95418,1982,52,"w","Blue wildebeest",4,-23.12,31.3,325918,7442181.9
"95419",95419,1982,52,"w","Blue wildebeest",9,-23.12,31.3,325918,7442181.9
"95420",95420,1982,52,"w","Blue wildebeest",12,-23.12,31.3,325918,7442181.9
"95421",95421,1982,52,"w","Blue wildebeest",28,-23.12,31.3,325918,7442181.9
"95422",95422,1982,52,"w","Blue wildebeest",38,-23.12,31.3,325918,7442181.9
"95442",95442,1982,52,"w","Blue wildebeest",7,-23.12,31.32,327966.43,7442205.63
"95484",95484,1982,52,"w","Blue wildebeest",13,-23.1,31.34,329989.66,7444443.76
"95521",95521,1982,52,"w","Blue wildebeest",23,-23.06,31.36,331988.65,7448896.21
"95578",95578,1982,52,"w","Blue wildebeest",1,-23.08,31.38,334062.5,7446704.42
"95579",95579,1982,52,"w","Blue wildebeest",6,-23.08,31.38,334062.5,7446704.42
"95776",95776,1982,53,"w","Blue wildebeest",13,-23.01,31.03,298098.45,7454016.09
"95784",95784,1982,53,"w","Blue wildebeest",23,-23.03,31.03,298128.24,7451801.18
"95889",95889,1982,53,"w","Blue wildebeest",18,-23.12,31.09,304408.51,7441915.74
"95900",95900,1982,53,"w","Blue wildebeest",15,-23.12,31.11,306457.1,7441942.43
"96005",96005,1982,53,"w","Blue wildebeest",16,-23.14,31.17,312630.6,7439805.97
"96006",96006,1982,53,"w","Blue wildebeest",24,-23.14,31.17,312630.6,7439805.97
"96168",96168,1982,54,"w","Blue wildebeest",9,-22.91,31.07,302053.49,7465144.98
"96298",96298,1982,54,"w","Blue wildebeest",8,-23.03,31.19,314527.89,7452012.89
"96353",96353,1982,54,"w","Blue wildebeest",9,-23.01,31.23,318600.88,7454277.75
"96371",96371,1982,54,"w","Blue wildebeest",16,-22.97,31.23,318547.42,7458707.21
"96387",96387,1982,54,"w","Blue wildebeest",24,-22.99,31.23,318574.14,7456492.48
"96397",96397,1982,54,"w","Blue wildebeest",22,-23.01,31.28,323726.24,7454338.79
"96453",96453,1982,55,"w","Blue wildebeest",2,-22.87,31.01,295838.14,7469492.78
"96667",96667,1982,55,"w","Blue wildebeest",15,-22.87,31.13,308152.57,7469654.05
"96779",96779,1982,56,"w","Blue wildebeest",14,-25.35,31.4,338991.49,7195333.65
"96808",96808,1982,56,"w","Blue wildebeest",8,-25.33,31.42,340978.27,7197572.78
"97091",97091,1982,56,"w","Blue wildebeest",4,-25.33,31.55,354064.2,7197720.85
"97881",97881,1982,58,"w","Blue wildebeest",11,-25.14,31.65,363918.55,7218868.94
