"","ID","Year","Cenb","Sp","Description","No","Lat","Long","X.coord","Y.coord"
"176390",176390,1986,48,"st","Steenbuck",1,-22.76,31.3,325456.85,7482045.8
"176414",176414,1986,48,"st","Steenbuck",1,-22.72,31.39,334651.01,7486578.18
"176418",176418,1986,48,"st","Steenbuck",1,-22.77,31.33,328550.13,7480973.56
"176424",176424,1986,48,"st","Steenbuck",2,-22.79,31.3,325495.02,7478723.87
"176428",176428,1986,48,"st","Steenbuck",1,-22.8,31.26,321401.17,7477568.77
"176464",176464,1986,48,"st","Steenbuck",1,-22.79,31.31,326521.73,7478735.64
"176468",176468,1986,48,"st","Steenbuck",1,-22.78,31.34,329589.41,7479877.82
"176487",176487,1986,48,"st","Steenbuck",1,-22.8,31.31,326534.38,7477628.33
"176544",176544,1986,48,"st","Steenbuck",1,-22.76,31.41,336752.93,7482171.3
"176565",176565,1986,48,"st","Steenbuck",1,-22.82,31.34,329639.15,7475448.63
"176589",176589,1986,48,"st","Steenbuck",1,-22.87,31.25,320466.42,7469805.29
"176622",176622,1986,48,"st","Steenbuck",1,-22.83,31.39,334783.54,7474398.17
"176734",176734,1986,48,"st","Steenbuck",1,-22.83,31.4,335809.92,7474409.33
"176756",176756,1986,3,"st","Steenbuck",1,-23.96,31.36,333126.94,7349231.96
"177166",177166,1986,3,"st","Steenbuck",1,-23.98,31.33,330100.04,7346981.24
"177184",177184,1986,3,"st","Steenbuck",1,-24.01,31.28,325052.77,7343597.62
"177419",177419,1986,35,"st","Steenbuck",1,-24.87,31.7,368672.35,7248820.19
"177547",177547,1986,35,"st","Steenbuck",1,-24.93,31.68,366716.16,7242155.98
"177562",177562,1986,35,"st","Steenbuck",1,-24.93,31.73,371765.33,7242204.1
"177660",177660,1986,32,"st","Steenbuck",1,-24.53,31.45,342987.57,7286211.16
"177693",177693,1986,32,"st","Steenbuck",1,-24.57,31.49,347088.65,7281826.21
"177740",177740,1986,32,"st","Steenbuck",1,-24.48,31.5,347993.12,7291804.47
"177777",177777,1986,32,"st","Steenbuck",1,-24.47,31.53,351021.93,7292944.58
"177844",177844,1986,32,"st","Steenbuck",1,-24.46,31.55,353037.52,7294073.43
"177854",177854,1986,32,"st","Steenbuck",1,-24.51,31.56,354108.89,7288546.81
"177867",177867,1986,32,"st","Steenbuck",1,-24.55,31.57,355168.07,7284127.56
"177879",177879,1986,32,"st","Steenbuck",1,-24.48,31.58,356101.28,7291890.1
"178012",178012,1986,36,"st","Steenbuck",1,-24.8,31.7,368598.46,7256572.32
"178157",178157,1986,36,"st","Steenbuck",1,-24.83,31.81,379747.1,7253351.44
"178351",178351,1986,29,"st","Steenbuck",1,-24.51,31.82,380453.07,7288796.73
"178378",178378,1986,29,"st","Steenbuck",1,-24.52,31.84,382488.77,7287706.54
"178392",178392,1986,29,"st","Steenbuck",1,-24.55,31.84,382516.71,7284384.44
"178404",178404,1986,29,"st","Steenbuck",2,-24.55,31.83,381503.83,7284375.88
"178427",178427,1986,29,"st","Steenbuck",1,-24.57,31.84,382535.35,7282169.7
"178428",178428,1986,29,"st","Steenbuck",1,-24.57,31.85,383548.06,7282178.19
"178452",178452,1986,29,"st","Steenbuck",1,-24.6,31.81,379525.89,7278821.64
"178545",178545,1986,29,"st","Steenbuck",1,-24.64,31.85,383612.85,7274426.57
"178561",178561,1986,29,"st","Steenbuck",1,-24.66,31.88,386667.35,7272236.9
"178613",178613,1986,29,"st","Steenbuck",1,-24.66,31.9,388691.32,7272253.26
"178615",178615,1986,29,"st","Steenbuck",1,-24.67,31.9,388700.19,7271145.89
"178629",178629,1986,29,"st","Steenbuck",1,-24.69,31.91,389729.68,7268939.23
"178640",178640,1986,29,"st","Steenbuck",1,-24.67,31.89,387688.29,7271137.75
"178641",178641,1986,29,"st","Steenbuck",1,-24.67,31.89,387688.29,7271137.75
"178642",178642,1986,29,"st","Steenbuck",1,-24.67,31.89,387688.29,7271137.75
"178668",178668,1986,29,"st","Steenbuck",1,-24.71,31.86,384689.4,7266683.33
"179040",179040,1986,42,"st","Steenbuck",1,-25.23,31.61,359988.93,7208860.27
"179057",179057,1986,42,"st","Steenbuck",1,-25.21,31.6,358958.46,7211064.87
"179116",179116,1986,42,"st","Steenbuck",1,-25.2,31.58,356931.63,7212151.28
"179140",179140,1986,42,"st","Steenbuck",1,-25.22,31.52,350910.02,7209871.01
"179271",179271,1986,42,"st","Steenbuck",1,-25.14,31.6,358877.87,7218817.54
"179298",179298,1986,42,"st","Steenbuck",1,-25.15,31.54,352840.94,7217645.85
"179342",179342,1986,42,"st","Steenbuck",1,-25.14,31.56,354845.27,7218775.07
"179356",179356,1986,42,"st","Steenbuck",1,-25.13,31.56,354833.44,7219882.6
"179361",179361,1986,42,"st","Steenbuck",1,-25.12,31.57,355829.94,7221000.86
"179367",179367,1986,42,"st","Steenbuck",1,-25.11,31.59,357835,7222129.6
"179400",179400,1986,42,"st","Steenbuck",1,-25.12,31.56,354821.62,7220990.13
"179408",179408,1986,42,"st","Steenbuck",1,-25.12,31.55,353813.3,7220979.34
"179426",179426,1986,42,"st","Steenbuck",1,-25.1,31.58,356814.95,7223226.55
"179430",179430,1986,42,"st","Steenbuck",1,-25.1,31.57,355806.47,7223215.91
"179434",179434,1986,42,"st","Steenbuck",1,-25.11,31.56,354809.8,7222097.66
"179492",179492,1986,42,"st","Steenbuck",1,-25.1,31.56,354797.99,7223205.19
"179574",179574,1986,42,"st","Steenbuck",1,-25.09,31.53,351760.47,7224280.12
"179877",179877,1986,37,"st","Steenbuck",1,-24.86,31.89,387859.06,7250097.4
"179888",179888,1986,37,"st","Steenbuck",1,-24.84,31.89,387841.03,7252312.2
"179955",179955,1986,37,"st","Steenbuck",1,-25.13,32.02,401209.68,7220298.59
"179978",179978,1986,37,"st","Steenbuck",2,-25,32.02,401105.36,7234694.79
"180101",180101,1986,37,"st","Steenbuck",1,-24.94,32,399038.01,7241324.4
"180111",180111,1986,37,"st","Steenbuck",1,-24.92,32,399021.71,7243539.17
"180118",180118,1986,37,"st","Steenbuck",1,-24.93,32,399029.86,7242431.78
"180159",180159,1986,37,"st","Steenbuck",1,-25,31.98,397068.57,7234665.02
"180166",180166,1986,37,"st","Steenbuck",1,-25.01,31.99,398086.02,7233565.17
"180169",180169,1986,37,"st","Steenbuck",1,-25.01,31.99,398086.02,7233565.17
"180174",180174,1986,37,"st","Steenbuck",2,-25.02,31.98,397085.24,7232450.21
"180187",180187,1986,37,"st","Steenbuck",1,-25.04,31.99,398110.8,7230242.97
"180216",180216,1986,37,"st","Steenbuck",2,-25.07,31.97,396118.35,7226905.54
"180256",180256,1986,37,"st","Steenbuck",2,-25.11,31.97,396152.12,7222475.88
"180386",180386,1986,37,"st","Steenbuck",1,-24.99,31.95,394032.38,7235749.3
"180392",180392,1986,37,"st","Steenbuck",1,-24.98,31.95,394023.81,7236856.71
"180405",180405,1986,37,"st","Steenbuck",1,-24.96,31.97,396025.74,7239086.98
"180435",180435,1986,37,"st","Steenbuck",1,-24.94,31.92,390960.45,7241262.57
"180436",180436,1986,37,"st","Steenbuck",1,-24.93,31.92,390951.65,7242369.97
"180458",180458,1986,37,"st","Steenbuck",1,-24.92,31.95,393972.44,7243501.1
"180484",180484,1986,37,"st","Steenbuck",1,-24.92,31.93,391952.72,7243485.36
"180486",180486,1986,37,"st","Steenbuck",2,-24.92,31.93,391952.72,7243485.36
"180487",180487,1986,37,"st","Steenbuck",1,-24.92,31.93,391952.72,7243485.36
"180488",180488,1986,37,"st","Steenbuck",1,-24.92,31.93,391952.72,7243485.36
"180491",180491,1986,37,"st","Steenbuck",1,-24.92,31.93,391952.72,7243485.36
"180552",180552,1986,39,"st","Steenbuck",1,-24.99,31.26,324385.41,7235032.77
"180666",180666,1986,39,"st","Steenbuck",1,-25.02,31.31,329474.21,7231773.82
"180668",180668,1986,39,"st","Steenbuck",1,-25.02,31.3,328464.99,7231761.19
"180726",180726,1986,39,"st","Steenbuck",1,-25.05,31.36,334560.51,7228513.11
"180766",180766,1986,39,"st","Steenbuck",1,-25.06,31.33,331547.31,7227368.48
"180834",180834,1986,39,"st","Steenbuck",1,-25.09,31.29,327553.79,7223995.2
"180870",180870,1986,39,"st","Steenbuck",1,-25.1,31.31,329584.94,7222912.98
"180881",180881,1986,39,"st","Steenbuck",1,-25.12,31.26,324570.65,7220633.66
"180884",180884,1986,39,"st","Steenbuck",2,-25.13,31.28,326601.6,7219551.9
"180948",180948,1986,33,"st","Steenbuck",1,-24.77,31.63,361488.82,7259825.53
"180953",180953,1986,33,"st","Steenbuck",1,-24.78,31.61,359477.77,7258697.65
"180956",180956,1986,33,"st","Steenbuck",1,-24.78,31.61,359477.77,7258697.65
"180963",180963,1986,33,"st","Steenbuck",1,-24.76,31.62,360466.49,7260922.82
"180964",180964,1986,33,"st","Steenbuck",1,-24.76,31.63,361477.73,7260932.99
"180982",180982,1986,33,"st","Steenbuck",1,-24.74,31.67,365501.13,7263187.8
"181012",181012,1986,33,"st","Steenbuck",1,-24.72,31.62,360421.83,7265352.65
"181013",181013,1986,33,"st","Steenbuck",1,-24.73,31.62,360432.99,7264245.19
"181028",181028,1986,33,"st","Steenbuck",1,-24.69,31.64,362411.99,7268695.22
"181045",181045,1986,33,"st","Steenbuck",1,-24.69,31.61,359376.57,7268664.79
"181066",181066,1986,33,"st","Steenbuck",1,-24.66,31.61,359342.92,7271987.14
"181068",181068,1986,33,"st","Steenbuck",2,-24.66,31.62,360354.97,7271997.35
"181070",181070,1986,33,"st","Steenbuck",1,-24.68,31.62,360377.24,7269782.46
"181073",181073,1986,33,"st","Steenbuck",1,-24.67,31.63,361378.07,7270900.04
"181105",181105,1986,33,"st","Steenbuck",1,-24.66,31.61,359342.92,7271987.14
"181252",181252,1986,38,"st","Steenbuck",1,-24.97,31.77,375844.75,7237811.47
"181302",181302,1986,38,"st","Steenbuck",2,-24.95,31.78,376834.34,7240035.47
"181326",181326,1986,38,"st","Steenbuck",1,-24.9,31.77,375774.58,7245563.56
"181327",181327,1986,38,"st","Steenbuck",2,-24.89,31.78,376774.71,7246680.09
"181336",181336,1986,38,"st","Steenbuck",1,-24.91,31.78,376794.57,7244465.22
"181341",181341,1986,38,"st","Steenbuck",1,-24.92,31.78,376804.51,7243357.79
"181350",181350,1986,38,"st","Steenbuck",1,-24.97,31.8,378873.22,7237838.59
"181366",181366,1986,38,"st","Steenbuck",1,-24.98,31.81,379892.41,7236740.04
"181374",181374,1986,38,"st","Steenbuck",1,-24.96,31.81,379872.99,7238954.91
"181376",181376,1986,38,"st","Steenbuck",1,-24.97,31.81,379882.7,7237847.48
"181388",181388,1986,38,"st","Steenbuck",1,-24.94,31.83,381873.04,7241187.32
"181410",181410,1986,38,"st","Steenbuck",1,-24.99,31.87,385958.01,7235684.4
"181447",181447,1986,38,"st","Steenbuck",1,-24.99,31.89,387976.61,7235701.08
"181497",181497,1986,38,"st","Steenbuck",1,-25.09,31.92,391092.87,7224651.34
"181528",181528,1986,38,"st","Steenbuck",1,-25.06,31.87,386022.69,7227932.4
"181552",181552,1986,38,"st","Steenbuck",1,-25.02,31.94,393049.08,7232419.23
"181569",181569,1986,38,"st","Steenbuck",1,-25.05,31.86,385004.62,7229031.37
"181620",181620,1986,38,"st","Steenbuck",1,-25.01,31.78,376894.1,7233390.8
"181652",181652,1986,34,"st","Steenbuck",1,-24.76,31.85,383724.32,7261137.92
"181696",181696,1986,34,"st","Steenbuck",1,-24.75,31.77,375624.84,7262174.96
"181734",181734,1986,34,"st","Steenbuck",2,-24.62,31.76,374483.41,7276562.15
"181850",181850,1986,34,"st","Steenbuck",1,-24.66,31.73,371487.34,7272104.79
"181942",181942,1986,34,"st","Steenbuck",2,-24.67,31.73,371497.58,7270997.37
"181978",181978,1986,34,"st","Steenbuck",2,-24.68,31.7,368472.25,7269861.52
"182018",182018,1986,34,"st","Steenbuck",1,-24.68,31.73,371507.83,7269889.95
"182024",182024,1986,34,"st","Steenbuck",1,-24.69,31.75,373541.64,7268801.13
"182026",182026,1986,34,"st","Steenbuck",1,-24.69,31.77,375565.18,7268819.42
"182031",182031,1986,34,"st","Steenbuck",1,-24.71,31.76,374573.44,7266595.49
"182197",182197,1986,40,"st","Steenbuck",1,-25.17,31.31,329682.11,7215159.66
"182212",182212,1986,40,"st","Steenbuck",1,-25.15,31.24,322597.19,7217284.58
"182227",182227,1986,40,"st","Steenbuck",1,-25.16,31.21,319587.36,7216137.09
"182281",182281,1986,40,"st","Steenbuck",1,-25.18,31.29,327680.2,7214026.59
"182293",182293,1986,40,"st","Steenbuck",1,-25.17,31.34,332706.05,7215197.27
"182305",182305,1986,40,"st","Steenbuck",1,-25.19,31.36,334748.98,7213006.76
"182324",182324,1986,40,"st","Steenbuck",2,-25.2,31.32,330731.57,7211849.42
"182326",182326,1986,40,"st","Steenbuck",1,-25.2,31.31,329723.83,7211836.8
"182334",182334,1986,40,"st","Steenbuck",1,-25.2,31.31,329723.83,7211836.8
"182338",182338,1986,40,"st","Steenbuck",1,-25.21,31.31,329737.75,7210729.17
"182341",182341,1986,40,"st","Steenbuck",1,-25.2,31.3,328716.09,7211824.1
"182344",182344,1986,40,"st","Steenbuck",1,-25.19,31.3,328702.1,7212931.73
"182348",182348,1986,40,"st","Steenbuck",2,-25.2,31.29,327708.35,7211811.33
"182353",182353,1986,40,"st","Steenbuck",1,-25.2,31.27,325692.85,7211785.56
"182357",182357,1986,40,"st","Steenbuck",1,-25.21,31.27,325707.1,7210677.92
"182360",182360,1986,40,"st","Steenbuck",1,-25.21,31.28,326714.76,7210690.84
"182382",182382,1986,40,"st","Steenbuck",1,-25.19,31.23,321647.24,7212840.77
"182407",182407,1986,40,"st","Steenbuck",1,-25.22,31.29,327736.52,7209596.06
"182415",182415,1986,40,"st","Steenbuck",2,-25.23,31.31,329765.6,7208513.92
"182417",182417,1986,40,"st","Steenbuck",2,-25.23,31.32,330773.09,7208526.55
"182425",182425,1986,40,"st","Steenbuck",1,-25.24,31.3,328772.12,7207393.57
"182428",182428,1986,40,"st","Steenbuck",1,-25.23,31.28,326743.11,7208475.57
"182442",182442,1986,40,"st","Steenbuck",1,-25.25,31.27,325764.14,7206247.34
"182445",182445,1986,40,"st","Steenbuck",1,-25.25,31.27,325764.14,7206247.34
"182452",182452,1986,40,"st","Steenbuck",1,-25.26,31.3,328800.17,7205178.3
"182454",182454,1986,40,"st","Steenbuck",1,-25.26,31.28,326785.67,7205152.64
"182464",182464,1986,40,"st","Steenbuck",1,-25.28,31.3,328828.23,7202963.03
"182465",182465,1986,40,"st","Steenbuck",1,-25.28,31.3,328828.23,7202963.03
"182473",182473,1986,40,"st","Steenbuck",1,-25.29,31.26,324814.25,7201803.71
"182494",182494,1986,40,"st","Steenbuck",1,-25.3,31.28,326842.48,7200722.05
"182526",182526,1986,40,"st","Steenbuck",1,-25.34,31.3,328912.56,7196317.17
"182653",182653,1986,57,"st","Steenbuck",1,-25.09,31.72,370922.89,7224475.16
"182863",182863,1986,57,"st","Steenbuck",1,-23.38,31.03,298653.58,7413039.37
"182892",182892,1986,57,"st","Steenbuck",1,-23.32,31.01,296517.38,7419656.36
"182904",182904,1986,57,"st","Steenbuck",1,-23.38,31.11,306832.17,7413148.73
"183110",183110,1986,57,"st","Steenbuck",1,-23.4,31.17,312994.04,7411012.89
"183233",183233,1986,31,"st","Steenbuck",1,-24.41,31.73,371232.48,7299789.7
"183238",183238,1986,31,"st","Steenbuck",2,-24.39,31.72,370198.01,7301995.13
"183255",183255,1986,31,"st","Steenbuck",1,-24.39,31.7,368169.62,7301976.27
"183258",183258,1986,31,"st","Steenbuck",1,-24.39,31.69,367155.42,7301966.73
"183363",183363,1986,31,"st","Steenbuck",1,-24.42,31.74,372256.57,7298691.57
"183386",183386,1986,31,"st","Steenbuck",1,-24.45,31.77,375327.9,7295396.79
"183392",183392,1986,31,"st","Steenbuck",1,-24.45,31.77,375327.9,7295396.79
"183551",183551,1986,31,"st","Steenbuck",1,-24.46,31.75,373310.5,7294271.25
"183554",183554,1986,31,"st","Steenbuck",1,-24.45,31.75,373300.5,7295378.63
"183576",183576,1986,31,"st","Steenbuck",1,-24.49,31.76,374353.92,7290958.23
"183849",183849,1986,31,"st","Steenbuck",1,-24.58,31.72,370392.85,7280954.68
"183893",183893,1986,25,"st","Steenbuck",1,-24.16,31.78,376060.11,7327518.93
"183898",183898,1986,25,"st","Steenbuck",1,-24.17,31.8,378101.61,7326429.17
"183900",183900,1986,25,"st","Steenbuck",1,-24.17,31.83,381149.36,7326454.98
"183934",183934,1986,25,"st","Steenbuck",1,-24.11,31.74,371946.28,7333019.61
"183988",183988,1986,25,"st","Steenbuck",1,-24.12,31.74,371956.24,7331912.28
"183992",183992,1986,25,"st","Steenbuck",2,-24.11,31.74,371946.28,7333019.61
"184013",184013,1986,25,"st","Steenbuck",1,-24.08,31.76,373949.74,7336359.71
"184017",184017,1986,25,"st","Steenbuck",1,-24.08,31.75,372933.1,7336350.7
"184062",184062,1986,25,"st","Steenbuck",1,-24.04,31.81,378995.4,7340832.94
"184078",184078,1986,25,"st","Steenbuck",1,-24.07,31.77,374956.68,7337475.98
"184084",184084,1986,25,"st","Steenbuck",2,-24.07,31.75,372923.24,7337458.03
"184111",184111,1986,25,"st","Steenbuck",1,-24.04,31.8,377978.46,7340824.29
"184129",184129,1986,25,"st","Steenbuck",1,-24.04,31.79,376961.51,7340815.58
"184133",184133,1986,25,"st","Steenbuck",1,-24.04,31.77,374927.61,7340797.93
"184150",184150,1986,25,"st","Steenbuck",2,-24.06,31.74,371896.59,7338556.27
"184160",184160,1986,25,"st","Steenbuck",2,-24.04,31.77,374927.61,7340797.93
"184247",184247,1986,25,"st","Steenbuck",1,-24.02,31.77,374908.25,7343012.56
"184264",184264,1986,25,"st","Steenbuck",1,-24,31.8,377940.69,7345253.52
"184322",184322,1986,25,"st","Steenbuck",1,-23.98,31.78,375886.99,7347450.65
"184457",184457,1986,25,"st","Steenbuck",1,-24.1,31.86,384134.01,7334231.28
"184465",184465,1986,25,"st","Steenbuck",1,-24.1,31.85,383117.55,7334222.98
"184658",184658,1986,26,"st","Steenbuck",1,-24.17,31.76,374037.91,7326393.73
"184661",184661,1986,26,"st","Steenbuck",2,-24.17,31.79,377085.69,7326420.42
"184676",184676,1986,26,"st","Steenbuck",1,-24.18,31.76,374047.73,7325286.4
"184683",184683,1986,26,"st","Steenbuck",1,-24.19,31.76,374057.55,7324179.06
"184710",184710,1986,26,"st","Steenbuck",1,-24.2,31.77,375083.06,7323080.69
"184718",184718,1986,26,"st","Steenbuck",1,-24.2,31.74,372035.98,7323053.55
"184728",184728,1986,26,"st","Steenbuck",1,-24.22,31.78,376118.09,7320874.92
"184744",184744,1986,26,"st","Steenbuck",1,-24.24,31.81,379183.54,7318686.55
"184749",184749,1986,26,"st","Steenbuck",2,-24.25,31.8,378177.71,7317570.51
"184751",184751,1986,26,"st","Steenbuck",1,-24.25,31.78,376147.13,7317552.9
"184752",184752,1986,26,"st","Steenbuck",1,-24.25,31.78,376147.13,7317552.9
"184770",184770,1986,26,"st","Steenbuck",1,-24.26,31.79,377172.03,7316454.4
"184771",184771,1986,26,"st","Steenbuck",1,-24.26,31.8,378187.23,7316463.18
"184822",184822,1986,26,"st","Steenbuck",2,-24.28,31.84,382266.47,7314282.88
"184834",184834,1986,26,"st","Steenbuck",1,-24.28,31.86,384296.54,7314299.64
"184859",184859,1986,26,"st","Steenbuck",1,-24.3,31.76,374165.82,7311998.23
"185223",185223,1986,24,"st","Steenbuck",1,-24.37,31.75,373220.62,7304237.61
"185225",185225,1986,24,"st","Steenbuck",1,-24.36,31.74,372196.22,7305335.82
"185350",185350,1986,24,"st","Steenbuck",1,-24.36,31.71,369152.94,7305307.88
"185351",185351,1986,24,"st","Steenbuck",1,-24.36,31.71,369152.94,7305307.88
"185355",185355,1986,24,"st","Steenbuck",2,-24.36,31.71,369152.94,7305307.88
"185361",185361,1986,24,"st","Steenbuck",1,-24.37,31.72,370177.58,7304209.89
"185372",185372,1986,24,"st","Steenbuck",1,-24.35,31.73,371171.67,7306433.95
"185381",185381,1986,24,"st","Steenbuck",1,-24.34,31.71,369132.38,7307522.63
"185488",185488,1986,24,"st","Steenbuck",1,-24.32,31.73,371141.33,7309756.05
"185489",185489,1986,24,"st","Steenbuck",1,-24.31,31.72,370116.39,7310854.12
"186081",186081,1986,24,"st","Steenbuck",1,-22.75,31.01,295659.13,7482782.07
"186135",186135,1986,58,"st","Steenbuck",1,-25.06,31.65,363829.98,7227728.93
"186233",186233,1986,58,"st","Steenbuck",1,-25.1,31.69,367908.05,7223338.68
"186261",186261,1986,58,"st","Steenbuck",1,-25.08,31.68,366877.96,7225543.83
"186268",186268,1986,58,"st","Steenbuck",1,-25.06,31.68,366856.33,7227758.8
"186356",186356,1986,58,"st","Steenbuck",1,-25.04,31.74,372888.33,7230031.47
"186369",186369,1986,58,"st","Steenbuck",1,-25.06,31.75,373917.72,7227825.9
"186411",186411,1986,58,"st","Steenbuck",1,-25.06,31.78,376944,7227853.53
"186412",186412,1986,58,"st","Steenbuck",1,-25.06,31.77,375935.24,7227844.39
"186422",186422,1986,58,"st","Steenbuck",1,-25.05,31.78,376934.01,7228960.99
"186424",186424,1986,58,"st","Steenbuck",1,-25.03,31.77,375905.04,7231166.77
"186443",186443,1986,11,"st","Steenbuck",1,-23.41,31.21,317096.28,7409956.78
"186447",186447,1986,11,"st","Steenbuck",1,-23.41,31.22,318118.31,7409969.43
"186452",186452,1986,11,"st","Steenbuck",1,-23.41,31.22,318118.31,7409969.43
"186459",186459,1986,11,"st","Steenbuck",1,-23.4,31.23,319126.75,7411089.44
"186460",186460,1986,11,"st","Steenbuck",2,-23.39,31.23,319113.16,7412196.85
"186461",186461,1986,11,"st","Steenbuck",2,-23.4,31.24,320148.86,7411101.94
"186462",186462,1986,11,"st","Steenbuck",2,-23.39,31.24,320135.34,7412209.36
"186473",186473,1986,11,"st","Steenbuck",1,-23.37,31.27,323175.32,7414461.24
"186477",186477,1986,11,"st","Steenbuck",1,-23.38,31.28,324210.84,7413366.06
"186480",186480,1986,11,"st","Steenbuck",2,-23.37,31.28,324197.64,7414473.46
"186482",186482,1986,11,"st","Steenbuck",1,-23.36,31.27,323162.06,7415568.64
"186486",186486,1986,11,"st","Steenbuck",1,-23.36,31.3,326229.24,7415605.05
"186493",186493,1986,11,"st","Steenbuck",2,-23.35,31.27,323148.8,7416676.03
"186508",186508,1986,11,"st","Steenbuck",1,-23.36,31.23,319072.43,7415519.1
"186552",186552,1986,11,"st","Steenbuck",1,-23.32,31.23,319018.2,7419948.74
"186554",186554,1986,11,"st","Steenbuck",1,-23.32,31.24,320040.92,7419961.21
"186558",186558,1986,11,"st","Steenbuck",1,-23.3,31.27,323082.58,7422212.99
"186560",186560,1986,11,"st","Steenbuck",1,-23.31,31.22,317981.85,7421043.6
"186564",186564,1986,11,"st","Steenbuck",1,-23.3,31.24,320013.99,7422176.01
"186590",186590,1986,11,"st","Steenbuck",1,-23.26,31.26,322006.54,7426630.3
"186593",186593,1986,11,"st","Steenbuck",1,-23.26,31.25,320983.37,7426617.99
"186607",186607,1986,11,"st","Steenbuck",1,-23.24,31.27,323003.3,7428857.3
"186726",186726,1986,22,"st","Steenbuck",1,-24.26,31.47,344683.99,7316135.16
"186754",186754,1986,22,"st","Steenbuck",1,-24.29,31.47,344720.47,7312812.83
"186755",186755,1986,22,"st","Steenbuck",1,-24.29,31.48,345735.53,7312823.95
"186759",186759,1986,22,"st","Steenbuck",1,-24.31,31.46,343729.91,7310586.75
"186766",186766,1986,22,"st","Steenbuck",1,-24.33,31.46,343754.44,7308371.84
"186769",186769,1986,22,"st","Steenbuck",1,-24.33,31.5,347813.39,7308416.22
"186829",186829,1986,22,"st","Steenbuck",2,-24.26,31.56,353821.55,7316232.49
"186888",186888,1986,22,"st","Steenbuck",1,-24.47,31.4,337844.82,7292798.32
"186899",186899,1986,22,"st","Steenbuck",2,-24.48,31.4,337857.64,7291690.83
"186900",186900,1986,22,"st","Steenbuck",1,-24.48,31.41,338871.2,7291702.52
"186912",186912,1986,22,"st","Steenbuck",1,-24.46,31.42,339859.45,7293929.11
"187226",187226,1986,22,"st","Steenbuck",1,-24.35,31.56,353924.67,7306265.74
"187336",187336,1986,22,"st","Steenbuck",1,-24.34,31.46,343766.7,7307264.39
"187362",187362,1986,22,"st","Steenbuck",1,-24.35,31.43,340735.21,7306122.87
"187363",187363,1986,22,"st","Steenbuck",2,-24.35,31.43,340735.21,7306122.87
"187389",187389,1986,22,"st","Steenbuck",2,-24.37,31.42,339745.81,7303896.42
"187422",187422,1986,22,"st","Steenbuck",1,-24.37,31.41,338731.37,7303884.84
"187570",187570,1986,22,"st","Steenbuck",1,-24.41,31.47,344866.82,7299523.4
"187612",187612,1986,12,"st","Steenbuck",1,-23.28,30.99,294410.25,7424058.12
"187621",187621,1986,12,"st","Steenbuck",1,-23.2,30.96,291216.33,7432875.37
"187629",187629,1986,12,"st","Steenbuck",1,-23.18,30.95,290161.35,7435076
"187635",187635,1986,12,"st","Steenbuck",1,-23.21,30.97,292255.54,7431782.19
"187643",187643,1986,12,"st","Steenbuck",1,-23.23,30.97,292286.5,7429567.17
"187645",187645,1986,12,"st","Steenbuck",1,-23.24,30.98,293325.42,7428473.94
"187689",187689,1986,12,"st","Steenbuck",1,-23.23,30.99,294333.52,7429595.65
"187696",187696,1986,12,"st","Steenbuck",3,-23.21,30.98,293279.21,7431796.46
"187717",187717,1986,12,"st","Steenbuck",1,-23.21,30.99,294302.87,7431810.65
"187718",187718,1986,12,"st","Steenbuck",1,-23.21,30.99,294302.87,7431810.65
"187767",187767,1986,12,"st","Steenbuck",2,-23.18,30.98,293233.05,7435118.96
"187769",187769,1986,12,"st","Steenbuck",1,-23.18,30.98,293233.05,7435118.96
"187782",187782,1986,12,"st","Steenbuck",1,-23.21,31.01,296350.18,7431838.83
"187783",187783,1986,12,"st","Steenbuck",1,-23.21,31.01,296350.18,7431838.83
"187786",187786,1986,12,"st","Steenbuck",2,-23.22,31.01,296365.35,7430731.34
"187790",187790,1986,12,"st","Steenbuck",1,-23.22,31.01,296365.35,7430731.34
"187821",187821,1986,12,"st","Steenbuck",1,-23.24,31.03,298442.54,7428544.27
"187841",187841,1986,12,"st","Steenbuck",1,-23.25,31.04,299480.91,7427450.65
"187843",187843,1986,12,"st","Steenbuck",1,-23.27,31.05,300534.02,7425249.48
"187844",187844,1986,12,"st","Steenbuck",1,-23.27,31.05,300534.02,7425249.48
"187847",187847,1986,12,"st","Steenbuck",1,-23.26,31.06,301542.38,7426370.68
"187854",187854,1986,12,"st","Steenbuck",1,-23.23,31.04,299451,7429665.61
"187857",187857,1986,12,"st","Steenbuck",1,-23.22,31.03,298412.49,7430759.24
"187858",187858,1986,12,"st","Steenbuck",1,-23.21,31.03,298397.48,7431866.72
"187874",187874,1986,12,"st","Steenbuck",2,-23.25,31.06,301527.57,7427478.15
"187884",187884,1986,12,"st","Steenbuck",1,-23.27,31.07,302580.37,7425276.86
"187915",187915,1986,12,"st","Steenbuck",1,-23.2,31.06,301453.61,7433015.5
"187921",187921,1986,12,"st","Steenbuck",1,-23.22,31.06,301483.17,7430800.56
"187922",187922,1986,12,"st","Steenbuck",2,-23.22,31.07,302506.73,7430814.2
"187939",187939,1986,12,"st","Steenbuck",1,-23.23,31.08,303544.91,7429720.3
"187998",187998,1986,12,"st","Steenbuck",1,-23.28,31.12,307710.52,7424236.64
"188061",188061,1986,12,"st","Steenbuck",1,-23.24,31.13,308676.47,7428679.64
"188191",188191,1986,12,"st","Steenbuck",1,-23.22,31.17,312742.02,7430946.66
"188294",188294,1986,9,"st","Steenbuck",1,-23.6,31.17,313276.23,7388863.79
"188310",188310,1986,9,"st","Steenbuck",1,-23.54,31.13,309107.1,7395455.88
"188319",188319,1986,9,"st","Steenbuck",1,-23.5,31.09,304963.85,7399832.03
"188389",188389,1986,9,"st","Steenbuck",1,-23.48,31.09,304934.4,7402047
"188424",188424,1986,9,"st","Steenbuck",1,-23.53,31.16,312156.07,7396602.97
"188446",188446,1986,9,"st","Steenbuck",1,-23.48,31.11,306977.49,7402074.01
"188493",188493,1986,9,"st","Steenbuck",1,-23.48,31.13,309020.56,7402100.73
"188505",188505,1986,9,"st","Steenbuck",1,-23.48,31.14,310042.08,7402113.98
"188519",188519,1986,9,"st","Steenbuck",1,-23.55,31.22,318310.28,7394465.39
"188541",188541,1986,9,"st","Steenbuck",1,-23.53,31.25,321346.1,7396717.95
"188542",188542,1986,9,"st","Steenbuck",4,-23.52,31.25,321332.6,7397825.38
"188575",188575,1986,9,"st","Steenbuck",1,-23.45,31.14,309999.12,7405436.37
"188622",188622,1986,9,"st","Steenbuck",3,-23.5,31.21,317220.26,7399989.88
"188765",188765,1986,8,"st","Steenbuck",1,-23.47,31.29,325351.36,7403411.64
"188785",188785,1986,8,"st","Steenbuck",1,-23.47,31.31,327394.45,7403435.79
"188829",188829,1986,8,"st","Steenbuck",2,-23.48,31.34,330471.83,7402364.1
"188848",188848,1986,8,"st","Steenbuck",1,-23.5,31.28,324369.57,7400077.23
"188862",188862,1986,8,"st","Steenbuck",1,-23.51,31.29,325404.07,7398982.02
"188870",188870,1986,8,"st","Steenbuck",1,-23.49,31.35,331505.99,7401268.47
"188889",188889,1986,8,"st","Steenbuck",1,-23.52,31.3,326438.42,7397886.74
"188906",188906,1986,8,"st","Steenbuck",1,-23.5,31.38,334582.57,7400195.97
"188916",188916,1986,8,"st","Steenbuck",2,-23.53,31.3,326451.54,7396779.34
"188927",188927,1986,8,"st","Steenbuck",1,-23.54,31.3,326464.67,7395671.93
"188929",188929,1986,8,"st","Steenbuck",1,-23.53,31.31,327472.62,7396791.4
"188933",188933,1986,8,"st","Steenbuck",1,-23.52,31.33,329501.87,7397922.7
"188958",188958,1986,8,"st","Steenbuck",1,-23.53,31.33,329514.76,7396815.31
"188963",188963,1986,8,"st","Steenbuck",1,-23.55,31.3,326477.79,7394564.52
"188964",188964,1986,8,"st","Steenbuck",1,-23.56,31.3,326490.93,7393457.11
"188970",188970,1986,8,"st","Steenbuck",1,-23.56,31.28,324449.23,7393432.75
"188971",188971,1986,8,"st","Steenbuck",1,-23.56,31.28,324449.23,7393432.75
"188975",188975,1986,8,"st","Steenbuck",1,-23.55,31.32,328519.64,7394588.59
"188984",188984,1986,8,"st","Steenbuck",1,-23.53,31.36,332577.95,7396850.64
"189005",189005,1986,8,"st","Steenbuck",1,-23.53,31.41,337683.19,7396908.11
"189021",189021,1986,8,"st","Steenbuck",1,-23.53,31.38,334620.06,7396873.84
"189055",189055,1986,30,"st","Steenbuck",2,-24.6,31.99,397750.22,7278967.31
"189215",189215,1986,30,"st","Steenbuck",1,-24.68,31.98,396803.53,7270101.06
"189219",189219,1986,30,"st","Steenbuck",1,-24.66,31.97,395775.11,7272308.21
"189232",189232,1986,30,"st","Steenbuck",1,-24.67,31.96,394771.54,7271193.22
"189255",189255,1986,30,"st","Steenbuck",1,-24.67,31.93,391735.87,7271169.89
"189297",189297,1986,30,"st","Steenbuck",1,-24.7,31.97,395808.37,7267878.79
"189306",189306,1986,30,"st","Steenbuck",1,-24.69,31.99,397823.49,7269001.19
"189308",189308,1986,30,"st","Steenbuck",1,-24.7,31.98,396820,7267886.35
"189313",189313,1986,30,"st","Steenbuck",1,-24.71,31.97,395816.69,7266771.43
"189320",189320,1986,30,"st","Steenbuck",1,-24.71,31.96,394805.13,7266763.79
"189347",189347,1986,30,"st","Steenbuck",1,-24.71,31.93,391770.43,7266740.43
"189351",189351,1986,30,"st","Steenbuck",1,-24.72,31.93,391779.08,7265633.06
"189397",189397,1986,30,"st","Steenbuck",1,-24.73,31.97,395833.34,7264556.7
"189400",189400,1986,30,"st","Steenbuck",1,-24.73,31.97,395833.34,7264556.7
"189405",189405,1986,30,"st","Steenbuck",1,-24.74,31.97,395841.67,7263449.34
"189406",189406,1986,30,"st","Steenbuck",1,-24.74,31.98,396852.98,7263456.91
"189407",189407,1986,30,"st","Steenbuck",1,-24.73,31.98,396844.73,7264564.27
"189410",189410,1986,30,"st","Steenbuck",1,-24.73,31.98,396844.73,7264564.27
"189422",189422,1986,30,"st","Steenbuck",1,-24.75,31.99,397872.47,7262357.05
"189471",189471,1986,30,"st","Steenbuck",1,-24.77,31.95,393844.53,7260111.86
"189511",189511,1986,30,"st","Steenbuck",1,-24.77,31.93,391822.36,7260096.18
"189538",189538,1986,30,"st","Steenbuck",1,-24.78,31.92,390820.03,7258980.85
"189644",189644,1986,30,"st","Steenbuck",1,-24.51,31.99,397677.21,7288933.31
"190010",190010,1986,46,"st","Steenbuck",1,-25.22,31.95,394230.45,7210278.62
"190060",190060,1986,46,"st","Steenbuck",1,-25.24,31.96,395254.99,7208071.57
"190072",190072,1986,46,"st","Steenbuck",1,-25.27,31.97,396287.71,7204757.01
"190082",190082,1986,46,"st","Steenbuck",1,-25.26,31.94,393258,7205840.94
"190086",190086,1986,46,"st","Steenbuck",1,-25.27,31.96,395280.72,7204749.25
"190097",190097,1986,46,"st","Steenbuck",2,-25.29,31.97,396304.71,7202542.13
"190113",190113,1986,46,"st","Steenbuck",2,-25.29,31.95,394291.07,7202526.51
"190167",190167,1986,46,"st","Steenbuck",1,-25.32,31.93,392303.94,7199188.23
"190358",190358,1986,27,"st","Steenbuck",1,-24.33,31.98,396517.33,7308857.56
"190399",190399,1986,27,"st","Steenbuck",1,-24.38,31.96,394529.56,7303305.97
"190584",190584,1986,27,"st","Steenbuck",1,-24.29,31.91,389380.33,7313232.94
"190613",190613,1986,27,"st","Steenbuck",1,-24.27,31.86,384287.48,7315406.97
"190661",190661,1986,27,"st","Steenbuck",1,-24.25,31.87,385284.64,7317629.87
"190663",190663,1986,27,"st","Steenbuck",1,-24.25,31.9,388330.43,7317654.22
"190664",190664,1986,27,"st","Steenbuck",1,-24.25,31.91,389345.69,7317662.19
"190690",190690,1986,27,"st","Steenbuck",1,-24.23,31.88,386282.13,7319852.69
"190691",190691,1986,27,"st","Steenbuck",1,-24.23,31.89,387297.55,7319860.8
"190692",190692,1986,27,"st","Steenbuck",1,-24.23,31.9,388312.97,7319868.84
"190693",190693,1986,27,"st","Steenbuck",1,-24.23,31.9,388312.97,7319868.84
"190712",190712,1986,27,"st","Steenbuck",1,-24.22,31.85,383226.73,7320935.24
"190717",190717,1986,27,"st","Steenbuck",1,-24.21,31.87,385248.78,7322059.14
"190726",190726,1986,27,"st","Steenbuck",1,-24.2,31.86,384224.16,7323158.2
"190732",190732,1986,27,"st","Steenbuck",1,-24.19,31.87,385230.88,7324273.76
"190734",190734,1986,27,"st","Steenbuck",1,-24.19,31.88,386246.62,7324281.94
"190743",190743,1986,27,"st","Steenbuck",1,-24.18,31.87,385221.93,7325381.07
"190786",190786,1986,28,"st","Steenbuck",1,-24.58,31.89,387607.83,7281104.05
"191150",191150,1986,28,"st","Steenbuck",1,-24.42,31.8,378340.2,7298745.58
"191491",191491,1986,53,"st","Steenbuck",1,-23.19,31.17,312700.19,7434268.91
"191903",191903,1986,53,"st","Steenbuck",1,-23.1,30.99,294134.75,7443993.07
"191904",191904,1986,53,"st","Steenbuck",1,-23.11,30.98,293125.58,7442871.44
"191905",191905,1986,53,"st","Steenbuck",1,-23.11,30.99,294150,7442885.58
"192025",192025,1986,53,"st","Steenbuck",1,-23.02,30.93,287862.24,7452767.24
"192040",192040,1986,53,"st","Steenbuck",1,-23.09,30.91,285922.77,7444985.49
"192057",192057,1986,53,"st","Steenbuck",1,-25.38,31.59,358148.91,7192226.09
"192518",192518,1986,45,"st","Steenbuck",1,-25.12,31.91,390111.21,7221320.95
"192549",192549,1986,45,"st","Steenbuck",1,-25.11,31.88,387077.32,7222403.62
"192557",192557,1986,45,"st","Steenbuck",1,-25.12,31.91,390111.21,7221320.95
"192559",192559,1986,45,"st","Steenbuck",1,-25.12,31.89,388094.74,7221304.51
"192560",192560,1986,45,"st","Steenbuck",2,-25.13,31.91,390120.16,7220213.51
"192627",192627,1986,45,"st","Steenbuck",1,-25.14,31.89,388112.97,7219089.63
"192642",192642,1986,45,"st","Steenbuck",1,-25.12,31.85,384061.78,7221270.74
"192656",192656,1986,45,"st","Steenbuck",1,-25.13,31.85,384071.22,7220163.29
"192726",192726,1986,45,"st","Steenbuck",1,-25.15,31.87,386106.1,7217965.44
"192733",192733,1986,45,"st","Steenbuck",1,-25.16,31.9,389139.11,7216883.01
"192734",192734,1986,45,"st","Steenbuck",1,-25.16,31.9,389139.11,7216883.01
"192771",192771,1986,45,"st","Steenbuck",1,-25.16,31.86,385107.47,7216849.5
"192791",192791,1986,45,"st","Steenbuck",1,-25.16,31.85,384099.56,7216840.94
"192806",192806,1986,45,"st","Steenbuck",1,-25.16,31.85,384099.56,7216840.94
"192866",192866,1986,45,"st","Steenbuck",1,-25.17,31.8,379069.81,7215689.53
"192882",192882,1986,45,"st","Steenbuck",2,-25.18,31.8,379079.68,7214582.06
"192919",192919,1986,45,"st","Steenbuck",1,-25.19,31.84,383120.26,7213509.93
"192954",192954,1986,45,"st","Steenbuck",1,-25.21,31.93,392206.83,7211370.17
"193008",193008,1986,45,"st","Steenbuck",1,-25.21,31.78,377094.26,7211241.52
"193125",193125,1986,45,"st","Steenbuck",1,-25.22,31.87,386171.17,7210213.28
"193140",193140,1986,45,"st","Steenbuck",2,-25.25,31.9,389220.61,7206915.99
"193144",193144,1986,45,"st","Steenbuck",1,-25.26,31.92,391243.84,7205824.89
"193171",193171,1986,45,"st","Steenbuck",1,-25.27,31.92,391252.76,7204717.43
"193175",193175,1986,45,"st","Steenbuck",1,-25.28,31.92,391261.67,7203609.98
"193289",193289,1986,41,"st","Steenbuck",1,-25.23,31.48,346892.49,7208718.47
"193345",193345,1986,41,"st","Steenbuck",1,-25.23,31.46,344877.61,7208695.53
"193383",193383,1986,41,"st","Steenbuck",1,-25.17,31.48,346817.41,7215363.87
"193385",193385,1986,41,"st","Steenbuck",1,-25.18,31.47,345822.06,7214244.89
"193390",193390,1986,41,"st","Steenbuck",1,-25.18,31.46,344814.2,7214233.4
"193407",193407,1986,41,"st","Steenbuck",1,-25.12,31.46,344738.27,7220878.79
"193424",193424,1986,41,"st","Steenbuck",1,-25.18,31.45,343806.35,7214221.83
"193425",193425,1986,41,"st","Steenbuck",1,-25.18,31.45,343806.35,7214221.83
"193438",193438,1986,41,"st","Steenbuck",1,-25.22,31.46,344864.92,7209803.11
"193626",193626,1986,41,"st","Steenbuck",1,-25.12,31.38,336671.38,7220784.33
"193727",193727,1986,41,"st","Steenbuck",1,-25.23,31.36,334803.01,7208576.33
"193734",193734,1986,41,"st","Steenbuck",1,-25.24,31.36,334816.53,7207468.72
"193758",193758,1986,41,"st","Steenbuck",2,-25.25,31.34,332815.43,7206336.35
"193760",193760,1986,41,"st","Steenbuck",1,-25.25,31.33,331808.11,7206323.86
"193786",193786,1986,41,"st","Steenbuck",1,-25.27,31.38,336871.41,7204170.34
"193787",193787,1986,41,"st","Steenbuck",1,-25.27,31.39,337878.54,7204182.47
"193791",193791,1986,41,"st","Steenbuck",1,-25.28,31.41,339905.93,7203098.88
"193823",193823,1986,41,"st","Steenbuck",1,-25.29,31.37,335891.19,7201942.92
"193852",193852,1986,41,"st","Steenbuck",2,-25.3,31.35,333890.86,7200810.66
"193881",193881,1986,41,"st","Steenbuck",1,-25.33,31.38,336951.73,7197524.66
"194066",194066,1986,43,"st","Steenbuck",1,-25.01,31.41,339553.22,7233003.59
"194091",194091,1986,43,"st","Steenbuck",1,-25.04,31.41,339592.23,7229680.9
"194220",194220,1986,43,"st","Steenbuck",1,-25.05,31.47,345658.83,7228643.13
"194647",194647,1986,20,"st","Steenbuck",1,-24.08,31.45,342432.53,7336046.56
"194712",194712,1986,20,"st","Steenbuck",1,-24.08,31.51,348532.86,7336112.61
"194767",194767,1986,20,"st","Steenbuck",1,-24.06,31.55,352576.82,7338369.96
"194784",194784,1986,20,"st","Steenbuck",1,-24.05,31.57,354599.26,7339498.18
"194785",194785,1986,20,"st","Steenbuck",1,-24.04,31.57,354587.99,7340605.56
"194790",194790,1986,20,"st","Steenbuck",1,-24.05,31.58,355616.19,7339508.49
"194794",194794,1986,20,"st","Steenbuck",1,-24.07,31.59,356655.34,7337303.98
"194795",194795,1986,20,"st","Steenbuck",1,-24.07,31.58,355638.57,7337293.74
"194797",194797,1986,20,"st","Steenbuck",2,-24.08,31.59,356666.46,7336196.61
"194798",194798,1986,20,"st","Steenbuck",1,-24.09,31.59,356677.58,7335089.23
"194833",194833,1986,20,"st","Steenbuck",1,-24.03,31.62,359662.14,7341763.73
"194858",194858,1986,20,"st","Steenbuck",1,-24.05,31.66,363751.51,7339588.36
"194948",194948,1986,19,"st","Steenbuck",1,-23.66,31.69,366402.82,7382802.38
"194954",194954,1986,19,"st","Steenbuck",2,-23.68,31.68,365403.36,7380578.4
"194956",194956,1986,19,"st","Steenbuck",1,-23.69,31.68,365413.61,7379471.11
"194983",194983,1986,19,"st","Steenbuck",1,-23.74,31.67,364445.59,7373925.12
"195011",195011,1986,19,"st","Steenbuck",1,-23.81,31.71,368593.26,7366211.58
"195021",195021,1986,19,"st","Steenbuck",1,-23.82,31.72,369622.02,7365113.5
"195022",195022,1986,19,"st","Steenbuck",1,-23.83,31.73,370650.63,7364015.36
"195033",195033,1986,19,"st","Steenbuck",1,-23.79,31.72,369592.06,7368435.4
"195034",195034,1986,19,"st","Steenbuck",1,-23.79,31.72,369592.06,7368435.4
"195036",195036,1986,19,"st","Steenbuck",1,-23.76,31.7,367523.81,7371738.79
"195040",195040,1986,19,"st","Steenbuck",1,-23.75,31.7,367513.69,7372846.09
"195118",195118,1986,19,"st","Steenbuck",1,-23.79,31.66,363478.45,7368379
"195125",195125,1986,19,"st","Steenbuck",1,-23.81,31.67,364518.14,7366173.96
"195193",195193,1986,19,"st","Steenbuck",2,-23.9,31.7,367665.95,7356236.48
"195216",195216,1986,19,"st","Steenbuck",1,-23.86,31.73,370680.4,7360693.46
"195305",195305,1986,19,"st","Steenbuck",1,-23.89,31.78,375800.89,7357416.35
"195399",195399,1986,19,"st","Steenbuck",1,-23.95,31.84,381964.16,7350824.05
"195466",195466,1986,44,"st","Steenbuck",1,-25.27,31.62,361041.86,7204440.53
"195491",195491,1986,44,"st","Steenbuck",1,-25.26,31.64,363044.76,7205568.62
"195563",195563,1986,44,"st","Steenbuck",1,-25.2,31.68,367008.06,7212253.88
"195602",195602,1986,44,"st","Steenbuck",1,-25.21,31.69,368026.47,7211156.23
"195647",195647,1986,44,"st","Steenbuck",1,-25.3,31.71,370137.31,7201208.18
"195668",195668,1986,44,"st","Steenbuck",1,-25.21,31.71,370041.55,7211175.71
"195977",195977,1986,2,"st","Steenbuck",1,-23.9,31.56,353412.66,7356098.37
"195979",195979,1986,2,"st","Steenbuck",1,-23.91,31.56,353423.94,7354991.01
"195994",195994,1986,2,"st","Steenbuck",1,-23.92,31.56,353435.22,7353883.65
"196003",196003,1986,2,"st","Steenbuck",1,-23.94,31.55,352440,7351658.5
"196020",196020,1986,2,"st","Steenbuck",1,-23.94,31.53,350404.39,7351637.45
"196037",196037,1986,2,"st","Steenbuck",2,-23.87,31.53,350323.79,7359389.05
"196044",196044,1986,2,"st","Steenbuck",1,-23.9,31.52,349340.18,7356056.32
"196089",196089,1986,2,"st","Steenbuck",1,-23.89,31.5,347292.18,7357142.24
"196101",196101,1986,2,"st","Steenbuck",1,-23.87,31.5,347268.7,7359357
"196104",196104,1986,2,"st","Steenbuck",2,-23.88,31.5,347280.44,7358249.62
"196146",196146,1986,2,"st","Steenbuck",1,-23.9,31.42,339158.77,7355946.14
"196168",196168,1986,2,"st","Steenbuck",1,-23.91,31.37,334080.72,7354780.92
"196218",196218,1986,2,"st","Steenbuck",1,-24,31.52,349456.32,7344982.51
"196343",196343,1986,47,"st","Steenbuck",2,-22.62,31.23,318083.4,7497464.14
"196345",196345,1986,47,"st","Steenbuck",1,-22.62,31.22,317055.39,7497451.89
"196374",196374,1986,47,"st","Steenbuck",2,-22.63,31.25,320152.42,7496381.13
"196375",196375,1986,47,"st","Steenbuck",1,-22.63,31.25,320152.42,7496381.13
"196378",196378,1986,47,"st","Steenbuck",2,-22.64,31.22,317081.87,7495237.24
"196379",196379,1986,47,"st","Steenbuck",1,-22.65,31.22,317095.12,7494129.91
"196380",196380,1986,47,"st","Steenbuck",1,-22.65,31.19,314011.73,7494092.7
"196381",196381,1986,47,"st","Steenbuck",1,-22.65,31.27,322234.02,7494190.55
"196384",196384,1986,47,"st","Steenbuck",1,-22.65,31.25,320178.47,7494166.5
"196393",196393,1986,47,"st","Steenbuck",1,-22.66,31.19,314025.21,7492985.36
"196394",196394,1986,47,"st","Steenbuck",1,-22.66,31.18,312997.48,7492972.81
"196399",196399,1986,47,"st","Steenbuck",1,-22.66,31.17,311969.75,7492960.2
"196402",196402,1986,47,"st","Steenbuck",1,-22.66,31.15,309914.27,7492934.76
"196558",196558,1986,13,"st","Steenbuck",1,-23.61,31.46,342883.59,7388104.98
"196590",196590,1986,13,"st","Steenbuck",1,-23.64,31.49,345979.88,7384815.58
"196591",196591,1986,13,"st","Steenbuck",1,-23.64,31.49,345979.88,7384815.58
"196593",196593,1986,13,"st","Steenbuck",1,-23.64,31.55,352100.8,7384878.99
"196594",196594,1986,13,"st","Steenbuck",1,-23.65,31.58,355172.22,7383802.41
"196605",196605,1986,13,"st","Steenbuck",1,-23.63,31.6,357190.62,7386037.18
"196629",196629,1986,13,"st","Steenbuck",1,-23.65,31.63,360272.47,7383852.24
"196630",196630,1986,13,"st","Steenbuck",1,-23.66,31.62,359263.13,7382735.11
"196634",196634,1986,13,"st","Steenbuck",1,-23.67,31.62,359273.83,7381627.8
"196637",196637,1986,13,"st","Steenbuck",1,-23.67,31.6,357234.05,7381607.93
"196640",196640,1986,13,"st","Steenbuck",1,-23.67,31.64,361313.61,7381647.38
"196645",196645,1986,13,"st","Steenbuck",2,-23.68,31.61,358264.73,7380510.58
"196651",196651,1986,13,"st","Steenbuck",1,-23.71,31.59,356257.96,7377168.59
"196654",196654,1986,13,"st","Steenbuck",1,-23.7,31.59,356247,7378275.92
"196668",196668,1986,13,"st","Steenbuck",1,-23.69,31.65,362354.45,7379442.46
"196674",196674,1986,13,"st","Steenbuck",1,-23.71,31.61,358297.12,7377188.63
"196682",196682,1986,13,"st","Steenbuck",1,-23.72,31.6,357288.43,7376071.32
"196709",196709,1986,13,"st","Steenbuck",1,-23.73,31.64,361377.01,7375003.53
"196736",196736,1986,13,"st","Steenbuck",1,-23.75,31.63,360378.91,7372779.12
"196742",196742,1986,13,"st","Steenbuck",1,-23.77,31.6,357342.91,7370534.69
"196756",196756,1986,13,"st","Steenbuck",1,-23.76,31.65,362427.94,7371691.3
"196807",196807,1986,13,"st","Steenbuck",2,-23.81,31.64,361461.77,7366144.98
"197032",197032,1986,7,"st","Steenbuck",1,-23.65,31.2,316407.7,7383365.33
"197086",197086,1986,7,"st","Steenbuck",1,-23.61,31.23,319413.38,7387833.38
"197098",197098,1986,7,"st","Steenbuck",1,-23.62,31.26,322488.29,7386763.52
"197127",197127,1986,7,"st","Steenbuck",1,-23.62,31.3,326569.85,7386812.63
"197135",197135,1986,7,"st","Steenbuck",1,-23.65,31.3,326609.38,7383490.37
"197216",197216,1986,51,"st","Steenbuck",1,-22.61,31.32,327322.84,7498678.59
"197218",197218,1986,51,"st","Steenbuck",1,-22.63,31.3,325292.01,7496440.69
"197220",197220,1986,51,"st","Steenbuck",1,-22.64,31.29,324276.82,7495321.62
"197224",197224,1986,51,"st","Steenbuck",1,-22.6,31.35,330394.71,7499820.32
"197740",197740,1986,4,"st","Steenbuck",1,-23.76,31.26,322677.53,7371259.32
"197911",197911,1986,4,"st","Steenbuck",1,-23.8,31.27,323750.78,7366841.96
"197917",197917,1986,4,"st","Steenbuck",1,-23.8,31.27,323750.78,7366841.96
"197960",197960,1986,4,"st","Steenbuck",1,-23.77,31.31,327787.19,7370213.37
"197983",197983,1986,4,"st","Steenbuck",1,-23.8,31.3,326807.74,7366878.9
"197992",197992,1986,4,"st","Steenbuck",2,-23.81,31.3,326821.01,7365771.45
"198012",198012,1986,4,"st","Steenbuck",1,-23.84,31.3,326860.84,7362449.12
"198041",198041,1986,4,"st","Steenbuck",2,-23.84,31.32,328898.17,7362473.42
"198093",198093,1986,4,"st","Steenbuck",1,-23.77,31.32,328806.4,7370225.46
"198110",198110,1986,4,"st","Steenbuck",1,-23.81,31.35,331915.48,7365831.6
"198111",198111,1986,4,"st","Steenbuck",2,-23.81,31.35,331915.48,7365831.6
"198121",198121,1986,4,"st","Steenbuck",1,-23.82,31.34,330909.55,7364712.28
"198122",198122,1986,4,"st","Steenbuck",1,-23.83,31.33,329903.78,7363592.89
"198126",198126,1986,4,"st","Steenbuck",1,-23.83,31.35,331941.25,7363616.75
"198171",198171,1986,21,"st","Steenbuck",2,-24.22,31.5,347682.24,7320597.97
"198220",198220,1986,21,"st","Steenbuck",1,-24.1,31.51,348556.37,7333897.8
"198255",198255,1986,21,"st","Steenbuck",1,-24.13,31.56,353673.23,7330628.71
"198260",198260,1986,21,"st","Steenbuck",1,-24.15,31.57,354712.14,7328424.33
"198264",198264,1986,21,"st","Steenbuck",2,-24.18,31.57,354746.09,7325102.15
"198303",198303,1986,21,"st","Steenbuck",1,-24.14,31.58,355717.05,7329542.06
"198304",198304,1986,21,"st","Steenbuck",1,-24.15,31.6,357760.54,7328455.14
"198313",198313,1986,21,"st","Steenbuck",1,-24.17,31.58,355750.75,7326219.89
"198325",198325,1986,21,"st","Steenbuck",2,-24.19,31.58,355773.23,7324005.11
"198342",198342,1986,21,"st","Steenbuck",1,-24.23,31.59,356833.77,7319585.82
"198399",198399,1986,21,"st","Steenbuck",1,-24.19,31.61,358820.68,7324035.74
"198443",198443,1986,6,"st","Steenbuck",1,-23.54,31.36,332590.61,7395743.26
"198444",198444,1986,6,"st","Steenbuck",1,-23.56,31.32,328532.62,7393481.19
"198445",198445,1986,6,"st","Steenbuck",1,-23.57,31.3,326504.07,7392349.7
"198452",198452,1986,6,"st","Steenbuck",1,-23.58,31.34,330599.95,7391290.19
"198453",198453,1986,6,"st","Steenbuck",1,-23.57,31.36,332628.62,7392421.1
"198464",198464,1986,6,"st","Steenbuck",1,-23.59,31.34,330612.79,7390182.79
"198468",198468,1986,6,"st","Steenbuck",1,-23.6,31.32,328584.59,7389051.57
"198475",198475,1986,6,"st","Steenbuck",1,-23.67,31.33,329695.72,7381311.66
"198498",198498,1986,6,"st","Steenbuck",1,-23.56,31.39,335678.41,7393563.22
"198511",198511,1986,6,"st","Steenbuck",1,-23.56,31.42,338740.84,7393597.3
"198522",198522,1986,6,"st","Steenbuck",1,-23.59,31.42,338777.49,7390275.2
"198562",198562,1986,6,"st","Steenbuck",1,-23.65,31.38,334770.46,7383585.25
"198574",198574,1986,6,"st","Steenbuck",2,-23.65,31.41,337830.81,7383619.64
"198591",198591,1986,6,"st","Steenbuck",1,-23.67,31.4,336835.52,7381393.48
"198621",198621,1986,6,"st","Steenbuck",1,-23.7,31.39,335853.07,7378059.83
"198725",198725,1986,54,"st","Steenbuck",1,-22.98,30.93,287799.68,7457197.25
"198782",198782,1986,54,"st","Steenbuck",1,-22.95,30.97,291855.43,7460577.01
"198797",198797,1986,54,"st","Steenbuck",1,-22.9,30.97,291778.98,7466114.38
"198896",198896,1986,54,"st","Steenbuck",1,-22.91,31.06,301027.59,7465131.49
"198986",198986,1986,49,"st","Steenbuck",1,-22.96,31.28,323661.32,7459875.51
"199101",199101,1986,49,"st","Steenbuck",1,-22.93,31.34,329776.37,7463268.27
"199103",199103,1986,49,"st","Steenbuck",1,-22.93,31.32,327725.07,7463244.97
"199106",199106,1986,49,"st","Steenbuck",1,-22.94,31.29,324660.98,7462102.16
"199109",199109,1986,49,"st","Steenbuck",1,-22.92,31.33,328738.14,7464363.97
"199117",199117,1986,49,"st","Steenbuck",1,-22.92,31.27,322583.73,7464292.83
"199130",199130,1986,49,"st","Steenbuck",1,-22.92,31.27,322583.73,7464292.83
"199131",199131,1986,49,"st","Steenbuck",1,-22.92,31.26,321557.99,7464280.73
"199133",199133,1986,49,"st","Steenbuck",1,-22.91,31.27,322570.71,7465400.17
"199142",199142,1986,49,"st","Steenbuck",2,-22.91,31.27,322570.71,7465400.17
"199147",199147,1986,49,"st","Steenbuck",1,-22.89,31.29,324596.62,7467638.81
"199314",199314,1986,23,"st","Steenbuck",1,-24.2,31.67,364926.04,7322987.66
"199365",199365,1986,23,"st","Steenbuck",1,-24.19,31.73,371010.22,7324151.7
"199508",199508,1986,23,"st","Steenbuck",2,-24.08,31.68,365816.53,7336285.57
"199636",199636,1986,60,"st","Steenbuck",1,-25.03,31.63,361778.76,7231031.13
"199700",199700,1986,60,"st","Steenbuck",1,-24.97,31.74,372816.26,7237783.69
"199753",199753,1986,60,"st","Steenbuck",1,-25.02,31.66,364794.91,7232168.91
"199760",199760,1986,60,"st","Steenbuck",1,-25.04,31.66,364816.83,7229953.94
"199765",199765,1986,60,"st","Steenbuck",1,-25.02,31.67,365804.02,7232178.86
"199784",199784,1986,60,"st","Steenbuck",1,-24.98,31.68,366769.99,7236618.64
"199790",199790,1986,60,"st","Steenbuck",1,-25,31.68,366791.55,7234403.69
"199838",199838,1986,60,"st","Steenbuck",1,-24.99,31.71,369808.81,7235540.3
"199843",199843,1986,60,"st","Steenbuck",1,-24.97,31.71,369787.75,7237755.23
"199972",199972,1986,52,"st","Steenbuck",1,-23.15,31.21,316740.65,7438749.45
"200056",200056,1986,52,"st","Steenbuck",1,-23.15,31.25,320836.72,7438799.22
"200080",200080,1986,52,"st","Steenbuck",1,-23.16,31.28,323921.82,7437728.43
"200293",200293,1986,18,"st","Steenbuck",1,-23.27,31.33,329181.38,7425607.13
"200296",200296,1986,18,"st","Steenbuck",2,-23.27,31.36,332250.56,7425642.16
"200314",200314,1986,18,"st","Steenbuck",1,-23.24,31.35,331189.72,7428952.61
"200315",200315,1986,18,"st","Steenbuck",1,-23.25,31.35,331202.31,7427845.26
"200316",200316,1986,18,"st","Steenbuck",1,-23.24,31.34,330166.43,7428940.94
"200325",200325,1986,18,"st","Steenbuck",1,-23.28,31.4,336354.98,7424580.55
"200328",200328,1986,18,"st","Steenbuck",1,-23.28,31.41,337377.95,7424591.81
"200330",200330,1986,18,"st","Steenbuck",2,-23.29,31.42,338412.98,7423495.67
"200336",200336,1986,18,"st","Steenbuck",1,-23.28,31.46,342492.71,7424647.04
"200338",200338,1986,18,"st","Steenbuck",1,-23.29,31.47,343527.35,7423550.56
"200347",200347,1986,18,"st","Steenbuck",1,-23.27,31.41,337365.8,7425699.14
"200362",200362,1986,18,"st","Steenbuck",1,-23.26,31.44,340422.99,7426839.8
"200378",200378,1986,18,"st","Steenbuck",1,-23.25,31.4,336318.33,7427902.55
"200379",200379,1986,18,"st","Steenbuck",1,-23.24,31.41,337329.39,7429021.12
"200395",200395,1986,18,"st","Steenbuck",1,-23.23,31.48,344480.59,7430205.15
"200402",200402,1986,18,"st","Steenbuck",1,-23.22,31.44,340375.39,7431269.06
"200403",200403,1986,18,"st","Steenbuck",1,-23.22,31.43,339351.98,7431258.03
"200467",200467,1986,18,"st","Steenbuck",1,-23.17,31.4,336220.81,7436761.16
"200478",200478,1986,18,"st","Steenbuck",1,-23.17,31.49,345434.92,7436859.58
"200537",200537,1986,18,"st","Steenbuck",1,-23.22,31.54,350609.33,7431375.42
"200545",200545,1986,18,"st","Steenbuck",1,-23.25,31.53,349619.58,7428043.25
"200588",200588,1986,18,"st","Steenbuck",1,-23.28,31.5,346584.47,7424689.95
"200591",200591,1986,18,"st","Steenbuck",1,-23.29,31.5,346595.93,7423582.65
"200613",200613,1986,18,"st","Steenbuck",1,-23.15,31.42,338244.39,7438998.15
"200625",200625,1986,18,"st","Steenbuck",1,-23.15,31.44,340292.28,7439020.21
"200753",200753,1986,18,"st","Steenbuck",1,-23.17,31.36,332125.57,7436715.59
"200755",200755,1986,18,"st","Steenbuck",1,-23.17,31.34,330077.92,7436692.38
"200861",200861,1986,18,"st","Steenbuck",1,-23.22,31.36,332188,7431178.89
"200975",200975,1986,50,"st","Steenbuck",1,-23.12,31.5,346401.71,7442406.57
"201039",201039,1986,50,"st","Steenbuck",1,-23.05,31.51,347346.81,7450167.95
"201085",201085,1986,50,"st","Steenbuck",1,-23.03,31.5,346299.43,7452372.02
"201086",201086,1986,50,"st","Steenbuck",1,-23.03,31.5,346299.43,7452372.02
"201142",201142,1986,50,"st","Steenbuck",2,-23.02,31.45,341163.5,7453425.93
"201143",201143,1986,50,"st","Steenbuck",1,-23.03,31.43,339125.51,7452296.81
"201146",201146,1986,50,"st","Steenbuck",1,-23.02,31.4,336038.82,7453370.83
"201166",201166,1986,15,"st","Steenbuck",1,-23.31,31.35,331277.96,7421201.13
"201169",201169,1986,15,"st","Steenbuck",1,-23.32,31.35,331290.58,7420093.77
"201239",201239,1986,15,"st","Steenbuck",1,-23.38,31.43,339544.06,7413540.8
"201279",201279,1986,15,"st","Steenbuck",1,-23.33,31.37,333348.4,7419009.6
"201280",201280,1986,15,"st","Steenbuck",1,-23.33,31.37,333348.4,7419009.6
"201303",201303,1986,15,"st","Steenbuck",2,-23.33,31.44,340506.47,7419088.54
"201347",201347,1986,15,"st","Steenbuck",1,-23.28,31.4,336354.98,7424580.55
"201367",201367,1986,15,"st","Steenbuck",1,-23.37,31.52,348732.27,7414745.3
"201371",201371,1986,15,"st","Steenbuck",1,-23.39,31.46,342622.43,7412466.51
"201390",201390,1986,15,"st","Steenbuck",1,-23.4,31.53,349788.34,7411433.83
"201396",201396,1986,15,"st","Steenbuck",1,-23.41,31.5,346733.84,7410294.95
"201411",201411,1986,15,"st","Steenbuck",1,-23.33,31.46,342551.6,7419110.45
"201418",201418,1986,15,"st","Steenbuck",1,-23.32,31.47,343562.45,7420228.62
"201419",201419,1986,15,"st","Steenbuck",1,-23.31,31.47,343550.75,7421335.94
"201423",201423,1986,15,"st","Steenbuck",2,-23.33,31.49,345619.27,7419142.8
"201622",201622,1986,5,"st","Steenbuck",1,-23.78,31.44,341048.8,7369257.49
"201693",201693,1986,5,"st","Steenbuck",1,-23.86,31.4,337072.36,7360352.9
"201834",201834,1986,1,"st","Steenbuck",1,-23.93,31.59,356500.13,7352807.09
"202018",202018,1986,1,"st","Steenbuck",1,-23.98,31.72,369782.4,7347396.52
"202118",202118,1986,1,"st","Steenbuck",1,-23.99,31.62,359618.72,7346193.16
"202144",202144,1986,1,"st","Steenbuck",1,-24,31.58,355560.31,7345045.35
"202280",202280,1986,1,"st","Steenbuck",1,-24.02,31.7,367788.4,7342948.57
"202471",202471,1986,54,"st","Steenbuck",1,-22.97,31.14,309318.8,7458593.09
"202529",202529,1986,54,"st","Steenbuck",2,-22.96,31.21,316483.14,7459789.71
"202612",202612,1986,54,"st","Steenbuck",1,-23,31.18,313461.67,7455322.35
"202716",202716,1986,54,"st","Steenbuck",1,-23.01,31.24,319625.96,7454290.1
"202760",202760,1986,54,"st","Steenbuck",1,-23.02,31.21,316564.24,7453145.47
"202838",202838,1986,14,"st","Steenbuck",1,-23.5,31.4,336625.13,7400218.86
"202842",202842,1986,14,"st","Steenbuck",2,-23.46,31.39,335554.25,7404636.91
"202874",202874,1986,14,"st","Steenbuck",1,-23.45,31.49,345758.33,7405854.99
"202887",202887,1986,14,"st","Steenbuck",1,-23.49,31.42,338655.49,7401348.82
"202908",202908,1986,14,"st","Steenbuck",2,-23.51,31.42,338679.85,7399134.11
"202919",202919,1986,14,"st","Steenbuck",1,-23.52,31.45,341755.37,7398060.15
"202924",202924,1986,14,"st","Steenbuck",1,-23.53,31.44,340746.3,7396941.73
"202967",202967,1986,14,"st","Steenbuck",1,-23.57,31.46,342835.93,7392534.4
"202968",202968,1986,14,"st","Steenbuck",1,-23.57,31.46,342835.93,7392534.4
"202999",202999,1986,14,"st","Steenbuck",1,-23.47,31.43,339652.65,7403574.72
"203059",203059,1986,14,"st","Steenbuck",1,-23.51,31.5,346849.28,7399221.72
"203069",203069,1986,14,"st","Steenbuck",1,-23.53,31.51,347893.43,7397017.7
"203073",203073,1986,14,"st","Steenbuck",1,-23.52,31.54,350945.17,7398156.5
"203099",203099,1986,14,"st","Steenbuck",1,-23.57,31.55,352022.23,7392630.27
"203100",203100,1986,14,"st","Steenbuck",1,-23.57,31.54,351001.54,7392619.9
"203104",203104,1986,14,"st","Steenbuck",1,-23.58,31.55,352033.44,7391522.95
"203106",203106,1986,14,"st","Steenbuck",1,-23.57,31.53,349980.85,7392609.46
"203121",203121,1986,14,"st","Steenbuck",1,-23.56,31.49,345886.39,7393674.34
"203124",203124,1986,14,"st","Steenbuck",1,-23.57,31.51,347939.46,7392588.37
"203126",203126,1986,14,"st","Steenbuck",2,-23.57,31.5,346918.76,7392577.72
"203128",203128,1986,14,"st","Steenbuck",1,-23.57,31.49,345898.06,7392567
"203129",203129,1986,14,"st","Steenbuck",1,-23.57,31.49,345898.06,7392567
"203131",203131,1986,14,"st","Steenbuck",1,-23.57,31.47,343856.64,7392545.34
"203144",203144,1986,14,"st","Steenbuck",1,-23.58,31.5,346930.36,7391470.38
"203147",203147,1986,14,"st","Steenbuck",2,-23.6,31.47,343892.15,7389223.29
