"","ID","Year","Cenb","Sp","Description","No","Lat","Long","X.coord","Y.coord"
"231200",231200,1988,1,"st","Steenbuck",1,-23.86,31.59,356422.84,7360558.55
"231201",231201,1988,1,"st","Steenbuck",1,-23.86,31.58,355404.43,7360548.37
"231202",231202,1988,1,"st","Steenbuck",1,-23.86,31.58,355404.43,7360548.37
"231218",231218,1988,1,"st","Steenbuck",1,-23.87,31.59,356433.87,7359451.2
"231220",231220,1988,1,"st","Steenbuck",2,-23.88,31.59,356444.9,7358343.86
"231222",231222,1988,1,"st","Steenbuck",1,-23.88,31.58,355426.64,7358333.67
"231242",231242,1988,1,"st","Steenbuck",1,-23.89,31.6,357474.12,7357246.62
"231256",231256,1988,1,"st","Steenbuck",1,-23.94,31.57,354475.6,7351679.26
"231257",231257,1988,1,"st","Steenbuck",1,-23.94,31.57,354475.6,7351679.26
"231264",231264,1988,1,"st","Steenbuck",1,-23.92,31.61,358524.96,7353934.62
"231266",231266,1988,1,"st","Steenbuck",1,-23.93,31.6,357518,7352817.22
"231268",231268,1988,1,"st","Steenbuck",1,-23.93,31.59,356500.13,7352807.09
"231271",231271,1988,1,"st","Steenbuck",1,-23.95,31.56,353469.1,7350561.55
"231316",231316,1988,1,"st","Steenbuck",1,-23.95,31.58,355504.54,7350582.18
"231333",231333,1988,1,"st","Steenbuck",1,-23.98,31.57,354520.5,7347249.8
"231343",231343,1988,1,"st","Steenbuck",1,-23.98,31.62,359607.88,7347300.51
"231373",231373,1988,1,"st","Steenbuck",1,-24,31.63,360646.88,7345095.73
"231382",231382,1988,1,"st","Steenbuck",1,-24,31.6,357594.94,7345065.72
"231397",231397,1988,1,"st","Steenbuck",1,-24,31.59,356577.63,7345055.57
"231461",231461,1988,1,"st","Steenbuck",2,-23.97,31.75,372824.89,7348531.22
"231488",231488,1988,1,"st","Steenbuck",1,-23.86,31.59,356422.84,7360558.55
"231714",231714,1988,1,"st","Steenbuck",1,-23.98,31.69,366730.07,7347368.47
"231795",231795,1988,1,"st","Steenbuck",1,-24.02,31.71,368805.53,7342957.93
"232006",232006,1988,2,"st","Steenbuck",1,-23.93,31.56,353446.51,7352776.28
"232007",232007,1988,2,"st","Steenbuck",1,-23.93,31.56,353446.51,7352776.28
"232019",232019,1988,2,"st","Steenbuck",1,-23.89,31.56,353401.38,7357205.73
"232037",232037,1988,2,"st","Steenbuck",1,-23.96,31.55,352462.76,7349443.76
"232038",232038,1988,2,"st","Steenbuck",1,-23.95,31.55,352451.38,7350551.13
"232039",232039,1988,2,"st","Steenbuck",1,-23.95,31.55,352451.38,7350551.13
"232041",232041,1988,2,"st","Steenbuck",1,-23.94,31.55,352440,7351658.5
"232050",232050,1988,2,"st","Steenbuck",1,-23.92,31.55,352417.26,7353873.24
"232079",232079,1988,2,"st","Steenbuck",1,-23.94,31.53,350404.39,7351637.45
"232116",232116,1988,2,"st","Steenbuck",1,-23.91,31.51,348333.73,7354938.25
"232117",232117,1988,2,"st","Steenbuck",1,-23.9,31.51,348322.05,7356045.63
"232121",232121,1988,2,"st","Steenbuck",1,-23.89,31.51,348310.39,7357153
"232123",232123,1988,2,"st","Steenbuck",1,-23.88,31.51,348298.72,7358260.38
"232127",232127,1988,2,"st","Steenbuck",1,-23.87,31.51,348287.07,7359367.76
"232174",232174,1988,2,"st","Steenbuck",1,-23.92,31.47,344273.49,7353787.35
"232177",232177,1988,2,"st","Steenbuck",1,-23.88,31.47,344225.56,7358216.91
"232182",232182,1988,2,"st","Steenbuck",1,-23.92,31.46,343255.51,7353776.29
"232201",232201,1988,2,"st","Steenbuck",1,-23.92,31.43,340201.53,7353742.67
"232214",232214,1988,2,"st","Steenbuck",1,-23.91,31.4,337134.99,7354815.83
"232619",232619,1988,3,"st","Steenbuck",2,-23.85,31.17,313632.15,7361176.68
"232690",232690,1988,3,"st","Steenbuck",1,-23.87,31.21,317734.67,7359013.77
"232747",232747,1988,3,"st","Steenbuck",1,-23.89,31.25,321835.9,7356849.77
"232755",232755,1988,3,"st","Steenbuck",1,-23.89,31.26,322854.2,7356862.34
"232774",232774,1988,3,"st","Steenbuck",2,-23.9,31.3,326940.65,7355804.42
"232800",232800,1988,3,"st","Steenbuck",1,-23.85,31.32,328911.3,7361365.98
"232808",232808,1988,3,"st","Steenbuck",1,-23.87,31.33,329956,7359163.14
"232809",232809,1988,3,"st","Steenbuck",1,-23.88,31.33,329969.07,7358055.71
"232812",232812,1988,3,"st","Steenbuck",1,-23.9,31.32,328977.03,7355828.76
"232819",232819,1988,3,"st","Steenbuck",2,-23.89,31.33,329982.15,7356948.26
"232831",232831,1988,3,"st","Steenbuck",1,-23.89,31.35,332018.67,7356972.17
"232833",232833,1988,3,"st","Steenbuck",1,-23.91,31.35,332044.52,7354757.3
"232952",232952,1988,4,"st","Steenbuck",1,-23.76,31.31,327774.02,7371320.8
"233026",233026,1988,4,"st","Steenbuck",1,-23.83,31.17,313603.55,7363391.68
"233050",233050,1988,4,"st","Steenbuck",1,-23.79,31.17,313546.4,7367821.66
"233078",233078,1988,4,"st","Steenbuck",1,-23.83,31.18,314622.34,7363404.79
"233119",233119,1988,4,"st","Steenbuck",1,-23.81,31.2,316631.8,7365645.78
"233179",233179,1988,4,"st","Steenbuck",1,-23.83,31.21,317678.69,7363443.71
"233266",233266,1988,4,"st","Steenbuck",1,-23.8,31.23,319674.79,7366791.7
"233307",233307,1988,4,"st","Steenbuck",1,-23.82,31.24,320721.27,7364589.44
"233344",233344,1988,4,"st","Steenbuck",1,-23.77,31.25,321671.86,7370139.35
"233354",233354,1988,4,"st","Steenbuck",1,-23.81,31.26,322745.37,7365722.05
"233356",233356,1988,4,"st","Steenbuck",1,-23.82,31.26,322758.95,7364614.59
"233371",233371,1988,4,"st","Steenbuck",1,-23.82,31.27,323777.79,7364627.05
"233379",233379,1988,4,"st","Steenbuck",1,-23.78,31.26,322704.65,7369044.41
"233484",233484,1988,4,"st","Steenbuck",1,-23.84,31.3,326860.84,7362449.12
"233504",233504,1988,4,"st","Steenbuck",1,-23.77,31.3,326767.98,7370201.21
"233665",233665,1988,5,"st","Steenbuck",1,-23.81,31.39,335990.99,7365878.42
"233782",233782,1988,5,"st","Steenbuck",1,-23.86,31.46,343183.17,7360420.65
"234013",234013,1988,6,"st","Steenbuck",1,-23.56,31.31,327511.77,7393469.19
"234014",234014,1988,6,"st","Steenbuck",1,-23.59,31.33,329592.19,7390170.92
"234017",234017,1988,6,"st","Steenbuck",1,-23.62,31.35,331671.71,7386872.4
"234023",234023,1988,6,"st","Steenbuck",1,-23.56,31.33,329553.45,7393493.12
"234065",234065,1988,6,"st","Steenbuck",1,-23.6,31.4,336748.71,7389145.15
"234066",234066,1988,6,"st","Steenbuck",1,-23.6,31.4,336748.71,7389145.15
"234095",234095,1988,6,"st","Steenbuck",1,-23.6,31.43,339810.21,7389179.07
"234129",234129,1988,6,"st","Steenbuck",1,-23.57,31.42,338753.05,7392489.94
"234203",234203,1988,6,"st","Steenbuck",3,-23.7,31.37,333813.61,7378036.65
"234338",234338,1988,7,"st","Steenbuck",1,-23.66,31.17,313361.32,7382218.95
"234377",234377,1988,7,"st","Steenbuck",1,-23.65,31.18,314367.32,7383339.47
"234388",234388,1988,7,"st","Steenbuck",1,-23.68,31.18,314409.7,7380017.05
"234394",234394,1988,7,"st","Steenbuck",1,-23.65,31.19,315387.52,7383352.44
"234405",234405,1988,7,"st","Steenbuck",1,-23.65,31.2,316407.7,7383365.33
"234471",234471,1988,7,"st","Steenbuck",1,-23.65,31.22,318448.07,7383390.91
"234475",234475,1988,7,"st","Steenbuck",1,-23.66,31.22,318461.88,7382283.46
"234492",234492,1988,7,"st","Steenbuck",1,-23.66,31.23,319481.98,7382296.15
"234503",234503,1988,7,"st","Steenbuck",1,-23.6,31.23,319399.67,7388940.83
"234510",234510,1988,7,"st","Steenbuck",1,-23.66,31.23,319481.98,7382296.15
"234534",234534,1988,7,"st","Steenbuck",1,-23.69,31.24,320543.06,7378986.41
"234547",234547,1988,7,"st","Steenbuck",1,-23.61,31.25,321454.34,7387858.5
"234551",234551,1988,7,"st","Steenbuck",1,-23.64,31.24,320474.77,7384523.65
"234604",234604,1988,7,"st","Steenbuck",1,-23.67,31.26,322555.75,7381226.34
"234618",234618,1988,7,"st","Steenbuck",1,-23.66,31.27,323562.34,7382346.17
"234630",234630,1988,7,"st","Steenbuck",1,-23.61,31.28,324515.76,7387895.64
"234673",234673,1988,7,"st","Steenbuck",1,-23.66,31.31,327642.64,7382395.06
"234700",234700,1988,7,"st","Steenbuck",1,-23.7,31.34,330754.38,7378001.33
"234711",234711,1988,7,"st","Steenbuck",1,-23.72,31.36,332819.37,7375810.13
"234726",234726,1988,8,"st","Steenbuck",1,-23.57,31.28,324462.52,7392325.33
"234734",234734,1988,8,"st","Steenbuck",1,-23.55,31.29,325456.87,7394552.38
"234771",234771,1988,8,"st","Steenbuck",1,-23.53,31.35,331556.89,7396838.94
"234772",234772,1988,8,"st","Steenbuck",1,-23.53,31.34,330535.83,7396827.16
"234780",234780,1988,8,"st","Steenbuck",1,-23.53,31.31,327472.62,7396791.4
"234800",234800,1988,8,"st","Steenbuck",1,-23.52,31.36,332565.29,7397958.03
"234812",234812,1988,8,"st","Steenbuck",2,-23.51,31.4,336637.46,7399111.49
"234827",234827,1988,8,"st","Steenbuck",1,-23.51,31.33,329488.99,7399030.1
"234910",234910,1988,8,"st","Steenbuck",1,-23.5,31.28,324369.57,7400077.23
"235031",235031,1988,8,"st","Steenbuck",1,-23.41,31.28,324250.45,7410043.87
"235075",235075,1988,9,"st","Steenbuck",1,-23.49,31.08,303927.65,7400925.9
"235209",235209,1988,9,"st","Steenbuck",1,-23.51,31.22,318255.32,7398895.14
"235297",235297,1988,9,"st","Steenbuck",1,-23.61,31.17,313290.39,7387756.32
"235301",235301,1988,9,"st","Steenbuck",1,-23.56,31.15,311177.81,7393267.43
"235350",235350,1988,9,"st","Steenbuck",1,-23.53,31.25,321346.1,7396717.95
"235411",235411,1988,10,"st","Steenbuck",1,-23.3,31.02,297509.88,7421885.39
"235427",235427,1988,10,"st","Steenbuck",1,-23.36,31.04,299645.85,7415268.28
"235464",235464,1988,10,"st","Steenbuck",1,-23.36,31.06,301690.82,7415295.88
"235465",235465,1988,10,"st","Steenbuck",2,-23.33,31.05,300623.51,7418604.58
"235470",235470,1988,10,"st","Steenbuck",1,-23.3,31.04,299555.79,7421913.22
"235472",235472,1988,10,"st","Steenbuck",2,-23.28,31.03,298502.72,7424114.32
"235487",235487,1988,10,"st","Steenbuck",2,-23.28,31.05,300548.92,7424142
"235497",235497,1988,10,"st","Steenbuck",1,-23.36,31.08,303735.78,7415323.21
"235498",235498,1988,10,"st","Steenbuck",2,-23.37,31.08,303750.5,7414215.73
"235526",235526,1988,10,"st","Steenbuck",1,-23.36,31.1,305780.72,7415350.25
"235527",235527,1988,10,"st","Steenbuck",1,-23.37,31.09,304772.9,7414229.29
"235603",235603,1988,10,"st","Steenbuck",1,-23.33,31.15,310850.47,7418738.94
"235609",235609,1988,10,"st","Steenbuck",1,-23.32,31.15,310836.31,7419846.38
"235637",235637,1988,10,"st","Steenbuck",1,-23.33,31.18,313918.48,7418777.87
"235661",235661,1988,10,"st","Steenbuck",1,-23.48,31.07,302891.3,7402019.71
"235697",235697,1988,10,"st","Steenbuck",1,-23.47,31.08,303898.07,7403140.89
"235751",235751,1988,10,"st","Steenbuck",1,-23.47,31.09,304919.69,7403154.49
"235791",235791,1988,10,"st","Steenbuck",1,-23.44,31.08,303853.74,7406463.35
"235820",235820,1988,10,"st","Steenbuck",1,-23.46,31.12,307970.07,7404302.35
"235825",235825,1988,10,"st","Steenbuck",1,-23.43,31.11,306904.76,7407611.39
"235832",235832,1988,10,"st","Steenbuck",12,-23.4,31.1,305839.03,7410920.37
"235837",235837,1988,10,"st","Steenbuck",1,-23.39,31.09,304802.21,7412014.34
"235841",235841,1988,10,"st","Steenbuck",1,-23.41,31.1,305853.63,7409812.89
"235851",235851,1988,10,"st","Steenbuck",1,-23.45,31.13,308977.36,7405423.13
"235888",235888,1988,10,"st","Steenbuck",1,-23.41,31.13,308919.85,7409852.99
"235893",235893,1988,10,"st","Steenbuck",1,-23.38,31.11,306832.17,7413148.73
"235894",235894,1988,10,"st","Steenbuck",1,-23.37,31.11,306817.67,7414256.2
"235913",235913,1988,10,"st","Steenbuck",1,-23.42,31.15,310978.2,7408771.91
"235940",235940,1988,10,"st","Steenbuck",3,-23.36,31.15,310892.99,7415416.61
"235947",235947,1988,10,"st","Steenbuck",1,-23.39,31.17,312979.99,7412120.34
"235949",235949,1988,10,"st","Steenbuck",1,-23.4,31.17,312994.04,7411012.89
"235950",235950,1988,10,"st","Steenbuck",2,-23.4,31.17,312994.04,7411012.89
"235951",235951,1988,10,"st","Steenbuck",1,-23.42,31.17,313022.16,7408798.01
"235971",235971,1988,10,"st","Steenbuck",1,-23.4,31.19,315038.29,7411038.69
"235972",235972,1988,10,"st","Steenbuck",1,-23.42,31.19,315066.1,7408823.82
"235973",235973,1988,10,"st","Steenbuck",2,-23.42,31.19,315066.1,7408823.82
"235982",235982,1988,10,"st","Steenbuck",1,-23.36,31.17,312937.88,7415442.65
"235991",235991,1988,10,"st","Steenbuck",1,-23.41,31.21,317096.28,7409956.78
"236003",236003,1988,10,"st","Steenbuck",1,-23.36,31.19,314982.74,7415468.42
"236009",236009,1988,10,"st","Steenbuck",1,-23.35,31.2,315991.37,7416588.62
"236016",236016,1988,11,"st","Steenbuck",1,-23.42,31.21,317110.03,7408849.35
"236050",236050,1988,11,"st","Steenbuck",1,-23.38,31.27,323188.59,7413353.84
"236055",236055,1988,11,"st","Steenbuck",1,-23.37,31.22,318063.66,7414399.12
"236059",236059,1988,11,"st","Steenbuck",1,-23.37,31.24,320108.34,7414424.18
"236060",236060,1988,11,"st","Steenbuck",1,-23.37,31.25,321130.67,7414436.6
"236153",236153,1988,11,"st","Steenbuck",1,-23.31,31.23,319004.65,7421056.14
"236161",236161,1988,11,"st","Steenbuck",1,-23.3,31.22,317968.24,7422151.01
"236765",236765,1988,12,"st","Steenbuck",1,-23.22,30.99,294318.19,7430703.15
"236894",236894,1988,12,"st","Steenbuck",1,-23.23,30.97,292286.5,7429567.17
"236898",236898,1988,13,"st","Steenbuck",1,-23.6,31.5,346953.57,7389255.7
"236923",236923,1988,13,"st","Steenbuck",2,-23.66,31.5,347023.3,7382611.63
"237028",237028,1988,13,"st","Steenbuck",1,-23.76,31.55,352235.99,7371590.94
"237030",237030,1988,13,"st","Steenbuck",1,-23.75,31.57,354263.27,7372718.92
"237050",237050,1988,13,"st","Steenbuck",2,-23.6,31.54,351035.42,7389297.92
"237051",237051,1988,13,"st","Steenbuck",2,-23.59,31.58,355106.23,7390446.32
"237052",237052,1988,13,"st","Steenbuck",2,-23.6,31.55,352055.87,7389308.3
"237060",237060,1988,13,"st","Steenbuck",1,-23.62,31.58,355139.21,7387124.37
"237061",237061,1988,13,"st","Steenbuck",2,-23.62,31.58,355139.21,7387124.37
"237064",237064,1988,13,"st","Steenbuck",1,-23.62,31.59,356159.49,7387134.47
"237067",237067,1988,13,"st","Steenbuck",1,-23.61,31.61,358189.3,7388261.76
"237068",237068,1988,13,"st","Steenbuck",1,-23.63,31.57,354129.99,7386006.88
"237071",237071,1988,13,"st","Steenbuck",1,-23.64,31.56,353120.94,7384889.31
"237072",237072,1988,13,"st","Steenbuck",2,-23.64,31.57,354141.08,7384899.56
"237074",237074,1988,13,"st","Steenbuck",1,-23.64,31.58,355161.21,7384909.73
"237078",237078,1988,13,"st","Steenbuck",1,-23.63,31.61,358210.83,7386047.14
"237081",237081,1988,13,"st","Steenbuck",1,-23.63,31.63,360251.23,7386066.85
"237089",237089,1988,13,"st","Steenbuck",1,-23.65,31.57,354152.16,7383792.24
"237090",237090,1988,13,"st","Steenbuck",1,-23.65,31.58,355172.22,7383802.41
"237096",237096,1988,13,"st","Steenbuck",1,-23.65,31.62,359252.42,7383842.42
"237100",237100,1988,13,"st","Steenbuck",1,-23.65,31.65,362312.54,7383871.67
"237104",237104,1988,13,"st","Steenbuck",2,-23.67,31.57,354174.35,7381577.58
"237106",237106,1988,13,"st","Steenbuck",1,-23.67,31.59,356214.15,7381597.88
"237107",237107,1988,13,"st","Steenbuck",1,-23.66,31.6,357223.19,7382715.24
"237108",237108,1988,13,"st","Steenbuck",1,-23.66,31.6,357223.19,7382715.24
"237110",237110,1988,13,"st","Steenbuck",1,-23.66,31.62,359263.13,7382735.11
"237121",237121,1988,13,"st","Steenbuck",1,-23.68,31.58,355205.27,7380480.45
"237122",237122,1988,13,"st","Steenbuck",1,-23.68,31.59,356225.1,7380490.56
"237142",237142,1988,13,"st","Steenbuck",1,-23.69,31.59,356236.04,7379383.24
"237162",237162,1988,13,"st","Steenbuck",1,-23.71,31.58,355238.37,7377158.46
"237186",237186,1988,13,"st","Steenbuck",1,-23.72,31.63,360346.93,7376101.07
"237224",237224,1988,13,"st","Steenbuck",1,-23.74,31.65,362406.92,7373905.92
"237225",237225,1988,13,"st","Steenbuck",1,-23.75,31.65,362417.43,7372798.61
"237239",237239,1988,13,"st","Steenbuck",1,-23.76,31.61,358351.2,7371652.02
"237266",237266,1988,13,"st","Steenbuck",1,-23.78,31.59,356334.78,7369417.28
"237267",237267,1988,13,"st","Steenbuck",2,-23.78,31.59,356334.78,7369417.28
"237308",237308,1988,13,"st","Steenbuck",1,-23.8,31.59,356356.77,7367202.6
"237322",237322,1988,13,"st","Steenbuck",1,-23.79,31.65,362459.51,7368369.35
"237369",237369,1988,13,"st","Steenbuck",1,-23.85,31.58,355393.32,7361655.72
"237404",237404,1988,14,"st","Steenbuck",2,-23.48,31.51,347835.99,7402554.32
"237416",237416,1988,14,"st","Steenbuck",1,-23.51,31.55,351955.06,7399274.17
"237419",237419,1988,14,"st","Steenbuck",1,-23.53,31.52,348914.43,7397028.27
"237435",237435,1988,14,"st","Steenbuck",2,-23.58,31.57,354074.65,7391543.47
"237443",237443,1988,14,"st","Steenbuck",1,-23.42,31.37,333460.92,7409043.37
"237457",237457,1988,14,"st","Steenbuck",1,-23.44,31.41,337572.95,7406874.34
"237470",237470,1988,14,"st","Steenbuck",1,-23.45,31.42,338606.83,7405778.23
"237500",237500,1988,14,"st","Steenbuck",1,-23.47,31.45,341695.64,7403596.87
"237503",237503,1988,14,"st","Steenbuck",1,-23.48,31.43,339664.74,7402467.37
"237536",237536,1988,14,"st","Steenbuck",1,-23.53,31.47,343809.37,7396974.72
"237537",237537,1988,14,"st","Steenbuck",1,-23.53,31.5,346872.42,7397007.06
"237562",237562,1988,14,"st","Steenbuck",1,-23.58,31.5,346930.36,7391470.38
"237581",237581,1988,15,"st","Steenbuck",1,-23.27,31.37,333273.62,7425653.7
"237582",237582,1988,15,"st","Steenbuck",1,-23.27,31.36,332250.56,7425642.16
"237584",237584,1988,15,"st","Steenbuck",1,-23.27,31.36,332250.56,7425642.16
"237588",237588,1988,15,"st","Steenbuck",1,-23.26,31.32,328145.48,7426702.67
"237589",237589,1988,15,"st","Steenbuck",2,-23.26,31.33,329168.63,7426714.49
"237593",237593,1988,15,"st","Steenbuck",1,-23.27,31.34,330204.45,7425618.88
"237602",237602,1988,15,"st","Steenbuck",1,-23.28,31.38,334309.04,7424557.82
"237629",237629,1988,15,"st","Steenbuck",1,-23.32,31.32,328222.53,7420058.47
"237642",237642,1988,15,"st","Steenbuck",1,-23.36,31.35,331341.13,7415664.33
"237676",237676,1988,15,"st","Steenbuck",1,-23.41,31.34,330382.45,7410115.75
"237687",237687,1988,15,"st","Steenbuck",1,-23.29,31.42,338412.98,7423495.67
"237695",237695,1988,15,"st","Steenbuck",1,-23.3,31.39,335356.63,7422354.54
"237755",237755,1988,15,"st","Steenbuck",1,-23.41,31.41,337536.29,7410196.39
"237761",237761,1988,15,"st","Steenbuck",1,-23.3,31.51,347630.17,7422485.91
"237784",237784,1988,15,"st","Steenbuck",1,-23.31,31.49,345596.16,7421357.41
"237786",237786,1988,15,"st","Steenbuck",1,-23.31,31.48,344573.46,7421346.71
"237788",237788,1988,15,"st","Steenbuck",1,-23.31,31.47,343550.75,7421335.94
"237789",237789,1988,15,"st","Steenbuck",1,-23.31,31.46,342528.03,7421325.09
"237806",237806,1988,15,"st","Steenbuck",1,-23.32,31.48,344585.09,7420239.4
"237808",237808,1988,15,"st","Steenbuck",1,-23.32,31.46,342539.81,7420217.77
"237814",237814,1988,15,"st","Steenbuck",1,-23.32,31.51,347652.97,7420271.31
"237823",237823,1988,15,"st","Steenbuck",1,-23.33,31.48,344596.72,7419132.09
"237825",237825,1988,15,"st","Steenbuck",1,-23.33,31.49,345619.27,7419142.8
"237855",237855,1988,15,"st","Steenbuck",1,-23.38,31.48,344654.96,7413595.51
"237860",237860,1988,15,"st","Steenbuck",2,-23.41,31.49,345711.9,7410284.28
"237864",237864,1988,15,"st","Steenbuck",1,-23.42,31.49,345723.5,7409176.96
"237870",237870,1988,15,"st","Steenbuck",1,-23.42,31.52,348789.07,7409208.76
"237871",237871,1988,15,"st","Steenbuck",1,-23.42,31.5,346745.36,7409187.63
"237873",237873,1988,15,"st","Steenbuck",1,-23.43,31.49,345735.11,7408069.64
"237897",237897,1988,15,"st","Steenbuck",2,-23.25,31.35,331202.31,7427845.26
"237899",237899,1988,15,"st","Steenbuck",1,-23.24,31.35,331189.72,7428952.61
"237902",237902,1988,15,"st","Steenbuck",1,-23.25,31.36,332225.52,7427856.86
"237911",237911,1988,15,"st","Steenbuck",1,-23.23,31.37,333223.86,7430083.07
"237915",237915,1988,15,"st","Steenbuck",1,-23.26,31.4,336330.54,7426795.22
"237933",237933,1988,15,"st","Steenbuck",1,-23.19,31.35,331126.86,7434489.34
"237938",237938,1988,15,"st","Steenbuck",1,-23.19,31.35,331126.86,7434489.34
"237940",237940,1988,15,"st","Steenbuck",1,-23.18,31.35,331114.3,7435596.68
"237954",237954,1988,15,"st","Steenbuck",1,-23.17,31.37,333149.38,7436727.09
"237957",237957,1988,15,"st","Steenbuck",1,-23.18,31.39,335209.25,7435642.55
"237959",237959,1988,15,"st","Steenbuck",1,-23.16,31.36,332113.09,7437822.92
"237963",237963,1988,15,"st","Steenbuck",1,-23.16,31.37,333136.99,7437834.42
"237976",237976,1988,15,"st","Steenbuck",1,-23.17,31.4,336220.81,7436761.16
"237980",237980,1988,15,"st","Steenbuck",1,-23.16,31.4,336208.65,7437868.48
"237991",237991,1988,15,"st","Steenbuck",1,-23.16,31.41,337232.52,7437879.69
"237995",237995,1988,15,"st","Steenbuck",1,-23.16,31.43,339280.27,7437901.91
"238007",238007,1988,15,"st","Steenbuck",1,-23.18,31.45,341351.59,7435709.24
"238008",238008,1988,15,"st","Steenbuck",1,-23.17,31.44,340316,7436805.6
"238030",238030,1988,15,"st","Steenbuck",1,-23.13,31.4,336172.17,7441190.43
"238042",238042,1988,15,"st","Steenbuck",1,-23.13,31.4,336172.17,7441190.43
"238075",238075,1988,15,"st","Steenbuck",1,-23.11,31.39,335123.62,7443393.8
"238115",238115,1988,15,"st","Steenbuck",1,-23.1,31.4,336135.75,7444512.38
"238117",238117,1988,15,"st","Steenbuck",1,-23.1,31.39,335111.41,7444501.11
"238171",238171,1988,15,"st","Steenbuck",1,-23.26,31.4,336330.54,7426795.22
"238190",238190,1988,15,"st","Steenbuck",1,-23.23,31.4,336293.92,7430117.21
"238318",238318,1988,15,"st","Steenbuck",1,-23.26,31.51,347584.64,7426915.09
"238333",238333,1988,15,"st","Steenbuck",1,-23.27,31.48,344526.99,7425775.94
"238347",238347,1988,15,"st","Steenbuck",2,-23.29,31.46,342504.48,7423539.72
"238360",238360,1988,15,"st","Steenbuck",1,-23.29,31.5,346595.93,7423582.65
"238728",238728,1988,19,"st","Steenbuck",2,-23.92,31.72,369722.14,7354040.43
"238740",238740,1988,19,"st","Steenbuck",1,-23.83,31.7,367594.78,7363987.67
"238936",238936,1988,20,"st","Steenbuck",1,-24.08,31.39,336332.09,7335977.9
"238948",238948,1988,20,"st","Steenbuck",1,-24.11,31.39,336370.21,7332655.56
"239069",239069,1988,20,"st","Steenbuck",1,-24.05,31.45,342395.87,7339368.82
"239128",239128,1988,20,"st","Steenbuck",1,-24.06,31.47,344441.86,7338283.69
"239247",239247,1988,20,"st","Steenbuck",1,-24.04,31.56,353570.98,7340595.18
"239319",239319,1988,20,"st","Steenbuck",1,-24.01,31.62,359640.42,7343978.45
"239342",239342,1988,20,"st","Steenbuck",1,-24.06,31.64,361728.41,7338461.47
"239476",239476,1988,21,"st","Steenbuck",1,-24.22,31.43,340572.92,7320519.81
"239479",239479,1988,21,"st","Steenbuck",1,-24.24,31.45,342628.77,7318327.62
"239509",239509,1988,21,"st","Steenbuck",1,-24.21,31.5,347670.35,7321705.39
"239572",239572,1988,21,"st","Steenbuck",1,-24.15,31.56,353696,7328413.92
"239620",239620,1988,21,"st","Steenbuck",1,-24.23,31.6,357849.26,7319596.04
"239624",239624,1988,21,"st","Steenbuck",1,-24.24,31.62,359891.2,7318508.88
"239705",239705,1988,21,"st","Steenbuck",1,-24.17,31.62,359814.64,7326260.56
"239725",239725,1988,22,"st","Steenbuck",1,-24.34,31.41,338693.34,7307207.26
"239757",239757,1988,22,"st","Steenbuck",2,-24.33,31.41,338680.67,7308314.73
"239758",239758,1988,22,"st","Steenbuck",1,-24.33,31.41,338680.67,7308314.73
"239781",239781,1988,22,"st","Steenbuck",1,-24.32,31.44,341712.52,7309456.68
"239822",239822,1988,22,"st","Steenbuck",1,-24.32,31.45,342727.35,7309468.02
"239831",239831,1988,22,"st","Steenbuck",1,-24.29,31.44,341675.28,7312779.05
"239855",239855,1988,22,"st","Steenbuck",1,-24.27,31.46,343680.92,7315016.54
"239861",239861,1988,22,"st","Steenbuck",1,-24.25,31.51,348733.32,7317286.57
"240006",240006,1988,22,"st","Steenbuck",1,-24.37,31.41,338731.37,7303884.84
"240092",240092,1988,22,"st","Steenbuck",1,-24.4,31.41,338769.45,7300562.4
"240161",240161,1988,22,"st","Steenbuck",1,-24.43,31.39,336779.64,7297216.53
"240316",240316,1988,22,"st","Steenbuck",1,-24.45,31.47,344915.76,7295093.55
"240345",240345,1988,22,"st","Steenbuck",1,-24.38,31.47,344830.17,7302845.78
"240353",240353,1988,22,"st","Steenbuck",2,-24.4,31.47,344854.6,7300630.86
"240358",240358,1988,22,"st","Steenbuck",1,-24.42,31.47,344879.05,7298415.94
"240437",240437,1988,22,"st","Steenbuck",1,-24.37,31.47,344817.96,7303953.24
"240445",240445,1988,22,"st","Steenbuck",1,-24.35,31.48,345808.14,7306179.28
"240481",240481,1988,22,"st","Steenbuck",1,-24.42,31.49,346907.09,7298438.19
"240493",240493,1988,22,"st","Steenbuck",1,-24.44,31.49,346931.23,7296223.28
"240582",240582,1988,22,"st","Steenbuck",1,-24.37,31.51,348875.62,7303997.37
"240646",240646,1988,22,"st","Steenbuck",1,-24.41,31.54,351965.46,7299599.97
"240778",240778,1988,22,"st","Steenbuck",1,-24.34,31.56,353913.19,7307373.16
"240834",240834,1988,23,"st","Steenbuck",1,-24.07,31.68,365806.12,7337392.91
"240910",240910,1988,23,"st","Steenbuck",1,-24.1,31.65,362787.83,7334041.85
"241012",241012,1988,23,"st","Steenbuck",1,-24.12,31.67,364841.86,7331846.56
"241117",241117,1988,23,"st","Steenbuck",1,-24.14,31.66,363846.69,7329622.16
"241161",241161,1988,23,"st","Steenbuck",2,-24.15,31.7,367921.72,7328553.11
"241197",241197,1988,23,"st","Steenbuck",2,-24.16,31.67,364883.92,7327417.12
"241206",241206,1988,23,"st","Steenbuck",2,-24.17,31.66,363878.49,7326300.06
"241250",241250,1988,23,"st","Steenbuck",1,-24.19,31.73,371010.22,7324151.7
"241289",241289,1988,23,"st","Steenbuck",2,-24.2,31.7,367973.17,7323016.33
"241301",241301,1988,23,"st","Steenbuck",1,-24.21,31.65,362905.3,7321860.81
"241332",241332,1988,23,"st","Steenbuck",2,-24.21,31.71,368999.1,7321918.39
"241363",241363,1988,23,"st","Steenbuck",2,-24.23,31.74,372065.95,7319731.5
"241409",241409,1988,23,"st","Steenbuck",1,-24.24,31.75,373091.33,7318633.28
"241414",241414,1988,23,"st","Steenbuck",1,-24.24,31.72,370045.19,7318605.66
"241415",241415,1988,23,"st","Steenbuck",1,-24.24,31.71,369029.8,7318596.31
"241449",241449,1988,23,"st","Steenbuck",1,-24.25,31.68,365994.1,7317460.45
"241512",241512,1988,24,"st","Steenbuck",1,-24.37,31.69,367134.52,7304181.5
"241609",241609,1988,24,"st","Steenbuck",2,-24.32,31.67,365052.8,7309699.15
"241761",241761,1988,24,"st","Steenbuck",1,-24.26,31.63,360928.37,7316304.11
"241815",241815,1988,24,"st","Steenbuck",1,-24.26,31.68,366004.59,7316353.08
"241818",241818,1988,24,"st","Steenbuck",1,-24.26,31.71,369050.28,7316381.59
"241819",241819,1988,24,"st","Steenbuck",2,-24.26,31.69,367019.82,7316362.65
"241821",241821,1988,24,"st","Steenbuck",1,-24.27,31.68,366015.07,7315245.71
"241828",241828,1988,24,"st","Steenbuck",1,-24.27,31.72,370075.68,7315283.58
"241829",241829,1988,24,"st","Steenbuck",2,-24.28,31.7,368055.71,7314157.42
"241830",241830,1988,24,"st","Steenbuck",1,-24.28,31.68,366025.56,7314138.33
"241833",241833,1988,24,"st","Steenbuck",1,-24.28,31.66,363995.4,7314118.95
"241841",241841,1988,24,"st","Steenbuck",2,-24.28,31.74,372115.98,7314194.73
"241843",241843,1988,24,"st","Steenbuck",1,-24.28,31.68,366025.56,7314138.33
"241844",241844,1988,24,"st","Steenbuck",1,-24.28,31.68,366025.56,7314138.33
"241845",241845,1988,24,"st","Steenbuck",1,-24.28,31.67,365010.48,7314128.68
"241858",241858,1988,24,"st","Steenbuck",1,-24.3,31.73,371121.11,7311970.78
"241861",241861,1988,24,"st","Steenbuck",1,-24.3,31.68,366046.56,7311923.58
"241880",241880,1988,24,"st","Steenbuck",1,-24.31,31.67,365042.22,7310806.53
"241897",241897,1988,24,"st","Steenbuck",1,-24.32,31.69,367082.32,7309718.41
"241902",241902,1988,24,"st","Steenbuck",1,-24.33,31.75,373180.77,7308667.08
"241903",241903,1988,24,"st","Steenbuck",1,-24.33,31.73,371151.44,7308648.69
"241904",241904,1988,24,"st","Steenbuck",1,-24.33,31.73,371151.44,7308648.69
"241915",241915,1988,24,"st","Steenbuck",1,-24.35,31.73,371171.67,7306433.95
"241917",241917,1988,24,"st","Steenbuck",1,-24.35,31.71,369142.66,7306415.25
"241989",241989,1988,25,"st","Steenbuck",1,-24.07,31.88,386140.42,7337569.53
"241990",241990,1988,25,"st","Steenbuck",2,-24.07,31.88,386140.42,7337569.53
"241993",241993,1988,25,"st","Steenbuck",1,-24.08,31.88,386149.25,7336462.24
"241994",241994,1988,25,"st","Steenbuck",1,-24.08,31.89,387165.86,7336470.31
"241998",241998,1988,25,"st","Steenbuck",1,-24.11,31.89,387192.14,7333148.44
"242001",242001,1988,25,"st","Steenbuck",1,-24.13,31.9,388225.89,7330941.86
"242002",242002,1988,25,"st","Steenbuck",1,-24.14,31.9,388234.58,7329834.56
"242003",242003,1988,25,"st","Steenbuck",1,-24.15,31.9,388243.28,7328727.27
"242008",242008,1988,25,"st","Steenbuck",1,-24.15,31.89,387227.22,7328719.25
"242030",242030,1988,25,"st","Steenbuck",1,-24.01,31.87,385070.35,7344205.13
"242048",242048,1988,25,"st","Steenbuck",1,-24.07,31.87,385123.73,7337561.39
"242068",242068,1988,25,"st","Steenbuck",1,-24.17,31.88,386228.89,7326496.55
"242069",242069,1988,25,"st","Steenbuck",1,-24.17,31.88,386228.89,7326496.55
"242088",242088,1988,25,"st","Steenbuck",1,-24,31.87,385061.46,7345312.41
"242120",242120,1988,25,"st","Steenbuck",1,-24.1,31.86,384134.01,7334231.28
"242121",242121,1988,25,"st","Steenbuck",1,-24.11,31.86,384143.01,7333123.98
"242132",242132,1988,25,"st","Steenbuck",1,-24.15,31.85,383162.98,7328686.45
"242134",242134,1988,25,"st","Steenbuck",1,-24.14,31.85,383153.89,7329793.76
"242141",242141,1988,25,"st","Steenbuck",1,-24.11,31.85,383126.63,7333115.68
"242187",242187,1988,25,"st","Steenbuck",1,-24.03,31.84,382037.09,7341965.72
"242196",242196,1988,25,"st","Steenbuck",1,-24.06,31.85,383081.28,7338652.19
"242200",242200,1988,25,"st","Steenbuck",1,-24.07,31.85,383090.34,7337544.89
"242206",242206,1988,25,"st","Steenbuck",2,-24.09,31.84,382091.94,7335321.92
"242220",242220,1988,25,"st","Steenbuck",1,-24.14,31.85,383153.89,7329793.76
"242221",242221,1988,25,"st","Steenbuck",1,-24.15,31.85,383162.98,7328686.45
"242229",242229,1988,25,"st","Steenbuck",2,-24.17,31.85,383181.18,7326471.83
"242247",242247,1988,25,"st","Steenbuck",2,-24.12,31.84,382119.41,7332000
"242253",242253,1988,25,"st","Steenbuck",1,-24.09,31.84,382091.94,7335321.92
"242277",242277,1988,25,"st","Steenbuck",1,-24,31.83,380992.47,7345279.19
"242282",242282,1988,25,"st","Steenbuck",1,-23.98,31.83,380974.08,7347493.78
"242307",242307,1988,25,"st","Steenbuck",1,-24.06,31.83,381047.72,7338635.4
"242310",242310,1988,25,"st","Steenbuck",1,-24.07,31.83,381056.94,7337528.1
"242319",242319,1988,25,"st","Steenbuck",1,-24.1,31.83,381084.63,7334206.18
"242323",242323,1988,25,"st","Steenbuck",1,-24.11,31.83,381093.86,7333098.87
"242324",242324,1988,25,"st","Steenbuck",1,-24.12,31.83,381103.1,7331991.56
"242336",242336,1988,25,"st","Steenbuck",1,-24.17,31.84,382165.27,7326463.44
"242387",242387,1988,25,"st","Steenbuck",1,-24.02,31.81,378976.67,7343047.54
"242453",242453,1988,25,"st","Steenbuck",1,-24.05,31.8,377987.91,7339716.98
"242460",242460,1988,25,"st","Steenbuck",1,-24.08,31.8,378016.29,7336395.05
"242514",242514,1988,25,"st","Steenbuck",1,-24.05,31.78,375954.17,7339699.48
"242575",242575,1988,25,"st","Steenbuck",1,-24.06,31.75,372913.39,7338565.35
"242679",242679,1988,25,"st","Steenbuck",1,-24.06,31.72,369862.97,7338537.89
"242738",242738,1988,25,"st","Steenbuck",1,-24.08,31.73,370899.81,7336332.45
"242835",242835,1988,25,"st","Steenbuck",1,-24.17,31.77,375053.84,7326402.7
"242850",242850,1988,25,"st","Steenbuck",1,-24.09,31.75,372942.96,7335243.37
"242921",242921,1988,25,"st","Steenbuck",1,-24.13,31.79,377047.41,7330849.72
"242959",242959,1988,25,"st","Steenbuck",1,-24.12,31.82,380086.79,7331983.04
"243404",243404,1988,26,"st","Steenbuck",1,-24.38,31.87,385401.55,7303234.61
"243600",243600,1988,27,"st","Steenbuck",2,-24.37,31.97,395535.55,7304420.84
"243688",243688,1988,27,"st","Steenbuck",1,-24.43,31.96,394571.09,7297769.37
"243756",243756,1988,27,"st","Steenbuck",1,-24.35,31.94,392475.77,7306612.58
"243846",243846,1988,27,"st","Steenbuck",1,-24.34,31.92,390438.25,7307704.27
"243956",243956,1988,27,"st","Steenbuck",1,-24.28,31.95,393431.73,7314371.44
"243969",243969,1988,27,"st","Steenbuck",1,-24.28,31.94,392416.72,7314363.75
"244001",244001,1988,27,"st","Steenbuck",1,-24.25,31.9,388330.43,7317654.22
"244041",244041,1988,27,"st","Steenbuck",1,-24.21,31.86,384233.2,7322050.89
"244064",244064,1988,27,"st","Steenbuck",1,-24.27,31.9,388347.9,7315439.6
"244092",244092,1988,27,"st","Steenbuck",1,-24.24,31.87,385275.67,7318737.19
"244117",244117,1988,27,"st","Steenbuck",1,-24.27,31.89,387332.8,7315431.55
"244184",244184,1988,28,"st","Steenbuck",1,-24.45,31.78,376341.6,7295405.76
"244214",244214,1988,28,"st","Steenbuck",1,-24.46,31.8,378378.58,7294316.12
"244216",244216,1988,28,"st","Steenbuck",2,-24.46,31.8,378378.58,7294316.12
"244242",244242,1988,28,"st","Steenbuck",1,-24.47,31.81,379401.72,7293217.51
"244244",244244,1988,28,"st","Steenbuck",2,-24.47,31.81,379401.72,7293217.51
"244257",244257,1988,28,"st","Steenbuck",1,-24.44,31.82,380386.92,7296548.28
"244266",244266,1988,28,"st","Steenbuck",2,-24.43,31.83,381391.33,7297664.23
"244283",244283,1988,28,"st","Steenbuck",1,-24.41,31.83,381372.63,7299878.94
"244313",244313,1988,28,"st","Steenbuck",1,-24.46,31.86,384460.2,7294367.55
"244314",244314,1988,28,"st","Steenbuck",1,-24.43,31.85,383419.01,7297681.22
"244315",244315,1988,28,"st","Steenbuck",1,-24.43,31.85,383419.01,7297681.22
"244320",244320,1988,28,"st","Steenbuck",1,-24.42,31.85,383409.82,7298788.56
"244341",244341,1988,28,"st","Steenbuck",1,-24.46,31.87,385473.79,7294375.86
"244343",244343,1988,28,"st","Steenbuck",1,-24.48,31.87,385491.89,7292161.16
"244352",244352,1988,28,"st","Steenbuck",1,-24.42,31.87,385437.65,7298805.25
"244376",244376,1988,28,"st","Steenbuck",1,-24.42,31.89,387465.47,7298821.64
"244395",244395,1988,28,"st","Steenbuck",1,-24.45,31.9,388505.76,7295507.71
"244400",244400,1988,28,"st","Steenbuck",1,-24.48,31.92,390559.03,7292201.66
"244430",244430,1988,28,"st","Steenbuck",1,-24.47,31.92,390550.38,7293309
"244435",244435,1988,28,"st","Steenbuck",1,-24.47,31.93,391563.88,7293316.88
"244436",244436,1988,28,"st","Steenbuck",2,-24.47,31.93,391563.88,7293316.88
"244441",244441,1988,28,"st","Steenbuck",1,-24.42,31.92,390507.18,7298845.67
"244461",244461,1988,28,"st","Steenbuck",1,-24.41,31.92,390498.56,7299953
"244474",244474,1988,28,"st","Steenbuck",1,-24.48,31.94,392585.86,7292217.35
"244516",244516,1988,28,"st","Steenbuck",1,-24.47,31.96,394604.37,7293340.07
"244567",244567,1988,28,"st","Steenbuck",1,-24.5,31.96,394629.36,7290018.08
"244577",244577,1988,28,"st","Steenbuck",1,-24.62,31.89,387643.55,7276674.6
"244604",244604,1988,28,"st","Steenbuck",1,-24.63,31.92,390689.15,7275591.42
"244715",244715,1988,28,"st","Steenbuck",1,-24.57,31.95,393675.1,7282259.04
"244766",244766,1988,28,"st","Steenbuck",1,-24.54,31.95,393649.8,7285581.07
"244864",244864,1988,29,"st","Steenbuck",1,-24.49,31.76,374353.92,7290958.23
"244866",244866,1988,29,"st","Steenbuck",1,-24.49,31.76,374353.92,7290958.23
"244892",244892,1988,29,"st","Steenbuck",2,-24.51,31.82,380453.07,7288796.73
"244894",244894,1988,29,"st","Steenbuck",1,-24.51,31.81,379439.86,7288788.04
"244938",244938,1988,29,"st","Steenbuck",1,-24.53,31.8,378445.91,7286564.52
"244963",244963,1988,29,"st","Steenbuck",1,-24.54,31.84,382507.39,7285491.8
"244969",244969,1988,29,"st","Steenbuck",2,-24.55,31.85,383529.58,7284392.92
"244974",244974,1988,29,"st","Steenbuck",1,-24.56,31.79,377462.01,7283233.53
"244975",244975,1988,29,"st","Steenbuck",1,-24.56,31.79,377462.01,7283233.53
"245008",245008,1988,29,"st","Steenbuck",1,-24.58,31.82,380519.39,7281045.12
"245032",245032,1988,29,"st","Steenbuck",1,-24.59,31.81,379516.32,7279929.02
"245054",245054,1988,29,"st","Steenbuck",1,-24.6,31.79,377500.92,7278803.98
"245068",245068,1988,29,"st","Steenbuck",1,-24.62,31.88,386631.25,7276666.39
"245078",245078,1988,29,"st","Steenbuck",1,-24.63,31.83,381579.12,7275516.86
"245108",245108,1988,29,"st","Steenbuck",1,-24.64,31.88,386649.3,7274451.65
"245109",245109,1988,29,"st","Steenbuck",1,-24.64,31.88,386649.3,7274451.65
"245115",245115,1988,29,"st","Steenbuck",1,-24.65,31.83,381597.97,7273302.09
"245140",245140,1988,29,"st","Steenbuck",1,-24.66,31.88,386667.35,7272236.9
"245141",245141,1988,29,"st","Steenbuck",2,-24.66,31.89,387679.34,7272245.12
"245157",245157,1988,29,"st","Steenbuck",1,-24.67,31.87,385664.48,7271121.23
"245160",245160,1988,29,"st","Steenbuck",2,-24.67,31.88,386676.39,7271129.53
"245162",245162,1988,29,"st","Steenbuck",2,-24.66,31.91,389703.29,7272261.33
"245163",245163,1988,29,"st","Steenbuck",1,-24.66,31.91,389703.29,7272261.33
"245164",245164,1988,29,"st","Steenbuck",1,-24.65,31.91,389694.5,7273368.7
"245166",245166,1988,29,"st","Steenbuck",1,-24.67,31.88,386676.39,7271129.53
"245187",245187,1988,29,"st","Steenbuck",1,-24.69,31.87,385682.73,7268906.47
"245188",245188,1988,29,"st","Steenbuck",1,-24.69,31.86,384670.98,7268898.1
"245289",245289,1988,30,"st","Steenbuck",2,-24.76,31.98,396869.49,7261242.19
"245291",245291,1988,30,"st","Steenbuck",2,-24.77,31.98,396877.75,7260134.82
"245293",245293,1988,30,"st","Steenbuck",1,-24.77,31.98,396877.75,7260134.82
"245373",245373,1988,30,"st","Steenbuck",1,-24.71,31.94,392782,7266748.29
"245414",245414,1988,30,"st","Steenbuck",1,-24.71,31.93,391770.43,7266740.43
"245416",245416,1988,30,"st","Steenbuck",2,-24.71,31.92,390758.86,7266732.49
"245446",245446,1988,30,"st","Steenbuck",1,-24.75,31.91,389782.55,7262294.97
"245476",245476,1988,30,"st","Steenbuck",1,-24.78,31.9,388798.02,7258964.73
"245555",245555,1988,30,"st","Steenbuck",1,-24.6,31.99,397750.22,7278967.31
"245632",245632,1988,30,"st","Steenbuck",1,-24.6,31.98,396737.78,7278959.84
"245636",245636,1988,30,"st","Steenbuck",1,-24.65,31.98,396778.85,7273423.11
"245639",245639,1988,30,"st","Steenbuck",2,-24.67,31.98,396795.3,7271208.41
"245699",245699,1988,30,"st","Steenbuck",1,-24.63,31.96,394738,7275622.64
"245700",245700,1988,30,"st","Steenbuck",1,-24.63,31.96,394738,7275622.64
"245702",245702,1988,30,"st","Steenbuck",2,-24.64,31.96,394746.38,7274515.29
"245723",245723,1988,31,"st","Steenbuck",1,-24.44,31.62,360111.11,7296360.83
"245726",245726,1988,31,"st","Steenbuck",1,-24.45,31.62,360122.15,7295253.42
"245770",245770,1988,31,"st","Steenbuck",1,-24.39,31.63,361070.19,7301907.95
"245795",245795,1988,31,"st","Steenbuck",1,-24.46,31.65,363174.15,7294176
"245796",245796,1988,31,"st","Steenbuck",1,-24.45,31.65,363163.35,7295283.41
"245804",245804,1988,31,"st","Steenbuck",1,-24.39,31.63,361070.19,7301907.95
"245825",245825,1988,31,"st","Steenbuck",1,-24.47,31.67,365212.09,7293088.23
"245879",245879,1988,31,"st","Steenbuck",1,-24.49,31.7,368273.59,7290902.35
"245916",245916,1988,31,"st","Steenbuck",1,-24.42,31.68,366172.85,7298634.94
"246038",246038,1988,31,"st","Steenbuck",1,-24.47,31.74,372306.97,7293154.67
"246071",246071,1988,31,"st","Steenbuck",2,-24.46,31.75,373310.5,7294271.25
"246073",246073,1988,31,"st","Steenbuck",1,-24.47,31.76,374334.05,7293172.99
"246097",246097,1988,31,"st","Steenbuck",1,-24.42,31.76,374284.46,7298709.87
"246143",246143,1988,31,"st","Steenbuck",1,-24.48,31.71,369276.65,7292019.24
"246172",246172,1988,31,"st","Steenbuck",1,-24.59,31.74,372428.31,7279865.95
"246202",246202,1988,31,"st","Steenbuck",1,-24.61,31.76,374473.43,7277669.55
"246501",246501,1988,31,"st","Steenbuck",1,-24.47,31.63,361157.81,7293048.66
"246542",246542,1988,32,"st","Steenbuck",1,-24.56,31.46,344037.82,7282900.06
"246557",246557,1988,32,"st","Steenbuck",1,-24.53,31.47,345013.85,7286233.78
"246560",246560,1988,32,"st","Steenbuck",1,-24.51,31.46,343976,7288437.47
"246566",246566,1988,32,"st","Steenbuck",1,-24.56,31.49,347076.51,7282933.69
"246574",246574,1988,32,"st","Steenbuck",1,-24.5,31.46,343963.65,7289544.94
"246635",246635,1988,32,"st","Steenbuck",1,-24.47,31.48,345953.87,7292889.8
"246756",246756,1988,32,"st","Steenbuck",1,-24.47,31.56,354062.72,7292976.58
"246765",246765,1988,32,"st","Steenbuck",1,-24.44,31.55,353014.31,7296288.31
"246783",246783,1988,32,"st","Steenbuck",1,-24.46,31.57,355064.87,7294094.53
"246809",246809,1988,32,"st","Steenbuck",1,-24.46,31.58,356078.54,7294104.97
"246838",246838,1988,32,"st","Steenbuck",1,-24.42,31.58,356033.11,7298534.68
"246849",246849,1988,32,"st","Steenbuck",1,-24.45,31.59,357080.92,7295222.76
"246931",246931,1988,32,"st","Steenbuck",1,-24.53,31.5,348053.26,7286267.15
"246987",246987,1988,32,"st","Steenbuck",1,-24.5,31.6,358150.73,7289695.92
"246996",246996,1988,32,"st","Steenbuck",1,-24.52,31.61,359186.37,7287491.3
"247474",247474,1988,34,"st","Steenbuck",1,-24.74,31.82,380671.67,7263326.89
"247490",247490,1988,34,"st","Steenbuck",1,-24.75,31.81,379669.94,7262210.73
"247502",247502,1988,34,"st","Steenbuck",1,-24.74,31.8,378648.96,7263309.3
"247514",247514,1988,34,"st","Steenbuck",1,-24.75,31.79,377647.39,7262192.99
"247516",247516,1988,34,"st","Steenbuck",1,-24.76,31.79,377657.19,7261085.58
"247694",247694,1988,34,"st","Steenbuck",1,-24.78,31.74,372621.59,7258825.07
"247882",247882,1988,34,"st","Steenbuck",1,-24.67,31.72,370485.64,7270987.97
"247887",247887,1988,34,"st","Steenbuck",1,-24.67,31.7,368461.76,7270968.95
"247913",247913,1988,34,"st","Steenbuck",1,-24.65,31.7,368440.79,7273183.79
"247933",247933,1988,34,"st","Steenbuck",1,-24.61,31.69,367386.46,7277603.86
"247945",247945,1988,34,"st","Steenbuck",1,-24.59,31.69,367365.38,7279818.69
"247968",247968,1988,35,"st","Steenbuck",1,-24.8,31.65,363543.95,7256523.28
"247985",247985,1988,35,"st","Steenbuck",1,-24.83,31.66,364587.48,7253210.87
"247995",247995,1988,35,"st","Steenbuck",2,-24.86,31.67,365630.55,7249898.39
"248007",248007,1988,35,"st","Steenbuck",1,-24.86,31.71,369672.18,7249937.24
"248016",248016,1988,35,"st","Steenbuck",1,-24.87,31.68,366651.69,7248800.76
"248028",248028,1988,35,"st","Steenbuck",1,-24.87,31.74,372713.63,7248858.16
"248029",248029,1988,35,"st","Steenbuck",2,-24.87,31.74,372713.63,7248858.16
"248038",248038,1988,35,"st","Steenbuck",1,-24.88,31.68,366662.42,7247693.3
"248053",248053,1988,35,"st","Steenbuck",1,-24.88,31.71,369693.16,7247722.34
"248062",248062,1988,35,"st","Steenbuck",1,-24.88,31.73,371713.64,7247741.34
"248071",248071,1988,35,"st","Steenbuck",1,-24.89,31.7,368693.49,7246605.28
"248102",248102,1988,35,"st","Steenbuck",1,-24.9,31.69,367693.99,7245488.14
"248128",248128,1988,35,"st","Steenbuck",1,-24.91,31.71,369724.65,7244399.99
"248151",248151,1988,35,"st","Steenbuck",1,-24.92,31.74,372764.9,7243320.94
"248158",248158,1988,35,"st","Steenbuck",1,-24.93,31.71,369745.67,7242185.07
"248434",248434,1988,35,"st","Steenbuck",1,-24.83,31.65,363576.81,7253200.9
"248451",248451,1988,35,"st","Steenbuck",2,-24.8,31.61,359500.3,7256482.72
"248460",248460,1988,35,"st","Steenbuck",1,-24.78,31.62,360488.85,7258707.9
"248463",248463,1988,35,"st","Steenbuck",2,-24.78,31.61,359477.77,7258697.65
"248475",248475,1988,36,"st","Steenbuck",2,-24.88,31.88,386866.91,7247874.32
"248505",248505,1988,36,"st","Steenbuck",2,-24.88,31.86,384846.5,7247857.56
"248507",248507,1988,36,"st","Steenbuck",1,-24.87,31.87,385847.52,7248973.39
"248508",248508,1988,36,"st","Steenbuck",1,-24.87,31.87,385847.52,7248973.39
"248532",248532,1988,36,"st","Steenbuck",2,-24.85,31.86,384818.71,7251179.78
"248566",248566,1988,36,"st","Steenbuck",1,-24.88,31.84,382826.09,7247840.49
"248597",248597,1988,36,"st","Steenbuck",2,-24.86,31.83,381796.85,7250046.68
"248601",248601,1988,36,"st","Steenbuck",1,-24.84,31.83,381777.85,7252261.51
"248635",248635,1988,36,"st","Steenbuck",1,-24.87,31.8,378775.47,7248912.9
"248660",248660,1988,36,"st","Steenbuck",2,-24.88,31.78,376764.79,7247787.52
"248661",248661,1988,36,"st","Steenbuck",2,-24.87,31.78,376754.87,7248894.95
"248664",248664,1988,36,"st","Steenbuck",1,-24.87,31.76,374734.25,7248876.71
"248677",248677,1988,36,"st","Steenbuck",1,-24.77,31.71,369577.99,7259904.21
"248703",248703,1988,36,"st","Steenbuck",2,-24.79,31.73,371620.83,7257708.28
"248713",248713,1988,36,"st","Steenbuck",1,-24.83,31.73,371662.04,7253278.54
"248721",248721,1988,36,"st","Steenbuck",1,-24.77,31.75,373622.51,7259941.78
"248725",248725,1988,36,"st","Steenbuck",1,-24.74,31.76,374603.52,7263273.25
"248751",248751,1988,36,"st","Steenbuck",1,-24.77,31.78,376655.87,7259969.18
"248762",248762,1988,36,"st","Steenbuck",1,-24.81,31.77,375684.63,7255530.44
"248814",248814,1988,36,"st","Steenbuck",1,-24.8,31.8,378707.27,7256664.84
"248873",248873,1988,37,"st","Steenbuck",1,-24.86,32,398972.9,7250183.44
"248878",248878,1988,37,"st","Steenbuck",1,-24.81,32,398932.31,7255720.3
"248906",248906,1988,37,"st","Steenbuck",1,-24.83,31.99,397937.96,7253498.11
"248944",248944,1988,37,"st","Steenbuck",1,-24.85,31.97,395933.51,7251268.25
"249002",249002,1988,37,"st","Steenbuck",2,-24.89,31.97,395967,7246838.71
"249003",249003,1988,37,"st","Steenbuck",1,-24.89,31.97,395967,7246838.71
"249063",249063,1988,37,"st","Steenbuck",2,-24.87,31.95,393929.72,7249038.06
"249116",249116,1988,37,"st","Steenbuck",1,-24.87,31.93,391909.18,7249022.33
"249128",249128,1988,37,"st","Steenbuck",1,-24.84,31.93,391883.1,7252344.5
"249165",249165,1988,37,"st","Steenbuck",1,-24.89,31.92,390916.48,7246799.57
"249240",249240,1988,37,"st","Steenbuck",2,-24.88,31.89,387877.11,7247882.6
"249271",249271,1988,37,"st","Steenbuck",1,-25,32.02,401105.36,7234694.79
"249274",249274,1988,37,"st","Steenbuck",2,-25.01,32.02,401113.36,7233587.4
"249277",249277,1988,37,"st","Steenbuck",1,-25.02,32.02,401121.37,7232480.01
"249279",249279,1988,37,"st","Steenbuck",1,-25.03,32.02,401129.39,7231372.62
"249283",249283,1988,37,"st","Steenbuck",1,-25.06,32.02,401153.45,7228050.42
"249314",249314,1988,37,"st","Steenbuck",1,-25,32,399086.97,7234680.05
"249315",249315,1988,37,"st","Steenbuck",1,-25,32.01,400096.16,7234687.46
"249555",249555,1988,37,"st","Steenbuck",1,-25.11,31.97,396152.12,7222475.88
"249557",249557,1988,37,"st","Steenbuck",1,-25.12,31.97,396160.57,7221368.46
"249570",249570,1988,37,"st","Steenbuck",1,-25.09,31.97,396135.23,7224690.71
"249578",249578,1988,37,"st","Steenbuck",1,-25.16,31.95,394178.62,7216923.22
"249585",249585,1988,37,"st","Steenbuck",1,-25.13,31.95,394152.74,7220245.5
"249591",249591,1988,37,"st","Steenbuck",1,-25.15,31.94,393162.01,7218022.76
"249597",249597,1988,37,"st","Steenbuck",1,-25.1,31.94,393118.51,7223559.89
"249611",249611,1988,37,"st","Steenbuck",1,-24.9,31.94,392945.32,7245708.06
"249634",249634,1988,37,"st","Steenbuck",1,-24.93,31.98,397010.32,7242416.78
"249735",249735,1988,37,"st","Steenbuck",1,-25,31.96,395050.17,7234649.68
"249814",249814,1988,38,"st","Steenbuck",1,-24.99,31.93,392013.8,7235733.53
"249827",249827,1988,38,"st","Steenbuck",2,-24.93,31.9,388932.08,7242353.77
"249852",249852,1988,38,"st","Steenbuck",1,-25.02,31.89,388003.82,7232378.81
"249859",249859,1988,38,"st","Steenbuck",1,-24.9,31.88,386885.13,7245659.51
"249862",249862,1988,38,"st","Steenbuck",1,-24.91,31.88,386894.25,7244552.1
"249867",249867,1988,38,"st","Steenbuck",1,-25,31.88,386976.46,7234585.35
"249869",249869,1988,38,"st","Steenbuck",1,-25.01,31.88,386985.61,7233477.93
"249871",249871,1988,38,"st","Steenbuck",1,-25,31.88,386976.46,7234585.35
"249877",249877,1988,38,"st","Steenbuck",2,-24.9,31.86,384865.05,7245642.73
"249878",249878,1988,38,"st","Steenbuck",1,-24.9,31.87,385875.09,7245651.16
"249883",249883,1988,38,"st","Steenbuck",1,-24.93,31.86,384892.9,7242320.49
"249969",249969,1988,38,"st","Steenbuck",1,-24.94,31.82,380863.31,7241178.58
"250050",250050,1988,38,"st","Steenbuck",1,-24.91,31.79,377804.55,7244474.24
"250072",250072,1988,38,"st","Steenbuck",2,-24.96,31.77,375834.71,7238918.92
"250113",250113,1988,38,"st","Steenbuck",2,-24.99,31.79,377883.49,7235614.74
"250141",250141,1988,38,"st","Steenbuck",1,-25.01,31.84,382949.03,7233443.97
"250146",250146,1988,38,"st","Steenbuck",1,-25.02,31.81,379931.3,7232310.28
"250207",250207,1988,38,"st","Steenbuck",1,-25.05,31.84,382986.98,7229014.22
"250223",250223,1988,38,"st","Steenbuck",1,-25.06,31.86,385013.95,7227923.94
"250244",250244,1988,38,"st","Steenbuck",1,-25.06,31.95,394092.48,7227997.44
"250247",250247,1988,38,"st","Steenbuck",1,-25.07,31.95,394101.08,7226890.02
"250248",250248,1988,38,"st","Steenbuck",1,-25.07,31.95,394101.08,7226890.02
"250250",250250,1988,38,"st","Steenbuck",1,-25.06,31.94,393083.77,7227989.57
"250260",250260,1988,38,"st","Steenbuck",1,-25.08,31.93,392092.58,7225766.78
"250263",250263,1988,38,"st","Steenbuck",1,-25.09,31.93,392101.35,7224659.36
"250275",250275,1988,38,"st","Steenbuck",1,-25.02,31.88,386994.77,7232370.51
"250312",250312,1988,39,"st","Steenbuck",2,-24.97,31.32,330414.79,7237324.35
"250329",250329,1988,39,"st","Steenbuck",1,-24.99,31.3,328423.3,7235084
"250342",250342,1988,39,"st","Steenbuck",1,-25,31.32,330455.96,7234001.57
"250440",250440,1988,39,"st","Steenbuck",2,-25.04,31.31,329501.86,7229558.62
"250451",250451,1988,39,"st","Steenbuck",1,-25.04,31.38,336565.16,7229645
"250467",250467,1988,39,"st","Steenbuck",1,-25.05,31.3,328506.72,7228438.37
"250492",250492,1988,39,"st","Steenbuck",1,-25.06,31.31,329529.54,7227343.41
"250679",250679,1988,39,"st","Steenbuck",1,-25.08,31.23,321487.31,7225024.88
"250747",250747,1988,39,"st","Steenbuck",1,-25.12,31.24,322553.82,7220607.51
"250756",250756,1988,39,"st","Steenbuck",1,-25.13,31.2,318534.88,7219446.63
"250853",250853,1988,40,"st","Steenbuck",1,-25.21,31.28,326714.76,7210690.84
"250867",250867,1988,40,"st","Steenbuck",1,-25.24,31.3,328772.12,7207393.57
"250884",250884,1988,40,"st","Steenbuck",1,-25.13,31.34,332651.49,7219627.7
"250893",250893,1988,40,"st","Steenbuck",1,-25.15,31.31,329654.32,7217374.9
"250894",250894,1988,40,"st","Steenbuck",2,-25.15,31.3,328646.17,7217362.22
"250895",250895,1988,40,"st","Steenbuck",1,-25.15,31.29,327638.02,7217349.47
"250974",250974,1988,40,"st","Steenbuck",1,-25.18,31.29,327680.2,7214026.59
"251013",251013,1988,40,"st","Steenbuck",1,-25.2,31.32,330731.57,7211849.42
"251017",251017,1988,40,"st","Steenbuck",2,-25.21,31.31,329737.75,7210729.17
"251035",251035,1988,40,"st","Steenbuck",1,-25.21,31.33,331753.05,7210754.35
"251057",251057,1988,40,"st","Steenbuck",1,-25.22,31.35,333781.94,7209671.61
"251075",251075,1988,40,"st","Steenbuck",1,-25.22,31.38,336804.61,7209708.37
"251076",251076,1988,40,"st","Steenbuck",1,-25.25,31.32,330800.79,7206311.3
"251080",251080,1988,40,"st","Steenbuck",1,-25.28,31.31,329835.31,7202975.75
"251088",251088,1988,40,"st","Steenbuck",1,-25.29,31.27,325821.26,7201816.75
"251094",251094,1988,40,"st","Steenbuck",2,-25.29,31.3,328842.27,7201855.39
"251098",251098,1988,40,"st","Steenbuck",1,-25.29,31.31,329849.27,7201868.12
"251100",251100,1988,40,"st","Steenbuck",1,-25.3,31.29,327849.4,7200734.94
"251162",251162,1988,40,"st","Steenbuck",1,-25.34,31.32,330925.72,7196342.59
"251170",251170,1988,40,"st","Steenbuck",1,-25.34,31.3,328912.56,7196317.17
"251198",251198,1988,40,"st","Steenbuck",1,-25.37,31.3,328954.79,7192994.22
"251204",251204,1988,40,"st","Steenbuck",1,-25.37,31.31,329961.13,7193006.98
"251214",251214,1988,40,"st","Steenbuck",1,-25.38,31.3,328968.88,7191886.56
"251229",251229,1988,41,"st","Steenbuck",1,-25.33,31.39,337958.37,7197536.81
"251239",251239,1988,41,"st","Steenbuck",1,-25.34,31.39,337971.69,7196429.19
"251264",251264,1988,41,"st","Steenbuck",1,-25.34,31.33,331932.3,7196355.18
"251300",251300,1988,41,"st","Steenbuck",2,-25.36,31.33,331959.95,7194139.91
"251304",251304,1988,41,"st","Steenbuck",1,-25.36,31.32,330953.54,7194127.3
"251327",251327,1988,41,"st","Steenbuck",1,-25.41,31.37,336053.13,7188651.43
"251404",251404,1988,41,"st","Steenbuck",1,-25.25,31.33,331808.11,7206323.86
"251413",251413,1988,41,"st","Steenbuck",1,-25.3,31.44,342952.83,7200919.18
"251478",251478,1988,41,"st","Steenbuck",1,-25.24,31.4,338846.08,7207517.31
"251493",251493,1988,41,"st","Steenbuck",1,-25.22,31.39,337812.16,7209720.48
"251569",251569,1988,41,"st","Steenbuck",1,-25.15,31.45,343768.11,7217544.54
"251589",251589,1988,41,"st","Steenbuck",2,-25.24,31.44,342875.57,7207564.71
"251608",251608,1988,41,"st","Steenbuck",1,-25.16,31.46,344788.87,7216448.53
"251620",251620,1988,41,"st","Steenbuck",2,-25.22,31.46,344864.92,7209803.11
"251762",251762,1988,41,"st","Steenbuck",2,-25.12,31.52,350788.32,7220946.49
"251775",251775,1988,41,"st","Steenbuck",1,-25.15,31.51,349816.69,7217612.76
"251832",251832,1988,41,"st","Steenbuck",1,-25.12,31.46,344738.27,7220878.79
"251837",251837,1988,41,"st","Steenbuck",2,-25.12,31.45,343729.92,7220867.25
"251842",251842,1988,41,"st","Steenbuck",1,-25.15,31.44,342760.01,7217532.91
"251918",251918,1988,41,"st","Steenbuck",2,-25.13,31.38,336684.68,7219676.74
"252051",252051,1988,42,"st","Steenbuck",1,-25.07,31.59,357788.76,7226559.66
"252065",252065,1988,42,"st","Steenbuck",1,-25.1,31.55,353789.5,7223194.4
"252107",252107,1988,42,"st","Steenbuck",1,-25.12,31.56,354821.62,7220990.13
"252140",252140,1988,42,"st","Steenbuck",1,-25.15,31.57,355865.17,7217678.27
"252190",252190,1988,42,"st","Steenbuck",1,-25.17,31.61,359920.28,7215505.41
"252191",252191,1988,42,"st","Steenbuck",1,-25.17,31.6,358912.38,7215494.98
"252227",252227,1988,42,"st","Steenbuck",1,-25.17,31.59,357904.48,7215484.46
"252255",252255,1988,42,"st","Steenbuck",1,-25.18,31.53,351869.12,7214312.26
"252290",252290,1988,42,"st","Steenbuck",2,-25.19,31.56,354904.46,7213237.4
"252299",252299,1988,42,"st","Steenbuck",1,-25.19,31.52,350873.46,7213193.67
"252473",252473,1988,42,"st","Steenbuck",1,-25.26,31.54,352973.18,7205462.83
"252501",252501,1988,42,"st","Steenbuck",1,-25.27,31.53,351978.14,7204344.28
"252581",252581,1988,43,"st","Steenbuck",1,-25.04,31.58,356745.16,7229871.64
"252592",252592,1988,43,"st","Steenbuck",1,-25.02,31.58,356721.92,7232086.66
"252619",252619,1988,43,"st","Steenbuck",1,-25.05,31.56,354738.99,7228742.8
"252627",252627,1988,43,"st","Steenbuck",1,-25.01,31.56,354691.88,7233172.87
"252652",252652,1988,43,"st","Steenbuck",1,-25.03,31.54,352697.31,7230936.22
"252655",252655,1988,43,"st","Steenbuck",1,-25.04,31.54,352709.25,7229828.7
"252747",252747,1988,43,"st","Steenbuck",1,-25.08,31.5,348722.44,7225354.41
"252835",252835,1988,43,"st","Steenbuck",1,-25.06,31.42,340627.12,7227477.58
"252926",252926,1988,43,"st","Steenbuck",1,-24.98,31.53,351628.17,7236462.92
"253073",253073,1988,43,"st","Steenbuck",1,-24.97,31.41,339501.27,7237433.83
"253134",253134,1988,43,"st","Steenbuck",1,-24.98,31.37,335476.17,7236278.34
"253140",253140,1988,43,"st","Steenbuck",1,-25.01,31.38,336525.4,7232967.72
"253540",253540,1988,44,"st","Steenbuck",1,-25.36,31.64,363157.17,7194493.31
"253566",253566,1988,44,"st","Steenbuck",1,-25.36,31.66,365169.8,7194513.62
"253584",253584,1988,44,"st","Steenbuck",1,-25.31,31.68,367127.82,7200071.25
"253992",253992,1988,44,"st","Steenbuck",1,-25.18,31.73,372025.27,7214517.35
"253993",253993,1988,44,"st","Steenbuck",1,-25.18,31.74,373033.05,7214526.82
"254051",254051,1988,44,"st","Steenbuck",1,-25.23,31.7,369055.43,7208951
"254096",254096,1988,44,"st","Steenbuck",1,-25.19,31.68,366997.19,7213361.39
"254132",254132,1988,44,"st","Steenbuck",1,-25.2,31.66,364992.79,7212233.96
"254146",254146,1988,44,"st","Steenbuck",1,-25.19,31.64,362966.32,7213321.26
"254163",254163,1988,44,"st","Steenbuck",1,-25.17,31.62,360928.17,7215515.78
"254258",254258,1988,44,"st","Steenbuck",1,-25.24,31.68,367051.55,7207823.86
"254482",254482,1988,45,"st","Steenbuck",1,-25.17,31.8,379069.81,7215689.53
"254489",254489,1988,45,"st","Steenbuck",1,-25.19,31.82,381104.91,7213492.41
"254505",254505,1988,45,"st","Steenbuck",1,-25.22,31.85,384156.33,7210196.19
"254527",254527,1988,45,"st","Steenbuck",2,-25.2,31.81,380107.02,7212376.07
"254655",254655,1988,45,"st","Steenbuck",1,-25.2,31.9,389175.3,7212453.24
"254723",254723,1988,45,"st","Steenbuck",1,-25.23,31.94,393231.78,7209163.27
"254749",254749,1988,45,"st","Steenbuck",1,-25.24,31.94,393240.51,7208055.83
"254772",254772,1988,45,"st","Steenbuck",1,-25.25,31.85,384184.76,7206873.8
"254837",254837,1988,45,"st","Steenbuck",2,-25.3,31.86,385238.98,7201345.05
"255287",255287,1988,46,"st","Steenbuck",1,-25.34,31.94,393328.05,7196981.32
"255325",255325,1988,46,"st","Steenbuck",1,-25.31,31.91,390281.77,7200279.46
"255416",255416,1988,47,"st","Steenbuck",1,-22.62,31.2,314999.35,7497427.18
"255417",255417,1988,47,"st","Steenbuck",1,-22.63,31.21,316040.69,7496332.24
"255420",255420,1988,47,"st","Steenbuck",1,-22.63,31.2,315012.74,7496319.84
"255431",255431,1988,47,"st","Steenbuck",1,-22.63,31.2,315012.74,7496319.84
"255442",255442,1988,47,"st","Steenbuck",1,-22.67,31.15,309928.05,7491827.4
"255445",255445,1988,47,"st","Steenbuck",1,-22.66,31.2,315052.94,7492997.84
"255456",255456,1988,47,"st","Steenbuck",1,-22.64,31.26,321193.3,7495285.87
"255457",255457,1988,47,"st","Steenbuck",1,-22.63,31.26,321180.35,7496393.18
"255464",255464,1988,47,"st","Steenbuck",1,-22.66,31.24,319163.8,7493047.06
"255465",255465,1988,47,"st","Steenbuck",2,-22.65,31.23,318122.91,7494142.18
"255479",255479,1988,47,"st","Steenbuck",1,-22.69,31.13,307900.59,7489586.93
"255489",255489,1988,47,"st","Steenbuck",1,-22.66,31.24,319163.8,7493047.06
"255492",255492,1988,47,"st","Steenbuck",1,-22.66,31.25,320191.5,7493059.19
"255512",255512,1988,47,"st","Steenbuck",1,-22.68,31.25,320217.58,7490844.56
"255600",255600,1988,48,"st","Steenbuck",1,-22.78,31.25,320348.3,7479771.31
"255603",255603,1988,48,"st","Steenbuck",1,-22.78,31.27,322401.91,7479795.47
"255604",255604,1988,48,"st","Steenbuck",1,-22.75,31.35,330579.15,7483211.17
"255608",255608,1988,48,"st","Steenbuck",1,-22.78,31.28,323428.71,7479807.44
"255611",255611,1988,48,"st","Steenbuck",1,-22.77,31.34,329576.98,7480985.11
"255619",255619,1988,48,"st","Steenbuck",1,-22.78,31.29,324455.5,7479819.34
"255620",255620,1988,48,"st","Steenbuck",2,-22.79,31.27,322414.86,7478688.14
"255634",255634,1988,48,"st","Steenbuck",1,-22.77,31.35,330603.83,7480996.6
"255635",255635,1988,48,"st","Steenbuck",1,-22.78,31.34,329589.41,7479877.82
"255636",255636,1988,48,"st","Steenbuck",1,-22.78,31.33,328562.63,7479866.26
"255637",255637,1988,48,"st","Steenbuck",1,-22.78,31.33,328562.63,7479866.26
"255638",255638,1988,48,"st","Steenbuck",1,-22.78,31.32,327535.85,7479854.64
"255639",255639,1988,48,"st","Steenbuck",1,-22.79,31.31,326521.73,7478735.64
"255641",255641,1988,48,"st","Steenbuck",1,-22.79,31.3,325495.02,7478723.87
"255642",255642,1988,48,"st","Steenbuck",1,-22.79,31.3,325495.02,7478723.87
"255643",255643,1988,48,"st","Steenbuck",1,-22.79,31.29,324468.3,7478712.03
"255659",255659,1988,48,"st","Steenbuck",1,-22.82,31.21,316294.69,7475292.77
"255669",255669,1988,48,"st","Steenbuck",1,-22.8,31.3,325507.75,7477616.56
"255674",255674,1988,48,"st","Steenbuck",1,-22.79,31.32,327548.43,7478747.34
"255682",255682,1988,48,"st","Steenbuck",2,-22.79,31.35,330628.53,7478782.02
"255685",255685,1988,48,"st","Steenbuck",2,-22.8,31.32,327561.01,7477640.03
"255686",255686,1988,48,"st","Steenbuck",1,-22.8,31.32,327561.01,7477640.03
"255687",255687,1988,48,"st","Steenbuck",1,-22.8,31.31,326534.38,7477628.33
"255688",255688,1988,48,"st","Steenbuck",1,-22.8,31.3,325507.75,7477616.56
"255691",255691,1988,48,"st","Steenbuck",2,-22.81,31.29,324493.92,7476497.4
"255694",255694,1988,48,"st","Steenbuck",1,-22.81,31.27,322440.78,7476473.49
"255695",255695,1988,48,"st","Steenbuck",1,-22.82,31.27,322453.75,7475366.17
"255697",255697,1988,48,"st","Steenbuck",1,-22.82,31.26,321427.25,7475354.11
"255699",255699,1988,48,"st","Steenbuck",1,-22.82,31.26,321427.25,7475354.11
"255700",255700,1988,48,"st","Steenbuck",1,-22.82,31.25,320400.75,7475341.98
"255701",255701,1988,48,"st","Steenbuck",1,-22.82,31.25,320400.75,7475341.98
"255713",255713,1988,48,"st","Steenbuck",1,-22.82,31.28,323480.25,7475378.16
"255724",255724,1988,48,"st","Steenbuck",1,-22.81,31.32,327573.6,7476532.73
"255728",255728,1988,48,"st","Steenbuck",1,-22.82,31.3,325533.23,7475401.93
"255731",255731,1988,48,"st","Steenbuck",1,-22.82,31.28,323480.25,7475378.16
"255741",255741,1988,48,"st","Steenbuck",1,-22.83,31.28,323493.15,7474270.83
"255763",255763,1988,48,"st","Steenbuck",1,-22.81,31.34,329626.71,7476555.93
"255764",255764,1988,48,"st","Steenbuck",1,-22.82,31.32,327586.2,7475425.42
"255766",255766,1988,48,"st","Steenbuck",1,-22.83,31.3,325545.98,7474294.61
"255771",255771,1988,48,"st","Steenbuck",1,-22.84,31.27,322479.7,7473151.51
"255776",255776,1988,48,"st","Steenbuck",2,-22.85,31.26,321466.41,7472032.11
"255782",255782,1988,48,"st","Steenbuck",1,-22.85,31.24,319413.85,7472007.76
"255806",255806,1988,48,"st","Steenbuck",1,-22.83,31.36,331704.38,7474364.28
"255807",255807,1988,48,"st","Steenbuck",1,-22.83,31.36,331704.38,7474364.28
"255817",255817,1988,48,"st","Steenbuck",1,-22.85,31.3,325571.49,7472079.98
"255820",255820,1988,48,"st","Steenbuck",1,-22.86,31.28,323531.88,7470948.85
"255845",255845,1988,48,"st","Steenbuck",1,-22.86,31.37,332767.47,7471053.77
"255863",255863,1988,48,"st","Steenbuck",1,-22.88,31.27,322531.68,7468722.18
"255890",255890,1988,48,"st","Steenbuck",1,-22.89,31.38,333830.15,7467743.21
"255918",255918,1988,48,"st","Steenbuck",1,-22.75,31.38,333660.11,7483245.18
"255944",255944,1988,48,"st","Steenbuck",1,-22.83,31.42,337862.66,7474431.44
"255946",255946,1988,48,"st","Steenbuck",1,-22.87,31.43,338936.17,7470013.31
"256100",256100,1988,49,"st","Steenbuck",1,-23.02,31.37,332963.98,7453336.93
"256114",256114,1988,49,"st","Steenbuck",1,-22.89,31.4,335882.01,7467765.64
"256128",256128,1988,49,"st","Steenbuck",1,-22.91,31.41,336931.85,7465562.19
"256134",256134,1988,49,"st","Steenbuck",1,-22.91,31.46,342060.66,7465616.74
"256141",256141,1988,49,"st","Steenbuck",1,-22.92,31.42,337969.51,7464465.96
"256142",256142,1988,49,"st","Steenbuck",1,-22.92,31.4,335918.12,7464443.78
"256147",256147,1988,49,"st","Steenbuck",1,-22.93,31.47,343109.45,7463412.91
"256182",256182,1988,49,"st","Steenbuck",1,-22.96,31.47,343144.04,7460091.11
"256183",256183,1988,49,"st","Steenbuck",1,-22.96,31.46,342118.66,7460080.4
"256185",256185,1988,49,"st","Steenbuck",1,-22.96,31.45,341093.28,7460069.61
"256189",256189,1988,49,"st","Steenbuck",1,-22.96,31.43,339042.52,7460047.82
"256193",256193,1988,49,"st","Steenbuck",1,-22.96,31.41,336991.74,7460025.75
"256194",256194,1988,49,"st","Steenbuck",2,-22.96,31.4,335966.34,7460014.62
"256195",256195,1988,49,"st","Steenbuck",3,-22.96,31.4,335966.34,7460014.62
"256196",256196,1988,49,"st","Steenbuck",2,-22.96,31.39,334940.94,7460003.41
"256197",256197,1988,49,"st","Steenbuck",1,-22.97,31.39,334953.09,7458896.11
"256198",256198,1988,49,"st","Steenbuck",1,-22.97,31.4,335978.41,7458907.32
"256199",256199,1988,49,"st","Steenbuck",1,-22.97,31.42,338029.05,7458929.54
"256203",256203,1988,49,"st","Steenbuck",1,-22.98,31.46,342141.9,7457865.85
"256206",256206,1988,49,"st","Steenbuck",1,-22.98,31.41,337015.73,7457811.17
"256208",256208,1988,49,"st","Steenbuck",2,-22.98,31.4,335990.48,7457800.03
"256210",256210,1988,49,"st","Steenbuck",1,-22.99,31.38,333952.21,7456670.22
"256219",256219,1988,49,"st","Steenbuck",1,-22.98,31.47,343167.12,7457876.58
"256221",256221,1988,49,"st","Steenbuck",1,-22.99,31.48,344203.81,7456779.96
"256222",256222,1988,49,"st","Steenbuck",1,-22.99,31.47,343178.67,7456769.3
"256223",256223,1988,49,"st","Steenbuck",1,-22.99,31.46,342153.52,7456758.58
"256224",256224,1988,49,"st","Steenbuck",2,-22.99,31.45,341128.37,7456747.78
"256235",256235,1988,49,"st","Steenbuck",1,-23,31.4,336014.64,7455585.43
"256236",256236,1988,49,"st","Steenbuck",1,-23,31.4,336014.64,7455585.43
"256249",256249,1988,49,"st","Steenbuck",1,-23,31.45,341140.07,7455640.5
"256260",256260,1988,49,"st","Steenbuck",1,-23.01,31.45,341151.78,7454533.21
"256264",256264,1988,49,"st","Steenbuck",1,-23.01,31.42,338076.76,7454500.37
"256278",256278,1988,50,"st","Steenbuck",1,-23.02,31.39,335013.88,7453359.6
"256281",256281,1988,50,"st","Steenbuck",1,-23.01,31.43,339101.77,7454511.39
"256296",256296,1988,50,"st","Steenbuck",1,-23.02,31.45,341163.5,7453425.93
"256302",256302,1988,50,"st","Steenbuck",1,-23.03,31.41,337075.79,7452274.69
"256303",256303,1988,50,"st","Steenbuck",1,-23.03,31.4,336050.92,7452263.53
"256329",256329,1988,50,"st","Steenbuck",1,-23.04,31.44,340162.17,7451200.48
"256349",256349,1988,50,"st","Steenbuck",1,-23.05,31.51,347346.81,7450167.95
"256371",256371,1988,50,"st","Steenbuck",1,-23.07,31.44,340197.59,7447878.6
"256384",256384,1988,50,"st","Steenbuck",1,-23.07,31.5,346344.84,7447942.94
"256411",256411,1988,50,"st","Steenbuck",1,-23.08,31.5,346356.2,7446835.67
"256427",256427,1988,50,"st","Steenbuck",1,-23.1,31.45,341257.39,7444567.63
"256465",256465,1988,50,"st","Steenbuck",1,-23.13,31.5,346413.09,7441299.29
"256502",256502,1988,50,"st","Steenbuck",1,-23.19,31.55,351599.57,7434707.48
"256510",256510,1988,51,"st","Steenbuck",1,-22.59,31.3,325241.47,7500869.84
"256738",256738,1988,52,"st","Steenbuck",1,-23.08,31.35,330989,7446670.03
"256739",256739,1988,52,"st","Steenbuck",1,-23.07,31.36,332001.08,7447788.89
"256825",256825,1988,52,"st","Steenbuck",1,-23.1,31.23,318721.49,7444311.39
"256909",256909,1988,52,"st","Steenbuck",1,-23.05,31.32,327877.29,7449957.02
"256916",256916,1988,52,"st","Steenbuck",1,-23.04,31.33,328889.39,7451076.08
"256974",256974,1988,53,"st","Steenbuck",2,-23.12,30.95,290067.84,7441721.07
"256976",256976,1988,53,"st","Steenbuck",1,-23.14,30.96,291123.2,7439520.42
"256978",256978,1988,53,"st","Steenbuck",1,-23.15,30.96,291138.7,7438412.92
"256980",256980,1988,53,"st","Steenbuck",1,-23.16,30.96,291154.21,7437305.41
"257002",257002,1988,53,"st","Steenbuck",1,-23.11,30.95,290052.28,7442828.58
"257006",257006,1988,53,"st","Steenbuck",1,-23.09,30.95,290021.17,7445043.59
"257030",257030,1988,53,"st","Steenbuck",1,-23.14,30.98,293171.6,7439548.96
"257041",257041,1988,53,"st","Steenbuck",1,-23.09,30.97,292070.35,7445072.21
"257047",257047,1988,53,"st","Steenbuck",1,-23.13,30.98,293156.25,7440656.45
"257051",257051,1988,53,"st","Steenbuck",1,-23.14,30.98,293171.6,7439548.96
"257116",257116,1988,53,"st","Steenbuck",1,-23.12,31.01,296213.94,7441806.19
"257119",257119,1988,53,"st","Steenbuck",1,-23.11,31.02,297223.25,7442927.6
"257123",257123,1988,53,"st","Steenbuck",1,-23.15,31.03,298307.51,7438511.58
"257145",257145,1988,53,"st","Steenbuck",1,-23.17,31.06,301409.3,7436337.89
"257188",257188,1988,53,"st","Steenbuck",1,-23.17,31.1,305505.01,7436391.91
"257220",257220,1988,53,"st","Steenbuck",1,-23.15,31.12,307524.24,7438633.37
"257231",257231,1988,53,"st","Steenbuck",1,-23.16,31.13,308562.52,7437539.12
"257491",257491,1988,53,"st","Steenbuck",2,-23.03,31.09,304278.23,7451882.67
"257549",257549,1988,54,"st","Steenbuck",1,-22.9,30.96,290752.96,7466100.19
"257566",257566,1988,54,"st","Steenbuck",1,-22.98,30.94,288825.11,7457211.69
"257592",257592,1988,54,"st","Steenbuck",1,-22.93,30.96,290799.04,7462777.76
"257654",257654,1988,54,"st","Steenbuck",1,-22.98,30.98,292926.8,7457268.73
"257787",257787,1988,54,"st","Steenbuck",1,-22.95,31.09,304162.84,7460742.08
"257879",257879,1988,54,"st","Steenbuck",1,-22.91,31.11,306157.07,7465198.25
"257918",257918,1988,54,"st","Steenbuck",1,-22.91,31.15,310260.57,7465250.41
"258039",258039,1988,54,"st","Steenbuck",1,-22.97,31.19,314445.85,7458657.19
"258266",258266,1988,55,"st","Steenbuck",1,-22.87,30.98,292759.43,7469450.89
"258295",258295,1988,55,"st","Steenbuck",1,-22.85,30.98,292729.08,7471665.81
"258324",258324,1988,55,"st","Steenbuck",1,-22.85,30.96,290676.29,7471637.56
"258419",258419,1988,55,"st","Steenbuck",1,-22.74,31.06,300780.22,7483957.62
"258439",258439,1988,55,"st","Steenbuck",1,-22.72,31.03,297669.21,7486131.8
"258444",258444,1988,55,"st","Steenbuck",1,-22.78,31.07,301865.15,7479541.41
"258694",258694,1988,56,"st","Steenbuck",1,-25.29,31.47,345960.79,7202061.58
"258696",258696,1988,56,"st","Steenbuck",1,-25.31,31.45,343972.51,7199823.27
"258806",258806,1988,56,"st","Steenbuck",1,-25.32,31.55,354052.21,7198828.41
"258877",258877,1988,56,"st","Steenbuck",1,-25.36,31.57,356112.88,7194419.83
"258960",258960,1988,56,"st","Steenbuck",1,-25.43,31.45,344126.61,7186532.07
"259045",259045,1988,56,"st","Steenbuck",1,-25.51,31.38,337193.77,7177587.32
"259056",259056,1988,56,"st","Steenbuck",2,-25.45,31.37,336107.26,7184220.89
"259089",259089,1988,56,"st","Steenbuck",1,-25.48,31.33,332126.3,7180848.13
"259120",259120,1988,56,"st","Steenbuck",1,-25.35,31.45,344023.8,7195392.89
"259346",259346,1988,58,"st","Steenbuck",1,-25.11,31.6,358843.39,7222140.09
"259357",259357,1988,58,"st","Steenbuck",1,-25.11,31.61,359851.78,7222150.51
"259510",259510,1988,58,"st","Steenbuck",1,-25.05,31.78,376934.01,7228960.99
"259582",259582,1988,60,"st","Steenbuck",1,-25.05,31.64,362810.06,7228826.32
"259822",259822,1988,61,"st","Steenbuck",1,-22.64,31.01,295495.82,7494963.77
"259850",259850,1988,61,"st","Steenbuck",1,-22.67,31.1,304789.66,7491762.57
"259979",259979,1988,62,"st","Steenbuck",1,-22.5,31.06,300433.97,7510535.08
"259980",259980,1988,62,"st","Steenbuck",1,-22.59,31.12,306733.14,7500647.65
"260153",260153,1988,62,"st","Steenbuck",1,-22.45,31.19,313743.35,7516239.25
"260216",260216,1988,63,"st","Steenbuck",2,-22.49,31.32,327173.39,7511965.87
"260340",260340,1988,63,"st","Steenbuck",1,-22.51,31.23,317938.96,7509644.58
"260357",260357,1988,63,"st","Steenbuck",1,-22.54,31.24,319006.89,7506334.8
"260367",260367,1988,63,"st","Steenbuck",1,-22.52,31.21,315894.55,7508512.78
"260369",260369,1988,63,"st","Steenbuck",1,-22.52,31.21,315894.55,7508512.78
"260426",260426,1988,63,"st","Steenbuck",1,-22.6,31.24,319085.24,7499690.95
"260442",260442,1988,63,"st","Steenbuck",1,-22.55,31.31,326219.52,7505310.65
"260525",260525,1988,64,"st","Steenbuck",1,-22.39,31.26,320871.28,7522968.2
"260526",260526,1988,64,"st","Steenbuck",1,-22.39,31.26,320871.28,7522968.2
