"","ID","Year","Cenb","Sp","Description","No","Lat","Long","X.coord","Y.coord"
"15753",15753,1979,2,"s","Sable antelope",16,-24.01,31.4,337260.61,7343741.58
"15778",15778,1979,2,"s","Sable antelope",7,-23.89,31.4,337109.92,7357030.66
"15906",15906,1979,2,"s","Sable antelope",10,-23.99,31.53,350462.11,7346100.55
"16011",16011,1979,3,"s","Sable antelope",18,-23.89,31.19,315726.07,7356772.88
"16024",16024,1979,3,"s","Sable antelope",15,-23.87,31.19,315697.73,7358987.87
"16036",16036,1979,3,"s","Sable antelope",4,-24.01,31.23,319966.02,7343534.57
"16062",16062,1979,3,"s","Sable antelope",4,-23.95,31.21,317846.9,7350153.84
"16066",16066,1979,3,"s","Sable antelope",10,-23.95,31.23,319882.56,7350179.52
"16078",16078,1979,3,"s","Sable antelope",4,-23.87,31.21,317734.67,7359013.77
"16083",16083,1979,3,"s","Sable antelope",7,-23.87,31.23,319771.6,7359039.39
"16185",16185,1979,3,"s","Sable antelope",14,-23.97,31.3,327033.99,7348052.2
"16211",16211,1979,3,"s","Sable antelope",37,-23.89,31.32,328963.88,7356936.2
"16213",16213,1979,3,"s","Sable antelope",7,-23.91,31.3,326953.96,7354696.96
"16253",16253,1979,3,"s","Sable antelope",6,-23.97,31.34,331104.56,7348100.71
"16314",16314,1979,4,"s","Sable antelope",2,-23.83,31.17,313603.55,7363391.68
"16518",16518,1979,4,"s","Sable antelope",21,-23.81,31.34,330896.59,7365819.71
"16709",16709,1979,6,"s","Sable antelope",7,-23.58,31.34,330599.95,7391290.19
"16729",16729,1979,6,"s","Sable antelope",12,-23.64,31.38,334757.9,7384692.64
"16769",16769,1979,6,"s","Sable antelope",12,-23.66,31.42,338863.17,7382523.59
"16869",16869,1979,7,"s","Sable antelope",8,-23.6,31.28,324502.44,7389003.07
"16924",16924,1979,8,"s","Sable antelope",7,-23.51,31.3,326425.31,7398994.15
"16929",16929,1979,8,"s","Sable antelope",10,-23.51,31.32,328467.77,7399018.18
"16949",16949,1979,8,"s","Sable antelope",21,-23.45,31.3,326346.74,7405638.54
"16983",16983,1979,8,"s","Sable antelope",28,-23.43,31.34,330407.96,7407901
"17079",17079,1979,9,"s","Sable antelope",8,-23.58,31.17,313247.91,7391078.72
"17124",17124,1979,9,"s","Sable antelope",4,-23.51,31.21,317234.06,7398882.44
"17128",17128,1979,9,"s","Sable antelope",13,-23.53,31.21,317261.68,7396667.56
"17135",17135,1979,9,"s","Sable antelope",8,-23.58,31.26,322434.42,7391193.24
"17167",17167,1979,10,"s","Sable antelope",29,-23.41,31.07,302787.37,7409772.16
"17201",17201,1979,10,"s","Sable antelope",15,-23.45,31.11,306933.83,7405396.44
"17238",17238,1979,10,"s","Sable antelope",6,-23.35,31.13,308833.76,7416497.73
"17241",17241,1979,10,"s","Sable antelope",12,-23.37,31.13,308862.44,7414282.82
"17307",17307,1979,11,"s","Sable antelope",16,-23.37,31.26,322153,7414448.96
"17378",17378,1979,12,"s","Sable antelope",11,-23.28,31.03,298502.72,7424114.32
"17438",17438,1979,12,"s","Sable antelope",18,-23.2,31.15,310666.8,7433135.58
"17833",17833,1979,15,"s","Sable antelope",10,-23.33,31.46,342551.6,7419110.45
"18005",18005,1979,18,"s","Sable antelope",8,-23.18,31.48,344422.71,7435741.63
"18020",18020,1979,18,"s","Sable antelope",8,-23.26,31.51,347584.64,7426915.09
"18389",18389,1979,21,"s","Sable antelope",8,-24.24,31.51,348721.49,7318394
"18395",18395,1979,21,"s","Sable antelope",16,-24.24,31.53,350752.38,7318415.54
"19421",19421,1979,27,"s","Sable antelope",4,-24.2,31.9,388286.81,7323190.76
"19474",19474,1979,27,"s","Sable antelope",19,-24.24,31.92,390352.38,7318777.39
"19638",19638,1979,28,"s","Sable antelope",4,-24.53,31.88,386550.22,7286632.65
"20120",20120,1979,31,"s","Sable antelope",12,-24.53,31.65,363249.89,7286424.1
"20493",20493,1979,32,"s","Sable antelope",4,-24.53,31.61,359197.52,7286383.87
"20646",20646,1979,34,"s","Sable antelope",3,-24.74,31.69,367523.9,7263207.3
"20808",20808,1979,35,"s","Sable antelope",5,-24.83,31.61,359534.14,7253160.3
"20846",20846,1979,35,"s","Sable antelope",30,-24.87,31.65,363620.69,7248771.05
"20900",20900,1979,35,"s","Sable antelope",25,-24.83,31.67,365598.14,7253220.76
"20939",20939,1979,36,"s","Sable antelope",9,-24.81,31.71,369619.81,7255474.46
"20944",20944,1979,36,"s","Sable antelope",14,-24.81,31.73,371641.43,7255493.42
"20948",20948,1979,36,"s","Sable antelope",22,-24.83,31.73,371662.04,7253278.54
"20976",20976,1979,36,"s","Sable antelope",8,-24.83,31.78,376715.22,7253324.66
"21419",21419,1979,38,"s","Sable antelope",13,-24.97,31.82,380892.18,7237856.29
"21429",21429,1979,38,"s","Sable antelope",13,-24.91,31.8,378814.53,7244483.19
"21436",21436,1979,38,"s","Sable antelope",18,-25.06,31.86,385013.95,7227923.94
"21471",21471,1979,38,"s","Sable antelope",6,-24.93,31.86,384892.9,7242320.49
"21476",21476,1979,38,"s","Sable antelope",5,-24.95,31.86,384911.49,7240105.65
"21567",21567,1979,39,"s","Sable antelope",37,-25.12,31.19,317511.67,7220540.8
"21594",21594,1979,39,"s","Sable antelope",20,-25.12,31.21,319528.54,7220567.71
"21631",21631,1979,39,"s","Sable antelope",19,-25.1,31.26,324542.09,7222848.93
"21635",21635,1979,39,"s","Sable antelope",14,-25.1,31.28,326559.24,7222874.77
"21673",21673,1979,39,"s","Sable antelope",21,-25.14,31.32,330648.67,7218495.12
"21681",21681,1979,39,"s","Sable antelope",11,-25.1,31.32,330593.5,7222925.56
"21852",21852,1979,40,"s","Sable antelope",17,-25.35,31.3,328926.63,7195209.52
"21932",21932,1979,40,"s","Sable antelope",26,-25.18,31.34,332719.71,7214089.66
"21957",21957,1979,40,"s","Sable antelope",18,-25.16,31.36,334708.51,7216329.57
"21984",21984,1979,41,"s","Sable antelope",13,-25.26,31.34,332829.13,7205228.73
"21989",21989,1979,41,"s","Sable antelope",19,-25.28,31.36,334870.66,7203038.26
"22026",22026,1979,41,"s","Sable antelope",8,-25.33,31.38,336951.73,7197524.66
"22046",22046,1979,41,"s","Sable antelope",18,-25.22,31.4,338819.7,7209732.51
"22074",22074,1979,41,"s","Sable antelope",12,-25.14,31.38,336697.99,7218569.15
"22138",22138,1979,41,"s","Sable antelope",14,-25.24,31.44,342875.57,7207564.71
"22144",22144,1979,41,"s","Sable antelope",13,-25.18,31.42,340782.75,7214186.69
"22172",22172,1979,41,"s","Sable antelope",11,-25.1,31.42,340678.92,7223047.31
"22226",22226,1979,41,"s","Sable antelope",18,-25.14,31.48,346779.93,7218686.55
"23296",23296,1979,47,"s","Sable antelope",7,-22.64,31.15,309886.72,7495149.47
"23303",23303,1979,47,"s","Sable antelope",24,-22.72,31.17,312051.64,7486316.08
"23340",23340,1979,47,"s","Sable antelope",36,-22.78,31.26,321375.11,7479783.42
"23403",23403,1979,48,"s","Sable antelope",22,-22.83,31.26,321440.3,7474246.78
"23454",23454,1979,48,"s","Sable antelope",26,-22.87,31.38,333805.8,7469957.79
"23587",23587,1979,49,"s","Sable antelope",10,-22.93,31.46,342083.85,7463402.21
"23599",23599,1979,50,"s","Sable antelope",8,-23.03,31.4,336050.92,7452263.53
"23606",23606,1979,50,"s","Sable antelope",5,-23.06,31.44,340185.78,7448985.89
"23727",23727,1979,52,"s","Sable antelope",12,-23.12,31.19,314651.34,7442046.35
"23840",23840,1979,52,"s","Sable antelope",18,-23.08,31.36,332013.5,7446681.56
"23913",23913,1979,53,"s","Sable antelope",14,-23.06,30.98,293049,7448408.88
"23943",23943,1979,53,"s","Sable antelope",18,-22.99,30.98,292942.05,7456161.25
"23982",23982,1979,53,"s","Sable antelope",10,-22.99,31.03,298068.68,7456231
"24018",24018,1979,53,"s","Sable antelope",9,-23.18,31.09,304495.62,7435271.06
"24024",24024,1979,53,"s","Sable antelope",18,-23.1,31.09,304379.51,7444130.62
"24046",24046,1979,53,"s","Sable antelope",11,-23.03,31.11,306328.2,7451909.28
"24108",24108,1979,54,"s","Sable antelope",13,-22.93,30.96,290799.04,7462777.76
"24233",24233,1979,54,"s","Sable antelope",9,-23.03,31.19,314527.89,7452012.89
"24299",24299,1979,55,"s","Sable antelope",13,-22.85,31.03,297860.99,7471735.23
"24334",24334,1979,55,"s","Sable antelope",35,-22.81,31.05,299855.2,7476192.21
"24362",24362,1979,55,"s","Sable antelope",11,-22.83,31.11,306043.45,7474057.47
"24423",24423,1979,55,"s","Sable antelope",21,-22.87,31.19,314309.57,7469730.92
"24435",24435,1979,56,"s","Sable antelope",11,-25.35,31.42,341004.42,7195357.57
"24526",24526,1979,56,"s","Sable antelope",13,-25.33,31.51,350037.82,7197676.65
