"","ID","Year","Cenb","Sp","Description","No","Lat","Long","X.coord","Y.coord"
"339973",339973,1992,54,"n","Nyala",1,-23.04,31.23,318641.04,7450955.64
"340571",340571,1992,55,"n","Nyala",2,-22.77,31.09,303904.6,7480675.46
"341154",341154,1992,49,"n","Nyala",3,-23.02,31.34,329889.1,7453302.4
"341912",341912,1992,7,"n","Nyala",6,-23.67,31.19,315415.6,7381137.5
"342257",342257,1992,8,"n","Nyala",1,-23.53,31.38,334620.06,7396873.84
"343465",343465,1992,12,"n","Nyala",3,-23.22,31.2,315812.53,7430985.02
"345081",345081,1992,18,"n","Nyala",3,-23.11,31.44,340244.9,7443449.42
"345358",345358,1992,19,"n","Nyala",4,-23.88,31.76,373754.92,7358505.94
"345359",345359,1992,19,"n","Nyala",5,-23.87,31.75,372726.93,7359604.28
"345415",345415,1992,19,"n","Nyala",1,-23.83,31.67,364538.91,7363959.32
"345432",345432,1992,19,"n","Nyala",1,-23.9,31.69,366647.87,7356227.08
"345491",345491,1992,19,"n","Nyala",3,-23.95,31.87,385017.09,7350848.82
"345523",345523,1992,19,"n","Nyala",1,-23.95,31.86,383999.45,7350840.63
"345559",345559,1992,19,"n","Nyala",1,-23.96,31.83,380955.7,7349708.36
"345560",345560,1992,19,"n","Nyala",3,-23.96,31.83,380955.7,7349708.36
"345562",345562,1992,19,"n","Nyala",3,-23.97,31.84,381982.38,7348609.48
"345621",345621,1992,19,"n","Nyala",5,-23.87,31.75,372726.93,7359604.28
"345677",345677,1992,19,"n","Nyala",1,-23.83,31.66,363520.28,7363949.73
"345741",345741,1992,19,"n","Nyala",4,-23.88,31.76,373754.92,7358505.94
"345758",345758,1992,19,"n","Nyala",3,-23.94,31.85,382972.79,7351939.66
"345792",345792,1992,19,"n","Nyala",1,-23.95,31.85,382981.81,7350832.38
"345829",345829,1992,19,"n","Nyala",1,-23.96,31.82,379938.13,7349699.88
"345830",345830,1992,19,"n","Nyala",3,-23.96,31.83,380955.7,7349708.36
"347825",347825,1992,5,"n","Nyala",2,-23.8,31.56,353300.1,7367171.92
"348233",348233,1992,61,"n","Nyala",5,-22.67,30.97,291429.33,7491585.89
"348269",348269,1992,61,"n","Nyala",1,-22.57,30.97,291278.36,7502660.26
"348305",348305,1992,62,"n","Nyala",1,-22.52,31.08,302520.33,7508346.88
"348306",348306,1992,62,"n","Nyala",1,-22.51,31.09,303535,7509467.42
"348314",348314,1992,62,"n","Nyala",1,-22.49,31.11,305564.79,7511708.27
"348324",348324,1992,62,"n","Nyala",1,-22.47,31.08,302449.31,7513883.73
"348327",348327,1992,62,"n","Nyala",2,-22.46,31.1,304493.63,7515017.32
"348346",348346,1992,62,"n","Nyala",2,-22.48,31.13,307609,7512841.46
"348359",348359,1992,62,"n","Nyala",2,-22.47,31.16,310682.65,7513987.02
"348364",348364,1992,62,"n","Nyala",3,-22.46,31.18,312727.5,7515119.47
"348372",348372,1992,62,"n","Nyala",1,-22.43,31.19,313716.63,7518453.88
"348374",348374,1992,62,"n","Nyala",3,-22.43,31.19,313716.63,7518453.88
"348375",348375,1992,62,"n","Nyala",1,-22.43,31.2,314746.06,7518466.26
"348376",348376,1992,62,"n","Nyala",2,-22.42,31.2,314732.79,7519573.56
"348473",348473,1992,63,"n","Nyala",2,-22.42,31.22,316791.79,7519598.1
"348482",348482,1992,63,"n","Nyala",4,-22.42,31.23,317821.28,7519610.27
"348500",348500,1992,63,"n","Nyala",1,-22.43,31.23,317834.34,7518502.98
"348501",348501,1992,63,"n","Nyala",4,-22.42,31.23,317821.28,7519610.27
"348504",348504,1992,63,"n","Nyala",10,-22.42,31.23,317821.28,7519610.27
"348506",348506,1992,63,"n","Nyala",1,-22.42,31.24,318850.77,7519622.37
"348508",348508,1992,63,"n","Nyala",2,-22.43,31.25,319893.16,7518527.12
"348510",348510,1992,63,"n","Nyala",1,-22.51,31.26,321025.42,7509680.78
"348525",348525,1992,63,"n","Nyala",1,-22.5,31.29,324099.2,7510823.65
"348553",348553,1992,63,"n","Nyala",1,-22.43,31.27,321951.98,7518550.98
"348555",348555,1992,63,"n","Nyala",2,-22.43,31.27,321951.98,7518550.98
"348556",348556,1992,63,"n","Nyala",4,-22.42,31.27,321939.22,7519658.26
"348557",348557,1992,63,"n","Nyala",1,-22.42,31.27,321939.22,7519658.26
"348561",348561,1992,63,"n","Nyala",4,-22.45,31.28,323006.76,7516348.26
"348566",348566,1992,63,"n","Nyala",1,-22.45,31.29,324036.01,7516360.03
"348579",348579,1992,63,"n","Nyala",3,-22.43,31.28,322981.38,7518562.81
"348580",348580,1992,63,"n","Nyala",6,-22.43,31.28,322981.38,7518562.81
"348583",348583,1992,63,"n","Nyala",2,-22.43,31.28,322981.38,7518562.81
"348586",348586,1992,63,"n","Nyala",2,-22.43,31.29,324010.78,7518574.57
"348589",348589,1992,63,"n","Nyala",3,-22.44,31.3,325052.71,7517478.99
"348591",348591,1992,63,"n","Nyala",1,-22.47,31.31,326119.46,7514168.82
"348594",348594,1992,63,"n","Nyala",2,-22.43,31.3,325040.17,7518586.26
"348595",348595,1992,64,"n","Nyala",1,-22.42,31.29,323998.16,7519681.84
"348596",348596,1992,64,"n","Nyala",1,-22.42,31.29,323998.16,7519681.84
"348598",348598,1992,64,"n","Nyala",3,-22.42,31.29,323998.16,7519681.84
"348600",348600,1992,64,"n","Nyala",2,-22.41,31.28,322956.02,7520777.35
"348621",348621,1992,64,"n","Nyala",2,-22.41,31.24,318837.8,7520729.66
"348626",348626,1992,64,"n","Nyala",1,-22.42,31.24,318850.77,7519622.37
"348651",348651,1992,64,"n","Nyala",1,-22.4,31.23,317795.19,7521824.86
"348658",348658,1992,64,"n","Nyala",4,-22.41,31.23,317808.24,7520717.57
"348680",348680,1992,64,"n","Nyala",2,-22.41,31.22,316778.67,7520705.4
"348681",348681,1992,64,"n","Nyala",5,-22.41,31.22,316778.67,7520705.4
"348698",348698,1992,64,"n","Nyala",4,-22.37,31.2,314666.5,7525110.08
"348700",348700,1992,64,"n","Nyala",1,-22.38,31.2,314679.75,7524002.78
"348709",348709,1992,64,"n","Nyala",1,-22.42,31.2,314732.79,7519573.56
"348724",348724,1992,64,"n","Nyala",5,-22.36,31.18,312593.36,7526192.62
"348737",348737,1992,64,"n","Nyala",1,-22.4,31.18,312646.94,7521763.38
"348741",348741,1992,64,"n","Nyala",2,-22.41,31.18,312660.36,7520656.06
"348742",348742,1992,64,"n","Nyala",3,-22.41,31.18,312660.36,7520656.06
"348751",348751,1992,64,"n","Nyala",1,-22.34,31.17,311536.49,7528394.76
"348753",348753,1992,64,"n","Nyala",1,-22.34,31.17,311536.49,7528394.76
"348773",348773,1992,64,"n","Nyala",1,-22.34,31.16,310506.39,7528382.21
"348777",348777,1992,64,"n","Nyala",1,-22.33,31.16,310492.87,7529489.53
"348781",348781,1992,64,"n","Nyala",3,-22.33,31.16,310492.87,7529489.53
"348784",348784,1992,64,"n","Nyala",3,-22.33,31.15,309462.68,7529476.92
"348803",348803,1992,64,"n","Nyala",1,-22.4,31.15,309557.95,7521725.66
"348811",348811,1992,64,"n","Nyala",2,-22.34,31.13,307416.04,7528344.17
"348836",348836,1992,64,"n","Nyala",1,-22.35,31.11,305369.68,7527211.13
"348857",348857,1992,64,"n","Nyala",5,-22.41,31.08,302364.29,7520527.91
"348868",348868,1992,64,"n","Nyala",1,-22.42,31.18,312673.77,7519548.75
"348873",348873,1992,64,"n","Nyala",2,-22.42,31.17,311644.26,7519536.24
"348877",348877,1992,64,"n","Nyala",7,-22.42,31.17,311644.26,7519536.24
"348878",348878,1992,64,"n","Nyala",2,-22.42,31.17,311644.26,7519536.24
"351783",351783,1992,25,"n","Nyala",2,-23.98,31.83,380974.08,7347493.78
"352458",352458,1992,27,"n","Nyala",1,-24.43,31.95,393557.27,7297761.73
