"","ID","Year","Cenb","Sp","Description","No","Lat","Long","X.coord","Y.coord"
"338847",338847,1992,52,"s","Sable antelope",7,-23.1,31.33,328965.3,7444432.07
"338976",338976,1992,52,"s","Sable antelope",21,-23.17,31.21,316767.87,7436534.66
"339245",339245,1992,53,"s","Sable antelope",5,-23.06,31.08,303296.84,7448546.95
"339263",339263,1992,53,"s","Sable antelope",8,-23.07,31.06,301262,7447412.45
"339737",339737,1992,53,"s","Sable antelope",12,-23.14,30.96,291123.2,7439520.42
"339890",339890,1992,54,"s","Sable antelope",9,-22.93,31,294902.2,7462834.15
"339894",339894,1992,54,"s","Sable antelope",5,-22.96,30.97,291870.74,7459469.53
"339946",339946,1992,54,"s","Sable antelope",11,-22.9,30.96,290752.96,7466100.19
"339992",339992,1992,54,"s","Sable antelope",4,-23.01,31.27,322701.18,7454326.72
"340509",340509,1992,55,"s","Sable antelope",7,-22.8,31.18,313187.83,7477469.86
"340563",340563,1992,55,"s","Sable antelope",8,-22.77,31.06,300823.74,7480635.39
"340572",340572,1992,55,"s","Sable antelope",17,-22.75,31.1,304903.12,7482903.47
"340631",340631,1992,55,"s","Sable antelope",7,-22.8,31.05,299840.59,7477299.63
"340642",340642,1992,55,"s","Sable antelope",24,-22.79,31.04,298799.17,7478393.47
"340646",340646,1992,55,"s","Sable antelope",1,-22.87,31.01,295838.14,7469492.78
"340647",340647,1992,55,"s","Sable antelope",7,-22.84,31.02,296819.75,7472828.93
"340686",340686,1992,47,"s","Sable antelope",13,-22.71,31.27,322311.39,7487546.69
"340700",340700,1992,47,"s","Sable antelope",4,-22.68,31.27,322272.68,7490868.63
"340751",340751,1992,47,"s","Sable antelope",3,-22.78,31.24,319321.5,7479759.13
"340776",340776,1992,47,"s","Sable antelope",7,-22.78,31.2,315214.22,7479709.71
"340778",340778,1992,47,"s","Sable antelope",13,-22.78,31.2,315214.22,7479709.71
"341039",341039,1992,48,"s","Sable antelope",2,-22.87,31.44,339962.23,7470024.21
"341043",341043,1992,48,"s","Sable antelope",3,-22.8,31.41,336800.54,7477742.23
"341058",341058,1992,49,"s","Sable antelope",5,-22.91,31.22,317441.56,7465338.99
"341239",341239,1992,49,"s","Sable antelope",4,-22.91,31.41,336931.85,7465562.19
"341364",341364,1992,49,"s","Sable antelope",1,-22.99,31.49,345228.96,7456790.55
"341575",341575,1992,51,"s","Sable antelope",13,-22.65,31.29,324289.55,7494214.32
"341663",341663,1992,6,"s","Sable antelope",2,-23.57,31.29,325483.3,7392337.55
"341743",341743,1992,6,"s","Sable antelope",4,-23.66,31.37,333762.98,7382466.24
"341756",341756,1992,6,"s","Sable antelope",11,-23.67,31.37,333775.63,7381358.84
"341836",341836,1992,6,"s","Sable antelope",9,-23.72,31.45,341995.48,7375912.92
"341840",341840,1992,6,"s","Sable antelope",9,-23.72,31.46,343015.03,7375923.98
"341959",341959,1992,7,"s","Sable antelope",2,-23.69,31.26,322582.78,7379011.45
"342033",342033,1992,7,"s","Sable antelope",7,-23.66,31.29,325602.49,7382370.76
"342161",342161,1992,8,"s","Sable antelope",3,-23.41,31.28,324250.45,7410043.87
"342190",342190,1992,8,"s","Sable antelope",5,-23.42,31.32,328351.37,7408984.69
"342204",342204,1992,8,"s","Sable antelope",13,-23.47,31.3,326372.91,7403423.75
"342227",342227,1992,8,"s","Sable antelope",5,-23.5,31.36,332540,7400172.79
"342279",342279,1992,8,"s","Sable antelope",7,-23.5,31.34,330497.41,7400149.33
"342286",342286,1992,8,"s","Sable antelope",1,-23.49,31.28,324356.31,7401184.64
"342326",342326,1992,9,"s","Sable antelope",12,-23.62,31.13,309222.81,7386596.02
"342568",342568,1992,9,"s","Sable antelope",1,-23.53,31.18,314198.33,7396629.02
"342592",342592,1992,9,"s","Sable antelope",11,-23.49,31.18,314142.18,7401058.83
"342624",342624,1992,9,"s","Sable antelope",4,-23.44,31.18,314072.12,7406596.06
"342650",342650,1992,9,"s","Sable antelope",4,-23.5,31.22,318241.6,7400002.58
"342651",342651,1992,9,"s","Sable antelope",7,-23.51,31.22,318255.32,7398895.14
"342674",342674,1992,10,"s","Sable antelope",4,-23.31,31,295479.26,7420749.76
"342701",342701,1992,10,"s","Sable antelope",1,-23.3,31.03,298532.84,7421899.34
"342718",342718,1992,10,"s","Sable antelope",2,-23.35,31.08,303721.06,7416430.68
"342723",342723,1992,10,"s","Sable antelope",2,-23.33,31.08,303691.64,7418645.63
"342737",342737,1992,10,"s","Sable antelope",5,-23.3,31.1,305693.42,7421995.03
"342745",342745,1992,10,"s","Sable antelope",19,-23.3,31.13,308762.18,7422034.98
"342760",342760,1992,10,"s","Sable antelope",9,-23.33,31.16,311873.14,7418751.99
"342834",342834,1992,10,"s","Sable antelope",12,-23.4,31.17,312994.04,7411012.89
"342852",342852,1992,10,"s","Sable antelope",3,-23.43,31.16,312014.32,7407677.54
"342857",342857,1992,10,"s","Sable antelope",1,-23.4,31.15,310949.77,7410986.81
"342864",342864,1992,10,"s","Sable antelope",6,-23.37,31.15,310907.18,7414309.16
"342884",342884,1992,10,"s","Sable antelope",4,-23.4,31.14,309927.63,7410973.66
"342895",342895,1992,10,"s","Sable antelope",7,-23.43,31.14,309970.51,7407651.29
"342901",342901,1992,10,"s","Sable antelope",2,-23.4,31.13,308905.49,7410960.45
"342905",342905,1992,10,"s","Sable antelope",3,-23.37,31.12,307840.06,7414269.54
"342910",342910,1992,10,"s","Sable antelope",1,-23.42,31.13,308934.22,7408745.52
"342932",342932,1992,10,"s","Sable antelope",9,-23.4,31.11,306861.19,7410933.8
"342946",342946,1992,10,"s","Sable antelope",6,-23.42,31.11,306890.23,7408718.86
"343375",343375,1992,11,"s","Sable antelope",3,-23.26,31.25,320983.37,7426617.99
"343457",343457,1992,12,"s","Sable antelope",9,-23.24,31.2,315839.98,7428770.2
"343583",343583,1992,12,"s","Sable antelope",12,-23.27,31.14,309742.44,7425370.48
"343584",343584,1992,12,"s","Sable antelope",3,-23.28,31.14,309756.65,7424263.04
"343689",343689,1992,12,"s","Sable antelope",15,-23.25,31.03,298457.58,7427436.79
"344434",344434,1992,14,"s","Sable antelope",5,-23.49,31.41,337634.15,7401337.56
"344966",344966,1992,18,"s","Sable antelope",7,-23.2,31.48,344445.85,7433527.04
"346172",346172,1992,1,"s","Sable antelope",10,-23.98,31.62,359607.88,7347300.51
"346536",346536,1992,2,"s","Sable antelope",10,-23.89,31.44,341182.86,7357076.16
"346623",346623,1992,2,"s","Sable antelope",3,-23.94,31.38,335136.92,7351470.35
"346813",346813,1992,3,"s","Sable antelope",2,-23.89,31.29,325909.05,7356899.6
"346893",346893,1992,3,"s","Sable antelope",5,-23.88,31.21,317748.68,7357906.29
"346999",346999,1992,3,"s","Sable antelope",4,-23.92,31.3,326967.29,7353589.51
"348208",348208,1992,61,"s","Sable antelope",1,-22.71,30.97,291489.9,7487156.11
"348253",348253,1992,61,"s","Sable antelope",5,-22.62,31.13,307803.11,7497338.5
"348694",348694,1992,64,"s","Sable antelope",1,-22.38,31.21,315709.54,7524015.07
"348764",348764,1992,64,"s","Sable antelope",16,-22.38,31.17,311590.33,7523965.51
"349438",349438,1992,21,"s","Sable antelope",6,-24.21,31.48,345638.97,7321683.43
"349467",349467,1992,21,"s","Sable antelope",6,-24.21,31.53,350717.39,7321737.78
"349472",349472,1992,21,"s","Sable antelope",13,-24.24,31.52,349736.94,7318404.8
"349791",349791,1992,22,"s","Sable antelope",8,-24.28,31.46,343693.16,7313909.09
"349831",349831,1992,22,"s","Sable antelope",5,-24.28,31.53,350799.08,7313985.86
"352361",352361,1992,26,"s","Sable antelope",8,-24.25,31.83,381223.55,7317596.39
"352369",352369,1992,26,"s","Sable antelope",6,-24.22,31.82,380180.18,7320909.83
"352578",352578,1992,27,"s","Sable antelope",36,-24.26,31.85,383263.23,7316505.95
"352817",352817,1992,28,"s","Sable antelope",12,-24.6,31.88,386613.22,7278881.12
"354342",354342,1992,31,"s","Sable antelope",12,-24.52,31.65,363239.06,7287531.52
"354362",354362,1992,31,"s","Sable antelope",13,-24.54,31.67,365286.74,7285336.37
"354405",354405,1992,31,"s","Sable antelope",2,-24.49,31.67,365233.4,7290873.42
"354441",354441,1992,31,"s","Sable antelope",8,-24.6,31.71,369400.94,7278730.41
"354652",354652,1992,31,"s","Sable antelope",4,-24.47,31.64,362171.39,7293058.66
"355107",355107,1992,32,"s","Sable antelope",7,-24.49,31.56,354085.8,7290761.7
"355973",355973,1992,35,"s","Sable antelope",13,-24.84,31.73,371672.35,7252171.11
"356295",356295,1992,35,"s","Sable antelope",14,-24.85,31.61,359556.71,7250945.35
"356514",356514,1992,36,"s","Sable antelope",19,-24.8,31.82,380729.01,7256682.45
"357640",357640,1992,38,"s","Sable antelope",17,-24.93,31.8,378834.08,7242268.33
"357679",357679,1992,38,"s","Sable antelope",11,-24.94,31.78,376824.39,7241142.91
"357725",357725,1992,38,"s","Sable antelope",12,-25,31.81,379911.85,7234525.16
"358264",358264,1992,39,"s","Sable antelope",10,-25.08,31.27,325522.3,7225077.14
"358316",358316,1992,39,"s","Sable antelope",22,-25.12,31.25,323562.24,7220620.62
"358339",358339,1992,39,"s","Sable antelope",18,-25.06,31.22,320449.39,7227226.91
"358351",358351,1992,39,"s","Sable antelope",10,-25.14,31.25,323590.98,7218405.35
"358426",358426,1992,39,"s","Sable antelope",16,-25.13,31.18,316518.17,7219419.57
"358542",358542,1992,40,"s","Sable antelope",13,-25.28,31.3,328828.23,7202963.03
"358625",358625,1992,40,"s","Sable antelope",6,-25.24,31.27,325749.87,7207354.99
"358655",358655,1992,40,"s","Sable antelope",17,-25.22,31.28,326728.93,7209583.2
"358686",358686,1992,40,"s","Sable antelope",12,-25.24,31.3,328772.12,7207393.57
"358840",358840,1992,40,"s","Sable antelope",12,-25.19,31.35,333741.18,7212994.44
"358909",358909,1992,41,"s","Sable antelope",17,-25.31,31.35,333904.5,7199703.04
"358913",358913,1992,41,"s","Sable antelope",2,-25.31,31.35,333904.5,7199703.04
"358930",358930,1992,41,"s","Sable antelope",1,-25.31,31.41,339945.34,7199776.08
"358935",358935,1992,41,"s","Sable antelope",2,-25.3,31.41,339932.2,7200883.68
"358941",358941,1992,41,"s","Sable antelope",9,-25.29,31.37,335891.19,7201942.92
"358949",358949,1992,41,"s","Sable antelope",18,-25.29,31.42,340926.03,7202003.19
"359049",359049,1992,41,"s","Sable antelope",7,-25.28,31.43,341920.02,7203122.61
"359079",359079,1992,41,"s","Sable antelope",17,-25.25,31.42,340873.86,7206433.57
"360276",360276,1992,42,"s","Sable antelope",13,-25.25,31.49,347924.82,7206514.69
"360544",360544,1992,43,"s","Sable antelope",14,-25,31.41,339540.22,7234111.16
