"","ID","Year","Cenb","Sp","Description","No","Lat","Long","X.coord","Y.coord"
"147226",147226,1985,11,"wk","White rhino calf",1,-23.26,31.23,318937.01,7426593.16
"152701",152701,1985,22,"wk","White rhino calf",1,-24.29,31.55,352840.85,7312899.72
"154026",154026,1985,25,"wk","White rhino calf",1,-24.13,31.82,380096.12,7330875.72
"154479",154479,1985,25,"wk","White rhino calf",1,-24.16,31.88,386220.02,7327603.85
"155248",155248,1985,27,"wk","White rhino calf",1,-24.31,31.91,389397.67,7311018.31
"155286",155286,1985,27,"wk","White rhino calf",1,-24.28,31.9,388356.65,7314332.28
"155290",155290,1985,27,"wk","White rhino calf",1,-24.27,31.91,389363.01,7315447.57
"156966",156966,1985,29,"wk","White rhino calf",1,-24.63,31.81,379554.64,7275499.48
"158753",158753,1985,30,"wk","White rhino calf",1,-24.62,31.96,394729.62,7276729.99
"158761",158761,1985,30,"wk","White rhino calf",1,-24.6,31.98,396737.78,7278959.84
"159116",159116,1985,31,"wk","White rhino calf",2,-24.59,31.69,367365.38,7279818.69
"159743",159743,1985,31,"wk","White rhino calf",1,-24.59,31.75,373440.89,7279875.18
"160401",160401,1985,33,"wk","White rhino calf",1,-24.75,31.62,360455.32,7262030.28
"160981",160981,1985,34,"wk","White rhino calf",1,-24.65,31.76,374513.39,7273239.94
"160994",160994,1985,34,"wk","White rhino calf",1,-24.61,31.76,374473.43,7277669.55
"160995",160995,1985,34,"wk","White rhino calf",1,-24.61,31.75,373461.01,7277660.38
"162538",162538,1985,37,"wk","White rhino calf",1,-24.92,31.98,397002.01,7243524.16
"163263",163263,1985,39,"wk","White rhino calf",1,-25.13,31.23,321559.93,7219486.67
"163321",163321,1985,39,"wk","White rhino calf",1,-25.07,31.22,320463.97,7226119.27
"163350",163350,1985,39,"wk","White rhino calf",1,-25.09,31.28,326545.14,7223982.39
"163427",163427,1985,39,"wk","White rhino calf",1,-25.09,31.3,328562.44,7224007.93
"163445",163445,1985,39,"wk","White rhino calf",1,-25.05,31.29,327497.75,7228425.66
"163457",163457,1985,39,"wk","White rhino calf",1,-25.05,31.31,329515.7,7228451.02
"163469",163469,1985,39,"wk","White rhino calf",1,-25.07,31.3,328534.57,7226223.15
"163470",163470,1985,39,"wk","White rhino calf",1,-25.06,31.3,328520.64,7227330.76
"163473",163473,1985,39,"wk","White rhino calf",1,-25.07,31.31,329543.38,7226235.8
"163509",163509,1985,39,"wk","White rhino calf",1,-25.03,31.31,329488.03,7230666.22
"163548",163548,1985,39,"wk","White rhino calf",1,-25.1,31.34,332610.61,7222950.51
"163574",163574,1985,39,"wk","White rhino calf",1,-25.06,31.35,333565.07,7227393.25
"163577",163577,1985,39,"wk","White rhino calf",1,-25.05,31.35,333551.56,7228500.84
"163593",163593,1985,39,"wk","White rhino calf",1,-25.06,31.34,332556.19,7227380.9
"163601",163601,1985,39,"wk","White rhino calf",1,-25.08,31.37,335609.52,7225202.55
"163651",163651,1985,39,"wk","White rhino calf",1,-25.07,31.37,335596.17,7226310.13
"164601",164601,1985,40,"wk","White rhino calf",1,-25.28,31.28,326814.06,7202937.35
"164724",164724,1985,40,"wk","White rhino calf",1,-25.3,31.3,328856.32,7200747.75
"164762",164762,1985,40,"wk","White rhino calf",1,-25.25,31.31,329793.47,7206298.65
"164892",164892,1985,40,"wk","White rhino calf",1,-25.22,31.37,335797.05,7209696.2
"165012",165012,1985,41,"wk","White rhino calf",1,-25.26,31.36,334843.59,7205253.49
"165014",165014,1985,41,"wk","White rhino calf",1,-25.25,31.37,335837.37,7206373.37
"165063",165063,1985,41,"wk","White rhino calf",1,-25.34,31.37,335958.57,7196404.82
"165096",165096,1985,41,"wk","White rhino calf",1,-25.36,31.41,340011.12,7194238.04
"165101",165101,1985,41,"wk","White rhino calf",1,-25.3,31.41,339932.2,7200883.68
"165121",165121,1985,41,"wk","White rhino calf",1,-25.25,31.38,336844.67,7206385.56
"165162",165162,1985,41,"wk","White rhino calf",1,-25.21,31.38,336791.26,7210815.98
"165172",165172,1985,41,"wk","White rhino calf",1,-25.24,31.38,336831.31,7207493.17
"165183",165183,1985,41,"wk","White rhino calf",1,-25.17,31.37,335729.97,7215234.21
"165207",165207,1985,41,"wk","White rhino calf",1,-25.19,31.38,336764.59,7213031.18
"165223",165223,1985,41,"wk","White rhino calf",1,-25.13,31.4,338701.26,7219700.81
"165242",165242,1985,41,"wk","White rhino calf",1,-25.15,31.38,336711.3,7217461.56
"165252",165252,1985,41,"wk","White rhino calf",1,-25.15,31.39,337719.42,7217473.64
"165270",165270,1985,41,"wk","White rhino calf",1,-25.3,31.41,339932.2,7200883.68
"165271",165271,1985,41,"wk","White rhino calf",1,-25.29,31.41,339919.07,7201991.28
"165329",165329,1985,41,"wk","White rhino calf",1,-25.22,31.43,341842.32,7209768.15
"165335",165335,1985,41,"wk","White rhino calf",1,-25.21,31.44,342837.01,7210887.46
"165346",165346,1985,41,"wk","White rhino calf",1,-25.24,31.44,342875.57,7207564.71
"165375",165375,1985,41,"wk","White rhino calf",1,-25.2,31.42,340808.76,7211971.52
"165383",165383,1985,41,"wk","White rhino calf",1,-25.19,31.44,342811.32,7213102.61
"165394",165394,1985,41,"wk","White rhino calf",1,-25.14,31.44,342747.19,7218640.49
"165400",165400,1985,41,"wk","White rhino calf",1,-25.13,31.45,343742.65,7219759.68
"165402",165402,1985,41,"wk","White rhino calf",1,-25.12,31.45,343729.92,7220867.25
"165409",165409,1985,41,"wk","White rhino calf",1,-25.16,31.42,340756.77,7216401.85
"165411",165411,1985,41,"wk","White rhino calf",1,-25.14,31.42,340730.8,7218617.01
"165416",165416,1985,41,"wk","White rhino calf",1,-25.15,31.44,342760.01,7217532.91
"165476",165476,1985,41,"wk","White rhino calf",1,-25.21,31.48,346867.44,7210933.61
"165491",165491,1985,41,"wk","White rhino calf",1,-25.24,31.46,344890.3,7207587.96
"165496",165496,1985,41,"wk","White rhino calf",1,-25.23,31.47,345885.05,7208707.04
"165534",165534,1985,41,"wk","White rhino calf",1,-25.17,31.48,346817.41,7215363.87
"165548",165548,1985,41,"wk","White rhino calf",1,-25.2,31.47,345847.24,7212029.75
"165555",165555,1985,41,"wk","White rhino calf",1,-25.19,31.49,347850.18,7213160.09
"165792",165792,1985,42,"wk","White rhino calf",1,-25.19,31.53,351881.22,7213204.71
"165931",165931,1985,42,"wk","White rhino calf",1,-25.28,31.57,356018.29,7203280.26
"165953",165953,1985,42,"wk","White rhino calf",1,-25.21,31.54,352913,7211000.59
"166055",166055,1985,42,"wk","White rhino calf",1,-25.19,31.54,352888.97,7213215.68
"166377",166377,1985,42,"wk","White rhino calf",1,-25.28,31.58,357025.29,7203290.96
"166380",166380,1985,42,"wk","White rhino calf",1,-25.28,31.59,358032.28,7203301.58
"166388",166388,1985,42,"wk","White rhino calf",1,-25.27,31.59,358020.64,7204409.12
"166544",166544,1985,42,"wk","White rhino calf",1,-25.09,31.58,356803.31,7224334.07
"166641",166641,1985,43,"wk","White rhino calf",1,-25.05,31.4,338596.31,7228561.43
"166644",166644,1985,43,"wk","White rhino calf",1,-25.06,31.37,335582.81,7227417.72
"166646",166646,1985,43,"wk","White rhino calf",1,-25.06,31.37,335582.81,7227417.72
"166655",166655,1985,43,"wk","White rhino calf",1,-25.07,31.41,339631.29,7226358.19
"166703",166703,1985,43,"wk","White rhino calf",1,-25.09,31.42,340665.97,7224154.88
"166735",166735,1985,43,"wk","White rhino calf",1,-25.05,31.44,342632.05,7228608.57
"166755",166755,1985,43,"wk","White rhino calf",1,-25.07,31.45,343666.37,7226405.05
"166857",166857,1985,43,"wk","White rhino calf",1,-25.05,31.48,346667.75,7228654.51
"166876",166876,1985,43,"wk","White rhino calf",1,-25.07,31.48,346692.64,7226439.41
"167444",167444,1985,44,"wk","White rhino calf",1,-25.32,31.62,361098.86,7198902.86
"167520",167520,1985,44,"wk","White rhino calf",1,-25.21,31.65,363996.27,7211116.38
"167546",167546,1985,44,"wk","White rhino calf",1,-25.2,31.62,360962.23,7212193.22
"168197",168197,1985,44,"wk","White rhino calf",1,-25.3,31.84,383225.46,7201327.78
"168284",168284,1985,45,"wk","White rhino calf",1,-25.17,31.78,377054.11,7215671.42
"168319",168319,1985,45,"wk","White rhino calf",1,-25.26,31.82,381172.96,7205740.12
"168424",168424,1985,45,"wk","White rhino calf",1,-25.17,31.81,380077.65,7215698.47
"168446",168446,1985,45,"wk","White rhino calf",1,-25.2,31.81,380107.02,7212376.07
"168531",168531,1985,45,"wk","White rhino calf",1,-25.21,31.83,382131.84,7211286.28
"168548",168548,1985,45,"wk","White rhino calf",1,-25.22,31.86,385163.75,7210204.77
"168574",168574,1985,45,"wk","White rhino calf",1,-25.24,31.86,385182.54,7207989.85
"168621",168621,1985,45,"wk","White rhino calf",2,-25.19,31.86,385135.6,7213527.14
"168634",168634,1985,45,"wk","White rhino calf",1,-25.13,31.84,383063.05,7220154.66
"169103",169103,1985,46,"wk","White rhino calf",1,-25.32,31.98,397336.81,7199227.5
"169173",169173,1985,46,"wk","White rhino calf",1,-25.23,31.96,395246.42,7209179.01
"173253",173253,1985,56,"wk","White rhino calf",1,-25.34,31.48,347030.57,7196535.12
"173259",173259,1985,56,"wk","White rhino calf",1,-25.36,31.47,346049.37,7194308.47
"173316",173316,1985,56,"wk","White rhino calf",1,-25.37,31.5,349080.88,7193235.09
"173327",173327,1985,56,"wk","White rhino calf",1,-25.38,31.51,350099.5,7192138.76
"173639",173639,1985,57,"wk","White rhino calf",1,-25.12,31.79,378012.26,7221217.84
"173699",173699,1985,57,"wk","White rhino calf",1,-25.1,31.84,383034.5,7223477.01
"173803",173803,1985,58,"wk","White rhino calf",1,-25.15,31.65,363929.64,7217761.44
"173878",173878,1985,58,"wk","White rhino calf",1,-25.14,31.67,365934.81,7218888.98
"173926",173926,1985,58,"wk","White rhino calf",1,-25.05,31.73,371889.8,7228914.57
"175038",175038,1985,63,"wk","White rhino calf",1,-25.39,31.32,330995.31,7190804.37
