"","ID","Year","Cenb","Sp","Description","No","Lat","Long","X.coord","Y.coord"
"72346",72346,1982,2,"s","Sable antelope",23,-24.03,31.4,337285.79,7341526.71
"72805",72805,1982,3,"s","Sable antelope",14,-23.89,31.17,313689.43,7356746.67
"72822",72822,1982,3,"s","Sable antelope",13,-23.91,31.17,313718.1,7354531.65
"72823",72823,1982,3,"s","Sable antelope",19,-23.91,31.17,313718.1,7354531.65
"73114",73114,1982,3,"s","Sable antelope",9,-23.99,31.28,325025.72,7345812.57
"73276",73276,1982,3,"s","Sable antelope",8,-23.97,31.32,329069.28,7348076.6
"73298",73298,1982,3,"s","Sable antelope",8,-23.95,31.3,327007.29,7350267.13
"73306",73306,1982,3,"s","Sable antelope",6,-23.95,31.32,329042.9,7350291.51
"73337",73337,1982,3,"s","Sable antelope",41,-23.91,31.3,326953.96,7354696.96
"73343",73343,1982,3,"s","Sable antelope",16,-23.91,31.32,328990.2,7354721.31
"73458",73458,1982,3,"s","Sable antelope",6,-23.95,31.34,331078.49,7350315.6
"73477",73477,1982,3,"s","Sable antelope",8,-23.91,31.34,331026.42,7354745.37
"73583",73583,1982,4,"s","Sable antelope",8,-23.85,31.19,315669.42,7361202.86
"73618",73618,1982,4,"s","Sable antelope",17,-23.83,31.17,313603.55,7363391.68
"74118",74118,1982,4,"s","Sable antelope",12,-23.83,31.32,328885.05,7363580.85
"74147",74147,1982,4,"s","Sable antelope",8,-23.78,31.32,328819.49,7369118.02
"74194",74194,1982,4,"s","Sable antelope",3,-23.81,31.34,330896.59,7365819.71
"74603",74603,1982,6,"s","Sable antelope",9,-23.6,31.36,332666.68,7389098.93
"74764",74764,1982,6,"s","Sable antelope",10,-23.72,31.44,340975.93,7375901.78
"74801",74801,1982,6,"s","Sable antelope",3,-23.7,31.42,338912.24,7378094.07
"75085",75085,1982,7,"s","Sable antelope",12,-23.6,31.3,326543.52,7389027.46
"75215",75215,1982,8,"s","Sable antelope",24,-23.53,31.32,328493.69,7396803.39
"75221",75221,1982,8,"s","Sable antelope",33,-23.47,31.3,326372.91,7403423.75
"75272",75272,1982,8,"s","Sable antelope",27,-23.41,31.3,326294.46,7410068.12
"75522",75522,1982,9,"s","Sable antelope",14,-23.51,31.13,309063.8,7398778.31
"75547",75547,1982,9,"s","Sable antelope",19,-23.47,31.15,311049.36,7403234.62
"75582",75582,1982,9,"s","Sable antelope",21,-23.62,31.19,315345.42,7386674.83
"75612",75612,1982,9,"s","Sable antelope",6,-23.51,31.17,313148.96,7398830.95
"75673",75673,1982,9,"s","Sable antelope",21,-23.53,31.23,319303.9,7396692.9
"75705",75705,1982,9,"s","Sable antelope",6,-23.56,31.26,322407.51,7393408.1
"75711",75711,1982,9,"s","Sable antelope",11,-23.58,31.28,324475.82,7391217.91
"75867",75867,1982,10,"s","Sable antelope",19,-23.41,31.07,302787.37,7409772.16
"75924",75924,1982,10,"s","Sable antelope",21,-23.43,31.09,304860.9,7407584.43
"75990",75990,1982,10,"s","Sable antelope",24,-23.35,31.09,304743.61,7416444.23
"75996",75996,1982,10,"s","Sable antelope",8,-23.37,31.09,304772.9,7414229.29
"76039",76039,1982,10,"s","Sable antelope",14,-23.35,31.13,308833.76,7416497.73
"76091",76091,1982,10,"s","Sable antelope",24,-23.31,31.17,312867.8,7420979.83
"76342",76342,1982,11,"s","Sable antelope",15,-23.22,31.3,326047.31,7431108.3
"76505",76505,1982,12,"s","Sable antelope",16,-23.24,31.07,302536.16,7428599.27
"76618",76618,1982,12,"s","Sable antelope",13,-23.24,31.15,310723.21,7428705.87
"77004",77004,1982,13,"s","Sable antelope",7,-23.6,31.59,356137.66,7389349.09
"77245",77245,1982,14,"s","Sable antelope",14,-23.53,31.57,354019.42,7397080.03
"77278",77278,1982,15,"s","Sable antelope",10,-23.35,31.34,330306.04,7416759.98
"77373",77373,1982,15,"s","Sable antelope",3,-23.33,31.38,334371,7419021.09
"77440",77440,1982,15,"s","Sable antelope",3,-23.37,31.44,340554.28,7414659.22
"77523",77523,1982,15,"s","Sable antelope",13,-23.35,31.53,349731.97,7416970.34
"77583",77583,1982,15,"s","Sable antelope",11,-23.33,31.55,351754.53,7419205.57
"77861",77861,1982,18,"s","Sable antelope",9,-23.18,31.46,342375.3,7435720.11
"78966",78966,1982,21,"s","Sable antelope",11,-24.18,31.48,345602.84,7325005.72
"79006",79006,1982,21,"s","Sable antelope",14,-24.2,31.53,350705.74,7322845.2
"80134",80134,1982,23,"s","Sable antelope",9,-24.22,31.73,371040.42,7320829.65
"81605",81605,1982,26,"s","Sable antelope",17,-24.26,31.8,378187.23,7316463.18
"81633",81633,1982,26,"s","Sable antelope",19,-24.24,31.82,380198.9,7318695.17
"82651",82651,1982,27,"s","Sable antelope",18,-24.41,31.96,394554.47,7299984.02
"82652",82652,1982,27,"s","Sable antelope",18,-24.41,31.96,394554.47,7299984.02
"84046",84046,1982,29,"s","Sable antelope",6,-24.58,31.84,382544.67,7281062.32
"84873",84873,1982,31,"s","Sable antelope",16,-24.56,31.65,363282.42,7283101.84
"84887",84887,1982,31,"s","Sable antelope",10,-24.51,31.63,361201.73,7288618.98
"84921",84921,1982,31,"s","Sable antelope",12,-24.43,31.63,361113.97,7297478.31
"85641",85641,1982,32,"s","Sable antelope",7,-24.56,31.59,357205.29,7283040.99
"86657",86657,1982,35,"s","Sable antelope",20,-24.85,31.65,363598.74,7250985.98
"86778",86778,1982,35,"s","Sable antelope",17,-24.81,31.67,365576.55,7255435.67
"86858",86858,1982,35,"s","Sable antelope",14,-24.91,31.73,371744.64,7244419
"86914",86914,1982,36,"s","Sable antelope",21,-24.83,31.73,371662.04,7253278.54
"86920",86920,1982,36,"s","Sable antelope",6,-24.78,31.71,369588.44,7258796.78
"86966",86966,1982,36,"s","Sable antelope",16,-24.87,31.78,376754.87,7248894.95
"86979",86979,1982,36,"s","Sable antelope",8,-24.83,31.78,376715.22,7253324.66
"88386",88386,1982,38,"s","Sable antelope",4,-24.95,31.82,380872.93,7240071.15
"88528",88528,1982,38,"s","Sable antelope",27,-24.93,31.84,382873.3,7242303.4
"88647",88647,1982,38,"s","Sable antelope",17,-25.06,31.92,391066.33,7227973.61
"88678",88678,1982,39,"s","Sable antelope",15,-25.08,31.19,317452.27,7224971.43
"88719",88719,1982,39,"s","Sable antelope",4,-25.12,31.21,319528.54,7220567.71
"88797",88797,1982,39,"s","Sable antelope",4,-25.1,31.28,326559.24,7222874.77
"88798",88798,1982,39,"s","Sable antelope",10,-25.1,31.28,326559.24,7222874.77
"89126",89126,1982,40,"s","Sable antelope",17,-25.18,31.19,317600.92,7213894.82
"89244",89244,1982,40,"s","Sable antelope",5,-25.33,31.28,326885.15,7197399.1
"89254",89254,1982,40,"s","Sable antelope",16,-25.26,31.26,324771.15,7205126.67
"89398",89398,1982,40,"s","Sable antelope",11,-25.33,31.3,328898.49,7197424.81
"89494",89494,1982,40,"s","Sable antelope",19,-25.22,31.34,332774.38,7209659.21
"89516",89516,1982,40,"s","Sable antelope",30,-25.16,31.36,334708.51,7216329.57
"89599",89599,1982,41,"s","Sable antelope",21,-25.31,31.36,334911.31,7199715.4
"89724",89724,1982,41,"s","Sable antelope",14,-25.33,31.38,336951.73,7197524.66
"89791",89791,1982,41,"s","Sable antelope",9,-25.18,31.38,336751.26,7214138.77
"89806",89806,1982,41,"s","Sable antelope",10,-25.2,31.38,336777.92,7211923.58
"89873",89873,1982,41,"s","Sable antelope",7,-25.26,31.42,340886.9,7205325.98
"89914",89914,1982,41,"s","Sable antelope",15,-25.24,31.44,342875.57,7207564.71
"89958",89958,1982,41,"s","Sable antelope",4,-25.14,31.44,342747.19,7218640.49
"89995",89995,1982,41,"s","Sable antelope",15,-25.12,31.44,342721.57,7220855.62
"90045",90045,1982,41,"s","Sable antelope",6,-25.24,31.46,344890.3,7207587.96
"90089",90089,1982,41,"s","Sable antelope",19,-25.14,31.46,344763.57,7218663.67
"90129",90129,1982,41,"s","Sable antelope",8,-25.16,31.48,346804.91,7216471.43
"90183",90183,1982,41,"s","Sable antelope",17,-25.2,31.51,349877.97,7212074.99
"91102",91102,1982,43,"s","Sable antelope",10,-25.1,31.46,344713,7223093.91
"94210",94210,1982,47,"s","Sable antelope",15,-22.72,31.17,312051.64,7486316.08
"94297",94297,1982,47,"s","Sable antelope",6,-22.76,31.26,321349.07,7481998.07
"94307",94307,1982,47,"s","Sable antelope",16,-22.72,31.28,323351.55,7486451.33
"94400",94400,1982,48,"s","Sable antelope",43,-22.83,31.21,316308.12,7474185.42
"94420",94420,1982,48,"s","Sable antelope",22,-22.85,31.26,321466.41,7472032.11
"94507",94507,1982,48,"s","Sable antelope",9,-22.78,31.32,327535.85,7479854.64
"94655",94655,1982,48,"s","Sable antelope",13,-22.87,31.42,337910.1,7470002.35
"94777",94777,1982,49,"s","Sable antelope",13,-22.97,31.34,329826.42,7458839
"94796",94796,1982,49,"s","Sable antelope",6,-22.95,31.34,329801.38,7461053.64
"94855",94855,1982,49,"s","Sable antelope",9,-22.97,31.42,338029.05,7458929.54
"95033",95033,1982,50,"s","Sable antelope",31,-23.1,31.51,347403.25,7444631.61
"95203",95203,1982,52,"s","Sable antelope",21,-23.1,31.19,314623.86,7444261.15
"95588",95588,1982,53,"s","Sable antelope",19,-23.14,30.94,289074.77,7439491.61
"95688",95688,1982,53,"s","Sable antelope",27,-23.01,30.96,290922.2,7453917.89
"95842",95842,1982,53,"s","Sable antelope",21,-23.03,31.05,300178.25,7451828.62
"95895",95895,1982,53,"s","Sable antelope",26,-23.12,31.11,306457.1,7441942.43
"95936",95936,1982,53,"s","Sable antelope",13,-23.18,31.15,310638.63,7435350.43
"96073",96073,1982,54,"s","Sable antelope",26,-22.89,30.98,292789.8,7467235.96
"96180",96180,1982,54,"s","Sable antelope",18,-23.01,31.11,306299.62,7454124.12
"96434",96434,1982,55,"s","Sable antelope",11,-22.85,31.01,295808.24,7471707.67
"96442",96442,1982,55,"s","Sable antelope",7,-22.85,31.03,297860.99,7471735.23
"96443",96443,1982,55,"s","Sable antelope",18,-22.85,31.03,297860.99,7471735.23
"96477",96477,1982,55,"s","Sable antelope",34,-22.76,31.01,295674.01,7481674.64
"96488",96488,1982,55,"s","Sable antelope",4,-22.76,31.03,297728.11,7481702.11
"96535",96535,1982,55,"s","Sable antelope",16,-22.87,31.05,299943.02,7469547.65
"96643",96643,1982,55,"s","Sable antelope",22,-22.78,31.11,305972.63,7479594.44
"96708",96708,1982,55,"s","Sable antelope",13,-22.85,31.17,312229.76,7471920.33
"97616",97616,1982,57,"s","Sable antelope",12,-25.16,31.78,377044.08,7216778.89
