"","ID","Year","Cenb","Sp","Description","No","Lat","Long","X.coord","Y.coord"
"339206",339206,1992,53,"wr","White rhino",2,-23.08,31.09,304350.55,7446345.5
"339358",339358,1992,53,"wr","White rhino",1,-23.08,31.01,296153.55,7446236.09
"339361",339361,1992,53,"wr","White rhino",2,-23.07,31.01,296138.47,7447343.57
"339658",339658,1992,53,"wr","White rhino",1,-23.12,31.03,298262.61,7441834
"339660",339660,1992,53,"wr","White rhino",2,-23.12,31.03,298262.61,7441834
"339797",339797,1992,54,"wr","White rhino",2,-22.98,31.1,305231.43,7457433.13
"340238",340238,1992,54,"wr","White rhino",2,-22.98,31.12,307282.14,7457459.55
"340427",340427,1992,55,"wr","White rhino",2,-22.83,31.14,309122.89,7474096.59
"341010",341010,1992,48,"wr","White rhino",1,-22.73,31.38,333635.9,7485459.73
"341634",341634,1992,51,"wr","White rhino",2,-22.59,31.35,330382.45,7500927.59
"341689",341689,1992,6,"wr","White rhino",2,-23.6,31.4,336748.71,7389145.15
"341793",341793,1992,6,"wr","White rhino",2,-23.7,31.44,340951.67,7378116.54
"341817",341817,1992,6,"wr","White rhino",2,-23.71,31.46,343003.06,7377031.35
"342449",342449,1992,9,"wr","White rhino",4,-23.52,31.08,303972.07,7397603.42
"342703",342703,1992,10,"wr","White rhino",3,-23.31,31.04,299570.79,7420805.74
"342829",342829,1992,10,"wr","White rhino",2,-23.42,31.18,314044.13,7408810.95
"344094",344094,1992,13,"wr","White rhino",1,-23.61,31.5,346965.18,7388148.36
"344096",344096,1992,13,"wr","White rhino",1,-23.6,31.49,345933.1,7389244.97
"344233",344233,1992,14,"wr","White rhino",1,-23.57,31.55,352022.23,7392630.27
"344238",344238,1992,14,"wr","White rhino",1,-23.56,31.57,354052.54,7393758.1
"344315",344315,1992,14,"wr","White rhino",2,-23.44,31.47,343703.29,7406940.75
"344566",344566,1992,15,"wr","White rhino",2,-23.41,31.49,345711.9,7410284.28
"344583",344583,1992,15,"wr","White rhino",3,-23.38,31.48,344654.96,7413595.51
"344586",344586,1992,15,"wr","White rhino",3,-23.4,31.47,343656.27,7411370.06
"344656",344656,1992,15,"wr","White rhino",4,-23.3,31.42,338425.06,7422388.34
"344658",344658,1992,15,"wr","White rhino",2,-23.32,31.42,338449.23,7420173.67
"344666",344666,1992,15,"wr","White rhino",2,-23.37,31.41,337487.48,7414625.77
"344686",344686,1992,15,"wr","White rhino",2,-23.41,31.39,335492.35,7410173.7
"344688",344688,1992,15,"wr","White rhino",1,-23.39,31.39,335467.63,7412388.41
"344699",344699,1992,15,"wr","White rhino",2,-23.35,31.39,335418.25,7416817.82
"344741",344741,1992,15,"wr","White rhino",2,-23.38,31.38,334433.07,7413484.33
"344743",344743,1992,15,"wr","White rhino",2,-23.4,31.38,334457.94,7411269.61
"344786",344786,1992,15,"wr","White rhino",2,-23.4,31.36,332413.83,7411246.51
"344801",344801,1992,15,"wr","White rhino",2,-23.35,31.36,332350.93,7416783.33
"344831",344831,1992,15,"wr","White rhino",1,-23.37,31.34,330331.49,7414545.24
"344833",344833,1992,15,"wr","White rhino",2,-23.34,31.34,330293.32,7417867.35
"345098",345098,1992,18,"wr","White rhino",2,-23.28,31.42,338400.91,7424603
"345132",345132,1992,18,"wr","White rhino",1,-23.24,31.42,338352.66,7429032.3
"345796",345796,1992,19,"wr","White rhino",1,-23.95,31.84,381964.16,7350824.05
"345897",345897,1992,1,"wr","White rhino",5,-23.94,31.57,354475.6,7351679.26
"346293",346293,1992,2,"wr","White rhino",3,-23.95,31.56,353469.1,7350561.55
"347495",347495,1992,4,"wr","White rhino",1,-23.79,31.32,328832.59,7368010.59
"347976",347976,1992,5,"wr","White rhino",3,-23.84,31.47,344177.7,7362646.46
"348015",348015,1992,5,"wr","White rhino",2,-23.86,31.44,341146.25,7360398.35
"348031",348031,1992,5,"wr","White rhino",2,-23.81,31.43,340066.45,7365924.09
"348384",348384,1992,63,"wr","White rhino",2,-22.54,31.33,328264.13,7506441.05
"349043",349043,1992,20,"wr","White rhino",1,-24.09,31.62,359727.39,7335119.55
"349044",349044,1992,20,"wr","White rhino",3,-24.09,31.62,359727.39,7335119.55
"349441",349441,1992,21,"wr","White rhino",3,-24.23,31.49,346678.61,7319479.59
"349623",349623,1992,21,"wr","White rhino",2,-24.18,31.55,352714.28,7325081.23
"349647",349647,1992,21,"wr","White rhino",2,-24.17,31.59,356766.72,7326230.17
"349650",349650,1992,21,"wr","White rhino",1,-24.17,31.56,353718.78,7326199.13
"349651",349651,1992,21,"wr","White rhino",2,-24.17,31.55,352702.8,7326188.63
"349655",349655,1992,21,"wr","White rhino",2,-24.17,31.57,354734.77,7326209.55
"349665",349665,1992,21,"wr","White rhino",1,-24.16,31.57,354723.45,7327316.94
"349667",349667,1992,21,"wr","White rhino",2,-24.15,31.58,355728.28,7328434.67
"349678",349678,1992,21,"wr","White rhino",1,-24.14,31.57,354700.83,7329531.72
"349689",349689,1992,21,"wr","White rhino",1,-24.13,31.6,357738.41,7330669.9
"349723",349723,1992,22,"wr","White rhino",2,-24.33,31.42,339695.43,7308326.3
"349761",349761,1992,22,"wr","White rhino",1,-24.32,31.5,347801.44,7309523.65
"349765",349765,1992,22,"wr","White rhino",1,-24.32,31.48,345771.81,7309501.62
"349769",349769,1992,22,"wr","White rhino",1,-24.31,31.49,346774.61,7310620.12
"349795",349795,1992,22,"wr","White rhino",1,-24.27,31.48,345711.36,7315038.83
"349823",349823,1992,22,"wr","White rhino",2,-24.25,31.55,352794.76,7317329.38
"349848",349848,1992,22,"wr","White rhino",2,-24.3,31.54,351837.42,7311781.69
"349862",349862,1992,22,"wr","White rhino",2,-24.31,31.52,349819.28,7310652.83
"349865",349865,1992,22,"wr","White rhino",3,-24.31,31.54,351849.04,7310674.27
"349867",349867,1992,22,"wr","White rhino",1,-24.32,31.55,352875.46,7309577.46
"350040",350040,1992,22,"wr","White rhino",1,-24.43,31.4,337793.61,7297228.28
"350259",350259,1992,22,"wr","White rhino",3,-24.35,31.5,347837.29,7306201.33
"350267",350267,1992,22,"wr","White rhino",1,-24.36,31.48,345820.26,7305071.83
"350745",350745,1992,23,"wr","White rhino",1,-24.18,31.66,363889.09,7325192.7
"350806",350806,1992,23,"wr","White rhino",5,-24.21,31.69,366967.85,7321899.49
"350836",350836,1992,23,"wr","White rhino",1,-24.22,31.64,361900.44,7320743.58
"350842",350842,1992,23,"wr","White rhino",1,-24.22,31.68,365962.68,7320782.56
"350970",350970,1992,24,"wr","White rhino",3,-24.37,31.65,363077.07,7304142.63
"350985",350985,1992,24,"wr","White rhino",3,-24.36,31.63,361037.4,7305230.16
"351083",351083,1992,24,"wr","White rhino",2,-24.25,31.59,356856.15,7317371.02
"351115",351115,1992,24,"wr","White rhino",1,-24.26,31.65,362958.86,7316323.92
"351655",351655,1992,25,"wr","White rhino",3,-24.14,31.89,387218.45,7329826.55
"351670",351670,1992,25,"wr","White rhino",2,-24.15,31.88,386211.17,7328711.16
"352006",352006,1992,25,"wr","White rhino",1,-24.16,31.85,383172.08,7327579.14
"352008",352008,1992,25,"wr","White rhino",2,-24.16,31.85,383172.08,7327579.14
"352251",352251,1992,26,"wr","White rhino",1,-24.33,31.88,386371.15,7308779.48
"352300",352300,1992,26,"wr","White rhino",3,-24.31,31.87,385338.53,7310985.93
"352302",352302,1992,26,"wr","White rhino",2,-24.31,31.87,385338.53,7310985.93
"352304",352304,1992,26,"wr","White rhino",2,-24.3,31.88,386344.41,7312101.46
"352305",352305,1992,26,"wr","White rhino",4,-24.3,31.87,385329.54,7312093.26
"352345",352345,1992,26,"wr","White rhino",1,-24.27,31.83,381242.13,7315381.73
"352359",352359,1992,26,"wr","White rhino",1,-24.23,31.83,381204.98,7319811.05
"352376",352376,1992,26,"wr","White rhino",1,-24.18,31.81,379126.95,7325330.52
"352496",352496,1992,27,"wr","White rhino",2,-24.31,31.91,389397.67,7311018.31
"352500",352500,1992,27,"wr","White rhino",2,-24.3,31.92,390403.86,7312133.54
"352505",352505,1992,27,"wr","White rhino",2,-24.3,31.9,388374.14,7312117.65
"352522",352522,1992,27,"wr","White rhino",3,-24.28,31.88,386326.6,7314316.11
"352537",352537,1992,27,"wr","White rhino",1,-24.26,31.9,388339.17,7316546.91
"352541",352541,1992,27,"wr","White rhino",2,-24.28,31.87,385311.57,7314307.91
"352549",352549,1992,27,"wr","White rhino",2,-24.26,31.88,386308.8,7316530.74
"352553",352553,1992,27,"wr","White rhino",2,-24.25,31.89,387315.17,7317646.18
"352561",352561,1992,27,"wr","White rhino",2,-24.25,31.88,386299.91,7317638.06
"352586",352586,1992,27,"wr","White rhino",1,-24.24,31.87,385275.67,7318737.19
"352592",352592,1992,27,"wr","White rhino",2,-24.22,31.87,385257.74,7320951.82
"352601",352601,1992,27,"wr","White rhino",1,-24.21,31.87,385248.78,7322059.14
"352614",352614,1992,27,"wr","White rhino",2,-24.26,31.94,392399.88,7316578.36
"352615",352615,1992,27,"wr","White rhino",3,-24.26,31.94,392399.88,7316578.36
"352736",352736,1992,27,"wr","White rhino",2,-24.39,31.97,395551.99,7302206.22
"352822",352822,1992,28,"wr","White rhino",3,-24.62,31.89,387643.55,7276674.6
"353008",353008,1992,28,"wr","White rhino",1,-24.45,31.93,391546.75,7295531.55
"353226",353226,1992,28,"wr","White rhino",1,-24.47,31.86,384469.33,7293260.2
"353260",353260,1992,28,"wr","White rhino",1,-24.48,31.85,383465.02,7292144.45
"353295",353295,1992,28,"wr","White rhino",1,-24.46,31.81,379392.19,7294324.88
"353403",353403,1992,29,"wr","White rhino",1,-24.55,31.82,380490.95,7284367.25
"353411",353411,1992,29,"wr","White rhino",6,-24.55,31.83,381503.83,7284375.88
"353458",353458,1992,29,"wr","White rhino",1,-24.57,31.83,381522.63,7282161.13
"353459",353459,1992,29,"wr","White rhino",3,-24.57,31.85,383548.06,7282178.19
"353537",353537,1992,29,"wr","White rhino",2,-24.58,31.87,385582.57,7281087.58
"353672",353672,1992,29,"wr","White rhino",1,-24.67,31.83,381616.85,7271087.32
"354037",354037,1992,30,"wr","White rhino",9,-24.7,31.98,396820,7267886.35
"354038",354038,1992,30,"wr","White rhino",2,-24.7,31.98,396820,7267886.35
"354046",354046,1992,30,"wr","White rhino",3,-24.73,31.98,396844.73,7264564.27
"354326",354326,1992,31,"wr","White rhino",1,-24.51,31.64,362214.98,7288629
"354327",354327,1992,31,"wr","White rhino",2,-24.52,31.64,362225.89,7287521.58
"354343",354343,1992,31,"wr","White rhino",1,-24.51,31.65,363228.23,7288638.94
"354344",354344,1992,31,"wr","White rhino",4,-24.5,31.65,363217.41,7289746.35
"354350",354350,1992,31,"wr","White rhino",3,-24.5,31.66,364230.73,7289756.22
"354354",354354,1992,31,"wr","White rhino",2,-24.52,31.66,364252.23,7287541.39
"354358",354358,1992,31,"wr","White rhino",2,-24.52,31.66,364252.23,7287541.39
"354366",354366,1992,31,"wr","White rhino",2,-24.56,31.67,365308.1,7283121.53
"354374",354374,1992,31,"wr","White rhino",5,-24.58,31.68,366342.16,7280916.44
"354394",354394,1992,31,"wr","White rhino",3,-24.52,31.68,366278.55,7287560.92
"354402",354402,1992,31,"wr","White rhino",1,-24.5,31.67,365244.06,7289766.01
"354666",354666,1992,31,"wr","White rhino",1,-24.45,31.67,365190.8,7295303.04
"354667",354667,1992,31,"wr","White rhino",1,-24.45,31.67,365190.8,7295303.04
"354670",354670,1992,31,"wr","White rhino",1,-24.45,31.69,367218.24,7295322.38
"354953",354953,1992,32,"wr","White rhino",2,-24.51,31.51,349042.48,7288493.06
"355101",355101,1992,32,"wr","White rhino",1,-24.48,31.56,354074.26,7291869.14
"355138",355138,1992,32,"wr","White rhino",1,-24.5,31.54,352070.63,7289632.98
"355139",355139,1992,32,"wr","White rhino",1,-24.5,31.54,352070.63,7289632.98
"355140",355140,1992,32,"wr","White rhino",2,-24.52,31.58,356146.82,7287460.36
"355142",355142,1992,32,"wr","White rhino",1,-24.51,31.61,359175.22,7288598.73
"355154",355154,1992,32,"wr","White rhino",1,-24.52,31.59,357160,7287470.74
"355319",355319,1992,33,"wr","White rhino",1,-24.58,31.62,360266.05,7280856.88
"355335",355335,1992,33,"wr","White rhino",1,-24.6,31.61,359275.72,7278631.81
"355561",355561,1992,33,"wr","White rhino",3,-24.77,31.66,364522.28,7259855.59
"355585",355585,1992,34,"wr","White rhino",1,-24.75,31.83,381692.48,7262228.17
"355757",355757,1992,34,"wr","White rhino",2,-24.72,31.69,367502.71,7265422.17
"355770",355770,1992,34,"wr","White rhino",1,-24.71,31.69,367492.12,7266529.61
"355775",355775,1992,34,"wr","White rhino",5,-24.71,31.69,367492.12,7266529.61
"355780",355780,1992,34,"wr","White rhino",2,-24.7,31.69,367481.54,7267637.04
"355790",355790,1992,34,"wr","White rhino",2,-24.69,31.67,365447.38,7268724.99
"355802",355802,1992,34,"wr","White rhino",1,-24.67,31.71,369473.7,7270978.5
"355805",355805,1992,34,"wr","White rhino",2,-24.67,31.68,366437.86,7270949.63
"355806",355806,1992,34,"wr","White rhino",2,-24.67,31.69,367449.81,7270959.33
"355931",355931,1992,35,"wr","White rhino",2,-24.8,31.67,365565.76,7256543.12
"355933",355933,1992,35,"wr","White rhino",1,-24.8,31.66,364554.86,7256533.24
"355934",355934,1992,35,"wr","White rhino",2,-24.8,31.67,365565.76,7256543.12
"355936",355936,1992,35,"wr","White rhino",1,-24.8,31.68,366576.66,7256552.92
"355950",355950,1992,35,"wr","White rhino",4,-24.83,31.69,367619.45,7253240.32
"355958",355958,1992,35,"wr","White rhino",3,-24.84,31.68,366619.51,7252123.12
"355959",355959,1992,35,"wr","White rhino",2,-24.84,31.67,365608.94,7252113.3
"355962",355962,1992,35,"wr","White rhino",5,-24.85,31.66,364609.24,7250995.95
"355993",355993,1992,35,"wr","White rhino",2,-24.87,31.68,366651.69,7248800.76
"356000",356000,1992,35,"wr","White rhino",3,-24.86,31.73,371692.99,7249956.22
"356274",356274,1992,35,"wr","White rhino",2,-24.85,31.64,362588.24,7250975.93
"356276",356276,1992,35,"wr","White rhino",1,-24.85,31.65,363598.74,7250985.98
"356278",356278,1992,35,"wr","White rhino",2,-24.85,31.65,363598.74,7250985.98
"356285",356285,1992,35,"wr","White rhino",3,-24.85,31.63,361577.73,7250965.82
"356300",356300,1992,35,"wr","White rhino",2,-24.84,31.62,360556.02,7252063.09
"356302",356302,1992,35,"wr","White rhino",2,-24.84,31.63,361566.6,7252073.28
"356361",356361,1992,35,"wr","White rhino",1,-24.79,31.6,358478.03,7257579.86
"356366",356366,1992,35,"wr","White rhino",2,-24.78,31.61,359477.77,7258697.65
"356485",356485,1992,36,"wr","White rhino",3,-24.87,31.77,375744.56,7248885.87
"356581",356581,1992,36,"wr","White rhino",1,-24.83,31.76,374693.96,7253306.44
"356590",356590,1992,36,"wr","White rhino",2,-24.83,31.75,373683.32,7253297.21
"356595",356595,1992,36,"wr","White rhino",1,-24.8,31.74,372642.01,7256610.22
"356607",356607,1992,36,"wr","White rhino",3,-24.81,31.73,371641.43,7255493.42
"356608",356608,1992,36,"wr","White rhino",2,-24.82,31.73,371651.73,7254385.98
"356621",356621,1992,36,"wr","White rhino",3,-24.81,31.72,370630.62,7255483.98
"356622",356622,1992,36,"wr","White rhino",2,-24.81,31.72,370630.62,7255483.98
"356629",356629,1992,36,"wr","White rhino",3,-24.82,31.71,369630.28,7254367.02
"356633",356633,1992,36,"wr","White rhino",3,-24.8,31.7,368598.46,7256572.32
"356823",356823,1992,37,"wr","White rhino",1,-24.88,31.9,388887.31,7247890.79
"356858",356858,1992,37,"wr","White rhino",1,-24.88,31.89,387877.11,7247882.6
"356864",356864,1992,37,"wr","White rhino",1,-24.88,31.89,387877.11,7247882.6
"356887",356887,1992,37,"wr","White rhino",1,-24.88,31.88,386866.91,7247874.32
"356915",356915,1992,37,"wr","White rhino",2,-25.03,32.02,401129.39,7231372.62
"356961",356961,1992,37,"wr","White rhino",5,-25,32,399086.97,7234680.05
"357023",357023,1992,37,"wr","White rhino",1,-24.99,31.98,397060.24,7235772.41
"357032",357032,1992,37,"wr","White rhino",2,-25.02,31.99,398094.28,7232457.77
"357061",357061,1992,37,"wr","White rhino",2,-25.02,31.97,396076.2,7232442.58
"357103",357103,1992,37,"wr","White rhino",2,-25.04,31.96,395084.18,7230220.05
"357451",357451,1992,38,"wr","White rhino",2,-25.04,31.93,392057.53,7230196.46
"357459",357459,1992,38,"wr","White rhino",2,-25,31.92,391013.33,7234618.11
"357615",357615,1992,38,"wr","White rhino",4,-25,31.85,383948.78,7234560
"357895",357895,1992,39,"wr","White rhino",2,-25.09,31.37,335622.89,7224094.96
"357924",357924,1992,39,"wr","White rhino",2,-25.09,31.36,334614.26,7224082.75
"358008",358008,1992,39,"wr","White rhino",1,-25.07,31.34,332569.79,7226273.3
"358017",358017,1992,39,"wr","White rhino",2,-25.1,31.35,333619.16,7222962.87
"358018",358018,1992,39,"wr","White rhino",2,-25.11,31.35,333632.7,7221855.27
"358019",358019,1992,39,"wr","White rhino",2,-25.11,31.34,332624.23,7221842.91
"358021",358021,1992,39,"wr","White rhino",2,-25.1,31.34,332610.61,7222950.51
"358022",358022,1992,39,"wr","White rhino",2,-25.1,31.34,332610.61,7222950.51
"358025",358025,1992,39,"wr","White rhino",2,-25.09,31.34,332597,7224058.11
"358027",358027,1992,39,"wr","White rhino",3,-25.09,31.34,332597,7224058.11
"358030",358030,1992,39,"wr","White rhino",1,-25.09,31.34,332597,7224058.11
"358033",358033,1992,39,"wr","White rhino",2,-25.07,31.34,332569.79,7226273.3
"358034",358034,1992,39,"wr","White rhino",2,-25.07,31.34,332569.79,7226273.3
"358073",358073,1992,39,"wr","White rhino",3,-25.05,31.32,330524.67,7228463.58
"358075",358075,1992,39,"wr","White rhino",3,-25.05,31.32,330524.67,7228463.58
"358077",358077,1992,39,"wr","White rhino",1,-25.09,31.33,331588.37,7224045.68
"358079",358079,1992,39,"wr","White rhino",3,-25.09,31.33,331588.37,7224045.68
"358082",358082,1992,39,"wr","White rhino",4,-25.1,31.33,331602.06,7222938.07
"358084",358084,1992,39,"wr","White rhino",2,-25.11,31.33,331615.76,7221830.47
"358086",358086,1992,39,"wr","White rhino",2,-25.11,31.33,331615.76,7221830.47
"358089",358089,1992,39,"wr","White rhino",4,-25.12,31.33,331629.47,7220722.86
"358090",358090,1992,39,"wr","White rhino",2,-25.12,31.34,332637.86,7220735.31
"358097",358097,1992,39,"wr","White rhino",2,-25.11,31.32,330607.29,7221817.95
"358098",358098,1992,39,"wr","White rhino",2,-25.11,31.32,330607.29,7221817.95
"358103",358103,1992,39,"wr","White rhino",2,-25.1,31.32,330593.5,7222925.56
"358104",358104,1992,39,"wr","White rhino",2,-25.09,31.32,330579.73,7224033.17
"358105",358105,1992,39,"wr","White rhino",2,-25.08,31.32,330565.95,7225140.77
"358110",358110,1992,39,"wr","White rhino",5,-25.05,31.31,329515.7,7228451.02
"358111",358111,1992,39,"wr","White rhino",3,-25.03,31.31,329488.03,7230666.22
"358114",358114,1992,39,"wr","White rhino",2,-25.02,31.31,329474.21,7231773.82
"358121",358121,1992,39,"wr","White rhino",8,-24.99,31.3,328423.3,7235084
"358122",358122,1992,39,"wr","White rhino",1,-24.99,31.3,328423.3,7235084
"358133",358133,1992,39,"wr","White rhino",2,-25.03,31.3,328478.89,7230653.59
"358142",358142,1992,39,"wr","White rhino",1,-25.05,31.3,328506.72,7228438.37
"358145",358145,1992,39,"wr","White rhino",2,-25.06,31.3,328520.64,7227330.76
"358152",358152,1992,39,"wr","White rhino",2,-25.08,31.31,329557.23,7225128.2
"358160",358160,1992,39,"wr","White rhino",3,-25.11,31.31,329598.81,7221805.36
"358161",358161,1992,39,"wr","White rhino",2,-25.11,31.31,329598.81,7221805.36
"358164",358164,1992,39,"wr","White rhino",2,-25.12,31.31,329612.68,7220697.75
"358165",358165,1992,39,"wr","White rhino",5,-25.12,31.32,330621.08,7220710.34
"358167",358167,1992,39,"wr","White rhino",2,-25.13,31.32,330634.87,7219602.73
"358172",358172,1992,39,"wr","White rhino",4,-25.12,31.31,329612.68,7220697.75
"358176",358176,1992,39,"wr","White rhino",2,-25.11,31.3,328590.33,7221792.7
"358177",358177,1992,39,"wr","White rhino",2,-25.1,31.3,328576.38,7222900.32
"358183",358183,1992,39,"wr","White rhino",2,-25.08,31.3,328548.5,7225115.54
"358186",358186,1992,39,"wr","White rhino",3,-25.07,31.3,328534.57,7226223.15
"358218",358218,1992,39,"wr","White rhino",4,-25.11,31.3,328590.33,7221792.7
"358219",358219,1992,39,"wr","White rhino",2,-25.11,31.3,328590.33,7221792.7
"358220",358220,1992,39,"wr","White rhino",2,-25.12,31.3,328604.28,7220685.08
"358223",358223,1992,39,"wr","White rhino",1,-25.13,31.3,328618.24,7219577.47
"358224",358224,1992,39,"wr","White rhino",2,-25.13,31.31,329626.56,7219590.14
"358228",358228,1992,39,"wr","White rhino",4,-25.13,31.31,329626.56,7219590.14
"358232",358232,1992,39,"wr","White rhino",2,-25.13,31.3,328618.24,7219577.47
"358234",358234,1992,39,"wr","White rhino",3,-25.12,31.29,327595.88,7220672.34
"358236",358236,1992,39,"wr","White rhino",3,-25.12,31.29,327595.88,7220672.34
"358238",358238,1992,39,"wr","White rhino",1,-25.11,31.29,327581.84,7221779.96
"358239",358239,1992,39,"wr","White rhino",2,-25.09,31.28,326545.14,7223982.39
"358240",358240,1992,39,"wr","White rhino",2,-25.08,31.28,326531.04,7225090.01
"358242",358242,1992,39,"wr","White rhino",3,-25.08,31.28,326531.04,7225090.01
"358262",358262,1992,39,"wr","White rhino",6,-25.05,31.26,324470.79,7228387.06
"358268",358268,1992,39,"wr","White rhino",2,-25.13,31.28,326601.6,7219551.9
"358271",358271,1992,39,"wr","White rhino",1,-25.14,31.29,327623.96,7218457.1
"358303",358303,1992,39,"wr","White rhino",2,-25.09,31.25,323519.16,7223943.53
"358313",358313,1992,39,"wr","White rhino",2,-25.13,31.27,325593.27,7219539
"358315",358315,1992,39,"wr","White rhino",2,-25.12,31.25,323562.24,7220620.62
"358329",358329,1992,39,"wr","White rhino",2,-25.07,31.24,322481.64,7226145.69
"358331",358331,1992,39,"wr","White rhino",3,-25.07,31.23,321472.81,7226132.52
"358343",358343,1992,39,"wr","White rhino",2,-25.08,31.23,321487.31,7225024.88
"358348",358348,1992,39,"wr","White rhino",1,-25.11,31.24,322539.37,7221715.14
"358349",358349,1992,39,"wr","White rhino",6,-25.13,31.25,323576.6,7219512.99
"358356",358356,1992,39,"wr","White rhino",1,-25.11,31.23,321530.87,7221701.96
"358358",358358,1992,39,"wr","White rhino",4,-25.09,31.22,320493.15,7223903.98
"358359",358359,1992,39,"wr","White rhino",5,-25.08,31.22,320478.56,7225011.63
"358361",358361,1992,39,"wr","White rhino",2,-25.07,31.22,320463.97,7226119.27
"358404",358404,1992,39,"wr","White rhino",2,-25.13,31.21,319543.23,7219460.05
"358420",358420,1992,39,"wr","White rhino",2,-25.13,31.19,317526.53,7219433.14
"358431",358431,1992,40,"wr","White rhino",2,-25.39,31.32,330995.31,7190804.37
"358444",358444,1992,40,"wr","White rhino",1,-25.37,31.31,329961.13,7193006.98
"358453",358453,1992,40,"wr","White rhino",1,-25.36,31.31,329947.13,7194114.62
"358454",358454,1992,40,"wr","White rhino",2,-25.36,31.31,329947.13,7194114.62
"358455",358455,1992,40,"wr","White rhino",1,-25.36,31.31,329947.13,7194114.62
"358476",358476,1992,40,"wr","White rhino",1,-25.34,31.3,328912.56,7196317.17
"358481",358481,1992,40,"wr","White rhino",1,-25.33,31.3,328898.49,7197424.81
"358483",358483,1992,40,"wr","White rhino",1,-25.33,31.28,326885.15,7197399.1
"358489",358489,1992,40,"wr","White rhino",1,-25.32,31.3,328884.43,7198532.46
"358492",358492,1992,40,"wr","White rhino",2,-25.32,31.31,329891.18,7198545.2
"358500",358500,1992,40,"wr","White rhino",2,-25.32,31.31,329891.18,7198545.2
"358502",358502,1992,40,"wr","White rhino",1,-25.32,31.31,329891.18,7198545.2
"358508",358508,1992,40,"wr","White rhino",2,-25.31,31.28,326856.7,7199614.4
"358512",358512,1992,40,"wr","White rhino",2,-25.31,31.32,330884.03,7199665.5
"358514",358514,1992,40,"wr","White rhino",3,-25.3,31.31,329863.24,7200760.48
"358516",358516,1992,40,"wr","White rhino",2,-25.3,31.28,326842.48,7200722.05
"358517",358517,1992,40,"wr","White rhino",1,-25.3,31.28,326842.48,7200722.05
"358518",358518,1992,40,"wr","White rhino",2,-25.3,31.27,325835.56,7200709.09
"358519",358519,1992,40,"wr","White rhino",1,-25.3,31.27,325835.56,7200709.09
"358525",358525,1992,40,"wr","White rhino",2,-25.29,31.28,326828.27,7201829.7
"358528",358528,1992,40,"wr","White rhino",1,-25.29,31.29,327835.27,7201842.58
"358529",358529,1992,40,"wr","White rhino",2,-25.29,31.3,328842.27,7201855.39
"358530",358530,1992,40,"wr","White rhino",4,-25.29,31.3,328842.27,7201855.39
"358549",358549,1992,40,"wr","White rhino",3,-25.26,31.26,324771.15,7205126.67
"358599",358599,1992,40,"wr","White rhino",4,-25.21,31.26,324699.42,7210664.92
"358621",358621,1992,40,"wr","White rhino",2,-25.22,31.27,325721.35,7209570.28
"358656",358656,1992,40,"wr","White rhino",1,-25.23,31.28,326743.11,7208475.57
"358666",358666,1992,40,"wr","White rhino",2,-25.22,31.29,327736.52,7209596.06
"358671",358671,1992,40,"wr","White rhino",1,-25.2,31.29,327708.35,7211811.33
"358692",358692,1992,40,"wr","White rhino",4,-25.22,31.31,329751.67,7209621.54
"358696",358696,1992,40,"wr","White rhino",2,-25.19,31.3,328702.1,7212931.73
"358697",358697,1992,40,"wr","White rhino",1,-25.19,31.3,328702.1,7212931.73
"358698",358698,1992,40,"wr","White rhino",3,-25.17,31.3,328674.12,7215146.98
"358700",358700,1992,40,"wr","White rhino",2,-25.16,31.3,328660.14,7216254.6
"358705",358705,1992,40,"wr","White rhino",3,-25.19,31.31,329709.92,7212944.42
"358712",358712,1992,40,"wr","White rhino",1,-25.24,31.32,330786.94,7207418.92
"358718",358718,1992,40,"wr","White rhino",2,-25.19,31.32,330717.74,7212957.04
"358728",358728,1992,40,"wr","White rhino",1,-25.15,31.31,329654.32,7217374.9
"358745",358745,1992,40,"wr","White rhino",2,-25.23,31.33,331780.57,7208539.11
"358756",358756,1992,40,"wr","White rhino",4,-25.18,31.33,331711.81,7214077.2
"358759",358759,1992,40,"wr","White rhino",2,-25.18,31.33,331711.81,7214077.2
"358763",358763,1992,40,"wr","White rhino",2,-25.16,31.33,331684.34,7216292.43
"358792",358792,1992,40,"wr","White rhino",2,-25.18,31.34,332719.71,7214089.66
"358804",358804,1992,40,"wr","White rhino",2,-25.2,31.34,332747.03,7211874.44
"358806",358806,1992,40,"wr","White rhino",2,-25.21,31.34,332760.7,7210766.82
"358807",358807,1992,40,"wr","White rhino",4,-25.23,31.34,332788.06,7208551.59
"358816",358816,1992,40,"wr","White rhino",5,-25.17,31.34,332706.05,7215197.27
"358824",358824,1992,40,"wr","White rhino",2,-25.14,31.34,332665.12,7218520.1
"358850",358850,1992,40,"wr","White rhino",2,-25.23,31.36,334803.01,7208576.33
"358857",358857,1992,40,"wr","White rhino",3,-25.17,31.36,334722,7215221.97
"358873",358873,1992,40,"wr","White rhino",3,-25.18,31.36,334735.49,7214114.37
"358881",358881,1992,40,"wr","White rhino",2,-25.23,31.37,335810.49,7208588.59
"358911",358911,1992,41,"wr","White rhino",2,-25.31,31.33,331890.86,7199678.09
"358915",358915,1992,41,"wr","White rhino",2,-25.32,31.41,339958.49,7198668.47
"358924",358924,1992,41,"wr","White rhino",2,-25.3,31.36,334897.76,7200823.02
"358925",358925,1992,41,"wr","White rhino",2,-25.3,31.37,335904.65,7200835.3
"358938",358938,1992,41,"wr","White rhino",2,-25.29,31.35,333877.23,7201918.29
"358955",358955,1992,41,"wr","White rhino",3,-25.28,31.4,338898.89,7203086.91
"358956",358956,1992,41,"wr","White rhino",1,-25.28,31.39,337891.84,7203074.86
"358957",358957,1992,41,"wr","White rhino",1,-25.28,31.38,336884.78,7203062.73
"358958",358958,1992,41,"wr","White rhino",2,-25.28,31.36,334870.66,7203038.26
"358961",358961,1992,41,"wr","White rhino",3,-25.27,31.33,331835.68,7204108.61
"358963",358963,1992,41,"wr","White rhino",4,-25.28,31.36,334870.66,7203038.26
"358964",358964,1992,41,"wr","White rhino",2,-25.28,31.37,335877.72,7203050.53
"358966",358966,1992,41,"wr","White rhino",2,-25.28,31.38,336884.78,7203062.73
"358968",358968,1992,41,"wr","White rhino",4,-25.28,31.39,337891.84,7203074.86
"358969",358969,1992,41,"wr","White rhino",3,-25.28,31.39,337891.84,7203074.86
"358970",358970,1992,41,"wr","White rhino",2,-25.28,31.4,338898.89,7203086.91
"358971",358971,1992,41,"wr","White rhino",2,-25.27,31.4,338885.68,7204194.51
"358974",358974,1992,41,"wr","White rhino",2,-25.27,31.38,336871.41,7204170.34
"358977",358977,1992,41,"wr","White rhino",3,-25.27,31.36,334857.12,7204145.88
"358978",358978,1992,41,"wr","White rhino",2,-25.27,31.36,334857.12,7204145.88
"358981",358981,1992,41,"wr","White rhino",1,-25.26,31.34,332829.13,7205228.73
"358982",358982,1992,41,"wr","White rhino",5,-25.26,31.34,332829.13,7205228.73
"358983",358983,1992,41,"wr","White rhino",2,-25.26,31.35,333836.36,7205241.15
"358985",358985,1992,41,"wr","White rhino",1,-25.26,31.35,333836.36,7205241.15
"358986",358986,1992,41,"wr","White rhino",2,-25.26,31.36,334843.59,7205253.49
"358988",358988,1992,41,"wr","White rhino",2,-25.26,31.39,337865.26,7205290.07
"358989",358989,1992,41,"wr","White rhino",2,-25.26,31.39,337865.26,7205290.07
"358990",358990,1992,41,"wr","White rhino",3,-25.26,31.38,336858.04,7205277.95
"358992",358992,1992,41,"wr","White rhino",1,-25.26,31.38,336858.04,7205277.95
"358993",358993,1992,41,"wr","White rhino",2,-25.25,31.36,334830.06,7206361.11
"358994",358994,1992,41,"wr","White rhino",5,-25.25,31.36,334830.06,7206361.11
"358995",358995,1992,41,"wr","White rhino",2,-25.25,31.36,334830.06,7206361.11
"358996",358996,1992,41,"wr","White rhino",1,-25.25,31.35,333822.75,7206348.77
"358998",358998,1992,41,"wr","White rhino",1,-25.25,31.35,333822.75,7206348.77
"358999",358999,1992,41,"wr","White rhino",2,-25.25,31.35,333822.75,7206348.77
"359005",359005,1992,41,"wr","White rhino",2,-25.25,31.38,336844.67,7206385.56
"359006",359006,1992,41,"wr","White rhino",2,-25.25,31.38,336844.67,7206385.56
"359009",359009,1992,41,"wr","White rhino",1,-25.24,31.34,332801.74,7207443.97
"359011",359011,1992,41,"wr","White rhino",2,-25.24,31.35,333809.14,7207456.38
"359013",359013,1992,41,"wr","White rhino",2,-25.23,31.37,335810.49,7208588.59
"359015",359015,1992,41,"wr","White rhino",2,-25.23,31.36,334803.01,7208576.33
"359017",359017,1992,41,"wr","White rhino",2,-25.23,31.34,332788.06,7208551.59
"359021",359021,1992,41,"wr","White rhino",3,-25.23,31.35,333795.54,7208564
"359022",359022,1992,41,"wr","White rhino",3,-25.23,31.36,334803.01,7208576.33
"359023",359023,1992,41,"wr","White rhino",2,-25.22,31.36,334789.5,7209683.94
"359024",359024,1992,41,"wr","White rhino",2,-25.22,31.35,333781.94,7209671.61
"359031",359031,1992,41,"wr","White rhino",4,-25.26,31.41,339879.69,7205314.08
"359034",359034,1992,41,"wr","White rhino",4,-25.23,31.39,337825.42,7208612.88
"359035",359035,1992,41,"wr","White rhino",2,-25.24,31.39,337838.7,7207505.28
"359036",359036,1992,41,"wr","White rhino",1,-25.24,31.39,337838.7,7207505.28
"359037",359037,1992,41,"wr","White rhino",2,-25.25,31.39,337851.97,7206397.68
"359038",359038,1992,41,"wr","White rhino",2,-25.25,31.4,338859.27,7206409.72
"359040",359040,1992,41,"wr","White rhino",1,-25.25,31.4,338859.27,7206409.72
"359044",359044,1992,41,"wr","White rhino",2,-25.27,31.42,340899.94,7204218.38
"359046",359046,1992,41,"wr","White rhino",2,-25.27,31.42,340899.94,7204218.38
"359047",359047,1992,41,"wr","White rhino",2,-25.27,31.42,340899.94,7204218.38
"359052",359052,1992,41,"wr","White rhino",2,-25.26,31.42,340886.9,7205325.98
"359055",359055,1992,41,"wr","White rhino",3,-25.26,31.42,340886.9,7205325.98
"359056",359056,1992,41,"wr","White rhino",1,-25.26,31.41,339879.69,7205314.08
"359058",359058,1992,41,"wr","White rhino",2,-25.25,31.41,339866.57,7206421.68
"359059",359059,1992,41,"wr","White rhino",1,-25.25,31.41,339866.57,7206421.68
"359060",359060,1992,41,"wr","White rhino",3,-25.25,31.41,339866.57,7206421.68
"359061",359061,1992,41,"wr","White rhino",2,-25.25,31.41,339866.57,7206421.68
"359063",359063,1992,41,"wr","White rhino",2,-25.24,31.4,338846.08,7207517.31
"359064",359064,1992,41,"wr","White rhino",1,-25.24,31.4,338846.08,7207517.31
"359068",359068,1992,41,"wr","White rhino",1,-25.22,31.38,336804.61,7209708.37
"359073",359073,1992,41,"wr","White rhino",2,-25.23,31.4,338832.89,7208624.91
"359074",359074,1992,41,"wr","White rhino",2,-25.24,31.41,339853.46,7207529.28
"359076",359076,1992,41,"wr","White rhino",2,-25.24,31.41,339853.46,7207529.28
"359078",359078,1992,41,"wr","White rhino",2,-25.25,31.41,339866.57,7206421.68
"359081",359081,1992,41,"wr","White rhino",1,-25.25,31.42,340873.86,7206433.57
"359084",359084,1992,41,"wr","White rhino",1,-25.27,31.43,341907.06,7204230.2
"359085",359085,1992,41,"wr","White rhino",2,-25.27,31.44,342914.18,7204241.95
"359089",359089,1992,41,"wr","White rhino",5,-25.28,31.45,343934.09,7203146.03
"359090",359090,1992,41,"wr","White rhino",2,-25.29,31.45,343946.9,7202038.45
"359096",359096,1992,41,"wr","White rhino",2,-25.26,31.45,343908.51,7205361.2
"359098",359098,1992,41,"wr","White rhino",1,-25.26,31.44,342901.31,7205349.54
"359112",359112,1992,41,"wr","White rhino",2,-25.26,31.47,345922.9,7205384.31
"359120",359120,1992,41,"wr","White rhino",2,-25.26,31.48,346930.09,7205395.76
"359162",359162,1992,41,"wr","White rhino",2,-25.23,31.48,346892.49,7208718.47
"359183",359183,1992,41,"wr","White rhino",2,-25.22,31.48,346879.96,7209826.04
"359239",359239,1992,41,"wr","White rhino",2,-25.2,31.47,345847.24,7212029.75
"359240",359240,1992,41,"wr","White rhino",2,-25.2,31.47,345847.24,7212029.75
"359243",359243,1992,41,"wr","White rhino",2,-25.19,31.47,345834.65,7213137.32
"359263",359263,1992,41,"wr","White rhino",2,-25.2,31.47,345847.24,7212029.75
"359265",359265,1992,41,"wr","White rhino",2,-25.2,31.47,345847.24,7212029.75
"359278",359278,1992,41,"wr","White rhino",2,-25.21,31.46,344852.23,7210910.68
"359281",359281,1992,41,"wr","White rhino",1,-25.2,31.46,344839.55,7212018.26
"359288",359288,1992,41,"wr","White rhino",1,-25.17,31.46,344801.54,7215340.97
"359291",359291,1992,41,"wr","White rhino",2,-25.17,31.47,345809.47,7215352.45
"359292",359292,1992,41,"wr","White rhino",1,-25.17,31.47,345809.47,7215352.45
"359295",359295,1992,41,"wr","White rhino",2,-25.16,31.47,345796.89,7216460.02
"359305",359305,1992,41,"wr","White rhino",1,-25.16,31.45,343780.85,7216436.98
"359307",359307,1992,41,"wr","White rhino",3,-25.16,31.45,343780.85,7216436.98
"359352",359352,1992,41,"wr","White rhino",1,-25.21,31.43,341829.39,7210875.73
"359360",359360,1992,41,"wr","White rhino",2,-25.22,31.42,340834.79,7209756.34
"359366",359366,1992,41,"wr","White rhino",4,-25.19,31.42,340795.76,7213079.1
"359381",359381,1992,41,"wr","White rhino",2,-25.21,31.42,340821.77,7210863.93
"359386",359386,1992,41,"wr","White rhino",1,-25.19,31.41,339787.97,7213067.23
"359408",359408,1992,41,"wr","White rhino",1,-25.21,31.4,338806.52,7210840.1
"359410",359410,1992,41,"wr","White rhino",1,-25.19,31.4,338780.18,7213055.29
"359411",359411,1992,41,"wr","White rhino",1,-25.18,31.4,338767.01,7214162.88
"359412",359412,1992,41,"wr","White rhino",3,-25.18,31.4,338767.01,7214162.88
"359420",359420,1992,41,"wr","White rhino",4,-25.18,31.39,337759.14,7214150.86
"359428",359428,1992,41,"wr","White rhino",1,-25.19,31.37,335756.79,7213019.01
"359472",359472,1992,41,"wr","White rhino",1,-25.1,31.46,344713,7223093.91
"359481",359481,1992,41,"wr","White rhino",2,-25.14,31.46,344763.57,7218663.67
"359489",359489,1992,41,"wr","White rhino",1,-25.12,31.45,343729.92,7220867.25
"359529",359529,1992,41,"wr","White rhino",1,-25.11,31.42,340691.89,7221939.73
"359533",359533,1992,41,"wr","White rhino",1,-25.14,31.41,339722.6,7218605.16
"359543",359543,1992,41,"wr","White rhino",1,-25.13,31.4,338701.26,7219700.81
"359544",359544,1992,41,"wr","White rhino",1,-25.13,31.4,338701.26,7219700.81
"359546",359546,1992,41,"wr","White rhino",3,-25.12,31.39,337679.75,7220796.4
"359560",359560,1992,41,"wr","White rhino",2,-25.12,31.38,336671.38,7220784.33
"359564",359564,1992,41,"wr","White rhino",7,-25.11,31.37,335649.63,7221879.78
"359565",359565,1992,41,"wr","White rhino",2,-25.11,31.37,335649.63,7221879.78
"359567",359567,1992,41,"wr","White rhino",2,-25.12,31.38,336671.38,7220784.33
"359568",359568,1992,41,"wr","White rhino",4,-25.13,31.38,336684.68,7219676.74
"359570",359570,1992,41,"wr","White rhino",1,-25.13,31.38,336684.68,7219676.74
"359590",359590,1992,41,"wr","White rhino",2,-25.13,31.37,335676.39,7219664.59
"359592",359592,1992,41,"wr","White rhino",5,-25.12,31.36,334654.63,7220759.97
"359594",359594,1992,41,"wr","White rhino",1,-25.12,31.36,334654.63,7220759.97
"359599",359599,1992,41,"wr","White rhino",3,-25.12,31.36,334654.63,7220759.97
"359600",359600,1992,41,"wr","White rhino",2,-25.12,31.36,334654.63,7220759.97
"359601",359601,1992,41,"wr","White rhino",2,-25.13,31.36,334668.09,7219652.37
"359602",359602,1992,41,"wr","White rhino",1,-25.13,31.36,334668.09,7219652.37
"359604",359604,1992,41,"wr","White rhino",1,-25.13,31.36,334668.09,7219652.37
"359615",359615,1992,41,"wr","White rhino",2,-25.14,31.36,334681.56,7218544.77
"359617",359617,1992,41,"wr","White rhino",2,-25.13,31.35,333659.79,7219640.07
"359618",359618,1992,41,"wr","White rhino",8,-25.13,31.35,333659.79,7219640.07
"359619",359619,1992,41,"wr","White rhino",3,-25.13,31.35,333659.79,7219640.07
"359623",359623,1992,41,"wr","White rhino",3,-25.15,31.36,334695.03,7217437.17
"359624",359624,1992,41,"wr","White rhino",1,-25.15,31.36,334695.03,7217437.17
"359631",359631,1992,41,"wr","White rhino",1,-25.39,31.36,335019.94,7190854.38
"359632",359632,1992,41,"wr","White rhino",3,-25.39,31.36,335019.94,7190854.38
"359634",359634,1992,41,"wr","White rhino",2,-25.38,31.34,332993.87,7191937.16
"359635",359635,1992,41,"wr","White rhino",2,-25.38,31.37,336012.57,7191974.32
"359639",359639,1992,41,"wr","White rhino",2,-25.38,31.37,336012.57,7191974.32
"359645",359645,1992,41,"wr","White rhino",2,-25.37,31.33,331973.79,7193032.27
"359649",359649,1992,41,"wr","White rhino",1,-25.37,31.35,333986.43,7193057.26
"359650",359650,1992,41,"wr","White rhino",2,-25.37,31.35,333986.43,7193057.26
"359656",359656,1992,41,"wr","White rhino",3,-25.37,31.37,335999.07,7193081.95
"359658",359658,1992,41,"wr","White rhino",2,-25.37,31.38,337005.38,7193094.18
"359692",359692,1992,41,"wr","White rhino",1,-25.36,31.34,332966.36,7194152.44
"359695",359695,1992,41,"wr","White rhino",3,-25.35,31.33,331946.12,7195247.55
"359699",359699,1992,41,"wr","White rhino",1,-25.35,31.35,333959.1,7195272.52
"359700",359700,1992,41,"wr","White rhino",1,-25.35,31.36,334965.59,7195284.9
"359717",359717,1992,41,"wr","White rhino",2,-25.34,31.34,332938.87,7196367.71
"359738",359738,1992,41,"wr","White rhino",2,-25.32,31.33,331904.67,7198570.46
"359741",359741,1992,41,"wr","White rhino",1,-25.33,31.39,337958.37,7197536.81
"359754",359754,1992,41,"wr","White rhino",2,-25.33,31.36,334938.44,7197500.15
"359769",359769,1992,42,"wr","White rhino",2,-25.3,31.59,358055.57,7201086.5
"359773",359773,1992,42,"wr","White rhino",2,-25.3,31.58,357048.74,7201075.87
"359775",359775,1992,42,"wr","White rhino",2,-25.3,31.58,357048.74,7201075.87
"359780",359780,1992,42,"wr","White rhino",3,-25.3,31.55,354028.24,7201043.53
"359802",359802,1992,42,"wr","White rhino",1,-25.28,31.57,356018.29,7203280.26
"359803",359803,1992,42,"wr","White rhino",2,-25.28,31.57,356018.29,7203280.26
"359804",359804,1992,42,"wr","White rhino",1,-25.28,31.57,356018.29,7203280.26
"359807",359807,1992,42,"wr","White rhino",2,-25.28,31.55,354004.29,7203258.64
"359816",359816,1992,42,"wr","White rhino",1,-25.28,31.54,352997.28,7203247.72
"359861",359861,1992,42,"wr","White rhino",3,-25.26,31.57,355994.68,7205495.36
"359944",359944,1992,42,"wr","White rhino",1,-25.24,31.56,354963.77,7207699.69
"359951",359951,1992,42,"wr","White rhino",4,-25.23,31.57,355959.31,7208817.99
"359963",359963,1992,42,"wr","White rhino",2,-25.22,31.61,359977.48,7209967.79
"359982",359982,1992,42,"wr","White rhino",2,-25.21,31.61,359966.03,7211075.32
"359990",359990,1992,42,"wr","White rhino",1,-25.21,31.6,358958.46,7211064.87
"360012",360012,1992,42,"wr","White rhino",1,-25.2,31.61,359954.59,7212182.85
"360049",360049,1992,42,"wr","White rhino",1,-25.19,31.61,359943.15,7213290.37
"360054",360054,1992,42,"wr","White rhino",2,-25.18,31.61,359931.71,7214397.89
"360055",360055,1992,42,"wr","White rhino",1,-25.18,31.61,359931.71,7214397.89
"360105",360105,1992,42,"wr","White rhino",1,-25.16,31.6,358900.87,7216602.5
"360112",360112,1992,42,"wr","White rhino",4,-25.16,31.58,356884.91,7216581.4
"360113",360113,1992,42,"wr","White rhino",3,-25.16,31.58,356884.91,7216581.4
"360115",360115,1992,42,"wr","White rhino",2,-25.16,31.58,356884.91,7216581.4
"360170",360170,1992,42,"wr","White rhino",1,-25.14,31.54,352828.95,7218753.39
"360188",360188,1992,42,"wr","White rhino",2,-25.16,31.54,352852.94,7216538.31
"360202",360202,1992,42,"wr","White rhino",1,-25.19,31.56,354904.46,7213237.4
"360206",360206,1992,42,"wr","White rhino",3,-25.19,31.54,352888.97,7213215.68
"360222",360222,1992,42,"wr","White rhino",5,-25.2,31.55,353908.65,7212119.03
"360235",360235,1992,42,"wr","White rhino",3,-25.2,31.51,349877.97,7212074.99
"360236",360236,1992,42,"wr","White rhino",1,-25.2,31.51,349877.97,7212074.99
"360244",360244,1992,42,"wr","White rhino",3,-25.22,31.51,349902.51,7209859.88
"360245",360245,1992,42,"wr","White rhino",2,-25.22,31.51,349902.51,7209859.88
"360246",360246,1992,42,"wr","White rhino",7,-25.22,31.51,349902.51,7209859.88
"360248",360248,1992,42,"wr","White rhino",1,-25.22,31.5,348895,7209848.67
"360249",360249,1992,42,"wr","White rhino",2,-25.22,31.5,348895,7209848.67
"360251",360251,1992,42,"wr","White rhino",3,-25.22,31.51,349902.51,7209859.88
"360253",360253,1992,42,"wr","White rhino",2,-25.22,31.52,350910.02,7209871.01
"360256",360256,1992,42,"wr","White rhino",1,-25.22,31.54,352925.03,7209893.04
"360264",360264,1992,42,"wr","White rhino",2,-25.24,31.5,348919.72,7207633.55
"360267",360267,1992,42,"wr","White rhino",1,-25.24,31.51,349927.07,7207644.76
"360273",360273,1992,42,"wr","White rhino",2,-25.24,31.5,348919.72,7207633.55
"360279",360279,1992,42,"wr","White rhino",1,-25.25,31.51,349939.36,7206537.2
"360281",360281,1992,42,"wr","White rhino",1,-25.25,31.52,350946.62,7206548.33
"360282",360282,1992,42,"wr","White rhino",1,-25.26,31.53,351966,7205451.84
"360285",360285,1992,42,"wr","White rhino",1,-25.27,31.51,349963.94,7204322.07
"360298",360298,1992,42,"wr","White rhino",1,-25.09,31.56,354786.18,7224312.71
"360375",360375,1992,43,"wr","White rhino",1,-25.04,31.55,353718.23,7229839.55
"360377",360377,1992,43,"wr","White rhino",1,-24.98,31.55,353647.12,7236484.65
"360439",360439,1992,43,"wr","White rhino",1,-25.04,31.48,346655.31,7229762.05
"360484",360484,1992,43,"wr","White rhino",2,-25.07,31.46,344675.13,7226416.58
"360492",360492,1992,43,"wr","White rhino",1,-25.08,31.46,344687.75,7225309.02
"360580",360580,1992,43,"wr","White rhino",3,-25.1,31.4,338661.87,7223023.56
"360581",360581,1992,43,"wr","White rhino",2,-25.09,31.4,338648.74,7224131.13
"360582",360582,1992,43,"wr","White rhino",1,-25.07,31.4,338622.52,7226346.29
"360596",360596,1992,43,"wr","White rhino",2,-25.09,31.39,337640.13,7224119.15
"360599",360599,1992,43,"wr","White rhino",2,-25.1,31.4,338661.87,7223023.56
"360600",360600,1992,43,"wr","White rhino",2,-25.1,31.4,338661.87,7223023.56
"360601",360601,1992,43,"wr","White rhino",2,-25.1,31.39,337653.33,7223011.57
"360737",360737,1992,44,"wr","White rhino",1,-25.34,31.71,370179.98,7196778.12
"360738",360738,1992,44,"wr","White rhino",1,-25.35,31.71,370190.65,7195670.61
"360752",360752,1992,44,"wr","White rhino",1,-25.36,31.7,369195.03,7194553.35
"360754",360754,1992,44,"wr","White rhino",1,-25.35,31.7,369184.27,7195660.87
"360819",360819,1992,44,"wr","White rhino",2,-25.36,31.68,367182.42,7194533.63
"360833",360833,1992,44,"wr","White rhino",1,-25.3,31.67,366110.11,7201168.82
"360872",360872,1992,44,"wr","White rhino",3,-25.37,31.67,366187.13,7193416.13
"360891",360891,1992,44,"wr","White rhino",5,-25.29,31.66,365092.23,7202266.31
"360922",360922,1992,44,"wr","White rhino",3,-25.38,31.67,366198.15,7192308.6
"360945",360945,1992,44,"wr","White rhino",1,-25.36,31.65,364163.49,7194503.5
"360994",360994,1992,44,"wr","White rhino",2,-25.35,31.63,362139.51,7195590.58
"361023",361023,1992,44,"wr","White rhino",5,-25.36,31.63,362150.86,7194483.04
"361027",361027,1992,44,"wr","White rhino",2,-25.38,31.63,362173.55,7192267.95
"361044",361044,1992,44,"wr","White rhino",3,-25.34,31.62,361121.69,7196687.78
"361048",361048,1992,44,"wr","White rhino",5,-25.36,31.62,361144.53,7194472.69
"361053",361053,1992,44,"wr","White rhino",3,-25.38,31.62,361167.4,7192257.6
"361057",361057,1992,44,"wr","White rhino",2,-25.37,31.62,361155.96,7193365.14
"361060",361060,1992,44,"wr","White rhino",1,-25.35,31.61,360126.7,7195569.82
"361064",361064,1992,44,"wr","White rhino",3,-25.32,31.61,360092.2,7198892.45
"361084",361084,1992,44,"wr","White rhino",1,-25.34,31.61,360115.2,7196677.36
"361088",361088,1992,44,"wr","White rhino",3,-25.35,31.61,360126.7,7195569.82
"361090",361090,1992,44,"wr","White rhino",2,-25.36,31.61,360138.21,7194462.27
"361095",361095,1992,44,"wr","White rhino",3,-25.37,31.62,361155.96,7193365.14
"361136",361136,1992,44,"wr","White rhino",2,-25.38,31.58,357142.75,7192215.44
"361147",361147,1992,44,"wr","White rhino",1,-25.39,31.57,356148.43,7191097.15
"361150",361150,1992,44,"wr","White rhino",2,-25.38,31.57,356136.58,7192204.71
"361151",361151,1992,44,"wr","White rhino",2,-25.38,31.57,356136.58,7192204.71
"361153",361153,1992,44,"wr","White rhino",2,-25.38,31.57,356136.58,7192204.71
"361160",361160,1992,44,"wr","White rhino",2,-25.39,31.56,355142.34,7191086.34
"361163",361163,1992,44,"wr","White rhino",1,-25.4,31.56,355154.28,7189978.77
"361164",361164,1992,44,"wr","White rhino",1,-25.4,31.56,355154.28,7189978.77
"361220",361220,1992,44,"wr","White rhino",1,-25.39,31.62,361178.84,7191150.05
"361247",361247,1992,44,"wr","White rhino",2,-25.41,31.62,361201.72,7188934.95
"361340",361340,1992,44,"wr","White rhino",1,-25.34,31.85,384270.25,7196906.55
"361435",361435,1992,44,"wr","White rhino",2,-25.28,31.79,378171.62,7203498.26
"361494",361494,1992,44,"wr","White rhino",1,-25.29,31.75,374154.15,7202353.83
"361581",361581,1992,44,"wr","White rhino",1,-25.3,31.71,370137.31,7201208.18
"361588",361588,1992,44,"wr","White rhino",2,-25.28,31.71,370116.01,7203423.19
"361594",361594,1992,44,"wr","White rhino",2,-25.29,31.7,369119.78,7202305.96
"361598",361598,1992,44,"wr","White rhino",4,-25.3,31.7,369130.52,7201198.45
"361605",361605,1992,44,"wr","White rhino",2,-25.26,31.7,369087.59,7205628.49
"361615",361615,1992,44,"wr","White rhino",2,-25.28,31.69,368102.08,7203403.68
"361616",361616,1992,44,"wr","White rhino",5,-25.28,31.68,367095.11,7203393.8
"361650",361650,1992,44,"wr","White rhino",1,-25.25,31.67,366055.22,7206706.41
"361678",361678,1992,44,"wr","White rhino",2,-25.22,31.65,364007.39,7210008.86
"361702",361702,1992,44,"wr","White rhino",3,-25.26,31.63,362037.62,7205558.38
"361707",361707,1992,44,"wr","White rhino",2,-25.24,31.63,362015.02,7207773.43
"361709",361709,1992,44,"wr","White rhino",2,-25.23,31.63,362003.73,7208880.95
"361711",361711,1992,44,"wr","White rhino",2,-25.22,31.64,362999.92,7209998.71
"361714",361714,1992,44,"wr","White rhino",2,-25.21,31.64,362988.71,7211106.22
"361717",361717,1992,44,"wr","White rhino",2,-25.21,31.64,362988.71,7211106.22
"361718",361718,1992,44,"wr","White rhino",2,-25.21,31.64,362988.71,7211106.22
"361720",361720,1992,44,"wr","White rhino",1,-25.2,31.63,361969.88,7212203.52
"361722",361722,1992,44,"wr","White rhino",2,-25.2,31.63,361969.88,7212203.52
"361735",361735,1992,44,"wr","White rhino",2,-25.24,31.63,362015.02,7207773.43
"361736",361736,1992,44,"wr","White rhino",2,-25.25,31.63,362026.32,7206665.91
"361738",361738,1992,44,"wr","White rhino",2,-25.25,31.62,361019.09,7206655.59
"361742",361742,1992,44,"wr","White rhino",2,-25.27,31.63,362048.92,7204450.85
"361743",361743,1992,44,"wr","White rhino",2,-25.27,31.63,362048.92,7204450.85
"361750",361750,1992,44,"wr","White rhino",2,-25.24,31.62,361007.71,7207763.12
"361752",361752,1992,44,"wr","White rhino",2,-25.24,31.62,361007.71,7207763.12
"361756",361756,1992,44,"wr","White rhino",4,-25.22,31.62,360984.96,7209978.17
"361758",361758,1992,44,"wr","White rhino",2,-25.22,31.62,360984.96,7209978.17
"361760",361760,1992,44,"wr","White rhino",3,-25.21,31.62,360973.59,7211085.7
"361766",361766,1992,44,"wr","White rhino",2,-25.2,31.62,360962.23,7212193.22
"361797",361797,1992,44,"wr","White rhino",1,-25.18,31.64,362955.14,7214428.77
"361805",361805,1992,44,"wr","White rhino",2,-25.21,31.67,366011.37,7211136.45
"361807",361807,1992,44,"wr","White rhino",4,-25.2,31.67,366000.42,7212243.96
"361809",361809,1992,44,"wr","White rhino",2,-25.2,31.68,367008.06,7212253.88
"361813",361813,1992,44,"wr","White rhino",2,-25.18,31.71,370009.7,7214498.19
"361879",361879,1992,44,"wr","White rhino",2,-25.18,31.74,373033.05,7214526.82
"361880",361880,1992,44,"wr","White rhino",4,-25.19,31.73,372035.72,7213409.87
"361883",361883,1992,44,"wr","White rhino",4,-25.19,31.73,372035.72,7213409.87
"361888",361888,1992,44,"wr","White rhino",2,-25.2,31.72,371038.55,7212292.83
"361892",361892,1992,44,"wr","White rhino",4,-25.2,31.71,370030.93,7212283.2
"361913",361913,1992,44,"wr","White rhino",2,-25.22,31.69,368037.26,7210048.73
"361934",361934,1992,44,"wr","White rhino",2,-25.18,31.75,374040.83,7214536.22
"361938",361938,1992,44,"wr","White rhino",1,-25.18,31.76,375048.6,7214545.53
"361940",361940,1992,44,"wr","White rhino",8,-25.18,31.76,375048.6,7214545.53
"361941",361941,1992,44,"wr","White rhino",4,-25.18,31.76,375048.6,7214545.53
"361942",361942,1992,44,"wr","White rhino",2,-25.18,31.76,375048.6,7214545.53
"361983",361983,1992,44,"wr","White rhino",2,-25.19,31.76,375058.8,7213438.05
"362013",362013,1992,44,"wr","White rhino",1,-25.24,31.71,370073.44,7207853.21
"362041",362041,1992,44,"wr","White rhino",2,-25.23,31.74,373084.92,7208989.38
"362086",362086,1992,44,"wr","White rhino",3,-25.25,31.72,371091.28,7206755.34
"362103",362103,1992,44,"wr","White rhino",2,-25.23,31.76,375099.64,7209008.12
"362118",362118,1992,44,"wr","White rhino",2,-25.25,31.75,374112.89,7206783.81
"362120",362120,1992,44,"wr","White rhino",2,-25.24,31.77,376117.14,7207909.89
"362129",362129,1992,44,"wr","White rhino",2,-25.26,31.75,374123.2,7205676.31
"362131",362131,1992,44,"wr","White rhino",1,-25.26,31.75,374123.2,7205676.31
"362137",362137,1992,44,"wr","White rhino",2,-25.26,31.76,375130.32,7205685.65
"362223",362223,1992,45,"wr","White rhino",3,-25.3,31.9,389266.01,7201378.7
"362240",362240,1992,45,"wr","White rhino",4,-25.3,31.91,390272.76,7201386.92
"362267",362267,1992,45,"wr","White rhino",10,-25.29,31.87,386236.41,7202461.05
"362279",362279,1992,45,"wr","White rhino",2,-25.28,31.91,390254.76,7203601.84
"362285",362285,1992,45,"wr","White rhino",2,-25.28,31.92,391261.67,7203609.98
"362325",362325,1992,45,"wr","White rhino",3,-25.27,31.92,391252.76,7204717.43
"362327",362327,1992,45,"wr","White rhino",2,-25.27,31.92,391252.76,7204717.43
"362328",362328,1992,45,"wr","White rhino",2,-25.27,31.92,391252.76,7204717.43
"362329",362329,1992,45,"wr","White rhino",2,-25.27,31.93,392259.75,7204725.5
"362334",362334,1992,45,"wr","White rhino",1,-25.26,31.93,392250.92,7205832.95
"362339",362339,1992,45,"wr","White rhino",2,-25.26,31.9,389229.68,7205808.53
"362342",362342,1992,45,"wr","White rhino",2,-25.27,31.89,388231.76,7204692.78
"362371",362371,1992,45,"wr","White rhino",3,-25.26,31.91,390236.77,7205816.75
"362372",362372,1992,45,"wr","White rhino",7,-25.26,31.92,391243.84,7205824.89
"362373",362373,1992,45,"wr","White rhino",2,-25.26,31.92,391243.84,7205824.89
"362389",362389,1992,45,"wr","White rhino",2,-25.26,31.88,387215.52,7205791.88
"362391",362391,1992,45,"wr","White rhino",2,-25.26,31.87,386208.43,7205783.44
"362425",362425,1992,45,"wr","White rhino",2,-25.24,31.91,390218.79,7208031.65
"362426",362426,1992,45,"wr","White rhino",2,-25.24,31.92,391226.03,7208039.78
"362428",362428,1992,45,"wr","White rhino",2,-25.24,31.92,391226.03,7208039.78
"362429",362429,1992,45,"wr","White rhino",2,-25.24,31.92,391226.03,7208039.78
"362431",362431,1992,45,"wr","White rhino",2,-25.24,31.93,392233.28,7208047.84
"362448",362448,1992,45,"wr","White rhino",3,-25.24,31.9,389211.54,7208023.44
"362449",362449,1992,45,"wr","White rhino",2,-25.24,31.89,388204.3,7208015.16
"362450",362450,1992,45,"wr","White rhino",3,-25.24,31.88,387197.05,7208006.8
"362453",362453,1992,45,"wr","White rhino",1,-25.24,31.87,386189.79,7207998.36
"362458",362458,1992,45,"wr","White rhino",2,-25.25,31.86,385191.94,7206882.39
"362462",362462,1992,45,"wr","White rhino",2,-25.25,31.86,385191.94,7206882.39
"362473",362473,1992,45,"wr","White rhino",1,-25.23,31.89,388195.15,7209122.61
"362474",362474,1992,45,"wr","White rhino",2,-25.23,31.9,389202.48,7209130.89
"362477",362477,1992,45,"wr","White rhino",3,-25.22,31.92,391208.24,7210254.68
"362478",362478,1992,45,"wr","White rhino",2,-25.22,31.93,392215.64,7210262.73
"362479",362479,1992,45,"wr","White rhino",3,-25.22,31.93,392215.64,7210262.73
"362488",362488,1992,45,"wr","White rhino",1,-25.22,31.93,392215.64,7210262.73
"362492",362492,1992,45,"wr","White rhino",2,-25.23,31.9,389202.48,7209130.89
"362513",362513,1992,45,"wr","White rhino",1,-25.22,31.88,387178.59,7210221.71
"362528",362528,1992,45,"wr","White rhino",1,-25.21,31.95,394221.8,7211386.05
"362544",362544,1992,45,"wr","White rhino",2,-25.22,31.87,386171.17,7210213.28
"362545",362545,1992,45,"wr","White rhino",1,-25.22,31.87,386171.17,7210213.28
"362550",362550,1992,45,"wr","White rhino",1,-25.22,31.86,385163.75,7210204.77
"362564",362564,1992,45,"wr","White rhino",1,-25.21,31.92,391199.34,7211362.12
"362568",362568,1992,45,"wr","White rhino",1,-25.2,31.93,392198.02,7212477.61
"362609",362609,1992,45,"wr","White rhino",3,-25.2,31.88,387160.14,7212436.61
"362610",362610,1992,45,"wr","White rhino",2,-25.19,31.88,387150.93,7213544.06
"362612",362612,1992,45,"wr","White rhino",2,-25.18,31.9,389157.2,7214668.13
"362627",362627,1992,45,"wr","White rhino",2,-25.18,31.89,388149.46,7214659.86
"362628",362628,1992,45,"wr","White rhino",2,-25.18,31.89,388149.46,7214659.86
"362631",362631,1992,45,"wr","White rhino",2,-25.18,31.89,388149.46,7214659.86
"362636",362636,1992,45,"wr","White rhino",1,-25.17,31.89,388140.33,7215767.3
"362670",362670,1992,45,"wr","White rhino",1,-25.16,31.9,389139.11,7216883.01
"362678",362678,1992,45,"wr","White rhino",1,-25.16,31.92,391154.92,7216899.32
"362698",362698,1992,45,"wr","White rhino",2,-25.15,31.9,389130.07,7217990.45
"362699",362699,1992,45,"wr","White rhino",1,-25.15,31.9,389130.07,7217990.45
"362703",362703,1992,45,"wr","White rhino",2,-25.15,31.91,390138.06,7217998.64
"362705",362705,1992,45,"wr","White rhino",2,-25.15,31.91,390138.06,7217998.64
"362707",362707,1992,45,"wr","White rhino",2,-25.15,31.91,390138.06,7217998.64
"362709",362709,1992,45,"wr","White rhino",3,-25.14,31.92,391137.18,7219114.19
"362712",362712,1992,45,"wr","White rhino",2,-25.14,31.93,392145.24,7219122.22
"362734",362734,1992,45,"wr","White rhino",4,-25.14,31.9,389121.04,7219097.89
"362755",362755,1992,45,"wr","White rhino",2,-25.13,31.92,391128.31,7220221.62
"362797",362797,1992,45,"wr","White rhino",1,-25.11,31.87,386068.99,7222395.22
"362872",362872,1992,45,"wr","White rhino",1,-25.17,31.85,384109.01,7215733.48
"362873",362873,1992,45,"wr","White rhino",1,-25.17,31.85,384109.01,7215733.48
"362896",362896,1992,45,"wr","White rhino",2,-25.16,31.8,379059.94,7216796.99
"362900",362900,1992,45,"wr","White rhino",2,-25.19,31.77,376066.49,7213447.3
"362910",362910,1992,45,"wr","White rhino",2,-25.2,31.78,377084.22,7212349
"362913",362913,1992,45,"wr","White rhino",1,-25.18,31.79,378071.91,7214573.04
"362918",362918,1992,45,"wr","White rhino",1,-25.17,31.81,380077.65,7215698.47
"362925",362925,1992,45,"wr","White rhino",2,-25.18,31.8,379079.68,7214582.06
"362927",362927,1992,45,"wr","White rhino",4,-25.18,31.8,379079.68,7214582.06
"362928",362928,1992,45,"wr","White rhino",4,-25.19,31.8,379089.55,7213474.59
"362947",362947,1992,45,"wr","White rhino",3,-25.23,31.78,377114.36,7209026.56
"362952",362952,1992,45,"wr","White rhino",2,-25.22,31.79,378111.75,7210143.14
"362960",362960,1992,45,"wr","White rhino",2,-25.19,31.81,380097.23,7213483.54
"362967",362967,1992,45,"wr","White rhino",2,-25.19,31.82,381104.91,7213492.41
"362990",362990,1992,45,"wr","White rhino",2,-25.2,31.82,381114.62,7212384.94
"362993",362993,1992,45,"wr","White rhino",2,-25.19,31.84,383120.26,7213509.93
"363066",363066,1992,45,"wr","White rhino",2,-25.2,31.85,384137.39,7212411.11
"363099",363099,1992,57,"wr","White rhino",2,-25.18,31.65,363962.94,7214438.91
"363105",363105,1992,57,"wr","White rhino",2,-25.17,31.66,364959.72,7215556.49
"363106",363106,1992,57,"wr","White rhino",2,-25.16,31.66,364948.7,7216663.99
"363136",363136,1992,57,"wr","White rhino",5,-25.15,31.7,368969.85,7217810.98
"363137",363137,1992,57,"wr","White rhino",3,-25.16,31.72,370996.44,7216722.79
"363138",363138,1992,57,"wr","White rhino",1,-25.18,31.76,375048.6,7214545.53
"363142",363142,1992,57,"wr","White rhino",3,-25.18,31.75,374040.83,7214536.22
"363148",363148,1992,57,"wr","White rhino",3,-25.17,31.75,374030.55,7215643.7
"363151",363151,1992,57,"wr","White rhino",3,-25.17,31.74,373022.69,7215634.31
"363152",363152,1992,57,"wr","White rhino",3,-25.17,31.74,373022.69,7215634.31
"363162",363162,1992,57,"wr","White rhino",2,-25.15,31.73,371993.95,7217839.81
"363164",363164,1992,57,"wr","White rhino",3,-25.15,31.73,371993.95,7217839.81
"363166",363166,1992,57,"wr","White rhino",2,-25.16,31.74,373012.33,7216741.79
"363167",363167,1992,57,"wr","White rhino",2,-25.16,31.74,373012.33,7216741.79
"363169",363169,1992,57,"wr","White rhino",1,-25.16,31.75,374020.27,7216751.18
"363171",363171,1992,57,"wr","White rhino",2,-25.16,31.75,374020.27,7216751.18
"363174",363174,1992,57,"wr","White rhino",2,-25.17,31.78,377054.11,7215671.42
"363175",363175,1992,57,"wr","White rhino",4,-25.17,31.77,376046.26,7215662.25
"363176",363176,1992,57,"wr","White rhino",2,-25.17,31.77,376046.26,7215662.25
"363178",363178,1992,57,"wr","White rhino",2,-25.16,31.77,376036.15,7216769.73
"363188",363188,1992,57,"wr","White rhino",2,-25.11,31.71,369935.52,7222250.61
"363194",363194,1992,57,"wr","White rhino",1,-25.14,31.74,372991.62,7218956.75
"363195",363195,1992,57,"wr","White rhino",2,-25.14,31.75,373999.73,7218966.13
"363196",363196,1992,57,"wr","White rhino",2,-25.14,31.75,373999.73,7218966.13
"363197",363197,1992,57,"wr","White rhino",2,-25.15,31.75,374010,7217858.65
"363199",363199,1992,57,"wr","White rhino",2,-25.15,31.76,375018.02,7217867.97
"363204",363204,1992,57,"wr","White rhino",2,-25.15,31.78,377034.06,7217886.36
"363205",363205,1992,57,"wr","White rhino",3,-25.15,31.78,377034.06,7217886.36
"363255",363255,1992,57,"wr","White rhino",1,-25.13,31.81,380038.55,7220128.32
"363256",363256,1992,57,"wr","White rhino",2,-25.12,31.8,379020.52,7221226.84
"363259",363259,1992,57,"wr","White rhino",2,-25.11,31.79,378002.34,7222325.3
"363278",363278,1992,57,"wr","White rhino",2,-25.1,31.79,377992.41,7223432.76
"363280",363280,1992,57,"wr","White rhino",2,-25.11,31.8,379010.68,7222334.3
"363281",363281,1992,57,"wr","White rhino",1,-25.11,31.8,379010.68,7222334.3
"363282",363282,1992,57,"wr","White rhino",1,-25.12,31.81,380028.78,7221235.77
"363288",363288,1992,57,"wr","White rhino",2,-25.12,31.81,380028.78,7221235.77
"363389",363389,1992,57,"wr","White rhino",1,-25.1,31.86,385051.32,7223494.18
"363517",363517,1992,58,"wr","White rhino",2,-25.02,31.75,373876.81,7232255.74
"363538",363538,1992,58,"wr","White rhino",3,-25.06,31.76,374926.48,7227835.18
"363572",363572,1992,58,"wr","White rhino",2,-25.05,31.74,372898.65,7228924
"363573",363573,1992,58,"wr","White rhino",2,-25.05,31.74,372898.65,7228924
"363577",363577,1992,58,"wr","White rhino",1,-25.03,31.73,371869.02,7231129.51
"363578",363578,1992,58,"wr","White rhino",2,-25.04,31.73,371879.4,7230022.04
"363579",363579,1992,58,"wr","White rhino",2,-25.05,31.73,371889.8,7228914.57
"363588",363588,1992,58,"wr","White rhino",2,-25.05,31.73,371889.8,7228914.57
"363589",363589,1992,58,"wr","White rhino",4,-25.05,31.73,371889.8,7228914.57
"363590",363590,1992,58,"wr","White rhino",2,-25.05,31.73,371889.8,7228914.57
"363603",363603,1992,58,"wr","White rhino",2,-25.06,31.72,370891.43,7227797.59
"363605",363605,1992,58,"wr","White rhino",1,-25.06,31.72,370891.43,7227797.59
"363652",363652,1992,58,"wr","White rhino",2,-25.1,31.68,366899.6,7223328.86
"363668",363668,1992,58,"wr","White rhino",1,-25.06,31.66,364838.77,7227738.96
"363717",363717,1992,58,"wr","White rhino",1,-25.17,31.63,361936.06,7215526.07
"363731",363731,1992,58,"wr","White rhino",1,-25.17,31.63,361936.06,7215526.07
"363745",363745,1992,58,"wr","White rhino",3,-25.16,31.64,362932.77,7216643.79
"363759",363759,1992,58,"wr","White rhino",4,-25.16,31.65,363940.74,7216653.93
"363761",363761,1992,58,"wr","White rhino",3,-25.15,31.65,363929.64,7217761.44
"363763",363763,1992,58,"wr","White rhino",3,-25.14,31.64,362910.42,7218858.81
"363858",363858,1992,60,"wr","White rhino",2,-25.03,31.68,366823.92,7231081.25
"363890",363890,1992,60,"wr","White rhino",2,-24.99,31.71,369808.81,7235540.3
"363918",363918,1992,60,"wr","White rhino",3,-24.97,31.74,372816.26,7237783.69
"363986",363986,1992,56,"wr","White rhino",2,-25.5,31.37,336175.05,7178682.68
"363990",363990,1992,56,"wr","White rhino",1,-25.48,31.37,336147.92,7180897.97
"363995",363995,1992,56,"wr","White rhino",2,-25.48,31.38,337153.32,7180910.24
"363996",363996,1992,56,"wr","White rhino",1,-25.49,31.38,337166.8,7179802.6
"364032",364032,1992,56,"wr","White rhino",3,-25.46,31.46,345170.78,7183220.9
"364034",364034,1992,56,"wr","White rhino",1,-25.47,31.46,345183.58,7182113.29
"364120",364120,1992,56,"wr","White rhino",2,-25.45,31.35,334095.96,7184196.14
"364134",364134,1992,56,"wr","White rhino",2,-25.42,31.33,332043.03,7187494.05
"364135",364135,1992,56,"wr","White rhino",2,-25.42,31.35,334054.85,7187519.07
"364167",364167,1992,56,"wr","White rhino",2,-25.43,31.49,348149.75,7186578.22
"364199",364199,1992,56,"wr","White rhino",2,-25.41,31.43,342088.96,7188723.78
"364229",364229,1992,56,"wr","White rhino",1,-25.35,31.42,341004.42,7195357.57
"364230",364230,1992,56,"wr","White rhino",2,-25.35,31.42,341004.42,7195357.57
"364247",364247,1992,56,"wr","White rhino",4,-25.35,31.44,343017.35,7195381.19
"364249",364249,1992,56,"wr","White rhino",3,-25.35,31.44,343017.35,7195381.19
"364253",364253,1992,56,"wr","White rhino",3,-25.34,31.44,343004.43,7196488.79
"364256",364256,1992,56,"wr","White rhino",3,-25.34,31.44,343004.43,7196488.79
"364267",364267,1992,56,"wr","White rhino",2,-25.36,31.46,345043.01,7194296.92
"364274",364274,1992,56,"wr","White rhino",1,-25.39,31.48,347093.52,7190997.17
"364278",364278,1992,56,"wr","White rhino",2,-25.38,31.48,347080.92,7192104.77
"364289",364289,1992,56,"wr","White rhino",1,-25.39,31.48,347093.52,7190997.17
"364296",364296,1992,56,"wr","White rhino",2,-25.38,31.49,348087.12,7192116.17
"364318",364318,1992,56,"wr","White rhino",3,-25.4,31.54,353142.26,7189956.93
"364322",364322,1992,56,"wr","White rhino",3,-25.41,31.51,350136.57,7188816.01
"364336",364336,1992,56,"wr","White rhino",2,-25.39,31.53,352124.06,7191053.47
"364338",364338,1992,56,"wr","White rhino",2,-25.39,31.53,352124.06,7191053.47
"364339",364339,1992,56,"wr","White rhino",1,-25.39,31.54,353130.15,7191064.5
"364385",364385,1992,56,"wr","White rhino",2,-25.37,31.5,349080.88,7193235.09
"364423",364423,1992,56,"wr","White rhino",2,-25.33,31.56,355070.79,7197731.72
"364424",364424,1992,56,"wr","White rhino",2,-25.34,31.55,354076.2,7196613.29
"364444",364444,1992,56,"wr","White rhino",1,-25.33,31.54,353057.61,7197709.91
"364448",364448,1992,56,"wr","White rhino",2,-25.33,31.55,354064.2,7197720.85
"364449",364449,1992,56,"wr","White rhino",2,-25.33,31.54,353057.61,7197709.91
"364450",364450,1992,56,"wr","White rhino",1,-25.33,31.53,352051.01,7197698.9
"364451",364451,1992,56,"wr","White rhino",3,-25.33,31.53,352051.01,7197698.9
"364452",364452,1992,56,"wr","White rhino",2,-25.33,31.53,352051.01,7197698.9
"364454",364454,1992,56,"wr","White rhino",2,-25.34,31.52,351056.66,7196580.24
"364455",364455,1992,56,"wr","White rhino",2,-25.33,31.51,350037.82,7197676.65
"364456",364456,1992,56,"wr","White rhino",2,-25.33,31.52,351044.42,7197687.81
"364457",364457,1992,56,"wr","White rhino",5,-25.33,31.52,351044.42,7197687.81
"364458",364458,1992,56,"wr","White rhino",2,-25.32,31.52,351032.18,7198795.38
"364460",364460,1992,56,"wr","White rhino",2,-25.32,31.53,352038.86,7198806.47
"364461",364461,1992,56,"wr","White rhino",3,-25.32,31.54,353045.53,7198817.48
"364463",364463,1992,56,"wr","White rhino",4,-25.32,31.52,351032.18,7198795.38
"364464",364464,1992,56,"wr","White rhino",1,-25.31,31.51,350013.17,7199891.79
"364470",364470,1992,56,"wr","White rhino",2,-25.3,31.53,352014.55,7201021.6
"364476",364476,1992,56,"wr","White rhino",2,-25.3,31.52,351007.71,7201010.52
"364502",364502,1992,56,"wr","White rhino",2,-25.35,31.5,349056.04,7195450.25
"364522",364522,1992,56,"wr","White rhino",2,-25.31,31.49,347999.63,7199869.25
"364541",364541,1992,56,"wr","White rhino",2,-25.32,31.48,347005.42,7198750.29
"364556",364556,1992,56,"wr","White rhino",2,-25.31,31.48,346992.86,7199857.87
"364557",364557,1992,56,"wr","White rhino",2,-25.31,31.47,345986.08,7199846.41
"364559",364559,1992,56,"wr","White rhino",2,-25.31,31.47,345986.08,7199846.41
"364563",364563,1992,56,"wr","White rhino",3,-25.33,31.47,346011.38,7197631.24
"364645",364645,1992,46,"wr","White rhino",1,-25.28,31.93,392268.58,7203618.05
"364646",364646,1992,46,"wr","White rhino",12,-25.27,31.93,392259.75,7204725.5
"364660",364660,1992,46,"wr","White rhino",4,-25.27,31.95,394273.73,7204741.41
"364662",364662,1992,46,"wr","White rhino",3,-25.27,31.95,394273.73,7204741.41
"364663",364663,1992,46,"wr","White rhino",3,-25.28,31.95,394282.4,7203633.96
"364665",364665,1992,46,"wr","White rhino",2,-25.28,31.94,393275.49,7203626.04
"364666",364666,1992,46,"wr","White rhino",2,-25.28,31.95,394282.4,7203633.96
"364682",364682,1992,46,"wr","White rhino",2,-25.17,31.95,394187.25,7215815.79
"364684",364684,1992,46,"wr","White rhino",2,-25.18,31.95,394195.88,7214708.36
"364702",364702,1992,46,"wr","White rhino",2,-25.16,31.96,395186.51,7216931.03
"364731",364731,1992,46,"wr","White rhino",2,-25.18,31.97,396211.34,7214723.92
"364746",364746,1992,46,"wr","White rhino",2,-25.28,31.95,394282.4,7203633.96
"364749",364749,1992,46,"wr","White rhino",1,-25.27,31.96,395280.72,7204749.25
"364750",364750,1992,46,"wr","White rhino",1,-25.25,31.96,395263.56,7206964.13
"364759",364759,1992,46,"wr","White rhino",1,-25.24,31.97,396262.22,7208079.33
"364802",364802,1992,46,"wr","White rhino",2,-25.17,31.99,398218.48,7215846.61
"364810",364810,1992,46,"wr","White rhino",2,-25.2,31.99,398243.41,7212524.34
"364816",364816,1992,46,"wr","White rhino",2,-25.27,31.98,397294.69,7204764.71
"364825",364825,1992,46,"wr","White rhino",2,-25.25,31.99,398285.01,7206987.19
"364826",364826,1992,46,"wr","White rhino",2,-25.25,31.99,398285.01,7206987.19
"364833",364833,1992,46,"wr","White rhino",1,-25.23,31.99,398268.36,7209202.06
"364857",364857,1992,46,"wr","White rhino",2,-25.25,32,399292.15,7206994.73
"364893",364893,1992,46,"wr","White rhino",2,-25.21,32.02,401274.14,7211439.27
"364916",364916,1992,46,"wr","White rhino",5,-25.29,31.92,391270.59,7202502.53
"364919",364919,1992,46,"wr","White rhino",1,-25.31,31.92,391288.43,7200287.61
"364934",364934,1992,46,"wr","White rhino",2,-25.29,31.93,392277.42,7202510.6
"364956",364956,1992,46,"wr","White rhino",1,-25.3,31.94,393293,7201411.14
"364965",364965,1992,46,"wr","White rhino",2,-25.33,31.96,395332.27,7198104.57
"365000",365000,1992,46,"wr","White rhino",4,-25.29,31.98,397311.53,7202549.83
"365069",365069,1992,46,"wr","White rhino",2,-25.28,31.99,398310.01,7203664.88
"365085",365085,1992,46,"wr","White rhino",4,-25.31,32,399341.68,7200350.11
"365093",365093,1992,46,"wr","White rhino",2,-25.33,32,399358.22,7198135.23
"365160",365160,1992,46,"wr","White rhino",2,-25.38,32,399399.61,7192598
"365166",365166,1992,46,"wr","White rhino",2,-25.36,32,399383.04,7194812.9
"365170",365170,1992,46,"wr","White rhino",1,-25.35,32,399374.76,7195920.34
"365173",365173,1992,46,"wr","White rhino",1,-25.33,32,399358.22,7198135.23
